TEXEVAL                                                                         
Analysis started on 31-Aug-18 11:56:26                                          
 LMAX=16LFMAX=03 CUBIC ORTHO   
 220      5.00 5.00
 200      5.00 5.00
 111      5.00 5.00
 220       5.00   72    0 5.00   15    0
   2.335   2.335   2.335   2.335   2.335   2.335   2.335   2.335   2.335   2.335
   2.335   2.335   2.335   2.335   2.335   2.335   2.335   2.335   2.335   2.335
   2.335   2.335   2.335   2.335   2.335   2.335   2.335   2.335   2.335   2.335
   2.335   2.335   2.335   2.335   2.335   2.335   2.335   2.335   2.335   2.335
   2.335   2.335   2.335   2.335   2.335   2.335   2.335   2.335   2.335   2.335
   2.335   2.335   2.335   2.335   2.335   2.335   2.335   2.335   2.335   2.335
   2.335   2.335   2.335   2.335   2.335   2.335   2.335   2.335   2.335   2.335
   2.335   2.335
   0.964   0.949   0.855   0.999   0.760   0.894   0.967   1.199   1.420   1.331
   1.628   1.584   1.990   2.005   2.374   2.306   2.428   2.643   2.648   2.643
   2.428   2.306   2.374   2.005   1.990   1.584   1.628   1.331   1.420   1.199
   0.967   0.894   0.760   0.999   0.855   0.949   0.964   0.949   0.855   0.999
   0.760   0.894   0.967   1.199   1.420   1.331   1.628   1.584   1.990   2.005
   2.374   2.306   2.428   2.643   2.648   2.643   2.428   2.306   2.374   2.005
   1.990   1.584   1.628   1.331   1.420   1.199   0.967   0.894   0.760   0.999
   0.855   0.949
   0.177   0.255   0.289   0.422   0.279   0.297   0.409   0.521   0.771   0.801
   1.118   1.230   1.611   2.113   2.324   2.871   3.010   3.250   3.233   3.250
   3.010   2.871   2.324   2.113   1.611   1.230   1.118   0.801   0.771   0.521
   0.409   0.297   0.279   0.422   0.289   0.255   0.177   0.255   0.289   0.422
   0.279   0.297   0.409   0.521   0.771   0.801   1.118   1.230   1.611   2.113
   2.324   2.871   3.010   3.250   3.233   3.250   3.010   2.871   2.324   2.113
   1.611   1.230   1.118   0.801   0.771   0.521   0.409   0.297   0.279   0.422
   0.289   0.255
   0.067   0.081   0.126   0.261   0.139   0.163   0.280   0.323   0.405   0.552
   0.773   1.024   1.432   2.174   3.238   3.767   4.311   5.001   4.908   5.001
   4.311   3.767   3.238   2.174   1.432   1.024   0.773   0.552   0.405   0.323
   0.280   0.163   0.139   0.261   0.126   0.081   0.067   0.081   0.126   0.261
   0.139   0.163   0.280   0.323   0.405   0.552   0.773   1.024   1.432   2.174
   3.238   3.767   4.311   5.001   4.908   5.001   4.311   3.767   3.238   2.174
   1.432   1.024   0.773   0.552   0.405   0.323   0.280   0.163   0.139   0.261
   0.126   0.081
   0.067   0.086   0.106   0.128   0.113   0.174   0.208   0.285   0.272   0.357
   0.615   0.838   1.202   1.831   3.315   4.253   5.086   6.291   6.348   6.291
   5.086   4.253   3.315   1.831   1.202   0.838   0.615   0.357   0.272   0.285
   0.208   0.174   0.113   0.128   0.106   0.086   0.067   0.086   0.106   0.128
   0.113   0.174   0.208   0.285   0.272   0.357   0.615   0.838   1.202   1.831
   3.315   4.253   5.086   6.291   6.348   6.291   5.086   4.253   3.315   1.831
   1.202   0.838   0.615   0.357   0.272   0.285   0.208   0.174   0.113   0.128
   0.106   0.086
   0.071   0.093   0.119   0.054   0.126   0.253   0.167   0.270   0.260   0.373
   0.625   0.781   1.072   1.525   2.223   3.538   4.424   5.325   5.712   5.325
   4.424   3.538   2.223   1.525   1.072   0.781   0.625   0.373   0.260   0.270
   0.167   0.253   0.126   0.054   0.119   0.093   0.071   0.093   0.119   0.054
   0.126   0.253   0.167   0.270   0.260   0.373   0.625   0.781   1.072   1.525
   2.223   3.538   4.424   5.325   5.712   5.325   4.424   3.538   2.223   1.525
   1.072   0.781   0.625   0.373   0.260   0.270   0.167   0.253   0.126   0.054
   0.119   0.093
   0.084   0.121   0.192   0.087   0.128   0.231   0.124   0.234   0.304   0.345
   0.515   0.808   1.138   1.556   2.240   3.473   3.907   3.789   3.838   3.789
   3.907   3.473   2.240   1.556   1.138   0.808   0.515   0.345   0.304   0.234
   0.124   0.231   0.128   0.087   0.192   0.121   0.084   0.121   0.192   0.087
   0.128   0.231   0.124   0.234   0.304   0.345   0.515   0.808   1.138   1.556
   2.240   3.473   3.907   3.789   3.838   3.789   3.907   3.473   2.240   1.556
   1.138   0.808   0.515   0.345   0.304   0.234   0.124   0.231   0.128   0.087
   0.192   0.121
   0.346   0.319   0.300   0.252   0.113   0.153   0.130   0.212   0.302   0.372
   0.348   0.659   0.976   1.545   2.702   3.575   3.493   2.708   2.569   2.708
   3.493   3.575   2.702   1.545   0.976   0.659   0.348   0.372   0.302   0.212
   0.130   0.153   0.113   0.252   0.300   0.319   0.346   0.319   0.300   0.252
   0.113   0.153   0.130   0.212   0.302   0.372   0.348   0.659   0.976   1.545
   2.702   3.575   3.493   2.708   2.569   2.708   3.493   3.575   2.702   1.545
   0.976   0.659   0.348   0.372   0.302   0.212   0.130   0.153   0.113   0.252
   0.300   0.319
   0.835   0.942   0.491   0.344   0.280   0.216   0.251   0.255   0.324   0.349
   0.217   0.463   0.569   1.237   2.276   2.456   2.404   1.861   1.693   1.861
   2.404   2.456   2.276   1.237   0.569   0.463   0.217   0.349   0.324   0.255
   0.251   0.216   0.280   0.344   0.491   0.942   0.835   0.942   0.491   0.344
   0.280   0.216   0.251   0.255   0.324   0.349   0.217   0.463   0.569   1.237
   2.276   2.456   2.404   1.861   1.693   1.861   2.404   2.456   2.276   1.237
   0.569   0.463   0.217   0.349   0.324   0.255   0.251   0.216   0.280   0.344
   0.491   0.942
   1.291   1.464   0.867   0.580   0.656   0.450   0.379   0.273   0.304   0.262
   0.207   0.304   0.346   0.758   1.345   1.332   1.204   1.169   0.993   1.169
   1.204   1.332   1.345   0.758   0.346   0.304   0.207   0.262   0.304   0.273
   0.379   0.450   0.656   0.580   0.867   1.464   1.291   1.464   0.867   0.580
   0.656   0.450   0.379   0.273   0.304   0.262   0.207   0.304   0.346   0.758
   1.345   1.332   1.204   1.169   0.993   1.169   1.204   1.332   1.345   0.758
   0.346   0.304   0.207   0.262   0.304   0.273   0.379   0.450   0.656   0.580
   0.867   1.464
   2.372   2.654   2.003   1.212   1.058   0.774   0.494   0.334   0.193   0.195
   0.149   0.120   0.235   0.334   0.666   0.603   0.558   0.639   0.624   0.639
   0.558   0.603   0.666   0.334   0.235   0.120   0.149   0.195   0.193   0.334
   0.494   0.774   1.058   1.212   2.003   2.654   2.372   2.654   2.003   1.212
   1.058   0.774   0.494   0.334   0.193   0.195   0.149   0.120   0.235   0.334
   0.666   0.603   0.558   0.639   0.624   0.639   0.558   0.603   0.666   0.334
   0.235   0.120   0.149   0.195   0.193   0.334   0.494   0.774   1.058   1.212
   2.003   2.654
   3.999   4.385   3.190   2.020   1.410   1.043   0.925   0.494   0.306   0.222
   0.231   0.151   0.262   0.196   0.346   0.266   0.243   0.338   0.344   0.338
   0.243   0.266   0.346   0.196   0.262   0.151   0.231   0.222   0.306   0.494
   0.925   1.043   1.410   2.020   3.190   4.385   3.999   4.385   3.190   2.020
   1.410   1.043   0.925   0.494   0.306   0.222   0.231   0.151   0.262   0.196
   0.346   0.266   0.243   0.338   0.344   0.338   0.243   0.266   0.346   0.196
   0.262   0.151   0.231   0.222   0.306   0.494   0.925   1.043   1.410   2.020
   3.190   4.385
   3.366   3.728   2.950   2.495   1.945   1.413   1.397   0.939   0.634   0.271
   0.383   0.341   0.421   0.317   0.230   0.222   0.118   0.164   0.141   0.164
   0.118   0.222   0.230   0.317   0.421   0.341   0.383   0.271   0.634   0.939
   1.397   1.413   1.945   2.495   2.950   3.728   3.366   3.728   2.950   2.495
   1.945   1.413   1.397   0.939   0.634   0.271   0.383   0.341   0.421   0.317
   0.230   0.222   0.118   0.164   0.141   0.164   0.118   0.222   0.230   0.317
   0.421   0.341   0.383   0.271   0.634   0.939   1.397   1.413   1.945   2.495
   2.950   3.728
   1.565   1.813   2.177   2.137   2.296   2.038   1.552   1.569   1.218   0.576
   0.628   0.632   0.587   0.491   0.375   0.384   0.320   0.224   0.349   0.224
   0.320   0.384   0.375   0.491   0.587   0.632   0.628   0.576   1.218   1.569
   1.552   2.038   2.296   2.137   2.177   1.813   1.565   1.813   2.177   2.137
   2.296   2.038   1.552   1.569   1.218   0.576   0.628   0.632   0.587   0.491
   0.375   0.384   0.320   0.224   0.349   0.224   0.320   0.384   0.375   0.491
   0.587   0.632   0.628   0.576   1.218   1.569   1.552   2.038   2.296   2.137
   2.177   1.813
   0.712   0.903   1.330   1.055   1.403   1.677   1.082   1.597   1.558   1.440
   1.257   0.981   0.749   0.598   0.819   0.602   0.500   0.453   0.426   0.453
   0.500   0.602   0.819   0.598   0.749   0.981   1.257   1.440   1.558   1.597
   1.082   1.677   1.403   1.055   1.330   0.903   0.712   0.903   1.330   1.055
   1.403   1.677   1.082   1.597   1.558   1.440   1.257   0.981   0.749   0.598
   0.819   0.602   0.500   0.453   0.426   0.453   0.500   0.602   0.819   0.598
   0.749   0.981   1.257   1.440   1.558   1.597   1.082   1.677   1.403   1.055
   1.330   0.903
 200       5.00   72    0 5.00   15    0
   2.260   2.260   2.260   2.260   2.260   2.260   2.260   2.260   2.260   2.260
   2.260   2.260   2.260   2.260   2.260   2.260   2.260   2.260   2.260   2.260
   2.260   2.260   2.260   2.260   2.260   2.260   2.260   2.260   2.260   2.260
   2.260   2.260   2.260   2.260   2.260   2.260   2.260   2.260   2.260   2.260
   2.260   2.260   2.260   2.260   2.260   2.260   2.260   2.260   2.260   2.260
   2.260   2.260   2.260   2.260   2.260   2.260   2.260   2.260   2.260   2.260
   2.260   2.260   2.260   2.260   2.260   2.260   2.260   2.260   2.260   2.260
   2.260   2.260
   1.119   1.166   1.483   1.236   1.043   1.639   1.634   1.175   1.391   1.561
   1.105   1.438   1.563   1.460   1.832   1.548   1.699   1.843   1.516   1.843
   1.699   1.548   1.832   1.460   1.563   1.438   1.105   1.561   1.391   1.175
   1.634   1.639   1.043   1.236   1.483   1.166   1.119   1.166   1.483   1.236
   1.043   1.639   1.634   1.175   1.391   1.561   1.105   1.438   1.563   1.460
   1.832   1.548   1.699   1.843   1.516   1.843   1.699   1.548   1.832   1.460
   1.563   1.438   1.105   1.561   1.391   1.175   1.634   1.639   1.043   1.236
   1.483   1.166
   0.620   0.477   0.669   0.589   0.568   0.604   0.632   0.555   0.459   0.750
   0.581   0.797   0.672   0.616   1.083   0.715   0.766   1.096   0.493   1.096
   0.766   0.715   1.083   0.616   0.672   0.797   0.581   0.750   0.459   0.555
   0.632   0.604   0.568   0.589   0.669   0.477   0.620   0.477   0.669   0.589
   0.568   0.604   0.632   0.555   0.459   0.750   0.581   0.797   0.672   0.616
   1.083   0.715   0.766   1.096   0.493   1.096   0.766   0.715   1.083   0.616
   0.672   0.797   0.581   0.750   0.459   0.555   0.632   0.604   0.568   0.589
   0.669   0.477
   0.348   0.344   0.351   0.511   0.386   0.373   0.488   0.505   0.398   0.452
   0.299   0.562   0.311   0.348   0.425   0.638   0.485   0.441   0.527   0.441
   0.485   0.638   0.425   0.348   0.311   0.562   0.299   0.452   0.398   0.505
   0.488   0.373   0.386   0.511   0.351   0.344   0.348   0.344   0.351   0.511
   0.386   0.373   0.488   0.505   0.398   0.452   0.299   0.562   0.311   0.348
   0.425   0.638   0.485   0.441   0.527   0.441   0.485   0.638   0.425   0.348
   0.311   0.562   0.299   0.452   0.398   0.505   0.488   0.373   0.386   0.511
   0.351   0.344
   0.661   0.638   0.618   0.737   0.650   0.701   0.669   0.605   0.456   0.435
   0.315   0.393   0.277   0.295   0.240   0.461   0.503   0.295   0.465   0.295
   0.503   0.461   0.240   0.295   0.277   0.393   0.315   0.435   0.456   0.605
   0.669   0.701   0.650   0.737   0.618   0.638   0.661   0.638   0.618   0.737
   0.650   0.701   0.669   0.605   0.456   0.435   0.315   0.393   0.277   0.295
   0.240   0.461   0.503   0.295   0.465   0.295   0.503   0.461   0.240   0.295
   0.277   0.393   0.315   0.435   0.456   0.605   0.669   0.701   0.650   0.737
   0.618   0.638
   2.440   2.344   2.316   2.486   2.716   2.201   1.955   1.324   0.893   0.556
   0.437   0.323   0.293   0.348   0.247   0.233   0.483   0.335   0.407   0.335
   0.483   0.233   0.247   0.348   0.293   0.323   0.437   0.556   0.893   1.324
   1.955   2.201   2.716   2.486   2.316   2.344   2.440   2.344   2.316   2.486
   2.716   2.201   1.955   1.324   0.893   0.556   0.437   0.323   0.293   0.348
   0.247   0.233   0.483   0.335   0.407   0.335   0.483   0.233   0.247   0.348
   0.293   0.323   0.437   0.556   0.893   1.324   1.955   2.201   2.716   2.486
   2.316   2.344
   3.248   3.145   3.551   4.208   5.066   4.765   4.225   2.894   2.052   1.068
   0.655   0.375   0.333   0.343   0.259   0.304   0.422   0.434   0.538   0.434
   0.422   0.304   0.259   0.343   0.333   0.375   0.655   1.068   2.052   2.894
   4.225   4.765   5.066   4.208   3.551   3.145   3.248   3.145   3.551   4.208
   5.066   4.765   4.225   2.894   2.052   1.068   0.655   0.375   0.333   0.343
   0.259   0.304   0.422   0.434   0.538   0.434   0.422   0.304   0.259   0.343
   0.333   0.375   0.655   1.068   2.052   2.894   4.225   4.765   5.066   4.208
   3.551   3.145
   1.479   1.579   2.063   2.590   3.707   4.260   4.022   3.115   2.427   1.400
   0.880   0.594   0.420   0.293   0.449   0.413   0.499   0.498   0.568   0.498
   0.499   0.413   0.449   0.293   0.420   0.594   0.880   1.400   2.427   3.115
   4.022   4.260   3.707   2.590   2.063   1.579   1.479   1.579   2.063   2.590
   3.707   4.260   4.022   3.115   2.427   1.400   0.880   0.594   0.420   0.293
   0.449   0.413   0.499   0.498   0.568   0.498   0.499   0.413   0.449   0.293
   0.420   0.594   0.880   1.400   2.427   3.115   4.022   4.260   3.707   2.590
   2.063   1.579
   0.285   0.369   0.461   0.503   1.050   1.450   1.601   1.619   1.355   0.967
   0.698   0.670   0.413   0.319   0.501   0.477   0.538   0.656   0.647   0.656
   0.538   0.477   0.501   0.319   0.413   0.670   0.698   0.967   1.355   1.619
   1.601   1.450   1.050   0.503   0.461   0.369   0.285   0.369   0.461   0.503
   1.050   1.450   1.601   1.619   1.355   0.967   0.698   0.670   0.413   0.319
   0.501   0.477   0.538   0.656   0.647   0.656   0.538   0.477   0.501   0.319
   0.413   0.670   0.698   0.967   1.355   1.619   1.601   1.450   1.050   0.503
   0.461   0.369
   0.147   0.083   0.141   0.166   0.242   0.338   0.489   0.530   0.474   0.545
   0.506   0.676   0.680   0.612   0.555   0.519   0.527   0.671   0.809   0.671
   0.527   0.519   0.555   0.612   0.680   0.676   0.506   0.545   0.474   0.530
   0.489   0.338   0.242   0.166   0.141   0.083   0.147   0.083   0.141   0.166
   0.242   0.338   0.489   0.530   0.474   0.545   0.506   0.676   0.680   0.612
   0.555   0.519   0.527   0.671   0.809   0.671   0.527   0.519   0.555   0.612
   0.680   0.676   0.506   0.545   0.474   0.530   0.489   0.338   0.242   0.166
   0.141   0.083
   0.047   0.032   0.114   0.077   0.207   0.201   0.263   0.241   0.250   0.558
   0.568   1.057   1.611   1.321   0.964   0.475   0.520   0.580   0.682   0.580
   0.520   0.475   0.964   1.321   1.611   1.057   0.568   0.558   0.250   0.241
   0.263   0.201   0.207   0.077   0.114   0.032   0.047   0.032   0.114   0.077
   0.207   0.201   0.263   0.241   0.250   0.558   0.568   1.057   1.611   1.321
   0.964   0.475   0.520   0.580   0.682   0.580   0.520   0.475   0.964   1.321
   1.611   1.057   0.568   0.558   0.250   0.241   0.263   0.201   0.207   0.077
   0.114   0.032
   0.114   0.165   0.103   0.108   0.226   0.123   0.170   0.215   0.291   0.671
   1.072   2.178   3.093   2.215   1.303   0.449   0.598   0.521   0.585   0.521
   0.598   0.449   1.303   2.215   3.093   2.178   1.072   0.671   0.291   0.215
   0.170   0.123   0.226   0.108   0.103   0.165   0.114   0.165   0.103   0.108
   0.226   0.123   0.170   0.215   0.291   0.671   1.072   2.178   3.093   2.215
   1.303   0.449   0.598   0.521   0.585   0.521   0.598   0.449   1.303   2.215
   3.093   2.178   1.072   0.671   0.291   0.215   0.170   0.123   0.226   0.108
   0.103   0.165
   0.190   0.216   0.136   0.242   0.314   0.363   0.263   0.393   0.537   0.974
   2.162   3.093   3.445   2.068   1.334   0.527   0.594   0.507   0.604   0.507
   0.594   0.527   1.334   2.068   3.445   3.093   2.162   0.974   0.537   0.393
   0.263   0.363   0.314   0.242   0.136   0.216   0.190   0.216   0.136   0.242
   0.314   0.363   0.263   0.393   0.537   0.974   2.162   3.093   3.445   2.068
   1.334   0.527   0.594   0.507   0.604   0.507   0.594   0.527   1.334   2.068
   3.445   3.093   2.162   0.974   0.537   0.393   0.263   0.363   0.314   0.242
   0.136   0.216
   0.208   0.133   0.168   0.317   0.577   0.731   0.790   0.994   1.647   2.441
   2.935   2.806   2.009   1.217   1.272   0.589   0.553   0.645   0.447   0.645
   0.553   0.589   1.272   1.217   2.009   2.806   2.935   2.441   1.647   0.994
   0.790   0.731   0.577   0.317   0.168   0.133   0.208   0.133   0.168   0.317
   0.577   0.731   0.790   0.994   1.647   2.441   2.935   2.806   2.009   1.217
   1.272   0.589   0.553   0.645   0.447   0.645   0.553   0.589   1.272   1.217
   2.009   2.806   2.935   2.441   1.647   0.994   0.790   0.731   0.577   0.317
   0.168   0.133
   0.147   0.285   0.417   0.467   0.749   0.772   1.457   2.312   3.108   3.529
   2.665   1.851   0.990   0.767   0.915   0.739   0.629   0.597   0.751   0.597
   0.629   0.739   0.915   0.767   0.990   1.851   2.665   3.529   3.108   2.312
   1.457   0.772   0.749   0.467   0.417   0.285   0.147   0.285   0.417   0.467
   0.749   0.772   1.457   2.312   3.108   3.529   2.665   1.851   0.990   0.767
   0.915   0.739   0.629   0.597   0.751   0.597   0.629   0.739   0.915   0.767
   0.990   1.851   2.665   3.529   3.108   2.312   1.457   0.772   0.749   0.467
   0.417   0.285
 111       5.00   72    0 5.00   15    0
   0.021   0.021   0.021   0.021   0.021   0.021   0.021   0.021   0.021   0.021
   0.021   0.021   0.021   0.021   0.021   0.021   0.021   0.021   0.021   0.021
   0.021   0.021   0.021   0.021   0.021   0.021   0.021   0.021   0.021   0.021
   0.021   0.021   0.021   0.021   0.021   0.021   0.021   0.021   0.021   0.021
   0.021   0.021   0.021   0.021   0.021   0.021   0.021   0.021   0.021   0.021
   0.021   0.021   0.021   0.021   0.021   0.021   0.021   0.021   0.021   0.021
   0.021   0.021   0.021   0.021   0.021   0.021   0.021   0.021   0.021   0.021
   0.021   0.021
   0.027   0.032   0.051   0.040   0.057   0.034   0.047   0.044   0.030   0.031
   0.028   0.029   0.037   0.011   0.024   0.035   0.021   0.018   0.064   0.018
   0.021   0.035   0.024   0.011   0.037   0.029   0.028   0.031   0.030   0.044
   0.047   0.034   0.057   0.040   0.051   0.032   0.027   0.032   0.051   0.040
   0.057   0.034   0.047   0.044   0.030   0.031   0.028   0.029   0.037   0.011
   0.024   0.035   0.021   0.018   0.064   0.018   0.021   0.035   0.024   0.011
   0.037   0.029   0.028   0.031   0.030   0.044   0.047   0.034   0.057   0.040
   0.051   0.032
   0.184   0.263   0.241   0.242   0.243   0.231   0.087   0.059   0.058   0.053
   0.062   0.054   0.041   0.030   0.031   0.019   0.024   0.008   0.050   0.008
   0.024   0.019   0.031   0.030   0.041   0.054   0.062   0.053   0.058   0.059
   0.087   0.231   0.243   0.242   0.241   0.263   0.184   0.263   0.241   0.242
   0.243   0.231   0.087   0.059   0.058   0.053   0.062   0.054   0.041   0.030
   0.031   0.019   0.024   0.008   0.050   0.008   0.024   0.019   0.031   0.030
   0.041   0.054   0.062   0.053   0.058   0.059   0.087   0.231   0.243   0.242
   0.241   0.263
   2.676   2.502   2.414   1.612   1.312   0.868   0.471   0.472   0.145   0.080
   0.086   0.055   0.023   0.069   0.027   0.009   0.007   0.007   0.007   0.007
   0.007   0.009   0.027   0.069   0.023   0.055   0.086   0.080   0.145   0.472
   0.471   0.868   1.312   1.612   2.414   2.502   2.676   2.502   2.414   1.612
   1.312   0.868   0.471   0.472   0.145   0.080   0.086   0.055   0.023   0.069
   0.027   0.009   0.007   0.007   0.007   0.007   0.007   0.009   0.027   0.069
   0.023   0.055   0.086   0.080   0.145   0.472   0.471   0.868   1.312   1.612
   2.414   2.502
   7.688   7.200   6.258   4.570   3.494   2.223   1.220   1.112   0.420   0.193
   0.103   0.050   0.069   0.044   0.000   0.003   0.000   0.007   0.000   0.007
   0.000   0.003   0.000   0.044   0.069   0.050   0.103   0.193   0.420   1.112
   1.220   2.223   3.494   4.570   6.258   7.200   7.688   7.200   6.258   4.570
   3.494   2.223   1.220   1.112   0.420   0.193   0.103   0.050   0.069   0.044
   0.000   0.003   0.000   0.007   0.000   0.007   0.000   0.003   0.000   0.044
   0.069   0.050   0.103   0.193   0.420   1.112   1.220   2.223   3.494   4.570
   6.258   7.200
   6.971   6.534   5.627   4.601   3.522   2.508   1.597   1.316   0.747   0.519
   0.262   0.145   0.168   0.070   0.030   0.000   0.005   0.012   0.040   0.012
   0.005   0.000   0.030   0.070   0.168   0.145   0.262   0.519   0.747   1.316
   1.597   2.508   3.522   4.601   5.627   6.534   6.971   6.534   5.627   4.601
   3.522   2.508   1.597   1.316   0.747   0.519   0.262   0.145   0.168   0.070
   0.030   0.000   0.005   0.012   0.040   0.012   0.005   0.000   0.030   0.070
   0.168   0.145   0.262   0.519   0.747   1.316   1.597   2.508   3.522   4.601
   5.627   6.534
   2.694   2.672   2.538   2.278   2.101   1.553   1.357   1.019   0.757   0.617
   0.449   0.381   0.243   0.196   0.148   0.033   0.063   0.075   0.078   0.075
   0.063   0.033   0.148   0.196   0.243   0.381   0.449   0.617   0.757   1.019
   1.357   1.553   2.101   2.278   2.538   2.672   2.694   2.672   2.538   2.278
   2.101   1.553   1.357   1.019   0.757   0.617   0.449   0.381   0.243   0.196
   0.148   0.033   0.063   0.075   0.078   0.075   0.063   0.033   0.148   0.196
   0.243   0.381   0.449   0.617   0.757   1.019   1.357   1.553   2.101   2.278
   2.538   2.672
   1.222   1.544   1.362   1.339   1.648   1.098   1.027   0.939   0.838   0.705
   0.623   0.576   0.296   0.246   0.191   0.099   0.116   0.149   0.150   0.149
   0.116   0.099   0.191   0.246   0.296   0.576   0.623   0.705   0.838   0.939
   1.027   1.098   1.648   1.339   1.362   1.544   1.222   1.544   1.362   1.339
   1.648   1.098   1.027   0.939   0.838   0.705   0.623   0.576   0.296   0.246
   0.191   0.099   0.116   0.149   0.150   0.149   0.116   0.099   0.191   0.246
   0.296   0.576   0.623   0.705   0.838   0.939   1.027   1.098   1.648   1.339
   1.362   1.544
   0.408   0.563   0.588   0.702   0.875   0.831   0.890   1.377   1.364   1.290
   1.161   0.862   0.580   0.320   0.255   0.205   0.204   0.175   0.185   0.175
   0.204   0.205   0.255   0.320   0.580   0.862   1.161   1.290   1.364   1.377
   0.890   0.831   0.875   0.702   0.588   0.563   0.408   0.563   0.588   0.702
   0.875   0.831   0.890   1.377   1.364   1.290   1.161   0.862   0.580   0.320
   0.255   0.205   0.204   0.175   0.185   0.175   0.204   0.205   0.255   0.320
   0.580   0.862   1.161   1.290   1.364   1.377   0.890   0.831   0.875   0.702
   0.588   0.563
   0.160   0.131   0.212   0.301   0.251   0.579   0.807   1.480   2.198   2.474
   2.356   1.908   1.257   0.712   0.431   0.340   0.377   0.221   0.267   0.221
   0.377   0.340   0.431   0.712   1.257   1.908   2.356   2.474   2.198   1.480
   0.807   0.579   0.251   0.301   0.212   0.131   0.160   0.131   0.212   0.301
   0.251   0.579   0.807   1.480   2.198   2.474   2.356   1.908   1.257   0.712
   0.431   0.340   0.377   0.221   0.267   0.221   0.377   0.340   0.431   0.712
   1.257   1.908   2.356   2.474   2.198   1.480   0.807   0.579   0.251   0.301
   0.212   0.131
   0.092   0.076   0.040   0.115   0.091   0.359   0.591   1.128   2.283   3.370
   3.693   3.453   2.359   1.743   0.896   0.564   0.547   0.523   0.505   0.523
   0.547   0.564   0.896   1.743   2.359   3.453   3.693   3.370   2.283   1.128
   0.591   0.359   0.091   0.115   0.040   0.076   0.092   0.076   0.040   0.115
   0.091   0.359   0.591   1.128   2.283   3.370   3.693   3.453   2.359   1.743
   0.896   0.564   0.547   0.523   0.505   0.523   0.547   0.564   0.896   1.743
   2.359   3.453   3.693   3.370   2.283   1.128   0.591   0.359   0.091   0.115
   0.040   0.076
   0.016   0.058   0.014   0.082   0.069   0.282   0.439   0.755   1.613   2.603
   3.248   3.051   2.547   2.477   2.121   1.211   0.964   1.118   0.848   1.118
   0.964   1.211   2.121   2.477   2.547   3.051   3.248   2.603   1.613   0.755
   0.439   0.282   0.069   0.082   0.014   0.058   0.016   0.058   0.014   0.082
   0.069   0.282   0.439   0.755   1.613   2.603   3.248   3.051   2.547   2.477
   2.121   1.211   0.964   1.118   0.848   1.118   0.964   1.211   2.121   2.477
   2.547   3.051   3.248   2.603   1.613   0.755   0.439   0.282   0.069   0.082
   0.014   0.058
   0.023   0.086   0.014   0.125   0.060   0.227   0.341   0.476   0.991   1.325
   1.464   1.330   1.365   1.840   2.572   2.191   1.986   1.751   1.602   1.751
   1.986   2.191   2.572   1.840   1.365   1.330   1.464   1.325   0.991   0.476
   0.341   0.227   0.060   0.125   0.014   0.086   0.023   0.086   0.014   0.125
   0.060   0.227   0.341   0.476   0.991   1.325   1.464   1.330   1.365   1.840
   2.572   2.191   1.986   1.751   1.602   1.751   1.986   2.191   2.572   1.840
   1.365   1.330   1.464   1.325   0.991   0.476   0.341   0.227   0.060   0.125
   0.014   0.086
   0.167   0.155   0.049   0.137   0.098   0.111   0.199   0.353   0.546   0.745
   0.602   0.758   0.534   0.915   1.439   2.249   2.925   2.644   2.347   2.644
   2.925   2.249   1.439   0.915   0.534   0.758   0.602   0.745   0.546   0.353
   0.199   0.111   0.098   0.137   0.049   0.155   0.167   0.155   0.049   0.137
   0.098   0.111   0.199   0.353   0.546   0.745   0.602   0.758   0.534   0.915
   1.439   2.249   2.925   2.644   2.347   2.644   2.925   2.249   1.439   0.915
   0.534   0.758   0.602   0.745   0.546   0.353   0.199   0.111   0.098   0.137
   0.049   0.155
   0.248   0.179   0.095   0.132   0.166   0.215   0.170   0.261   0.313   0.505
   0.453   0.483   0.351   0.532   0.630   1.234   2.345   2.952   2.258   2.952
   2.345   1.234   0.630   0.532   0.351   0.483   0.453   0.505   0.313   0.261
   0.170   0.215   0.166   0.132   0.095   0.179   0.248   0.179   0.095   0.132
   0.166   0.215   0.170   0.261   0.313   0.505   0.453   0.483   0.351   0.532
   0.630   1.234   2.345   2.952   2.258   2.952   2.345   1.234   0.630   0.532
   0.351   0.483   0.453   0.505   0.313   0.261   0.170   0.215   0.166   0.132
   0.095   0.179
  4  1      1.4350917E-01
  4  2      3.0432986E-01
  4  3     -7.8583625E-01
  6  1      6.8415901E-01
  6  2     -4.6559253E+00
  6  3      2.0084324E+00
  6  4     -2.7475203E-01
  8  1     -8.3745265E-01
  8  2     -2.6755169E-01
  8  3      1.4605067E+00
  8  4      6.7623172E-01
  8  5      9.7261174E-01
 10  1     -2.1972858E+00
 10  2      1.7007637E+00
 10  3      2.1851610E+00
 10  4      1.0323179E+00
 10  5      7.3355489E-01
 10  6     -4.9494406E-01
 12  1      1.0055523E+00  1.3228320E+00
 12  2     -4.4303893E-01 -1.7410375E+00
 12  3      3.9732954E-01  2.6177576E+00
 12  4     -1.4282455E+00 -2.0352529E+00
 12  5     -7.9355608E-01  1.1894398E-02
 12  6     -7.8578457E-01 -6.9579557E-02
 12  7      1.7791343E-01 -1.3795917E-01
 14  1     -4.5548243E-01
 14  2      4.0115629E-01
 14  3      3.3541977E-01
 14  4     -9.3103791E-01
 14  5     -6.4263400E-01
 14  6      5.5069479E-01
 14  7      1.4709180E-01
 14  8     -9.4317591E-02
 16  1     -1.1743784E-02 -9.8777650E-01
 16  2     -6.6497486E-02  1.5316815E+00
 16  3      9.1130322E-01 -1.3984725E+00
 16  4     -7.0938084E-02 -1.1491814E+00
 16  5     -1.1909506E+00  5.4945369E-01
 16  6      6.0429999E-01  2.1974497E-01
 16  7      7.5533117E-01  4.1534421E-01
 16  8      9.5191941E-02 -2.8436742E-01
 16  9      2.0710653E-01  1.4103059E-01
 220       5.00   72    0 5.00   18    0
   1.084   1.085   1.088   1.092   1.098   1.105   1.114   1.123   1.134   1.144
   1.155   1.165   1.175   1.184   1.192   1.198   1.203   1.206   1.206   1.206
   1.203   1.198   1.192   1.184   1.175   1.165   1.155   1.144   1.134   1.123
   1.114   1.105   1.098   1.092   1.088   1.085   1.084   1.085   1.088   1.092
   1.098   1.105   1.114   1.123   1.134   1.144   1.155   1.165   1.175   1.184
   1.192   1.198   1.203   1.206   1.206   1.206   1.203   1.198   1.192   1.184
   1.175   1.165   1.155   1.144   1.134   1.123   1.114   1.105   1.098   1.092
   1.088   1.085
   0.685   0.690   0.706   0.731   0.767   0.814   0.872   0.939   1.017   1.102
   1.192   1.285   1.377   1.465   1.544   1.610   1.660   1.691   1.702   1.691
   1.660   1.610   1.544   1.465   1.377   1.285   1.192   1.102   1.017   0.939
   0.872   0.814   0.767   0.731   0.706   0.690   0.685   0.690   0.706   0.731
   0.767   0.814   0.872   0.939   1.017   1.102   1.192   1.285   1.377   1.465
   1.544   1.610   1.660   1.691   1.702   1.691   1.660   1.610   1.544   1.465
   1.377   1.285   1.192   1.102   1.017   0.939   0.872   0.814   0.767   0.731
   0.706   0.690
   0.175   0.179   0.191   0.214   0.252   0.309   0.393   0.507   0.655   0.838
   1.055   1.297   1.556   1.816   2.061   2.274   2.439   2.544   2.580   2.544
   2.439   2.274   2.061   1.816   1.556   1.297   1.055   0.838   0.655   0.507
   0.393   0.309   0.252   0.214   0.191   0.179   0.175   0.179   0.191   0.214
   0.252   0.309   0.393   0.507   0.655   0.838   1.055   1.297   1.556   1.816
   2.061   2.274   2.439   2.544   2.580   2.544   2.439   2.274   2.061   1.816
   1.556   1.297   1.055   0.838   0.655   0.507   0.393   0.309   0.252   0.214
   0.191   0.179
  -0.130  -0.133  -0.141  -0.152  -0.159  -0.151  -0.115  -0.032   0.116   0.344
   0.658   1.052   1.508   1.995   2.475   2.906   3.247   3.466   3.541   3.466
   3.247   2.906   2.475   1.995   1.508   1.052   0.658   0.344   0.116  -0.032
  -0.115  -0.151  -0.159  -0.152  -0.141  -0.133  -0.130  -0.133  -0.141  -0.152
  -0.159  -0.151  -0.115  -0.032   0.116   0.344   0.658   1.052   1.508   1.995
   2.475   2.906   3.247   3.466   3.541   3.466   3.247   2.906   2.475   1.995
   1.508   1.052   0.658   0.344   0.116  -0.032  -0.115  -0.151  -0.159  -0.152
  -0.141  -0.133
  -0.159  -0.158  -0.159  -0.170  -0.199  -0.245  -0.293  -0.311  -0.258  -0.091
   0.220   0.680   1.268   1.934   2.613   3.233   3.728   4.046   4.156   4.046
   3.728   3.233   2.613   1.934   1.268   0.680   0.220  -0.091  -0.258  -0.311
  -0.293  -0.245  -0.199  -0.170  -0.159  -0.158  -0.159  -0.158  -0.159  -0.170
  -0.199  -0.245  -0.293  -0.311  -0.258  -0.091   0.220   0.680   1.268   1.934
   2.613   3.233   3.728   4.046   4.156   4.046   3.728   3.233   2.613   1.934
   1.268   0.680   0.220  -0.091  -0.258  -0.311  -0.293  -0.245  -0.199  -0.170
  -0.159  -0.158
  -0.096  -0.071  -0.006   0.064   0.101   0.075  -0.016  -0.138  -0.222  -0.190
   0.023   0.442   1.043   1.759   2.496   3.165   3.689   4.021   4.134   4.021
   3.689   3.165   2.496   1.759   1.043   0.442   0.023  -0.190  -0.222  -0.138
  -0.016   0.075   0.101   0.064  -0.006  -0.071  -0.096  -0.071  -0.006   0.064
   0.101   0.075  -0.016  -0.138  -0.222  -0.190   0.023   0.442   1.043   1.759
   2.496   3.165   3.689   4.021   4.134   4.021   3.689   3.165   2.496   1.759
   1.043   0.442   0.023  -0.190  -0.222  -0.138  -0.016   0.075   0.101   0.064
  -0.006  -0.071
  -0.086  -0.040   0.084   0.247   0.389   0.450   0.395   0.245   0.073  -0.009
   0.096   0.431   0.968   1.615   2.262   2.814   3.217   3.455   3.532   3.455
   3.217   2.814   2.262   1.615   0.968   0.431   0.096  -0.009   0.073   0.245
   0.395   0.450   0.389   0.247   0.084  -0.040  -0.086  -0.040   0.084   0.247
   0.389   0.450   0.395   0.245   0.073  -0.009   0.096   0.431   0.968   1.615
   2.262   2.814   3.217   3.455   3.532   3.455   3.217   2.814   2.262   1.615
   0.968   0.431   0.096  -0.009   0.073   0.245   0.395   0.450   0.389   0.247
   0.084  -0.040
   0.046   0.061   0.117   0.225   0.369   0.492   0.525   0.441   0.290   0.184
   0.241   0.514   0.966   1.491   1.972   2.329   2.547   2.651   2.681   2.651
   2.547   2.329   1.972   1.491   0.966   0.514   0.241   0.184   0.290   0.441
   0.525   0.492   0.369   0.225   0.117   0.061   0.046   0.061   0.117   0.225
   0.369   0.492   0.525   0.441   0.290   0.184   0.241   0.514   0.966   1.491
   1.972   2.329   2.547   2.651   2.681   2.651   2.547   2.329   1.972   1.491
   0.966   0.514   0.241   0.184   0.290   0.441   0.525   0.492   0.369   0.225
   0.117   0.061
   0.692   0.604   0.405   0.232   0.188   0.264   0.361   0.381   0.313   0.247
   0.296   0.517   0.869   1.250   1.563   1.762   1.859   1.893   1.899   1.893
   1.859   1.762   1.563   1.250   0.869   0.517   0.296   0.247   0.313   0.381
   0.361   0.264   0.188   0.232   0.405   0.604   0.692   0.604   0.405   0.232
   0.188   0.264   0.361   0.381   0.313   0.247   0.296   0.517   0.869   1.250
   1.563   1.762   1.859   1.893   1.899   1.893   1.859   1.762   1.563   1.250
   0.869   0.517   0.296   0.247   0.313   0.381   0.361   0.264   0.188   0.232
   0.405   0.604
   1.987   1.770   1.240   0.680   0.329   0.243   0.300   0.342   0.303   0.242
   0.259   0.400   0.621   0.842   1.012   1.131   1.223   1.290   1.316   1.290
   1.223   1.131   1.012   0.842   0.621   0.400   0.259   0.242   0.303   0.342
   0.300   0.243   0.329   0.680   1.240   1.770   1.987   1.770   1.240   0.680
   0.329   0.243   0.300   0.342   0.303   0.242   0.259   0.400   0.621   0.842
   1.012   1.131   1.223   1.290   1.316   1.290   1.223   1.131   1.012   0.842
   0.621   0.400   0.259   0.242   0.303   0.342   0.300   0.243   0.329   0.680
   1.240   1.770
   3.453   3.161   2.438   1.630   1.040   0.752   0.645   0.554   0.411   0.270
   0.214   0.259   0.349   0.423   0.479   0.563   0.698   0.838   0.899   0.838
   0.698   0.563   0.479   0.423   0.349   0.259   0.214   0.270   0.411   0.554
   0.645   0.752   1.040   1.630   2.438   3.161   3.453   3.161   2.438   1.630
   1.040   0.752   0.645   0.554   0.411   0.270   0.214   0.259   0.349   0.423
   0.479   0.563   0.698   0.838   0.899   0.838   0.698   0.563   0.479   0.423
   0.349   0.259   0.214   0.270   0.411   0.554   0.645   0.752   1.040   1.630
   2.438   3.161
   4.209   3.954   3.314   2.571   1.962   1.549   1.244   0.947   0.640   0.389
   0.253   0.224   0.233   0.224   0.210   0.253   0.377   0.524   0.590   0.524
   0.377   0.253   0.210   0.224   0.233   0.224   0.253   0.389   0.640   0.947
   1.244   1.549   1.962   2.571   3.314   3.954   4.209   3.954   3.314   2.571
   1.962   1.549   1.244   0.947   0.640   0.389   0.253   0.224   0.233   0.224
   0.210   0.253   0.377   0.524   0.590   0.524   0.377   0.253   0.210   0.224
   0.233   0.224   0.253   0.389   0.640   0.947   1.244   1.549   1.962   2.571
   3.314   3.954
   3.685   3.554   3.220   2.808   2.411   2.045   1.685   1.316   0.963   0.672
   0.477   0.378   0.339   0.315   0.289   0.280   0.309   0.361   0.386   0.361
   0.309   0.280   0.289   0.315   0.339   0.378   0.477   0.672   0.963   1.316
   1.685   2.045   2.411   2.808   3.220   3.554   3.685   3.554   3.220   2.808
   2.411   2.045   1.685   1.316   0.963   0.672   0.477   0.378   0.339   0.315
   0.289   0.280   0.309   0.361   0.386   0.361   0.309   0.280   0.289   0.315
   0.339   0.378   0.477   0.672   0.963   1.316   1.685   2.045   2.411   2.808
   3.220   3.554
   2.159   2.160   2.157   2.128   2.043   1.893   1.711   1.535   1.361   1.152
   0.909   0.695   0.580   0.560   0.565   0.531   0.457   0.387   0.358   0.387
   0.457   0.531   0.565   0.560   0.580   0.695   0.909   1.152   1.361   1.535
   1.711   1.893   2.043   2.128   2.157   2.160   2.159   2.160   2.157   2.128
   2.043   1.893   1.711   1.535   1.361   1.152   0.909   0.695   0.580   0.560
   0.565   0.531   0.457   0.387   0.358   0.387   0.457   0.531   0.565   0.560
   0.580   0.695   0.909   1.152   1.361   1.535   1.711   1.893   2.043   2.128
   2.157   2.160
   0.581   0.649   0.822   1.021   1.171   1.269   1.383   1.549   1.682   1.634
   1.369   1.031   0.815   0.782   0.830   0.831   0.752   0.655   0.613   0.655
   0.752   0.831   0.830   0.782   0.815   1.031   1.369   1.634   1.682   1.549
   1.383   1.269   1.171   1.021   0.822   0.649   0.581   0.649   0.822   1.021
   1.171   1.269   1.383   1.549   1.682   1.634   1.369   1.031   0.815   0.782
   0.830   0.831   0.752   0.655   0.613   0.655   0.752   0.831   0.830   0.782
   0.815   1.031   1.369   1.634   1.682   1.549   1.383   1.269   1.171   1.021
   0.822   0.649
  -0.203  -0.146   0.010   0.215   0.416   0.623   0.911   1.304   1.663   1.772
   1.562   1.207   0.959   0.920   1.005   1.093   1.144   1.173   1.184   1.173
   1.144   1.093   1.005   0.920   0.959   1.207   1.562   1.772   1.663   1.304
   0.911   0.623   0.416   0.215   0.010  -0.146  -0.203  -0.146   0.010   0.215
   0.416   0.623   0.911   1.304   1.663   1.772   1.562   1.207   0.959   0.920
   1.005   1.093   1.144   1.173   1.184   1.173   1.144   1.093   1.005   0.920
   0.959   1.207   1.562   1.772   1.663   1.304   0.911   0.623   0.416   0.215
   0.010  -0.146
  -0.105  -0.099  -0.065   0.010   0.112   0.247   0.485   0.862   1.261   1.470
   1.398   1.174   1.012   1.005   1.119   1.308   1.556   1.796   1.900   1.796
   1.556   1.308   1.119   1.005   1.012   1.174   1.398   1.470   1.261   0.862
   0.485   0.247   0.112   0.010  -0.065  -0.099  -0.105  -0.099  -0.065   0.010
   0.112   0.247   0.485   0.862   1.261   1.470   1.398   1.174   1.012   1.005
   1.119   1.308   1.556   1.796   1.900   1.796   1.556   1.308   1.119   1.005
   1.012   1.174   1.398   1.470   1.261   0.862   0.485   0.247   0.112   0.010
  -0.065  -0.099
   0.260   0.225   0.158   0.116   0.106   0.125   0.234   0.496   0.842   1.094
   1.146   1.072   1.019   1.056   1.188   1.443   1.834   2.234   2.409   2.234
   1.834   1.443   1.188   1.056   1.019   1.072   1.146   1.094   0.842   0.496
   0.234   0.125   0.106   0.116   0.158   0.225   0.260   0.225   0.158   0.116
   0.106   0.125   0.234   0.496   0.842   1.094   1.146   1.072   1.019   1.056
   1.188   1.443   1.834   2.234   2.409   2.234   1.834   1.443   1.188   1.056
   1.019   1.072   1.146   1.094   0.842   0.496   0.234   0.125   0.106   0.116
   0.158   0.225
 200       5.00   72    0 5.00   18    0
   1.942   1.943   1.943   1.944   1.946   1.948   1.950   1.953   1.955   1.958
   1.961   1.964   1.967   1.969   1.971   1.973   1.974   1.975   1.975   1.975
   1.974   1.973   1.971   1.969   1.967   1.964   1.961   1.958   1.955   1.953
   1.950   1.948   1.946   1.944   1.943   1.943   1.942   1.943   1.943   1.944
   1.946   1.948   1.950   1.953   1.955   1.958   1.961   1.964   1.967   1.969
   1.971   1.973   1.974   1.975   1.975   1.975   1.974   1.973   1.971   1.969
   1.967   1.964   1.961   1.958   1.955   1.953   1.950   1.948   1.946   1.944
   1.943   1.943
   1.306   1.308   1.312   1.319   1.328   1.341   1.356   1.374   1.395   1.418
   1.443   1.469   1.495   1.520   1.543   1.563   1.578   1.587   1.590   1.587
   1.578   1.563   1.543   1.520   1.495   1.469   1.443   1.418   1.395   1.374
   1.356   1.341   1.328   1.319   1.312   1.308   1.306   1.308   1.312   1.319
   1.328   1.341   1.356   1.374   1.395   1.418   1.443   1.469   1.495   1.520
   1.543   1.563   1.578   1.587   1.590   1.587   1.578   1.563   1.543   1.520
   1.495   1.469   1.443   1.418   1.395   1.374   1.356   1.341   1.328   1.319
   1.312   1.308
   0.496   0.498   0.504   0.513   0.524   0.538   0.555   0.575   0.603   0.640
   0.687   0.746   0.813   0.886   0.959   1.026   1.079   1.113   1.125   1.113
   1.079   1.026   0.959   0.886   0.813   0.746   0.687   0.640   0.603   0.575
   0.555   0.538   0.524   0.513   0.504   0.498   0.496   0.498   0.504   0.513
   0.524   0.538   0.555   0.575   0.603   0.640   0.687   0.746   0.813   0.886
   0.959   1.026   1.079   1.113   1.125   1.113   1.079   1.026   0.959   0.886
   0.813   0.746   0.687   0.640   0.603   0.575   0.555   0.538   0.524   0.513
   0.504   0.498
   0.264   0.270   0.287   0.304   0.313   0.304   0.275   0.232   0.187   0.156
   0.153   0.189   0.264   0.373   0.500   0.626   0.733   0.805   0.830   0.805
   0.733   0.626   0.500   0.373   0.264   0.189   0.153   0.156   0.187   0.232
   0.275   0.304   0.313   0.304   0.287   0.270   0.264   0.270   0.287   0.304
   0.313   0.304   0.275   0.232   0.187   0.156   0.153   0.189   0.264   0.373
   0.500   0.626   0.733   0.805   0.830   0.805   0.733   0.626   0.500   0.373
   0.264   0.189   0.153   0.156   0.187   0.232   0.275   0.304   0.313   0.304
   0.287   0.270
   1.035   1.060   1.122   1.190   1.221   1.180   1.050   0.843   0.592   0.348
   0.158   0.055   0.050   0.129   0.261   0.410   0.542   0.631   0.663   0.631
   0.542   0.410   0.261   0.129   0.050   0.055   0.158   0.348   0.592   0.843
   1.050   1.180   1.221   1.190   1.122   1.060   1.035   1.060   1.122   1.190
   1.221   1.180   1.050   0.843   0.592   0.348   0.158   0.055   0.050   0.129
   0.261   0.410   0.542   0.631   0.663   0.631   0.542   0.410   0.261   0.129
   0.050   0.055   0.158   0.348   0.592   0.843   1.050   1.180   1.221   1.190
   1.122   1.060
   2.264   2.324   2.477   2.655   2.767   2.728   2.495   2.080   1.551   1.011
   0.561   0.262   0.130   0.131   0.208   0.309   0.395   0.449   0.467   0.449
   0.395   0.309   0.208   0.131   0.130   0.262   0.561   1.011   1.551   2.080
   2.495   2.728   2.767   2.655   2.477   2.324   2.264   2.324   2.477   2.655
   2.767   2.728   2.495   2.080   1.551   1.011   0.561   0.262   0.130   0.131
   0.208   0.309   0.395   0.449   0.467   0.449   0.395   0.309   0.208   0.131
   0.130   0.262   0.561   1.011   1.551   2.080   2.495   2.728   2.767   2.655
   2.477   2.324
   2.766   2.856   3.098   3.403   3.644   3.687   3.446   2.921   2.212   1.476
   0.867   0.472   0.289   0.253   0.277   0.297   0.292   0.275   0.266   0.275
   0.292   0.297   0.277   0.253   0.289   0.472   0.867   1.476   2.212   2.921
   3.446   3.687   3.644   3.403   3.098   2.856   2.766   2.856   3.098   3.403
   3.644   3.687   3.446   2.921   2.212   1.476   0.867   0.472   0.289   0.253
   0.277   0.297   0.292   0.275   0.266   0.275   0.292   0.297   0.277   0.253
   0.289   0.472   0.867   1.476   2.212   2.921   3.446   3.687   3.644   3.403
   3.098   2.856
   1.965   2.052   2.299   2.656   3.013   3.209   3.108   2.673   2.008   1.309
   0.764   0.459   0.360   0.367   0.383   0.363   0.317   0.272   0.254   0.272
   0.317   0.363   0.383   0.367   0.360   0.459   0.764   1.309   2.008   2.673
   3.108   3.209   3.013   2.656   2.299   2.052   1.965   2.052   2.299   2.656
   3.013   3.209   3.108   2.673   2.008   1.309   0.764   0.459   0.360   0.367
   0.383   0.363   0.317   0.272   0.254   0.272   0.317   0.363   0.383   0.367
   0.360   0.459   0.764   1.309   2.008   2.673   3.108   3.209   3.013   2.656
   2.299   2.052
   0.608   0.644   0.781   1.061   1.443   1.773   1.866   1.644   1.203   0.753
   0.472   0.396   0.435   0.471   0.462   0.440   0.448   0.482   0.502   0.482
   0.448   0.440   0.462   0.471   0.435   0.396   0.472   0.753   1.203   1.644
   1.866   1.773   1.443   1.061   0.781   0.644   0.608   0.644   0.781   1.061
   1.443   1.773   1.866   1.644   1.203   0.753   0.472   0.396   0.435   0.471
   0.462   0.440   0.448   0.482   0.502   0.482   0.448   0.440   0.462   0.471
   0.435   0.396   0.472   0.753   1.203   1.644   1.866   1.773   1.443   1.061
   0.781   0.644
  -0.107  -0.134  -0.149  -0.027   0.259   0.574   0.725   0.644   0.453   0.361
   0.472   0.693   0.826   0.763   0.585   0.481   0.552   0.720   0.806   0.720
   0.552   0.481   0.585   0.763   0.826   0.693   0.472   0.361   0.453   0.644
   0.725   0.574   0.259  -0.027  -0.149  -0.134  -0.107  -0.134  -0.149  -0.027
   0.259   0.574   0.725   0.644   0.453   0.361   0.472   0.693   0.826   0.763
   0.585   0.481   0.552   0.720   0.806   0.720   0.552   0.481   0.585   0.763
   0.826   0.693   0.472   0.361   0.453   0.644   0.725   0.574   0.259  -0.027
  -0.149  -0.134
   0.079   0.032  -0.044  -0.032   0.091   0.208   0.198   0.093   0.096   0.399
   0.967   1.509   1.692   1.414   0.912   0.563   0.561   0.773   0.895   0.773
   0.561   0.563   0.912   1.414   1.692   1.509   0.967   0.399   0.096   0.093
   0.198   0.208   0.091  -0.032  -0.044   0.032   0.079   0.032  -0.044  -0.032
   0.091   0.208   0.198   0.093   0.096   0.399   0.967   1.509   1.692   1.414
   0.912   0.563   0.561   0.773   0.895   0.773   0.561   0.563   0.912   1.414
   1.692   1.509   0.967   0.399   0.096   0.093   0.198   0.208   0.091  -0.032
  -0.044   0.032
   0.358   0.357   0.373   0.416   0.429   0.323   0.110  -0.028   0.169   0.819
   1.733   2.479   2.659   2.194   1.405   0.769   0.555   0.650   0.737   0.650
   0.555   0.769   1.405   2.194   2.659   2.479   1.733   0.819   0.169  -0.028
   0.110   0.323   0.429   0.416   0.373   0.357   0.358   0.357   0.373   0.416
   0.429   0.323   0.110  -0.028   0.169   0.819   1.733   2.479   2.659   2.194
   1.405   0.769   0.555   0.650   0.737   0.650   0.555   0.769   1.405   2.194
   2.659   2.479   1.733   0.819   0.169  -0.028   0.110   0.323   0.429   0.416
   0.373   0.357
   0.077   0.148   0.325   0.502   0.552   0.438   0.289   0.351   0.798   1.581
   2.426   2.978   2.993   2.475   1.685   0.991   0.624   0.548   0.560   0.548
   0.624   0.991   1.685   2.475   2.993   2.978   2.426   1.581   0.798   0.351
   0.289   0.438   0.552   0.502   0.325   0.148   0.077   0.148   0.325   0.502
   0.552   0.438   0.289   0.351   0.798   1.581   2.426   2.978   2.993   2.475
   1.685   0.991   0.624   0.548   0.560   0.548   0.624   0.991   1.685   2.475
   2.993   2.978   2.426   1.581   0.798   0.351   0.289   0.438   0.552   0.502
   0.325   0.148
  -0.387  -0.296  -0.063   0.204   0.406   0.561   0.821   1.322   1.994   2.569
   2.808   2.676   2.309   1.855   1.399   1.007   0.742   0.617   0.586   0.617
   0.742   1.007   1.399   1.855   2.309   2.676   2.808   2.569   1.994   1.322
   0.821   0.561   0.406   0.204  -0.063  -0.296  -0.387  -0.296  -0.063   0.204
   0.406   0.561   0.821   1.322   1.994   2.569   2.808   2.676   2.309   1.855
   1.399   1.007   0.742   0.617   0.586   0.617   0.742   1.007   1.399   1.855
   2.309   2.676   2.808   2.569   1.994   1.322   0.821   0.561   0.406   0.204
  -0.063  -0.296
  -0.187  -0.175  -0.106   0.069   0.371   0.837   1.525   2.374   3.076   3.225
   2.697   1.814   1.078   0.747   0.723   0.784   0.816   0.820   0.819   0.820
   0.816   0.784   0.723   0.747   1.078   1.814   2.697   3.225   3.076   2.374
   1.525   0.837   0.371   0.069  -0.106  -0.175  -0.187  -0.175  -0.106   0.069
   0.371   0.837   1.525   2.374   3.076   3.225   2.697   1.814   1.078   0.747
   0.723   0.784   0.816   0.820   0.819   0.820   0.816   0.784   0.723   0.747
   1.078   1.814   2.697   3.225   3.076   2.374   1.525   0.837   0.371   0.069
  -0.106  -0.175
   0.920   0.776   0.497   0.378   0.577   1.071   1.770   2.513   2.975   2.806
   1.981   0.936   0.225   0.065   0.269   0.565   0.824   1.013   1.088   1.013
   0.824   0.565   0.269   0.065   0.225   0.936   1.981   2.806   2.975   2.513
   1.770   1.071   0.577   0.378   0.497   0.776   0.920   0.776   0.497   0.378
   0.577   1.071   1.770   2.513   2.975   2.806   1.981   0.936   0.225   0.065
   0.269   0.565   0.824   1.013   1.088   1.013   0.824   0.565   0.269   0.065
   0.225   0.936   1.981   2.806   2.975   2.513   1.770   1.071   0.577   0.378
   0.497   0.776
   2.343   2.034   1.380   0.893   0.809   0.994   1.238   1.445   1.522   1.333
   0.880   0.408   0.186   0.231   0.380   0.557   0.814   1.112   1.251   1.112
   0.814   0.557   0.380   0.231   0.186   0.408   0.880   1.333   1.522   1.445
   1.238   0.994   0.809   0.893   1.380   2.034   2.343   2.034   1.380   0.893
   0.809   0.994   1.238   1.445   1.522   1.333   0.880   0.408   0.186   0.231
   0.380   0.557   0.814   1.112   1.251   1.112   0.814   0.557   0.380   0.231
   0.186   0.408   0.880   1.333   1.522   1.445   1.238   0.994   0.809   0.893
   1.380   2.034
   3.282   2.871   1.979   1.240   0.911   0.765   0.536   0.240   0.030  -0.036
   0.027   0.224   0.506   0.705   0.710   0.666   0.816   1.134   1.305   1.134
   0.816   0.666   0.710   0.705   0.506   0.224   0.027  -0.036   0.030   0.240
   0.536   0.765   0.911   1.240   1.979   2.871   3.282   2.871   1.979   1.240
   0.911   0.765   0.536   0.240   0.030  -0.036   0.027   0.224   0.506   0.705
   0.710   0.666   0.816   1.134   1.305   1.134   0.816   0.666   0.710   0.705
   0.506   0.224   0.027  -0.036   0.030   0.240   0.536   0.765   0.911   1.240
   1.979   2.871
 111       5.00   72    0 5.00   18    0
   0.062   0.063   0.065   0.068   0.073   0.078   0.085   0.093   0.101   0.110
   0.119   0.127   0.136   0.143   0.150   0.155   0.159   0.162   0.163   0.162
   0.159   0.155   0.150   0.143   0.136   0.127   0.119   0.110   0.101   0.093
   0.085   0.078   0.073   0.068   0.065   0.063   0.062   0.063   0.065   0.068
   0.073   0.078   0.085   0.093   0.101   0.110   0.119   0.127   0.136   0.143
   0.150   0.155   0.159   0.162   0.163   0.162   0.159   0.155   0.150   0.143
   0.136   0.127   0.119   0.110   0.101   0.093   0.085   0.078   0.073   0.068
   0.065   0.063
  -0.169  -0.171  -0.177  -0.185  -0.193  -0.197  -0.195  -0.184  -0.163  -0.131
  -0.088  -0.037   0.019   0.077   0.132   0.180   0.217   0.241   0.249   0.241
   0.217   0.180   0.132   0.077   0.019  -0.037  -0.088  -0.131  -0.163  -0.184
  -0.195  -0.197  -0.193  -0.185  -0.177  -0.171  -0.169  -0.171  -0.177  -0.185
  -0.193  -0.197  -0.195  -0.184  -0.163  -0.131  -0.088  -0.037   0.019   0.077
   0.132   0.180   0.217   0.241   0.249   0.241   0.217   0.180   0.132   0.077
   0.019  -0.037  -0.088  -0.131  -0.163  -0.184  -0.195  -0.197  -0.193  -0.185
  -0.177  -0.171
   0.978   0.941   0.836   0.675   0.479   0.269   0.070  -0.096  -0.216  -0.279
  -0.286  -0.241  -0.158  -0.049   0.067   0.176   0.265   0.322   0.342   0.322
   0.265   0.176   0.067  -0.049  -0.158  -0.241  -0.286  -0.279  -0.216  -0.096
   0.070   0.269   0.479   0.675   0.836   0.941   0.978   0.941   0.836   0.675
   0.479   0.269   0.070  -0.096  -0.216  -0.279  -0.286  -0.241  -0.158  -0.049
   0.067   0.176   0.265   0.322   0.342   0.322   0.265   0.176   0.067  -0.049
  -0.158  -0.241  -0.286  -0.279  -0.216  -0.096   0.070   0.269   0.479   0.675
   0.836   0.941
   3.798   3.691   3.384   2.914   2.336   1.715   1.116   0.594   0.188  -0.085
  -0.227  -0.257  -0.205  -0.105   0.014   0.126   0.215   0.272   0.291   0.272
   0.215   0.126   0.014  -0.105  -0.205  -0.257  -0.227  -0.085   0.188   0.594
   1.116   1.715   2.336   2.914   3.384   3.691   3.798   3.691   3.384   2.914
   2.336   1.715   1.116   0.594   0.188  -0.085  -0.227  -0.257  -0.205  -0.105
   0.014   0.126   0.215   0.272   0.291   0.272   0.215   0.126   0.014  -0.105
  -0.205  -0.257  -0.227  -0.085   0.188   0.594   1.116   1.715   2.336   2.914
   3.384   3.691
   6.084   5.921   5.450   4.731   3.851   2.914   2.022   1.260   0.680   0.296
   0.090   0.016   0.020   0.051   0.077   0.081   0.069   0.053   0.046   0.053
   0.069   0.081   0.077   0.051   0.020   0.016   0.090   0.296   0.680   1.260
   2.022   2.914   3.851   4.731   5.450   5.921   6.084   5.921   5.450   4.731
   3.851   2.914   2.022   1.260   0.680   0.296   0.090   0.016   0.020   0.051
   0.077   0.081   0.069   0.053   0.046   0.053   0.069   0.081   0.077   0.051
   0.020   0.016   0.090   0.296   0.680   1.260   2.022   2.914   3.851   4.731
   5.450   5.921
   5.699   5.549   5.116   4.450   3.632   2.762   1.947   1.272   0.789   0.503
   0.375   0.340   0.332   0.297   0.215   0.092  -0.040  -0.141  -0.179  -0.141
  -0.040   0.092   0.215   0.297   0.332   0.340   0.375   0.503   0.789   1.272
   1.947   2.762   3.632   4.450   5.116   5.549   5.699   5.549   5.116   4.450
   3.632   2.762   1.947   1.272   0.789   0.503   0.375   0.340   0.332   0.297
   0.215   0.092  -0.040  -0.141  -0.179  -0.141  -0.040   0.092   0.215   0.297
   0.332   0.340   0.375   0.503   0.789   1.272   1.947   2.762   3.632   4.450
   5.116   5.549
   3.228   3.162   2.966   2.640   2.208   1.723   1.256   0.877   0.624   0.493
   0.446   0.431   0.402   0.338   0.239   0.123   0.013  -0.066  -0.094  -0.066
   0.013   0.123   0.239   0.338   0.402   0.431   0.446   0.493   0.624   0.877
   1.256   1.723   2.208   2.640   2.966   3.162   3.228   3.162   2.966   2.640
   2.208   1.723   1.256   0.877   0.624   0.493   0.446   0.431   0.402   0.338
   0.239   0.123   0.013  -0.066  -0.094  -0.066   0.013   0.123   0.239   0.338
   0.402   0.431   0.446   0.493   0.624   0.877   1.256   1.723   2.208   2.640
   2.966   3.162
   0.997   1.025   1.084   1.119   1.090   0.999   0.888   0.801   0.750   0.705
   0.624   0.491   0.331   0.192   0.119   0.120   0.168   0.221   0.243   0.221
   0.168   0.120   0.119   0.192   0.331   0.491   0.624   0.705   0.750   0.801
   0.888   0.999   1.090   1.119   1.084   1.025   0.997   1.025   1.084   1.119
   1.090   0.999   0.888   0.801   0.750   0.705   0.624   0.491   0.331   0.192
   0.119   0.120   0.168   0.221   0.243   0.221   0.168   0.120   0.119   0.192
   0.331   0.491   0.624   0.705   0.750   0.801   0.888   0.999   1.090   1.119
   1.084   1.025
   0.180   0.246   0.410   0.594   0.741   0.862   1.008   1.207   1.412   1.511
   1.406   1.094   0.684   0.331   0.149   0.150   0.262   0.381   0.431   0.381
   0.262   0.150   0.149   0.331   0.684   1.094   1.406   1.511   1.412   1.207
   1.008   0.862   0.741   0.594   0.410   0.246   0.180   0.246   0.410   0.594
   0.741   0.862   1.008   1.207   1.412   1.511   1.406   1.094   0.684   0.331
   0.149   0.150   0.262   0.381   0.431   0.381   0.262   0.150   0.149   0.331
   0.684   1.094   1.406   1.511   1.412   1.207   1.008   0.862   0.741   0.594
   0.410   0.246
   0.086   0.134   0.248   0.369   0.483   0.659   1.000   1.536   2.143   2.585
   2.649   2.296   1.688   1.074   0.637   0.411   0.327   0.305   0.301   0.305
   0.327   0.411   0.637   1.074   1.688   2.296   2.649   2.585   2.143   1.536
   1.000   0.659   0.483   0.369   0.248   0.134   0.086   0.134   0.248   0.369
   0.483   0.659   1.000   1.536   2.143   2.585   2.649   2.296   1.688   1.074
   0.637   0.411   0.327   0.305   0.301   0.305   0.327   0.411   0.637   1.074
   1.688   2.296   2.649   2.585   2.143   1.536   1.000   0.659   0.483   0.369
   0.248   0.134
  -0.068  -0.052  -0.025  -0.011   0.017   0.172   0.599   1.348   2.273   3.058
   3.405   3.217   2.658   2.003   1.443   1.007   0.654   0.391   0.290   0.391
   0.654   1.007   1.443   2.003   2.658   3.217   3.405   3.058   2.273   1.348
   0.599   0.172   0.017  -0.011  -0.025  -0.052  -0.068  -0.052  -0.025  -0.011
   0.017   0.172   0.599   1.348   2.273   3.058   3.405   3.217   2.658   2.003
   1.443   1.007   0.654   0.391   0.290   0.391   0.654   1.007   1.443   2.003
   2.658   3.217   3.405   3.058   2.273   1.348   0.599   0.172   0.017  -0.011
  -0.025  -0.052
  -0.134  -0.137  -0.149  -0.166  -0.163  -0.061   0.257   0.863   1.679   2.455
   2.911   2.935   2.659   2.314   2.022   1.740   1.400   1.074   0.934   1.074
   1.400   1.740   2.022   2.314   2.659   2.935   2.911   2.455   1.679   0.863
   0.257  -0.061  -0.163  -0.166  -0.149  -0.137  -0.134  -0.137  -0.149  -0.166
  -0.163  -0.061   0.257   0.863   1.679   2.455   2.911   2.935   2.659   2.314
   2.022   1.740   1.400   1.074   0.934   1.074   1.400   1.740   2.022   2.314
   2.659   2.935   2.911   2.455   1.679   0.863   0.257  -0.061  -0.163  -0.166
  -0.149  -0.137
   0.051   0.035   0.013   0.029   0.089   0.174   0.297   0.520   0.878   1.284
   1.572   1.662   1.659   1.745   1.967   2.183   2.230   2.133   2.066   2.133
   2.230   2.183   1.967   1.745   1.659   1.662   1.572   1.284   0.878   0.520
   0.297   0.174   0.089   0.029   0.013   0.035   0.051   0.035   0.013   0.029
   0.089   0.174   0.297   0.520   0.878   1.284   1.572   1.662   1.659   1.745
   1.967   2.183   2.230   2.133   2.066   2.133   2.230   2.183   1.967   1.745
   1.659   1.662   1.572   1.284   0.878   0.520   0.297   0.174   0.089   0.029
   0.013   0.035
   0.082   0.045  -0.007   0.028   0.171   0.332   0.409   0.409   0.423   0.493
   0.557   0.564   0.606   0.864   1.401   2.044   2.537   2.776   2.834   2.776
   2.537   2.044   1.401   0.864   0.606   0.564   0.557   0.493   0.423   0.409
   0.409   0.332   0.171   0.028  -0.007   0.045   0.082   0.045  -0.007   0.028
   0.171   0.332   0.409   0.409   0.423   0.493   0.557   0.564   0.606   0.864
   1.401   2.044   2.537   2.776   2.834   2.776   2.537   2.044   1.401   0.864
   0.606   0.564   0.557   0.493   0.423   0.409   0.409   0.332   0.171   0.028
  -0.007   0.045
  -0.033  -0.084  -0.176  -0.186  -0.053   0.154   0.311   0.369   0.389   0.431
   0.451   0.378   0.276   0.360   0.779   1.438   2.072   2.475   2.605   2.475
   2.072   1.438   0.779   0.360   0.276   0.378   0.451   0.431   0.389   0.369
   0.311   0.154  -0.053  -0.186  -0.176  -0.084  -0.033  -0.084  -0.176  -0.186
  -0.053   0.154   0.311   0.369   0.389   0.431   0.451   0.378   0.276   0.360
   0.779   1.438   2.072   2.475   2.605   2.475   2.072   1.438   0.779   0.360
   0.276   0.378   0.451   0.431   0.389   0.369   0.311   0.154  -0.053  -0.186
  -0.176  -0.084
   0.653   0.624   0.538   0.424   0.335   0.309   0.333   0.382   0.473   0.615
   0.728   0.686   0.490   0.330   0.419   0.771   1.199   1.505   1.610   1.505
   1.199   0.771   0.419   0.330   0.490   0.686   0.728   0.615   0.473   0.382
   0.333   0.309   0.335   0.424   0.538   0.624   0.653   0.624   0.538   0.424
   0.335   0.309   0.333   0.382   0.473   0.615   0.728   0.686   0.490   0.330
   0.419   0.771   1.199   1.505   1.610   1.505   1.199   0.771   0.419   0.330
   0.490   0.686   0.728   0.615   0.473   0.382   0.333   0.309   0.335   0.424
   0.538   0.624
   2.600   2.630   2.615   2.377   1.894   1.321   0.839   0.537   0.436   0.518
   0.681   0.754   0.643   0.438   0.320   0.359   0.473   0.556   0.582   0.556
   0.473   0.359   0.320   0.438   0.643   0.754   0.681   0.518   0.436   0.537
   0.839   1.321   1.894   2.377   2.615   2.630   2.600   2.630   2.615   2.377
   1.894   1.321   0.839   0.537   0.436   0.518   0.681   0.754   0.643   0.438
   0.320   0.359   0.473   0.556   0.582   0.556   0.473   0.359   0.320   0.438
   0.643   0.754   0.681   0.518   0.436   0.537   0.839   1.321   1.894   2.377
   2.615   2.630
   4.489   4.572   4.628   4.308   3.501   2.437   1.447   0.727   0.334   0.255
   0.394   0.562   0.592   0.475   0.325   0.216   0.132   0.053   0.017   0.053
   0.132   0.216   0.325   0.475   0.592   0.562   0.394   0.255   0.334   0.727
   1.447   2.437   3.501   4.308   4.628   4.572   4.489   4.572   4.628   4.308
   3.501   2.437   1.447   0.727   0.334   0.255   0.394   0.562   0.592   0.475
   0.325   0.216   0.132   0.053   0.017   0.053   0.132   0.216   0.325   0.475
   0.592   0.562   0.394   0.255   0.334   0.727   1.447   2.437   3.501   4.308
   4.628   4.572
TEXTURE_INDEX=   5.2461
ERR_CF 220         1080     462   50.94   22.92
ERR_CF 200         1080     382   36.61   14.35
ERR_CF 111         1036     308  151.15   16.36
