TEXEVAL                                                                         
Analysis started on 31-Aug-18 12:05:48                                          
 LMAX=16LFMAX=03 CUBIC ORTHO   
 220      5.00 5.00
 200      5.00 5.00
 111      5.00 5.00
 220       5.00   72    0 5.00   15    0
   5.829   5.829   5.829   5.829   5.829   5.829   5.829   5.829   5.829   5.829
   5.829   5.829   5.829   5.829   5.829   5.829   5.829   5.829   5.829   5.829
   5.829   5.829   5.829   5.829   5.829   5.829   5.829   5.829   5.829   5.829
   5.829   5.829   5.829   5.829   5.829   5.829   5.829   5.829   5.829   5.829
   5.829   5.829   5.829   5.829   5.829   5.829   5.829   5.829   5.829   5.829
   5.829   5.829   5.829   5.829   5.829   5.829   5.829   5.829   5.829   5.829
   5.829   5.829   5.829   5.829   5.829   5.829   5.829   5.829   5.829   5.829
   5.829   5.829
   2.000   2.022   2.052   2.041   2.197   2.299   2.509   2.642   2.871   3.190
   3.427   3.810   4.184   4.665   5.091   5.436   5.765   5.859   6.020   5.859
   5.765   5.436   5.091   4.665   4.184   3.810   3.427   3.190   2.871   2.642
   2.509   2.299   2.197   2.041   2.052   2.022   2.000   2.022   2.052   2.041
   2.197   2.299   2.509   2.642   2.871   3.190   3.427   3.810   4.184   4.665
   5.091   5.436   5.765   5.859   6.020   5.859   5.765   5.436   5.091   4.665
   4.184   3.810   3.427   3.190   2.871   2.642   2.509   2.299   2.197   2.041
   2.052   2.022
   0.492   0.548   0.547   0.564   0.635   0.651   0.759   0.910   1.107   1.346
   1.619   2.022   2.477   3.012   3.734   4.227   4.799   5.124   5.341   5.124
   4.799   4.227   3.734   3.012   2.477   2.022   1.619   1.346   1.107   0.910
   0.759   0.651   0.635   0.564   0.547   0.548   0.492   0.548   0.547   0.564
   0.635   0.651   0.759   0.910   1.107   1.346   1.619   2.022   2.477   3.012
   3.734   4.227   4.799   5.124   5.341   5.124   4.799   4.227   3.734   3.012
   2.477   2.022   1.619   1.346   1.107   0.910   0.759   0.651   0.635   0.564
   0.547   0.548
   0.214   0.284   0.272   0.279   0.309   0.300   0.345   0.423   0.544   0.635
   0.828   1.136   1.493   1.964   2.712   3.323   3.971   4.441   4.616   4.441
   3.971   3.323   2.712   1.964   1.493   1.136   0.828   0.635   0.544   0.423
   0.345   0.300   0.309   0.279   0.272   0.284   0.214   0.284   0.272   0.279
   0.309   0.300   0.345   0.423   0.544   0.635   0.828   1.136   1.493   1.964
   2.712   3.323   3.971   4.441   4.616   4.441   3.971   3.323   2.712   1.964
   1.493   1.136   0.828   0.635   0.544   0.423   0.345   0.300   0.309   0.279
   0.272   0.284
   0.246   0.255   0.239   0.267   0.261   0.282   0.312   0.357   0.440   0.471
   0.557   0.800   1.066   1.506   2.156   2.836   3.394   3.899   4.059   3.899
   3.394   2.836   2.156   1.506   1.066   0.800   0.557   0.471   0.440   0.357
   0.312   0.282   0.261   0.267   0.239   0.255   0.246   0.255   0.239   0.267
   0.261   0.282   0.312   0.357   0.440   0.471   0.557   0.800   1.066   1.506
   2.156   2.836   3.394   3.899   4.059   3.899   3.394   2.836   2.156   1.506
   1.066   0.800   0.557   0.471   0.440   0.357   0.312   0.282   0.261   0.267
   0.239   0.255
   0.291   0.246   0.249   0.273   0.251   0.306   0.352   0.402   0.419   0.513
   0.567   0.721   0.967   1.307   1.900   2.469   2.978   3.497   3.551   3.497
   2.978   2.469   1.900   1.307   0.967   0.721   0.567   0.513   0.419   0.402
   0.352   0.306   0.251   0.273   0.249   0.246   0.291   0.246   0.249   0.273
   0.251   0.306   0.352   0.402   0.419   0.513   0.567   0.721   0.967   1.307
   1.900   2.469   2.978   3.497   3.551   3.497   2.978   2.469   1.900   1.307
   0.967   0.721   0.567   0.513   0.419   0.402   0.352   0.306   0.251   0.273
   0.249   0.246
   0.223   0.239   0.222   0.233   0.270   0.307   0.346   0.422   0.435   0.516
   0.657   0.726   0.973   1.231   1.703   2.020   2.459   2.703   2.804   2.703
   2.459   2.020   1.703   1.231   0.973   0.726   0.657   0.516   0.435   0.422
   0.346   0.307   0.270   0.233   0.222   0.239   0.223   0.239   0.222   0.233
   0.270   0.307   0.346   0.422   0.435   0.516   0.657   0.726   0.973   1.231
   1.703   2.020   2.459   2.703   2.804   2.703   2.459   2.020   1.703   1.231
   0.973   0.726   0.657   0.516   0.435   0.422   0.346   0.307   0.270   0.233
   0.222   0.239
   0.198   0.218   0.209   0.213   0.276   0.289   0.321   0.395   0.440   0.493
   0.622   0.693   0.909   1.203   1.550   1.671   1.820   1.800   1.866   1.800
   1.820   1.671   1.550   1.203   0.909   0.693   0.622   0.493   0.440   0.395
   0.321   0.289   0.276   0.213   0.209   0.218   0.198   0.218   0.209   0.213
   0.276   0.289   0.321   0.395   0.440   0.493   0.622   0.693   0.909   1.203
   1.550   1.671   1.820   1.800   1.866   1.800   1.820   1.671   1.550   1.203
   0.909   0.693   0.622   0.493   0.440   0.395   0.321   0.289   0.276   0.213
   0.209   0.218
   0.267   0.236   0.253   0.264   0.284   0.295   0.318   0.374   0.447   0.478
   0.571   0.675   0.804   1.216   1.429   1.445   1.264   1.256   1.206   1.256
   1.264   1.445   1.429   1.216   0.804   0.675   0.571   0.478   0.447   0.374
   0.318   0.295   0.284   0.264   0.253   0.236   0.267   0.236   0.253   0.264
   0.284   0.295   0.318   0.374   0.447   0.478   0.571   0.675   0.804   1.216
   1.429   1.445   1.264   1.256   1.206   1.256   1.264   1.445   1.429   1.216
   0.804   0.675   0.571   0.478   0.447   0.374   0.318   0.295   0.284   0.264
   0.253   0.236
   0.569   0.440   0.466   0.417   0.410   0.383   0.433   0.443   0.491   0.495
   0.558   0.586   0.810   1.185   1.411   1.172   1.050   0.855   0.809   0.855
   1.050   1.172   1.411   1.185   0.810   0.586   0.558   0.495   0.491   0.443
   0.433   0.383   0.410   0.417   0.466   0.440   0.569   0.440   0.466   0.417
   0.410   0.383   0.433   0.443   0.491   0.495   0.558   0.586   0.810   1.185
   1.411   1.172   1.050   0.855   0.809   0.855   1.050   1.172   1.411   1.185
   0.810   0.586   0.558   0.495   0.491   0.443   0.433   0.383   0.410   0.417
   0.466   0.440
   1.708   1.683   1.369   1.065   0.922   0.640   0.667   0.560   0.587   0.572
   0.552   0.541   0.841   1.054   1.474   1.136   0.942   0.583   0.548   0.583
   0.942   1.136   1.474   1.054   0.841   0.541   0.552   0.572   0.587   0.560
   0.667   0.640   0.922   1.065   1.369   1.683   1.708   1.683   1.369   1.065
   0.922   0.640   0.667   0.560   0.587   0.572   0.552   0.541   0.841   1.054
   1.474   1.136   0.942   0.583   0.548   0.583   0.942   1.136   1.474   1.054
   0.841   0.541   0.552   0.572   0.587   0.560   0.667   0.640   0.922   1.065
   1.369   1.683
   4.881   4.750   3.620   2.567   1.866   1.229   1.118   0.866   0.755   0.612
   0.525   0.629   0.837   0.909   1.381   1.245   0.777   0.474   0.423   0.474
   0.777   1.245   1.381   0.909   0.837   0.629   0.525   0.612   0.755   0.866
   1.118   1.229   1.866   2.567   3.620   4.750   4.881   4.750   3.620   2.567
   1.866   1.229   1.118   0.866   0.755   0.612   0.525   0.629   0.837   0.909
   1.381   1.245   0.777   0.474   0.423   0.474   0.777   1.245   1.381   0.909
   0.837   0.629   0.525   0.612   0.755   0.866   1.118   1.229   1.866   2.567
   3.620   4.750
   5.564   5.387   4.259   2.898   2.253   1.941   1.548   1.278   1.052   0.802
   0.690   0.740   0.811   0.972   1.381   1.195   0.761   0.445   0.345   0.445
   0.761   1.195   1.381   0.972   0.811   0.740   0.690   0.802   1.052   1.278
   1.548   1.941   2.253   2.898   4.259   5.387   5.564   5.387   4.259   2.898
   2.253   1.941   1.548   1.278   1.052   0.802   0.690   0.740   0.811   0.972
   1.381   1.195   0.761   0.445   0.345   0.445   0.761   1.195   1.381   0.972
   0.811   0.740   0.690   0.802   1.052   1.278   1.548   1.941   2.253   2.898
   4.259   5.387
   2.511   2.393   2.143   1.403   1.449   1.732   1.616   1.347   1.214   1.018
   0.881   0.772   0.786   0.974   1.446   1.009   0.833   0.563   0.403   0.563
   0.833   1.009   1.446   0.974   0.786   0.772   0.881   1.018   1.214   1.347
   1.616   1.732   1.449   1.403   2.143   2.393   2.511   2.393   2.143   1.403
   1.449   1.732   1.616   1.347   1.214   1.018   0.881   0.772   0.786   0.974
   1.446   1.009   0.833   0.563   0.403   0.563   0.833   1.009   1.446   0.974
   0.786   0.772   0.881   1.018   1.214   1.347   1.616   1.732   1.449   1.403
   2.143   2.393
   0.696   0.489   0.644   0.378   0.594   0.847   1.122   1.026   1.075   1.059
   0.898   0.815   0.714   0.861   1.107   0.852   0.743   0.760   0.728   0.760
   0.743   0.852   1.107   0.861   0.714   0.815   0.898   1.059   1.075   1.026
   1.122   0.847   0.594   0.378   0.644   0.489   0.696   0.489   0.644   0.378
   0.594   0.847   1.122   1.026   1.075   1.059   0.898   0.815   0.714   0.861
   1.107   0.852   0.743   0.760   0.728   0.760   0.743   0.852   1.107   0.861
   0.714   0.815   0.898   1.059   1.075   1.026   1.122   0.847   0.594   0.378
   0.644   0.489
 200       5.00   72    0 5.00   15    0
   0.399   0.399   0.399   0.399   0.399   0.399   0.399   0.399   0.399   0.399
   0.399   0.399   0.399   0.399   0.399   0.399   0.399   0.399   0.399   0.399
   0.399   0.399   0.399   0.399   0.399   0.399   0.399   0.399   0.399   0.399
   0.399   0.399   0.399   0.399   0.399   0.399   0.399   0.399   0.399   0.399
   0.399   0.399   0.399   0.399   0.399   0.399   0.399   0.399   0.399   0.399
   0.399   0.399   0.399   0.399   0.399   0.399   0.399   0.399   0.399   0.399
   0.399   0.399   0.399   0.399   0.399   0.399   0.399   0.399   0.399   0.399
   0.399   0.399
   0.516   0.507   0.496   0.481   0.503   0.478   0.502   0.476   0.455   0.478
   0.440   0.425   0.440   0.454   0.449   0.422   0.449   0.421   0.415   0.421
   0.449   0.422   0.449   0.454   0.440   0.425   0.440   0.478   0.455   0.476
   0.502   0.478   0.503   0.481   0.496   0.507   0.516   0.507   0.496   0.481
   0.503   0.478   0.502   0.476   0.455   0.478   0.440   0.425   0.440   0.454
   0.449   0.422   0.449   0.421   0.415   0.421   0.449   0.422   0.449   0.454
   0.440   0.425   0.440   0.478   0.455   0.476   0.502   0.478   0.503   0.481
   0.496   0.507
   0.683   0.695   0.638   0.638   0.650   0.630   0.603   0.594   0.562   0.523
   0.504   0.455   0.463   0.439   0.456   0.442   0.450   0.433   0.405   0.433
   0.450   0.442   0.456   0.439   0.463   0.455   0.504   0.523   0.562   0.594
   0.603   0.630   0.650   0.638   0.638   0.695   0.683   0.695   0.638   0.638
   0.650   0.630   0.603   0.594   0.562   0.523   0.504   0.455   0.463   0.439
   0.456   0.442   0.450   0.433   0.405   0.433   0.450   0.442   0.456   0.439
   0.463   0.455   0.504   0.523   0.562   0.594   0.603   0.630   0.650   0.638
   0.638   0.695
   1.115   1.118   1.043   1.044   1.031   0.939   0.851   0.819   0.745   0.615
   0.649   0.564   0.517   0.462   0.477   0.454   0.435   0.416   0.375   0.416
   0.435   0.454   0.477   0.462   0.517   0.564   0.649   0.615   0.745   0.819
   0.851   0.939   1.031   1.044   1.043   1.118   1.115   1.118   1.043   1.044
   1.031   0.939   0.851   0.819   0.745   0.615   0.649   0.564   0.517   0.462
   0.477   0.454   0.435   0.416   0.375   0.416   0.435   0.454   0.477   0.462
   0.517   0.564   0.649   0.615   0.745   0.819   0.851   0.939   1.031   1.044
   1.043   1.118
   2.002   2.066   1.993   1.874   1.777   1.588   1.410   1.293   1.100   0.930
   0.874   0.746   0.657   0.544   0.532   0.487   0.477   0.455   0.397   0.455
   0.477   0.487   0.532   0.544   0.657   0.746   0.874   0.930   1.100   1.293
   1.410   1.588   1.777   1.874   1.993   2.066   2.002   2.066   1.993   1.874
   1.777   1.588   1.410   1.293   1.100   0.930   0.874   0.746   0.657   0.544
   0.532   0.487   0.477   0.455   0.397   0.455   0.477   0.487   0.532   0.544
   0.657   0.746   0.874   0.930   1.100   1.293   1.410   1.588   1.777   1.874
   1.993   2.066
   2.894   2.872   2.857   2.829   2.693   2.473   2.328   2.130   1.817   1.529
   1.263   0.972   0.860   0.685   0.656   0.574   0.555   0.538   0.518   0.538
   0.555   0.574   0.656   0.685   0.860   0.972   1.263   1.529   1.817   2.130
   2.328   2.473   2.693   2.829   2.857   2.872   2.894   2.872   2.857   2.829
   2.693   2.473   2.328   2.130   1.817   1.529   1.263   0.972   0.860   0.685
   0.656   0.574   0.555   0.538   0.518   0.538   0.555   0.574   0.656   0.685
   0.860   0.972   1.263   1.529   1.817   2.130   2.328   2.473   2.693   2.829
   2.857   2.872
   2.261   2.152   2.240   2.342   2.441   2.542   2.602   2.702   2.583   2.252
   1.846   1.315   1.152   0.940   0.829   0.676   0.648   0.659   0.652   0.659
   0.648   0.676   0.829   0.940   1.152   1.315   1.846   2.252   2.583   2.702
   2.602   2.542   2.441   2.342   2.240   2.152   2.261   2.152   2.240   2.342
   2.441   2.542   2.602   2.702   2.583   2.252   1.846   1.315   1.152   0.940
   0.829   0.676   0.648   0.659   0.652   0.659   0.648   0.676   0.829   0.940
   1.152   1.315   1.846   2.252   2.583   2.702   2.602   2.542   2.441   2.342
   2.240   2.152
   0.925   0.847   0.976   1.024   1.211   1.501   1.773   2.283   2.591   2.561
   2.354   1.780   1.486   1.192   1.029   0.839   0.825   0.836   0.816   0.836
   0.825   0.839   1.029   1.192   1.486   1.780   2.354   2.561   2.591   2.283
   1.773   1.501   1.211   1.024   0.976   0.847   0.925   0.847   0.976   1.024
   1.211   1.501   1.773   2.283   2.591   2.561   2.354   1.780   1.486   1.192
   1.029   0.839   0.825   0.836   0.816   0.836   0.825   0.839   1.029   1.192
   1.486   1.780   2.354   2.561   2.591   2.283   1.773   1.501   1.211   1.024
   0.976   0.847
   0.389   0.294   0.379   0.451   0.480   0.605   0.837   1.242   1.672   2.076
   2.435   2.121   1.712   1.327   1.199   1.022   0.943   0.909   0.916   0.909
   0.943   1.022   1.199   1.327   1.712   2.121   2.435   2.076   1.672   1.242
   0.837   0.605   0.480   0.451   0.379   0.294   0.389   0.294   0.379   0.451
   0.480   0.605   0.837   1.242   1.672   2.076   2.435   2.121   1.712   1.327
   1.199   1.022   0.943   0.909   0.916   0.909   0.943   1.022   1.199   1.327
   1.712   2.121   2.435   2.076   1.672   1.242   0.837   0.605   0.480   0.451
   0.379   0.294
   0.208   0.143   0.174   0.209   0.243   0.289   0.433   0.547   0.878   1.400
   1.980   2.048   1.894   1.573   1.231   1.039   0.947   0.853   0.900   0.853
   0.947   1.039   1.231   1.573   1.894   2.048   1.980   1.400   0.878   0.547
   0.433   0.289   0.243   0.209   0.174   0.143   0.208   0.143   0.174   0.209
   0.243   0.289   0.433   0.547   0.878   1.400   1.980   2.048   1.894   1.573
   1.231   1.039   0.947   0.853   0.900   0.853   0.947   1.039   1.231   1.573
   1.894   2.048   1.980   1.400   0.878   0.547   0.433   0.289   0.243   0.209
   0.174   0.143
   0.118   0.079   0.109   0.149   0.178   0.192   0.302   0.400   0.679   0.980
   1.522   1.804   1.858   1.577   1.133   0.901   0.924   0.782   0.814   0.782
   0.924   0.901   1.133   1.577   1.858   1.804   1.522   0.980   0.679   0.400
   0.302   0.192   0.178   0.149   0.109   0.079   0.118   0.079   0.109   0.149
   0.178   0.192   0.302   0.400   0.679   0.980   1.522   1.804   1.858   1.577
   1.133   0.901   0.924   0.782   0.814   0.782   0.924   0.901   1.133   1.577
   1.858   1.804   1.522   0.980   0.679   0.400   0.302   0.192   0.178   0.149
   0.109   0.079
   0.156   0.111   0.102   0.156   0.175   0.182   0.256   0.372   0.595   0.797
   1.339   1.662   1.653   1.215   0.948   0.705   0.801   0.703   0.632   0.703
   0.801   0.705   0.948   1.215   1.653   1.662   1.339   0.797   0.595   0.372
   0.256   0.182   0.175   0.156   0.102   0.111   0.156   0.111   0.102   0.156
   0.175   0.182   0.256   0.372   0.595   0.797   1.339   1.662   1.653   1.215
   0.948   0.705   0.801   0.703   0.632   0.703   0.801   0.705   0.948   1.215
   1.653   1.662   1.339   0.797   0.595   0.372   0.256   0.182   0.175   0.156
   0.102   0.111
   0.213   0.175   0.133   0.217   0.212   0.267   0.328   0.483   0.560   0.935
   1.390   1.477   1.324   0.915   0.740   0.605   0.653   0.616   0.565   0.616
   0.653   0.605   0.740   0.915   1.324   1.477   1.390   0.935   0.560   0.483
   0.328   0.267   0.212   0.217   0.133   0.175   0.213   0.175   0.133   0.217
   0.212   0.267   0.328   0.483   0.560   0.935   1.390   1.477   1.324   0.915
   0.740   0.605   0.653   0.616   0.565   0.616   0.653   0.605   0.740   0.915
   1.324   1.477   1.390   0.935   0.560   0.483   0.328   0.267   0.212   0.217
   0.133   0.175
   0.280   0.208   0.265   0.306   0.314   0.372   0.424   0.659   0.681   1.179
   1.552   1.270   0.960   0.686   0.655   0.547   0.499   0.502   0.559   0.502
   0.499   0.547   0.655   0.686   0.960   1.270   1.552   1.179   0.681   0.659
   0.424   0.372   0.314   0.306   0.265   0.208   0.280   0.208   0.265   0.306
   0.314   0.372   0.424   0.659   0.681   1.179   1.552   1.270   0.960   0.686
   0.655   0.547   0.499   0.502   0.559   0.502   0.499   0.547   0.655   0.686
   0.960   1.270   1.552   1.179   0.681   0.659   0.424   0.372   0.314   0.306
   0.265   0.208
   0.426   0.309   0.348   0.357   0.512   0.378   0.605   0.777   0.929   1.419
   1.470   0.911   0.659   0.495   0.491   0.428   0.392   0.434   0.446   0.434
   0.392   0.428   0.491   0.495   0.659   0.911   1.470   1.419   0.929   0.777
   0.605   0.378   0.512   0.357   0.348   0.309   0.426   0.309   0.348   0.357
   0.512   0.378   0.605   0.777   0.929   1.419   1.470   0.911   0.659   0.495
   0.491   0.428   0.392   0.434   0.446   0.434   0.392   0.428   0.491   0.495
   0.659   0.911   1.470   1.419   0.929   0.777   0.605   0.378   0.512   0.357
   0.348   0.309
 111       5.00   72    0 5.00   15    0
   0.082   0.082   0.082   0.082   0.082   0.082   0.082   0.082   0.082   0.082
   0.082   0.082   0.082   0.082   0.082   0.082   0.082   0.082   0.082   0.082
   0.082   0.082   0.082   0.082   0.082   0.082   0.082   0.082   0.082   0.082
   0.082   0.082   0.082   0.082   0.082   0.082   0.082   0.082   0.082   0.082
   0.082   0.082   0.082   0.082   0.082   0.082   0.082   0.082   0.082   0.082
   0.082   0.082   0.082   0.082   0.082   0.082   0.082   0.082   0.082   0.082
   0.082   0.082   0.082   0.082   0.082   0.082   0.082   0.082   0.082   0.082
   0.082   0.082
   0.125   0.122   0.116   0.121   0.118   0.118   0.111   0.107   0.104   0.105
   0.098   0.098   0.092   0.095   0.093   0.088   0.091   0.086   0.090   0.086
   0.091   0.088   0.093   0.095   0.092   0.098   0.098   0.105   0.104   0.107
   0.111   0.118   0.118   0.121   0.116   0.122   0.125   0.122   0.116   0.121
   0.118   0.118   0.111   0.107   0.104   0.105   0.098   0.098   0.092   0.095
   0.093   0.088   0.091   0.086   0.090   0.086   0.091   0.088   0.093   0.095
   0.092   0.098   0.098   0.105   0.104   0.107   0.111   0.118   0.118   0.121
   0.116   0.122
   0.260   0.257   0.244   0.229   0.213   0.201   0.181   0.160   0.143   0.137
   0.117   0.119   0.104   0.103   0.098   0.100   0.090   0.094   0.102   0.094
   0.090   0.100   0.098   0.103   0.104   0.119   0.117   0.137   0.143   0.160
   0.181   0.201   0.213   0.229   0.244   0.257   0.260   0.257   0.244   0.229
   0.213   0.201   0.181   0.160   0.143   0.137   0.117   0.119   0.104   0.103
   0.098   0.100   0.090   0.094   0.102   0.094   0.090   0.100   0.098   0.103
   0.104   0.119   0.117   0.137   0.143   0.160   0.181   0.201   0.213   0.229
   0.244   0.257
   1.009   0.993   0.906   0.763   0.636   0.513   0.411   0.316   0.253   0.210
   0.180   0.157   0.126   0.118   0.118   0.109   0.090   0.095   0.096   0.095
   0.090   0.109   0.118   0.118   0.126   0.157   0.180   0.210   0.253   0.316
   0.411   0.513   0.636   0.763   0.906   0.993   1.009   0.993   0.906   0.763
   0.636   0.513   0.411   0.316   0.253   0.210   0.180   0.157   0.126   0.118
   0.118   0.109   0.090   0.095   0.096   0.095   0.090   0.109   0.118   0.118
   0.126   0.157   0.180   0.210   0.253   0.316   0.411   0.513   0.636   0.763
   0.906   0.993
   3.404   3.324   3.074   2.622   2.116   1.595   1.140   0.846   0.562   0.399
   0.300   0.219   0.165   0.134   0.121   0.112   0.086   0.080   0.091   0.080
   0.086   0.112   0.121   0.134   0.165   0.219   0.300   0.399   0.562   0.846
   1.140   1.595   2.116   2.622   3.074   3.324   3.404   3.324   3.074   2.622
   2.116   1.595   1.140   0.846   0.562   0.399   0.300   0.219   0.165   0.134
   0.121   0.112   0.086   0.080   0.091   0.080   0.086   0.112   0.121   0.134
   0.165   0.219   0.300   0.399   0.562   0.846   1.140   1.595   2.116   2.622
   3.074   3.324
   5.285   5.197   4.969   4.575   3.879   3.279   2.449   1.927   1.271   0.866
   0.564   0.391   0.270   0.205   0.133   0.135   0.103   0.086   0.104   0.086
   0.103   0.135   0.133   0.205   0.270   0.391   0.564   0.866   1.271   1.927
   2.449   3.279   3.879   4.575   4.969   5.197   5.285   5.197   4.969   4.575
   3.879   3.279   2.449   1.927   1.271   0.866   0.564   0.391   0.270   0.205
   0.133   0.135   0.103   0.086   0.104   0.086   0.103   0.135   0.133   0.205
   0.270   0.391   0.564   0.866   1.271   1.927   2.449   3.279   3.879   4.575
   4.969   5.197
   4.265   4.246   4.228   4.244   4.022   3.873   3.318   2.819   2.230   1.617
   1.043   0.706   0.483   0.364   0.258   0.218   0.189   0.142   0.150   0.142
   0.189   0.218   0.258   0.364   0.483   0.706   1.043   1.617   2.230   2.819
   3.318   3.873   4.022   4.244   4.228   4.246   4.265   4.246   4.228   4.244
   4.022   3.873   3.318   2.819   2.230   1.617   1.043   0.706   0.483   0.364
   0.258   0.218   0.189   0.142   0.150   0.142   0.189   0.218   0.258   0.364
   0.483   0.706   1.043   1.617   2.230   2.819   3.318   3.873   4.022   4.244
   4.228   4.246
   2.170   2.167   2.260   2.465   2.719   2.922   2.907   2.772   2.604   2.121
   1.627   1.107   0.789   0.575   0.433   0.351   0.302   0.235   0.230   0.235
   0.302   0.351   0.433   0.575   0.789   1.107   1.627   2.121   2.604   2.772
   2.907   2.922   2.719   2.465   2.260   2.167   2.170   2.167   2.260   2.465
   2.719   2.922   2.907   2.772   2.604   2.121   1.627   1.107   0.789   0.575
   0.433   0.351   0.302   0.235   0.230   0.235   0.302   0.351   0.433   0.575
   0.789   1.107   1.627   2.121   2.604   2.772   2.907   2.922   2.719   2.465
   2.260   2.167
   0.769   0.781   0.893   1.059   1.297   1.705   1.861   2.073   2.112   2.000
   1.847   1.453   1.087   0.817   0.619   0.490   0.396   0.321   0.297   0.321
   0.396   0.490   0.619   0.817   1.087   1.453   1.847   2.000   2.112   2.073
   1.861   1.705   1.297   1.059   0.893   0.781   0.769   0.781   0.893   1.059
   1.297   1.705   1.861   2.073   2.112   2.000   1.847   1.453   1.087   0.817
   0.619   0.490   0.396   0.321   0.297   0.321   0.396   0.490   0.619   0.817
   1.087   1.453   1.847   2.000   2.112   2.073   1.861   1.705   1.297   1.059
   0.893   0.781
   0.252   0.290   0.342   0.412   0.475   0.810   1.018   1.312   1.455   1.543
   1.593   1.525   1.297   1.102   0.789   0.673   0.508   0.442   0.433   0.442
   0.508   0.673   0.789   1.102   1.297   1.525   1.593   1.543   1.455   1.312
   1.018   0.810   0.475   0.412   0.342   0.290   0.252   0.290   0.342   0.412
   0.475   0.810   1.018   1.312   1.455   1.543   1.593   1.525   1.297   1.102
   0.789   0.673   0.508   0.442   0.433   0.442   0.508   0.673   0.789   1.102
   1.297   1.525   1.593   1.543   1.455   1.312   1.018   0.810   0.475   0.412
   0.342   0.290
   0.164   0.198   0.194   0.211   0.247   0.352   0.536   0.785   0.980   1.139
   1.181   1.294   1.335   1.303   1.002   0.913   0.695   0.617   0.631   0.617
   0.695   0.913   1.002   1.303   1.335   1.294   1.181   1.139   0.980   0.785
   0.536   0.352   0.247   0.211   0.194   0.198   0.164   0.198   0.194   0.211
   0.247   0.352   0.536   0.785   0.980   1.139   1.181   1.294   1.335   1.303
   1.002   0.913   0.695   0.617   0.631   0.617   0.695   0.913   1.002   1.303
   1.335   1.294   1.181   1.139   0.980   0.785   0.536   0.352   0.247   0.211
   0.194   0.198
   0.153   0.159   0.179   0.143   0.208   0.198   0.301   0.467   0.653   0.843
   0.813   0.960   1.164   1.302   1.317   1.129   0.866   0.755   0.758   0.755
   0.866   1.129   1.317   1.302   1.164   0.960   0.813   0.843   0.653   0.467
   0.301   0.198   0.208   0.143   0.179   0.159   0.153   0.159   0.179   0.143
   0.208   0.198   0.301   0.467   0.653   0.843   0.813   0.960   1.164   1.302
   1.317   1.129   0.866   0.755   0.758   0.755   0.866   1.129   1.317   1.302
   1.164   0.960   0.813   0.843   0.653   0.467   0.301   0.198   0.208   0.143
   0.179   0.159
   0.150   0.153   0.186   0.150   0.141   0.109   0.209   0.321   0.469   0.556
   0.581   0.716   0.872   1.120   1.255   1.212   0.958   0.910   0.829   0.910
   0.958   1.212   1.255   1.120   0.872   0.716   0.581   0.556   0.469   0.321
   0.209   0.109   0.141   0.150   0.186   0.153   0.150   0.153   0.186   0.150
   0.141   0.109   0.209   0.321   0.469   0.556   0.581   0.716   0.872   1.120
   1.255   1.212   0.958   0.910   0.829   0.910   0.958   1.212   1.255   1.120
   0.872   0.716   0.581   0.556   0.469   0.321   0.209   0.109   0.141   0.150
   0.186   0.153
   0.192   0.229   0.262   0.169   0.158   0.150   0.269   0.321   0.398   0.461
   0.447   0.587   0.668   0.857   0.996   1.157   1.023   1.069   0.940   1.069
   1.023   1.157   0.996   0.857   0.668   0.587   0.447   0.461   0.398   0.321
   0.269   0.150   0.158   0.169   0.262   0.229   0.192   0.229   0.262   0.169
   0.158   0.150   0.269   0.321   0.398   0.461   0.447   0.587   0.668   0.857
   0.996   1.157   1.023   1.069   0.940   1.069   1.023   1.157   0.996   0.857
   0.668   0.587   0.447   0.461   0.398   0.321   0.269   0.150   0.158   0.169
   0.262   0.229
   0.432   0.442   0.370   0.306   0.351   0.319   0.347   0.392   0.456   0.478
   0.471   0.551   0.688   0.678   0.945   1.123   1.215   1.183   1.135   1.183
   1.215   1.123   0.945   0.678   0.688   0.551   0.471   0.478   0.456   0.392
   0.347   0.319   0.351   0.306   0.370   0.442   0.432   0.442   0.370   0.306
   0.351   0.319   0.347   0.392   0.456   0.478   0.471   0.551   0.688   0.678
   0.945   1.123   1.215   1.183   1.135   1.183   1.215   1.123   0.945   0.678
   0.688   0.551   0.471   0.478   0.456   0.392   0.347   0.319   0.351   0.306
   0.370   0.442
  4  1      6.4743109E-02
  4  2     -5.5224021E-01
  4  3     -8.7483488E-01
  6  1      2.7458710E+00
  6  2     -3.4366602E+00
  6  3      1.3471505E+00
  6  4      3.5428650E-01
  8  1      4.3538820E-02
  8  2      3.1075876E-01
  8  3     -3.0652585E-01
  8  4      9.9884047E-01
  8  5      4.2791638E-01
 10  1     -6.9180033E-02
 10  2     -1.8091664E-01
 10  3      6.0905063E-01
 10  4     -2.3491088E-01
 10  5     -8.1797843E-02
 10  6     -4.6168438E-01
 12  1     -1.2557544E-01  2.1686587E+00
 12  2     -3.5324516E-02 -2.5983638E+00
 12  3     -1.3714731E-01  2.1800318E+00
 12  4      3.8106603E-02 -1.0277242E+00
 12  5      1.2219773E-01  1.8417677E-02
 12  6     -9.3054508E-01  6.5356423E-01
 12  7     -1.0989217E-01  2.1248929E-03
 14  1     -2.2591120E-01
 14  2      2.9131225E-01
 14  3     -3.8448746E-01
 14  4      2.8043488E-01
 14  5     -4.2535965E-01
 14  6      2.1804568E-01
 14  7      6.9276069E-02
 14  8      1.0142719E-01
 16  1      1.2319328E-01 -6.8262441E-02
 16  2     -3.0409744E-01  1.5669501E-01
 16  3      2.2016794E-01  1.5760068E-01
 16  4     -1.2610899E-01 -3.4643282E-01
 16  5      1.8845047E-01  2.5575908E-01
 16  6     -1.1579110E-01 -7.3335542E-02
 16  7      1.6903419E-01  2.0550633E-02
 16  8      3.0410997E-01  2.4086310E-02
 16  9      1.5692580E-01  4.2616160E-02
 220       5.00   72    0 5.00   18    0
   3.487   3.488   3.492   3.499   3.508   3.519   3.532   3.546   3.561   3.577
   3.593   3.609   3.623   3.636   3.648   3.657   3.664   3.668   3.669   3.668
   3.664   3.657   3.648   3.636   3.623   3.609   3.593   3.577   3.561   3.546
   3.532   3.519   3.508   3.499   3.492   3.488   3.487   3.488   3.492   3.499
   3.508   3.519   3.532   3.546   3.561   3.577   3.593   3.609   3.623   3.636
   3.648   3.657   3.664   3.668   3.669   3.668   3.664   3.657   3.648   3.636
   3.623   3.609   3.593   3.577   3.561   3.546   3.532   3.519   3.508   3.499
   3.492   3.488
   2.118   2.127   2.154   2.199   2.260   2.337   2.428   2.531   2.644   2.764
   2.886   3.008   3.125   3.233   3.328   3.406   3.464   3.500   3.512   3.500
   3.464   3.406   3.328   3.233   3.125   3.008   2.886   2.764   2.644   2.531
   2.428   2.337   2.260   2.199   2.154   2.127   2.118   2.127   2.154   2.199
   2.260   2.337   2.428   2.531   2.644   2.764   2.886   3.008   3.125   3.233
   3.328   3.406   3.464   3.500   3.512   3.500   3.464   3.406   3.328   3.233
   3.125   3.008   2.886   2.764   2.644   2.531   2.428   2.337   2.260   2.199
   2.154   2.127
   0.482   0.494   0.531   0.593   0.682   0.799   0.946   1.121   1.324   1.552
   1.798   2.055   2.314   2.562   2.787   2.978   3.123   3.214   3.245   3.214
   3.123   2.978   2.787   2.562   2.314   2.055   1.798   1.552   1.324   1.121
   0.946   0.799   0.682   0.593   0.531   0.494   0.482   0.494   0.531   0.593
   0.682   0.799   0.946   1.121   1.324   1.552   1.798   2.055   2.314   2.562
   2.787   2.978   3.123   3.214   3.245   3.214   3.123   2.978   2.787   2.562
   2.314   2.055   1.798   1.552   1.324   1.121   0.946   0.799   0.682   0.593
   0.531   0.494
  -0.300  -0.297  -0.287  -0.265  -0.226  -0.161  -0.062   0.078   0.267   0.507
   0.795   1.125   1.481   1.844   2.191   2.495   2.734   2.886   2.938   2.886
   2.734   2.495   2.191   1.844   1.481   1.125   0.795   0.507   0.267   0.078
  -0.062  -0.161  -0.226  -0.265  -0.287  -0.297  -0.300  -0.297  -0.287  -0.265
  -0.226  -0.161  -0.062   0.078   0.267   0.507   0.795   1.125   1.481   1.844
   2.191   2.495   2.734   2.886   2.938   2.886   2.734   2.495   2.191   1.844
   1.481   1.125   0.795   0.507   0.267   0.078  -0.062  -0.161  -0.226  -0.265
  -0.287  -0.297
  -0.082  -0.091  -0.119  -0.159  -0.204  -0.241  -0.256  -0.232  -0.153  -0.005
   0.219   0.519   0.882   1.284   1.692   2.067   2.370   2.567   2.636   2.567
   2.370   2.067   1.692   1.284   0.882   0.519   0.219  -0.005  -0.153  -0.232
  -0.256  -0.241  -0.204  -0.159  -0.119  -0.091  -0.082  -0.091  -0.119  -0.159
  -0.204  -0.241  -0.256  -0.232  -0.153  -0.005   0.219   0.519   0.882   1.284
   1.692   2.067   2.370   2.567   2.636   2.567   2.370   2.067   1.692   1.284
   0.882   0.519   0.219  -0.005  -0.153  -0.232  -0.256  -0.241  -0.204  -0.159
  -0.119  -0.091
   0.369   0.359   0.329   0.281   0.215   0.137   0.058  -0.006  -0.032   0.002
   0.118   0.324   0.616   0.973   1.360   1.733   2.043   2.248   2.320   2.248
   2.043   1.733   1.360   0.973   0.616   0.324   0.118   0.002  -0.032  -0.006
   0.058   0.137   0.215   0.281   0.329   0.359   0.369   0.359   0.329   0.281
   0.215   0.137   0.058  -0.006  -0.032   0.002   0.118   0.324   0.616   0.973
   1.360   1.733   2.043   2.248   2.320   2.248   2.043   1.733   1.360   0.973
   0.616   0.324   0.118   0.002  -0.032  -0.006   0.058   0.137   0.215   0.281
   0.329   0.359
   0.303   0.310   0.328   0.351   0.367   0.364   0.339   0.296   0.254   0.241
   0.286   0.408   0.610   0.876   1.176   1.469   1.716   1.879   1.937   1.879
   1.716   1.469   1.176   0.876   0.610   0.408   0.286   0.241   0.254   0.296
   0.339   0.364   0.367   0.351   0.328   0.310   0.303   0.310   0.328   0.351
   0.367   0.364   0.339   0.296   0.254   0.241   0.286   0.408   0.610   0.876
   1.176   1.469   1.716   1.879   1.937   1.879   1.716   1.469   1.176   0.876
   0.610   0.408   0.286   0.241   0.254   0.296   0.339   0.364   0.367   0.351
   0.328   0.310
  -0.205  -0.182  -0.116  -0.010   0.119   0.244   0.338   0.388   0.406   0.420
   0.465   0.563   0.714   0.898   1.087   1.252   1.376   1.451   1.476   1.451
   1.376   1.252   1.087   0.898   0.714   0.563   0.465   0.420   0.406   0.388
   0.338   0.244   0.119  -0.010  -0.116  -0.182  -0.205  -0.182  -0.116  -0.010
   0.119   0.244   0.338   0.388   0.406   0.420   0.465   0.563   0.714   0.898
   1.087   1.252   1.376   1.451   1.476   1.451   1.376   1.252   1.087   0.898
   0.714   0.563   0.465   0.420   0.406   0.388   0.338   0.244   0.119  -0.010
  -0.116  -0.182
  -0.319  -0.316  -0.289  -0.213  -0.078   0.090   0.244   0.350   0.409   0.456
   0.533   0.658   0.816   0.968   1.071   1.105   1.083   1.042   1.022   1.042
   1.083   1.105   1.071   0.968   0.816   0.658   0.533   0.456   0.409   0.350
   0.244   0.090  -0.078  -0.213  -0.289  -0.316  -0.319  -0.316  -0.289  -0.213
  -0.078   0.090   0.244   0.350   0.409   0.456   0.533   0.658   0.816   0.968
   1.071   1.105   1.083   1.042   1.022   1.042   1.083   1.105   1.071   0.968
   0.816   0.658   0.533   0.456   0.409   0.350   0.244   0.090  -0.078  -0.213
  -0.289  -0.316
   0.736   0.664   0.499   0.348   0.291   0.330   0.401   0.444   0.450   0.460
   0.529   0.678   0.875   1.048   1.122   1.066   0.916   0.763   0.699   0.763
   0.916   1.066   1.122   1.048   0.875   0.678   0.529   0.460   0.450   0.444
   0.401   0.330   0.291   0.348   0.499   0.664   0.736   0.664   0.499   0.348
   0.291   0.330   0.401   0.444   0.450   0.460   0.529   0.678   0.875   1.048
   1.122   1.066   0.916   0.763   0.699   0.763   0.916   1.066   1.122   1.048
   0.875   0.678   0.529   0.460   0.450   0.444   0.401   0.330   0.291   0.348
   0.499   0.664
   2.809   2.619   2.152   1.629   1.241   1.029   0.916   0.807   0.674   0.566
   0.555   0.675   0.891   1.105   1.203   1.119   0.893   0.656   0.555   0.656
   0.893   1.119   1.203   1.105   0.891   0.675   0.555   0.566   0.674   0.807
   0.916   1.029   1.241   1.629   2.152   2.619   2.809   2.619   2.152   1.629
   1.241   1.029   0.916   0.807   0.674   0.566   0.555   0.675   0.891   1.105
   1.203   1.119   0.893   0.656   0.555   0.656   0.893   1.119   1.203   1.105
   0.891   0.675   0.555   0.566   0.674   0.807   0.916   1.029   1.241   1.629
   2.152   2.619
   4.680   4.389   3.666   2.841   2.192   1.790   1.535   1.299   1.039   0.800
   0.666   0.695   0.875   1.109   1.250   1.187   0.937   0.655   0.533   0.655
   0.937   1.187   1.250   1.109   0.875   0.695   0.666   0.800   1.039   1.299
   1.535   1.790   2.192   2.841   3.666   4.389   4.680   4.389   3.666   2.841
   2.192   1.790   1.535   1.299   1.039   0.800   0.666   0.695   0.875   1.109
   1.250   1.187   0.937   0.655   0.533   0.655   0.937   1.187   1.250   1.109
   0.875   0.695   0.666   0.800   1.039   1.299   1.535   1.790   2.192   2.841
   3.666   4.389
   4.944   4.639   3.891   3.064   2.446   2.088   1.865   1.637   1.358   1.066
   0.841   0.762   0.857   1.061   1.222   1.193   0.959   0.673   0.545   0.673
   0.959   1.193   1.222   1.061   0.857   0.762   0.841   1.066   1.358   1.637
   1.865   2.088   2.446   3.064   3.891   4.639   4.944   4.639   3.891   3.064
   2.446   2.088   1.865   1.637   1.358   1.066   0.841   0.762   0.857   1.061
   1.222   1.193   0.959   0.673   0.545   0.673   0.959   1.193   1.222   1.061
   0.857   0.762   0.841   1.066   1.358   1.637   1.865   2.088   2.446   3.064
   3.891   4.639
   3.287   3.073   2.575   2.089   1.814   1.733   1.709   1.628   1.464   1.244
   1.022   0.877   0.877   1.007   1.140   1.129   0.940   0.696   0.585   0.696
   0.940   1.129   1.140   1.007   0.877   0.877   1.022   1.244   1.464   1.628
   1.709   1.733   1.814   2.089   2.575   3.073   3.287   3.073   2.575   2.089
   1.814   1.733   1.709   1.628   1.464   1.244   1.022   0.877   0.877   1.007
   1.140   1.129   0.940   0.696   0.585   0.696   0.940   1.129   1.140   1.007
   0.877   0.877   1.022   1.244   1.464   1.628   1.709   1.733   1.814   2.089
   2.575   3.073
   0.920   0.843   0.703   0.668   0.801   1.017   1.197   1.295   1.316   1.265
   1.149   1.019   0.957   0.991   1.054   1.045   0.936   0.796   0.732   0.796
   0.936   1.045   1.054   0.991   0.957   1.019   1.149   1.265   1.316   1.295
   1.197   1.017   0.801   0.668   0.703   0.843   0.920   0.843   0.703   0.668
   0.801   1.017   1.197   1.295   1.316   1.265   1.149   1.019   0.957   0.991
   1.054   1.045   0.936   0.796   0.732   0.796   0.936   1.045   1.054   0.991
   0.957   1.019   1.149   1.265   1.316   1.295   1.197   1.017   0.801   0.668
   0.703   0.843
  -0.469  -0.453  -0.367  -0.158   0.139   0.423   0.641   0.825   1.005   1.146
   1.191   1.144   1.070   1.018   0.995   0.990   1.001   1.024   1.037   1.024
   1.001   0.990   0.995   1.018   1.070   1.144   1.191   1.146   1.005   0.825
   0.641   0.423   0.139  -0.158  -0.367  -0.453  -0.469  -0.453  -0.367  -0.158
   0.139   0.423   0.641   0.825   1.005   1.146   1.191   1.144   1.070   1.018
   0.995   0.990   1.001   1.024   1.037   1.024   1.001   0.990   0.995   1.018
   1.070   1.144   1.191   1.146   1.005   0.825   0.641   0.423   0.139  -0.158
  -0.367  -0.453
  -0.312  -0.286  -0.196  -0.047   0.102   0.196   0.268   0.418   0.680   0.969
   1.166   1.223   1.168   1.058   0.964   0.971   1.118   1.322   1.418   1.322
   1.118   0.971   0.964   1.058   1.168   1.223   1.166   0.969   0.680   0.418
   0.268   0.196   0.102  -0.047  -0.196  -0.286  -0.312  -0.286  -0.196  -0.047
   0.102   0.196   0.268   0.418   0.680   0.969   1.166   1.223   1.168   1.058
   0.964   0.971   1.118   1.322   1.418   1.322   1.118   0.971   0.964   1.058
   1.168   1.223   1.166   0.969   0.680   0.418   0.268   0.196   0.102  -0.047
  -0.196  -0.286
   0.400   0.400   0.403   0.394   0.328   0.202   0.112   0.194   0.478   0.843
   1.129   1.253   1.220   1.083   0.951   0.971   1.211   1.536   1.689   1.536
   1.211   0.971   0.951   1.083   1.220   1.253   1.129   0.843   0.478   0.194
   0.112   0.202   0.328   0.394   0.403   0.400   0.400   0.400   0.403   0.394
   0.328   0.202   0.112   0.194   0.478   0.843   1.129   1.253   1.220   1.083
   0.951   0.971   1.211   1.536   1.689   1.536   1.211   0.971   0.951   1.083
   1.220   1.253   1.129   0.843   0.478   0.194   0.112   0.202   0.328   0.394
   0.403   0.400
 200       5.00   72    0 5.00   18    0
   0.654   0.654   0.656   0.658   0.661   0.665   0.669   0.674   0.679   0.684
   0.690   0.695   0.700   0.704   0.708   0.711   0.714   0.715   0.716   0.715
   0.714   0.711   0.708   0.704   0.700   0.695   0.690   0.684   0.679   0.674
   0.669   0.665   0.661   0.658   0.656   0.654   0.654   0.654   0.656   0.658
   0.661   0.665   0.669   0.674   0.679   0.684   0.690   0.695   0.700   0.704
   0.708   0.711   0.714   0.715   0.716   0.715   0.714   0.711   0.708   0.704
   0.700   0.695   0.690   0.684   0.679   0.674   0.669   0.665   0.661   0.658
   0.656   0.654
   0.334   0.336   0.340   0.349   0.360   0.376   0.396   0.419   0.447   0.478
   0.511   0.547   0.582   0.616   0.647   0.673   0.693   0.706   0.710   0.706
   0.693   0.673   0.647   0.616   0.582   0.547   0.511   0.478   0.447   0.419
   0.396   0.376   0.360   0.349   0.340   0.336   0.334   0.336   0.340   0.349
   0.360   0.376   0.396   0.419   0.447   0.478   0.511   0.547   0.582   0.616
   0.647   0.673   0.693   0.706   0.710   0.706   0.693   0.673   0.647   0.616
   0.582   0.547   0.511   0.478   0.447   0.419   0.396   0.376   0.360   0.349
   0.340   0.336
   0.336   0.332   0.323   0.308   0.292   0.275   0.262   0.255   0.259   0.275
   0.304   0.347   0.401   0.463   0.526   0.585   0.633   0.664   0.675   0.664
   0.633   0.585   0.526   0.463   0.401   0.347   0.304   0.275   0.259   0.255
   0.262   0.275   0.292   0.308   0.323   0.332   0.336   0.332   0.323   0.308
   0.292   0.275   0.262   0.255   0.259   0.275   0.304   0.347   0.401   0.463
   0.526   0.585   0.633   0.664   0.675   0.664   0.633   0.585   0.526   0.463
   0.401   0.347   0.304   0.275   0.259   0.255   0.262   0.275   0.292   0.308
   0.323   0.332
   1.018   1.006   0.969   0.910   0.832   0.739   0.636   0.532   0.434   0.353
   0.296   0.271   0.281   0.323   0.389   0.465   0.535   0.585   0.603   0.585
   0.535   0.465   0.389   0.323   0.281   0.271   0.296   0.353   0.434   0.532
   0.636   0.739   0.832   0.910   0.969   1.006   1.018   1.006   0.969   0.910
   0.832   0.739   0.636   0.532   0.434   0.353   0.296   0.271   0.281   0.323
   0.389   0.465   0.535   0.585   0.603   0.585   0.535   0.465   0.389   0.323
   0.281   0.271   0.296   0.353   0.434   0.532   0.636   0.739   0.832   0.910
   0.969   1.006
   1.911   1.897   1.856   1.787   1.692   1.568   1.417   1.239   1.042   0.837
   0.642   0.478   0.365   0.315   0.325   0.379   0.451   0.510   0.533   0.510
   0.451   0.379   0.325   0.315   0.365   0.478   0.642   0.837   1.042   1.239
   1.417   1.568   1.692   1.787   1.856   1.897   1.911   1.897   1.856   1.787
   1.692   1.568   1.417   1.239   1.042   0.837   0.642   0.478   0.365   0.315
   0.325   0.379   0.451   0.510   0.533   0.510   0.451   0.379   0.325   0.315
   0.365   0.478   0.642   0.837   1.042   1.239   1.417   1.568   1.692   1.787
   1.856   1.897
   2.264   2.258   2.244   2.222   2.192   2.148   2.076   1.960   1.786   1.550
   1.267   0.970   0.704   0.510   0.410   0.401   0.447   0.503   0.527   0.503
   0.447   0.401   0.410   0.510   0.704   0.970   1.267   1.550   1.786   1.960
   2.076   2.148   2.192   2.222   2.244   2.258   2.264   2.258   2.244   2.222
   2.192   2.148   2.076   1.960   1.786   1.550   1.267   0.970   0.704   0.510
   0.410   0.401   0.447   0.503   0.527   0.503   0.447   0.401   0.410   0.510
   0.704   0.970   1.267   1.550   1.786   1.960   2.076   2.148   2.192   2.222
   2.244   2.258
   1.875   1.876   1.883   1.908   1.963   2.046   2.140   2.211   2.213   2.107
   1.880   1.554   1.190   0.864   0.642   0.546   0.549   0.592   0.614   0.592
   0.549   0.546   0.642   0.864   1.190   1.554   1.880   2.107   2.213   2.211
   2.140   2.046   1.963   1.908   1.883   1.876   1.875   1.876   1.883   1.908
   1.963   2.046   2.140   2.211   2.213   2.107   1.880   1.554   1.190   0.864
   0.642   0.546   0.549   0.592   0.614   0.592   0.549   0.546   0.642   0.864
   1.190   1.554   1.880   2.107   2.213   2.211   2.140   2.046   1.963   1.908
   1.883   1.876
   1.153   1.149   1.148   1.172   1.247   1.392   1.603   1.852   2.082   2.216
   2.188   1.979   1.633   1.250   0.938   0.764   0.722   0.747   0.766   0.747
   0.722   0.764   0.938   1.250   1.633   1.979   2.188   2.216   2.082   1.852
   1.603   1.392   1.247   1.172   1.148   1.149   1.153   1.149   1.148   1.172
   1.247   1.392   1.603   1.852   2.082   2.216   2.188   1.979   1.633   1.250
   0.938   0.764   0.722   0.747   0.766   0.747   0.722   0.764   0.938   1.250
   1.633   1.979   2.188   2.216   2.082   1.852   1.603   1.392   1.247   1.172
   1.148   1.149
   0.543   0.536   0.523   0.525   0.568   0.676   0.874   1.173   1.543   1.898
   2.122   2.122   1.896   1.539   1.194   0.969   0.889   0.896   0.910   0.896
   0.889   0.969   1.194   1.539   1.896   2.122   2.122   1.898   1.543   1.173
   0.874   0.676   0.568   0.525   0.523   0.536   0.543   0.536   0.523   0.525
   0.568   0.676   0.874   1.173   1.543   1.898   2.122   2.122   1.896   1.539
   1.194   0.969   0.889   0.896   0.910   0.896   0.889   0.969   1.194   1.539
   1.896   2.122   2.122   1.898   1.543   1.173   0.874   0.676   0.568   0.525
   0.523   0.536
   0.196   0.195   0.196   0.208   0.231   0.271   0.368   0.588   0.965   1.439
   1.853   2.047   1.959   1.665   1.327   1.083   0.979   0.968   0.975   0.968
   0.979   1.083   1.327   1.665   1.959   2.047   1.853   1.439   0.965   0.588
   0.368   0.271   0.231   0.208   0.196   0.195   0.196   0.195   0.196   0.208
   0.231   0.271   0.368   0.588   0.965   1.439   1.853   2.047   1.959   1.665
   1.327   1.083   0.979   0.968   0.975   0.968   0.979   1.083   1.327   1.665
   1.959   2.047   1.853   1.439   0.965   0.588   0.368   0.271   0.231   0.208
   0.196   0.195
   0.099   0.101   0.116   0.154   0.188   0.189   0.189   0.301   0.623   1.122
   1.617   1.895   1.867   1.613   1.301   1.071   0.962   0.935   0.935   0.935
   0.962   1.071   1.301   1.613   1.867   1.895   1.617   1.122   0.623   0.301
   0.189   0.189   0.188   0.154   0.116   0.101   0.099   0.101   0.116   0.154
   0.188   0.189   0.189   0.301   0.623   1.122   1.617   1.895   1.867   1.613
   1.301   1.071   0.962   0.935   0.935   0.935   0.962   1.071   1.301   1.613
   1.867   1.895   1.617   1.122   0.623   0.301   0.189   0.189   0.188   0.154
   0.116   0.101
   0.184   0.172   0.165   0.199   0.244   0.238   0.200   0.265   0.562   1.053
   1.525   1.754   1.677   1.415   1.142   0.959   0.867   0.829   0.818   0.829
   0.867   0.959   1.142   1.415   1.677   1.754   1.525   1.053   0.562   0.265
   0.200   0.238   0.244   0.199   0.165   0.172   0.184   0.172   0.165   0.199
   0.244   0.238   0.200   0.265   0.562   1.053   1.525   1.754   1.677   1.415
   1.142   0.959   0.867   0.829   0.818   0.829   0.867   0.959   1.142   1.415
   1.677   1.754   1.525   1.053   0.562   0.265   0.200   0.238   0.244   0.199
   0.165   0.172
   0.270   0.241   0.205   0.228   0.289   0.307   0.291   0.383   0.703   1.173
   1.546   1.626   1.433   1.148   0.936   0.825   0.764   0.715   0.693   0.715
   0.764   0.825   0.936   1.148   1.433   1.626   1.546   1.173   0.703   0.383
   0.291   0.307   0.289   0.228   0.205   0.241   0.270   0.241   0.205   0.228
   0.289   0.307   0.291   0.383   0.703   1.173   1.546   1.626   1.433   1.148
   0.936   0.825   0.764   0.715   0.693   0.715   0.764   0.825   0.936   1.148
   1.433   1.626   1.546   1.173   0.703   0.383   0.291   0.307   0.289   0.228
   0.205   0.241
   0.195   0.173   0.162   0.235   0.361   0.446   0.498   0.650   0.986   1.378
   1.581   1.477   1.181   0.910   0.779   0.741   0.706   0.651   0.622   0.651
   0.706   0.741   0.779   0.910   1.181   1.477   1.581   1.378   0.986   0.650
   0.498   0.446   0.361   0.235   0.162   0.173   0.195   0.173   0.162   0.235
   0.361   0.446   0.498   0.650   0.986   1.378   1.581   1.477   1.181   0.910
   0.779   0.741   0.706   0.651   0.622   0.651   0.706   0.741   0.779   0.910
   1.181   1.477   1.581   1.378   0.986   0.650   0.498   0.446   0.361   0.235
   0.162   0.173
   0.137   0.138   0.187   0.346   0.565   0.746   0.888   1.088   1.370   1.581
   1.547   1.274   0.953   0.760   0.712   0.713   0.688   0.643   0.621   0.643
   0.688   0.713   0.712   0.760   0.953   1.274   1.547   1.581   1.370   1.088
   0.888   0.746   0.565   0.346   0.187   0.138   0.137   0.138   0.187   0.346
   0.565   0.746   0.888   1.088   1.370   1.581   1.547   1.274   0.953   0.760
   0.712   0.713   0.688   0.643   0.621   0.643   0.688   0.713   0.712   0.760
   0.953   1.274   1.547   1.581   1.370   1.088   0.888   0.746   0.565   0.346
   0.187   0.138
   0.529   0.526   0.567   0.718   0.950   1.185   1.404   1.625   1.780   1.722
   1.412   1.017   0.758   0.689   0.700   0.689   0.662   0.656   0.660   0.656
   0.662   0.689   0.700   0.689   0.758   1.017   1.412   1.722   1.780   1.625
   1.404   1.185   0.950   0.718   0.567   0.526   0.529   0.526   0.567   0.718
   0.950   1.185   1.404   1.625   1.780   1.722   1.412   1.017   0.758   0.689
   0.700   0.689   0.662   0.656   0.660   0.656   0.662   0.689   0.700   0.689
   0.758   1.017   1.412   1.722   1.780   1.625   1.404   1.185   0.950   0.718
   0.567   0.526
   1.445   1.395   1.311   1.304   1.418   1.625   1.882   2.101   2.110   1.779
   1.222   0.758   0.601   0.657   0.692   0.637   0.605   0.657   0.700   0.657
   0.605   0.637   0.692   0.657   0.601   0.758   1.222   1.779   2.110   2.101
   1.882   1.625   1.418   1.304   1.311   1.395   1.445   1.395   1.311   1.304
   1.418   1.625   1.882   2.101   2.110   1.779   1.222   0.758   0.601   0.657
   0.692   0.637   0.605   0.657   0.700   0.657   0.605   0.637   0.692   0.657
   0.601   0.758   1.222   1.779   2.110   2.101   1.882   1.625   1.418   1.304
   1.311   1.395
   2.270   2.169   1.948   1.771   1.748   1.897   2.160   2.372   2.286   1.785
   1.082   0.589   0.508   0.639   0.678   0.586   0.552   0.649   0.720   0.649
   0.552   0.586   0.678   0.639   0.508   0.589   1.082   1.785   2.286   2.372
   2.160   1.897   1.748   1.771   1.948   2.169   2.270   2.169   1.948   1.771
   1.748   1.897   2.160   2.372   2.286   1.785   1.082   0.589   0.508   0.639
   0.678   0.586   0.552   0.649   0.720   0.649   0.552   0.586   0.678   0.639
   0.508   0.589   1.082   1.785   2.286   2.372   2.160   1.897   1.748   1.771
   1.948   2.169
 111       5.00   72    0 5.00   18    0
   0.161   0.161   0.163   0.166   0.170   0.176   0.182   0.188   0.196   0.203
   0.211   0.218   0.225   0.231   0.237   0.241   0.244   0.246   0.247   0.246
   0.244   0.241   0.237   0.231   0.225   0.218   0.211   0.203   0.196   0.188
   0.182   0.176   0.170   0.166   0.163   0.161   0.161   0.161   0.163   0.166
   0.170   0.176   0.182   0.188   0.196   0.203   0.211   0.218   0.225   0.231
   0.237   0.241   0.244   0.246   0.247   0.246   0.244   0.241   0.237   0.231
   0.225   0.218   0.211   0.203   0.196   0.188   0.182   0.176   0.170   0.166
   0.163   0.161
  -0.297  -0.294  -0.287  -0.273  -0.255  -0.230  -0.200  -0.164  -0.123  -0.079
  -0.031   0.018   0.066   0.112   0.153   0.188   0.213   0.229   0.235   0.229
   0.213   0.188   0.153   0.112   0.066   0.018  -0.031  -0.079  -0.123  -0.164
  -0.200  -0.230  -0.255  -0.273  -0.287  -0.294  -0.297  -0.294  -0.287  -0.273
  -0.255  -0.230  -0.200  -0.164  -0.123  -0.079  -0.031   0.018   0.066   0.112
   0.153   0.188   0.213   0.229   0.235   0.229   0.213   0.188   0.153   0.112
   0.066   0.018  -0.031  -0.079  -0.123  -0.164  -0.200  -0.230  -0.255  -0.273
  -0.287  -0.294
  -0.257  -0.263  -0.279  -0.302  -0.328  -0.352  -0.368  -0.371  -0.357  -0.326
  -0.277  -0.212  -0.136  -0.056   0.023   0.093   0.148   0.183   0.195   0.183
   0.148   0.093   0.023  -0.056  -0.136  -0.212  -0.277  -0.326  -0.357  -0.371
  -0.368  -0.352  -0.328  -0.302  -0.279  -0.263  -0.257  -0.263  -0.279  -0.302
  -0.328  -0.352  -0.368  -0.371  -0.357  -0.326  -0.277  -0.212  -0.136  -0.056
   0.023   0.093   0.148   0.183   0.195   0.183   0.148   0.093   0.023  -0.056
  -0.136  -0.212  -0.277  -0.326  -0.357  -0.371  -0.368  -0.352  -0.328  -0.302
  -0.279  -0.263
   1.012   0.981   0.893   0.756   0.584   0.392   0.201   0.027  -0.114  -0.211
  -0.259  -0.261  -0.221  -0.153  -0.068   0.016   0.088   0.136   0.152   0.136
   0.088   0.016  -0.068  -0.153  -0.221  -0.261  -0.259  -0.211  -0.114   0.027
   0.201   0.392   0.584   0.756   0.893   0.981   1.012   0.981   0.893   0.756
   0.584   0.392   0.201   0.027  -0.114  -0.211  -0.259  -0.261  -0.221  -0.153
  -0.068   0.016   0.088   0.136   0.152   0.136   0.088   0.016  -0.068  -0.153
  -0.221  -0.261  -0.259  -0.211  -0.114   0.027   0.201   0.392   0.584   0.756
   0.893   0.981
   3.008   2.953   2.789   2.530   2.193   1.805   1.394   0.992   0.629   0.330
   0.109  -0.028  -0.086  -0.080  -0.031   0.037   0.104   0.152   0.169   0.152
   0.104   0.037  -0.031  -0.080  -0.086  -0.028   0.109   0.330   0.629   0.992
   1.394   1.805   2.193   2.530   2.789   2.953   3.008   2.953   2.789   2.530
   2.193   1.805   1.394   0.992   0.629   0.330   0.109  -0.028  -0.086  -0.080
  -0.031   0.037   0.104   0.152   0.169   0.152   0.104   0.037  -0.031  -0.080
  -0.086  -0.028   0.109   0.330   0.629   0.992   1.394   1.805   2.193   2.530
   2.789   2.953
   4.324   4.271   4.115   3.858   3.505   3.072   2.581   2.062   1.553   1.090
   0.706   0.421   0.239   0.151   0.135   0.163   0.206   0.243   0.257   0.243
   0.206   0.163   0.135   0.151   0.239   0.421   0.706   1.090   1.553   2.062
   2.581   3.072   3.505   3.858   4.115   4.271   4.324   4.271   4.115   3.858
   3.505   3.072   2.581   2.062   1.553   1.090   0.706   0.421   0.239   0.151
   0.135   0.163   0.206   0.243   0.257   0.243   0.206   0.163   0.135   0.151
   0.239   0.421   0.706   1.090   1.553   2.062   2.581   3.072   3.505   3.858
   4.115   4.271
   3.973   3.963   3.927   3.847   3.703   3.474   3.151   2.741   2.271   1.780
   1.317   0.924   0.628   0.438   0.341   0.312   0.320   0.337   0.345   0.337
   0.320   0.312   0.341   0.438   0.628   0.924   1.317   1.780   2.271   2.741
   3.151   3.474   3.703   3.847   3.927   3.963   3.973   3.963   3.927   3.847
   3.703   3.474   3.151   2.741   2.271   1.780   1.317   0.924   0.628   0.438
   0.341   0.312   0.320   0.337   0.345   0.337   0.320   0.312   0.341   0.438
   0.628   0.924   1.317   1.780   2.271   2.741   3.151   3.474   3.703   3.847
   3.927   3.963
   2.316   2.356   2.468   2.622   2.778   2.884   2.894   2.777   2.527   2.169
   1.752   1.336   0.975   0.702   0.525   0.429   0.389   0.378   0.376   0.378
   0.389   0.429   0.525   0.702   0.975   1.336   1.752   2.169   2.527   2.777
   2.894   2.884   2.778   2.622   2.468   2.356   2.316   2.356   2.468   2.622
   2.778   2.884   2.894   2.777   2.527   2.169   1.752   1.336   0.975   0.702
   0.525   0.429   0.389   0.378   0.376   0.378   0.389   0.429   0.525   0.702
   0.975   1.336   1.752   2.169   2.527   2.777   2.894   2.884   2.778   2.622
   2.468   2.356
   0.624   0.678   0.839   1.091   1.407   1.741   2.032   2.219   2.259   2.142
   1.895   1.575   1.245   0.953   0.726   0.566   0.464   0.408   0.391   0.408
   0.464   0.566   0.726   0.953   1.245   1.575   1.895   2.142   2.259   2.219
   2.032   1.741   1.407   1.091   0.839   0.678   0.624   0.678   0.839   1.091
   1.407   1.741   2.032   2.219   2.259   2.142   1.895   1.575   1.245   0.953
   0.726   0.566   0.464   0.408   0.391   0.408   0.464   0.566   0.726   0.953
   1.245   1.575   1.895   2.142   2.259   2.219   2.032   1.741   1.407   1.091
   0.839   0.678
  -0.143  -0.119  -0.037   0.118   0.358   0.676   1.035   1.371   1.619   1.739
   1.725   1.606   1.422   1.212   1.000   0.802   0.635   0.521   0.481   0.521
   0.635   0.802   1.000   1.212   1.422   1.606   1.725   1.739   1.619   1.371
   1.035   0.676   0.358   0.118  -0.037  -0.119  -0.143  -0.119  -0.037   0.118
   0.358   0.676   1.035   1.371   1.619   1.739   1.725   1.606   1.422   1.212
   1.000   0.802   0.635   0.521   0.481   0.521   0.635   0.802   1.000   1.212
   1.422   1.606   1.725   1.739   1.619   1.371   1.035   0.676   0.358   0.118
  -0.037  -0.119
  -0.059  -0.071  -0.095  -0.095  -0.032   0.123   0.364   0.653   0.934   1.164
   1.325   1.419   1.448   1.407   1.288   1.104   0.896   0.730   0.667   0.730
   0.896   1.104   1.288   1.407   1.448   1.419   1.325   1.164   0.934   0.653
   0.364   0.123  -0.032  -0.095  -0.095  -0.071  -0.059  -0.071  -0.095  -0.095
  -0.032   0.123   0.364   0.653   0.934   1.164   1.325   1.419   1.448   1.407
   1.288   1.104   0.896   0.730   0.667   0.730   0.896   1.104   1.288   1.407
   1.448   1.419   1.325   1.164   0.934   0.653   0.364   0.123  -0.032  -0.095
  -0.095  -0.071
   0.167   0.148   0.102   0.051   0.032   0.073   0.181   0.335   0.505   0.680
   0.869   1.076   1.276   1.416   1.439   1.331   1.139   0.960   0.887   0.960
   1.139   1.331   1.439   1.416   1.276   1.076   0.869   0.680   0.505   0.335
   0.181   0.073   0.032   0.051   0.102   0.148   0.167   0.148   0.102   0.051
   0.032   0.073   0.181   0.335   0.505   0.680   0.869   1.076   1.276   1.416
   1.439   1.331   1.139   0.960   0.887   0.960   1.139   1.331   1.439   1.416
   1.276   1.076   0.869   0.680   0.505   0.335   0.181   0.073   0.032   0.051
   0.102   0.148
   0.092   0.090   0.087   0.090   0.115   0.176   0.263   0.342   0.395   0.442
   0.538   0.720   0.972   1.219   1.371   1.382   1.280   1.154   1.098   1.154
   1.280   1.382   1.371   1.219   0.972   0.720   0.538   0.442   0.395   0.342
   0.263   0.176   0.115   0.090   0.087   0.090   0.092   0.090   0.087   0.090
   0.115   0.176   0.263   0.342   0.395   0.442   0.538   0.720   0.972   1.219
   1.371   1.382   1.280   1.154   1.098   1.154   1.280   1.382   1.371   1.219
   0.972   0.720   0.538   0.442   0.395   0.342   0.263   0.176   0.115   0.090
   0.087   0.090
  -0.066  -0.060  -0.045  -0.014   0.052   0.167   0.308   0.415   0.448   0.425
   0.423   0.510   0.699   0.941   1.157   1.293   1.340   1.334   1.325   1.334
   1.340   1.293   1.157   0.941   0.699   0.510   0.423   0.425   0.448   0.415
   0.308   0.167   0.052  -0.014  -0.045  -0.060  -0.066  -0.060  -0.045  -0.014
   0.052   0.167   0.308   0.415   0.448   0.425   0.423   0.510   0.699   0.941
   1.157   1.293   1.340   1.334   1.325   1.334   1.340   1.293   1.157   0.941
   0.699   0.510   0.423   0.425   0.448   0.415   0.308   0.167   0.052  -0.014
  -0.045  -0.060
   0.186   0.186   0.176   0.157   0.157   0.217   0.337   0.459   0.523   0.519
   0.495   0.507   0.585   0.732   0.933   1.162   1.377   1.531   1.587   1.531
   1.377   1.162   0.933   0.732   0.585   0.507   0.495   0.519   0.523   0.459
   0.337   0.217   0.157   0.157   0.176   0.186   0.186   0.186   0.176   0.157
   0.157   0.217   0.337   0.459   0.523   0.519   0.495   0.507   0.585   0.732
   0.933   1.162   1.377   1.531   1.587   1.531   1.377   1.162   0.933   0.732
   0.585   0.507   0.495   0.519   0.523   0.459   0.337   0.217   0.157   0.157
   0.176   0.186
   1.019   1.032   1.039   0.981   0.855   0.724   0.644   0.624   0.633   0.647
   0.652   0.640   0.619   0.637   0.766   1.041   1.402   1.713   1.836   1.713
   1.402   1.041   0.766   0.637   0.619   0.640   0.652   0.647   0.633   0.624
   0.644   0.724   0.855   0.981   1.039   1.032   1.019   1.032   1.039   0.981
   0.855   0.724   0.644   0.624   0.633   0.647   0.652   0.640   0.619   0.637
   0.766   1.041   1.402   1.713   1.836   1.713   1.402   1.041   0.766   0.637
   0.619   0.640   0.652   0.647   0.633   0.624   0.644   0.724   0.855   0.981
   1.039   1.032
   2.089   2.154   2.269   2.268   2.060   1.695   1.301   0.991   0.819   0.777
   0.798   0.788   0.702   0.607   0.652   0.935   1.395   1.825   2.000   1.825
   1.395   0.935   0.652   0.607   0.702   0.788   0.798   0.777   0.819   0.991
   1.301   1.695   2.060   2.268   2.269   2.154   2.089   2.154   2.269   2.268
   2.060   1.695   1.301   0.991   0.819   0.777   0.798   0.788   0.702   0.607
   0.652   0.935   1.395   1.825   2.000   1.825   1.395   0.935   0.652   0.607
   0.702   0.788   0.798   0.777   0.819   0.991   1.301   1.695   2.060   2.268
   2.269   2.154
   2.825   2.942   3.173   3.261   3.034   2.518   1.885   1.330   0.984   0.865
   0.879   0.873   0.755   0.596   0.587   0.864   1.372   1.863   2.066   1.863
   1.372   0.864   0.587   0.596   0.755   0.873   0.879   0.865   0.984   1.330
   1.885   2.518   3.034   3.261   3.173   2.942   2.825   2.942   3.173   3.261
   3.034   2.518   1.885   1.330   0.984   0.865   0.879   0.873   0.755   0.596
   0.587   0.864   1.372   1.863   2.066   1.863   1.372   0.864   0.587   0.596
   0.755   0.873   0.879   0.865   0.984   1.330   1.885   2.518   3.034   3.261
   3.173   2.942
TEXTURE_INDEX=   3.6548
ERR_CF 220         1080     514   37.82   23.16
ERR_CF 200         1080     324   25.44    9.49
ERR_CF 111         1080     300   66.73    9.99
