TEXEVAL                                                                         
Analysis started on 21-Oct-19 11:25:15                                          
 LMAX=14LFMAX=03 CUBIC ORTHO   
 220      5.00 5.00
 200      5.00 5.00
 111      5.00 5.00
 220       5.00   72    0 5.00   15    0
   1.504   1.504   1.504   1.504   1.504   1.504   1.504   1.504   1.504   1.504
   1.504   1.504   1.504   1.504   1.504   1.504   1.504   1.504   1.504   1.504
   1.504   1.504   1.504   1.504   1.504   1.504   1.504   1.504   1.504   1.504
   1.504   1.504   1.504   1.504   1.504   1.504   1.504   1.504   1.504   1.504
   1.504   1.504   1.504   1.504   1.504   1.504   1.504   1.504   1.504   1.504
   1.504   1.504   1.504   1.504   1.504   1.504   1.504   1.504   1.504   1.504
   1.504   1.504   1.504   1.504   1.504   1.504   1.504   1.504   1.504   1.504
   1.504   1.504
   0.791   0.786   0.901   1.023   0.926   1.003   1.042   1.030   1.076   1.057
   1.175   1.309   1.339   1.437   1.479   1.486   1.495   1.435   1.516   1.435
   1.495   1.486   1.479   1.437   1.339   1.309   1.175   1.057   1.076   1.030
   1.042   1.003   0.926   1.023   0.901   0.786   0.791   0.786   0.901   1.023
   0.926   1.003   1.042   1.030   1.076   1.057   1.175   1.309   1.339   1.437
   1.479   1.486   1.495   1.435   1.516   1.435   1.495   1.486   1.479   1.437
   1.339   1.309   1.175   1.057   1.076   1.030   1.042   1.003   0.926   1.023
   0.901   0.786
   0.506   0.491   0.614   0.642   0.594   0.700   0.700   0.869   0.711   0.889
   1.073   1.173   1.319   1.399   1.502   1.602   1.770   1.730   1.920   1.730
   1.770   1.602   1.502   1.399   1.319   1.173   1.073   0.889   0.711   0.869
   0.700   0.700   0.594   0.642   0.614   0.491   0.506   0.491   0.614   0.642
   0.594   0.700   0.700   0.869   0.711   0.889   1.073   1.173   1.319   1.399
   1.502   1.602   1.770   1.730   1.920   1.730   1.770   1.602   1.502   1.399
   1.319   1.173   1.073   0.889   0.711   0.869   0.700   0.700   0.594   0.642
   0.614   0.491
   0.352   0.350   0.426   0.443   0.383   0.443   0.354   0.600   0.505   0.697
   0.814   1.022   1.134   1.436   1.504   1.750   1.842   2.134   2.296   2.134
   1.842   1.750   1.504   1.436   1.134   1.022   0.814   0.697   0.505   0.600
   0.354   0.443   0.383   0.443   0.426   0.350   0.352   0.350   0.426   0.443
   0.383   0.443   0.354   0.600   0.505   0.697   0.814   1.022   1.134   1.436
   1.504   1.750   1.842   2.134   2.296   2.134   1.842   1.750   1.504   1.436
   1.134   1.022   0.814   0.697   0.505   0.600   0.354   0.443   0.383   0.443
   0.426   0.350
   0.202   0.199   0.218   0.297   0.288   0.298   0.282   0.391   0.415   0.555
   0.678   0.768   0.979   1.313   1.537   1.743   1.772   2.275   2.177   2.275
   1.772   1.743   1.537   1.313   0.979   0.768   0.678   0.555   0.415   0.391
   0.282   0.298   0.288   0.297   0.218   0.199   0.202   0.199   0.218   0.297
   0.288   0.298   0.282   0.391   0.415   0.555   0.678   0.768   0.979   1.313
   1.537   1.743   1.772   2.275   2.177   2.275   1.772   1.743   1.537   1.313
   0.979   0.768   0.678   0.555   0.415   0.391   0.282   0.298   0.288   0.297
   0.218   0.199
   0.109   0.166   0.167   0.285   0.308   0.264   0.298   0.384   0.382   0.424
   0.619   0.756   0.924   1.035   1.434   1.523   1.816   2.135   2.238   2.135
   1.816   1.523   1.434   1.035   0.924   0.756   0.619   0.424   0.382   0.384
   0.298   0.264   0.308   0.285   0.167   0.166   0.109   0.166   0.167   0.285
   0.308   0.264   0.298   0.384   0.382   0.424   0.619   0.756   0.924   1.035
   1.434   1.523   1.816   2.135   2.238   2.135   1.816   1.523   1.434   1.035
   0.924   0.756   0.619   0.424   0.382   0.384   0.298   0.264   0.308   0.285
   0.167   0.166
   0.264   0.303   0.230   0.360   0.419   0.377   0.347   0.375   0.379   0.431
   0.602   0.685   0.926   0.927   1.343   1.677   1.850   1.946   2.265   1.946
   1.850   1.677   1.343   0.927   0.926   0.685   0.602   0.431   0.379   0.375
   0.347   0.377   0.419   0.360   0.230   0.303   0.264   0.303   0.230   0.360
   0.419   0.377   0.347   0.375   0.379   0.431   0.602   0.685   0.926   0.927
   1.343   1.677   1.850   1.946   2.265   1.946   1.850   1.677   1.343   0.927
   0.926   0.685   0.602   0.431   0.379   0.375   0.347   0.377   0.419   0.360
   0.230   0.303
   0.576   0.570   0.561   0.577   0.602   0.506   0.475   0.347   0.452   0.463
   0.530   0.587   0.752   0.828   1.310   1.699   1.714   1.685   1.916   1.685
   1.714   1.699   1.310   0.828   0.752   0.587   0.530   0.463   0.452   0.347
   0.475   0.506   0.602   0.577   0.561   0.570   0.576   0.570   0.561   0.577
   0.602   0.506   0.475   0.347   0.452   0.463   0.530   0.587   0.752   0.828
   1.310   1.699   1.714   1.685   1.916   1.685   1.714   1.699   1.310   0.828
   0.752   0.587   0.530   0.463   0.452   0.347   0.475   0.506   0.602   0.577
   0.561   0.570
   0.865   0.978   1.102   0.893   0.897   0.760   0.520   0.447   0.466   0.464
   0.509   0.576   0.589   0.791   1.053   1.343   1.634   1.621   1.617   1.621
   1.634   1.343   1.053   0.791   0.589   0.576   0.509   0.464   0.466   0.447
   0.520   0.760   0.897   0.893   1.102   0.978   0.865   0.978   1.102   0.893
   0.897   0.760   0.520   0.447   0.466   0.464   0.509   0.576   0.589   0.791
   1.053   1.343   1.634   1.621   1.617   1.621   1.634   1.343   1.053   0.791
   0.589   0.576   0.509   0.464   0.466   0.447   0.520   0.760   0.897   0.893
   1.102   0.978
   1.447   1.451   1.514   1.178   1.261   1.067   0.765   0.735   0.617   0.614
   0.531   0.694   0.500   0.703   0.785   1.129   1.399   1.349   1.311   1.349
   1.399   1.129   0.785   0.703   0.500   0.694   0.531   0.614   0.617   0.735
   0.765   1.067   1.261   1.178   1.514   1.451   1.447   1.451   1.514   1.178
   1.261   1.067   0.765   0.735   0.617   0.614   0.531   0.694   0.500   0.703
   0.785   1.129   1.399   1.349   1.311   1.349   1.399   1.129   0.785   0.703
   0.500   0.694   0.531   0.614   0.617   0.735   0.765   1.067   1.261   1.178
   1.514   1.451
   1.757   1.766   1.800   1.427   1.404   1.048   0.918   0.984   0.695   0.584
   0.301   0.609   0.438   0.493   0.706   0.831   1.091   0.965   1.044   0.965
   1.091   0.831   0.706   0.493   0.438   0.609   0.301   0.584   0.695   0.984
   0.918   1.048   1.404   1.427   1.800   1.766   1.757   1.766   1.800   1.427
   1.404   1.048   0.918   0.984   0.695   0.584   0.301   0.609   0.438   0.493
   0.706   0.831   1.091   0.965   1.044   0.965   1.091   0.831   0.706   0.493
   0.438   0.609   0.301   0.584   0.695   0.984   0.918   1.048   1.404   1.427
   1.800   1.766
   2.020   1.989   1.897   1.644   1.773   1.157   1.201   1.039   0.821   0.481
   0.303   0.611   0.600   0.458   0.723   0.676   0.846   0.911   0.814   0.911
   0.846   0.676   0.723   0.458   0.600   0.611   0.303   0.481   0.821   1.039
   1.201   1.157   1.773   1.644   1.897   1.989   2.020   1.989   1.897   1.644
   1.773   1.157   1.201   1.039   0.821   0.481   0.303   0.611   0.600   0.458
   0.723   0.676   0.846   0.911   0.814   0.911   0.846   0.676   0.723   0.458
   0.600   0.611   0.303   0.481   0.821   1.039   1.201   1.157   1.773   1.644
   1.897   1.989
   2.072   2.064   1.956   1.721   2.081   1.686   1.571   1.308   1.032   0.728
   0.629   0.926   0.725   0.823   0.715   0.915   0.705   1.027   0.824   1.027
   0.705   0.915   0.715   0.823   0.725   0.926   0.629   0.728   1.032   1.308
   1.571   1.686   2.081   1.721   1.956   2.064   2.072   2.064   1.956   1.721
   2.081   1.686   1.571   1.308   1.032   0.728   0.629   0.926   0.725   0.823
   0.715   0.915   0.705   1.027   0.824   1.027   0.705   0.915   0.715   0.823
   0.725   0.926   0.629   0.728   1.032   1.308   1.571   1.686   2.081   1.721
   1.956   2.064
   1.370   1.590   1.625   1.666   1.707   1.637   1.705   1.655   1.085   0.989
   0.803   0.933   0.736   0.947   0.778   1.046   0.842   1.025   1.154   1.025
   0.842   1.046   0.778   0.947   0.736   0.933   0.803   0.989   1.085   1.655
   1.705   1.637   1.707   1.666   1.625   1.590   1.370   1.590   1.625   1.666
   1.707   1.637   1.705   1.655   1.085   0.989   0.803   0.933   0.736   0.947
   0.778   1.046   0.842   1.025   1.154   1.025   0.842   1.046   0.778   0.947
   0.736   0.933   0.803   0.989   1.085   1.655   1.705   1.637   1.707   1.666
   1.625   1.590
   1.001   1.114   0.950   1.345   1.432   1.337   1.546   1.637   1.362   1.238
   0.938   1.062   0.985   0.872   0.964   0.887   1.206   0.734   1.213   0.734
   1.206   0.887   0.964   0.872   0.985   1.062   0.938   1.238   1.362   1.637
   1.546   1.337   1.432   1.345   0.950   1.114   1.001   1.114   0.950   1.345
   1.432   1.337   1.546   1.637   1.362   1.238   0.938   1.062   0.985   0.872
   0.964   0.887   1.206   0.734   1.213   0.734   1.206   0.887   0.964   0.872
   0.985   1.062   0.938   1.238   1.362   1.637   1.546   1.337   1.432   1.345
   0.950   1.114
 200       5.00   72    0 5.00   15    0
   2.373   2.373   2.373   2.373   2.373   2.373   2.373   2.373   2.373   2.373
   2.373   2.373   2.373   2.373   2.373   2.373   2.373   2.373   2.373   2.373
   2.373   2.373   2.373   2.373   2.373   2.373   2.373   2.373   2.373   2.373
   2.373   2.373   2.373   2.373   2.373   2.373   2.373   2.373   2.373   2.373
   2.373   2.373   2.373   2.373   2.373   2.373   2.373   2.373   2.373   2.373
   2.373   2.373   2.373   2.373   2.373   2.373   2.373   2.373   2.373   2.373
   2.373   2.373   2.373   2.373   2.373   2.373   2.373   2.373   2.373   2.373
   2.373   2.373
   1.787   1.987   2.013   1.998   2.105   1.952   2.010   1.952   2.202   2.380
   2.171   1.991   2.198   2.401   2.213   2.265   2.008   2.040   2.632   2.040
   2.008   2.265   2.213   2.401   2.198   1.991   2.171   2.380   2.202   1.952
   2.010   1.952   2.105   1.998   2.013   1.987   1.787   1.987   2.013   1.998
   2.105   1.952   2.010   1.952   2.202   2.380   2.171   1.991   2.198   2.401
   2.213   2.265   2.008   2.040   2.632   2.040   2.008   2.265   2.213   2.401
   2.198   1.991   2.171   2.380   2.202   1.952   2.010   1.952   2.105   1.998
   2.013   1.987
   1.293   1.377   1.492   1.439   1.410   1.378   1.476   1.455   1.650   1.822
   1.427   1.401   1.497   1.448   1.697   1.574   1.645   1.556   1.618   1.556
   1.645   1.574   1.697   1.448   1.497   1.401   1.427   1.822   1.650   1.455
   1.476   1.378   1.410   1.439   1.492   1.377   1.293   1.377   1.492   1.439
   1.410   1.378   1.476   1.455   1.650   1.822   1.427   1.401   1.497   1.448
   1.697   1.574   1.645   1.556   1.618   1.556   1.645   1.574   1.697   1.448
   1.497   1.401   1.427   1.822   1.650   1.455   1.476   1.378   1.410   1.439
   1.492   1.377
   1.055   1.032   1.217   0.987   1.128   1.124   1.040   1.111   1.286   1.193
   1.076   0.973   1.041   0.986   1.033   0.991   1.177   1.224   1.152   1.224
   1.177   0.991   1.033   0.986   1.041   0.973   1.076   1.193   1.286   1.111
   1.040   1.124   1.128   0.987   1.217   1.032   1.055   1.032   1.217   0.987
   1.128   1.124   1.040   1.111   1.286   1.193   1.076   0.973   1.041   0.986
   1.033   0.991   1.177   1.224   1.152   1.224   1.177   0.991   1.033   0.986
   1.041   0.973   1.076   1.193   1.286   1.111   1.040   1.124   1.128   0.987
   1.217   1.032
   1.217   1.264   1.364   1.208   1.165   1.149   1.084   1.026   1.135   1.013
   0.807   0.782   0.867   0.899   0.847   0.774   0.761   0.910   0.767   0.910
   0.761   0.774   0.847   0.899   0.867   0.782   0.807   1.013   1.135   1.026
   1.084   1.149   1.165   1.208   1.364   1.264   1.217   1.264   1.364   1.208
   1.165   1.149   1.084   1.026   1.135   1.013   0.807   0.782   0.867   0.899
   0.847   0.774   0.761   0.910   0.767   0.910   0.761   0.774   0.847   0.899
   0.867   0.782   0.807   1.013   1.135   1.026   1.084   1.149   1.165   1.208
   1.364   1.264
   1.501   1.611   1.508   1.551   1.463   1.417   1.177   1.137   1.175   0.953
   0.823   0.755   0.736   0.777   0.845   0.741   0.775   0.766   0.763   0.766
   0.775   0.741   0.845   0.777   0.736   0.755   0.823   0.953   1.175   1.137
   1.177   1.417   1.463   1.551   1.508   1.611   1.501   1.611   1.508   1.551
   1.463   1.417   1.177   1.137   1.175   0.953   0.823   0.755   0.736   0.777
   0.845   0.741   0.775   0.766   0.763   0.766   0.775   0.741   0.845   0.777
   0.736   0.755   0.823   0.953   1.175   1.137   1.177   1.417   1.463   1.551
   1.508   1.611
   1.360   1.607   1.490   1.487   1.722   1.525   1.351   1.326   1.248   0.923
   0.816   0.746   0.665   0.650   0.725   0.608   0.681   0.736   0.670   0.736
   0.681   0.608   0.725   0.650   0.665   0.746   0.816   0.923   1.248   1.326
   1.351   1.525   1.722   1.487   1.490   1.607   1.360   1.607   1.490   1.487
   1.722   1.525   1.351   1.326   1.248   0.923   0.816   0.746   0.665   0.650
   0.725   0.608   0.681   0.736   0.670   0.736   0.681   0.608   0.725   0.650
   0.665   0.746   0.816   0.923   1.248   1.326   1.351   1.525   1.722   1.487
   1.490   1.607
   0.962   1.051   1.212   1.137   1.543   1.501   1.337   1.334   1.285   0.891
   0.814   0.698   0.641   0.582   0.631   0.576   0.549   0.842   0.472   0.842
   0.549   0.576   0.631   0.582   0.641   0.698   0.814   0.891   1.285   1.334
   1.337   1.501   1.543   1.137   1.212   1.051   0.962   1.051   1.212   1.137
   1.543   1.501   1.337   1.334   1.285   0.891   0.814   0.698   0.641   0.582
   0.631   0.576   0.549   0.842   0.472   0.842   0.549   0.576   0.631   0.582
   0.641   0.698   0.814   0.891   1.285   1.334   1.337   1.501   1.543   1.137
   1.212   1.051
   0.472   0.558   0.673   0.621   0.989   1.166   1.054   1.031   1.009   0.871
   0.881   0.752   0.559   0.498   0.650   0.595   0.559   0.851   0.454   0.851
   0.559   0.595   0.650   0.498   0.559   0.752   0.881   0.871   1.009   1.031
   1.054   1.166   0.989   0.621   0.673   0.558   0.472   0.558   0.673   0.621
   0.989   1.166   1.054   1.031   1.009   0.871   0.881   0.752   0.559   0.498
   0.650   0.595   0.559   0.851   0.454   0.851   0.559   0.595   0.650   0.498
   0.559   0.752   0.881   0.871   1.009   1.031   1.054   1.166   0.989   0.621
   0.673   0.558
   0.320   0.391   0.426   0.450   0.588   0.755   0.907   0.700   0.683   0.932
   0.889   0.869   0.625   0.560   0.628   0.711   0.581   0.856   0.558   0.856
   0.581   0.711   0.628   0.560   0.625   0.869   0.889   0.932   0.683   0.700
   0.907   0.755   0.588   0.450   0.426   0.391   0.320   0.391   0.426   0.450
   0.588   0.755   0.907   0.700   0.683   0.932   0.889   0.869   0.625   0.560
   0.628   0.711   0.581   0.856   0.558   0.856   0.581   0.711   0.628   0.560
   0.625   0.869   0.889   0.932   0.683   0.700   0.907   0.755   0.588   0.450
   0.426   0.391
   0.404   0.337   0.394   0.427   0.492   0.655   0.730   0.689   0.751   0.948
   1.035   0.897   0.757   0.746   0.637   0.765   0.761   0.849   0.886   0.849
   0.761   0.765   0.637   0.746   0.757   0.897   1.035   0.948   0.751   0.689
   0.730   0.655   0.492   0.427   0.394   0.337   0.404   0.337   0.394   0.427
   0.492   0.655   0.730   0.689   0.751   0.948   1.035   0.897   0.757   0.746
   0.637   0.765   0.761   0.849   0.886   0.849   0.761   0.765   0.637   0.746
   0.757   0.897   1.035   0.948   0.751   0.689   0.730   0.655   0.492   0.427
   0.394   0.337
   0.297   0.225   0.281   0.364   0.342   0.420   0.641   0.756   0.763   0.926
   1.077   0.925   0.843   0.893   1.078   0.761   0.771   0.853   0.948   0.853
   0.771   0.761   1.078   0.893   0.843   0.925   1.077   0.926   0.763   0.756
   0.641   0.420   0.342   0.364   0.281   0.225   0.297   0.225   0.281   0.364
   0.342   0.420   0.641   0.756   0.763   0.926   1.077   0.925   0.843   0.893
   1.078   0.761   0.771   0.853   0.948   0.853   0.771   0.761   1.078   0.893
   0.843   0.925   1.077   0.926   0.763   0.756   0.641   0.420   0.342   0.364
   0.281   0.225
   0.217   0.168   0.237   0.551   0.616   0.311   0.707   0.712   1.103   1.176
   1.281   1.190   1.184   1.011   1.185   0.916   0.687   0.791   0.886   0.791
   0.687   0.916   1.185   1.011   1.184   1.190   1.281   1.176   1.103   0.712
   0.707   0.311   0.616   0.551   0.237   0.168   0.217   0.168   0.237   0.551
   0.616   0.311   0.707   0.712   1.103   1.176   1.281   1.190   1.184   1.011
   1.185   0.916   0.687   0.791   0.886   0.791   0.687   0.916   1.185   1.011
   1.184   1.190   1.281   1.176   1.103   0.712   0.707   0.311   0.616   0.551
   0.237   0.168
   0.383   0.238   0.325   0.726   0.960   0.546   0.919   0.836   1.462   1.698
   1.825   1.595   1.371   1.051   0.956   1.132   0.863   0.957   1.142   0.957
   0.863   1.132   0.956   1.051   1.371   1.595   1.825   1.698   1.462   0.836
   0.919   0.546   0.960   0.726   0.325   0.238   0.383   0.238   0.325   0.726
   0.960   0.546   0.919   0.836   1.462   1.698   1.825   1.595   1.371   1.051
   0.956   1.132   0.863   0.957   1.142   0.957   0.863   1.132   0.956   1.051
   1.371   1.595   1.825   1.698   1.462   0.836   0.919   0.546   0.960   0.726
   0.325   0.238
   0.396   0.357   0.547   0.826   1.018   0.811   1.028   1.060   1.477   1.904
   1.668   1.831   1.204   1.004   1.117   1.242   0.894   0.973   1.449   0.973
   0.894   1.242   1.117   1.004   1.204   1.831   1.668   1.904   1.477   1.060
   1.028   0.811   1.018   0.826   0.547   0.357   0.396   0.357   0.547   0.826
   1.018   0.811   1.028   1.060   1.477   1.904   1.668   1.831   1.204   1.004
   1.117   1.242   0.894   0.973   1.449   0.973   0.894   1.242   1.117   1.004
   1.204   1.831   1.668   1.904   1.477   1.060   1.028   0.811   1.018   0.826
   0.547   0.357
 111       5.00   72    0 5.00   15    0
   0.153   0.153   0.153   0.153   0.153   0.153   0.153   0.153   0.153   0.153
   0.153   0.153   0.153   0.153   0.153   0.153   0.153   0.153   0.153   0.153
   0.153   0.153   0.153   0.153   0.153   0.153   0.153   0.153   0.153   0.153
   0.153   0.153   0.153   0.153   0.153   0.153   0.153   0.153   0.153   0.153
   0.153   0.153   0.153   0.153   0.153   0.153   0.153   0.153   0.153   0.153
   0.153   0.153   0.153   0.153   0.153   0.153   0.153   0.153   0.153   0.153
   0.153   0.153   0.153   0.153   0.153   0.153   0.153   0.153   0.153   0.153
   0.153   0.153
   0.302   0.330   0.326   0.238   0.352   0.326   0.291   0.224   0.241   0.334
   0.177   0.270   0.238   0.194   0.154   0.201   0.236   0.171   0.153   0.171
   0.236   0.201   0.154   0.194   0.238   0.270   0.177   0.334   0.241   0.224
   0.291   0.326   0.352   0.238   0.326   0.330   0.302   0.330   0.326   0.238
   0.352   0.326   0.291   0.224   0.241   0.334   0.177   0.270   0.238   0.194
   0.154   0.201   0.236   0.171   0.153   0.171   0.236   0.201   0.154   0.194
   0.238   0.270   0.177   0.334   0.241   0.224   0.291   0.326   0.352   0.238
   0.326   0.330
   0.582   0.556   0.575   0.504   0.584   0.482   0.523   0.408   0.321   0.375
   0.302   0.294   0.200   0.233   0.192   0.233   0.189   0.191   0.191   0.191
   0.189   0.233   0.192   0.233   0.200   0.294   0.302   0.375   0.321   0.408
   0.523   0.482   0.584   0.504   0.575   0.556   0.582   0.556   0.575   0.504
   0.584   0.482   0.523   0.408   0.321   0.375   0.302   0.294   0.200   0.233
   0.192   0.233   0.189   0.191   0.191   0.191   0.189   0.233   0.192   0.233
   0.200   0.294   0.302   0.375   0.321   0.408   0.523   0.482   0.584   0.504
   0.575   0.556
   1.056   1.096   0.967   0.963   0.806   0.802   0.731   0.580   0.543   0.483
   0.435   0.298   0.221   0.242   0.274   0.236   0.155   0.194   0.169   0.194
   0.155   0.236   0.274   0.242   0.221   0.298   0.435   0.483   0.543   0.580
   0.731   0.802   0.806   0.963   0.967   1.096   1.056   1.096   0.967   0.963
   0.806   0.802   0.731   0.580   0.543   0.483   0.435   0.298   0.221   0.242
   0.274   0.236   0.155   0.194   0.169   0.194   0.155   0.236   0.274   0.242
   0.221   0.298   0.435   0.483   0.543   0.580   0.731   0.802   0.806   0.963
   0.967   1.096
   1.795   1.809   1.593   1.631   1.191   1.208   0.990   0.848   0.693   0.639
   0.604   0.421   0.376   0.314   0.287   0.285   0.215   0.202   0.169   0.202
   0.215   0.285   0.287   0.314   0.376   0.421   0.604   0.639   0.693   0.848
   0.990   1.208   1.191   1.631   1.593   1.809   1.795   1.809   1.593   1.631
   1.191   1.208   0.990   0.848   0.693   0.639   0.604   0.421   0.376   0.314
   0.287   0.285   0.215   0.202   0.169   0.202   0.215   0.285   0.287   0.314
   0.376   0.421   0.604   0.639   0.693   0.848   0.990   1.208   1.191   1.631
   1.593   1.809
   2.417   2.264   2.013   2.148   1.713   1.519   1.352   1.129   0.724   0.823
   0.764   0.644   0.488   0.446   0.247   0.395   0.253   0.182   0.157   0.182
   0.253   0.395   0.247   0.446   0.488   0.644   0.764   0.823   0.724   1.129
   1.352   1.519   1.713   2.148   2.013   2.264   2.417   2.264   2.013   2.148
   1.713   1.519   1.352   1.129   0.724   0.823   0.764   0.644   0.488   0.446
   0.247   0.395   0.253   0.182   0.157   0.182   0.253   0.395   0.247   0.446
   0.488   0.644   0.764   0.823   0.724   1.129   1.352   1.519   1.713   2.148
   2.013   2.264
   2.305   2.239   2.097   2.182   1.783   1.552   1.524   1.141   0.922   0.971
   0.799   0.790   0.583   0.509   0.330   0.453   0.301   0.193   0.168   0.193
   0.301   0.453   0.330   0.509   0.583   0.790   0.799   0.971   0.922   1.141
   1.524   1.552   1.783   2.182   2.097   2.239   2.305   2.239   2.097   2.182
   1.783   1.552   1.524   1.141   0.922   0.971   0.799   0.790   0.583   0.509
   0.330   0.453   0.301   0.193   0.168   0.193   0.301   0.453   0.330   0.509
   0.583   0.790   0.799   0.971   0.922   1.141   1.524   1.552   1.783   2.182
   2.097   2.239
   1.640   1.693   1.733   1.883   1.616   1.605   1.482   1.251   1.248   1.041
   0.985   0.935   0.700   0.685   0.577   0.485   0.346   0.319   0.304   0.319
   0.346   0.485   0.577   0.685   0.700   0.935   0.985   1.041   1.248   1.251
   1.482   1.605   1.616   1.883   1.733   1.693   1.640   1.693   1.733   1.883
   1.616   1.605   1.482   1.251   1.248   1.041   0.985   0.935   0.700   0.685
   0.577   0.485   0.346   0.319   0.304   0.319   0.346   0.485   0.577   0.685
   0.700   0.935   0.985   1.041   1.248   1.251   1.482   1.605   1.616   1.883
   1.733   1.693
   0.992   1.019   1.120   1.245   1.401   1.630   1.478   1.502   1.501   1.345
   1.368   1.112   1.076   0.908   0.773   0.628   0.484   0.440   0.491   0.440
   0.484   0.628   0.773   0.908   1.076   1.112   1.368   1.345   1.501   1.502
   1.478   1.630   1.401   1.245   1.120   1.019   0.992   1.019   1.120   1.245
   1.401   1.630   1.478   1.502   1.501   1.345   1.368   1.112   1.076   0.908
   0.773   0.628   0.484   0.440   0.491   0.440   0.484   0.628   0.773   0.908
   1.076   1.112   1.368   1.345   1.501   1.502   1.478   1.630   1.401   1.245
   1.120   1.019
   0.747   0.634   0.741   0.807   1.021   1.311   1.403   1.591   1.762   1.817
   1.774   1.615   1.510   1.187   0.943   0.808   0.687   0.617   0.630   0.617
   0.687   0.808   0.943   1.187   1.510   1.615   1.774   1.817   1.762   1.591
   1.403   1.311   1.021   0.807   0.741   0.634   0.747   0.634   0.741   0.807
   1.021   1.311   1.403   1.591   1.762   1.817   1.774   1.615   1.510   1.187
   0.943   0.808   0.687   0.617   0.630   0.617   0.687   0.808   0.943   1.187
   1.510   1.615   1.774   1.817   1.762   1.591   1.403   1.311   1.021   0.807
   0.741   0.634
   0.604   0.406   0.436   0.595   0.673   0.923   1.075   1.504   1.882   1.901
   2.113   2.112   1.709   1.607   1.314   0.958   0.944   0.880   0.959   0.880
   0.944   0.958   1.314   1.607   1.709   2.112   2.113   1.901   1.882   1.504
   1.075   0.923   0.673   0.595   0.436   0.406   0.604   0.406   0.436   0.595
   0.673   0.923   1.075   1.504   1.882   1.901   2.113   2.112   1.709   1.607
   1.314   0.958   0.944   0.880   0.959   0.880   0.944   0.958   1.314   1.607
   1.709   2.112   2.113   1.901   1.882   1.504   1.075   0.923   0.673   0.595
   0.436   0.406
   0.367   0.329   0.275   0.466   0.427   0.825   0.857   1.245   1.553   1.473
   1.957   1.982   1.716   1.666   1.624   1.289   1.196   0.988   1.289   0.988
   1.196   1.289   1.624   1.666   1.716   1.982   1.957   1.473   1.553   1.245
   0.857   0.825   0.427   0.466   0.275   0.329   0.367   0.329   0.275   0.466
   0.427   0.825   0.857   1.245   1.553   1.473   1.957   1.982   1.716   1.666
   1.624   1.289   1.196   0.988   1.289   0.988   1.196   1.289   1.624   1.666
   1.716   1.982   1.957   1.473   1.553   1.245   0.857   0.825   0.427   0.466
   0.275   0.329
   0.172   0.324   0.313   0.540   0.334   0.706   0.807   1.015   1.257   1.323
   1.468   1.538   1.535   1.580   1.654   1.667   1.422   1.276   1.483   1.276
   1.422   1.667   1.654   1.580   1.535   1.538   1.468   1.323   1.257   1.015
   0.807   0.706   0.334   0.540   0.313   0.324   0.172   0.324   0.313   0.540
   0.334   0.706   0.807   1.015   1.257   1.323   1.468   1.538   1.535   1.580
   1.654   1.667   1.422   1.276   1.483   1.276   1.422   1.667   1.654   1.580
   1.535   1.538   1.468   1.323   1.257   1.015   0.807   0.706   0.334   0.540
   0.313   0.324
   0.318   0.358   0.328   0.518   0.419   0.559   0.810   0.901   1.065   1.125
   1.112   0.988   1.040   1.296   1.335   1.475   1.470   1.516   1.537   1.516
   1.470   1.475   1.335   1.296   1.040   0.988   1.112   1.125   1.065   0.901
   0.810   0.559   0.419   0.518   0.328   0.358   0.318   0.358   0.328   0.518
   0.419   0.559   0.810   0.901   1.065   1.125   1.112   0.988   1.040   1.296
   1.335   1.475   1.470   1.516   1.537   1.516   1.470   1.475   1.335   1.296
   1.040   0.988   1.112   1.125   1.065   0.901   0.810   0.559   0.419   0.518
   0.328   0.358
   0.951   0.539   0.515   0.726   0.601   0.597   0.826   0.867   0.891   0.708
   0.865   0.684   0.814   1.118   0.954   1.265   1.191   1.314   1.206   1.314
   1.191   1.265   0.954   1.118   0.814   0.684   0.865   0.708   0.891   0.867
   0.826   0.597   0.601   0.726   0.515   0.539   0.951   0.539   0.515   0.726
   0.601   0.597   0.826   0.867   0.891   0.708   0.865   0.684   0.814   1.118
   0.954   1.265   1.191   1.314   1.206   1.314   1.191   1.265   0.954   1.118
   0.814   0.684   0.865   0.708   0.891   0.867   0.826   0.597   0.601   0.726
   0.515   0.539
  4  1      8.5444549E-01
  4  2     -1.0953448E-01
  4  3     -1.7503339E-01
  6  1      4.7100584E-01
  6  2     -2.1300687E+00
  6  3      1.2705745E+00
  6  4     -3.8169359E-01
  8  1      9.1268957E-02
  8  2     -3.5526791E-01
  8  3      6.1677376E-01
  8  4     -2.2563580E-01
  8  5      2.6682302E-01
 10  1     -5.0032623E-01
 10  2     -1.2611033E-02
 10  3      6.6536342E-01
 10  4      3.2367716E-01
 10  5      1.4296015E-02
 10  6      4.2991369E-01
 12  1      3.1828808E-01  3.8770001E-01
 12  2     -2.7508216E-01 -4.4729596E-01
 12  3      2.9181945E-01  5.6797261E-01
 12  4     -1.6966511E-01 -5.6191720E-01
 12  5     -9.4631836E-02  1.5074242E-01
 12  6     -1.5410831E-01 -1.0779090E-01
 12  7     -4.8834414E-01 -8.7395779E-02
 14  1     -1.8032597E-01
 14  2      1.7141213E-02
 14  3      2.0160047E-01
 14  4     -2.6390357E-01
 14  5      9.3132058E-02
 14  6     -3.9483737E-02
 14  7      8.9764401E-02
 14  8     -3.9845742E-02
 220       5.00   72    0 5.00   18    0
   1.146   1.146   1.148   1.150   1.152   1.155   1.159   1.163   1.168   1.173
   1.177   1.182   1.186   1.190   1.193   1.196   1.198   1.199   1.200   1.199
   1.198   1.196   1.193   1.190   1.186   1.182   1.177   1.173   1.168   1.163
   1.159   1.155   1.152   1.150   1.148   1.146   1.146   1.146   1.148   1.150
   1.152   1.155   1.159   1.163   1.168   1.173   1.177   1.182   1.186   1.190
   1.193   1.196   1.198   1.199   1.200   1.199   1.198   1.196   1.193   1.190
   1.186   1.182   1.177   1.173   1.168   1.163   1.159   1.155   1.152   1.150
   1.148   1.146
   0.912   0.915   0.923   0.937   0.956   0.980   1.009   1.041   1.077   1.115
   1.153   1.192   1.229   1.263   1.294   1.319   1.337   1.349   1.353   1.349
   1.337   1.319   1.294   1.263   1.229   1.192   1.153   1.115   1.077   1.041
   1.009   0.980   0.956   0.937   0.923   0.915   0.912   0.915   0.923   0.937
   0.956   0.980   1.009   1.041   1.077   1.115   1.153   1.192   1.229   1.263
   1.294   1.319   1.337   1.349   1.353   1.349   1.337   1.319   1.294   1.263
   1.229   1.192   1.153   1.115   1.077   1.041   1.009   0.980   0.956   0.937
   0.923   0.915
   0.579   0.584   0.599   0.623   0.658   0.703   0.758   0.824   0.899   0.983
   1.073   1.167   1.262   1.353   1.437   1.507   1.561   1.595   1.607   1.595
   1.561   1.507   1.437   1.353   1.262   1.167   1.073   0.983   0.899   0.824
   0.758   0.703   0.658   0.623   0.599   0.584   0.579   0.584   0.599   0.623
   0.658   0.703   0.758   0.824   0.899   0.983   1.073   1.167   1.262   1.353
   1.437   1.507   1.561   1.595   1.607   1.595   1.561   1.507   1.437   1.353
   1.262   1.167   1.073   0.983   0.899   0.824   0.758   0.703   0.658   0.623
   0.599   0.584
   0.314   0.319   0.334   0.359   0.395   0.443   0.506   0.584   0.680   0.794
   0.927   1.075   1.233   1.395   1.549   1.685   1.791   1.860   1.883   1.860
   1.791   1.685   1.549   1.395   1.233   1.075   0.927   0.794   0.680   0.584
   0.506   0.443   0.395   0.359   0.334   0.319   0.314   0.319   0.334   0.359
   0.395   0.443   0.506   0.584   0.680   0.794   0.927   1.075   1.233   1.395
   1.549   1.685   1.791   1.860   1.883   1.860   1.791   1.685   1.549   1.395
   1.233   1.075   0.927   0.794   0.680   0.584   0.506   0.443   0.395   0.359
   0.334   0.319
   0.206   0.210   0.224   0.245   0.275   0.313   0.362   0.426   0.510   0.621
   0.763   0.937   1.140   1.361   1.586   1.793   1.961   2.071   2.109   2.071
   1.961   1.793   1.586   1.361   1.140   0.937   0.763   0.621   0.510   0.426
   0.362   0.313   0.275   0.245   0.224   0.210   0.206   0.210   0.224   0.245
   0.275   0.313   0.362   0.426   0.510   0.621   0.763   0.937   1.140   1.361
   1.586   1.793   1.961   2.071   2.109   2.071   1.961   1.793   1.586   1.361
   1.140   0.937   0.763   0.621   0.510   0.426   0.362   0.313   0.275   0.245
   0.224   0.210
   0.250   0.256   0.271   0.294   0.320   0.348   0.378   0.414   0.464   0.539
   0.652   0.813   1.022   1.273   1.544   1.808   2.030   2.178   2.230   2.178
   2.030   1.808   1.544   1.273   1.022   0.813   0.652   0.539   0.464   0.414
   0.378   0.348   0.320   0.294   0.271   0.256   0.250   0.256   0.271   0.294
   0.320   0.348   0.378   0.414   0.464   0.539   0.652   0.813   1.022   1.273
   1.544   1.808   2.030   2.178   2.230   2.178   2.030   1.808   1.544   1.273
   1.022   0.813   0.652   0.539   0.464   0.414   0.378   0.348   0.320   0.294
   0.271   0.256
   0.421   0.425   0.439   0.458   0.478   0.496   0.508   0.517   0.529   0.558
   0.623   0.740   0.920   1.160   1.441   1.730   1.982   2.155   2.216   2.155
   1.982   1.730   1.441   1.160   0.920   0.740   0.623   0.558   0.529   0.517
   0.508   0.496   0.478   0.458   0.439   0.425   0.421   0.425   0.439   0.458
   0.478   0.496   0.508   0.517   0.529   0.558   0.623   0.740   0.920   1.160
   1.441   1.730   1.982   2.155   2.216   2.155   1.982   1.730   1.441   1.160
   0.920   0.740   0.623   0.558   0.529   0.517   0.508   0.496   0.478   0.458
   0.439   0.425
   0.723   0.719   0.709   0.696   0.683   0.668   0.652   0.634   0.617   0.612
   0.635   0.705   0.838   1.039   1.293   1.570   1.822   1.998   2.062   1.998
   1.822   1.570   1.293   1.039   0.838   0.705   0.635   0.612   0.617   0.634
   0.652   0.668   0.683   0.696   0.709   0.719   0.723   0.719   0.709   0.696
   0.683   0.668   0.652   0.634   0.617   0.612   0.635   0.705   0.838   1.039
   1.293   1.570   1.822   1.998   2.062   1.998   1.822   1.570   1.293   1.039
   0.838   0.705   0.635   0.612   0.617   0.634   0.652   0.668   0.683   0.696
   0.709   0.719
   1.165   1.144   1.084   1.002   0.912   0.830   0.760   0.703   0.660   0.634
   0.633   0.670   0.760   0.911   1.117   1.354   1.578   1.739   1.798   1.739
   1.578   1.354   1.117   0.911   0.760   0.670   0.633   0.634   0.660   0.703
   0.760   0.830   0.912   1.002   1.084   1.144   1.165   1.144   1.084   1.002
   0.912   0.830   0.760   0.703   0.660   0.634   0.633   0.670   0.760   0.911
   1.117   1.354   1.578   1.739   1.798   1.739   1.578   1.354   1.117   0.911
   0.760   0.670   0.633   0.634   0.660   0.703   0.760   0.830   0.912   1.002
   1.084   1.144
   1.678   1.637   1.521   1.359   1.180   1.012   0.869   0.757   0.676   0.627
   0.609   0.625   0.682   0.786   0.938   1.122   1.305   1.441   1.492   1.441
   1.305   1.122   0.938   0.786   0.682   0.625   0.609   0.627   0.676   0.757
   0.869   1.012   1.180   1.359   1.521   1.637   1.678   1.637   1.521   1.359
   1.180   1.012   0.869   0.757   0.676   0.627   0.609   0.625   0.682   0.786
   0.938   1.122   1.305   1.441   1.492   1.441   1.305   1.122   0.938   0.786
   0.682   0.625   0.609   0.627   0.676   0.757   0.869   1.012   1.180   1.359
   1.521   1.637
   2.086   2.035   1.892   1.690   1.466   1.245   1.045   0.874   0.740   0.650
   0.603   0.596   0.624   0.687   0.788   0.922   1.065   1.177   1.220   1.177
   1.065   0.922   0.788   0.687   0.624   0.596   0.603   0.650   0.740   0.874
   1.045   1.245   1.466   1.690   1.892   2.035   2.086   2.035   1.892   1.690
   1.466   1.245   1.045   0.874   0.740   0.650   0.603   0.596   0.624   0.687
   0.788   0.922   1.065   1.177   1.220   1.177   1.065   0.922   0.788   0.687
   0.624   0.596   0.603   0.650   0.740   0.874   1.045   1.245   1.466   1.690
   1.892   2.035
   2.194   2.150   2.030   1.862   1.673   1.476   1.273   1.070   0.886   0.743
   0.654   0.614   0.611   0.637   0.695   0.788   0.901   0.998   1.036   0.998
   0.901   0.788   0.695   0.637   0.611   0.614   0.654   0.743   0.886   1.070
   1.273   1.476   1.673   1.862   2.030   2.150   2.194   2.150   2.030   1.862
   1.673   1.476   1.273   1.070   0.886   0.743   0.654   0.614   0.611   0.637
   0.695   0.788   0.901   0.998   1.036   0.998   0.901   0.788   0.695   0.637
   0.611   0.614   0.654   0.743   0.886   1.070   1.273   1.476   1.673   1.862
   2.030   2.150
   1.927   1.903   1.842   1.766   1.684   1.585   1.447   1.264   1.061   0.879
   0.752   0.682   0.650   0.644   0.667   0.731   0.828   0.919   0.956   0.919
   0.828   0.731   0.667   0.644   0.650   0.682   0.752   0.879   1.061   1.264
   1.447   1.585   1.684   1.766   1.842   1.903   1.927   1.903   1.842   1.766
   1.684   1.585   1.447   1.264   1.061   0.879   0.752   0.682   0.650   0.644
   0.667   0.731   0.828   0.919   0.956   0.919   0.828   0.731   0.667   0.644
   0.650   0.682   0.752   0.879   1.061   1.264   1.447   1.585   1.684   1.766
   1.842   1.903
   1.403   1.399   1.398   1.419   1.462   1.492   1.462   1.348   1.174   0.996
   0.862   0.780   0.732   0.702   0.700   0.745   0.835   0.928   0.968   0.928
   0.835   0.745   0.700   0.702   0.732   0.780   0.862   0.996   1.174   1.348
   1.462   1.492   1.462   1.419   1.398   1.399   1.403   1.399   1.398   1.419
   1.462   1.492   1.462   1.348   1.174   0.996   0.862   0.780   0.732   0.702
   0.700   0.745   0.835   0.928   0.968   0.928   0.835   0.745   0.700   0.702
   0.732   0.780   0.862   0.996   1.174   1.348   1.462   1.492   1.462   1.419
   1.398   1.399
   0.860   0.864   0.892   0.970   1.098   1.233   1.312   1.293   1.190   1.061
   0.958   0.892   0.845   0.802   0.781   0.814   0.904   1.004   1.048   1.004
   0.904   0.814   0.781   0.802   0.845   0.892   0.958   1.061   1.190   1.293
   1.312   1.233   1.098   0.970   0.892   0.864   0.860   0.864   0.892   0.970
   1.098   1.233   1.312   1.293   1.190   1.061   0.958   0.892   0.845   0.802
   0.781   0.814   0.904   1.004   1.048   1.004   0.904   0.814   0.781   0.802
   0.845   0.892   0.958   1.061   1.190   1.293   1.312   1.233   1.098   0.970
   0.892   0.864
   0.496   0.497   0.517   0.596   0.749   0.938   1.093   1.163   1.147   1.092
   1.043   1.011   0.975   0.925   0.892   0.917   1.010   1.119   1.167   1.119
   1.010   0.917   0.892   0.925   0.975   1.011   1.043   1.092   1.147   1.163
   1.093   0.938   0.749   0.596   0.517   0.497   0.496   0.497   0.517   0.596
   0.749   0.938   1.093   1.163   1.147   1.092   1.043   1.011   0.975   0.925
   0.892   0.917   1.010   1.119   1.167   1.119   1.010   0.917   0.892   0.925
   0.975   1.011   1.043   1.092   1.147   1.163   1.093   0.938   0.749   0.596
   0.517   0.497
   0.354   0.344   0.338   0.387   0.522   0.720   0.915   1.047   1.103   1.115
   1.119   1.120   1.096   1.044   1.002   1.022   1.119   1.235   1.287   1.235
   1.119   1.022   1.002   1.044   1.096   1.120   1.119   1.115   1.103   1.047
   0.915   0.720   0.522   0.387   0.338   0.344   0.354   0.344   0.338   0.387
   0.522   0.720   0.915   1.047   1.103   1.115   1.119   1.120   1.096   1.044
   1.002   1.022   1.119   1.235   1.287   1.235   1.119   1.022   1.002   1.044
   1.096   1.120   1.119   1.115   1.103   1.047   0.915   0.720   0.522   0.387
   0.338   0.344
   0.337   0.318   0.291   0.313   0.427   0.618   0.825   0.987   1.082   1.134
   1.169   1.189   1.172   1.119   1.071   1.090   1.189   1.309   1.364   1.309
   1.189   1.090   1.071   1.119   1.172   1.189   1.169   1.134   1.082   0.987
   0.825   0.618   0.427   0.313   0.291   0.318   0.337   0.318   0.291   0.313
   0.427   0.618   0.825   0.987   1.082   1.134   1.169   1.189   1.172   1.119
   1.071   1.090   1.189   1.309   1.364   1.309   1.189   1.090   1.071   1.119
   1.172   1.189   1.169   1.134   1.082   0.987   0.825   0.618   0.427   0.313
   0.291   0.318
 200       5.00   72    0 5.00   18    0
   2.079   2.080   2.080   2.081   2.082   2.083   2.085   2.087   2.089   2.090
   2.092   2.094   2.096   2.098   2.099   2.100   2.101   2.101   2.102   2.101
   2.101   2.100   2.099   2.098   2.096   2.094   2.092   2.090   2.089   2.087
   2.085   2.083   2.082   2.081   2.080   2.080   2.079   2.080   2.080   2.081
   2.082   2.083   2.085   2.087   2.089   2.090   2.092   2.094   2.096   2.098
   2.099   2.100   2.101   2.101   2.102   2.101   2.101   2.100   2.099   2.098
   2.096   2.094   2.092   2.090   2.089   2.087   2.085   2.083   2.082   2.081
   2.080   2.080
   1.706   1.707   1.710   1.715   1.722   1.731   1.741   1.752   1.764   1.777
   1.790   1.803   1.815   1.827   1.836   1.845   1.851   1.854   1.855   1.854
   1.851   1.845   1.836   1.827   1.815   1.803   1.790   1.777   1.764   1.752
   1.741   1.731   1.722   1.715   1.710   1.707   1.706   1.707   1.710   1.715
   1.722   1.731   1.741   1.752   1.764   1.777   1.790   1.803   1.815   1.827
   1.836   1.845   1.851   1.854   1.855   1.854   1.851   1.845   1.836   1.827
   1.815   1.803   1.790   1.777   1.764   1.752   1.741   1.731   1.722   1.715
   1.710   1.707
   1.290   1.290   1.292   1.296   1.302   1.309   1.319   1.331   1.345   1.361
   1.379   1.398   1.417   1.435   1.452   1.466   1.477   1.484   1.486   1.484
   1.477   1.466   1.452   1.435   1.417   1.398   1.379   1.361   1.345   1.331
   1.319   1.309   1.302   1.296   1.292   1.290   1.290   1.290   1.292   1.296
   1.302   1.309   1.319   1.331   1.345   1.361   1.379   1.398   1.417   1.435
   1.452   1.466   1.477   1.484   1.486   1.484   1.477   1.466   1.452   1.435
   1.417   1.398   1.379   1.361   1.345   1.331   1.319   1.309   1.302   1.296
   1.292   1.290
   1.173   1.171   1.164   1.154   1.141   1.126   1.110   1.096   1.086   1.079
   1.078   1.082   1.091   1.102   1.116   1.129   1.139   1.147   1.149   1.147
   1.139   1.129   1.116   1.102   1.091   1.082   1.078   1.079   1.086   1.096
   1.110   1.126   1.141   1.154   1.164   1.171   1.173   1.171   1.164   1.154
   1.141   1.126   1.110   1.096   1.086   1.079   1.078   1.082   1.091   1.102
   1.116   1.129   1.139   1.147   1.149   1.147   1.139   1.129   1.116   1.102
   1.091   1.082   1.078   1.079   1.086   1.096   1.110   1.126   1.141   1.154
   1.164   1.171
   1.390   1.384   1.366   1.337   1.296   1.246   1.187   1.125   1.065   1.010
   0.965   0.933   0.914   0.906   0.907   0.914   0.922   0.928   0.930   0.928
   0.922   0.914   0.907   0.906   0.914   0.933   0.965   1.010   1.065   1.125
   1.187   1.246   1.296   1.337   1.366   1.384   1.390   1.384   1.366   1.337
   1.296   1.246   1.187   1.125   1.065   1.010   0.965   0.933   0.914   0.906
   0.907   0.914   0.922   0.928   0.930   0.928   0.922   0.914   0.907   0.906
   0.914   0.933   0.965   1.010   1.065   1.125   1.187   1.246   1.296   1.337
   1.366   1.384
   1.632   1.628   1.615   1.587   1.541   1.473   1.384   1.278   1.165   1.055
   0.958   0.883   0.831   0.804   0.795   0.799   0.809   0.817   0.820   0.817
   0.809   0.799   0.795   0.804   0.831   0.883   0.958   1.055   1.165   1.278
   1.384   1.473   1.541   1.587   1.615   1.628   1.632   1.628   1.615   1.587
   1.541   1.473   1.384   1.278   1.165   1.055   0.958   0.883   0.831   0.804
   0.795   0.799   0.809   0.817   0.820   0.817   0.809   0.799   0.795   0.804
   0.831   0.883   0.958   1.055   1.165   1.278   1.384   1.473   1.541   1.587
   1.615   1.628
   1.552   1.560   1.581   1.598   1.596   1.558   1.480   1.363   1.222   1.073
   0.937   0.828   0.755   0.718   0.711   0.725   0.745   0.762   0.769   0.762
   0.745   0.725   0.711   0.718   0.755   0.828   0.937   1.073   1.222   1.363
   1.480   1.558   1.596   1.598   1.581   1.560   1.552   1.560   1.581   1.598
   1.596   1.558   1.480   1.363   1.222   1.073   0.937   0.828   0.755   0.718
   0.711   0.725   0.745   0.762   0.769   0.762   0.745   0.725   0.711   0.718
   0.755   0.828   0.937   1.073   1.222   1.363   1.480   1.558   1.596   1.598
   1.581   1.560
   1.091   1.120   1.195   1.290   1.370   1.405   1.379   1.294   1.163   1.011
   0.863   0.742   0.662   0.628   0.633   0.663   0.700   0.729   0.740   0.729
   0.700   0.663   0.633   0.628   0.662   0.742   0.863   1.011   1.163   1.294
   1.379   1.405   1.370   1.290   1.195   1.120   1.091   1.120   1.195   1.290
   1.370   1.405   1.379   1.294   1.163   1.011   0.863   0.742   0.662   0.628
   0.633   0.663   0.700   0.729   0.740   0.729   0.700   0.663   0.633   0.628
   0.662   0.742   0.863   1.011   1.163   1.294   1.379   1.405   1.370   1.290
   1.195   1.120
   0.523   0.569   0.691   0.850   0.999   1.101   1.137   1.108   1.026   0.911
   0.789   0.682   0.610   0.583   0.596   0.637   0.684   0.721   0.735   0.721
   0.684   0.637   0.596   0.583   0.610   0.682   0.789   0.911   1.026   1.108
   1.137   1.101   0.999   0.850   0.691   0.569   0.523   0.569   0.691   0.850
   0.999   1.101   1.137   1.108   1.026   0.911   0.789   0.682   0.610   0.583
   0.596   0.637   0.684   0.721   0.735   0.721   0.684   0.637   0.596   0.583
   0.610   0.682   0.789   0.911   1.026   1.108   1.137   1.101   0.999   0.850
   0.691   0.569
   0.180   0.230   0.362   0.529   0.684   0.798   0.865   0.891   0.885   0.850
   0.790   0.720   0.661   0.632   0.640   0.673   0.715   0.747   0.759   0.747
   0.715   0.673   0.640   0.632   0.661   0.720   0.790   0.850   0.885   0.891
   0.865   0.798   0.684   0.529   0.362   0.230   0.180   0.230   0.362   0.529
   0.684   0.798   0.865   0.891   0.885   0.850   0.790   0.720   0.661   0.632
   0.640   0.673   0.715   0.747   0.759   0.747   0.715   0.673   0.640   0.632
   0.661   0.720   0.790   0.850   0.885   0.891   0.865   0.798   0.684   0.529
   0.362   0.230
   0.138   0.183   0.294   0.421   0.521   0.590   0.650   0.725   0.811   0.880
   0.902   0.873   0.818   0.771   0.753   0.762   0.781   0.797   0.803   0.797
   0.781   0.762   0.753   0.771   0.818   0.873   0.902   0.880   0.811   0.725
   0.650   0.590   0.521   0.421   0.294   0.183   0.138   0.183   0.294   0.421
   0.521   0.590   0.650   0.725   0.811   0.880   0.902   0.873   0.818   0.771
   0.753   0.762   0.781   0.797   0.803   0.797   0.781   0.762   0.753   0.771
   0.818   0.873   0.902   0.880   0.811   0.725   0.650   0.590   0.521   0.421
   0.294   0.183
   0.193   0.238   0.341   0.437   0.484   0.500   0.548   0.671   0.853   1.024
   1.113   1.101   1.023   0.938   0.884   0.861   0.853   0.847   0.845   0.847
   0.853   0.861   0.884   0.938   1.023   1.101   1.113   1.024   0.853   0.671
   0.548   0.500   0.484   0.437   0.341   0.238   0.193   0.238   0.341   0.437
   0.484   0.500   0.548   0.671   0.853   1.024   1.113   1.101   1.023   0.938
   0.884   0.861   0.853   0.847   0.845   0.847   0.853   0.861   0.884   0.938
   1.023   1.101   1.113   1.024   0.853   0.671   0.548   0.500   0.484   0.437
   0.341   0.238
   0.133   0.196   0.340   0.467   0.517   0.525   0.585   0.760   1.022   1.260
   1.370   1.327   1.194   1.060   0.976   0.935   0.908   0.884   0.873   0.884
   0.908   0.935   0.976   1.060   1.194   1.327   1.370   1.260   1.022   0.760
   0.585   0.525   0.517   0.467   0.340   0.196   0.133   0.196   0.340   0.467
   0.517   0.525   0.585   0.760   1.022   1.260   1.370   1.327   1.194   1.060
   0.976   0.935   0.908   0.884   0.873   0.884   0.908   0.935   0.976   1.060
   1.194   1.327   1.370   1.260   1.022   0.760   0.585   0.525   0.517   0.467
   0.340   0.196
   0.026   0.118   0.332   0.529   0.623   0.651   0.731   0.946   1.251   1.505
   1.582   1.470   1.269   1.100   1.014   0.982   0.952   0.914   0.896   0.914
   0.952   0.982   1.014   1.100   1.269   1.470   1.582   1.505   1.251   0.946
   0.731   0.651   0.623   0.529   0.332   0.118   0.026   0.118   0.332   0.529
   0.623   0.651   0.731   0.946   1.251   1.505   1.582   1.470   1.269   1.100
   1.014   0.982   0.952   0.914   0.896   0.914   0.952   0.982   1.014   1.100
   1.269   1.470   1.582   1.505   1.251   0.946   0.731   0.651   0.623   0.529
   0.332   0.118
   0.185   0.293   0.538   0.754   0.838   0.836   0.891   1.097   1.398   1.627
   1.647   1.466   1.223   1.061   1.016   1.022   1.002   0.953   0.926   0.953
   1.002   1.022   1.016   1.061   1.223   1.466   1.647   1.627   1.398   1.097
   0.891   0.836   0.838   0.754   0.538   0.293   0.185   0.293   0.538   0.754
   0.838   0.836   0.891   1.097   1.398   1.627   1.647   1.466   1.223   1.061
   1.016   1.022   1.002   0.953   0.926   0.953   1.002   1.022   1.016   1.061
   1.223   1.466   1.647   1.627   1.398   1.097   0.891   0.836   0.838   0.754
   0.538   0.293
   0.830   0.918   1.101   1.212   1.160   1.019   0.961   1.095   1.352   1.542
   1.520   1.311   1.079   0.975   1.008   1.071   1.066   1.002   0.964   1.002
   1.066   1.071   1.008   0.975   1.079   1.311   1.520   1.542   1.352   1.095
   0.961   1.019   1.160   1.212   1.101   0.918   0.830   0.918   1.101   1.212
   1.160   1.019   0.961   1.095   1.352   1.542   1.520   1.311   1.079   0.975
   1.008   1.071   1.066   1.002   0.964   1.002   1.066   1.071   1.008   0.975
   1.079   1.311   1.520   1.542   1.352   1.095   0.961   1.019   1.160   1.212
   1.101   0.918
   1.771   1.813   1.864   1.779   1.500   1.145   0.922   0.949   1.148   1.309
   1.276   1.083   0.903   0.883   1.004   1.124   1.130   1.050   1.002   1.050
   1.130   1.124   1.004   0.883   0.903   1.083   1.276   1.309   1.148   0.949
   0.922   1.145   1.500   1.779   1.864   1.813   1.771   1.813   1.864   1.779
   1.500   1.145   0.922   0.949   1.148   1.309   1.276   1.083   0.903   0.883
   1.004   1.124   1.130   1.050   1.002   1.050   1.130   1.124   1.004   0.883
   0.903   1.083   1.276   1.309   1.148   0.949   0.922   1.145   1.500   1.779
   1.864   1.813
   2.473   2.477   2.419   2.176   1.722   1.204   0.855   0.803   0.962   1.110
   1.084   0.915   0.783   0.825   1.005   1.160   1.171   1.080   1.025   1.080
   1.171   1.160   1.005   0.825   0.783   0.915   1.084   1.110   0.962   0.803
   0.855   1.204   1.722   2.176   2.419   2.477   2.473   2.477   2.419   2.176
   1.722   1.204   0.855   0.803   0.962   1.110   1.084   0.915   0.783   0.825
   1.005   1.160   1.171   1.080   1.025   1.080   1.171   1.160   1.005   0.825
   0.783   0.915   1.084   1.110   0.962   0.803   0.855   1.204   1.722   2.176
   2.419   2.477
 111       5.00   72    0 5.00   18    0
   0.193   0.193   0.193   0.192   0.191   0.190   0.189   0.188   0.187   0.185
   0.184   0.182   0.181   0.180   0.179   0.178   0.178   0.177   0.177   0.177
   0.178   0.178   0.179   0.180   0.181   0.182   0.184   0.185   0.187   0.188
   0.189   0.190   0.191   0.192   0.193   0.193   0.193   0.193   0.193   0.192
   0.191   0.190   0.189   0.188   0.187   0.185   0.184   0.182   0.181   0.180
   0.179   0.178   0.178   0.177   0.177   0.177   0.178   0.178   0.179   0.180
   0.181   0.182   0.184   0.185   0.187   0.188   0.189   0.190   0.191   0.192
   0.193   0.193
   0.347   0.345   0.341   0.333   0.324   0.312   0.299   0.285   0.271   0.256
   0.243   0.230   0.219   0.209   0.201   0.194   0.190   0.187   0.186   0.187
   0.190   0.194   0.201   0.209   0.219   0.230   0.243   0.256   0.271   0.285
   0.299   0.312   0.324   0.333   0.341   0.345   0.347   0.345   0.341   0.333
   0.324   0.312   0.299   0.285   0.271   0.256   0.243   0.230   0.219   0.209
   0.201   0.194   0.190   0.187   0.186   0.187   0.190   0.194   0.201   0.209
   0.219   0.230   0.243   0.256   0.271   0.285   0.299   0.312   0.324   0.333
   0.341   0.345
   0.724   0.718   0.700   0.672   0.635   0.592   0.545   0.496   0.448   0.403
   0.362   0.326   0.296   0.271   0.252   0.237   0.227   0.221   0.219   0.221
   0.227   0.237   0.252   0.271   0.296   0.326   0.362   0.403   0.448   0.496
   0.545   0.592   0.635   0.672   0.700   0.718   0.724   0.718   0.700   0.672
   0.635   0.592   0.545   0.496   0.448   0.403   0.362   0.326   0.296   0.271
   0.252   0.237   0.227   0.221   0.219   0.221   0.227   0.237   0.252   0.271
   0.296   0.326   0.362   0.403   0.448   0.496   0.545   0.592   0.635   0.672
   0.700   0.718
   1.329   1.314   1.271   1.202   1.113   1.011   0.902   0.793   0.689   0.595
   0.514   0.447   0.394   0.353   0.323   0.302   0.289   0.281   0.279   0.281
   0.289   0.302   0.323   0.353   0.394   0.447   0.514   0.595   0.689   0.793
   0.902   1.011   1.113   1.202   1.271   1.314   1.329   1.314   1.271   1.202
   1.113   1.011   0.902   0.793   0.689   0.595   0.514   0.447   0.394   0.353
   0.323   0.302   0.289   0.281   0.279   0.281   0.289   0.302   0.323   0.353
   0.394   0.447   0.514   0.595   0.689   0.793   0.902   1.011   1.113   1.202
   1.271   1.314
   1.982   1.956   1.881   1.762   1.611   1.438   1.256   1.077   0.912   0.766
   0.645   0.549   0.475   0.422   0.386   0.361   0.346   0.338   0.335   0.338
   0.346   0.361   0.386   0.422   0.475   0.549   0.645   0.766   0.912   1.077
   1.256   1.438   1.611   1.762   1.881   1.956   1.982   1.956   1.881   1.762
   1.611   1.438   1.256   1.077   0.912   0.766   0.645   0.549   0.475   0.422
   0.386   0.361   0.346   0.338   0.335   0.338   0.346   0.361   0.386   0.422
   0.475   0.549   0.645   0.766   0.912   1.077   1.256   1.438   1.611   1.762
   1.881   1.956
   2.373   2.341   2.248   2.102   1.914   1.701   1.478   1.259   1.058   0.882
   0.735   0.620   0.532   0.468   0.423   0.391   0.370   0.358   0.354   0.358
   0.370   0.391   0.423   0.468   0.532   0.620   0.735   0.882   1.058   1.259
   1.478   1.701   1.914   2.102   2.248   2.341   2.373   2.341   2.248   2.102
   1.914   1.701   1.478   1.259   1.058   0.882   0.735   0.620   0.532   0.468
   0.423   0.391   0.370   0.358   0.354   0.358   0.370   0.391   0.423   0.468
   0.532   0.620   0.735   0.882   1.058   1.259   1.478   1.701   1.914   2.102
   2.248   2.341
   2.276   2.250   2.175   2.055   1.902   1.724   1.535   1.345   1.163   0.997
   0.850   0.725   0.621   0.536   0.466   0.412   0.371   0.346   0.337   0.346
   0.371   0.412   0.466   0.536   0.621   0.725   0.850   0.997   1.163   1.345
   1.535   1.724   1.902   2.055   2.175   2.250   2.276   2.250   2.175   2.055
   1.902   1.724   1.535   1.345   1.163   0.997   0.850   0.725   0.621   0.536
   0.466   0.412   0.371   0.346   0.337   0.346   0.371   0.412   0.466   0.536
   0.621   0.725   0.850   0.997   1.163   1.345   1.535   1.724   1.902   2.055
   2.175   2.250
   1.738   1.730   1.709   1.674   1.627   1.569   1.499   1.417   1.321   1.210
   1.089   0.961   0.831   0.706   0.589   0.487   0.407   0.354   0.336   0.354
   0.407   0.487   0.589   0.706   0.831   0.961   1.089   1.210   1.321   1.417
   1.499   1.569   1.627   1.674   1.709   1.730   1.738   1.730   1.709   1.674
   1.627   1.569   1.499   1.417   1.321   1.210   1.089   0.961   0.831   0.706
   0.589   0.487   0.407   0.354   0.336   0.354   0.407   0.487   0.589   0.706
   0.831   0.961   1.089   1.210   1.321   1.417   1.499   1.569   1.627   1.674
   1.709   1.730
   1.057   1.070   1.109   1.173   1.257   1.353   1.446   1.519   1.554   1.536
   1.463   1.341   1.185   1.012   0.836   0.672   0.538   0.449   0.417   0.449
   0.538   0.672   0.836   1.012   1.185   1.341   1.463   1.536   1.554   1.519
   1.446   1.353   1.257   1.173   1.109   1.070   1.057   1.070   1.109   1.173
   1.257   1.353   1.446   1.519   1.554   1.536   1.463   1.341   1.185   1.012
   0.836   0.672   0.538   0.449   0.417   0.449   0.538   0.672   0.836   1.012
   1.185   1.341   1.463   1.536   1.554   1.519   1.446   1.353   1.257   1.173
   1.109   1.070
   0.555   0.578   0.648   0.766   0.934   1.141   1.368   1.584   1.750   1.837
   1.831   1.737   1.578   1.379   1.163   0.953   0.773   0.651   0.608   0.651
   0.773   0.953   1.163   1.379   1.578   1.737   1.831   1.837   1.750   1.584
   1.368   1.141   0.934   0.766   0.648   0.578   0.555   0.578   0.648   0.766
   0.934   1.141   1.368   1.584   1.750   1.837   1.831   1.737   1.578   1.379
   1.163   0.953   0.773   0.651   0.608   0.651   0.773   0.953   1.163   1.379
   1.578   1.737   1.831   1.837   1.750   1.584   1.368   1.141   0.934   0.766
   0.648   0.578
   0.348   0.366   0.424   0.531   0.699   0.931   1.210   1.501   1.754   1.923
   1.985   1.944   1.823   1.650   1.450   1.242   1.054   0.920   0.871   0.920
   1.054   1.242   1.450   1.650   1.823   1.944   1.985   1.923   1.754   1.501
   1.210   0.931   0.699   0.531   0.424   0.366   0.348   0.366   0.424   0.531
   0.699   0.931   1.210   1.501   1.754   1.923   1.985   1.944   1.823   1.650
   1.450   1.242   1.054   0.920   0.871   0.920   1.054   1.242   1.450   1.650
   1.823   1.944   1.985   1.923   1.754   1.501   1.210   0.931   0.699   0.531
   0.424   0.366
   0.320   0.328   0.355   0.419   0.538   0.727   0.978   1.259   1.522   1.716
   1.818   1.833   1.786   1.698   1.579   1.435   1.286   1.170   1.125   1.170
   1.286   1.435   1.579   1.698   1.786   1.833   1.818   1.716   1.522   1.259
   0.978   0.727   0.538   0.419   0.355   0.328   0.320   0.328   0.355   0.419
   0.538   0.727   0.978   1.259   1.522   1.716   1.818   1.833   1.786   1.698
   1.579   1.435   1.286   1.170   1.125   1.170   1.286   1.435   1.579   1.698
   1.786   1.833   1.818   1.716   1.522   1.259   0.978   0.727   0.538   0.419
   0.355   0.328
   0.323   0.325   0.336   0.371   0.450   0.584   0.771   0.982   1.178   1.325
   1.414   1.461   1.492   1.515   1.516   1.476   1.399   1.320   1.286   1.320
   1.399   1.476   1.516   1.515   1.492   1.461   1.414   1.325   1.178   0.982
   0.771   0.584   0.450   0.371   0.336   0.325   0.323   0.325   0.336   0.371
   0.450   0.584   0.771   0.982   1.178   1.325   1.414   1.461   1.492   1.515
   1.516   1.476   1.399   1.320   1.286   1.320   1.399   1.476   1.516   1.515
   1.492   1.461   1.414   1.325   1.178   0.982   0.771   0.584   0.450   0.371
   0.336   0.325
   0.380   0.378   0.379   0.403   0.464   0.565   0.690   0.811   0.900   0.950
   0.978   1.020   1.103   1.220   1.328   1.381   1.366   1.319   1.295   1.319
   1.366   1.381   1.328   1.220   1.103   1.020   0.978   0.950   0.900   0.811
   0.690   0.565   0.464   0.403   0.379   0.378   0.380   0.378   0.379   0.403
   0.464   0.565   0.690   0.811   0.900   0.950   0.978   1.020   1.103   1.220
   1.328   1.381   1.366   1.319   1.295   1.319   1.366   1.381   1.328   1.220
   1.103   1.020   0.978   0.950   0.900   0.811   0.690   0.565   0.464   0.403
   0.379   0.378
   0.673   0.652   0.607   0.579   0.598   0.662   0.735   0.777   0.768   0.721
   0.681   0.699   0.801   0.964   1.122   1.210   1.210   1.165   1.139   1.165
   1.210   1.210   1.122   0.964   0.801   0.699   0.681   0.721   0.768   0.777
   0.735   0.662   0.598   0.579   0.607   0.652   0.673   0.652   0.607   0.579
   0.598   0.662   0.735   0.777   0.768   0.721   0.681   0.699   0.801   0.964
   1.122   1.210   1.210   1.165   1.139   1.165   1.210   1.210   1.122   0.964
   0.801   0.699   0.681   0.721   0.768   0.777   0.735   0.662   0.598   0.579
   0.607   0.652
   1.314   1.245   1.080   0.910   0.812   0.795   0.812   0.800   0.734   0.636
   0.562   0.569   0.674   0.835   0.977   1.030   0.986   0.904   0.863   0.904
   0.986   1.030   0.977   0.835   0.674   0.569   0.562   0.636   0.734   0.800
   0.812   0.795   0.812   0.910   1.080   1.245   1.314   1.245   1.080   0.910
   0.812   0.795   0.812   0.800   0.734   0.636   0.562   0.569   0.674   0.835
   0.977   1.030   0.986   0.904   0.863   0.904   0.986   1.030   0.977   0.835
   0.674   0.569   0.562   0.636   0.734   0.800   0.812   0.795   0.812   0.910
   1.080   1.245
   2.129   1.996   1.666   1.295   1.023   0.889   0.842   0.800   0.720   0.621
   0.558   0.578   0.683   0.821   0.910   0.890   0.770   0.630   0.569   0.630
   0.770   0.890   0.910   0.821   0.683   0.578   0.558   0.621   0.720   0.800
   0.842   0.889   1.023   1.295   1.666   1.996   2.129   1.996   1.666   1.295
   1.023   0.889   0.842   0.800   0.720   0.621   0.558   0.578   0.683   0.821
   0.910   0.890   0.770   0.630   0.569   0.630   0.770   0.890   0.910   0.821
   0.683   0.578   0.558   0.621   0.720   0.800   0.842   0.889   1.023   1.295
   1.666   1.996
   2.710   2.530   2.078   1.556   1.151   0.927   0.834   0.778   0.704   0.622
   0.581   0.620   0.728   0.846   0.891   0.814   0.637   0.455   0.379   0.455
   0.637   0.814   0.891   0.846   0.728   0.620   0.581   0.622   0.704   0.778
   0.834   0.927   1.151   1.556   2.078   2.530   2.710   2.530   2.078   1.556
   1.151   0.927   0.834   0.778   0.704   0.622   0.581   0.620   0.728   0.846
   0.891   0.814   0.637   0.455   0.379   0.455   0.637   0.814   0.891   0.846
   0.728   0.620   0.581   0.622   0.704   0.778   0.834   0.927   1.151   1.556
   2.078   2.530
TEXTURE_INDEX=   1.7409
ERR_CF 220         1080     516   15.97   11.02
ERR_CF 200         1080     542   12.04    9.48
ERR_CF 111         1080     394   15.90    7.63
