TEXEVAL                                                                         
Analysis started on 21-Oct-19 11:23:09                                          
 LMAX=14LFMAX=03 CUBIC ORTHO   
 220      5.00 5.00
 200      5.00 5.00
 111      5.00 5.00
 220       5.00   72    0 5.00   15    0
   2.044   2.044   2.044   2.044   2.044   2.044   2.044   2.044   2.044   2.044
   2.044   2.044   2.044   2.044   2.044   2.044   2.044   2.044   2.044   2.044
   2.044   2.044   2.044   2.044   2.044   2.044   2.044   2.044   2.044   2.044
   2.044   2.044   2.044   2.044   2.044   2.044   2.044   2.044   2.044   2.044
   2.044   2.044   2.044   2.044   2.044   2.044   2.044   2.044   2.044   2.044
   2.044   2.044   2.044   2.044   2.044   2.044   2.044   2.044   2.044   2.044
   2.044   2.044   2.044   2.044   2.044   2.044   2.044   2.044   2.044   2.044
   2.044   2.044
   1.280   1.246   1.180   1.369   1.297   1.456   1.327   1.409   1.533   1.559
   1.662   1.812   1.978   2.145   2.201   2.257   2.296   2.365   2.658   2.365
   2.296   2.257   2.201   2.145   1.978   1.812   1.662   1.559   1.533   1.409
   1.327   1.456   1.297   1.369   1.180   1.246   1.280   1.246   1.180   1.369
   1.297   1.456   1.327   1.409   1.533   1.559   1.662   1.812   1.978   2.145
   2.201   2.257   2.296   2.365   2.658   2.365   2.296   2.257   2.201   2.145
   1.978   1.812   1.662   1.559   1.533   1.409   1.327   1.456   1.297   1.369
   1.180   1.246
   0.741   0.716   0.700   0.683   0.846   0.858   0.802   0.916   1.034   1.234
   1.371   1.636   1.855   2.014   2.093   2.414   2.803   2.862   3.031   2.862
   2.803   2.414   2.093   2.014   1.855   1.636   1.371   1.234   1.034   0.916
   0.802   0.858   0.846   0.683   0.700   0.716   0.741   0.716   0.700   0.683
   0.846   0.858   0.802   0.916   1.034   1.234   1.371   1.636   1.855   2.014
   2.093   2.414   2.803   2.862   3.031   2.862   2.803   2.414   2.093   2.014
   1.855   1.636   1.371   1.234   1.034   0.916   0.802   0.858   0.846   0.683
   0.700   0.716
   0.420   0.377   0.363   0.344   0.498   0.457   0.458   0.543   0.680   0.829
   0.983   1.269   1.529   1.860   2.084   2.469   2.956   3.090   3.317   3.090
   2.956   2.469   2.084   1.860   1.529   1.269   0.983   0.829   0.680   0.543
   0.458   0.457   0.498   0.344   0.363   0.377   0.420   0.377   0.363   0.344
   0.498   0.457   0.458   0.543   0.680   0.829   0.983   1.269   1.529   1.860
   2.084   2.469   2.956   3.090   3.317   3.090   2.956   2.469   2.084   1.860
   1.529   1.269   0.983   0.829   0.680   0.543   0.458   0.457   0.498   0.344
   0.363   0.377
   0.343   0.226   0.234   0.199   0.333   0.285   0.356   0.415   0.494   0.674
   0.779   1.208   1.321   1.665   1.892   2.442   2.971   3.345   3.772   3.345
   2.971   2.442   1.892   1.665   1.321   1.208   0.779   0.674   0.494   0.415
   0.356   0.285   0.333   0.199   0.234   0.226   0.343   0.226   0.234   0.199
   0.333   0.285   0.356   0.415   0.494   0.674   0.779   1.208   1.321   1.665
   1.892   2.442   2.971   3.345   3.772   3.345   2.971   2.442   1.892   1.665
   1.321   1.208   0.779   0.674   0.494   0.415   0.356   0.285   0.333   0.199
   0.234   0.226
   0.232   0.216   0.199   0.172   0.258   0.276   0.457   0.397   0.434   0.592
   0.837   0.978   1.233   1.428   1.831   2.345   2.929   3.417   3.598   3.417
   2.929   2.345   1.831   1.428   1.233   0.978   0.837   0.592   0.434   0.397
   0.457   0.276   0.258   0.172   0.199   0.216   0.232   0.216   0.199   0.172
   0.258   0.276   0.457   0.397   0.434   0.592   0.837   0.978   1.233   1.428
   1.831   2.345   2.929   3.417   3.598   3.417   2.929   2.345   1.831   1.428
   1.233   0.978   0.837   0.592   0.434   0.397   0.457   0.276   0.258   0.172
   0.199   0.216
   0.391   0.272   0.335   0.313   0.318   0.339   0.581   0.427   0.454   0.441
   0.841   0.751   1.000   1.427   1.792   2.383   2.554   3.026   2.988   3.026
   2.554   2.383   1.792   1.427   1.000   0.751   0.841   0.441   0.454   0.427
   0.581   0.339   0.318   0.313   0.335   0.272   0.391   0.272   0.335   0.313
   0.318   0.339   0.581   0.427   0.454   0.441   0.841   0.751   1.000   1.427
   1.792   2.383   2.554   3.026   2.988   3.026   2.554   2.383   1.792   1.427
   1.000   0.751   0.841   0.441   0.454   0.427   0.581   0.339   0.318   0.313
   0.335   0.272
   0.891   0.567   0.649   0.578   0.529   0.480   0.612   0.551   0.452   0.409
   0.634   0.748   0.837   1.278   1.472   2.104   2.154   2.405   2.575   2.405
   2.154   2.104   1.472   1.278   0.837   0.748   0.634   0.409   0.452   0.551
   0.612   0.480   0.529   0.578   0.649   0.567   0.891   0.567   0.649   0.578
   0.529   0.480   0.612   0.551   0.452   0.409   0.634   0.748   0.837   1.278
   1.472   2.104   2.154   2.405   2.575   2.405   2.154   2.104   1.472   1.278
   0.837   0.748   0.634   0.409   0.452   0.551   0.612   0.480   0.529   0.578
   0.649   0.567
   1.575   1.325   1.224   1.035   0.796   0.737   0.723   0.719   0.501   0.581
   0.570   0.694   0.775   0.996   1.058   1.635   1.829   2.128   2.306   2.128
   1.829   1.635   1.058   0.996   0.775   0.694   0.570   0.581   0.501   0.719
   0.723   0.737   0.796   1.035   1.224   1.325   1.575   1.325   1.224   1.035
   0.796   0.737   0.723   0.719   0.501   0.581   0.570   0.694   0.775   0.996
   1.058   1.635   1.829   2.128   2.306   2.128   1.829   1.635   1.058   0.996
   0.775   0.694   0.570   0.581   0.501   0.719   0.723   0.737   0.796   1.035
   1.224   1.325
   2.064   1.883   1.852   1.404   1.080   1.070   0.932   0.751   0.611   0.547
   0.640   0.683   0.673   0.913   0.930   1.243   1.446   1.835   1.846   1.835
   1.446   1.243   0.930   0.913   0.673   0.683   0.640   0.547   0.611   0.751
   0.932   1.070   1.080   1.404   1.852   1.883   2.064   1.883   1.852   1.404
   1.080   1.070   0.932   0.751   0.611   0.547   0.640   0.683   0.673   0.913
   0.930   1.243   1.446   1.835   1.846   1.835   1.446   1.243   0.930   0.913
   0.673   0.683   0.640   0.547   0.611   0.751   0.932   1.070   1.080   1.404
   1.852   1.883
   2.502   2.129   1.933   1.703   1.377   1.203   0.980   0.768   0.595   0.540
   0.455   0.612   0.619   0.602   0.870   0.958   1.081   1.253   1.202   1.253
   1.081   0.958   0.870   0.602   0.619   0.612   0.455   0.540   0.595   0.768
   0.980   1.203   1.377   1.703   1.933   2.129   2.502   2.129   1.933   1.703
   1.377   1.203   0.980   0.768   0.595   0.540   0.455   0.612   0.619   0.602
   0.870   0.958   1.081   1.253   1.202   1.253   1.081   0.958   0.870   0.602
   0.619   0.612   0.455   0.540   0.595   0.768   0.980   1.203   1.377   1.703
   1.933   2.129
   2.889   2.308   2.046   2.117   1.557   1.418   1.338   0.877   0.929   0.945
   0.694   0.619   0.598   0.450   0.707   0.799   0.747   1.042   1.085   1.042
   0.747   0.799   0.707   0.450   0.598   0.619   0.694   0.945   0.929   0.877
   1.338   1.418   1.557   2.117   2.046   2.308   2.889   2.308   2.046   2.117
   1.557   1.418   1.338   0.877   0.929   0.945   0.694   0.619   0.598   0.450
   0.707   0.799   0.747   1.042   1.085   1.042   0.747   0.799   0.707   0.450
   0.598   0.619   0.694   0.945   0.929   0.877   1.338   1.418   1.557   2.117
   2.046   2.308
   2.160   1.909   1.790   1.746   1.435   1.627   1.591   0.931   1.039   1.000
   0.734   0.494   0.528   0.411   0.546   0.526   0.567   0.793   1.038   0.793
   0.567   0.526   0.546   0.411   0.528   0.494   0.734   1.000   1.039   0.931
   1.591   1.627   1.435   1.746   1.790   1.909   2.160   1.909   1.790   1.746
   1.435   1.627   1.591   0.931   1.039   1.000   0.734   0.494   0.528   0.411
   0.546   0.526   0.567   0.793   1.038   0.793   0.567   0.526   0.546   0.411
   0.528   0.494   0.734   1.000   1.039   0.931   1.591   1.627   1.435   1.746
   1.790   1.909
   1.629   1.147   0.979   1.202   1.166   1.576   1.248   1.093   1.011   1.094
   0.701   0.412   0.484   0.510   0.609   0.818   0.590   0.798   0.914   0.798
   0.590   0.818   0.609   0.510   0.484   0.412   0.701   1.094   1.011   1.093
   1.248   1.576   1.166   1.202   0.979   1.147   1.629   1.147   0.979   1.202
   1.166   1.576   1.248   1.093   1.011   1.094   0.701   0.412   0.484   0.510
   0.609   0.818   0.590   0.798   0.914   0.798   0.590   0.818   0.609   0.510
   0.484   0.412   0.701   1.094   1.011   1.093   1.248   1.576   1.166   1.202
   0.979   1.147
   1.225   0.645   0.714   0.884   0.876   1.169   1.017   1.143   1.229   0.985
   1.151   0.642   0.498   0.706   0.831   1.048   0.615   0.737   1.177   0.737
   0.615   1.048   0.831   0.706   0.498   0.642   1.151   0.985   1.229   1.143
   1.017   1.169   0.876   0.884   0.714   0.645   1.225   0.645   0.714   0.884
   0.876   1.169   1.017   1.143   1.229   0.985   1.151   0.642   0.498   0.706
   0.831   1.048   0.615   0.737   1.177   0.737   0.615   1.048   0.831   0.706
   0.498   0.642   1.151   0.985   1.229   1.143   1.017   1.169   0.876   0.884
   0.714   0.645
 200       5.00   72    0 5.00   15    0
   3.941   3.941   3.941   3.941   3.941   3.941   3.941   3.941   3.941   3.941
   3.941   3.941   3.941   3.941   3.941   3.941   3.941   3.941   3.941   3.941
   3.941   3.941   3.941   3.941   3.941   3.941   3.941   3.941   3.941   3.941
   3.941   3.941   3.941   3.941   3.941   3.941   3.941   3.941   3.941   3.941
   3.941   3.941   3.941   3.941   3.941   3.941   3.941   3.941   3.941   3.941
   3.941   3.941   3.941   3.941   3.941   3.941   3.941   3.941   3.941   3.941
   3.941   3.941   3.941   3.941   3.941   3.941   3.941   3.941   3.941   3.941
   3.941   3.941
   2.531   2.659   2.779   2.668   2.638   2.723   2.574   3.102   2.757   2.628
   2.933   3.064   3.336   3.339   3.510   3.556   3.153   3.217   3.607   3.217
   3.153   3.556   3.510   3.339   3.336   3.064   2.933   2.628   2.757   3.102
   2.574   2.723   2.638   2.668   2.779   2.659   2.531   2.659   2.779   2.668
   2.638   2.723   2.574   3.102   2.757   2.628   2.933   3.064   3.336   3.339
   3.510   3.556   3.153   3.217   3.607   3.217   3.153   3.556   3.510   3.339
   3.336   3.064   2.933   2.628   2.757   3.102   2.574   2.723   2.638   2.668
   2.779   2.659
   1.440   1.632   1.814   1.774   1.659   1.798   1.735   1.829   1.861   1.695
   1.953   2.025   2.232   2.228   2.248   2.431   2.115   2.269   2.093   2.269
   2.115   2.431   2.248   2.228   2.232   2.025   1.953   1.695   1.861   1.829
   1.735   1.798   1.659   1.774   1.814   1.632   1.440   1.632   1.814   1.774
   1.659   1.798   1.735   1.829   1.861   1.695   1.953   2.025   2.232   2.228
   2.248   2.431   2.115   2.269   2.093   2.269   2.115   2.431   2.248   2.228
   2.232   2.025   1.953   1.695   1.861   1.829   1.735   1.798   1.659   1.774
   1.814   1.632
   1.263   1.186   1.342   1.285   1.381   1.416   1.329   1.284   1.299   1.303
   1.365   1.270   1.479   1.533   1.386   1.381   1.401   1.496   1.380   1.496
   1.401   1.381   1.386   1.533   1.479   1.270   1.365   1.303   1.299   1.284
   1.329   1.416   1.381   1.285   1.342   1.186   1.263   1.186   1.342   1.285
   1.381   1.416   1.329   1.284   1.299   1.303   1.365   1.270   1.479   1.533
   1.386   1.381   1.401   1.496   1.380   1.496   1.401   1.381   1.386   1.533
   1.479   1.270   1.365   1.303   1.299   1.284   1.329   1.416   1.381   1.285
   1.342   1.186
   1.314   1.378   1.473   1.398   1.538   1.370   1.249   1.248   1.227   0.984
   1.076   1.063   1.010   0.984   0.913   0.970   0.936   1.054   1.272   1.054
   0.936   0.970   0.913   0.984   1.010   1.063   1.076   0.984   1.227   1.248
   1.249   1.370   1.538   1.398   1.473   1.378   1.314   1.378   1.473   1.398
   1.538   1.370   1.249   1.248   1.227   0.984   1.076   1.063   1.010   0.984
   0.913   0.970   0.936   1.054   1.272   1.054   0.936   0.970   0.913   0.984
   1.010   1.063   1.076   0.984   1.227   1.248   1.249   1.370   1.538   1.398
   1.473   1.378
   1.809   1.913   1.875   1.728   1.782   1.545   1.579   1.394   1.168   0.963
   0.863   0.828   0.803   0.747   0.734   0.763   0.791   0.892   0.863   0.892
   0.791   0.763   0.734   0.747   0.803   0.828   0.863   0.963   1.168   1.394
   1.579   1.545   1.782   1.728   1.875   1.913   1.809   1.913   1.875   1.728
   1.782   1.545   1.579   1.394   1.168   0.963   0.863   0.828   0.803   0.747
   0.734   0.763   0.791   0.892   0.863   0.892   0.791   0.763   0.734   0.747
   0.803   0.828   0.863   0.963   1.168   1.394   1.579   1.545   1.782   1.728
   1.875   1.913
   1.750   1.828   1.725   1.607   1.752   1.793   1.715   1.574   1.077   0.898
   0.853   0.920   0.759   0.733   0.657   0.679   0.764   0.781   0.792   0.781
   0.764   0.679   0.657   0.733   0.759   0.920   0.853   0.898   1.077   1.574
   1.715   1.793   1.752   1.607   1.725   1.828   1.750   1.828   1.725   1.607
   1.752   1.793   1.715   1.574   1.077   0.898   0.853   0.920   0.759   0.733
   0.657   0.679   0.764   0.781   0.792   0.781   0.764   0.679   0.657   0.733
   0.759   0.920   0.853   0.898   1.077   1.574   1.715   1.793   1.752   1.607
   1.725   1.828
   1.008   1.066   1.171   1.287   1.494   1.508   1.536   1.335   1.097   0.913
   0.803   0.830   0.815   0.639   0.697   0.725   0.722   0.822   0.809   0.822
   0.722   0.725   0.697   0.639   0.815   0.830   0.803   0.913   1.097   1.335
   1.536   1.508   1.494   1.287   1.171   1.066   1.008   1.066   1.171   1.287
   1.494   1.508   1.536   1.335   1.097   0.913   0.803   0.830   0.815   0.639
   0.697   0.725   0.722   0.822   0.809   0.822   0.722   0.725   0.697   0.639
   0.815   0.830   0.803   0.913   1.097   1.335   1.536   1.508   1.494   1.287
   1.171   1.066
   0.469   0.464   0.620   0.828   0.873   0.962   1.163   1.015   1.017   0.913
   0.789   0.652   0.706   0.595   0.686   0.668   0.678   0.872   0.729   0.872
   0.678   0.668   0.686   0.595   0.706   0.652   0.789   0.913   1.017   1.015
   1.163   0.962   0.873   0.828   0.620   0.464   0.469   0.464   0.620   0.828
   0.873   0.962   1.163   1.015   1.017   0.913   0.789   0.652   0.706   0.595
   0.686   0.668   0.678   0.872   0.729   0.872   0.678   0.668   0.686   0.595
   0.706   0.652   0.789   0.913   1.017   1.015   1.163   0.962   0.873   0.828
   0.620   0.464
   0.287   0.139   0.297   0.382   0.372   0.765   0.795   0.835   0.933   0.758
   0.834   0.672   0.672   0.752   0.645   0.564   0.841   0.725   0.764   0.725
   0.841   0.564   0.645   0.752   0.672   0.672   0.834   0.758   0.933   0.835
   0.795   0.765   0.372   0.382   0.297   0.139   0.287   0.139   0.297   0.382
   0.372   0.765   0.795   0.835   0.933   0.758   0.834   0.672   0.672   0.752
   0.645   0.564   0.841   0.725   0.764   0.725   0.841   0.564   0.645   0.752
   0.672   0.672   0.834   0.758   0.933   0.835   0.795   0.765   0.372   0.382
   0.297   0.139
   0.329   0.019   0.132   0.160   0.289   0.567   0.500   0.632   0.699   0.678
   0.823   0.586   0.755   0.792   0.717   0.672   0.899   0.638   0.539   0.638
   0.899   0.672   0.717   0.792   0.755   0.586   0.823   0.678   0.699   0.632
   0.500   0.567   0.289   0.160   0.132   0.019   0.329   0.019   0.132   0.160
   0.289   0.567   0.500   0.632   0.699   0.678   0.823   0.586   0.755   0.792
   0.717   0.672   0.899   0.638   0.539   0.638   0.899   0.672   0.717   0.792
   0.755   0.586   0.823   0.678   0.699   0.632   0.500   0.567   0.289   0.160
   0.132   0.019
   0.140   0.084   0.138   0.152   0.192   0.294   0.225   0.549   0.457   0.596
   0.942   0.756   0.919   0.740   0.637   0.782   0.774   0.716   0.484   0.716
   0.774   0.782   0.637   0.740   0.919   0.756   0.942   0.596   0.457   0.549
   0.225   0.294   0.192   0.152   0.138   0.084   0.140   0.084   0.138   0.152
   0.192   0.294   0.225   0.549   0.457   0.596   0.942   0.756   0.919   0.740
   0.637   0.782   0.774   0.716   0.484   0.716   0.774   0.782   0.637   0.740
   0.919   0.756   0.942   0.596   0.457   0.549   0.225   0.294   0.192   0.152
   0.138   0.084
   0.111   0.241   0.286   0.284   0.210   0.343   0.243   0.720   0.670   0.732
   1.129   1.182   0.978   0.839   0.687   0.903   0.779   0.823   0.689   0.823
   0.779   0.903   0.687   0.839   0.978   1.182   1.129   0.732   0.670   0.720
   0.243   0.343   0.210   0.284   0.286   0.241   0.111   0.241   0.286   0.284
   0.210   0.343   0.243   0.720   0.670   0.732   1.129   1.182   0.978   0.839
   0.687   0.903   0.779   0.823   0.689   0.823   0.779   0.903   0.687   0.839
   0.978   1.182   1.129   0.732   0.670   0.720   0.243   0.343   0.210   0.284
   0.286   0.241
   0.149   0.307   0.308   0.258   0.483   0.580   0.414   0.643   0.960   1.112
   1.180   1.446   0.942   1.023   0.741   0.923   0.849   0.710   0.750   0.710
   0.849   0.923   0.741   1.023   0.942   1.446   1.180   1.112   0.960   0.643
   0.414   0.580   0.483   0.258   0.308   0.307   0.149   0.307   0.308   0.258
   0.483   0.580   0.414   0.643   0.960   1.112   1.180   1.446   0.942   1.023
   0.741   0.923   0.849   0.710   0.750   0.710   0.849   0.923   0.741   1.023
   0.942   1.446   1.180   1.112   0.960   0.643   0.414   0.580   0.483   0.258
   0.308   0.307
   0.261   0.319   0.360   0.267   0.619   0.737   0.576   0.546   0.980   1.312
   1.177   1.185   1.010   1.026   0.699   0.920   0.816   0.485   0.734   0.485
   0.816   0.920   0.699   1.026   1.010   1.185   1.177   1.312   0.980   0.546
   0.576   0.737   0.619   0.267   0.360   0.319   0.261   0.319   0.360   0.267
   0.619   0.737   0.576   0.546   0.980   1.312   1.177   1.185   1.010   1.026
   0.699   0.920   0.816   0.485   0.734   0.485   0.816   0.920   0.699   1.026
   1.010   1.185   1.177   1.312   0.980   0.546   0.576   0.737   0.619   0.267
   0.360   0.319
 111       5.00   72    0 5.00   15    0
   0.150   0.150   0.150   0.150   0.150   0.150   0.150   0.150   0.150   0.150
   0.150   0.150   0.150   0.150   0.150   0.150   0.150   0.150   0.150   0.150
   0.150   0.150   0.150   0.150   0.150   0.150   0.150   0.150   0.150   0.150
   0.150   0.150   0.150   0.150   0.150   0.150   0.150   0.150   0.150   0.150
   0.150   0.150   0.150   0.150   0.150   0.150   0.150   0.150   0.150   0.150
   0.150   0.150   0.150   0.150   0.150   0.150   0.150   0.150   0.150   0.150
   0.150   0.150   0.150   0.150   0.150   0.150   0.150   0.150   0.150   0.150
   0.150   0.150
   0.312   0.331   0.310   0.271   0.312   0.278   0.277   0.237   0.273   0.256
   0.205   0.233   0.178   0.155   0.170   0.182   0.182   0.177   0.154   0.177
   0.182   0.182   0.170   0.155   0.178   0.233   0.205   0.256   0.273   0.237
   0.277   0.278   0.312   0.271   0.310   0.331   0.312   0.331   0.310   0.271
   0.312   0.278   0.277   0.237   0.273   0.256   0.205   0.233   0.178   0.155
   0.170   0.182   0.182   0.177   0.154   0.177   0.182   0.182   0.170   0.155
   0.178   0.233   0.205   0.256   0.273   0.237   0.277   0.278   0.312   0.271
   0.310   0.331
   0.714   0.673   0.702   0.595   0.630   0.665   0.443   0.438   0.452   0.374
   0.241   0.273   0.248   0.193   0.186   0.168   0.231   0.169   0.210   0.169
   0.231   0.168   0.186   0.193   0.248   0.273   0.241   0.374   0.452   0.438
   0.443   0.665   0.630   0.595   0.702   0.673   0.714   0.673   0.702   0.595
   0.630   0.665   0.443   0.438   0.452   0.374   0.241   0.273   0.248   0.193
   0.186   0.168   0.231   0.169   0.210   0.169   0.231   0.168   0.186   0.193
   0.248   0.273   0.241   0.374   0.452   0.438   0.443   0.665   0.630   0.595
   0.702   0.673
   1.453   1.474   1.463   1.231   1.229   1.177   0.883   0.738   0.658   0.527
   0.376   0.318   0.274   0.241   0.216   0.251   0.224   0.176   0.181   0.176
   0.224   0.251   0.216   0.241   0.274   0.318   0.376   0.527   0.658   0.738
   0.883   1.177   1.229   1.231   1.463   1.474   1.453   1.474   1.463   1.231
   1.229   1.177   0.883   0.738   0.658   0.527   0.376   0.318   0.274   0.241
   0.216   0.251   0.224   0.176   0.181   0.176   0.224   0.251   0.216   0.241
   0.274   0.318   0.376   0.527   0.658   0.738   0.883   1.177   1.229   1.231
   1.463   1.474
   2.659   2.624   2.514   2.154   1.988   1.521   1.329   1.087   0.897   0.731
   0.541   0.454   0.323   0.326   0.281   0.271   0.188   0.127   0.138   0.127
   0.188   0.271   0.281   0.326   0.323   0.454   0.541   0.731   0.897   1.087
   1.329   1.521   1.988   2.154   2.514   2.624   2.659   2.624   2.514   2.154
   1.988   1.521   1.329   1.087   0.897   0.731   0.541   0.454   0.323   0.326
   0.281   0.271   0.188   0.127   0.138   0.127   0.188   0.271   0.281   0.326
   0.323   0.454   0.541   0.731   0.897   1.087   1.329   1.521   1.988   2.154
   2.514   2.624
   3.405   3.162   3.193   2.687   2.332   1.887   1.628   1.434   1.103   0.883
   0.783   0.632   0.423   0.447   0.313   0.233   0.236   0.147   0.180   0.147
   0.236   0.233   0.313   0.447   0.423   0.632   0.783   0.883   1.103   1.434
   1.628   1.887   2.332   2.687   3.193   3.162   3.405   3.162   3.193   2.687
   2.332   1.887   1.628   1.434   1.103   0.883   0.783   0.632   0.423   0.447
   0.313   0.233   0.236   0.147   0.180   0.147   0.236   0.233   0.313   0.447
   0.423   0.632   0.783   0.883   1.103   1.434   1.628   1.887   2.332   2.687
   3.193   3.162
   3.137   3.099   3.032   2.582   2.370   2.053   1.872   1.446   1.261   1.077
   0.976   0.800   0.598   0.513   0.375   0.306   0.295   0.234   0.207   0.234
   0.295   0.306   0.375   0.513   0.598   0.800   0.976   1.077   1.261   1.446
   1.872   2.053   2.370   2.582   3.032   3.099   3.137   3.099   3.032   2.582
   2.370   2.053   1.872   1.446   1.261   1.077   0.976   0.800   0.598   0.513
   0.375   0.306   0.295   0.234   0.207   0.234   0.295   0.306   0.375   0.513
   0.598   0.800   0.976   1.077   1.261   1.446   1.872   2.053   2.370   2.582
   3.032   3.099
   2.254   2.419   2.259   1.999   2.193   1.956   1.909   1.412   1.460   1.329
   1.152   1.092   0.871   0.687   0.558   0.386   0.310   0.298   0.376   0.298
   0.310   0.386   0.558   0.687   0.871   1.092   1.152   1.329   1.460   1.412
   1.909   1.956   2.193   1.999   2.259   2.419   2.254   2.419   2.259   1.999
   2.193   1.956   1.909   1.412   1.460   1.329   1.152   1.092   0.871   0.687
   0.558   0.386   0.310   0.298   0.376   0.298   0.310   0.386   0.558   0.687
   0.871   1.092   1.152   1.329   1.460   1.412   1.909   1.956   2.193   1.999
   2.259   2.419
   1.201   1.273   1.242   1.242   1.574   1.668   1.729   1.703   1.805   1.561
   1.466   1.343   1.191   1.024   0.714   0.537   0.458   0.360   0.450   0.360
   0.458   0.537   0.714   1.024   1.191   1.343   1.466   1.561   1.805   1.703
   1.729   1.668   1.574   1.242   1.242   1.273   1.201   1.273   1.242   1.242
   1.574   1.668   1.729   1.703   1.805   1.561   1.466   1.343   1.191   1.024
   0.714   0.537   0.458   0.360   0.450   0.360   0.458   0.537   0.714   1.024
   1.191   1.343   1.466   1.561   1.805   1.703   1.729   1.668   1.574   1.242
   1.242   1.273
   0.604   0.510   0.544   0.660   0.971   1.234   1.445   1.886   2.084   1.900
   2.002   1.719   1.766   1.481   0.986   0.766   0.625   0.510   0.521   0.510
   0.625   0.766   0.986   1.481   1.766   1.719   2.002   1.900   2.084   1.886
   1.445   1.234   0.971   0.660   0.544   0.510   0.604   0.510   0.544   0.660
   0.971   1.234   1.445   1.886   2.084   1.900   2.002   1.719   1.766   1.481
   0.986   0.766   0.625   0.510   0.521   0.510   0.625   0.766   0.986   1.481
   1.766   1.719   2.002   1.900   2.084   1.886   1.445   1.234   0.971   0.660
   0.544   0.510
   0.394   0.304   0.379   0.438   0.643   0.824   1.084   1.731   2.173   2.318
   2.244   2.036   2.178   1.771   1.386   1.114   0.955   0.752   0.921   0.752
   0.955   1.114   1.386   1.771   2.178   2.036   2.244   2.318   2.173   1.731
   1.084   0.824   0.643   0.438   0.379   0.304   0.394   0.304   0.379   0.438
   0.643   0.824   1.084   1.731   2.173   2.318   2.244   2.036   2.178   1.771
   1.386   1.114   0.955   0.752   0.921   0.752   0.955   1.114   1.386   1.771
   2.178   2.036   2.244   2.318   2.173   1.731   1.084   0.824   0.643   0.438
   0.379   0.304
   0.206   0.271   0.385   0.355   0.485   0.625   0.963   1.262   1.808   2.020
   1.940   2.124   1.928   1.711   1.724   1.435   1.329   1.026   1.064   1.026
   1.329   1.435   1.724   1.711   1.928   2.124   1.940   2.020   1.808   1.262
   0.963   0.625   0.485   0.355   0.385   0.271   0.206   0.271   0.385   0.355
   0.485   0.625   0.963   1.262   1.808   2.020   1.940   2.124   1.928   1.711
   1.724   1.435   1.329   1.026   1.064   1.026   1.329   1.435   1.724   1.711
   1.928   2.124   1.940   2.020   1.808   1.262   0.963   0.625   0.485   0.355
   0.385   0.271
   0.086   0.269   0.247   0.203   0.404   0.571   0.943   0.837   1.160   1.278
   1.447   1.678   1.416   1.414   1.717   1.409   1.303   1.192   1.188   1.192
   1.303   1.409   1.717   1.414   1.416   1.678   1.447   1.278   1.160   0.837
   0.943   0.571   0.404   0.203   0.247   0.269   0.086   0.269   0.247   0.203
   0.404   0.571   0.943   0.837   1.160   1.278   1.447   1.678   1.416   1.414
   1.717   1.409   1.303   1.192   1.188   1.192   1.303   1.409   1.717   1.414
   1.416   1.678   1.447   1.278   1.160   0.837   0.943   0.571   0.404   0.203
   0.247   0.269
   0.224   0.376   0.220   0.366   0.393   0.435   0.762   0.619   0.881   0.804
   1.108   0.949   1.065   1.097   1.500   1.173   1.255   1.113   1.197   1.113
   1.255   1.173   1.500   1.097   1.065   0.949   1.108   0.804   0.881   0.619
   0.762   0.435   0.393   0.366   0.220   0.376   0.224   0.376   0.220   0.366
   0.393   0.435   0.762   0.619   0.881   0.804   1.108   0.949   1.065   1.097
   1.500   1.173   1.255   1.113   1.197   1.113   1.255   1.173   1.500   1.097
   1.065   0.949   1.108   0.804   0.881   0.619   0.762   0.435   0.393   0.366
   0.220   0.376
   0.273   0.417   0.376   0.638   0.688   0.431   0.645   0.521   0.603   0.614
   0.862   0.702   0.880   0.882   1.153   1.046   1.011   0.893   0.975   0.893
   1.011   1.046   1.153   0.882   0.880   0.702   0.862   0.614   0.603   0.521
   0.645   0.431   0.688   0.638   0.376   0.417   0.273   0.417   0.376   0.638
   0.688   0.431   0.645   0.521   0.603   0.614   0.862   0.702   0.880   0.882
   1.153   1.046   1.011   0.893   0.975   0.893   1.011   1.046   1.153   0.882
   0.880   0.702   0.862   0.614   0.603   0.521   0.645   0.431   0.688   0.638
   0.376   0.417
  4  1      1.3385156E+00
  4  2     -2.6269065E-01
  4  3      1.5309840E-01
  6  1      6.4791526E-01
  6  2     -2.6526151E+00
  6  3      1.4850485E+00
  6  4     -4.6362251E-01
  8  1      7.0380982E-01
  8  2     -5.0563751E-01
  8  3      8.0766462E-01
  8  4     -1.4002043E-01
  8  5      3.3085152E-01
 10  1     -6.0525068E-01
 10  2     -5.3389135E-02
 10  3      8.9150493E-01
 10  4      3.6048188E-01
 10  5      4.4824331E-02
 10  6      1.0972337E-01
 12  1      6.5318738E-01  7.4697703E-01
 12  2     -4.8640675E-01 -7.8288774E-01
 12  3      3.6963557E-01  8.7374695E-01
 12  4     -1.1904709E-01 -6.1334283E-01
 12  5     -9.5968554E-02  3.2308756E-01
 12  6     -1.5430437E-01  4.4391205E-02
 12  7     -9.2446095E-02 -1.7164678E-01
 14  1     -1.5062788E-01
 14  2     -7.0734672E-03
 14  3      4.5512419E-01
 14  4     -3.8557528E-01
 14  5      1.9145697E-01
 14  6     -1.3771611E-01
 14  7      1.0141653E-01
 14  8     -1.4790952E-01
 220       5.00   72    0 5.00   18    0
   1.460   1.461   1.462   1.465   1.469   1.473   1.479   1.485   1.491   1.498
   1.504   1.511   1.517   1.522   1.527   1.531   1.534   1.535   1.536   1.535
   1.534   1.531   1.527   1.522   1.517   1.511   1.504   1.498   1.491   1.485
   1.479   1.473   1.469   1.465   1.462   1.461   1.460   1.461   1.462   1.465
   1.469   1.473   1.479   1.485   1.491   1.498   1.504   1.511   1.517   1.522
   1.527   1.531   1.534   1.535   1.536   1.535   1.534   1.531   1.527   1.522
   1.517   1.511   1.504   1.498   1.491   1.485   1.479   1.473   1.469   1.465
   1.462   1.461
   1.042   1.045   1.057   1.076   1.102   1.134   1.173   1.218   1.267   1.320
   1.374   1.428   1.481   1.530   1.573   1.609   1.636   1.653   1.658   1.653
   1.636   1.609   1.573   1.530   1.481   1.428   1.374   1.320   1.267   1.218
   1.173   1.134   1.102   1.076   1.057   1.045   1.042   1.045   1.057   1.076
   1.102   1.134   1.173   1.218   1.267   1.320   1.374   1.428   1.481   1.530
   1.573   1.609   1.636   1.653   1.658   1.653   1.636   1.609   1.573   1.530
   1.481   1.428   1.374   1.320   1.267   1.218   1.173   1.134   1.102   1.076
   1.057   1.045
   0.477   0.482   0.499   0.528   0.569   0.625   0.694   0.779   0.879   0.992
   1.116   1.248   1.382   1.512   1.632   1.734   1.812   1.861   1.878   1.861
   1.812   1.734   1.632   1.512   1.382   1.248   1.116   0.992   0.879   0.779
   0.694   0.625   0.569   0.528   0.499   0.482   0.477   0.482   0.499   0.528
   0.569   0.625   0.694   0.779   0.879   0.992   1.116   1.248   1.382   1.512
   1.632   1.734   1.812   1.861   1.878   1.861   1.812   1.734   1.632   1.512
   1.382   1.248   1.116   0.992   0.879   0.779   0.694   0.625   0.569   0.528
   0.499   0.482
   0.075   0.078   0.089   0.109   0.141   0.188   0.255   0.345   0.464   0.612
   0.789   0.992   1.213   1.441   1.659   1.853   2.006   2.104   2.138   2.104
   2.006   1.853   1.659   1.441   1.213   0.992   0.789   0.612   0.464   0.345
   0.255   0.188   0.141   0.109   0.089   0.078   0.075   0.078   0.089   0.109
   0.141   0.188   0.255   0.345   0.464   0.612   0.789   0.992   1.213   1.441
   1.659   1.853   2.006   2.104   2.138   2.104   2.006   1.853   1.659   1.441
   1.213   0.992   0.789   0.612   0.464   0.345   0.255   0.188   0.141   0.109
   0.089   0.078
  -0.042  -0.041  -0.038  -0.031  -0.018   0.005   0.043   0.105   0.199   0.335
   0.517   0.749   1.023   1.326   1.635   1.921   2.154   2.307   2.360   2.307
   2.154   1.921   1.635   1.326   1.023   0.749   0.517   0.335   0.199   0.105
   0.043   0.005  -0.018  -0.031  -0.038  -0.041  -0.042  -0.041  -0.038  -0.031
  -0.018   0.005   0.043   0.105   0.199   0.335   0.517   0.749   1.023   1.326
   1.635   1.921   2.154   2.307   2.360   2.307   2.154   1.921   1.635   1.326
   1.023   0.749   0.517   0.335   0.199   0.105   0.043   0.005  -0.018  -0.031
  -0.038  -0.041
   0.057   0.059   0.064   0.072   0.081   0.094   0.112   0.141   0.192   0.279
   0.417   0.618   0.885   1.208   1.562   1.909   2.203   2.401   2.470   2.401
   2.203   1.909   1.562   1.208   0.885   0.618   0.417   0.279   0.192   0.141
   0.112   0.094   0.081   0.072   0.064   0.059   0.057   0.059   0.064   0.072
   0.081   0.094   0.112   0.141   0.192   0.279   0.417   0.618   0.885   1.208
   1.562   1.909   2.203   2.401   2.470   2.401   2.203   1.909   1.562   1.208
   0.885   0.618   0.417   0.279   0.192   0.141   0.112   0.094   0.081   0.072
   0.064   0.059
   0.287   0.289   0.294   0.304   0.317   0.333   0.349   0.364   0.384   0.420
   0.492   0.623   0.830   1.114   1.456   1.815   2.133   2.354   2.432   2.354
   2.133   1.815   1.456   1.114   0.830   0.623   0.492   0.420   0.384   0.364
   0.349   0.333   0.317   0.304   0.294   0.289   0.287   0.289   0.294   0.304
   0.317   0.333   0.349   0.364   0.384   0.420   0.492   0.623   0.830   1.114
   1.456   1.815   2.133   2.354   2.432   2.354   2.133   1.815   1.456   1.114
   0.830   0.623   0.492   0.420   0.384   0.364   0.349   0.333   0.317   0.304
   0.294   0.289
   0.668   0.659   0.636   0.609   0.590   0.583   0.587   0.596   0.602   0.609
   0.631   0.693   0.822   1.035   1.323   1.650   1.957   2.176   2.256   2.176
   1.957   1.650   1.323   1.035   0.822   0.693   0.631   0.609   0.602   0.596
   0.587   0.583   0.590   0.609   0.636   0.659   0.668   0.659   0.636   0.609
   0.590   0.583   0.587   0.596   0.602   0.609   0.631   0.693   0.822   1.035
   1.323   1.650   1.957   2.176   2.256   2.176   1.957   1.650   1.323   1.035
   0.822   0.693   0.631   0.609   0.602   0.596   0.587   0.583   0.590   0.609
   0.636   0.659
   1.252   1.218   1.128   1.008   0.891   0.802   0.750   0.726   0.717   0.709
   0.706   0.725   0.795   0.940   1.162   1.435   1.705   1.904   1.977   1.904
   1.705   1.435   1.162   0.940   0.795   0.725   0.706   0.709   0.717   0.726
   0.750   0.802   0.891   1.008   1.128   1.218   1.252   1.218   1.128   1.008
   0.891   0.802   0.750   0.726   0.717   0.709   0.706   0.725   0.795   0.940
   1.162   1.435   1.705   1.904   1.977   1.904   1.705   1.435   1.162   0.940
   0.795   0.725   0.706   0.709   0.717   0.726   0.750   0.802   0.891   1.008
   1.128   1.218
   1.948   1.887   1.720   1.490   1.251   1.046   0.898   0.803   0.747   0.711
   0.687   0.684   0.721   0.817   0.981   1.194   1.413   1.578   1.639   1.578
   1.413   1.194   0.981   0.817   0.721   0.684   0.687   0.711   0.747   0.803
   0.898   1.046   1.251   1.490   1.720   1.887   1.948   1.887   1.720   1.490
   1.251   1.046   0.898   0.803   0.747   0.711   0.687   0.684   0.721   0.817
   0.981   1.194   1.413   1.578   1.639   1.578   1.413   1.194   0.981   0.817
   0.721   0.684   0.687   0.711   0.747   0.803   0.898   1.046   1.251   1.490
   1.720   1.887
   2.483   2.411   2.211   1.930   1.627   1.348   1.118   0.941   0.807   0.709
   0.642   0.611   0.625   0.690   0.807   0.960   1.119   1.241   1.287   1.241
   1.119   0.960   0.807   0.690   0.625   0.611   0.642   0.709   0.807   0.941
   1.118   1.348   1.627   1.930   2.211   2.411   2.483   2.411   2.211   1.930
   1.627   1.348   1.118   0.941   0.807   0.709   0.642   0.611   0.625   0.690
   0.807   0.960   1.119   1.241   1.287   1.241   1.119   0.960   0.807   0.690
   0.625   0.611   0.642   0.709   0.807   0.941   1.118   1.348   1.627   1.930
   2.211   2.411
   2.567   2.509   2.349   2.122   1.869   1.620   1.386   1.166   0.961   0.781
   0.647   0.573   0.561   0.600   0.677   0.774   0.872   0.946   0.974   0.946
   0.872   0.774   0.677   0.600   0.561   0.573   0.647   0.781   0.961   1.166
   1.386   1.620   1.869   2.122   2.349   2.509   2.567   2.509   2.349   2.122
   1.869   1.620   1.386   1.166   0.961   0.781   0.647   0.573   0.561   0.600
   0.677   0.774   0.872   0.946   0.974   0.946   0.872   0.774   0.677   0.600
   0.561   0.573   0.647   0.781   0.961   1.166   1.386   1.620   1.869   2.122
   2.349   2.509
   2.121   2.098   2.032   1.937   1.828   1.705   1.558   1.372   1.147   0.914
   0.719   0.599   0.559   0.578   0.623   0.675   0.722   0.755   0.768   0.755
   0.722   0.675   0.623   0.578   0.559   0.599   0.719   0.914   1.147   1.372
   1.558   1.705   1.828   1.937   2.032   2.098   2.121   2.098   2.032   1.937
   1.828   1.705   1.558   1.372   1.147   0.914   0.719   0.599   0.559   0.578
   0.623   0.675   0.722   0.755   0.768   0.755   0.722   0.675   0.623   0.578
   0.559   0.599   0.719   0.914   1.147   1.372   1.558   1.705   1.828   1.937
   2.032   2.098
   1.358   1.371   1.404   1.448   1.493   1.524   1.513   1.429   1.260   1.038
   0.825   0.681   0.624   0.628   0.657   0.684   0.704   0.717   0.722   0.717
   0.704   0.684   0.657   0.628   0.624   0.681   0.825   1.038   1.260   1.429
   1.513   1.524   1.493   1.448   1.404   1.371   1.358   1.371   1.404   1.448
   1.493   1.524   1.513   1.429   1.260   1.038   0.825   0.681   0.624   0.628
   0.657   0.684   0.704   0.717   0.722   0.717   0.704   0.684   0.657   0.628
   0.624   0.681   0.825   1.038   1.260   1.429   1.513   1.524   1.493   1.448
   1.404   1.371
   0.627   0.665   0.764   0.894   1.031   1.166   1.276   1.321   1.268   1.123
   0.946   0.808   0.742   0.738   0.761   0.788   0.814   0.834   0.842   0.834
   0.814   0.788   0.761   0.738   0.742   0.808   0.946   1.123   1.268   1.321
   1.276   1.166   1.031   0.894   0.764   0.665   0.627   0.665   0.764   0.894
   1.031   1.166   1.276   1.321   1.268   1.123   0.946   0.808   0.742   0.738
   0.761   0.788   0.814   0.834   0.842   0.834   0.814   0.788   0.761   0.738
   0.742   0.808   0.946   1.123   1.268   1.321   1.276   1.166   1.031   0.894
   0.764   0.665
   0.178   0.229   0.356   0.506   0.657   0.817   0.994   1.152   1.229   1.195
   1.084   0.966   0.893   0.877   0.899   0.944   1.001   1.050   1.071   1.050
   1.001   0.944   0.899   0.877   0.893   0.966   1.084   1.195   1.229   1.152
   0.994   0.817   0.657   0.506   0.356   0.229   0.178   0.229   0.356   0.506
   0.657   0.817   0.994   1.152   1.229   1.195   1.084   0.966   0.893   0.877
   0.899   0.944   1.001   1.050   1.071   1.050   1.001   0.944   0.899   0.877
   0.893   0.966   1.084   1.195   1.229   1.152   0.994   0.817   0.657   0.506
   0.356   0.229
   0.030   0.086   0.218   0.355   0.472   0.606   0.799   1.027   1.210   1.275
   1.226   1.126   1.041   1.007   1.028   1.094   1.188   1.274   1.310   1.274
   1.188   1.094   1.028   1.007   1.041   1.126   1.226   1.275   1.210   1.027
   0.799   0.606   0.472   0.355   0.218   0.086   0.030   0.086   0.218   0.355
   0.472   0.606   0.799   1.027   1.210   1.275   1.226   1.126   1.041   1.007
   1.028   1.094   1.188   1.274   1.310   1.274   1.188   1.094   1.028   1.007
   1.041   1.126   1.226   1.275   1.210   1.027   0.799   0.606   0.472   0.355
   0.218   0.086
   0.030   0.088   0.219   0.340   0.425   0.529   0.717   0.977   1.215   1.337
   1.323   1.230   1.135   1.087   1.104   1.184   1.303   1.414   1.459   1.414
   1.303   1.184   1.104   1.087   1.135   1.230   1.323   1.337   1.215   0.977
   0.717   0.529   0.425   0.340   0.219   0.088   0.030   0.088   0.219   0.340
   0.425   0.529   0.717   0.977   1.215   1.337   1.323   1.230   1.135   1.087
   1.104   1.184   1.303   1.414   1.459   1.414   1.303   1.184   1.104   1.087
   1.135   1.230   1.323   1.337   1.215   0.977   0.717   0.529   0.425   0.340
   0.219   0.088
 200       5.00   72    0 5.00   18    0
   3.109   3.109   3.110   3.112   3.114   3.117   3.120   3.123   3.127   3.131
   3.134   3.138   3.141   3.144   3.147   3.149   3.151   3.152   3.152   3.152
   3.151   3.149   3.147   3.144   3.141   3.138   3.134   3.131   3.127   3.123
   3.120   3.117   3.114   3.112   3.110   3.109   3.109   3.109   3.110   3.112
   3.114   3.117   3.120   3.123   3.127   3.131   3.134   3.138   3.141   3.144
   3.147   3.149   3.151   3.152   3.152   3.152   3.151   3.149   3.147   3.144
   3.141   3.138   3.134   3.131   3.127   3.123   3.120   3.117   3.114   3.112
   3.110   3.109
   2.382   2.384   2.391   2.402   2.417   2.436   2.457   2.481   2.507   2.533
   2.560   2.585   2.609   2.631   2.650   2.665   2.676   2.683   2.685   2.683
   2.676   2.665   2.650   2.631   2.609   2.585   2.560   2.533   2.507   2.481
   2.457   2.436   2.417   2.402   2.391   2.384   2.382   2.384   2.391   2.402
   2.417   2.436   2.457   2.481   2.507   2.533   2.560   2.585   2.609   2.631
   2.650   2.665   2.676   2.683   2.685   2.683   2.676   2.665   2.650   2.631
   2.609   2.585   2.560   2.533   2.507   2.481   2.457   2.436   2.417   2.402
   2.391   2.384
   1.488   1.492   1.502   1.518   1.540   1.568   1.600   1.637   1.677   1.718
   1.760   1.801   1.840   1.875   1.905   1.929   1.947   1.958   1.962   1.958
   1.947   1.929   1.905   1.875   1.840   1.801   1.760   1.718   1.677   1.637
   1.600   1.568   1.540   1.518   1.502   1.492   1.488   1.492   1.502   1.518
   1.540   1.568   1.600   1.637   1.677   1.718   1.760   1.801   1.840   1.875
   1.905   1.929   1.947   1.958   1.962   1.958   1.947   1.929   1.905   1.875
   1.840   1.801   1.760   1.718   1.677   1.637   1.600   1.568   1.540   1.518
   1.502   1.492
   1.066   1.065   1.065   1.065   1.067   1.071   1.078   1.088   1.103   1.122
   1.145   1.169   1.193   1.216   1.236   1.252   1.264   1.272   1.274   1.272
   1.264   1.252   1.236   1.216   1.193   1.169   1.145   1.122   1.103   1.088
   1.078   1.071   1.067   1.065   1.065   1.065   1.066   1.065   1.065   1.065
   1.067   1.071   1.078   1.088   1.103   1.122   1.145   1.169   1.193   1.216
   1.236   1.252   1.264   1.272   1.274   1.272   1.264   1.252   1.236   1.216
   1.193   1.169   1.145   1.122   1.103   1.088   1.078   1.071   1.067   1.065
   1.065   1.065
   1.278   1.270   1.249   1.215   1.170   1.117   1.061   1.006   0.956   0.914
   0.882   0.860   0.847   0.839   0.835   0.833   0.831   0.830   0.829   0.830
   0.831   0.833   0.835   0.839   0.847   0.860   0.882   0.914   0.956   1.006
   1.061   1.117   1.170   1.215   1.249   1.270   1.278   1.270   1.249   1.215
   1.170   1.117   1.061   1.006   0.956   0.914   0.882   0.860   0.847   0.839
   0.835   0.833   0.831   0.830   0.829   0.830   0.831   0.833   0.835   0.839
   0.847   0.860   0.882   0.914   0.956   1.006   1.061   1.117   1.170   1.215
   1.249   1.270
   1.703   1.692   1.660   1.604   1.525   1.425   1.308   1.183   1.060   0.948
   0.856   0.786   0.737   0.706   0.687   0.675   0.667   0.662   0.661   0.662
   0.667   0.675   0.687   0.706   0.737   0.786   0.856   0.948   1.060   1.183
   1.308   1.425   1.525   1.604   1.660   1.692   1.703   1.692   1.660   1.604
   1.525   1.425   1.308   1.183   1.060   0.948   0.856   0.786   0.737   0.706
   0.687   0.675   0.667   0.662   0.661   0.662   0.667   0.675   0.687   0.706
   0.737   0.786   0.856   0.948   1.060   1.183   1.308   1.425   1.525   1.604
   1.660   1.692
   1.752   1.750   1.742   1.717   1.665   1.579   1.457   1.307   1.144   0.988
   0.856   0.758   0.697   0.667   0.657   0.657   0.661   0.663   0.664   0.663
   0.661   0.657   0.657   0.667   0.697   0.758   0.856   0.988   1.144   1.307
   1.457   1.579   1.665   1.717   1.742   1.750   1.752   1.750   1.742   1.717
   1.665   1.579   1.457   1.307   1.144   0.988   0.856   0.758   0.697   0.667
   0.657   0.657   0.661   0.663   0.664   0.663   0.661   0.657   0.657   0.667
   0.697   0.758   0.856   0.988   1.144   1.307   1.457   1.579   1.665   1.717
   1.742   1.750
   1.222   1.242   1.291   1.350   1.392   1.393   1.338   1.230   1.084   0.927
   0.787   0.686   0.633   0.622   0.639   0.666   0.692   0.708   0.713   0.708
   0.692   0.666   0.639   0.622   0.633   0.686   0.787   0.927   1.084   1.230
   1.338   1.393   1.392   1.350   1.291   1.242   1.222   1.242   1.291   1.350
   1.392   1.393   1.338   1.230   1.084   0.927   0.787   0.686   0.633   0.622
   0.639   0.666   0.692   0.708   0.713   0.708   0.692   0.666   0.639   0.622
   0.633   0.686   0.787   0.927   1.084   1.230   1.338   1.393   1.392   1.350
   1.291   1.242
   0.470   0.507   0.609   0.748   0.886   0.989   1.032   1.008   0.927   0.813
   0.699   0.614   0.576   0.584   0.624   0.674   0.716   0.743   0.751   0.743
   0.716   0.674   0.624   0.584   0.576   0.614   0.699   0.813   0.927   1.008
   1.032   0.989   0.886   0.748   0.609   0.507   0.470   0.507   0.609   0.748
   0.886   0.989   1.032   1.008   0.927   0.813   0.699   0.614   0.576   0.584
   0.624   0.674   0.716   0.743   0.751   0.743   0.716   0.674   0.624   0.584
   0.576   0.614   0.699   0.813   0.927   1.008   1.032   0.989   0.886   0.748
   0.609   0.507
   0.024   0.062   0.164   0.308   0.464   0.605   0.710   0.767   0.774   0.738
   0.680   0.628   0.604   0.619   0.662   0.713   0.755   0.779   0.787   0.779
   0.755   0.713   0.662   0.619   0.604   0.628   0.680   0.738   0.774   0.767
   0.710   0.605   0.464   0.308   0.164   0.062   0.024   0.062   0.164   0.308
   0.464   0.605   0.710   0.767   0.774   0.738   0.680   0.628   0.604   0.619
   0.662   0.713   0.755   0.779   0.787   0.779   0.755   0.713   0.662   0.619
   0.604   0.628   0.680   0.738   0.774   0.767   0.710   0.605   0.464   0.308
   0.164   0.062
   0.056   0.076   0.127   0.199   0.281   0.374   0.477   0.587   0.685   0.750
   0.771   0.761   0.744   0.745   0.767   0.798   0.820   0.831   0.833   0.831
   0.820   0.798   0.767   0.745   0.744   0.761   0.771   0.750   0.685   0.587
   0.477   0.374   0.281   0.199   0.127   0.076   0.056   0.076   0.127   0.199
   0.281   0.374   0.477   0.587   0.685   0.750   0.771   0.761   0.744   0.745
   0.767   0.798   0.820   0.831   0.833   0.831   0.820   0.798   0.767   0.745
   0.744   0.761   0.771   0.750   0.685   0.587   0.477   0.374   0.281   0.199
   0.127   0.076
   0.243   0.248   0.256   0.259   0.261   0.286   0.364   0.508   0.690   0.855
   0.954   0.975   0.947   0.912   0.894   0.889   0.883   0.873   0.867   0.873
   0.883   0.889   0.894   0.912   0.947   0.975   0.954   0.855   0.690   0.508
   0.364   0.286   0.261   0.259   0.256   0.248   0.243   0.248   0.256   0.259
   0.261   0.286   0.364   0.508   0.690   0.855   0.954   0.975   0.947   0.912
   0.894   0.889   0.883   0.873   0.867   0.873   0.883   0.889   0.894   0.912
   0.947   0.975   0.954   0.855   0.690   0.508   0.364   0.286   0.261   0.259
   0.256   0.248
   0.195   0.209   0.240   0.263   0.272   0.295   0.382   0.561   0.807   1.040
   1.180   1.197   1.129   1.041   0.976   0.937   0.906   0.877   0.865   0.877
   0.906   0.937   0.976   1.041   1.129   1.197   1.180   1.040   0.807   0.561
   0.382   0.295   0.272   0.263   0.240   0.209   0.195   0.209   0.240   0.263
   0.272   0.295   0.382   0.561   0.807   1.040   1.180   1.197   1.129   1.041
   0.976   0.937   0.906   0.877   0.865   0.877   0.906   0.937   0.976   1.041
   1.129   1.197   1.180   1.040   0.807   0.561   0.382   0.295   0.272   0.263
   0.240   0.209
  -0.024   0.016   0.115   0.228   0.322   0.408   0.533   0.739   1.007   1.251
   1.377   1.351   1.224   1.087   0.995   0.945   0.906   0.870   0.854   0.870
   0.906   0.945   0.995   1.087   1.224   1.351   1.377   1.251   1.007   0.739
   0.533   0.408   0.322   0.228   0.115   0.016  -0.024   0.016   0.115   0.228
   0.322   0.408   0.533   0.739   1.007   1.251   1.377   1.351   1.224   1.087
   0.995   0.945   0.906   0.870   0.854   0.870   0.906   0.945   0.995   1.087
   1.224   1.351   1.377   1.251   1.007   0.739   0.533   0.408   0.322   0.228
   0.115   0.016
   0.123   0.168   0.284   0.427   0.553   0.657   0.777   0.956   1.183   1.380
   1.452   1.371   1.206   1.061   0.992   0.974   0.959   0.930   0.914   0.930
   0.959   0.974   0.992   1.061   1.206   1.371   1.452   1.380   1.183   0.956
   0.777   0.657   0.553   0.427   0.284   0.168   0.123   0.168   0.284   0.427
   0.553   0.657   0.777   0.956   1.183   1.380   1.452   1.371   1.206   1.061
   0.992   0.974   0.959   0.930   0.914   0.930   0.959   0.974   0.992   1.061
   1.206   1.371   1.452   1.380   1.183   0.956   0.777   0.657   0.553   0.427
   0.284   0.168
   1.068   1.068   1.068   1.063   1.046   1.022   1.025   1.093   1.221   1.337
   1.351   1.244   1.093   1.004   1.018   1.080   1.117   1.112   1.101   1.112
   1.117   1.080   1.018   1.004   1.093   1.244   1.351   1.337   1.221   1.093
   1.025   1.022   1.046   1.063   1.068   1.068   1.068   1.068   1.068   1.063
   1.046   1.022   1.025   1.093   1.221   1.337   1.351   1.244   1.093   1.004
   1.018   1.080   1.117   1.112   1.101   1.112   1.117   1.080   1.018   1.004
   1.093   1.244   1.351   1.337   1.221   1.093   1.025   1.022   1.046   1.063
   1.068   1.068
   2.559   2.476   2.258   1.969   1.668   1.398   1.199   1.107   1.115   1.152
   1.132   1.037   0.945   0.954   1.080   1.242   1.343   1.367   1.363   1.367
   1.343   1.242   1.080   0.954   0.945   1.037   1.132   1.152   1.115   1.107
   1.199   1.398   1.668   1.969   2.258   2.476   2.559   2.476   2.258   1.969
   1.668   1.398   1.199   1.107   1.115   1.152   1.132   1.037   0.945   0.954
   1.080   1.242   1.343   1.367   1.363   1.367   1.343   1.242   1.080   0.954
   0.945   1.037   1.132   1.152   1.115   1.107   1.199   1.398   1.668   1.969
   2.258   2.476
   3.704   3.556   3.162   2.642   2.108   1.637   1.279   1.068   0.993   0.983
   0.951   0.879   0.841   0.926   1.135   1.366   1.512   1.555   1.557   1.555
   1.512   1.366   1.135   0.926   0.841   0.879   0.951   0.983   0.993   1.068
   1.279   1.637   2.108   2.642   3.162   3.556   3.704   3.556   3.162   2.642
   2.108   1.637   1.279   1.068   0.993   0.983   0.951   0.879   0.841   0.926
   1.135   1.366   1.512   1.555   1.557   1.555   1.512   1.366   1.135   0.926
   0.841   0.879   0.951   0.983   0.993   1.068   1.279   1.637   2.108   2.642
   3.162   3.556
 111       5.00   72    0 5.00   18    0
  -0.004  -0.005  -0.005  -0.005  -0.006  -0.007  -0.008  -0.009  -0.010  -0.011
  -0.012  -0.013  -0.014  -0.015  -0.015  -0.016  -0.016  -0.017  -0.017  -0.017
  -0.016  -0.016  -0.015  -0.015  -0.014  -0.013  -0.012  -0.011  -0.010  -0.009
  -0.008  -0.007  -0.006  -0.005  -0.005  -0.005  -0.004  -0.005  -0.005  -0.005
  -0.006  -0.007  -0.008  -0.009  -0.010  -0.011  -0.012  -0.013  -0.014  -0.015
  -0.015  -0.016  -0.016  -0.017  -0.017  -0.017  -0.016  -0.016  -0.015  -0.015
  -0.014  -0.013  -0.012  -0.011  -0.010  -0.009  -0.008  -0.007  -0.006  -0.005
  -0.005  -0.005
   0.119   0.118   0.114   0.107   0.099   0.088   0.077   0.064   0.052   0.039
   0.027   0.016   0.007  -0.002  -0.009  -0.015  -0.019  -0.021  -0.022  -0.021
  -0.019  -0.015  -0.009  -0.002   0.007   0.016   0.027   0.039   0.052   0.064
   0.077   0.088   0.099   0.107   0.114   0.118   0.119   0.118   0.114   0.107
   0.099   0.088   0.077   0.064   0.052   0.039   0.027   0.016   0.007  -0.002
  -0.009  -0.015  -0.019  -0.021  -0.022  -0.021  -0.019  -0.015  -0.009  -0.002
   0.007   0.016   0.027   0.039   0.052   0.064   0.077   0.088   0.099   0.107
   0.114   0.118
   0.502   0.495   0.477   0.448   0.409   0.365   0.316   0.266   0.217   0.171
   0.130   0.093   0.062   0.036   0.016   0.001  -0.010  -0.016  -0.019  -0.016
  -0.010   0.001   0.016   0.036   0.062   0.093   0.130   0.171   0.217   0.266
   0.316   0.365   0.409   0.448   0.477   0.495   0.502   0.495   0.477   0.448
   0.409   0.365   0.316   0.266   0.217   0.171   0.130   0.093   0.062   0.036
   0.016   0.001  -0.010  -0.016  -0.019  -0.016  -0.010   0.001   0.016   0.036
   0.062   0.093   0.130   0.171   0.217   0.266   0.316   0.365   0.409   0.448
   0.477   0.495
   1.223   1.205   1.154   1.074   0.970   0.851   0.726   0.601   0.483   0.378
   0.286   0.210   0.149   0.102   0.066   0.039   0.021   0.011   0.007   0.011
   0.021   0.039   0.066   0.102   0.149   0.210   0.286   0.378   0.483   0.601
   0.726   0.851   0.970   1.074   1.154   1.205   1.223   1.205   1.154   1.074
   0.970   0.851   0.726   0.601   0.483   0.378   0.286   0.210   0.149   0.102
   0.066   0.039   0.021   0.011   0.007   0.011   0.021   0.039   0.066   0.102
   0.149   0.210   0.286   0.378   0.483   0.601   0.726   0.851   0.970   1.074
   1.154   1.205
   2.112   2.079   1.981   1.828   1.634   1.414   1.186   0.965   0.762   0.587
   0.443   0.329   0.242   0.177   0.130   0.097   0.074   0.061   0.057   0.061
   0.074   0.097   0.130   0.177   0.242   0.329   0.443   0.587   0.762   0.965
   1.186   1.414   1.634   1.828   1.981   2.079   2.112   2.079   1.981   1.828
   1.634   1.414   1.186   0.965   0.762   0.587   0.443   0.329   0.242   0.177
   0.130   0.097   0.074   0.061   0.057   0.061   0.074   0.097   0.130   0.177
   0.242   0.329   0.443   0.587   0.762   0.965   1.186   1.414   1.634   1.828
   1.981   2.079
   2.758   2.713   2.582   2.377   2.118   1.827   1.526   1.237   0.977   0.755
   0.576   0.438   0.336   0.262   0.207   0.166   0.136   0.118   0.111   0.118
   0.136   0.166   0.207   0.262   0.336   0.438   0.576   0.755   0.977   1.237
   1.526   1.827   2.118   2.377   2.582   2.713   2.758   2.713   2.582   2.377
   2.118   1.827   1.526   1.237   0.977   0.755   0.576   0.438   0.336   0.262
   0.207   0.166   0.136   0.118   0.111   0.118   0.136   0.166   0.207   0.262
   0.336   0.438   0.576   0.755   0.977   1.237   1.526   1.827   2.118   2.377
   2.582   2.713
   2.778   2.737   2.619   2.436   2.205   1.945   1.675   1.410   1.164   0.947
   0.764   0.615   0.496   0.401   0.322   0.256   0.203   0.168   0.156   0.168
   0.203   0.256   0.322   0.401   0.496   0.615   0.764   0.947   1.164   1.410
   1.675   1.945   2.205   2.436   2.619   2.737   2.778   2.737   2.619   2.436
   2.205   1.945   1.675   1.410   1.164   0.947   0.764   0.615   0.496   0.401
   0.322   0.256   0.203   0.168   0.156   0.168   0.203   0.256   0.322   0.401
   0.496   0.615   0.764   0.947   1.164   1.410   1.675   1.945   2.205   2.436
   2.619   2.737
   2.137   2.119   2.068   1.994   1.904   1.805   1.696   1.574   1.436   1.284
   1.125   0.965   0.812   0.666   0.530   0.405   0.301   0.230   0.204   0.230
   0.301   0.405   0.530   0.666   0.812   0.965   1.125   1.284   1.436   1.574
   1.696   1.805   1.904   1.994   2.068   2.119   2.137   2.119   2.068   1.994
   1.904   1.805   1.696   1.574   1.436   1.284   1.125   0.965   0.812   0.666
   0.530   0.405   0.301   0.230   0.204   0.230   0.301   0.405   0.530   0.666
   0.812   0.965   1.125   1.284   1.436   1.574   1.696   1.805   1.904   1.994
   2.068   2.119
   1.214   1.223   1.255   1.317   1.415   1.541   1.670   1.769   1.807   1.769
   1.657   1.490   1.289   1.074   0.857   0.651   0.475   0.354   0.311   0.354
   0.475   0.651   0.857   1.074   1.289   1.490   1.657   1.769   1.807   1.769
   1.670   1.541   1.415   1.317   1.255   1.223   1.214   1.223   1.255   1.317
   1.415   1.541   1.670   1.769   1.807   1.769   1.657   1.490   1.289   1.074
   0.857   0.651   0.475   0.354   0.311   0.354   0.475   0.651   0.857   1.074
   1.289   1.490   1.657   1.769   1.807   1.769   1.670   1.541   1.415   1.317
   1.255   1.223
   0.514   0.535   0.604   0.742   0.961   1.255   1.583   1.888   2.107   2.199
   2.157   2.006   1.784   1.524   1.251   0.984   0.749   0.584   0.525   0.584
   0.749   0.984   1.251   1.524   1.784   2.006   2.157   2.199   2.107   1.888
   1.583   1.255   0.961   0.742   0.604   0.535   0.514   0.535   0.604   0.742
   0.961   1.255   1.583   1.888   2.107   2.199   2.157   2.006   1.784   1.524
   1.251   0.984   0.749   0.584   0.525   0.584   0.749   0.984   1.251   1.524
   1.784   2.006   2.157   2.199   2.107   1.888   1.583   1.255   0.961   0.742
   0.604   0.535
   0.260   0.270   0.316   0.431   0.646   0.969   1.368   1.776   2.110   2.308
   2.349   2.254   2.070   1.839   1.585   1.323   1.079   0.901   0.835   0.901
   1.079   1.323   1.585   1.839   2.070   2.254   2.349   2.308   2.110   1.776
   1.368   0.969   0.646   0.431   0.316   0.270   0.260   0.270   0.316   0.431
   0.646   0.969   1.368   1.776   2.110   2.308   2.349   2.254   2.070   1.839
   1.585   1.323   1.079   0.901   0.835   0.901   1.079   1.323   1.585   1.839
   2.070   2.254   2.349   2.308   2.110   1.776   1.368   0.969   0.646   0.431
   0.316   0.270
   0.264   0.261   0.267   0.318   0.454   0.698   1.035   1.416   1.763   2.005
   2.111   2.096   2.005   1.877   1.725   1.546   1.357   1.204   1.145   1.204
   1.357   1.546   1.725   1.877   2.005   2.096   2.111   2.005   1.763   1.416
   1.035   0.698   0.454   0.318   0.267   0.261   0.264   0.261   0.267   0.318
   0.454   0.698   1.035   1.416   1.763   2.005   2.111   2.096   2.005   1.877
   1.725   1.546   1.357   1.204   1.145   1.204   1.357   1.546   1.725   1.877
   2.005   2.096   2.111   2.005   1.763   1.416   1.035   0.698   0.454   0.318
   0.267   0.261
   0.221   0.223   0.234   0.270   0.354   0.503   0.720   0.986   1.253   1.465
   1.588   1.632   1.638   1.637   1.622   1.568   1.467   1.363   1.318   1.363
   1.467   1.568   1.622   1.637   1.638   1.632   1.588   1.465   1.253   0.986
   0.720   0.503   0.354   0.270   0.234   0.223   0.221   0.223   0.234   0.270
   0.354   0.503   0.720   0.986   1.253   1.465   1.588   1.632   1.638   1.637
   1.622   1.568   1.467   1.363   1.318   1.363   1.467   1.568   1.622   1.637
   1.638   1.632   1.588   1.465   1.253   0.986   0.720   0.503   0.354   0.270
   0.234   0.223
   0.109   0.129   0.186   0.268   0.361   0.459   0.569   0.702   0.849   0.979
   1.067   1.119   1.173   1.256   1.347   1.394   1.368   1.305   1.272   1.305
   1.368   1.394   1.347   1.256   1.173   1.119   1.067   0.979   0.849   0.702
   0.569   0.459   0.361   0.268   0.186   0.129   0.109   0.129   0.186   0.268
   0.361   0.459   0.569   0.702   0.849   0.979   1.067   1.119   1.173   1.256
   1.347   1.394   1.368   1.305   1.272   1.305   1.368   1.394   1.347   1.256
   1.173   1.119   1.067   0.979   0.849   0.702   0.569   0.459   0.361   0.268
   0.186   0.129
   0.248   0.272   0.338   0.430   0.516   0.572   0.599   0.626   0.671   0.724
   0.761   0.782   0.824   0.918   1.039   1.120   1.118   1.063   1.032   1.063
   1.118   1.120   1.039   0.918   0.824   0.782   0.761   0.724   0.671   0.626
   0.599   0.572   0.516   0.430   0.338   0.272   0.248   0.272   0.338   0.430
   0.516   0.572   0.599   0.626   0.671   0.724   0.761   0.782   0.824   0.918
   1.039   1.120   1.118   1.063   1.032   1.063   1.118   1.120   1.039   0.918
   0.824   0.782   0.761   0.724   0.671   0.626   0.599   0.572   0.516   0.430
   0.338   0.272
   0.929   0.912   0.876   0.841   0.808   0.760   0.699   0.654   0.650   0.675
   0.690   0.681   0.681   0.731   0.814   0.864   0.831   0.752   0.710   0.752
   0.831   0.864   0.814   0.731   0.681   0.681   0.690   0.675   0.650   0.654
   0.699   0.760   0.808   0.841   0.876   0.912   0.929   0.912   0.876   0.841
   0.808   0.760   0.699   0.654   0.650   0.675   0.690   0.681   0.681   0.731
   0.814   0.864   0.831   0.752   0.710   0.752   0.831   0.864   0.814   0.731
   0.681   0.681   0.690   0.675   0.650   0.654   0.699   0.760   0.808   0.841
   0.876   0.912
   1.982   1.892   1.664   1.390   1.135   0.923   0.760   0.669   0.663   0.709
   0.743   0.728   0.693   0.687   0.708   0.696   0.609   0.488   0.431   0.488
   0.609   0.696   0.708   0.687   0.693   0.728   0.743   0.709   0.663   0.669
   0.760   0.923   1.135   1.390   1.664   1.892   1.982   1.892   1.664   1.390
   1.135   0.923   0.760   0.669   0.663   0.709   0.743   0.728   0.693   0.687
   0.708   0.696   0.609   0.488   0.431   0.488   0.609   0.696   0.708   0.687
   0.693   0.728   0.743   0.709   0.663   0.669   0.760   0.923   1.135   1.390
   1.664   1.892
   2.789   2.640   2.258   1.788   1.353   1.007   0.769   0.654   0.661   0.738
   0.801   0.795   0.743   0.703   0.680   0.623   0.494   0.344   0.276   0.344
   0.494   0.623   0.680   0.703   0.743   0.795   0.801   0.738   0.661   0.654
   0.769   1.007   1.353   1.788   2.258   2.640   2.789   2.640   2.258   1.788
   1.353   1.007   0.769   0.654   0.661   0.738   0.801   0.795   0.743   0.703
   0.680   0.623   0.494   0.344   0.276   0.344   0.494   0.623   0.680   0.703
   0.743   0.795   0.801   0.738   0.661   0.654   0.769   1.007   1.353   1.788
   2.258   2.640
TEXTURE_INDEX=   2.2697
ERR_CF 220         1080     546   23.67   18.62
ERR_CF 200         1080     498   18.98   13.82
ERR_CF 111         1080     430   30.39    9.51
