TEXEVAL                                                                         
Analysis started on 31-Aug-18 11:40:19                                          
 LMAX=16LFMAX=03 CUBIC ORTHO   
 220      5.00 5.00
 200      5.00 5.00
 111      5.00 5.00
 220       5.00   72    0 5.00   15    0
   3.153   3.153   3.153   3.153   3.153   3.153   3.153   3.153   3.153   3.153
   3.153   3.153   3.153   3.153   3.153   3.153   3.153   3.153   3.153   3.153
   3.153   3.153   3.153   3.153   3.153   3.153   3.153   3.153   3.153   3.153
   3.153   3.153   3.153   3.153   3.153   3.153   3.153   3.153   3.153   3.153
   3.153   3.153   3.153   3.153   3.153   3.153   3.153   3.153   3.153   3.153
   3.153   3.153   3.153   3.153   3.153   3.153   3.153   3.153   3.153   3.153
   3.153   3.153   3.153   3.153   3.153   3.153   3.153   3.153   3.153   3.153
   3.153   3.153
   0.787   1.120   1.013   0.921   1.194   0.964   1.301   1.426   1.561   1.470
   1.881   2.171   2.774   2.774   2.765   3.170   3.078   3.320   3.409   3.320
   3.078   3.170   2.765   2.774   2.774   2.171   1.881   1.470   1.561   1.426
   1.301   0.964   1.194   0.921   1.013   1.120   0.787   1.120   1.013   0.921
   1.194   0.964   1.301   1.426   1.561   1.470   1.881   2.171   2.774   2.774
   2.765   3.170   3.078   3.320   3.409   3.320   3.078   3.170   2.765   2.774
   2.774   2.171   1.881   1.470   1.561   1.426   1.301   0.964   1.194   0.921
   1.013   1.120
   0.253   0.289   0.376   0.398   0.455   0.437   0.514   0.574   0.710   0.713
   1.021   1.555   2.036   2.440   2.868   3.335   3.802   4.000   4.130   4.000
   3.802   3.335   2.868   2.440   2.036   1.555   1.021   0.713   0.710   0.574
   0.514   0.437   0.455   0.398   0.376   0.289   0.253   0.289   0.376   0.398
   0.455   0.437   0.514   0.574   0.710   0.713   1.021   1.555   2.036   2.440
   2.868   3.335   3.802   4.000   4.130   4.000   3.802   3.335   2.868   2.440
   2.036   1.555   1.021   0.713   0.710   0.574   0.514   0.437   0.455   0.398
   0.376   0.289
   0.153   0.155   0.287   0.276   0.192   0.263   0.303   0.323   0.534   0.496
   0.728   1.062   1.538   2.238   3.089   4.277   4.982   5.453   6.150   5.453
   4.982   4.277   3.089   2.238   1.538   1.062   0.728   0.496   0.534   0.323
   0.303   0.263   0.192   0.276   0.287   0.155   0.153   0.155   0.287   0.276
   0.192   0.263   0.303   0.323   0.534   0.496   0.728   1.062   1.538   2.238
   3.089   4.277   4.982   5.453   6.150   5.453   4.982   4.277   3.089   2.238
   1.538   1.062   0.728   0.496   0.534   0.323   0.303   0.263   0.192   0.276
   0.287   0.155
   0.085   0.082   0.175   0.103   0.120   0.122   0.204   0.332   0.460   0.476
   0.673   0.785   1.274   1.739   2.689   4.119   5.462   6.850   7.371   6.850
   5.462   4.119   2.689   1.739   1.274   0.785   0.673   0.476   0.460   0.332
   0.204   0.122   0.120   0.103   0.175   0.082   0.085   0.082   0.175   0.103
   0.120   0.122   0.204   0.332   0.460   0.476   0.673   0.785   1.274   1.739
   2.689   4.119   5.462   6.850   7.371   6.850   5.462   4.119   2.689   1.739
   1.274   0.785   0.673   0.476   0.460   0.332   0.204   0.122   0.120   0.103
   0.175   0.082
   0.105   0.058   0.067   0.072   0.119   0.102   0.181   0.278   0.326   0.421
   0.685   0.720   1.110   1.237   2.203   3.452   4.747   6.218   6.238   6.218
   4.747   3.452   2.203   1.237   1.110   0.720   0.685   0.421   0.326   0.278
   0.181   0.102   0.119   0.072   0.067   0.058   0.105   0.058   0.067   0.072
   0.119   0.102   0.181   0.278   0.326   0.421   0.685   0.720   1.110   1.237
   2.203   3.452   4.747   6.218   6.238   6.218   4.747   3.452   2.203   1.237
   1.110   0.720   0.685   0.421   0.326   0.278   0.181   0.102   0.119   0.072
   0.067   0.058
   0.147   0.075   0.141   0.057   0.100   0.099   0.108   0.106   0.222   0.353
   0.545   0.721   0.878   1.440   2.419   3.717   4.181   4.200   3.940   4.200
   4.181   3.717   2.419   1.440   0.878   0.721   0.545   0.353   0.222   0.106
   0.108   0.099   0.100   0.057   0.141   0.075   0.147   0.075   0.141   0.057
   0.100   0.099   0.108   0.106   0.222   0.353   0.545   0.721   0.878   1.440
   2.419   3.717   4.181   4.200   3.940   4.200   4.181   3.717   2.419   1.440
   0.878   0.721   0.545   0.353   0.222   0.106   0.108   0.099   0.100   0.057
   0.141   0.075
   0.300   0.381   0.266   0.249   0.229   0.172   0.126   0.169   0.261   0.330
   0.442   0.585   0.701   1.513   2.518   3.761   3.633   2.811   2.518   2.811
   3.633   3.761   2.518   1.513   0.701   0.585   0.442   0.330   0.261   0.169
   0.126   0.172   0.229   0.249   0.266   0.381   0.300   0.381   0.266   0.249
   0.229   0.172   0.126   0.169   0.261   0.330   0.442   0.585   0.701   1.513
   2.518   3.761   3.633   2.811   2.518   2.811   3.633   3.761   2.518   1.513
   0.701   0.585   0.442   0.330   0.261   0.169   0.126   0.172   0.229   0.249
   0.266   0.381
   0.773   0.863   0.576   0.476   0.328   0.224   0.226   0.261   0.324   0.248
   0.274   0.400   0.616   1.137   2.089   2.467   2.333   1.974   1.626   1.974
   2.333   2.467   2.089   1.137   0.616   0.400   0.274   0.248   0.324   0.261
   0.226   0.224   0.328   0.476   0.576   0.863   0.773   0.863   0.576   0.476
   0.328   0.224   0.226   0.261   0.324   0.248   0.274   0.400   0.616   1.137
   2.089   2.467   2.333   1.974   1.626   1.974   2.333   2.467   2.089   1.137
   0.616   0.400   0.274   0.248   0.324   0.261   0.226   0.224   0.328   0.476
   0.576   0.863
   1.343   1.094   0.878   0.533   0.468   0.323   0.339   0.278   0.254   0.152
   0.176   0.253   0.374   0.769   1.284   1.190   1.119   1.341   0.993   1.341
   1.119   1.190   1.284   0.769   0.374   0.253   0.176   0.152   0.254   0.278
   0.339   0.323   0.468   0.533   0.878   1.094   1.343   1.094   0.878   0.533
   0.468   0.323   0.339   0.278   0.254   0.152   0.176   0.253   0.374   0.769
   1.284   1.190   1.119   1.341   0.993   1.341   1.119   1.190   1.284   0.769
   0.374   0.253   0.176   0.152   0.254   0.278   0.339   0.323   0.468   0.533
   0.878   1.094
   2.663   2.524   1.575   1.108   0.868   0.523   0.557   0.398   0.315   0.221
   0.172   0.221   0.140   0.547   0.700   0.665   0.531   0.729   0.483   0.729
   0.531   0.665   0.700   0.547   0.140   0.221   0.172   0.221   0.315   0.398
   0.557   0.523   0.868   1.108   1.575   2.524   2.663   2.524   1.575   1.108
   0.868   0.523   0.557   0.398   0.315   0.221   0.172   0.221   0.140   0.547
   0.700   0.665   0.531   0.729   0.483   0.729   0.531   0.665   0.700   0.547
   0.140   0.221   0.172   0.221   0.315   0.398   0.557   0.523   0.868   1.108
   1.575   2.524
   5.403   5.250   3.239   1.936   1.487   1.257   1.066   0.700   0.456   0.254
   0.151   0.262   0.279   0.389   0.530   0.344   0.229   0.364   0.238   0.364
   0.229   0.344   0.530   0.389   0.279   0.262   0.151   0.254   0.456   0.700
   1.066   1.257   1.487   1.936   3.239   5.250   5.403   5.250   3.239   1.936
   1.487   1.257   1.066   0.700   0.456   0.254   0.151   0.262   0.279   0.389
   0.530   0.344   0.229   0.364   0.238   0.364   0.229   0.344   0.530   0.389
   0.279   0.262   0.151   0.254   0.456   0.700   1.066   1.257   1.487   1.936
   3.239   5.250
   4.590   4.522   3.373   2.245   1.898   2.145   1.506   1.088   0.754   0.357
   0.184   0.229   0.482   0.263   0.468   0.316   0.176   0.261   0.249   0.261
   0.176   0.316   0.468   0.263   0.482   0.229   0.184   0.357   0.754   1.088
   1.506   2.145   1.898   2.245   3.373   4.522   4.590   4.522   3.373   2.245
   1.898   2.145   1.506   1.088   0.754   0.357   0.184   0.229   0.482   0.263
   0.468   0.316   0.176   0.261   0.249   0.261   0.176   0.316   0.468   0.263
   0.482   0.229   0.184   0.357   0.754   1.088   1.506   2.145   1.898   2.245
   3.373   4.522
   1.343   1.703   1.894   1.791   1.639   2.018   1.673   1.563   1.280   0.825
   0.470   0.569   0.658   0.352   0.626   0.512   0.422   0.276   0.263   0.276
   0.422   0.512   0.626   0.352   0.658   0.569   0.470   0.825   1.280   1.563
   1.673   2.018   1.639   1.791   1.894   1.703   1.343   1.703   1.894   1.791
   1.639   2.018   1.673   1.563   1.280   0.825   0.470   0.569   0.658   0.352
   0.626   0.512   0.422   0.276   0.263   0.276   0.422   0.512   0.626   0.352
   0.658   0.569   0.470   0.825   1.280   1.563   1.673   2.018   1.639   1.791
   1.894   1.703
   0.323   0.593   0.912   0.706   0.777   0.909   1.223   1.369   1.506   1.425
   0.849   0.722   0.572   0.374   0.564   0.652   0.654   0.427   0.314   0.427
   0.654   0.652   0.564   0.374   0.572   0.722   0.849   1.425   1.506   1.369
   1.223   0.909   0.777   0.706   0.912   0.593   0.323   0.593   0.912   0.706
   0.777   0.909   1.223   1.369   1.506   1.425   0.849   0.722   0.572   0.374
   0.564   0.652   0.654   0.427   0.314   0.427   0.654   0.652   0.564   0.374
   0.572   0.722   0.849   1.425   1.506   1.369   1.223   0.909   0.777   0.706
   0.912   0.593
 200       5.00   72    0 5.00   15    0
   2.328   2.328   2.328   2.328   2.328   2.328   2.328   2.328   2.328   2.328
   2.328   2.328   2.328   2.328   2.328   2.328   2.328   2.328   2.328   2.328
   2.328   2.328   2.328   2.328   2.328   2.328   2.328   2.328   2.328   2.328
   2.328   2.328   2.328   2.328   2.328   2.328   2.328   2.328   2.328   2.328
   2.328   2.328   2.328   2.328   2.328   2.328   2.328   2.328   2.328   2.328
   2.328   2.328   2.328   2.328   2.328   2.328   2.328   2.328   2.328   2.328
   2.328   2.328   2.328   2.328   2.328   2.328   2.328   2.328   2.328   2.328
   2.328   2.328
   1.745   1.218   1.269   1.039   1.500   1.081   1.282   1.163   1.652   1.771
   1.715   1.685   1.677   1.595   1.751   1.375   2.117   1.539   1.293   1.539
   2.117   1.375   1.751   1.595   1.677   1.685   1.715   1.771   1.652   1.163
   1.282   1.081   1.500   1.039   1.269   1.218   1.745   1.218   1.269   1.039
   1.500   1.081   1.282   1.163   1.652   1.771   1.715   1.685   1.677   1.595
   1.751   1.375   2.117   1.539   1.293   1.539   2.117   1.375   1.751   1.595
   1.677   1.685   1.715   1.771   1.652   1.163   1.282   1.081   1.500   1.039
   1.269   1.218
   0.614   0.515   0.494   0.560   0.487   0.607   0.629   0.508   0.732   0.576
   0.839   0.689   0.931   1.002   0.884   0.861   1.173   0.922   0.971   0.922
   1.173   0.861   0.884   1.002   0.931   0.689   0.839   0.576   0.732   0.508
   0.629   0.607   0.487   0.560   0.494   0.515   0.614   0.515   0.494   0.560
   0.487   0.607   0.629   0.508   0.732   0.576   0.839   0.689   0.931   1.002
   0.884   0.861   1.173   0.922   0.971   0.922   1.173   0.861   0.884   1.002
   0.931   0.689   0.839   0.576   0.732   0.508   0.629   0.607   0.487   0.560
   0.494   0.515
   0.387   0.364   0.402   0.430   0.367   0.543   0.446   0.397   0.476   0.437
   0.401   0.444   0.548   0.553   0.427   0.399   0.515   0.670   0.590   0.670
   0.515   0.399   0.427   0.553   0.548   0.444   0.401   0.437   0.476   0.397
   0.446   0.543   0.367   0.430   0.402   0.364   0.387   0.364   0.402   0.430
   0.367   0.543   0.446   0.397   0.476   0.437   0.401   0.444   0.548   0.553
   0.427   0.399   0.515   0.670   0.590   0.670   0.515   0.399   0.427   0.553
   0.548   0.444   0.401   0.437   0.476   0.397   0.446   0.543   0.367   0.430
   0.402   0.364
   0.813   0.708   0.857   0.823   0.855   0.827   0.719   0.619   0.557   0.522
   0.490   0.518   0.328   0.397   0.281   0.382   0.291   0.521   0.503   0.521
   0.291   0.382   0.281   0.397   0.328   0.518   0.490   0.522   0.557   0.619
   0.719   0.827   0.855   0.823   0.857   0.708   0.813   0.708   0.857   0.823
   0.855   0.827   0.719   0.619   0.557   0.522   0.490   0.518   0.328   0.397
   0.281   0.382   0.291   0.521   0.503   0.521   0.291   0.382   0.281   0.397
   0.328   0.518   0.490   0.522   0.557   0.619   0.719   0.827   0.855   0.823
   0.857   0.708
   2.761   2.634   2.830   3.069   3.271   2.555   2.300   1.674   1.147   0.690
   0.627   0.522   0.500   0.303   0.314   0.459   0.444   0.408   0.409   0.408
   0.444   0.459   0.314   0.303   0.500   0.522   0.627   0.690   1.147   1.674
   2.300   2.555   3.271   3.069   2.830   2.634   2.761   2.634   2.830   3.069
   3.271   2.555   2.300   1.674   1.147   0.690   0.627   0.522   0.500   0.303
   0.314   0.459   0.444   0.408   0.409   0.408   0.444   0.459   0.314   0.303
   0.500   0.522   0.627   0.690   1.147   1.674   2.300   2.555   3.271   3.069
   2.830   2.634
   3.919   3.533   4.241   5.043   5.580   4.776   4.350   3.309   2.357   1.186
   0.686   0.534   0.691   0.355   0.263   0.480   0.673   0.434   0.459   0.434
   0.673   0.480   0.263   0.355   0.691   0.534   0.686   1.186   2.357   3.309
   4.350   4.776   5.580   5.043   4.241   3.533   3.919   3.533   4.241   5.043
   5.580   4.776   4.350   3.309   2.357   1.186   0.686   0.534   0.691   0.355
   0.263   0.480   0.673   0.434   0.459   0.434   0.673   0.480   0.263   0.355
   0.691   0.534   0.686   1.186   2.357   3.309   4.350   4.776   5.580   5.043
   4.241   3.533
   2.085   1.683   2.349   3.095   3.627   3.677   3.889   3.099   2.739   1.829
   1.108   0.811   0.613   0.474   0.292   0.582   0.768   0.586   0.808   0.586
   0.768   0.582   0.292   0.474   0.613   0.811   1.108   1.829   2.739   3.099
   3.889   3.677   3.627   3.095   2.349   1.683   2.085   1.683   2.349   3.095
   3.627   3.677   3.889   3.099   2.739   1.829   1.108   0.811   0.613   0.474
   0.292   0.582   0.768   0.586   0.808   0.586   0.768   0.582   0.292   0.474
   0.613   0.811   1.108   1.829   2.739   3.099   3.889   3.677   3.627   3.095
   2.349   1.683
   0.366   0.371   0.384   0.701   0.869   1.184   1.592   1.351   1.659   1.553
   1.222   0.966   0.648   0.563   0.424   0.570   0.588   0.635   0.945   0.635
   0.588   0.570   0.424   0.563   0.648   0.966   1.222   1.553   1.659   1.351
   1.592   1.184   0.869   0.701   0.384   0.371   0.366   0.371   0.384   0.701
   0.869   1.184   1.592   1.351   1.659   1.553   1.222   0.966   0.648   0.563
   0.424   0.570   0.588   0.635   0.945   0.635   0.588   0.570   0.424   0.563
   0.648   0.966   1.222   1.553   1.659   1.351   1.592   1.184   0.869   0.701
   0.384   0.371
   0.143   0.231   0.135   0.250   0.277   0.328   0.432   0.445   0.709   0.791
   0.961   0.887   1.105   0.767   0.573   0.559   0.449   0.712   0.793   0.712
   0.449   0.559   0.573   0.767   1.105   0.887   0.961   0.791   0.709   0.445
   0.432   0.328   0.277   0.250   0.135   0.231   0.143   0.231   0.135   0.250
   0.277   0.328   0.432   0.445   0.709   0.791   0.961   0.887   1.105   0.767
   0.573   0.559   0.449   0.712   0.793   0.712   0.449   0.559   0.573   0.767
   1.105   0.887   0.961   0.791   0.709   0.445   0.432   0.328   0.277   0.250
   0.135   0.231
   0.113   0.153   0.065   0.073   0.196   0.174   0.333   0.386   0.473   0.519
   0.960   1.316   1.919   1.466   0.770   0.638   0.578   0.662   0.645   0.662
   0.578   0.638   0.770   1.466   1.919   1.316   0.960   0.519   0.473   0.386
   0.333   0.174   0.196   0.073   0.065   0.153   0.113   0.153   0.065   0.073
   0.196   0.174   0.333   0.386   0.473   0.519   0.960   1.316   1.919   1.466
   0.770   0.638   0.578   0.662   0.645   0.662   0.578   0.638   0.770   1.466
   1.919   1.316   0.960   0.519   0.473   0.386   0.333   0.174   0.196   0.073
   0.065   0.153
   0.044   0.097   0.037   0.128   0.170   0.134   0.336   0.345   0.356   0.576
   1.200   2.494   2.869   2.004   1.023   0.688   0.607   0.550   0.589   0.550
   0.607   0.688   1.023   2.004   2.869   2.494   1.200   0.576   0.356   0.345
   0.336   0.134   0.170   0.128   0.037   0.097   0.044   0.097   0.037   0.128
   0.170   0.134   0.336   0.345   0.356   0.576   1.200   2.494   2.869   2.004
   1.023   0.688   0.607   0.550   0.589   0.550   0.607   0.688   1.023   2.004
   2.869   2.494   1.200   0.576   0.356   0.345   0.336   0.134   0.170   0.128
   0.037   0.097
   0.081   0.169   0.192   0.246   0.287   0.425   0.339   0.357   0.465   1.145
   2.367   3.461   2.865   1.660   0.993   0.701   0.632   0.508   0.541   0.508
   0.632   0.701   0.993   1.660   2.865   3.461   2.367   1.145   0.465   0.357
   0.339   0.425   0.287   0.246   0.192   0.169   0.081   0.169   0.192   0.246
   0.287   0.425   0.339   0.357   0.465   1.145   2.367   3.461   2.865   1.660
   0.993   0.701   0.632   0.508   0.541   0.508   0.632   0.701   0.993   1.660
   2.865   3.461   2.367   1.145   0.465   0.357   0.339   0.425   0.287   0.246
   0.192   0.169
   0.147   0.106   0.226   0.328   0.485   0.716   0.563   0.678   1.407   2.557
   3.087   2.881   1.705   1.072   0.726   0.633   0.640   0.386   0.365   0.386
   0.640   0.633   0.726   1.072   1.705   2.881   3.087   2.557   1.407   0.678
   0.563   0.716   0.485   0.328   0.226   0.106   0.147   0.106   0.226   0.328
   0.485   0.716   0.563   0.678   1.407   2.557   3.087   2.881   1.705   1.072
   0.726   0.633   0.640   0.386   0.365   0.386   0.640   0.633   0.726   1.072
   1.705   2.881   3.087   2.557   1.407   0.678   0.563   0.716   0.485   0.328
   0.226   0.106
   0.090   0.089   0.100   0.208   0.609   0.575   0.819   1.493   2.476   3.318
   2.158   1.453   0.698   0.783   0.481   0.685   0.617   0.348   0.195   0.348
   0.617   0.685   0.481   0.783   0.698   1.453   2.158   3.318   2.476   1.493
   0.819   0.575   0.609   0.208   0.100   0.089   0.090   0.089   0.100   0.208
   0.609   0.575   0.819   1.493   2.476   3.318   2.158   1.453   0.698   0.783
   0.481   0.685   0.617   0.348   0.195   0.348   0.617   0.685   0.481   0.783
   0.698   1.453   2.158   3.318   2.476   1.493   0.819   0.575   0.609   0.208
   0.100   0.089
 111       5.00   72    0 5.00   15    0
   0.055   0.055   0.055   0.055   0.055   0.055   0.055   0.055   0.055   0.055
   0.055   0.055   0.055   0.055   0.055   0.055   0.055   0.055   0.055   0.055
   0.055   0.055   0.055   0.055   0.055   0.055   0.055   0.055   0.055   0.055
   0.055   0.055   0.055   0.055   0.055   0.055   0.055   0.055   0.055   0.055
   0.055   0.055   0.055   0.055   0.055   0.055   0.055   0.055   0.055   0.055
   0.055   0.055   0.055   0.055   0.055   0.055   0.055   0.055   0.055   0.055
   0.055   0.055   0.055   0.055   0.055   0.055   0.055   0.055   0.055   0.055
   0.055   0.055
   0.114   0.110   0.136   0.137   0.073   0.083   0.110   0.076   0.035   0.073
   0.063   0.073   0.065   0.038   0.105   0.076   0.043   0.044   0.059   0.044
   0.043   0.076   0.105   0.038   0.065   0.073   0.063   0.073   0.035   0.076
   0.110   0.083   0.073   0.137   0.136   0.110   0.114   0.110   0.136   0.137
   0.073   0.083   0.110   0.076   0.035   0.073   0.063   0.073   0.065   0.038
   0.105   0.076   0.043   0.044   0.059   0.044   0.043   0.076   0.105   0.038
   0.065   0.073   0.063   0.073   0.035   0.076   0.110   0.083   0.073   0.137
   0.136   0.110
   0.636   0.499   0.607   0.512   0.375   0.304   0.325   0.196   0.072   0.121
   0.090   0.044   0.043   0.041   0.087   0.122   0.034   0.055   0.054   0.055
   0.034   0.122   0.087   0.041   0.043   0.044   0.090   0.121   0.072   0.196
   0.325   0.304   0.375   0.512   0.607   0.499   0.636   0.499   0.607   0.512
   0.375   0.304   0.325   0.196   0.072   0.121   0.090   0.044   0.043   0.041
   0.087   0.122   0.034   0.055   0.054   0.055   0.034   0.122   0.087   0.041
   0.043   0.044   0.090   0.121   0.072   0.196   0.325   0.304   0.375   0.512
   0.607   0.499
   3.815   3.460   3.078   2.466   1.758   1.093   0.827   0.513   0.314   0.223
   0.121   0.046   0.094   0.064   0.030   0.062   0.008   0.019   0.021   0.019
   0.008   0.062   0.030   0.064   0.094   0.046   0.121   0.223   0.314   0.513
   0.827   1.093   1.758   2.466   3.078   3.460   3.815   3.460   3.078   2.466
   1.758   1.093   0.827   0.513   0.314   0.223   0.121   0.046   0.094   0.064
   0.030   0.062   0.008   0.019   0.021   0.019   0.008   0.062   0.030   0.064
   0.094   0.046   0.121   0.223   0.314   0.513   0.827   1.093   1.758   2.466
   3.078   3.460
   8.948   8.959   7.686   5.738   4.071   2.511   1.806   0.976   0.736   0.389
   0.173   0.093   0.153   0.075   0.002   0.012   0.000   0.002   0.000   0.002
   0.000   0.012   0.002   0.075   0.153   0.093   0.173   0.389   0.736   0.976
   1.806   2.511   4.071   5.738   7.686   8.959   8.948   8.959   7.686   5.738
   4.071   2.511   1.806   0.976   0.736   0.389   0.173   0.093   0.153   0.075
   0.002   0.012   0.000   0.002   0.000   0.002   0.000   0.012   0.002   0.075
   0.153   0.093   0.173   0.389   0.736   0.976   1.806   2.511   4.071   5.738
   7.686   8.959
   7.884   7.996   6.824   5.267   4.103   3.069   2.328   1.343   0.969   0.736
   0.347   0.310   0.236   0.116   0.067   0.022   0.031   0.004   0.024   0.004
   0.031   0.022   0.067   0.116   0.236   0.310   0.347   0.736   0.969   1.343
   2.328   3.069   4.103   5.267   6.824   7.996   7.884   7.996   6.824   5.267
   4.103   3.069   2.328   1.343   0.969   0.736   0.347   0.310   0.236   0.116
   0.067   0.022   0.031   0.004   0.024   0.004   0.031   0.022   0.067   0.116
   0.236   0.310   0.347   0.736   0.969   1.343   2.328   3.069   4.103   5.267
   6.824   7.996
   3.277   3.110   2.796   2.528   2.333   2.119   1.628   1.425   1.028   0.875
   0.584   0.517   0.306   0.215   0.178   0.073   0.124   0.037   0.125   0.037
   0.124   0.073   0.178   0.215   0.306   0.517   0.584   0.875   1.028   1.425
   1.628   2.119   2.333   2.528   2.796   3.110   3.277   3.110   2.796   2.528
   2.333   2.119   1.628   1.425   1.028   0.875   0.584   0.517   0.306   0.215
   0.178   0.073   0.124   0.037   0.125   0.037   0.124   0.073   0.178   0.215
   0.306   0.517   0.584   0.875   1.028   1.425   1.628   2.119   2.333   2.528
   2.796   3.110
   1.701   1.420   1.612   1.661   1.471   1.293   1.194   1.236   1.031   0.853
   0.725   0.606   0.332   0.299   0.287   0.146   0.194   0.127   0.122   0.127
   0.194   0.146   0.287   0.299   0.332   0.606   0.725   0.853   1.031   1.236
   1.194   1.293   1.471   1.661   1.612   1.420   1.701   1.420   1.612   1.661
   1.471   1.293   1.194   1.236   1.031   0.853   0.725   0.606   0.332   0.299
   0.287   0.146   0.194   0.127   0.122   0.127   0.194   0.146   0.287   0.299
   0.332   0.606   0.725   0.853   1.031   1.236   1.194   1.293   1.471   1.661
   1.612   1.420
   0.751   0.458   0.669   0.903   0.917   0.949   1.171   1.243   1.166   1.302
   1.117   0.967   0.511   0.381   0.373   0.281   0.282   0.195   0.048   0.195
   0.282   0.281   0.373   0.381   0.511   0.967   1.117   1.302   1.166   1.243
   1.171   0.949   0.917   0.903   0.669   0.458   0.751   0.458   0.669   0.903
   0.917   0.949   1.171   1.243   1.166   1.302   1.117   0.967   0.511   0.381
   0.373   0.281   0.282   0.195   0.048   0.195   0.282   0.281   0.373   0.381
   0.511   0.967   1.117   1.302   1.166   1.243   1.171   0.949   0.917   0.903
   0.669   0.458
   0.195   0.147   0.210   0.273   0.474   0.504   0.745   1.254   1.522   1.894
   1.792   1.930   1.128   0.752   0.497   0.368   0.374   0.295   0.191   0.295
   0.374   0.368   0.497   0.752   1.128   1.930   1.792   1.894   1.522   1.254
   0.745   0.504   0.474   0.273   0.210   0.147   0.195   0.147   0.210   0.273
   0.474   0.504   0.745   1.254   1.522   1.894   1.792   1.930   1.128   0.752
   0.497   0.368   0.374   0.295   0.191   0.295   0.374   0.368   0.497   0.752
   1.128   1.930   1.792   1.894   1.522   1.254   0.745   0.504   0.474   0.273
   0.210   0.147
   0.110   0.103   0.092   0.116   0.218   0.210   0.368   0.917   1.606   2.306
   2.289   2.539   2.187   1.763   0.934   0.539   0.491   0.452   0.375   0.452
   0.491   0.539   0.934   1.763   2.187   2.539   2.289   2.306   1.606   0.917
   0.368   0.210   0.218   0.116   0.092   0.103   0.110   0.103   0.092   0.116
   0.218   0.210   0.368   0.917   1.606   2.306   2.289   2.539   2.187   1.763
   0.934   0.539   0.491   0.452   0.375   0.452   0.491   0.539   0.934   1.763
   2.187   2.539   2.289   2.306   1.606   0.917   0.368   0.210   0.218   0.116
   0.092   0.103
   0.131   0.083   0.073   0.107   0.110   0.110   0.259   0.569   1.210   1.903
   2.005   1.828   2.121   2.404   1.959   1.213   0.966   0.873   0.644   0.873
   0.966   1.213   1.959   2.404   2.121   1.828   2.005   1.903   1.210   0.569
   0.259   0.110   0.110   0.107   0.073   0.083   0.131   0.083   0.073   0.107
   0.110   0.110   0.259   0.569   1.210   1.903   2.005   1.828   2.121   2.404
   1.959   1.213   0.966   0.873   0.644   0.873   0.966   1.213   1.959   2.404
   2.121   1.828   2.005   1.903   1.210   0.569   0.259   0.110   0.110   0.107
   0.073   0.083
   0.091   0.052   0.076   0.104   0.120   0.083   0.174   0.378   0.710   1.041
   1.160   0.882   0.993   1.625   2.149   2.227   2.242   1.486   1.086   1.486
   2.242   2.227   2.149   1.625   0.993   0.882   1.160   1.041   0.710   0.378
   0.174   0.083   0.120   0.104   0.076   0.052   0.091   0.052   0.076   0.104
   0.120   0.083   0.174   0.378   0.710   1.041   1.160   0.882   0.993   1.625
   2.149   2.227   2.242   1.486   1.086   1.486   2.242   2.227   2.149   1.625
   0.993   0.882   1.160   1.041   0.710   0.378   0.174   0.083   0.120   0.104
   0.076   0.052
   0.120   0.109   0.090   0.053   0.157   0.192   0.152   0.239   0.476   0.595
   0.593   0.420   0.440   0.678   1.175   2.175   2.924   2.163   1.523   2.163
   2.924   2.175   1.175   0.678   0.440   0.420   0.593   0.595   0.476   0.239
   0.152   0.192   0.157   0.053   0.090   0.109   0.120   0.109   0.090   0.053
   0.157   0.192   0.152   0.239   0.476   0.595   0.593   0.420   0.440   0.678
   1.175   2.175   2.924   2.163   1.523   2.163   2.924   2.175   1.175   0.678
   0.440   0.420   0.593   0.595   0.476   0.239   0.152   0.192   0.157   0.053
   0.090   0.109
   0.187   0.143   0.147   0.105   0.195   0.248   0.159   0.194   0.346   0.368
   0.435   0.319   0.303   0.397   0.570   1.130   2.121   2.258   1.675   2.258
   2.121   1.130   0.570   0.397   0.303   0.319   0.435   0.368   0.346   0.194
   0.159   0.248   0.195   0.105   0.147   0.143   0.187   0.143   0.147   0.105
   0.195   0.248   0.159   0.194   0.346   0.368   0.435   0.319   0.303   0.397
   0.570   1.130   2.121   2.258   1.675   2.258   2.121   1.130   0.570   0.397
   0.303   0.319   0.435   0.368   0.346   0.194   0.159   0.248   0.195   0.105
   0.147   0.143
  4  1     -1.5015942E-01
  4  2      2.3926766E-01
  4  3     -9.9147069E-01
  6  1      1.2011924E+00
  6  2     -4.8953976E+00
  6  3      1.7794373E+00
  6  4     -2.3020920E-01
  8  1     -7.0630710E-01
  8  2     -1.5554876E-01
  8  3      1.3525755E+00
  8  4      7.5750719E-01
  8  5      8.8173791E-01
 10  1     -2.1649637E+00
 10  2      1.9214242E+00
 10  3      1.7466062E+00
 10  4      9.3577008E-01
 10  5      2.4191702E-01
 10  6     -4.0387061E-01
 12  1      1.1178428E+00  1.7675388E+00
 12  2     -5.4032710E-01 -2.1531880E+00
 12  3      9.5252595E-02  3.0462722E+00
 12  4     -1.0796236E+00 -1.9524332E+00
 12  5     -6.3152816E-01 -1.9588930E-02
 12  6     -1.1673067E+00  3.2084054E-01
 12  7      1.5868573E-01  3.6582997E-02
 14  1     -4.0072816E-01
 14  2      4.8759752E-01
 14  3     -1.2600790E-02
 14  4     -8.0115434E-01
 14  5     -5.8232314E-01
 14  6      4.2328051E-01
 14  7      5.3153153E-01
 14  8     -2.6971358E-01
 16  1      1.4203278E-02 -1.2254821E+00
 16  2     -1.7634149E-01  1.8499852E+00
 16  3      7.4810845E-01 -1.4444220E+00
 16  4     -6.3114789E-02 -1.2417824E+00
 16  5     -7.5483642E-01  1.7761502E-01
 16  6      3.7428780E-01  2.8676945E-01
 16  7      1.0436648E+00  1.3495374E-01
 16  8      4.8111210E-01 -2.7438862E-01
 16  9      4.0594128E-02  3.6737333E-01
 220       5.00   72    0 5.00   18    0
   1.658   1.659   1.662   1.667   1.674   1.683   1.692   1.703   1.715   1.727
   1.739   1.751   1.762   1.773   1.782   1.789   1.794   1.797   1.798   1.797
   1.794   1.789   1.782   1.773   1.762   1.751   1.739   1.727   1.715   1.703
   1.692   1.683   1.674   1.667   1.662   1.659   1.658   1.659   1.662   1.667
   1.674   1.683   1.692   1.703   1.715   1.727   1.739   1.751   1.762   1.773
   1.782   1.789   1.794   1.797   1.798   1.797   1.794   1.789   1.782   1.773
   1.762   1.751   1.739   1.727   1.715   1.703   1.692   1.683   1.674   1.667
   1.662   1.659
   1.039   1.045   1.064   1.095   1.138   1.193   1.261   1.339   1.428   1.525
   1.627   1.731   1.834   1.930   2.017   2.090   2.144   2.178   2.190   2.178
   2.144   2.090   2.017   1.930   1.834   1.731   1.627   1.525   1.428   1.339
   1.261   1.193   1.138   1.095   1.064   1.045   1.039   1.045   1.064   1.095
   1.138   1.193   1.261   1.339   1.428   1.525   1.627   1.731   1.834   1.930
   2.017   2.090   2.144   2.178   2.190   2.178   2.144   2.090   2.017   1.930
   1.834   1.731   1.627   1.525   1.428   1.339   1.261   1.193   1.138   1.095
   1.064   1.045
   0.243   0.249   0.267   0.299   0.349   0.423   0.524   0.658   0.828   1.033
   1.271   1.535   1.813   2.090   2.351   2.577   2.751   2.862   2.900   2.862
   2.751   2.577   2.351   2.090   1.813   1.535   1.271   1.033   0.828   0.658
   0.524   0.423   0.349   0.299   0.267   0.249   0.243   0.249   0.267   0.299
   0.349   0.423   0.524   0.658   0.828   1.033   1.271   1.535   1.813   2.090
   2.351   2.577   2.751   2.862   2.900   2.862   2.751   2.577   2.351   2.090
   1.813   1.535   1.271   1.033   0.828   0.658   0.524   0.423   0.349   0.299
   0.267   0.249
  -0.222  -0.225  -0.232  -0.240  -0.241  -0.224  -0.175  -0.075   0.093   0.343
   0.680   1.097   1.577   2.087   2.589   3.040   3.396   3.626   3.705   3.626
   3.396   3.040   2.589   2.087   1.577   1.097   0.680   0.343   0.093  -0.075
  -0.175  -0.224  -0.241  -0.240  -0.232  -0.225  -0.222  -0.225  -0.232  -0.240
  -0.241  -0.224  -0.175  -0.075   0.093   0.343   0.680   1.097   1.577   2.087
   2.589   3.040   3.396   3.626   3.705   3.626   3.396   3.040   2.589   2.087
   1.577   1.097   0.680   0.343   0.093  -0.075  -0.175  -0.224  -0.241  -0.240
  -0.232  -0.225
  -0.221  -0.225  -0.239  -0.268  -0.316  -0.376  -0.431  -0.448  -0.387  -0.208
   0.117   0.595   1.204   1.897   2.607   3.261   3.787   4.127   4.245   4.127
   3.787   3.261   2.607   1.897   1.204   0.595   0.117  -0.208  -0.387  -0.448
  -0.431  -0.376  -0.316  -0.268  -0.239  -0.225  -0.221  -0.225  -0.239  -0.268
  -0.316  -0.376  -0.431  -0.448  -0.387  -0.208   0.117   0.595   1.204   1.897
   2.607   3.261   3.787   4.127   4.245   4.127   3.787   3.261   2.607   1.897
   1.204   0.595   0.117  -0.208  -0.387  -0.448  -0.431  -0.376  -0.316  -0.268
  -0.239  -0.225
  -0.059  -0.044  -0.010   0.019   0.015  -0.045  -0.157  -0.287  -0.371  -0.336
  -0.120   0.303   0.913   1.649   2.423   3.140   3.715   4.086   4.213   4.086
   3.715   3.140   2.423   1.649   0.913   0.303  -0.120  -0.336  -0.371  -0.287
  -0.157  -0.045   0.015   0.019  -0.010  -0.044  -0.059  -0.044  -0.010   0.019
   0.015  -0.045  -0.157  -0.287  -0.371  -0.336  -0.120   0.303   0.913   1.649
   2.423   3.140   3.715   4.086   4.213   4.086   3.715   3.140   2.423   1.649
   0.913   0.303  -0.120  -0.336  -0.371  -0.287  -0.157  -0.045   0.015   0.019
  -0.010  -0.044
  -0.079  -0.044   0.053   0.181   0.292   0.334   0.276   0.133  -0.026  -0.101
   0.000   0.319   0.837   1.478   2.142   2.736   3.196   3.482   3.579   3.482
   3.196   2.736   2.142   1.478   0.837   0.319   0.000  -0.101  -0.026   0.133
   0.276   0.334   0.292   0.181   0.053  -0.044  -0.079  -0.044   0.053   0.181
   0.292   0.334   0.276   0.133  -0.026  -0.101   0.000   0.319   0.837   1.478
   2.142   2.736   3.196   3.482   3.579   3.482   3.196   2.736   2.142   1.478
   0.837   0.319   0.000  -0.101  -0.026   0.133   0.276   0.334   0.292   0.181
   0.053  -0.044
  -0.162  -0.147  -0.088   0.034   0.206   0.367   0.442   0.397   0.277   0.191
   0.247   0.495   0.900   1.375   1.824   2.184   2.430   2.568   2.612   2.568
   2.430   2.184   1.824   1.375   0.900   0.495   0.247   0.191   0.277   0.397
   0.442   0.367   0.206   0.034  -0.088  -0.147  -0.162  -0.147  -0.088   0.034
   0.206   0.367   0.442   0.397   0.277   0.191   0.247   0.495   0.900   1.375
   1.824   2.184   2.430   2.568   2.612   2.568   2.430   2.184   1.824   1.375
   0.900   0.495   0.247   0.191   0.277   0.397   0.442   0.367   0.206   0.034
  -0.088  -0.147
   0.277   0.200   0.036  -0.066  -0.011   0.169   0.345   0.410   0.366   0.318
   0.381   0.595   0.906   1.215   1.448   1.588   1.655   1.683   1.691   1.683
   1.655   1.588   1.448   1.215   0.906   0.595   0.381   0.318   0.366   0.410
   0.345   0.169  -0.011  -0.066   0.036   0.200   0.277   0.200   0.036  -0.066
  -0.011   0.169   0.345   0.410   0.366   0.318   0.381   0.595   0.906   1.215
   1.448   1.588   1.655   1.683   1.691   1.683   1.655   1.588   1.448   1.215
   0.906   0.595   0.381   0.318   0.366   0.410   0.345   0.169  -0.011  -0.066
   0.036   0.200
   1.647   1.427   0.911   0.418   0.192   0.240   0.379   0.429   0.361   0.287
   0.330   0.510   0.742   0.920   1.004   1.024   1.031   1.045   1.053   1.045
   1.031   1.024   1.004   0.920   0.742   0.510   0.330   0.287   0.361   0.429
   0.379   0.240   0.192   0.418   0.911   1.427   1.647   1.427   0.911   0.418
   0.192   0.240   0.379   0.429   0.361   0.287   0.330   0.510   0.742   0.920
   1.004   1.024   1.031   1.045   1.053   1.045   1.031   1.024   1.004   0.920
   0.742   0.510   0.330   0.287   0.361   0.429   0.379   0.240   0.192   0.418
   0.911   1.427
   3.524   3.183   2.367   1.531   1.022   0.861   0.821   0.687   0.441   0.232
   0.193   0.317   0.483   0.581   0.596   0.590   0.617   0.668   0.695   0.668
   0.617   0.590   0.596   0.581   0.483   0.317   0.193   0.232   0.441   0.687
   0.821   0.861   1.022   1.531   2.367   3.183   3.524   3.183   2.367   1.531
   1.022   0.861   0.821   0.687   0.441   0.232   0.193   0.317   0.483   0.581
   0.596   0.590   0.617   0.668   0.695   0.668   0.617   0.590   0.596   0.581
   0.483   0.317   0.193   0.232   0.441   0.687   0.821   0.861   1.022   1.531
   2.367   3.183
   4.758   4.393   3.517   2.607   2.009   1.718   1.490   1.132   0.677   0.306
   0.154   0.199   0.310   0.378   0.387   0.384   0.408   0.450   0.471   0.450
   0.408   0.384   0.387   0.378   0.310   0.199   0.154   0.306   0.677   1.132
   1.490   1.718   2.009   2.607   3.517   4.393   4.758   4.393   3.517   2.607
   2.009   1.718   1.490   1.132   0.677   0.306   0.154   0.199   0.310   0.378
   0.387   0.384   0.408   0.450   0.471   0.450   0.408   0.384   0.387   0.378
   0.310   0.199   0.154   0.306   0.677   1.132   1.490   1.718   2.009   2.607
   3.517   4.393
   4.408   4.132   3.481   2.828   2.417   2.197   1.953   1.553   1.057   0.629
   0.382   0.313   0.346   0.404   0.438   0.425   0.371   0.310   0.284   0.310
   0.371   0.425   0.438   0.404   0.346   0.313   0.382   0.629   1.057   1.553
   1.953   2.197   2.417   2.828   3.481   4.132   4.408   4.132   3.481   2.828
   2.417   2.197   1.953   1.553   1.057   0.629   0.382   0.313   0.346   0.404
   0.438   0.425   0.371   0.310   0.284   0.310   0.371   0.425   0.438   0.404
   0.346   0.313   0.382   0.629   1.057   1.553   1.953   2.197   2.417   2.828
   3.481   4.132
   2.632   2.508   2.237   2.019   1.957   1.980   1.947   1.778   1.498   1.174
   0.874   0.656   0.566   0.593   0.649   0.623   0.480   0.301   0.220   0.301
   0.480   0.623   0.649   0.593   0.566   0.656   0.874   1.174   1.498   1.778
   1.947   1.980   1.957   2.019   2.237   2.508   2.632   2.508   2.237   2.019
   1.957   1.980   1.947   1.778   1.498   1.174   0.874   0.656   0.566   0.593
   0.649   0.623   0.480   0.301   0.220   0.301   0.480   0.623   0.649   0.593
   0.566   0.656   0.874   1.174   1.498   1.778   1.947   1.980   1.957   2.019
   2.237   2.508
   0.623   0.633   0.687   0.823   1.038   1.290   1.529   1.712   1.775   1.656
   1.369   1.041   0.835   0.808   0.866   0.862   0.735   0.565   0.487   0.565
   0.735   0.862   0.866   0.808   0.835   1.041   1.369   1.656   1.775   1.712
   1.529   1.290   1.038   0.823   0.687   0.633   0.623   0.633   0.687   0.823
   1.038   1.290   1.529   1.712   1.775   1.656   1.369   1.041   0.835   0.808
   0.866   0.862   0.735   0.565   0.487   0.565   0.735   0.862   0.866   0.808
   0.835   1.041   1.369   1.656   1.775   1.712   1.529   1.290   1.038   0.823
   0.687   0.633
  -0.417  -0.345  -0.157   0.081   0.324   0.590   0.926   1.315   1.626   1.704
   1.525   1.235   1.022   0.964   1.010   1.078   1.132   1.168   1.182   1.168
   1.132   1.078   1.010   0.964   1.022   1.235   1.525   1.704   1.626   1.315
   0.926   0.590   0.324   0.081  -0.157  -0.345  -0.417  -0.345  -0.157   0.081
   0.324   0.590   0.926   1.315   1.626   1.704   1.525   1.235   1.022   0.964
   1.010   1.078   1.132   1.168   1.182   1.168   1.132   1.078   1.010   0.964
   1.022   1.235   1.525   1.704   1.626   1.315   0.926   0.590   0.324   0.081
  -0.157  -0.345
  -0.279  -0.211  -0.063   0.058   0.108   0.169   0.367   0.716   1.078   1.279
   1.279   1.180   1.093   1.055   1.088   1.253   1.576   1.931   2.088   1.931
   1.576   1.253   1.088   1.055   1.093   1.180   1.279   1.279   1.078   0.716
   0.367   0.169   0.108   0.058  -0.063  -0.211  -0.279  -0.211  -0.063   0.058
   0.108   0.169   0.367   0.716   1.078   1.279   1.279   1.180   1.093   1.055
   1.088   1.253   1.576   1.931   2.088   1.931   1.576   1.253   1.088   1.055
   1.093   1.180   1.279   1.279   1.078   0.716   0.367   0.169   0.108   0.058
  -0.063  -0.211
   0.230   0.274   0.343   0.318   0.169   0.017   0.031   0.255   0.568   0.819
   0.962   1.048   1.097   1.098   1.125   1.358   1.880   2.473   2.738   2.473
   1.880   1.358   1.125   1.098   1.097   1.048   0.962   0.819   0.568   0.255
   0.031   0.017   0.169   0.318   0.343   0.274   0.230   0.274   0.343   0.318
   0.169   0.017   0.031   0.255   0.568   0.819   0.962   1.048   1.097   1.098
   1.125   1.358   1.880   2.473   2.738   2.473   1.880   1.358   1.125   1.098
   1.097   1.048   0.962   0.819   0.568   0.255   0.031   0.017   0.169   0.318
   0.343   0.274
 200       5.00   72    0 5.00   18    0
   1.704   1.705   1.706   1.708   1.710   1.713   1.717   1.721   1.725   1.729
   1.733   1.738   1.742   1.745   1.748   1.751   1.753   1.754   1.755   1.754
   1.753   1.751   1.748   1.745   1.742   1.738   1.733   1.729   1.725   1.721
   1.717   1.713   1.710   1.708   1.706   1.705   1.704   1.705   1.706   1.708
   1.710   1.713   1.717   1.721   1.725   1.729   1.733   1.738   1.742   1.745
   1.748   1.751   1.753   1.754   1.755   1.754   1.753   1.751   1.748   1.745
   1.742   1.738   1.733   1.729   1.725   1.721   1.717   1.713   1.710   1.708
   1.706   1.705
   1.006   1.008   1.016   1.028   1.044   1.065   1.090   1.119   1.151   1.185
   1.221   1.257   1.293   1.327   1.358   1.383   1.403   1.415   1.419   1.415
   1.403   1.383   1.358   1.327   1.293   1.257   1.221   1.185   1.151   1.119
   1.090   1.065   1.044   1.028   1.016   1.008   1.006   1.008   1.016   1.028
   1.044   1.065   1.090   1.119   1.151   1.185   1.221   1.257   1.293   1.327
   1.358   1.383   1.403   1.415   1.419   1.415   1.403   1.383   1.358   1.327
   1.293   1.257   1.221   1.185   1.151   1.119   1.090   1.065   1.044   1.028
   1.016   1.008
   0.132   0.136   0.148   0.166   0.190   0.219   0.254   0.294   0.342   0.398
   0.465   0.542   0.627   0.715   0.800   0.877   0.937   0.976   0.990   0.976
   0.937   0.877   0.800   0.715   0.627   0.542   0.465   0.398   0.342   0.294
   0.254   0.219   0.190   0.166   0.148   0.136   0.132   0.136   0.148   0.166
   0.190   0.219   0.254   0.294   0.342   0.398   0.465   0.542   0.627   0.715
   0.800   0.877   0.937   0.976   0.990   0.976   0.937   0.877   0.800   0.715
   0.627   0.542   0.465   0.398   0.342   0.294   0.254   0.219   0.190   0.166
   0.148   0.136
  -0.043  -0.037  -0.021  -0.002   0.010   0.008  -0.010  -0.038  -0.067  -0.082
  -0.068  -0.017   0.072   0.194   0.333   0.471   0.588   0.666   0.693   0.666
   0.588   0.471   0.333   0.194   0.072  -0.017  -0.068  -0.082  -0.067  -0.038
  -0.010   0.008   0.010  -0.002  -0.021  -0.037  -0.043  -0.037  -0.021  -0.002
   0.010   0.008  -0.010  -0.038  -0.067  -0.082  -0.068  -0.017   0.072   0.194
   0.333   0.471   0.588   0.666   0.693   0.666   0.588   0.471   0.333   0.194
   0.072  -0.017  -0.068  -0.082  -0.067  -0.038  -0.010   0.008   0.010  -0.002
  -0.021  -0.037
   0.983   1.000   1.039   1.076   1.075   1.010   0.867   0.656   0.409   0.170
  -0.017  -0.119  -0.125  -0.044   0.095   0.256   0.403   0.504   0.540   0.504
   0.403   0.256   0.095  -0.044  -0.125  -0.119  -0.017   0.170   0.409   0.656
   0.867   1.010   1.075   1.076   1.039   1.000   0.983   1.000   1.039   1.076
   1.075   1.010   0.867   0.656   0.409   0.170  -0.017  -0.119  -0.125  -0.044
   0.095   0.256   0.403   0.504   0.540   0.504   0.403   0.256   0.095  -0.044
  -0.125  -0.119  -0.017   0.170   0.409   0.656   0.867   1.010   1.075   1.076
   1.039   1.000
   2.565   2.602   2.696   2.793   2.822   2.719   2.449   2.025   1.504   0.976
   0.524   0.210   0.052   0.028   0.096   0.205   0.313   0.388   0.415   0.388
   0.313   0.205   0.096   0.028   0.052   0.210   0.524   0.976   1.504   2.025
   2.449   2.719   2.822   2.793   2.696   2.602   2.565   2.602   2.696   2.793
   2.822   2.719   2.449   2.025   1.504   0.976   0.524   0.210   0.052   0.028
   0.096   0.205   0.313   0.388   0.415   0.388   0.313   0.205   0.096   0.028
   0.052   0.210   0.524   0.976   1.504   2.025   2.449   2.719   2.822   2.793
   2.696   2.602
   3.272   3.329   3.481   3.665   3.787   3.744   3.469   2.963   2.305   1.622
   1.036   0.621   0.384   0.283   0.262   0.274   0.292   0.305   0.309   0.305
   0.292   0.274   0.262   0.283   0.384   0.621   1.036   1.622   2.305   2.963
   3.469   3.744   3.787   3.665   3.481   3.329   3.272   3.329   3.481   3.665
   3.787   3.744   3.469   2.963   2.305   1.622   1.036   0.621   0.384   0.283
   0.262   0.274   0.292   0.305   0.309   0.305   0.292   0.274   0.262   0.283
   0.384   0.621   1.036   1.622   2.305   2.963   3.469   3.744   3.787   3.665
   3.481   3.329
   2.388   2.441   2.597   2.835   3.076   3.198   3.085   2.707   2.149   1.566
   1.093   0.787   0.617   0.523   0.457   0.407   0.378   0.369   0.368   0.369
   0.378   0.407   0.457   0.523   0.617   0.787   1.093   1.566   2.149   2.707
   3.085   3.198   3.076   2.835   2.597   2.441   2.388   2.441   2.597   2.835
   3.076   3.198   3.085   2.707   2.149   1.566   1.093   0.787   0.617   0.523
   0.457   0.407   0.378   0.369   0.368   0.369   0.378   0.407   0.457   0.523
   0.617   0.787   1.093   1.566   2.149   2.707   3.085   3.198   3.076   2.835
   2.597   2.441
   0.781   0.792   0.868   1.071   1.383   1.669   1.763   1.605   1.289   0.988
   0.820   0.770   0.745   0.674   0.577   0.525   0.556   0.632   0.670   0.632
   0.556   0.525   0.577   0.674   0.745   0.770   0.820   0.988   1.289   1.605
   1.763   1.669   1.383   1.071   0.868   0.792   0.781   0.792   0.868   1.071
   1.383   1.669   1.763   1.605   1.289   0.988   0.820   0.770   0.745   0.674
   0.577   0.525   0.556   0.632   0.670   0.632   0.556   0.525   0.577   0.674
   0.745   0.770   0.820   0.988   1.289   1.605   1.763   1.669   1.383   1.071
   0.868   0.792
  -0.108  -0.152  -0.200  -0.102   0.175   0.485   0.635   0.583   0.478   0.514
   0.732   0.978   1.054   0.907   0.684   0.595   0.718   0.934   1.039   0.934
   0.718   0.595   0.684   0.907   1.054   0.978   0.732   0.514   0.478   0.583
   0.635   0.485   0.175  -0.102  -0.200  -0.152  -0.108  -0.152  -0.200  -0.102
   0.175   0.485   0.635   0.583   0.478   0.514   0.732   0.978   1.054   0.907
   0.684   0.595   0.718   0.934   1.039   0.934   0.718   0.595   0.684   0.907
   1.054   0.978   0.732   0.514   0.478   0.583   0.635   0.485   0.175  -0.102
  -0.200  -0.152
   0.073   0.003  -0.110  -0.096   0.071   0.228   0.221   0.114   0.161   0.549
   1.173   1.681   1.764   1.418   0.940   0.684   0.772   1.029   1.161   1.029
   0.772   0.684   0.940   1.418   1.764   1.681   1.173   0.549   0.161   0.114
   0.221   0.228   0.071  -0.096  -0.110   0.003   0.073   0.003  -0.110  -0.096
   0.071   0.228   0.221   0.114   0.161   0.549   1.173   1.681   1.764   1.418
   0.940   0.684   0.772   1.029   1.161   1.029   0.772   0.684   0.940   1.418
   1.764   1.681   1.173   0.549   0.161   0.114   0.221   0.228   0.071  -0.096
  -0.110   0.003
   0.404   0.365   0.317   0.360   0.445   0.410   0.212   0.073   0.324   1.064
   1.993   2.610   2.594   2.035   1.326   0.852   0.743   0.847   0.920   0.847
   0.743   0.852   1.326   2.035   2.594   2.610   1.993   1.064   0.324   0.073
   0.212   0.410   0.445   0.360   0.317   0.365   0.404   0.365   0.317   0.360
   0.445   0.410   0.212   0.073   0.324   1.064   1.993   2.610   2.594   2.035
   1.326   0.852   0.743   0.847   0.920   0.847   0.743   0.852   1.326   2.035
   2.594   2.610   1.993   1.064   0.324   0.073   0.212   0.410   0.445   0.360
   0.317   0.365
   0.109   0.138   0.246   0.424   0.546   0.481   0.314   0.368   0.917   1.863
   2.751   3.122   2.857   2.203   1.517   1.014   0.725   0.586   0.545   0.586
   0.725   1.014   1.517   2.203   2.857   3.122   2.751   1.863   0.917   0.368
   0.314   0.481   0.546   0.424   0.246   0.138   0.109   0.138   0.246   0.424
   0.546   0.481   0.314   0.368   0.917   1.863   2.751   3.122   2.857   2.203
   1.517   1.014   0.725   0.586   0.545   0.586   0.725   1.014   1.517   2.203
   2.857   3.122   2.751   1.863   0.917   0.368   0.314   0.481   0.546   0.424
   0.246   0.138
  -0.425  -0.356  -0.148   0.150   0.403   0.526   0.664   1.093   1.880   2.699
   3.070   2.806   2.167   1.573   1.221   1.004   0.758   0.495   0.377   0.495
   0.758   1.004   1.221   1.573   2.167   2.806   3.070   2.699   1.880   1.093
   0.664   0.526   0.403   0.150  -0.148  -0.356  -0.425  -0.356  -0.148   0.150
   0.403   0.526   0.664   1.093   1.880   2.699   3.070   2.806   2.167   1.573
   1.221   1.004   0.758   0.495   0.377   0.495   0.758   1.004   1.221   1.573
   2.167   2.806   3.070   2.699   1.880   1.093   0.664   0.526   0.403   0.150
  -0.148  -0.356
  -0.284  -0.262  -0.151   0.098   0.435   0.803   1.280   1.969   2.724   3.110
   2.781   1.882   0.981   0.556   0.613   0.791   0.787   0.622   0.525   0.622
   0.787   0.791   0.613   0.556   0.981   1.882   2.781   3.110   2.724   1.969
   1.280   0.803   0.435   0.098  -0.151  -0.262  -0.284  -0.262  -0.151   0.098
   0.435   0.803   1.280   1.969   2.724   3.110   2.781   1.882   0.981   0.556
   0.613   0.791   0.787   0.622   0.525   0.622   0.787   0.791   0.613   0.556
   0.981   1.882   2.781   3.110   2.724   1.969   1.280   0.803   0.435   0.098
  -0.151  -0.262
   0.773   0.656   0.453   0.429   0.682   1.127   1.673   2.252   2.669   2.607
   1.939   0.965   0.219   0.012   0.233   0.550   0.744   0.802   0.807   0.802
   0.744   0.550   0.233   0.012   0.219   0.965   1.939   2.607   2.669   2.252
   1.673   1.127   0.682   0.429   0.453   0.656   0.773   0.656   0.453   0.429
   0.682   1.127   1.673   2.252   2.669   2.607   1.939   0.965   0.219   0.012
   0.233   0.550   0.744   0.802   0.807   0.802   0.744   0.550   0.233   0.012
   0.219   0.965   1.939   2.607   2.669   2.252   1.673   1.127   0.682   0.429
   0.453   0.656
   2.122   1.832   1.230   0.821   0.848   1.152   1.460   1.622   1.580   1.306
   0.870   0.475   0.292   0.297   0.359   0.451   0.638   0.883   1.003   0.883
   0.638   0.451   0.359   0.297   0.292   0.475   0.870   1.306   1.580   1.622
   1.460   1.152   0.848   0.821   1.230   1.832   2.122   1.832   1.230   0.821
   0.848   1.152   1.460   1.622   1.580   1.306   0.870   0.475   0.292   0.297
   0.359   0.451   0.638   0.883   1.003   0.883   0.638   0.451   0.359   0.297
   0.292   0.475   0.870   1.306   1.580   1.622   1.460   1.152   0.848   0.821
   1.230   1.832
   2.992   2.583   1.704   1.019   0.850   0.978   1.018   0.806   0.450   0.159
   0.112   0.352   0.693   0.833   0.669   0.464   0.548   0.878   1.066   0.878
   0.548   0.464   0.669   0.833   0.693   0.352   0.112   0.159   0.450   0.806
   1.018   0.978   0.850   1.019   1.704   2.583   2.992   2.583   1.704   1.019
   0.850   0.978   1.018   0.806   0.450   0.159   0.112   0.352   0.693   0.833
   0.669   0.464   0.548   0.878   1.066   0.878   0.548   0.464   0.669   0.833
   0.693   0.352   0.112   0.159   0.450   0.806   1.018   0.978   0.850   1.019
   1.704   2.583
 111       5.00   72    0 5.00   18    0
   0.181   0.182   0.185   0.190   0.196   0.204   0.214   0.225   0.236   0.248
   0.261   0.273   0.284   0.295   0.304   0.311   0.317   0.320   0.322   0.320
   0.317   0.311   0.304   0.295   0.284   0.273   0.261   0.248   0.236   0.225
   0.214   0.204   0.196   0.190   0.185   0.182   0.181   0.182   0.185   0.190
   0.196   0.204   0.214   0.225   0.236   0.248   0.261   0.273   0.284   0.295
   0.304   0.311   0.317   0.320   0.322   0.320   0.317   0.311   0.304   0.295
   0.284   0.273   0.261   0.248   0.236   0.225   0.214   0.204   0.196   0.190
   0.185   0.182
  -0.294  -0.295  -0.297  -0.299  -0.297  -0.290  -0.274  -0.246  -0.206  -0.153
  -0.089  -0.016   0.062   0.140   0.213   0.276   0.324   0.355   0.365   0.355
   0.324   0.276   0.213   0.140   0.062  -0.016  -0.089  -0.153  -0.206  -0.246
  -0.274  -0.290  -0.297  -0.299  -0.297  -0.295  -0.294  -0.295  -0.297  -0.299
  -0.297  -0.290  -0.274  -0.246  -0.206  -0.153  -0.089  -0.016   0.062   0.140
   0.213   0.276   0.324   0.355   0.365   0.355   0.324   0.276   0.213   0.140
   0.062  -0.016  -0.089  -0.153  -0.206  -0.246  -0.274  -0.290  -0.297  -0.299
  -0.297  -0.295
   0.780   0.742   0.633   0.468   0.266   0.054  -0.144  -0.304  -0.412  -0.458
  -0.441  -0.369  -0.254  -0.114   0.033   0.169   0.278   0.349   0.373   0.349
   0.278   0.169   0.033  -0.114  -0.254  -0.369  -0.441  -0.458  -0.412  -0.304
  -0.144   0.054   0.266   0.468   0.633   0.742   0.780   0.742   0.633   0.468
   0.266   0.054  -0.144  -0.304  -0.412  -0.458  -0.441  -0.369  -0.254  -0.114
   0.033   0.169   0.278   0.349   0.373   0.349   0.278   0.169   0.033  -0.114
  -0.254  -0.369  -0.441  -0.458  -0.412  -0.304  -0.144   0.054   0.266   0.468
   0.633   0.742
   3.904   3.789   3.456   2.949   2.326   1.659   1.017   0.459   0.026  -0.264
  -0.413  -0.441  -0.378  -0.258  -0.116   0.022   0.134   0.206   0.231   0.206
   0.134   0.022  -0.116  -0.258  -0.378  -0.441  -0.413  -0.264   0.026   0.459
   1.017   1.659   2.326   2.949   3.456   3.789   3.904   3.789   3.456   2.949
   2.326   1.659   1.017   0.459   0.026  -0.264  -0.413  -0.441  -0.378  -0.258
  -0.116   0.022   0.134   0.206   0.231   0.206   0.134   0.022  -0.116  -0.258
  -0.378  -0.441  -0.413  -0.264   0.026   0.459   1.017   1.659   2.326   2.949
   3.456   3.789
   6.544   6.365   5.850   5.068   4.117   3.110   2.155   1.337   0.707   0.277
   0.026  -0.087  -0.113  -0.097  -0.072  -0.053  -0.046  -0.045  -0.045  -0.045
  -0.046  -0.053  -0.072  -0.097  -0.113  -0.087   0.026   0.277   0.707   1.337
   2.155   3.110   4.117   5.068   5.850   6.365   6.544   6.365   5.850   5.068
   4.117   3.110   2.155   1.337   0.707   0.277   0.026  -0.087  -0.113  -0.097
  -0.072  -0.053  -0.046  -0.045  -0.045  -0.045  -0.046  -0.053  -0.072  -0.097
  -0.113  -0.087   0.026   0.277   0.707   1.337   2.155   3.110   4.117   5.068
   5.850   6.365
   6.162   5.996   5.521   4.801   3.934   3.032   2.201   1.518   1.020   0.698
   0.511   0.401   0.316   0.225   0.115  -0.003  -0.110  -0.184  -0.211  -0.184
  -0.110  -0.003   0.115   0.225   0.316   0.401   0.511   0.698   1.020   1.518
   2.201   3.032   3.934   4.801   5.521   5.996   6.162   5.996   5.521   4.801
   3.934   3.032   2.201   1.518   1.020   0.698   0.511   0.401   0.316   0.225
   0.115  -0.003  -0.110  -0.184  -0.211  -0.184  -0.110  -0.003   0.115   0.225
   0.316   0.401   0.511   0.698   1.020   1.518   2.201   3.032   3.934   4.801
   5.521   5.996
   3.397   3.321   3.101   2.758   2.335   1.892   1.490   1.176   0.963   0.828
   0.727   0.621   0.489   0.341   0.199   0.087   0.013  -0.024  -0.035  -0.024
   0.013   0.087   0.199   0.341   0.489   0.621   0.727   0.828   0.963   1.176
   1.490   1.892   2.335   2.758   3.101   3.321   3.397   3.321   3.101   2.758
   2.335   1.892   1.490   1.176   0.963   0.828   0.727   0.621   0.489   0.341
   0.199   0.087   0.013  -0.024  -0.035  -0.024   0.013   0.087   0.199   0.341
   0.489   0.621   0.727   0.828   0.963   1.176   1.490   1.892   2.335   2.758
   3.101   3.321
   0.940   0.964   1.021   1.076   1.100   1.091   1.067   1.050   1.033   0.985
   0.867   0.672   0.438   0.233   0.122   0.122   0.202   0.292   0.330   0.292
   0.202   0.122   0.122   0.233   0.438   0.672   0.867   0.985   1.033   1.050
   1.067   1.091   1.100   1.076   1.021   0.964   0.940   0.964   1.021   1.076
   1.100   1.091   1.067   1.050   1.033   0.985   0.867   0.672   0.438   0.233
   0.122   0.122   0.202   0.292   0.330   0.292   0.202   0.122   0.122   0.233
   0.438   0.672   0.867   0.985   1.033   1.050   1.067   1.091   1.100   1.076
   1.021   0.964
   0.129   0.196   0.369   0.587   0.792   0.968   1.131   1.298   1.442   1.493
   1.381   1.100   0.728   0.395   0.207   0.191   0.290   0.407   0.457   0.407
   0.290   0.191   0.207   0.395   0.728   1.100   1.381   1.493   1.442   1.298
   1.131   0.968   0.792   0.587   0.369   0.196   0.129   0.196   0.369   0.587
   0.792   0.968   1.131   1.298   1.442   1.493   1.381   1.100   0.728   0.395
   0.207   0.191   0.290   0.407   0.457   0.407   0.290   0.191   0.207   0.395
   0.728   1.100   1.381   1.493   1.442   1.298   1.131   0.968   0.792   0.587
   0.369   0.196
   0.128   0.172   0.285   0.427   0.577   0.757   1.019   1.391   1.814   2.148
   2.243   2.044   1.631   1.162   0.774   0.512   0.354   0.266   0.236   0.266
   0.354   0.512   0.774   1.162   1.631   2.044   2.243   2.148   1.814   1.391
   1.019   0.757   0.577   0.427   0.285   0.172   0.128   0.172   0.285   0.427
   0.577   0.757   1.019   1.391   1.814   2.148   2.243   2.044   1.631   1.162
   0.774   0.512   0.354   0.266   0.236   0.266   0.354   0.512   0.774   1.162
   1.631   2.044   2.243   2.148   1.814   1.391   1.019   0.757   0.577   0.427
   0.285   0.172
   0.006   0.004  -0.002  -0.003   0.035   0.176   0.498   1.038   1.721   2.361
   2.745   2.771   2.500   2.084   1.633   1.168   0.699   0.319   0.168   0.319
   0.699   1.168   1.633   2.084   2.500   2.771   2.745   2.361   1.721   1.038
   0.498   0.176   0.035  -0.003  -0.002   0.004   0.006   0.004  -0.002  -0.003
   0.035   0.176   0.498   1.038   1.721   2.361   2.745   2.771   2.500   2.084
   1.633   1.168   0.699   0.319   0.168   0.319   0.699   1.168   1.633   2.084
   2.500   2.771   2.745   2.361   1.721   1.038   0.498   0.176   0.035  -0.003
  -0.002   0.004
  -0.079  -0.108  -0.177  -0.241  -0.248  -0.144   0.125   0.593   1.218   1.847
   2.292   2.462   2.430   2.331   2.191   1.915   1.456   0.980   0.773   0.980
   1.456   1.915   2.191   2.331   2.430   2.462   2.292   1.847   1.218   0.593
   0.125  -0.144  -0.248  -0.241  -0.177  -0.108  -0.079  -0.108  -0.177  -0.241
  -0.248  -0.144   0.125   0.593   1.218   1.847   2.292   2.462   2.430   2.331
   2.191   1.915   1.456   0.980   0.773   0.980   1.456   1.915   2.191   2.331
   2.430   2.462   2.292   1.847   1.218   0.593   0.125  -0.144  -0.248  -0.241
  -0.177  -0.108
   0.040   0.016  -0.031  -0.053  -0.014   0.081   0.223   0.424   0.699   0.996
   1.213   1.317   1.428   1.697   2.086   2.344   2.271   1.983   1.826   1.983
   2.271   2.344   2.086   1.697   1.428   1.317   1.213   0.996   0.699   0.424
   0.223   0.081  -0.014  -0.053  -0.031   0.016   0.040   0.016  -0.031  -0.053
  -0.014   0.081   0.223   0.424   0.699   0.996   1.213   1.317   1.428   1.697
   2.086   2.344   2.271   1.983   1.826   1.983   2.271   2.344   2.086   1.697
   1.428   1.317   1.213   0.996   0.699   0.424   0.223   0.081  -0.014  -0.053
  -0.031   0.016
  -0.099  -0.099  -0.087  -0.027   0.099   0.251   0.360   0.401   0.419   0.449
   0.449   0.405   0.459   0.832   1.525   2.219   2.564   2.554   2.489   2.554
   2.564   2.219   1.525   0.832   0.459   0.405   0.449   0.449   0.419   0.401
   0.360   0.251   0.099  -0.027  -0.087  -0.099  -0.099  -0.099  -0.087  -0.027
   0.099   0.251   0.360   0.401   0.419   0.449   0.449   0.405   0.459   0.832
   1.525   2.219   2.564   2.554   2.489   2.554   2.564   2.219   1.525   0.832
   0.459   0.405   0.449   0.449   0.419   0.401   0.360   0.251   0.099  -0.027
  -0.087  -0.099
  -0.391  -0.372  -0.327  -0.257  -0.129   0.057   0.225   0.309   0.347   0.409
   0.449   0.372   0.264   0.403   0.942   1.649   2.130   2.260   2.252   2.260
   2.130   1.649   0.942   0.403   0.264   0.372   0.449   0.409   0.347   0.309
   0.225   0.057  -0.129  -0.257  -0.327  -0.372  -0.391  -0.372  -0.327  -0.257
  -0.129   0.057   0.225   0.309   0.347   0.409   0.449   0.372   0.264   0.403
   0.942   1.649   2.130   2.260   2.252   2.260   2.130   1.649   0.942   0.403
   0.264   0.372   0.449   0.409   0.347   0.309   0.225   0.057  -0.129  -0.257
  -0.327  -0.372
   0.399   0.422   0.430   0.355   0.260   0.247   0.297   0.328   0.371   0.530
   0.745   0.785   0.578   0.392   0.536   0.960   1.328   1.454   1.457   1.454
   1.328   0.960   0.536   0.392   0.578   0.785   0.745   0.530   0.371   0.328
   0.297   0.247   0.260   0.355   0.430   0.422   0.399   0.422   0.430   0.355
   0.260   0.247   0.297   0.328   0.371   0.530   0.745   0.785   0.578   0.392
   0.536   0.960   1.328   1.454   1.457   1.454   1.328   0.960   0.536   0.392
   0.578   0.785   0.745   0.530   0.371   0.328   0.297   0.247   0.260   0.355
   0.430   0.422
   2.825   2.837   2.754   2.415   1.898   1.416   1.035   0.690   0.440   0.467
   0.744   0.928   0.754   0.398   0.254   0.430   0.674   0.774   0.779   0.774
   0.674   0.430   0.254   0.398   0.754   0.928   0.744   0.467   0.440   0.690
   1.035   1.416   1.898   2.415   2.754   2.837   2.825   2.837   2.754   2.415
   1.898   1.416   1.035   0.690   0.440   0.467   0.744   0.928   0.754   0.398
   0.254   0.430   0.674   0.774   0.779   0.774   0.674   0.430   0.254   0.398
   0.754   0.928   0.744   0.467   0.440   0.690   1.035   1.416   1.898   2.415
   2.754   2.837
   5.192   5.193   5.031   4.478   3.608   2.702   1.887   1.122   0.505   0.297
   0.521   0.780   0.682   0.312   0.079   0.166   0.373   0.478   0.492   0.478
   0.373   0.166   0.079   0.312   0.682   0.780   0.521   0.297   0.505   1.122
   1.887   2.702   3.608   4.478   5.031   5.193   5.192   5.193   5.031   4.478
   3.608   2.702   1.887   1.122   0.505   0.297   0.521   0.780   0.682   0.312
   0.079   0.166   0.373   0.478   0.492   0.478   0.373   0.166   0.079   0.312
   0.682   0.780   0.521   0.297   0.505   1.122   1.887   2.702   3.608   4.478
   5.031   5.193
TEXTURE_INDEX=   5.5681
ERR_CF 220         1080     458   57.39   24.75
ERR_CF 200         1080     390   51.35   20.11
ERR_CF 111         1058     308  134.23   16.22
