TEXEVAL                                                                         
Analysis started on 31-Aug-18 11:32:20                                          
 LMAX=16LFMAX=03 CUBIC ORTHO   
 220      5.00 5.00
 200      5.00 5.00
 111      5.00 5.00
 220       5.00   72    0 5.00   15    0
   5.037   5.037   5.037   5.037   5.037   5.037   5.037   5.037   5.037   5.037
   5.037   5.037   5.037   5.037   5.037   5.037   5.037   5.037   5.037   5.037
   5.037   5.037   5.037   5.037   5.037   5.037   5.037   5.037   5.037   5.037
   5.037   5.037   5.037   5.037   5.037   5.037   5.037   5.037   5.037   5.037
   5.037   5.037   5.037   5.037   5.037   5.037   5.037   5.037   5.037   5.037
   5.037   5.037   5.037   5.037   5.037   5.037   5.037   5.037   5.037   5.037
   5.037   5.037   5.037   5.037   5.037   5.037   5.037   5.037   5.037   5.037
   5.037   5.037
   1.279   1.257   1.306   1.374   1.398   1.554   1.673   1.905   2.096   2.338
   2.689   3.195   3.615   4.170   4.744   5.292   5.676   6.007   6.114   6.007
   5.676   5.292   4.744   4.170   3.615   3.195   2.689   2.338   2.096   1.905
   1.673   1.554   1.398   1.374   1.306   1.257   1.279   1.257   1.306   1.374
   1.398   1.554   1.673   1.905   2.096   2.338   2.689   3.195   3.615   4.170
   4.744   5.292   5.676   6.007   6.114   6.007   5.676   5.292   4.744   4.170
   3.615   3.195   2.689   2.338   2.096   1.905   1.673   1.554   1.398   1.374
   1.306   1.257
   0.219   0.235   0.245   0.268   0.296   0.327   0.356   0.445   0.584   0.750
   1.017   1.417   1.977   2.745   3.575   4.632   5.559   6.335   6.463   6.335
   5.559   4.632   3.575   2.745   1.977   1.417   1.017   0.750   0.584   0.445
   0.356   0.327   0.296   0.268   0.245   0.235   0.219   0.235   0.245   0.268
   0.296   0.327   0.356   0.445   0.584   0.750   1.017   1.417   1.977   2.745
   3.575   4.632   5.559   6.335   6.463   6.335   5.559   4.632   3.575   2.745
   1.977   1.417   1.017   0.750   0.584   0.445   0.356   0.327   0.296   0.268
   0.245   0.235
   0.137   0.147   0.172   0.168   0.173   0.177   0.157   0.202   0.233   0.306
   0.391   0.631   1.021   1.720   2.689   4.046   5.691   7.066   7.461   7.066
   5.691   4.046   2.689   1.720   1.021   0.631   0.391   0.306   0.233   0.202
   0.157   0.177   0.173   0.168   0.172   0.147   0.137   0.147   0.172   0.168
   0.173   0.177   0.157   0.202   0.233   0.306   0.391   0.631   1.021   1.720
   2.689   4.046   5.691   7.066   7.461   7.066   5.691   4.046   2.689   1.720
   1.021   0.631   0.391   0.306   0.233   0.202   0.157   0.177   0.173   0.168
   0.172   0.147
   0.139   0.130   0.153   0.150   0.148   0.144   0.144   0.148   0.169   0.202
   0.207   0.333   0.547   1.013   1.900   3.408   5.441   7.446   8.104   7.446
   5.441   3.408   1.900   1.013   0.547   0.333   0.207   0.202   0.169   0.148
   0.144   0.144   0.148   0.150   0.153   0.130   0.139   0.130   0.153   0.150
   0.148   0.144   0.144   0.148   0.169   0.202   0.207   0.333   0.547   1.013
   1.900   3.408   5.441   7.446   8.104   7.446   5.441   3.408   1.900   1.013
   0.547   0.333   0.207   0.202   0.169   0.148   0.144   0.144   0.148   0.150
   0.153   0.130
   0.095   0.097   0.113   0.115   0.103   0.118   0.148   0.144   0.179   0.172
   0.206   0.312   0.443   0.830   1.688   3.274   5.011   6.521   6.783   6.521
   5.011   3.274   1.688   0.830   0.443   0.312   0.206   0.172   0.179   0.144
   0.148   0.118   0.103   0.115   0.113   0.097   0.095   0.097   0.113   0.115
   0.103   0.118   0.148   0.144   0.179   0.172   0.206   0.312   0.443   0.830
   1.688   3.274   5.011   6.521   6.783   6.521   5.011   3.274   1.688   0.830
   0.443   0.312   0.206   0.172   0.179   0.144   0.148   0.118   0.103   0.115
   0.113   0.097
   0.057   0.061   0.058   0.089   0.075   0.074   0.137   0.140   0.169   0.171
   0.231   0.321   0.579   1.146   2.269   3.748   4.256   4.045   3.702   4.045
   4.256   3.748   2.269   1.146   0.579   0.321   0.231   0.171   0.169   0.140
   0.137   0.074   0.075   0.089   0.058   0.061   0.057   0.061   0.058   0.089
   0.075   0.074   0.137   0.140   0.169   0.171   0.231   0.321   0.579   1.146
   2.269   3.748   4.256   4.045   3.702   4.045   4.256   3.748   2.269   1.146
   0.579   0.321   0.231   0.171   0.169   0.140   0.137   0.074   0.075   0.089
   0.058   0.061
   0.103   0.066   0.060   0.057   0.086   0.071   0.112   0.089   0.130   0.186
   0.195   0.312   0.708   1.603   2.937   3.686   2.758   1.757   1.300   1.757
   2.758   3.686   2.937   1.603   0.708   0.312   0.195   0.186   0.130   0.089
   0.112   0.071   0.086   0.057   0.060   0.066   0.103   0.066   0.060   0.057
   0.086   0.071   0.112   0.089   0.130   0.186   0.195   0.312   0.708   1.603
   2.937   3.686   2.758   1.757   1.300   1.757   2.758   3.686   2.937   1.603
   0.708   0.312   0.195   0.186   0.130   0.089   0.112   0.071   0.086   0.057
   0.060   0.066
   0.138   0.139   0.105   0.054   0.116   0.087   0.090   0.108   0.125   0.153
   0.163   0.298   0.693   1.744   2.983   2.739   1.396   0.721   0.462   0.721
   1.396   2.739   2.983   1.744   0.693   0.298   0.163   0.153   0.125   0.108
   0.090   0.087   0.116   0.054   0.105   0.139   0.138   0.139   0.105   0.054
   0.116   0.087   0.090   0.108   0.125   0.153   0.163   0.298   0.693   1.744
   2.983   2.739   1.396   0.721   0.462   0.721   1.396   2.739   2.983   1.744
   0.693   0.298   0.163   0.153   0.125   0.108   0.090   0.087   0.116   0.054
   0.105   0.139
   0.282   0.323   0.213   0.099   0.129   0.055   0.070   0.127   0.133   0.169
   0.146   0.215   0.584   1.446   2.425   1.712   0.709   0.280   0.177   0.280
   0.709   1.712   2.425   1.446   0.584   0.215   0.146   0.169   0.133   0.127
   0.070   0.055   0.129   0.099   0.213   0.323   0.282   0.323   0.213   0.099
   0.129   0.055   0.070   0.127   0.133   0.169   0.146   0.215   0.584   1.446
   2.425   1.712   0.709   0.280   0.177   0.280   0.709   1.712   2.425   1.446
   0.584   0.215   0.146   0.169   0.133   0.127   0.070   0.055   0.129   0.099
   0.213   0.323
   2.092   1.893   1.073   0.385   0.291   0.095   0.085   0.150   0.191   0.144
   0.096   0.193   0.428   1.086   1.813   1.149   0.424   0.118   0.107   0.118
   0.424   1.149   1.813   1.086   0.428   0.193   0.096   0.144   0.191   0.150
   0.085   0.095   0.291   0.385   1.073   1.893   2.092   1.893   1.073   0.385
   0.291   0.095   0.085   0.150   0.191   0.144   0.096   0.193   0.428   1.086
   1.813   1.149   0.424   0.118   0.107   0.118   0.424   1.149   1.813   1.086
   0.428   0.193   0.096   0.144   0.191   0.150   0.085   0.095   0.291   0.385
   1.073   1.893
   8.643   7.197   3.970   1.729   0.868   0.485   0.328   0.205   0.203   0.124
   0.117   0.231   0.284   0.735   1.409   1.063   0.322   0.127   0.071   0.127
   0.322   1.063   1.409   0.735   0.284   0.231   0.117   0.124   0.203   0.205
   0.328   0.485   0.868   1.729   3.970   7.197   8.643   7.197   3.970   1.729
   0.868   0.485   0.328   0.205   0.203   0.124   0.117   0.231   0.284   0.735
   1.409   1.063   0.322   0.127   0.071   0.127   0.322   1.063   1.409   0.735
   0.284   0.231   0.117   0.124   0.203   0.205   0.328   0.485   0.868   1.729
   3.970   7.197
   8.866   7.676   4.869   2.996   1.835   1.454   1.059   0.706   0.482   0.288
   0.223   0.275   0.231   0.461   1.151   1.236   0.429   0.198   0.080   0.198
   0.429   1.236   1.151   0.461   0.231   0.275   0.223   0.288   0.482   0.706
   1.059   1.454   1.835   2.996   4.869   7.676   8.866   7.676   4.869   2.996
   1.835   1.454   1.059   0.706   0.482   0.288   0.223   0.275   0.231   0.461
   1.151   1.236   0.429   0.198   0.080   0.198   0.429   1.236   1.151   0.461
   0.231   0.275   0.223   0.288   0.482   0.706   1.059   1.454   1.835   2.996
   4.869   7.676
   2.611   2.498   2.181   2.079   1.725   1.800   1.924   1.647   1.336   0.946
   0.480   0.367   0.314   0.397   1.108   1.366   0.626   0.291   0.299   0.291
   0.626   1.366   1.108   0.397   0.314   0.367   0.480   0.946   1.336   1.647
   1.924   1.800   1.725   2.079   2.181   2.498   2.611   2.498   2.181   2.079
   1.725   1.800   1.924   1.647   1.336   0.946   0.480   0.367   0.314   0.397
   1.108   1.366   0.626   0.291   0.299   0.291   0.626   1.366   1.108   0.397
   0.314   0.367   0.480   0.946   1.336   1.647   1.924   1.800   1.725   2.079
   2.181   2.498
   0.654   0.537   0.444   0.632   0.649   0.893   1.458   1.555   1.789   1.732
   1.055   0.513   0.332   0.388   1.049   1.429   0.920   0.462   0.434   0.462
   0.920   1.429   1.049   0.388   0.332   0.513   1.055   1.732   1.789   1.555
   1.458   0.893   0.649   0.632   0.444   0.537   0.654   0.537   0.444   0.632
   0.649   0.893   1.458   1.555   1.789   1.732   1.055   0.513   0.332   0.388
   1.049   1.429   0.920   0.462   0.434   0.462   0.920   1.429   1.049   0.388
   0.332   0.513   1.055   1.732   1.789   1.555   1.458   0.893   0.649   0.632
   0.444   0.537
 200       5.00   72    0 5.00   15    0
   0.125   0.125   0.125   0.125   0.125   0.125   0.125   0.125   0.125   0.125
   0.125   0.125   0.125   0.125   0.125   0.125   0.125   0.125   0.125   0.125
   0.125   0.125   0.125   0.125   0.125   0.125   0.125   0.125   0.125   0.125
   0.125   0.125   0.125   0.125   0.125   0.125   0.125   0.125   0.125   0.125
   0.125   0.125   0.125   0.125   0.125   0.125   0.125   0.125   0.125   0.125
   0.125   0.125   0.125   0.125   0.125   0.125   0.125   0.125   0.125   0.125
   0.125   0.125   0.125   0.125   0.125   0.125   0.125   0.125   0.125   0.125
   0.125   0.125
   0.132   0.140   0.149   0.142   0.144   0.140   0.134   0.135   0.131   0.130
   0.134   0.132   0.126   0.124   0.124   0.124   0.127   0.127   0.126   0.127
   0.127   0.124   0.124   0.124   0.126   0.132   0.134   0.130   0.131   0.135
   0.134   0.140   0.144   0.142   0.149   0.140   0.132   0.140   0.149   0.142
   0.144   0.140   0.134   0.135   0.131   0.130   0.134   0.132   0.126   0.124
   0.124   0.124   0.127   0.127   0.126   0.127   0.127   0.124   0.124   0.124
   0.126   0.132   0.134   0.130   0.131   0.135   0.134   0.140   0.144   0.142
   0.149   0.140
   0.193   0.181   0.192   0.177   0.177   0.172   0.162   0.160   0.157   0.153
   0.143   0.134   0.120   0.131   0.137   0.126   0.134   0.133   0.145   0.133
   0.134   0.126   0.137   0.131   0.120   0.134   0.143   0.153   0.157   0.160
   0.162   0.172   0.177   0.177   0.192   0.181   0.193   0.181   0.192   0.177
   0.177   0.172   0.162   0.160   0.157   0.153   0.143   0.134   0.120   0.131
   0.137   0.126   0.134   0.133   0.145   0.133   0.134   0.126   0.137   0.131
   0.120   0.134   0.143   0.153   0.157   0.160   0.162   0.172   0.177   0.177
   0.192   0.181
   0.404   0.393   0.386   0.368   0.316   0.314   0.259   0.232   0.193   0.187
   0.151   0.135   0.122   0.129   0.135   0.137   0.143   0.118   0.131   0.118
   0.143   0.137   0.135   0.129   0.122   0.135   0.151   0.187   0.193   0.232
   0.259   0.314   0.316   0.368   0.386   0.393   0.404   0.393   0.386   0.368
   0.316   0.314   0.259   0.232   0.193   0.187   0.151   0.135   0.122   0.129
   0.135   0.137   0.143   0.118   0.131   0.118   0.143   0.137   0.135   0.129
   0.122   0.135   0.151   0.187   0.193   0.232   0.259   0.314   0.316   0.368
   0.386   0.393
   1.434   1.410   1.350   1.243   1.034   0.919   0.695   0.536   0.356   0.272
   0.191   0.133   0.132   0.101   0.114   0.103   0.104   0.098   0.108   0.098
   0.104   0.103   0.114   0.101   0.132   0.133   0.191   0.272   0.356   0.536
   0.695   0.919   1.034   1.243   1.350   1.410   1.434   1.410   1.350   1.243
   1.034   0.919   0.695   0.536   0.356   0.272   0.191   0.133   0.132   0.101
   0.114   0.103   0.104   0.098   0.108   0.098   0.104   0.103   0.114   0.101
   0.132   0.133   0.191   0.272   0.356   0.536   0.695   0.919   1.034   1.243
   1.350   1.410
   4.090   4.026   3.886   3.673   3.411   3.012   2.481   1.837   1.212   0.721
   0.399   0.240   0.172   0.119   0.098   0.082   0.060   0.093   0.094   0.093
   0.060   0.082   0.098   0.119   0.172   0.240   0.399   0.721   1.212   1.837
   2.481   3.012   3.411   3.673   3.886   4.026   4.090   4.026   3.886   3.673
   3.411   3.012   2.481   1.837   1.212   0.721   0.399   0.240   0.172   0.119
   0.098   0.082   0.060   0.093   0.094   0.093   0.060   0.082   0.098   0.119
   0.172   0.240   0.399   0.721   1.212   1.837   2.481   3.012   3.411   3.673
   3.886   4.026
   4.224   4.239   4.228   4.269   4.395   4.433   4.463   4.188   3.330   2.301
   1.258   0.680   0.332   0.228   0.159   0.124   0.109   0.124   0.125   0.124
   0.109   0.124   0.159   0.228   0.332   0.680   1.258   2.301   3.330   4.188
   4.463   4.433   4.395   4.269   4.228   4.239   4.224   4.239   4.228   4.269
   4.395   4.433   4.463   4.188   3.330   2.301   1.258   0.680   0.332   0.228
   0.159   0.124   0.109   0.124   0.125   0.124   0.109   0.124   0.159   0.228
   0.332   0.680   1.258   2.301   3.330   4.188   4.463   4.433   4.395   4.269
   4.228   4.239
   1.511   1.548   1.619   1.815   2.073   2.529   3.117   3.802   4.005   3.940
   2.856   1.673   0.786   0.441   0.351   0.251   0.251   0.225   0.169   0.225
   0.251   0.251   0.351   0.441   0.786   1.673   2.856   3.940   4.005   3.802
   3.117   2.529   2.073   1.815   1.619   1.548   1.511   1.548   1.619   1.815
   2.073   2.529   3.117   3.802   4.005   3.940   2.856   1.673   0.786   0.441
   0.351   0.251   0.251   0.225   0.169   0.225   0.251   0.251   0.351   0.441
   0.786   1.673   2.856   3.940   4.005   3.802   3.117   2.529   2.073   1.815
   1.619   1.548
   0.267   0.263   0.235   0.310   0.349   0.482   0.718   1.277   2.083   3.111
   3.465   2.771   1.466   0.759   0.514   0.370   0.326   0.279   0.266   0.279
   0.326   0.370   0.514   0.759   1.466   2.771   3.465   3.111   2.083   1.277
   0.718   0.482   0.349   0.310   0.235   0.263   0.267   0.263   0.235   0.310
   0.349   0.482   0.718   1.277   2.083   3.111   3.465   2.771   1.466   0.759
   0.514   0.370   0.326   0.279   0.266   0.279   0.326   0.370   0.514   0.759
   1.466   2.771   3.465   3.111   2.083   1.277   0.718   0.482   0.349   0.310
   0.235   0.263
   0.056   0.082   0.060   0.091   0.119   0.123   0.173   0.323   0.580   1.263
   2.544   3.311   2.609   1.331   0.683   0.424   0.356   0.287   0.336   0.287
   0.356   0.424   0.683   1.331   2.609   3.311   2.544   1.263   0.580   0.323
   0.173   0.123   0.119   0.091   0.060   0.082   0.056   0.082   0.060   0.091
   0.119   0.123   0.173   0.323   0.580   1.263   2.544   3.311   2.609   1.331
   0.683   0.424   0.356   0.287   0.336   0.287   0.356   0.424   0.683   1.331
   2.609   3.311   2.544   1.263   0.580   0.323   0.173   0.123   0.119   0.091
   0.060   0.082
   0.053   0.066   0.035   0.038   0.054   0.046   0.109   0.168   0.221   0.630
   1.672   3.505   4.019   1.947   0.900   0.436   0.334   0.258   0.298   0.258
   0.334   0.436   0.900   1.947   4.019   3.505   1.672   0.630   0.221   0.168
   0.109   0.046   0.054   0.038   0.035   0.066   0.053   0.066   0.035   0.038
   0.054   0.046   0.109   0.168   0.221   0.630   1.672   3.505   4.019   1.947
   0.900   0.436   0.334   0.258   0.298   0.258   0.334   0.436   0.900   1.947
   4.019   3.505   1.672   0.630   0.221   0.168   0.109   0.046   0.054   0.038
   0.035   0.066
   0.069   0.069   0.033   0.078   0.015   0.025   0.088   0.080   0.203   0.557
   1.629   3.912   4.588   2.150   0.807   0.345   0.207   0.168   0.191   0.168
   0.207   0.345   0.807   2.150   4.588   3.912   1.629   0.557   0.203   0.080
   0.088   0.025   0.015   0.078   0.033   0.069   0.069   0.069   0.033   0.078
   0.015   0.025   0.088   0.080   0.203   0.557   1.629   3.912   4.588   2.150
   0.807   0.345   0.207   0.168   0.191   0.168   0.207   0.345   0.807   2.150
   4.588   3.912   1.629   0.557   0.203   0.080   0.088   0.025   0.015   0.078
   0.033   0.069
   0.082   0.159   0.130   0.140   0.063   0.085   0.088   0.106   0.382   0.902
   2.741   4.548   3.640   1.461   0.495   0.236   0.151   0.085   0.052   0.085
   0.151   0.236   0.495   1.461   3.640   4.548   2.741   0.902   0.382   0.106
   0.088   0.085   0.063   0.140   0.130   0.159   0.082   0.159   0.130   0.140
   0.063   0.085   0.088   0.106   0.382   0.902   2.741   4.548   3.640   1.461
   0.495   0.236   0.151   0.085   0.052   0.085   0.151   0.236   0.495   1.461
   3.640   4.548   2.741   0.902   0.382   0.106   0.088   0.085   0.063   0.140
   0.130   0.159
   0.186   0.191   0.159   0.243   0.220   0.175   0.182   0.412   1.108   2.563
   4.208   3.718   1.896   0.551   0.270   0.175   0.113   0.125   0.058   0.125
   0.113   0.175   0.270   0.551   1.896   3.718   4.208   2.563   1.108   0.412
   0.182   0.175   0.220   0.243   0.159   0.191   0.186   0.191   0.159   0.243
   0.220   0.175   0.182   0.412   1.108   2.563   4.208   3.718   1.896   0.551
   0.270   0.175   0.113   0.125   0.058   0.125   0.113   0.175   0.270   0.551
   1.896   3.718   4.208   2.563   1.108   0.412   0.182   0.175   0.220   0.243
   0.159   0.191
   0.193   0.128   0.144   0.308   0.286   0.323   0.454   1.281   2.651   3.903
   3.516   1.598   0.718   0.298   0.190   0.214   0.162   0.178   0.193   0.178
   0.162   0.214   0.190   0.298   0.718   1.598   3.516   3.903   2.651   1.281
   0.454   0.323   0.286   0.308   0.144   0.128   0.193   0.128   0.144   0.308
   0.286   0.323   0.454   1.281   2.651   3.903   3.516   1.598   0.718   0.298
   0.190   0.214   0.162   0.178   0.193   0.178   0.162   0.214   0.190   0.298
   0.718   1.598   3.516   3.903   2.651   1.281   0.454   0.323   0.286   0.308
   0.144   0.128
 111       5.00   72    0 5.00   15    0
   0.045   0.045   0.045   0.045   0.045   0.045   0.045   0.045   0.045   0.045
   0.045   0.045   0.045   0.045   0.045   0.045   0.045   0.045   0.045   0.045
   0.045   0.045   0.045   0.045   0.045   0.045   0.045   0.045   0.045   0.045
   0.045   0.045   0.045   0.045   0.045   0.045   0.045   0.045   0.045   0.045
   0.045   0.045   0.045   0.045   0.045   0.045   0.045   0.045   0.045   0.045
   0.045   0.045   0.045   0.045   0.045   0.045   0.045   0.045   0.045   0.045
   0.045   0.045   0.045   0.045   0.045   0.045   0.045   0.045   0.045   0.045
   0.045   0.045
   0.062   0.065   0.064   0.065   0.065   0.054   0.056   0.053   0.052   0.048
   0.044   0.045   0.050   0.044   0.046   0.047   0.043   0.049   0.044   0.049
   0.043   0.047   0.046   0.044   0.050   0.045   0.044   0.048   0.052   0.053
   0.056   0.054   0.065   0.065   0.064   0.065   0.062   0.065   0.064   0.065
   0.065   0.054   0.056   0.053   0.052   0.048   0.044   0.045   0.050   0.044
   0.046   0.047   0.043   0.049   0.044   0.049   0.043   0.047   0.046   0.044
   0.050   0.045   0.044   0.048   0.052   0.053   0.056   0.054   0.065   0.065
   0.064   0.065
   0.252   0.234   0.215   0.185   0.150   0.108   0.091   0.079   0.073   0.060
   0.052   0.053   0.052   0.046   0.043   0.047   0.046   0.050   0.044   0.050
   0.046   0.047   0.043   0.046   0.052   0.053   0.052   0.060   0.073   0.079
   0.091   0.108   0.150   0.185   0.215   0.234   0.252   0.234   0.215   0.185
   0.150   0.108   0.091   0.079   0.073   0.060   0.052   0.053   0.052   0.046
   0.043   0.047   0.046   0.050   0.044   0.050   0.046   0.047   0.043   0.046
   0.052   0.053   0.052   0.060   0.073   0.079   0.091   0.108   0.150   0.185
   0.215   0.234
   2.118   1.906   1.572   1.077   0.686   0.420   0.233   0.142   0.100   0.061
   0.049   0.039   0.032   0.027   0.022   0.027   0.027   0.029   0.024   0.029
   0.027   0.027   0.022   0.027   0.032   0.039   0.049   0.061   0.100   0.142
   0.233   0.420   0.686   1.077   1.572   1.906   2.118   1.906   1.572   1.077
   0.686   0.420   0.233   0.142   0.100   0.061   0.049   0.039   0.032   0.027
   0.022   0.027   0.027   0.029   0.024   0.029   0.027   0.027   0.022   0.027
   0.032   0.039   0.049   0.061   0.100   0.142   0.233   0.420   0.686   1.077
   1.572   1.906
   8.304   7.621   6.274   4.551   2.959   1.714   0.933   0.448   0.199   0.085
   0.030   0.009   0.008   0.004   0.000   0.003   0.003   0.005   0.001   0.005
   0.003   0.003   0.000   0.004   0.008   0.009   0.030   0.085   0.199   0.448
   0.933   1.714   2.959   4.551   6.274   7.621   8.304   7.621   6.274   4.551
   2.959   1.714   0.933   0.448   0.199   0.085   0.030   0.009   0.008   0.004
   0.000   0.003   0.003   0.005   0.001   0.005   0.003   0.003   0.000   0.004
   0.008   0.009   0.030   0.085   0.199   0.448   0.933   1.714   2.959   4.551
   6.274   7.621
   9.203   8.651   7.452   6.099   4.854   3.602   2.485   1.473   0.699   0.336
   0.180   0.086   0.054   0.027   0.018   0.019   0.010   0.017   0.011   0.017
   0.010   0.019   0.018   0.027   0.054   0.086   0.180   0.336   0.699   1.473
   2.485   3.602   4.854   6.099   7.452   8.651   9.203   8.651   7.452   6.099
   4.854   3.602   2.485   1.473   0.699   0.336   0.180   0.086   0.054   0.027
   0.018   0.019   0.010   0.017   0.011   0.017   0.010   0.019   0.018   0.027
   0.054   0.086   0.180   0.336   0.699   1.473   2.485   3.602   4.854   6.099
   7.452   8.651
   3.487   3.406   3.241   3.171   3.392   3.305   3.086   2.529   1.728   0.975
   0.541   0.305   0.190   0.124   0.084   0.072   0.045   0.057   0.060   0.057
   0.045   0.072   0.084   0.124   0.190   0.305   0.541   0.975   1.728   2.529
   3.086   3.305   3.392   3.171   3.241   3.406   3.487   3.406   3.241   3.171
   3.392   3.305   3.086   2.529   1.728   0.975   0.541   0.305   0.190   0.124
   0.084   0.072   0.045   0.057   0.060   0.057   0.045   0.072   0.084   0.124
   0.190   0.305   0.541   0.975   1.728   2.529   3.086   3.305   3.392   3.171
   3.241   3.406
   0.878   0.855   0.907   0.924   1.200   1.479   1.969   2.372   2.510   1.992
   1.206   0.645   0.359   0.251   0.185   0.146   0.082   0.102   0.107   0.102
   0.082   0.146   0.185   0.251   0.359   0.645   1.206   1.992   2.510   2.372
   1.969   1.479   1.200   0.924   0.907   0.855   0.878   0.855   0.907   0.924
   1.200   1.479   1.969   2.372   2.510   1.992   1.206   0.645   0.359   0.251
   0.185   0.146   0.082   0.102   0.107   0.102   0.082   0.146   0.185   0.251
   0.359   0.645   1.206   1.992   2.510   2.372   1.969   1.479   1.200   0.924
   0.907   0.855
   0.295   0.275   0.320   0.337   0.382   0.553   0.842   1.395   2.212   2.618
   2.239   1.359   0.694   0.378   0.264   0.217   0.163   0.137   0.122   0.137
   0.163   0.217   0.264   0.378   0.694   1.359   2.239   2.618   2.212   1.395
   0.842   0.553   0.382   0.337   0.320   0.275   0.295   0.275   0.320   0.337
   0.382   0.553   0.842   1.395   2.212   2.618   2.239   1.359   0.694   0.378
   0.264   0.217   0.163   0.137   0.122   0.137   0.163   0.217   0.264   0.378
   0.694   1.359   2.239   2.618   2.212   1.395   0.842   0.553   0.382   0.337
   0.320   0.275
   0.201   0.162   0.170   0.164   0.160   0.201   0.337   0.641   1.226   2.092
   2.787   2.556   1.639   0.815   0.447   0.315   0.266   0.180   0.180   0.180
   0.266   0.315   0.447   0.815   1.639   2.556   2.787   2.092   1.226   0.641
   0.337   0.201   0.160   0.164   0.170   0.162   0.201   0.162   0.170   0.164
   0.160   0.201   0.337   0.641   1.226   2.092   2.787   2.556   1.639   0.815
   0.447   0.315   0.266   0.180   0.180   0.180   0.266   0.315   0.447   0.815
   1.639   2.556   2.787   2.092   1.226   0.641   0.337   0.201   0.160   0.164
   0.170   0.162
   0.204   0.167   0.167   0.104   0.100   0.086   0.142   0.295   0.507   1.051
   1.977   2.749   2.812   2.147   1.180   0.622   0.365   0.294   0.293   0.294
   0.365   0.622   1.180   2.147   2.812   2.749   1.977   1.051   0.507   0.295
   0.142   0.086   0.100   0.104   0.167   0.167   0.204   0.167   0.167   0.104
   0.100   0.086   0.142   0.295   0.507   1.051   1.977   2.749   2.812   2.147
   1.180   0.622   0.365   0.294   0.293   0.294   0.365   0.622   1.180   2.147
   2.812   2.749   1.977   1.051   0.507   0.295   0.142   0.086   0.100   0.104
   0.167   0.167
   0.140   0.165   0.137   0.084   0.070   0.057   0.070   0.140   0.290   0.400
   0.747   1.421   2.406   2.973   2.594   1.597   0.767   0.502   0.440   0.502
   0.767   1.597   2.594   2.973   2.406   1.421   0.747   0.400   0.290   0.140
   0.070   0.057   0.070   0.084   0.137   0.165   0.140   0.165   0.137   0.084
   0.070   0.057   0.070   0.140   0.290   0.400   0.747   1.421   2.406   2.973
   2.594   1.597   0.767   0.502   0.440   0.502   0.767   1.597   2.594   2.973
   2.406   1.421   0.747   0.400   0.290   0.140   0.070   0.057   0.070   0.084
   0.137   0.165
   0.116   0.150   0.132   0.092   0.075   0.068   0.077   0.087   0.247   0.246
   0.313   0.384   0.923   1.845   2.681   2.634   1.772   1.070   0.789   1.070
   1.772   2.634   2.681   1.845   0.923   0.384   0.313   0.246   0.247   0.087
   0.077   0.068   0.075   0.092   0.132   0.150   0.116   0.150   0.132   0.092
   0.075   0.068   0.077   0.087   0.247   0.246   0.313   0.384   0.923   1.845
   2.681   2.634   1.772   1.070   0.789   1.070   1.772   2.634   2.681   1.845
   0.923   0.384   0.313   0.246   0.247   0.087   0.077   0.068   0.075   0.092
   0.132   0.150
   0.202   0.181   0.172   0.119   0.121   0.101   0.092   0.098   0.211   0.203
   0.223   0.183   0.217   0.569   1.249   2.172   2.407   1.948   1.485   1.948
   2.407   2.172   1.249   0.569   0.217   0.183   0.223   0.203   0.211   0.098
   0.092   0.101   0.121   0.119   0.172   0.181   0.202   0.181   0.172   0.119
   0.121   0.101   0.092   0.098   0.211   0.203   0.223   0.183   0.217   0.569
   1.249   2.172   2.407   1.948   1.485   1.948   2.407   2.172   1.249   0.569
   0.217   0.183   0.223   0.203   0.211   0.098   0.092   0.101   0.121   0.119
   0.172   0.181
   0.361   0.286   0.295   0.210   0.165   0.172   0.153   0.205   0.221   0.131
   0.181   0.179   0.171   0.293   0.521   1.202   1.980   2.416   2.293   2.416
   1.980   1.202   0.521   0.293   0.171   0.179   0.181   0.131   0.221   0.205
   0.153   0.172   0.165   0.210   0.295   0.286   0.361   0.286   0.295   0.210
   0.165   0.172   0.153   0.205   0.221   0.131   0.181   0.179   0.171   0.293
   0.521   1.202   1.980   2.416   2.293   2.416   1.980   1.202   0.521   0.293
   0.171   0.179   0.181   0.131   0.221   0.205   0.153   0.172   0.165   0.210
   0.295   0.286
  4  1     -5.8329910E-01
  4  2      2.3042833E-01
  4  3     -2.3548149E+00
  6  1      2.2233930E+00
  6  2     -4.9522302E+00
  6  3      2.1869570E+00
  6  4      2.0938913E-01
  8  1     -8.1473732E-01
  8  2      4.0566663E-01
  8  3      1.6637646E-01
  8  4      2.5474624E+00
  8  5      1.2818206E+00
 10  1     -1.5394985E+00
 10  2      1.3959023E+00
 10  3      1.1793815E+00
 10  4      7.1005079E-01
 10  5     -3.3479942E-01
 10  6     -1.0106893E+00
 12  1      2.5295558E-01  2.2621422E+00
 12  2     -2.9385965E-01 -3.2723201E+00
 12  3     -3.5691158E-02  4.4121867E+00
 12  4     -4.8010524E-01 -2.4901270E+00
 12  5     -3.6159091E-01 -4.2694317E-01
 12  6     -2.7009087E+00  9.4889287E-01
 12  7     -1.0073663E-01 -1.7874660E-01
 14  1     -6.7655436E-01
 14  2      8.5912059E-01
 14  3     -6.5814432E-01
 14  4     -1.4793929E-01
 14  5     -2.2762999E+00
 14  6      9.0058386E-01
 14  7     -3.1717115E-02
 14  8      3.2884449E-01
 16  1     -1.2664998E-01 -1.0688469E+00
 16  2     -3.1698926E-01  1.5931717E+00
 16  3      5.6039985E-01 -7.1940039E-01
 16  4     -1.8293428E-01 -1.2903226E+00
 16  5     -1.9803978E-03  4.6865533E-01
 16  6      1.6893423E-01  3.9667037E-01
 16  7      1.5346884E+00  5.4218987E-02
 16  8      1.0665889E+00 -2.3155859E-01
 16  9     -2.9313226E-02  1.8987535E-01
 220       5.00   72    0 5.00   18    0
   2.639   2.640   2.644   2.651   2.661   2.672   2.686   2.701   2.717   2.733
   2.750   2.766   2.782   2.795   2.808   2.817   2.825   2.829   2.831   2.829
   2.825   2.817   2.808   2.795   2.782   2.766   2.750   2.733   2.717   2.701
   2.686   2.672   2.661   2.651   2.644   2.640   2.639   2.640   2.644   2.651
   2.661   2.672   2.686   2.701   2.717   2.733   2.750   2.766   2.782   2.795
   2.808   2.817   2.825   2.829   2.831   2.829   2.825   2.817   2.808   2.795
   2.782   2.766   2.750   2.733   2.717   2.701   2.686   2.672   2.661   2.651
   2.644   2.640
   1.597   1.605   1.631   1.674   1.733   1.810   1.901   2.008   2.126   2.255
   2.389   2.526   2.659   2.784   2.896   2.989   3.059   3.102   3.117   3.102
   3.059   2.989   2.896   2.784   2.659   2.526   2.389   2.255   2.126   2.008
   1.901   1.810   1.733   1.674   1.631   1.605   1.597   1.605   1.631   1.674
   1.733   1.810   1.901   2.008   2.126   2.255   2.389   2.526   2.659   2.784
   2.896   2.989   3.059   3.102   3.117   3.102   3.059   2.989   2.896   2.784
   2.659   2.526   2.389   2.255   2.126   2.008   1.901   1.810   1.733   1.674
   1.631   1.605
   0.313   0.321   0.346   0.391   0.459   0.557   0.689   0.860   1.074   1.330
   1.623   1.944   2.281   2.616   2.928   3.198   3.406   3.538   3.583   3.538
   3.406   3.198   2.928   2.616   2.281   1.944   1.623   1.330   1.074   0.860
   0.689   0.557   0.459   0.391   0.346   0.321   0.313   0.321   0.346   0.391
   0.459   0.557   0.689   0.860   1.074   1.330   1.623   1.944   2.281   2.616
   2.928   3.198   3.406   3.538   3.583   3.538   3.406   3.198   2.928   2.616
   2.281   1.944   1.623   1.330   1.074   0.860   0.689   0.557   0.459   0.391
   0.346   0.321
  -0.318  -0.324  -0.340  -0.360  -0.375  -0.371  -0.328  -0.225  -0.043   0.234
   0.612   1.084   1.627   2.206   2.777   3.290   3.696   3.958   4.048   3.958
   3.696   3.290   2.777   2.206   1.627   1.084   0.612   0.234  -0.043  -0.225
  -0.328  -0.371  -0.375  -0.360  -0.340  -0.324  -0.318  -0.324  -0.340  -0.360
  -0.375  -0.371  -0.328  -0.225  -0.043   0.234   0.612   1.084   1.627   2.206
   2.777   3.290   3.696   3.958   4.048   3.958   3.696   3.290   2.777   2.206
   1.627   1.084   0.612   0.234  -0.043  -0.225  -0.328  -0.371  -0.375  -0.360
  -0.340  -0.324
  -0.115  -0.129  -0.173  -0.250  -0.358  -0.487  -0.612  -0.693  -0.683  -0.534
  -0.214   0.284   0.936   1.689   2.469   3.190   3.773   4.151   4.282   4.151
   3.773   3.190   2.469   1.689   0.936   0.284  -0.214  -0.534  -0.683  -0.693
  -0.612  -0.487  -0.358  -0.250  -0.173  -0.129  -0.115  -0.129  -0.173  -0.250
  -0.358  -0.487  -0.612  -0.693  -0.683  -0.534  -0.214   0.284   0.936   1.689
   2.469   3.190   3.773   4.151   4.282   4.151   3.773   3.190   2.469   1.689
   0.936   0.284  -0.214  -0.534  -0.683  -0.693  -0.612  -0.487  -0.358  -0.250
  -0.173  -0.129
   0.262   0.268   0.277   0.263   0.192   0.044  -0.173  -0.416  -0.607  -0.656
  -0.492  -0.084   0.544   1.320   2.143   2.906   3.519   3.913   4.049   3.913
   3.519   2.906   2.143   1.320   0.544  -0.084  -0.492  -0.656  -0.607  -0.416
  -0.173   0.044   0.192   0.263   0.277   0.268   0.262   0.268   0.277   0.263
   0.192   0.044  -0.173  -0.416  -0.607  -0.656  -0.492  -0.084   0.544   1.320
   2.143   2.906   3.519   3.913   4.049   3.913   3.519   2.906   2.143   1.320
   0.544  -0.084  -0.492  -0.656  -0.607  -0.416  -0.173   0.044   0.192   0.263
   0.277   0.268
   0.044   0.093   0.224   0.390   0.521   0.541   0.411   0.156  -0.127  -0.305
  -0.263   0.047   0.585   1.250   1.918   2.490   2.908   3.156   3.237   3.156
   2.908   2.490   1.918   1.250   0.585   0.047  -0.263  -0.305  -0.127   0.156
   0.411   0.541   0.521   0.390   0.224   0.093   0.044   0.093   0.224   0.390
   0.521   0.541   0.411   0.156  -0.127  -0.305  -0.263   0.047   0.585   1.250
   1.918   2.490   2.908   3.156   3.237   3.156   2.908   2.490   1.918   1.250
   0.585   0.047  -0.263  -0.305  -0.127   0.156   0.411   0.541   0.521   0.390
   0.224   0.093
  -0.661  -0.602  -0.419  -0.126   0.214   0.482   0.569   0.447   0.214   0.043
   0.089   0.398   0.889   1.406   1.805   2.017   2.069   2.043   2.023   2.043
   2.069   2.017   1.805   1.406   0.889   0.398   0.089   0.043   0.214   0.447
   0.569   0.482   0.214  -0.126  -0.419  -0.602  -0.661  -0.602  -0.419  -0.126
   0.214   0.482   0.569   0.447   0.214   0.043   0.089   0.398   0.889   1.406
   1.805   2.017   2.069   2.043   2.023   2.043   2.069   2.017   1.805   1.406
   0.889   0.398   0.089   0.043   0.214   0.447   0.569   0.482   0.214  -0.126
  -0.419  -0.602
  -0.705  -0.737  -0.761  -0.643  -0.335   0.049   0.309   0.332   0.189   0.089
   0.223   0.623   1.147   1.570   1.726   1.589   1.276   0.977   0.856   0.977
   1.276   1.589   1.726   1.570   1.147   0.623   0.223   0.089   0.189   0.332
   0.309   0.049  -0.335  -0.643  -0.761  -0.737  -0.705  -0.737  -0.761  -0.643
  -0.335   0.049   0.309   0.332   0.189   0.089   0.223   0.623   1.147   1.570
   1.726   1.589   1.276   0.977   0.856   0.977   1.276   1.589   1.726   1.570
   1.147   0.623   0.223   0.089   0.189   0.332   0.309   0.049  -0.335  -0.643
  -0.761  -0.737
   1.035   0.786   0.226  -0.239  -0.333  -0.114   0.128   0.165   0.020  -0.073
   0.106   0.575   1.144   1.544   1.593   1.287   0.789   0.346   0.170   0.346
   0.789   1.287   1.593   1.544   1.144   0.575   0.106  -0.073   0.020   0.165
   0.128  -0.114  -0.333  -0.239   0.226   0.786   1.035   0.786   0.226  -0.239
  -0.333  -0.114   0.128   0.165   0.020  -0.073   0.106   0.575   1.144   1.544
   1.593   1.287   0.789   0.346   0.170   0.346   0.789   1.287   1.593   1.544
   1.144   0.575   0.106  -0.073   0.020   0.165   0.128  -0.114  -0.333  -0.239
   0.226   0.786
   4.249   3.726   2.484   1.235   0.520   0.363   0.404   0.308   0.047  -0.149
  -0.056   0.347   0.879   1.288   1.386   1.135   0.663   0.216   0.033   0.216
   0.663   1.135   1.386   1.288   0.879   0.347  -0.056  -0.149   0.047   0.308
   0.404   0.363   0.520   1.235   2.484   3.726   4.249   3.726   2.484   1.235
   0.520   0.363   0.404   0.308   0.047  -0.149  -0.056   0.347   0.879   1.288
   1.386   1.135   0.663   0.216   0.033   0.216   0.663   1.135   1.386   1.288
   0.879   0.347  -0.056  -0.149   0.047   0.308   0.404   0.363   0.520   1.235
   2.484   3.726
   6.957   6.258   4.574   2.808   1.654   1.186   1.019   0.777   0.401   0.072
  -0.024   0.155   0.525   0.928   1.172   1.106   0.743   0.312   0.121   0.312
   0.743   1.106   1.172   0.928   0.525   0.155  -0.024   0.072   0.401   0.777
   1.019   1.186   1.654   2.808   4.574   6.258   6.957   6.258   4.574   2.808
   1.654   1.186   1.019   0.777   0.401   0.072  -0.024   0.155   0.525   0.928
   1.172   1.106   0.743   0.312   0.121   0.312   0.743   1.106   1.172   0.928
   0.525   0.155  -0.024   0.072   0.401   0.777   1.019   1.186   1.654   2.808
   4.574   6.258
   7.048   6.401   4.849   3.235   2.184   1.741   1.558   1.323   0.974   0.605
   0.316   0.191   0.311   0.671   1.061   1.162   0.838   0.335   0.093   0.335
   0.838   1.162   1.061   0.671   0.311   0.191   0.316   0.605   0.974   1.323
   1.558   1.741   2.184   3.235   4.849   6.401   7.048   6.401   4.849   3.235
   2.184   1.741   1.558   1.323   0.974   0.605   0.316   0.191   0.311   0.671
   1.061   1.162   0.838   0.335   0.093   0.335   0.838   1.162   1.061   0.671
   0.311   0.191   0.316   0.605   0.974   1.323   1.558   1.741   2.184   3.235
   4.849   6.401
   4.288   3.909   3.033   2.204   1.773   1.695   1.721   1.677   1.528   1.264
   0.881   0.498   0.367   0.633   1.083   1.258   0.903   0.292  -0.009   0.292
   0.903   1.258   1.083   0.633   0.367   0.498   0.881   1.264   1.528   1.677
   1.721   1.695   1.773   2.204   3.033   3.909   4.288   3.909   3.033   2.204
   1.773   1.695   1.721   1.677   1.528   1.264   0.881   0.498   0.367   0.633
   1.083   1.258   0.903   0.292  -0.009   0.292   0.903   1.258   1.083   0.633
   0.367   0.498   0.881   1.264   1.528   1.677   1.721   1.695   1.773   2.204
   3.033   3.909
   0.727   0.666   0.578   0.635   0.880   1.196   1.461   1.654   1.770   1.715
   1.396   0.924   0.627   0.745   1.124   1.312   1.024   0.483   0.211   0.483
   1.024   1.312   1.124   0.745   0.627   0.924   1.396   1.715   1.770   1.654
   1.461   1.196   0.880   0.635   0.578   0.666   0.727   0.666   0.578   0.635
   0.880   1.196   1.461   1.654   1.770   1.715   1.396   0.924   0.627   0.745
   1.124   1.312   1.024   0.483   0.211   0.483   1.024   1.312   1.124   0.745
   0.627   0.924   1.396   1.715   1.770   1.654   1.461   1.196   0.880   0.635
   0.578   0.666
  -1.127  -1.014  -0.694  -0.242   0.221   0.598   0.896   1.192   1.494   1.671
   1.572   1.231   0.899   0.827   1.022   1.243   1.271   1.135   1.050   1.135
   1.271   1.243   1.022   0.827   0.899   1.231   1.572   1.671   1.494   1.192
   0.896   0.598   0.221  -0.242  -0.694  -1.014  -1.127  -1.014  -0.694  -0.242
   0.221   0.598   0.896   1.192   1.494   1.671   1.572   1.231   0.899   0.827
   1.022   1.243   1.271   1.135   1.050   1.135   1.271   1.243   1.022   0.827
   0.899   1.231   1.572   1.671   1.494   1.192   0.896   0.598   0.221  -0.242
  -0.694  -1.014
  -0.639  -0.541  -0.307  -0.066   0.085   0.152   0.244   0.469   0.827   1.190
   1.380   1.307   1.041   0.787   0.763   1.062   1.582   2.071   2.271   2.071
   1.582   1.062   0.763   0.787   1.041   1.307   1.380   1.190   0.827   0.469
   0.244   0.152   0.085  -0.066  -0.307  -0.541  -0.639  -0.541  -0.307  -0.066
   0.085   0.152   0.244   0.469   0.827   1.190   1.380   1.307   1.041   0.787
   0.763   1.062   1.582   2.071   2.271   2.071   1.582   1.062   0.763   0.787
   1.041   1.307   1.380   1.190   0.827   0.469   0.244   0.152   0.085  -0.066
  -0.307  -0.541
   0.563   0.579   0.573   0.453   0.204  -0.068  -0.201  -0.089   0.258   0.722
   1.120   1.261   1.070   0.702   0.531   0.901   1.801   2.767   3.183   2.767
   1.801   0.901   0.531   0.702   1.070   1.261   1.120   0.722   0.258  -0.089
  -0.201  -0.068   0.204   0.453   0.573   0.579   0.563   0.579   0.573   0.453
   0.204  -0.068  -0.201  -0.089   0.258   0.722   1.120   1.261   1.070   0.702
   0.531   0.901   1.801   2.767   3.183   2.767   1.801   0.901   0.531   0.702
   1.070   1.261   1.120   0.722   0.258  -0.089  -0.201  -0.068   0.204   0.453
   0.573   0.579
 200       5.00   72    0 5.00   18    0
   0.348   0.348   0.350   0.353   0.356   0.361   0.366   0.372   0.378   0.385
   0.391   0.398   0.404   0.410   0.414   0.418   0.421   0.423   0.424   0.423
   0.421   0.418   0.414   0.410   0.404   0.398   0.391   0.385   0.378   0.372
   0.366   0.361   0.356   0.353   0.350   0.348   0.348   0.348   0.350   0.353
   0.356   0.361   0.366   0.372   0.378   0.385   0.391   0.398   0.404   0.410
   0.414   0.418   0.421   0.423   0.424   0.423   0.421   0.418   0.414   0.410
   0.404   0.398   0.391   0.385   0.378   0.372   0.366   0.361   0.356   0.353
   0.350   0.348
  -0.010  -0.008  -0.001   0.010   0.026   0.048   0.075   0.108   0.146   0.190
   0.237   0.288   0.339   0.388   0.433   0.472   0.502   0.520   0.526   0.520
   0.502   0.472   0.433   0.388   0.339   0.288   0.237   0.190   0.146   0.108
   0.075   0.048   0.026   0.010  -0.001  -0.008  -0.010  -0.008  -0.001   0.010
   0.026   0.048   0.075   0.108   0.146   0.190   0.237   0.288   0.339   0.388
   0.433   0.472   0.502   0.520   0.526   0.520   0.502   0.472   0.433   0.388
   0.339   0.288   0.237   0.190   0.146   0.108   0.075   0.048   0.026   0.010
  -0.001  -0.008
  -0.185  -0.187  -0.195  -0.206  -0.218  -0.228  -0.232  -0.225  -0.202  -0.159
  -0.094  -0.006   0.101   0.221   0.342   0.455   0.546   0.606   0.626   0.606
   0.546   0.455   0.342   0.221   0.101  -0.006  -0.094  -0.159  -0.202  -0.225
  -0.232  -0.228  -0.218  -0.206  -0.195  -0.187  -0.185  -0.187  -0.195  -0.206
  -0.218  -0.228  -0.232  -0.225  -0.202  -0.159  -0.094  -0.006   0.101   0.221
   0.342   0.455   0.546   0.606   0.626   0.606   0.546   0.455   0.342   0.221
   0.101  -0.006  -0.094  -0.159  -0.202  -0.225  -0.232  -0.228  -0.218  -0.206
  -0.195  -0.187
   0.430   0.418   0.381   0.319   0.233   0.126   0.005  -0.121  -0.237  -0.324
  -0.365  -0.344  -0.257  -0.110   0.079   0.280   0.458   0.581   0.625   0.581
   0.458   0.280   0.079  -0.110  -0.257  -0.344  -0.365  -0.324  -0.237  -0.121
   0.005   0.126   0.233   0.319   0.381   0.418   0.430   0.418   0.381   0.319
   0.233   0.126   0.005  -0.121  -0.237  -0.324  -0.365  -0.344  -0.257  -0.110
   0.079   0.280   0.458   0.581   0.625   0.581   0.458   0.280   0.079  -0.110
  -0.257  -0.344  -0.365  -0.324  -0.237  -0.121   0.005   0.126   0.233   0.319
   0.381   0.418
   1.837   1.821   1.771   1.685   1.556   1.378   1.143   0.853   0.524   0.186
  -0.116  -0.334  -0.430  -0.389  -0.225   0.014   0.261   0.446   0.514   0.446
   0.261   0.014  -0.225  -0.389  -0.430  -0.334  -0.116   0.186   0.524   0.853
   1.143   1.378   1.556   1.685   1.771   1.821   1.837   1.821   1.771   1.685
   1.556   1.378   1.143   0.853   0.524   0.186  -0.116  -0.334  -0.430  -0.389
  -0.225   0.014   0.261   0.446   0.514   0.446   0.261   0.014  -0.225  -0.389
  -0.430  -0.334  -0.116   0.186   0.524   0.853   1.143   1.378   1.556   1.685
   1.771   1.821
   3.188   3.171   3.125   3.059   2.974   2.852   2.657   2.355   1.928   1.396
   0.816   0.275  -0.137  -0.354  -0.355  -0.184   0.066   0.279   0.363   0.279
   0.066  -0.184  -0.355  -0.354  -0.137   0.275   0.816   1.396   1.928   2.355
   2.657   2.852   2.974   3.059   3.125   3.171   3.188   3.171   3.125   3.059
   2.974   2.852   2.657   2.355   1.928   1.396   0.816   0.275  -0.137  -0.354
  -0.355  -0.184   0.066   0.279   0.363   0.279   0.066  -0.184  -0.355  -0.354
  -0.137   0.275   0.816   1.396   1.928   2.355   2.657   2.852   2.974   3.059
   3.125   3.171
   3.436   3.402   3.326   3.269   3.275   3.333   3.374   3.308   3.058   2.599
   1.964   1.240   0.555   0.038  -0.220  -0.213  -0.030   0.175   0.263   0.175
  -0.030  -0.213  -0.220   0.038   0.555   1.240   1.964   2.599   3.058   3.308
   3.374   3.333   3.275   3.269   3.326   3.402   3.436   3.402   3.326   3.269
   3.275   3.333   3.374   3.308   3.058   2.599   1.964   1.240   0.555   0.038
  -0.220  -0.213  -0.030   0.175   0.263   0.175  -0.030  -0.213  -0.220   0.038
   0.555   1.240   1.964   2.599   3.058   3.308   3.374   3.333   3.275   3.269
   3.326   3.402
   2.375   2.302   2.146   2.051   2.126   2.375   2.698   2.967   3.080   2.976
   2.627   2.045   1.314   0.600   0.093  -0.093   0.002   0.198   0.293   0.198
   0.002  -0.093   0.093   0.600   1.314   2.045   2.627   2.976   3.080   2.967
   2.698   2.375   2.126   2.051   2.146   2.302   2.375   2.302   2.146   2.051
   2.126   2.375   2.698   2.967   3.080   2.976   2.627   2.045   1.314   0.600
   0.093  -0.093   0.002   0.198   0.293   0.198   0.002  -0.093   0.093   0.600
   1.314   2.045   2.627   2.976   3.080   2.967   2.698   2.375   2.126   2.051
   2.146   2.302
   0.907   0.798   0.574   0.451   0.571   0.902   1.311   1.703   2.069   2.398
   2.586   2.461   1.942   1.166   0.450   0.083   0.117   0.342   0.462   0.342
   0.117   0.083   0.450   1.166   1.942   2.461   2.586   2.398   2.069   1.703
   1.311   0.902   0.571   0.451   0.574   0.798   0.907   0.798   0.574   0.451
   0.571   0.902   1.311   1.703   2.069   2.398   2.586   2.461   1.942   1.166
   0.450   0.083   0.117   0.342   0.462   0.342   0.117   0.083   0.450   1.166
   1.942   2.461   2.586   2.398   2.069   1.703   1.311   0.902   0.571   0.451
   0.574   0.798
   0.122   0.007  -0.207  -0.275  -0.108   0.152   0.333   0.475   0.810   1.476
   2.273   2.741   2.531   1.720   0.781   0.223   0.213   0.493   0.652   0.493
   0.213   0.223   0.781   1.720   2.531   2.741   2.273   1.476   0.810   0.475
   0.333   0.152  -0.108  -0.275  -0.207   0.007   0.122   0.007  -0.207  -0.275
  -0.108   0.152   0.333   0.475   0.810   1.476   2.273   2.741   2.531   1.720
   0.781   0.223   0.213   0.493   0.652   0.493   0.213   0.223   0.781   1.720
   2.531   2.741   2.273   1.476   0.810   0.475   0.333   0.152  -0.108  -0.275
  -0.207   0.007
   0.207   0.112  -0.032   0.006   0.206   0.284   0.060  -0.219  -0.022   0.923
   2.262   3.208   3.173   2.232   1.038   0.284   0.204   0.496   0.670   0.496
   0.204   0.284   1.038   2.232   3.173   3.208   2.262   0.923  -0.022  -0.219
   0.060   0.284   0.206   0.006  -0.032   0.112   0.207   0.112  -0.032   0.006
   0.206   0.284   0.060  -0.219  -0.022   0.923   2.262   3.208   3.173   2.232
   1.038   0.284   0.204   0.496   0.670   0.496   0.204   0.284   1.038   2.232
   3.173   3.208   2.262   0.923  -0.022  -0.219   0.060   0.284   0.206   0.006
  -0.032   0.112
   0.470   0.395   0.312   0.412   0.587   0.484  -0.017  -0.470  -0.183   1.078
   2.728   3.774   3.611   2.466   1.126   0.288   0.122   0.316   0.444   0.316
   0.122   0.288   1.126   2.466   3.611   3.774   2.728   1.078  -0.183  -0.470
  -0.017   0.484   0.587   0.412   0.312   0.395   0.470   0.395   0.312   0.412
   0.587   0.484  -0.017  -0.470  -0.183   1.078   2.728   3.774   3.611   2.466
   1.126   0.288   0.122   0.316   0.444   0.316   0.122   0.288   1.126   2.466
   3.611   3.774   2.728   1.078  -0.183  -0.470  -0.017   0.484   0.587   0.412
   0.312   0.395
   0.316   0.259   0.207   0.306   0.428   0.280  -0.128  -0.278   0.410   1.898
   3.395   3.983   3.386   2.119   0.953   0.305   0.114   0.119   0.138   0.119
   0.114   0.305   0.953   2.119   3.386   3.983   3.395   1.898   0.410  -0.278
  -0.128   0.280   0.428   0.306   0.207   0.259   0.316   0.259   0.207   0.306
   0.428   0.280  -0.128  -0.278   0.410   1.898   3.395   3.983   3.386   2.119
   0.953   0.305   0.114   0.119   0.138   0.119   0.114   0.305   0.953   2.119
   3.386   3.983   3.395   1.898   0.410  -0.278  -0.128   0.280   0.428   0.306
   0.207   0.259
  -0.099  -0.128  -0.138  -0.038   0.087   0.104   0.138   0.593   1.686   3.025
   3.799   3.493   2.378   1.222   0.574   0.379   0.277   0.106   0.009   0.106
   0.277   0.379   0.574   1.222   2.378   3.493   3.799   3.025   1.686   0.593
   0.138   0.104   0.087  -0.038  -0.138  -0.128  -0.099  -0.128  -0.138  -0.038
   0.087   0.104   0.138   0.593   1.686   3.025   3.799   3.493   2.378   1.222
   0.574   0.379   0.277   0.106   0.009   0.106   0.277   0.379   0.574   1.222
   2.378   3.493   3.799   3.025   1.686   0.593   0.138   0.104   0.087  -0.038
  -0.138  -0.128
  -0.236  -0.236  -0.202  -0.084   0.118   0.434   1.008   1.956   3.075   3.785
   3.550   2.419   1.078   0.285   0.224   0.459   0.491   0.272   0.130   0.272
   0.491   0.459   0.224   0.285   1.078   2.419   3.550   3.785   3.075   1.956
   1.008   0.434   0.118  -0.084  -0.202  -0.236  -0.236  -0.236  -0.202  -0.084
   0.118   0.434   1.008   1.956   3.075   3.785   3.550   2.419   1.078   0.285
   0.224   0.459   0.491   0.272   0.130   0.272   0.491   0.459   0.224   0.285
   1.078   2.419   3.550   3.785   3.075   1.956   1.008   0.434   0.118  -0.084
  -0.202  -0.236
   0.104   0.099   0.099   0.167   0.420   0.999   1.935   2.992   3.678   3.539
   2.550   1.210   0.205  -0.099   0.129   0.439   0.519   0.404   0.324   0.404
   0.519   0.439   0.129  -0.099   0.205   1.210   2.550   3.539   3.678   2.992
   1.935   0.999   0.420   0.167   0.099   0.099   0.104   0.099   0.099   0.167
   0.420   0.999   1.935   2.992   3.678   3.539   2.550   1.210   0.205  -0.099
   0.129   0.439   0.519   0.404   0.324   0.404   0.519   0.439   0.129  -0.099
   0.205   1.210   2.550   3.539   3.678   2.992   1.935   0.999   0.420   0.167
   0.099   0.099
   0.644   0.585   0.441   0.345   0.548   1.242   2.284   3.130   3.197   2.371
   1.166   0.285   0.030   0.165   0.296   0.298   0.293   0.359   0.406   0.359
   0.293   0.298   0.296   0.165   0.030   0.285   1.166   2.371   3.197   3.130
   2.284   1.242   0.548   0.345   0.441   0.585   0.644   0.585   0.441   0.345
   0.548   1.242   2.284   3.130   3.197   2.371   1.166   0.285   0.030   0.165
   0.296   0.298   0.293   0.359   0.406   0.359   0.293   0.298   0.296   0.165
   0.030   0.285   1.166   2.371   3.197   3.130   2.284   1.242   0.548   0.345
   0.441   0.585
   1.007   0.893   0.604   0.347   0.464   1.167   2.183   2.799   2.437   1.272
   0.154  -0.182   0.188   0.575   0.497   0.157   0.041   0.240   0.388   0.240
   0.041   0.157   0.497   0.575   0.188  -0.182   0.154   1.272   2.437   2.799
   2.183   1.167   0.464   0.347   0.604   0.893   1.007   0.893   0.604   0.347
   0.464   1.167   2.183   2.799   2.437   1.272   0.154  -0.182   0.188   0.575
   0.497   0.157   0.041   0.240   0.388   0.240   0.041   0.157   0.497   0.575
   0.188  -0.182   0.154   1.272   2.437   2.799   2.183   1.167   0.464   0.347
   0.604   0.893
 111       5.00   72    0 5.00   18    0
   0.384   0.386   0.390   0.398   0.407   0.420   0.434   0.450   0.467   0.484
   0.502   0.519   0.536   0.551   0.564   0.574   0.582   0.587   0.589   0.587
   0.582   0.574   0.564   0.551   0.536   0.519   0.502   0.484   0.467   0.450
   0.434   0.420   0.407   0.398   0.390   0.386   0.384   0.386   0.390   0.398
   0.407   0.420   0.434   0.450   0.467   0.484   0.502   0.519   0.536   0.551
   0.564   0.574   0.582   0.587   0.589   0.587   0.582   0.574   0.564   0.551
   0.536   0.519   0.502   0.484   0.467   0.450   0.434   0.420   0.407   0.398
   0.390   0.386
  -0.516  -0.512  -0.501  -0.482  -0.453  -0.412  -0.358  -0.290  -0.207  -0.111
  -0.005   0.107   0.221   0.331   0.431   0.516   0.580   0.620   0.634   0.620
   0.580   0.516   0.431   0.331   0.221   0.107  -0.005  -0.111  -0.207  -0.290
  -0.358  -0.412  -0.453  -0.482  -0.501  -0.512  -0.516  -0.512  -0.501  -0.482
  -0.453  -0.412  -0.358  -0.290  -0.207  -0.111  -0.005   0.107   0.221   0.331
   0.431   0.516   0.580   0.620   0.634   0.620   0.580   0.516   0.431   0.331
   0.221   0.107  -0.005  -0.111  -0.207  -0.290  -0.358  -0.412  -0.453  -0.482
  -0.501  -0.512
   0.050   0.022  -0.057  -0.175  -0.315  -0.454  -0.572  -0.649  -0.673  -0.637
  -0.544  -0.400  -0.220  -0.023   0.174   0.350   0.489   0.578   0.608   0.578
   0.489   0.350   0.174  -0.023  -0.220  -0.400  -0.544  -0.637  -0.673  -0.649
  -0.572  -0.454  -0.315  -0.175  -0.057   0.022   0.050   0.022  -0.057  -0.175
  -0.315  -0.454  -0.572  -0.649  -0.673  -0.637  -0.544  -0.400  -0.220  -0.023
   0.174   0.350   0.489   0.578   0.608   0.578   0.489   0.350   0.174  -0.023
  -0.220  -0.400  -0.544  -0.637  -0.673  -0.649  -0.572  -0.454  -0.315  -0.175
  -0.057   0.022
   3.089   2.987   2.692   2.242   1.691   1.102   0.540   0.058  -0.305  -0.531
  -0.620  -0.587  -0.462  -0.278  -0.071   0.127   0.289   0.395   0.431   0.395
   0.289   0.127  -0.071  -0.278  -0.462  -0.587  -0.620  -0.531  -0.305   0.058
   0.540   1.102   1.691   2.242   2.692   2.987   3.089   2.987   2.692   2.242
   1.691   1.102   0.540   0.058  -0.305  -0.531  -0.620  -0.587  -0.462  -0.278
  -0.071   0.127   0.289   0.395   0.431   0.395   0.289   0.127  -0.071  -0.278
  -0.462  -0.587  -0.620  -0.531  -0.305   0.058   0.540   1.102   1.691   2.242
   2.692   2.987
   6.272   6.103   5.617   4.875   3.967   2.995   2.058   1.238   0.587   0.124
  -0.158  -0.285  -0.296  -0.230  -0.121  -0.002   0.103   0.174   0.199   0.174
   0.103  -0.002  -0.121  -0.230  -0.296  -0.285  -0.158   0.124   0.587   1.238
   2.058   2.995   3.967   4.875   5.617   6.103   6.272   6.103   5.617   4.875
   3.967   2.995   2.058   1.238   0.587   0.124  -0.158  -0.285  -0.296  -0.230
  -0.121  -0.002   0.103   0.174   0.199   0.174   0.103  -0.002  -0.121  -0.230
  -0.296  -0.285  -0.158   0.124   0.587   1.238   2.058   2.995   3.967   4.875
   5.617   6.103
   6.598   6.440   5.988   5.298   4.457   3.562   2.706   1.955   1.345   0.876
   0.530   0.282   0.114   0.017  -0.015   0.005   0.054   0.102   0.121   0.102
   0.054   0.005  -0.015   0.017   0.114   0.282   0.530   0.876   1.345   1.955
   2.706   3.562   4.457   5.298   5.988   6.440   6.598   6.440   5.988   5.298
   4.457   3.562   2.706   1.955   1.345   0.876   0.530   0.282   0.114   0.017
  -0.015   0.005   0.054   0.102   0.121   0.102   0.054   0.005  -0.015   0.017
   0.114   0.282   0.530   0.876   1.345   1.955   2.706   3.562   4.457   5.298
   5.988   6.440
   3.971   3.909   3.728   3.450   3.106   2.741   2.391   2.075   1.783   1.485
   1.152   0.787   0.430   0.151   0.007   0.010   0.114   0.232   0.282   0.232
   0.114   0.010   0.007   0.151   0.430   0.787   1.152   1.485   1.783   2.075
   2.391   2.741   3.106   3.450   3.728   3.909   3.971   3.909   3.728   3.450
   3.106   2.741   2.391   2.075   1.783   1.485   1.152   0.787   0.430   0.151
   0.007   0.010   0.114   0.232   0.282   0.232   0.114   0.010   0.007   0.151
   0.430   0.787   1.152   1.485   1.783   2.075   2.391   2.741   3.106   3.450
   3.728   3.909
   0.966   1.008   1.120   1.280   1.462   1.653   1.841   2.000   2.074   1.988
   1.692   1.204   0.637   0.154  -0.098  -0.074   0.144   0.385   0.488   0.385
   0.144  -0.074  -0.098   0.154   0.637   1.204   1.692   1.988   2.074   2.000
   1.841   1.653   1.462   1.280   1.120   1.008   0.966   1.008   1.120   1.280
   1.462   1.653   1.841   2.000   2.074   1.988   1.692   1.204   0.637   0.154
  -0.098  -0.074   0.144   0.385   0.488   0.385   0.144  -0.074  -0.098   0.154
   0.637   1.204   1.692   1.988   2.074   2.000   1.841   1.653   1.462   1.280
   1.120   1.008
  -0.378  -0.308  -0.111   0.178   0.524   0.910   1.330   1.761   2.128   2.309
   2.189   1.747   1.095   0.453   0.039  -0.050   0.117   0.349   0.453   0.349
   0.117  -0.050   0.039   0.453   1.095   1.747   2.189   2.309   2.128   1.761
   1.330   0.910   0.524   0.178  -0.111  -0.308  -0.378  -0.308  -0.111   0.178
   0.524   0.910   1.330   1.761   2.128   2.309   2.189   1.747   1.095   0.453
   0.039  -0.050   0.117   0.349   0.453   0.349   0.117  -0.050   0.039   0.453
   1.095   1.747   2.189   2.309   2.128   1.761   1.330   0.910   0.524   0.178
  -0.111  -0.308
  -0.279  -0.256  -0.189  -0.080   0.074   0.295   0.622   1.081   1.632   2.140
   2.419   2.341   1.923   1.325   0.763   0.384   0.211   0.171   0.171   0.171
   0.211   0.384   0.763   1.325   1.923   2.341   2.419   2.140   1.632   1.081
   0.622   0.295   0.074  -0.080  -0.189  -0.256  -0.279  -0.256  -0.189  -0.080
   0.074   0.295   0.622   1.081   1.632   2.140   2.419   2.341   1.923   1.325
   0.763   0.384   0.211   0.171   0.171   0.171   0.211   0.384   0.763   1.325
   1.923   2.341   2.419   2.140   1.632   1.081   0.622   0.295   0.074  -0.080
  -0.189  -0.256
   0.080   0.045  -0.041  -0.134  -0.198  -0.206  -0.107   0.175   0.685   1.361
   2.026   2.470   2.567   2.322   1.832   1.222   0.628   0.188   0.024   0.188
   0.628   1.222   1.832   2.322   2.567   2.470   2.026   1.361   0.685   0.175
  -0.107  -0.206  -0.198  -0.134  -0.041   0.045   0.080   0.045  -0.041  -0.134
  -0.198  -0.206  -0.107   0.175   0.685   1.361   2.026   2.470   2.567   2.322
   1.832   1.222   0.628   0.188   0.024   0.188   0.628   1.222   1.832   2.322
   2.567   2.470   2.026   1.361   0.685   0.175  -0.107  -0.206  -0.198  -0.134
  -0.041   0.045
   0.180   0.126   0.006  -0.101  -0.162  -0.208  -0.264  -0.262  -0.073   0.385
   1.057   1.772   2.340   2.615   2.515   2.039   1.331   0.686   0.425   0.686
   1.331   2.039   2.515   2.615   2.340   1.772   1.057   0.385  -0.073  -0.262
  -0.264  -0.208  -0.162  -0.101   0.006   0.126   0.180   0.126   0.006  -0.101
  -0.162  -0.208  -0.264  -0.262  -0.073   0.385   1.057   1.772   2.340   2.615
   2.515   2.039   1.331   0.686   0.425   0.686   1.331   2.039   2.515   2.615
   2.340   1.772   1.057   0.385  -0.073  -0.262  -0.264  -0.208  -0.162  -0.101
   0.006   0.126
   0.111   0.062  -0.026  -0.040   0.053   0.158   0.146  -0.004  -0.160  -0.143
   0.142   0.662   1.308   1.929   2.334   2.360   2.018   1.564   1.357   1.564
   2.018   2.360   2.334   1.929   1.308   0.662   0.142  -0.143  -0.160  -0.004
   0.146   0.158   0.053  -0.040  -0.026   0.062   0.111   0.062  -0.026  -0.040
   0.053   0.158   0.146  -0.004  -0.160  -0.143   0.142   0.662   1.308   1.929
   2.334   2.360   2.018   1.564   1.357   1.564   2.018   2.360   2.334   1.929
   1.308   0.662   0.142  -0.143  -0.160  -0.004   0.146   0.158   0.053  -0.040
  -0.026   0.062
  -0.037  -0.090  -0.190  -0.209  -0.068   0.176   0.362   0.367   0.207   0.011
  -0.088  -0.008   0.304   0.852   1.521   2.081   2.352   2.374   2.344   2.374
   2.352   2.081   1.521   0.852   0.304  -0.008  -0.088   0.011   0.207   0.367
   0.362   0.176  -0.068  -0.209  -0.190  -0.090  -0.037  -0.090  -0.190  -0.209
  -0.068   0.176   0.362   0.367   0.207   0.011  -0.088  -0.008   0.304   0.852
   1.521   2.081   2.352   2.374   2.344   2.374   2.352   2.081   1.521   0.852
   0.304  -0.008  -0.088   0.011   0.207   0.367   0.362   0.176  -0.068  -0.209
  -0.190  -0.090
   0.051   0.005  -0.121  -0.272  -0.329  -0.202   0.068   0.334   0.469   0.444
   0.295   0.093  -0.020   0.148   0.693   1.481   2.231   2.720   2.882   2.720
   2.231   1.481   0.693   0.148  -0.020   0.093   0.295   0.444   0.469   0.334
   0.068  -0.202  -0.329  -0.272  -0.121   0.005   0.051   0.005  -0.121  -0.272
  -0.329  -0.202   0.068   0.334   0.469   0.444   0.295   0.093  -0.020   0.148
   0.693   1.481   2.231   2.720   2.882   2.720   2.231   1.481   0.693   0.148
  -0.020   0.093   0.295   0.444   0.469   0.334   0.068  -0.202  -0.329  -0.272
  -0.121   0.005
   1.047   1.080   1.062   0.822   0.407   0.068  -0.002   0.162   0.399   0.580
   0.620   0.465   0.179   0.005   0.228   0.915   1.823   2.567   2.849   2.567
   1.823   0.915   0.228   0.005   0.179   0.465   0.620   0.580   0.399   0.162
  -0.002   0.068   0.407   0.822   1.062   1.080   1.047   1.080   1.062   0.822
   0.407   0.068  -0.002   0.162   0.399   0.580   0.620   0.465   0.179   0.005
   0.228   0.915   1.823   2.567   2.849   2.567   1.823   0.915   0.228   0.005
   0.179   0.465   0.620   0.580   0.399   0.162  -0.002   0.068   0.407   0.822
   1.062   1.080
   3.045   3.225   3.485   3.315   2.568   1.580   0.779   0.333   0.194   0.272
   0.450   0.530   0.374   0.107   0.084   0.553   1.396   2.191   2.513   2.191
   1.396   0.553   0.084   0.107   0.374   0.530   0.450   0.272   0.194   0.333
   0.779   1.580   2.568   3.315   3.485   3.225   3.045   3.225   3.485   3.315
   2.568   1.580   0.779   0.333   0.194   0.272   0.450   0.530   0.374   0.107
   0.084   0.553   1.396   2.191   2.513   2.191   1.396   0.553   0.084   0.107
   0.374   0.530   0.450   0.272   0.194   0.333   0.779   1.580   2.568   3.315
   3.485   3.225
   4.798   5.105   5.618   5.572   4.642   3.178   1.750   0.687   0.068  -0.101
   0.089   0.355   0.390   0.181   0.067   0.395   1.143   1.913   2.236   1.913
   1.143   0.395   0.067   0.181   0.390   0.355   0.089  -0.101   0.068   0.687
   1.750   3.178   4.642   5.572   5.618   5.105   4.798   5.105   5.618   5.572
   4.642   3.178   1.750   0.687   0.068  -0.101   0.089   0.355   0.390   0.181
   0.067   0.395   1.143   1.913   2.236   1.913   1.143   0.395   0.067   0.181
   0.390   0.355   0.089  -0.101   0.068   0.687   1.750   3.178   4.642   5.572
   5.618   5.105
TEXTURE_INDEX=   7.7736
ERR_CF 220         1080     464  115.49   28.85
ERR_CF 200         1080     272  144.99   22.74
ERR_CF 111         1050     264  275.26   20.14
