TEXEVAL                                                                         
Analysis started on 31-Aug-18 11:33:24                                          
 LMAX=16LFMAX=03 CUBIC ORTHO   
 220      5.00 5.00
 200      5.00 5.00
 111      5.00 5.00
 220       5.00   72    0 5.00   15    0
   4.448   4.448   4.448   4.448   4.448   4.448   4.448   4.448   4.448   4.448
   4.448   4.448   4.448   4.448   4.448   4.448   4.448   4.448   4.448   4.448
   4.448   4.448   4.448   4.448   4.448   4.448   4.448   4.448   4.448   4.448
   4.448   4.448   4.448   4.448   4.448   4.448   4.448   4.448   4.448   4.448
   4.448   4.448   4.448   4.448   4.448   4.448   4.448   4.448   4.448   4.448
   4.448   4.448   4.448   4.448   4.448   4.448   4.448   4.448   4.448   4.448
   4.448   4.448   4.448   4.448   4.448   4.448   4.448   4.448   4.448   4.448
   4.448   4.448
   1.111   1.087   1.127   1.206   1.339   1.387   1.544   1.711   1.924   2.174
   2.548   2.958   3.425   4.004   4.565   5.129   5.649   6.033   6.094   6.033
   5.649   5.129   4.565   4.004   3.425   2.958   2.548   2.174   1.924   1.711
   1.544   1.387   1.339   1.206   1.127   1.087   1.111   1.087   1.127   1.206
   1.339   1.387   1.544   1.711   1.924   2.174   2.548   2.958   3.425   4.004
   4.565   5.129   5.649   6.033   6.094   6.033   5.649   5.129   4.565   4.004
   3.425   2.958   2.548   2.174   1.924   1.711   1.544   1.387   1.339   1.206
   1.127   1.087
   0.186   0.193   0.194   0.231   0.275   0.247   0.338   0.428   0.532   0.661
   0.997   1.344   1.913   2.676   3.673   4.734   5.774   6.712   7.088   6.712
   5.774   4.734   3.673   2.676   1.913   1.344   0.997   0.661   0.532   0.428
   0.338   0.247   0.275   0.231   0.194   0.193   0.186   0.193   0.194   0.231
   0.275   0.247   0.338   0.428   0.532   0.661   0.997   1.344   1.913   2.676
   3.673   4.734   5.774   6.712   7.088   6.712   5.774   4.734   3.673   2.676
   1.913   1.344   0.997   0.661   0.532   0.428   0.338   0.247   0.275   0.231
   0.194   0.193
   0.158   0.146   0.135   0.146   0.170   0.142   0.153   0.176   0.216   0.241
   0.381   0.569   0.971   1.635   2.711   4.195   6.000   7.649   8.230   7.649
   6.000   4.195   2.711   1.635   0.971   0.569   0.381   0.241   0.216   0.176
   0.153   0.142   0.170   0.146   0.135   0.146   0.158   0.146   0.135   0.146
   0.170   0.142   0.153   0.176   0.216   0.241   0.381   0.569   0.971   1.635
   2.711   4.195   6.000   7.649   8.230   7.649   6.000   4.195   2.711   1.635
   0.971   0.569   0.381   0.241   0.216   0.176   0.153   0.142   0.170   0.146
   0.135   0.146
   0.117   0.146   0.118   0.114   0.143   0.131   0.134   0.139   0.145   0.167
   0.212   0.279   0.481   0.951   1.809   3.398   5.676   7.870   8.843   7.870
   5.676   3.398   1.809   0.951   0.481   0.279   0.212   0.167   0.145   0.139
   0.134   0.131   0.143   0.114   0.118   0.146   0.117   0.146   0.118   0.114
   0.143   0.131   0.134   0.139   0.145   0.167   0.212   0.279   0.481   0.951
   1.809   3.398   5.676   7.870   8.843   7.870   5.676   3.398   1.809   0.951
   0.481   0.279   0.212   0.167   0.145   0.139   0.134   0.131   0.143   0.114
   0.118   0.146
   0.049   0.135   0.067   0.076   0.095   0.091   0.120   0.107   0.121   0.172
   0.169   0.237   0.365   0.777   1.626   3.229   5.183   6.813   7.552   6.813
   5.183   3.229   1.626   0.777   0.365   0.237   0.169   0.172   0.121   0.107
   0.120   0.091   0.095   0.076   0.067   0.135   0.049   0.135   0.067   0.076
   0.095   0.091   0.120   0.107   0.121   0.172   0.169   0.237   0.365   0.777
   1.626   3.229   5.183   6.813   7.552   6.813   5.183   3.229   1.626   0.777
   0.365   0.237   0.169   0.172   0.121   0.107   0.120   0.091   0.095   0.076
   0.067   0.135
   0.038   0.087   0.072   0.060   0.064   0.086   0.084   0.091   0.141   0.147
   0.196   0.271   0.499   1.101   2.283   3.990   4.538   4.325   3.958   4.325
   4.538   3.990   2.283   1.101   0.499   0.271   0.196   0.147   0.141   0.091
   0.084   0.086   0.064   0.060   0.072   0.087   0.038   0.087   0.072   0.060
   0.064   0.086   0.084   0.091   0.141   0.147   0.196   0.271   0.499   1.101
   2.283   3.990   4.538   4.325   3.958   4.325   4.538   3.990   2.283   1.101
   0.499   0.271   0.196   0.147   0.141   0.091   0.084   0.086   0.064   0.060
   0.072   0.087
   0.074   0.082   0.100   0.072   0.067   0.088   0.068   0.092   0.160   0.154
   0.189   0.300   0.643   1.631   3.075   4.115   3.137   1.853   1.300   1.853
   3.137   4.115   3.075   1.631   0.643   0.300   0.189   0.154   0.160   0.092
   0.068   0.088   0.067   0.072   0.100   0.082   0.074   0.082   0.100   0.072
   0.067   0.088   0.068   0.092   0.160   0.154   0.189   0.300   0.643   1.631
   3.075   4.115   3.137   1.853   1.300   1.853   3.137   4.115   3.075   1.631
   0.643   0.300   0.189   0.154   0.160   0.092   0.068   0.088   0.067   0.072
   0.100   0.082
   0.085   0.086   0.077   0.068   0.081   0.119   0.074   0.088   0.148   0.185
   0.188   0.278   0.736   1.828   3.313   3.071   1.616   0.662   0.463   0.662
   1.616   3.071   3.313   1.828   0.736   0.278   0.188   0.185   0.148   0.088
   0.074   0.119   0.081   0.068   0.077   0.086   0.085   0.086   0.077   0.068
   0.081   0.119   0.074   0.088   0.148   0.185   0.188   0.278   0.736   1.828
   3.313   3.071   1.616   0.662   0.463   0.662   1.616   3.071   3.313   1.828
   0.736   0.278   0.188   0.185   0.148   0.088   0.074   0.119   0.081   0.068
   0.077   0.086
   0.256   0.257   0.130   0.102   0.075   0.140   0.069   0.098   0.106   0.126
   0.221   0.228   0.671   1.531   2.779   1.974   0.771   0.275   0.176   0.275
   0.771   1.974   2.779   1.531   0.671   0.228   0.221   0.126   0.106   0.098
   0.069   0.140   0.075   0.102   0.130   0.257   0.256   0.257   0.130   0.102
   0.075   0.140   0.069   0.098   0.106   0.126   0.221   0.228   0.671   1.531
   2.779   1.974   0.771   0.275   0.176   0.275   0.771   1.974   2.779   1.531
   0.671   0.228   0.221   0.126   0.106   0.098   0.069   0.140   0.075   0.102
   0.130   0.257
   2.506   2.098   1.109   0.477   0.198   0.156   0.062   0.156   0.073   0.099
   0.148   0.188   0.362   1.147   1.853   1.291   0.380   0.171   0.134   0.171
   0.380   1.291   1.853   1.147   0.362   0.188   0.148   0.099   0.073   0.156
   0.062   0.156   0.198   0.477   1.109   2.098   2.506   2.098   1.109   0.477
   0.198   0.156   0.062   0.156   0.073   0.099   0.148   0.188   0.362   1.147
   1.853   1.291   0.380   0.171   0.134   0.171   0.380   1.291   1.853   1.147
   0.362   0.188   0.148   0.099   0.073   0.156   0.062   0.156   0.198   0.477
   1.109   2.098
   8.987   7.598   4.435   1.626   0.831   0.378   0.228   0.249   0.103   0.123
   0.056   0.128   0.178   0.818   1.267   0.814   0.165   0.083   0.074   0.083
   0.165   0.814   1.267   0.818   0.178   0.128   0.056   0.123   0.103   0.249
   0.228   0.378   0.831   1.626   4.435   7.598   8.987   7.598   4.435   1.626
   0.831   0.378   0.228   0.249   0.103   0.123   0.056   0.128   0.178   0.818
   1.267   0.814   0.165   0.083   0.074   0.083   0.165   0.814   1.267   0.818
   0.178   0.128   0.056   0.123   0.103   0.249   0.228   0.378   0.831   1.626
   4.435   7.598
   8.872   8.017   5.172   2.859   2.061   1.541   0.891   0.812   0.317   0.403
   0.221   0.185   0.270   0.576   1.104   0.735   0.101   0.093   0.037   0.093
   0.101   0.735   1.104   0.576   0.270   0.185   0.221   0.403   0.317   0.812
   0.891   1.541   2.061   2.859   5.172   8.017   8.872   8.017   5.172   2.859
   2.061   1.541   0.891   0.812   0.317   0.403   0.221   0.185   0.270   0.576
   1.104   0.735   0.101   0.093   0.037   0.093   0.101   0.735   1.104   0.576
   0.270   0.185   0.221   0.403   0.317   0.812   0.891   1.541   2.061   2.859
   5.172   8.017
   2.620   2.588   2.096   1.926   2.033   2.077   1.693   1.730   1.218   0.999
   0.655   0.394   0.339   0.523   1.107   1.051   0.288   0.171   0.056   0.171
   0.288   1.051   1.107   0.523   0.339   0.394   0.655   0.999   1.218   1.730
   1.693   2.077   2.033   1.926   2.096   2.588   2.620   2.588   2.096   1.926
   2.033   2.077   1.693   1.730   1.218   0.999   0.655   0.394   0.339   0.523
   1.107   1.051   0.288   0.171   0.056   0.171   0.288   1.051   1.107   0.523
   0.339   0.394   0.655   0.999   1.218   1.730   1.693   2.077   2.033   1.926
   2.096   2.588
   0.532   0.397   0.402   0.395   0.755   0.952   1.229   1.653   1.754   1.762
   1.094   0.478   0.322   0.553   0.898   1.233   0.587   0.370   0.330   0.370
   0.587   1.233   0.898   0.553   0.322   0.478   1.094   1.762   1.754   1.653
   1.229   0.952   0.755   0.395   0.402   0.397   0.532   0.397   0.402   0.395
   0.755   0.952   1.229   1.653   1.754   1.762   1.094   0.478   0.322   0.553
   0.898   1.233   0.587   0.370   0.330   0.370   0.587   1.233   0.898   0.553
   0.322   0.478   1.094   1.762   1.754   1.653   1.229   0.952   0.755   0.395
   0.402   0.397
 200       5.00   72    0 5.00   15    0
   0.113   0.113   0.113   0.113   0.113   0.113   0.113   0.113   0.113   0.113
   0.113   0.113   0.113   0.113   0.113   0.113   0.113   0.113   0.113   0.113
   0.113   0.113   0.113   0.113   0.113   0.113   0.113   0.113   0.113   0.113
   0.113   0.113   0.113   0.113   0.113   0.113   0.113   0.113   0.113   0.113
   0.113   0.113   0.113   0.113   0.113   0.113   0.113   0.113   0.113   0.113
   0.113   0.113   0.113   0.113   0.113   0.113   0.113   0.113   0.113   0.113
   0.113   0.113   0.113   0.113   0.113   0.113   0.113   0.113   0.113   0.113
   0.113   0.113
   0.131   0.132   0.116   0.118   0.114   0.120   0.104   0.111   0.108   0.097
   0.100   0.104   0.104   0.098   0.106   0.104   0.098   0.101   0.103   0.101
   0.098   0.104   0.106   0.098   0.104   0.104   0.100   0.097   0.108   0.111
   0.104   0.120   0.114   0.118   0.116   0.132   0.131   0.132   0.116   0.118
   0.114   0.120   0.104   0.111   0.108   0.097   0.100   0.104   0.104   0.098
   0.106   0.104   0.098   0.101   0.103   0.101   0.098   0.104   0.106   0.098
   0.104   0.104   0.100   0.097   0.108   0.111   0.104   0.120   0.114   0.118
   0.116   0.132
   0.162   0.152   0.157   0.141   0.146   0.134   0.130   0.122   0.114   0.092
   0.096   0.105   0.100   0.104   0.096   0.096   0.096   0.108   0.086   0.108
   0.096   0.096   0.096   0.104   0.100   0.105   0.096   0.092   0.114   0.122
   0.130   0.134   0.146   0.141   0.157   0.152   0.162   0.152   0.157   0.141
   0.146   0.134   0.130   0.122   0.114   0.092   0.096   0.105   0.100   0.104
   0.096   0.096   0.096   0.108   0.086   0.108   0.096   0.096   0.096   0.104
   0.100   0.105   0.096   0.092   0.114   0.122   0.130   0.134   0.146   0.141
   0.157   0.152
   0.343   0.303   0.356   0.295   0.279   0.211   0.217   0.179   0.146   0.120
   0.109   0.110   0.095   0.102   0.098   0.082   0.094   0.100   0.077   0.100
   0.094   0.082   0.098   0.102   0.095   0.110   0.109   0.120   0.146   0.179
   0.217   0.211   0.279   0.295   0.356   0.303   0.343   0.303   0.356   0.295
   0.279   0.211   0.217   0.179   0.146   0.120   0.109   0.110   0.095   0.102
   0.098   0.082   0.094   0.100   0.077   0.100   0.094   0.082   0.098   0.102
   0.095   0.110   0.109   0.120   0.146   0.179   0.217   0.211   0.279   0.295
   0.356   0.303
   1.283   1.233   1.248   1.064   0.930   0.737   0.587   0.380   0.291   0.198
   0.159   0.118   0.086   0.074   0.077   0.054   0.076   0.063   0.088   0.063
   0.076   0.054   0.077   0.074   0.086   0.118   0.159   0.198   0.291   0.380
   0.587   0.737   0.930   1.064   1.248   1.233   1.283   1.233   1.248   1.064
   0.930   0.737   0.587   0.380   0.291   0.198   0.159   0.118   0.086   0.074
   0.077   0.054   0.076   0.063   0.088   0.063   0.076   0.054   0.077   0.074
   0.086   0.118   0.159   0.198   0.291   0.380   0.587   0.737   0.930   1.064
   1.248   1.233
   4.116   4.020   3.878   3.725   3.396   2.986   2.515   1.754   1.092   0.712
   0.367   0.234   0.135   0.104   0.068   0.050   0.079   0.058   0.083   0.058
   0.079   0.050   0.068   0.104   0.135   0.234   0.367   0.712   1.092   1.754
   2.515   2.986   3.396   3.725   3.878   4.020   4.116   4.020   3.878   3.725
   3.396   2.986   2.515   1.754   1.092   0.712   0.367   0.234   0.135   0.104
   0.068   0.050   0.079   0.058   0.083   0.058   0.079   0.050   0.068   0.104
   0.135   0.234   0.367   0.712   1.092   1.754   2.515   2.986   3.396   3.725
   3.878   4.020
   4.511   4.283   4.282   4.493   4.615   4.763   4.878   4.366   3.509   2.388
   1.305   0.658   0.361   0.259   0.163   0.121   0.152   0.112   0.113   0.112
   0.152   0.121   0.163   0.259   0.361   0.658   1.305   2.388   3.509   4.366
   4.878   4.763   4.615   4.493   4.282   4.283   4.511   4.283   4.282   4.493
   4.615   4.763   4.878   4.366   3.509   2.388   1.305   0.658   0.361   0.259
   0.163   0.121   0.152   0.112   0.113   0.112   0.152   0.121   0.163   0.259
   0.361   0.658   1.305   2.388   3.509   4.366   4.878   4.763   4.615   4.493
   4.282   4.283
   1.577   1.398   1.556   1.829   2.208   2.797   3.415   3.852   4.313   3.947
   2.976   1.636   0.866   0.544   0.344   0.282   0.237   0.227   0.209   0.227
   0.237   0.282   0.344   0.544   0.866   1.636   2.976   3.947   4.313   3.852
   3.415   2.797   2.208   1.829   1.556   1.398   1.577   1.398   1.556   1.829
   2.208   2.797   3.415   3.852   4.313   3.947   2.976   1.636   0.866   0.544
   0.344   0.282   0.237   0.227   0.209   0.227   0.237   0.282   0.344   0.544
   0.866   1.636   2.976   3.947   4.313   3.852   3.415   2.797   2.208   1.829
   1.556   1.398
   0.199   0.167   0.212   0.251   0.309   0.494   0.686   1.174   2.021   2.858
   3.529   2.984   1.663   0.933   0.496   0.394   0.288   0.319   0.282   0.319
   0.288   0.394   0.496   0.933   1.663   2.984   3.529   2.858   2.021   1.174
   0.686   0.494   0.309   0.251   0.212   0.167   0.199   0.167   0.212   0.251
   0.309   0.494   0.686   1.174   2.021   2.858   3.529   2.984   1.663   0.933
   0.496   0.394   0.288   0.319   0.282   0.319   0.288   0.394   0.496   0.933
   1.663   2.984   3.529   2.858   2.021   1.174   0.686   0.494   0.309   0.251
   0.212   0.167
   0.073   0.061   0.071   0.039   0.093   0.099   0.142   0.255   0.476   0.989
   2.435   3.594   2.752   1.562   0.679   0.426   0.341   0.346   0.253   0.346
   0.341   0.426   0.679   1.562   2.752   3.594   2.435   0.989   0.476   0.255
   0.142   0.099   0.093   0.039   0.071   0.061   0.073   0.061   0.071   0.039
   0.093   0.099   0.142   0.255   0.476   0.989   2.435   3.594   2.752   1.562
   0.679   0.426   0.341   0.346   0.253   0.346   0.341   0.426   0.679   1.562
   2.752   3.594   2.435   0.989   0.476   0.255   0.142   0.099   0.093   0.039
   0.071   0.061
   0.071   0.045   0.079   0.049   0.073   0.060   0.122   0.094   0.221   0.504
   1.582   3.594   4.048   2.243   0.878   0.395   0.333   0.296   0.226   0.296
   0.333   0.395   0.878   2.243   4.048   3.594   1.582   0.504   0.221   0.094
   0.122   0.060   0.073   0.049   0.079   0.045   0.071   0.045   0.079   0.049
   0.073   0.060   0.122   0.094   0.221   0.504   1.582   3.594   4.048   2.243
   0.878   0.395   0.333   0.296   0.226   0.296   0.333   0.395   0.878   2.243
   4.048   3.594   1.582   0.504   0.221   0.094   0.122   0.060   0.073   0.049
   0.079   0.045
   0.085   0.070   0.103   0.102   0.056   0.061   0.085   0.109   0.221   0.577
   1.666   4.227   4.778   2.251   0.763   0.284   0.252   0.215   0.211   0.215
   0.252   0.284   0.763   2.251   4.778   4.227   1.666   0.577   0.221   0.109
   0.085   0.061   0.056   0.102   0.103   0.070   0.085   0.070   0.103   0.102
   0.056   0.061   0.085   0.109   0.221   0.577   1.666   4.227   4.778   2.251
   0.763   0.284   0.252   0.215   0.211   0.215   0.252   0.284   0.763   2.251
   4.778   4.227   1.666   0.577   0.221   0.109   0.085   0.061   0.056   0.102
   0.103   0.070
   0.153   0.096   0.108   0.088   0.079   0.113   0.077   0.139   0.449   1.079
   2.848   4.837   3.924   1.474   0.470   0.233   0.223   0.206   0.280   0.206
   0.223   0.233   0.470   1.474   3.924   4.837   2.848   1.079   0.449   0.139
   0.077   0.113   0.079   0.088   0.108   0.096   0.153   0.096   0.108   0.088
   0.079   0.113   0.077   0.139   0.449   1.079   2.848   4.837   3.924   1.474
   0.470   0.233   0.223   0.206   0.280   0.206   0.223   0.233   0.470   1.474
   3.924   4.837   2.848   1.079   0.449   0.139   0.077   0.113   0.079   0.088
   0.108   0.096
   0.173   0.160   0.165   0.116   0.159   0.180   0.276   0.437   1.304   2.797
   4.272   3.831   1.916   0.797   0.343   0.262   0.252   0.207   0.392   0.207
   0.252   0.262   0.343   0.797   1.916   3.831   4.272   2.797   1.304   0.437
   0.276   0.180   0.159   0.116   0.165   0.160   0.173   0.160   0.165   0.116
   0.159   0.180   0.276   0.437   1.304   2.797   4.272   3.831   1.916   0.797
   0.343   0.262   0.252   0.207   0.392   0.207   0.252   0.262   0.343   0.797
   1.916   3.831   4.272   2.797   1.304   0.437   0.276   0.180   0.159   0.116
   0.165   0.160
   0.255   0.238   0.184   0.140   0.174   0.226   0.462   1.166   2.979   4.039
   3.392   1.854   0.473   0.414   0.252   0.202   0.157   0.129   0.206   0.129
   0.157   0.202   0.252   0.414   0.473   1.854   3.392   4.039   2.979   1.166
   0.462   0.226   0.174   0.140   0.184   0.238   0.255   0.238   0.184   0.140
   0.174   0.226   0.462   1.166   2.979   4.039   3.392   1.854   0.473   0.414
   0.252   0.202   0.157   0.129   0.206   0.129   0.157   0.202   0.252   0.414
   0.473   1.854   3.392   4.039   2.979   1.166   0.462   0.226   0.174   0.140
   0.184   0.238
 111       5.00   72    0 5.00   15    0
   0.039   0.039   0.039   0.039   0.039   0.039   0.039   0.039   0.039   0.039
   0.039   0.039   0.039   0.039   0.039   0.039   0.039   0.039   0.039   0.039
   0.039   0.039   0.039   0.039   0.039   0.039   0.039   0.039   0.039   0.039
   0.039   0.039   0.039   0.039   0.039   0.039   0.039   0.039   0.039   0.039
   0.039   0.039   0.039   0.039   0.039   0.039   0.039   0.039   0.039   0.039
   0.039   0.039   0.039   0.039   0.039   0.039   0.039   0.039   0.039   0.039
   0.039   0.039   0.039   0.039   0.039   0.039   0.039   0.039   0.039   0.039
   0.039   0.039
   0.071   0.078   0.069   0.067   0.062   0.061   0.055   0.053   0.048   0.047
   0.046   0.047   0.042   0.049   0.048   0.043   0.046   0.043   0.040   0.043
   0.046   0.043   0.048   0.049   0.042   0.047   0.046   0.047   0.048   0.053
   0.055   0.061   0.062   0.067   0.069   0.078   0.071   0.078   0.069   0.067
   0.062   0.061   0.055   0.053   0.048   0.047   0.046   0.047   0.042   0.049
   0.048   0.043   0.046   0.043   0.040   0.043   0.046   0.043   0.048   0.049
   0.042   0.047   0.046   0.047   0.048   0.053   0.055   0.061   0.062   0.067
   0.069   0.078
   0.300   0.282   0.235   0.205   0.162   0.129   0.101   0.086   0.064   0.057
   0.056   0.050   0.047   0.045   0.043   0.041   0.046   0.044   0.037   0.044
   0.046   0.041   0.043   0.045   0.047   0.050   0.056   0.057   0.064   0.086
   0.101   0.129   0.162   0.205   0.235   0.282   0.300   0.282   0.235   0.205
   0.162   0.129   0.101   0.086   0.064   0.057   0.056   0.050   0.047   0.045
   0.043   0.041   0.046   0.044   0.037   0.044   0.046   0.041   0.043   0.045
   0.047   0.050   0.056   0.057   0.064   0.086   0.101   0.129   0.162   0.205
   0.235   0.282
   2.486   2.343   1.779   1.241   0.775   0.453   0.267   0.146   0.084   0.056
   0.041   0.032   0.029   0.017   0.020   0.018   0.021   0.023   0.017   0.023
   0.021   0.018   0.020   0.017   0.029   0.032   0.041   0.056   0.084   0.146
   0.267   0.453   0.775   1.241   1.779   2.343   2.486   2.343   1.779   1.241
   0.775   0.453   0.267   0.146   0.084   0.056   0.041   0.032   0.029   0.017
   0.020   0.018   0.021   0.023   0.017   0.023   0.021   0.018   0.020   0.017
   0.029   0.032   0.041   0.056   0.084   0.146   0.267   0.453   0.775   1.241
   1.779   2.343
   9.725   9.029   7.301   5.316   3.413   1.917   1.046   0.453   0.194   0.078
   0.026   0.010   0.006   0.000   0.000   0.000   0.000   0.002   0.000   0.002
   0.000   0.000   0.000   0.000   0.006   0.010   0.026   0.078   0.194   0.453
   1.046   1.917   3.413   5.316   7.301   9.029   9.725   9.029   7.301   5.316
   3.413   1.917   1.046   0.453   0.194   0.078   0.026   0.010   0.006   0.000
   0.000   0.000   0.000   0.002   0.000   0.002   0.000   0.000   0.000   0.000
   0.006   0.010   0.026   0.078   0.194   0.453   1.046   1.917   3.413   5.316
   7.301   9.029
  10.513   9.827   8.495   6.893   5.323   3.823   2.569   1.398   0.689   0.309
   0.142   0.081   0.037   0.015   0.008   0.009   0.003   0.004   0.004   0.004
   0.003   0.009   0.008   0.015   0.037   0.081   0.142   0.309   0.689   1.398
   2.569   3.823   5.323   6.893   8.495   9.827  10.513   9.827   8.495   6.893
   5.323   3.823   2.569   1.398   0.689   0.309   0.142   0.081   0.037   0.015
   0.008   0.009   0.003   0.004   0.004   0.004   0.003   0.009   0.008   0.015
   0.037   0.081   0.142   0.309   0.689   1.398   2.569   3.823   5.323   6.893
   8.495   9.827
   3.616   3.568   3.403   3.319   3.387   3.317   3.076   2.422   1.601   0.860
   0.429   0.248   0.139   0.071   0.060   0.032   0.030   0.024   0.026   0.024
   0.030   0.032   0.060   0.071   0.139   0.248   0.429   0.860   1.601   2.422
   3.076   3.317   3.387   3.319   3.403   3.568   3.616   3.568   3.403   3.319
   3.387   3.317   3.076   2.422   1.601   0.860   0.429   0.248   0.139   0.071
   0.060   0.032   0.030   0.024   0.026   0.024   0.030   0.032   0.060   0.071
   0.139   0.248   0.429   0.860   1.601   2.422   3.076   3.317   3.387   3.319
   3.403   3.568
   0.792   0.821   0.807   0.892   1.092   1.420   1.933   2.336   2.278   1.758
   1.012   0.481   0.275   0.179   0.125   0.089   0.068   0.051   0.063   0.051
   0.068   0.089   0.125   0.179   0.275   0.481   1.012   1.758   2.278   2.336
   1.933   1.420   1.092   0.892   0.807   0.821   0.792   0.821   0.807   0.892
   1.092   1.420   1.933   2.336   2.278   1.758   1.012   0.481   0.275   0.179
   0.125   0.089   0.068   0.051   0.063   0.051   0.068   0.089   0.125   0.179
   0.275   0.481   1.012   1.758   2.278   2.336   1.933   1.420   1.092   0.892
   0.807   0.821
   0.284   0.246   0.269   0.324   0.364   0.496   0.827   1.349   2.034   2.452
   2.113   1.198   0.581   0.302   0.214   0.156   0.119   0.097   0.076   0.097
   0.119   0.156   0.214   0.302   0.581   1.198   2.113   2.452   2.034   1.349
   0.827   0.496   0.364   0.324   0.269   0.246   0.284   0.246   0.269   0.324
   0.364   0.496   0.827   1.349   2.034   2.452   2.113   1.198   0.581   0.302
   0.214   0.156   0.119   0.097   0.076   0.097   0.119   0.156   0.214   0.302
   0.581   1.198   2.113   2.452   2.034   1.349   0.827   0.496   0.364   0.324
   0.269   0.246
   0.169   0.127   0.131   0.143   0.135   0.178   0.324   0.546   1.109   2.026
   2.755   2.547   1.615   0.754   0.360   0.216   0.181   0.176   0.106   0.176
   0.181   0.216   0.360   0.754   1.615   2.547   2.755   2.026   1.109   0.546
   0.324   0.178   0.135   0.143   0.131   0.127   0.169   0.127   0.131   0.143
   0.135   0.178   0.324   0.546   1.109   2.026   2.755   2.547   1.615   0.754
   0.360   0.216   0.181   0.176   0.106   0.176   0.181   0.216   0.360   0.754
   1.615   2.547   2.755   2.026   1.109   0.546   0.324   0.178   0.135   0.143
   0.131   0.127
   0.135   0.115   0.084   0.101   0.069   0.070   0.109   0.221   0.423   0.958
   1.869   2.744   2.781   2.002   0.997   0.477   0.342   0.261   0.198   0.261
   0.342   0.477   0.997   2.002   2.781   2.744   1.869   0.958   0.423   0.221
   0.109   0.070   0.069   0.101   0.084   0.115   0.135   0.115   0.084   0.101
   0.069   0.070   0.109   0.221   0.423   0.958   1.869   2.744   2.781   2.002
   0.997   0.477   0.342   0.261   0.198   0.261   0.342   0.477   0.997   2.002
   2.781   2.744   1.869   0.958   0.423   0.221   0.109   0.070   0.069   0.101
   0.084   0.115
   0.135   0.139   0.112   0.084   0.041   0.043   0.064   0.151   0.202   0.341
   0.654   1.381   2.243   2.644   2.234   1.416   0.771   0.427   0.359   0.427
   0.771   1.416   2.234   2.644   2.243   1.381   0.654   0.341   0.202   0.151
   0.064   0.043   0.041   0.084   0.112   0.139   0.135   0.139   0.112   0.084
   0.041   0.043   0.064   0.151   0.202   0.341   0.654   1.381   2.243   2.644
   2.234   1.416   0.771   0.427   0.359   0.427   0.771   1.416   2.234   2.644
   2.243   1.381   0.654   0.341   0.202   0.151   0.064   0.043   0.041   0.084
   0.112   0.139
   0.176   0.159   0.145   0.096   0.052   0.056   0.066   0.114   0.185   0.205
   0.188   0.418   0.821   1.576   2.314   2.272   1.730   0.954   0.623   0.954
   1.730   2.272   2.314   1.576   0.821   0.418   0.188   0.205   0.185   0.114
   0.066   0.056   0.052   0.096   0.145   0.159   0.176   0.159   0.145   0.096
   0.052   0.056   0.066   0.114   0.185   0.205   0.188   0.418   0.821   1.576
   2.314   2.272   1.730   0.954   0.623   0.954   1.730   2.272   2.314   1.576
   0.821   0.418   0.188   0.205   0.185   0.114   0.066   0.056   0.052   0.096
   0.145   0.159
   0.167   0.188   0.161   0.123   0.079   0.061   0.063   0.139   0.230   0.167
   0.143   0.197   0.241   0.528   1.208   1.830   2.381   1.892   1.297   1.892
   2.381   1.830   1.208   0.528   0.241   0.197   0.143   0.167   0.230   0.139
   0.063   0.061   0.079   0.123   0.161   0.188   0.167   0.188   0.161   0.123
   0.079   0.061   0.063   0.139   0.230   0.167   0.143   0.197   0.241   0.528
   1.208   1.830   2.381   1.892   1.297   1.892   2.381   1.830   1.208   0.528
   0.241   0.197   0.143   0.167   0.230   0.139   0.063   0.061   0.079   0.123
   0.161   0.188
   0.307   0.242   0.227   0.143   0.088   0.072   0.109   0.208   0.236   0.158
   0.167   0.132   0.174   0.271   0.530   0.924   1.941   2.525   2.138   2.525
   1.941   0.924   0.530   0.271   0.174   0.132   0.167   0.158   0.236   0.208
   0.109   0.072   0.088   0.143   0.227   0.242   0.307   0.242   0.227   0.143
   0.088   0.072   0.109   0.208   0.236   0.158   0.167   0.132   0.174   0.271
   0.530   0.924   1.941   2.525   2.138   2.525   1.941   0.924   0.530   0.271
   0.174   0.132   0.167   0.158   0.236   0.208   0.109   0.072   0.088   0.143
   0.227   0.242
  4  1     -7.8075449E-01
  4  2      1.7436451E-01
  4  3     -2.3473805E+00
  6  1      2.2454715E+00
  6  2     -5.2239045E+00
  6  3      2.2426352E+00
  6  4      2.8952047E-01
  8  1     -9.4355679E-01
  8  2      4.5861933E-01
  8  3      3.2677616E-01
  8  4      2.6490974E+00
  8  5      1.2715494E+00
 10  1     -1.8122478E+00
 10  2      1.6764526E+00
 10  3      1.3661350E+00
 10  4      6.8499689E-01
 10  5     -2.7682999E-01
 10  6     -1.0754424E+00
 12  1      4.0115980E-01  2.2191566E+00
 12  2     -2.0714711E-01 -3.5839493E+00
 12  3     -1.2544502E-01  4.7310861E+00
 12  4     -5.2660098E-01 -2.5352022E+00
 12  5     -5.1440324E-01 -5.5312570E-01
 12  6     -2.6838939E+00  8.9220980E-01
 12  7      8.4782898E-03  3.5551857E-02
 14  1     -7.7524821E-01
 14  2      9.4962550E-01
 14  3     -7.8867582E-01
 14  4     -1.8966635E-01
 14  5     -2.2571359E+00
 14  6      1.1452559E+00
 14  7     -2.4385300E-02
 14  8      2.3163800E-01
 16  1     -1.5808300E-01 -1.3419596E+00
 16  2     -2.8909169E-01  1.9848668E+00
 16  3      5.6892338E-01 -7.9715469E-01
 16  4     -1.6490895E-01 -1.4620161E+00
 16  5      1.5317662E-02  4.8637887E-01
 16  6      3.3408081E-01  3.2221968E-01
 16  7      1.7121740E+00  3.0156525E-02
 16  8      9.2394037E-01 -1.7726021E-01
 16  9      1.2502260E-01  1.5734704E-01
 220       5.00   72    0 5.00   18    0
   2.513   2.515   2.519   2.526   2.536   2.549   2.563   2.579   2.596   2.613
   2.631   2.648   2.665   2.679   2.692   2.703   2.710   2.715   2.717   2.715
   2.710   2.703   2.692   2.679   2.665   2.648   2.631   2.613   2.596   2.579
   2.563   2.549   2.536   2.526   2.519   2.515   2.513   2.515   2.519   2.526
   2.536   2.549   2.563   2.579   2.596   2.613   2.631   2.648   2.665   2.679
   2.692   2.703   2.710   2.715   2.717   2.715   2.710   2.703   2.692   2.679
   2.665   2.648   2.631   2.613   2.596   2.579   2.563   2.549   2.536   2.526
   2.519   2.515
   1.513   1.522   1.550   1.595   1.659   1.740   1.839   1.952   2.078   2.215
   2.359   2.504   2.646   2.779   2.898   2.997   3.071   3.117   3.133   3.117
   3.071   2.997   2.898   2.779   2.646   2.504   2.359   2.215   2.078   1.952
   1.839   1.740   1.659   1.595   1.550   1.522   1.513   1.522   1.550   1.595
   1.659   1.740   1.839   1.952   2.078   2.215   2.359   2.504   2.646   2.779
   2.898   2.997   3.071   3.117   3.133   3.117   3.071   2.997   2.898   2.779
   2.646   2.504   2.359   2.215   2.078   1.952   1.839   1.740   1.659   1.595
   1.550   1.522
   0.267   0.276   0.303   0.351   0.425   0.531   0.674   0.859   1.088   1.363
   1.677   2.021   2.380   2.737   3.071   3.358   3.580   3.721   3.769   3.721
   3.580   3.358   3.071   2.737   2.380   2.021   1.677   1.363   1.088   0.859
   0.674   0.531   0.425   0.351   0.303   0.276   0.267   0.276   0.303   0.351
   0.425   0.531   0.674   0.859   1.088   1.363   1.677   2.021   2.380   2.737
   3.071   3.358   3.580   3.721   3.769   3.721   3.580   3.358   3.071   2.737
   2.380   2.021   1.677   1.363   1.088   0.859   0.674   0.531   0.425   0.351
   0.303   0.276
  -0.346  -0.353  -0.370  -0.393  -0.409  -0.403  -0.355  -0.243  -0.045   0.254
   0.661   1.167   1.748   2.368   2.977   3.524   3.958   4.236   4.333   4.236
   3.958   3.524   2.977   2.368   1.748   1.167   0.661   0.254  -0.045  -0.243
  -0.355  -0.403  -0.409  -0.393  -0.370  -0.353  -0.346  -0.353  -0.370  -0.393
  -0.409  -0.403  -0.355  -0.243  -0.045   0.254   0.661   1.167   1.748   2.368
   2.977   3.524   3.958   4.236   4.333   4.236   3.958   3.524   2.977   2.368
   1.748   1.167   0.661   0.254  -0.045  -0.243  -0.355  -0.403  -0.409  -0.393
  -0.370  -0.353
  -0.107  -0.125  -0.180  -0.271  -0.396  -0.542  -0.679  -0.767  -0.755  -0.595
  -0.251   0.282   0.979   1.784   2.616   3.385   4.007   4.410   4.549   4.410
   4.007   3.385   2.616   1.784   0.979   0.282  -0.251  -0.595  -0.755  -0.767
  -0.679  -0.542  -0.396  -0.271  -0.180  -0.125  -0.107  -0.125  -0.180  -0.271
  -0.396  -0.542  -0.679  -0.767  -0.755  -0.595  -0.251   0.282   0.979   1.784
   2.616   3.385   4.007   4.410   4.549   4.410   4.007   3.385   2.616   1.784
   0.979   0.282  -0.251  -0.595  -0.755  -0.767  -0.679  -0.542  -0.396  -0.271
  -0.180  -0.125
   0.330   0.329   0.318   0.276   0.174  -0.005  -0.251  -0.518  -0.725  -0.780
  -0.608  -0.176   0.492   1.318   2.195   3.008   3.661   4.080   4.225   4.080
   3.661   3.008   2.195   1.318   0.492  -0.176  -0.608  -0.780  -0.725  -0.518
  -0.251  -0.005   0.174   0.276   0.318   0.329   0.330   0.329   0.318   0.276
   0.174  -0.005  -0.251  -0.518  -0.725  -0.780  -0.608  -0.176   0.492   1.318
   2.195   3.008   3.661   4.080   4.225   4.080   3.661   3.008   2.195   1.318
   0.492  -0.176  -0.608  -0.780  -0.725  -0.518  -0.251  -0.005   0.174   0.276
   0.318   0.329
   0.133   0.172   0.277   0.411   0.511   0.507   0.356   0.080  -0.224  -0.419
  -0.382  -0.060   0.508   1.214   1.924   2.532   2.975   3.237   3.322   3.237
   2.975   2.532   1.924   1.214   0.508  -0.060  -0.382  -0.419  -0.224   0.080
   0.356   0.507   0.511   0.411   0.277   0.172   0.133   0.172   0.277   0.411
   0.511   0.507   0.356   0.080  -0.224  -0.419  -0.382  -0.060   0.508   1.214
   1.924   2.532   2.975   3.237   3.322   3.237   2.975   2.532   1.924   1.214
   0.508  -0.060  -0.382  -0.419  -0.224   0.080   0.356   0.507   0.511   0.411
   0.277   0.172
  -0.638  -0.591  -0.438  -0.173   0.155   0.432   0.533   0.418   0.177  -0.009
   0.029   0.350   0.869   1.419   1.842   2.064   2.113   2.079   2.055   2.079
   2.113   2.064   1.842   1.419   0.869   0.350   0.029  -0.009   0.177   0.418
   0.533   0.432   0.155  -0.173  -0.438  -0.591  -0.638  -0.591  -0.438  -0.173
   0.155   0.432   0.533   0.418   0.177  -0.009   0.029   0.350   0.869   1.419
   1.842   2.064   2.113   2.079   2.055   2.079   2.113   2.064   1.842   1.419
   0.869   0.350   0.029  -0.009   0.177   0.418   0.533   0.432   0.155  -0.173
  -0.438  -0.591
  -0.766  -0.815  -0.876  -0.783  -0.466  -0.039   0.275   0.332   0.193   0.082
   0.214   0.635   1.194   1.649   1.813   1.659   1.316   0.989   0.857   0.989
   1.316   1.659   1.813   1.649   1.194   0.635   0.214   0.082   0.193   0.332
   0.275  -0.039  -0.466  -0.783  -0.876  -0.815  -0.766  -0.815  -0.876  -0.783
  -0.466  -0.039   0.275   0.332   0.193   0.082   0.214   0.635   1.194   1.649
   1.813   1.659   1.316   0.989   0.857   0.989   1.316   1.659   1.813   1.649
   1.194   0.635   0.214   0.082   0.193   0.332   0.275  -0.039  -0.466  -0.783
  -0.876  -0.815
   0.994   0.722   0.115  -0.384  -0.470  -0.203   0.098   0.165   0.016  -0.095
   0.083   0.584   1.199   1.629   1.672   1.331   0.792   0.320   0.134   0.320
   0.792   1.331   1.672   1.629   1.199   0.584   0.083  -0.095   0.016   0.165
   0.098  -0.203  -0.470  -0.384   0.115   0.722   0.994   0.722   0.115  -0.384
  -0.470  -0.203   0.098   0.165   0.016  -0.095   0.083   0.584   1.199   1.629
   1.672   1.331   0.792   0.320   0.134   0.320   0.792   1.331   1.672   1.629
   1.199   0.584   0.083  -0.095   0.016   0.165   0.098  -0.203  -0.470  -0.384
   0.115   0.722
   4.348   3.802   2.505   1.207   0.474   0.333   0.394   0.293   0.001  -0.229
  -0.139   0.301   0.880   1.306   1.381   1.090   0.593   0.140  -0.041   0.140
   0.593   1.090   1.381   1.306   0.880   0.301  -0.139  -0.229   0.001   0.293
   0.394   0.333   0.474   1.207   2.505   3.802   4.348   3.802   2.505   1.207
   0.474   0.333   0.394   0.293   0.001  -0.229  -0.139   0.301   0.880   1.306
   1.381   1.090   0.593   0.140  -0.041   0.140   0.593   1.090   1.381   1.306
   0.880   0.301  -0.139  -0.229   0.001   0.293   0.394   0.333   0.474   1.207
   2.505   3.802
   7.185   6.470   4.745   2.926   1.725   1.223   1.026   0.746   0.322  -0.044
  -0.141   0.071   0.475   0.873   1.073   0.966   0.604   0.206   0.034   0.206
   0.604   0.966   1.073   0.873   0.475   0.071  -0.141  -0.044   0.322   0.746
   1.026   1.223   1.725   2.926   4.745   6.470   7.185   6.470   4.745   2.926
   1.725   1.223   1.026   0.746   0.322  -0.044  -0.141   0.071   0.475   0.873
   1.073   0.966   0.604   0.206   0.034   0.206   0.604   0.966   1.073   0.873
   0.475   0.071  -0.141  -0.044   0.322   0.746   1.026   1.223   1.725   2.926
   4.745   6.470
   7.257   6.608   5.048   3.403   2.300   1.797   1.563   1.292   0.916   0.531
   0.247   0.145   0.280   0.610   0.936   0.990   0.683   0.238   0.029   0.238
   0.683   0.990   0.936   0.610   0.280   0.145   0.247   0.531   0.916   1.292
   1.563   1.797   2.300   3.403   5.048   6.608   7.257   6.608   5.048   3.403
   2.300   1.797   1.563   1.292   0.916   0.531   0.247   0.145   0.280   0.610
   0.936   0.990   0.683   0.238   0.029   0.238   0.683   0.990   0.936   0.610
   0.280   0.145   0.247   0.531   0.916   1.292   1.563   1.797   2.300   3.403
   5.048   6.608
   4.344   3.977   3.126   2.303   1.844   1.721   1.716   1.674   1.544   1.295
   0.921   0.549   0.418   0.645   1.017   1.131   0.785   0.234  -0.032   0.234
   0.785   1.131   1.017   0.645   0.418   0.549   0.921   1.295   1.544   1.674
   1.716   1.721   1.844   2.303   3.126   3.977   4.344   3.977   3.126   2.303
   1.844   1.721   1.716   1.674   1.544   1.295   0.921   0.549   0.418   0.645
   1.017   1.131   0.785   0.234  -0.032   0.234   0.785   1.131   1.017   0.645
   0.418   0.549   0.921   1.295   1.544   1.674   1.716   1.721   1.844   2.303
   3.126   3.977
   0.644   0.595   0.537   0.623   0.877   1.186   1.458   1.688   1.854   1.830
   1.518   1.051   0.758   0.846   1.149   1.263   0.965   0.470   0.228   0.470
   0.965   1.263   1.149   0.846   0.758   1.051   1.518   1.830   1.854   1.688
   1.458   1.186   0.877   0.623   0.537   0.595   0.644   0.595   0.537   0.623
   0.877   1.186   1.458   1.688   1.854   1.830   1.518   1.051   0.758   0.846
   1.149   1.263   0.965   0.470   0.228   0.470   0.965   1.263   1.149   0.846
   0.758   1.051   1.518   1.830   1.854   1.688   1.458   1.186   0.877   0.623
   0.537   0.595
  -1.214  -1.108  -0.795  -0.325   0.171   0.576   0.898   1.229   1.571   1.768
   1.672   1.343   1.038   0.965   1.100   1.247   1.256   1.162   1.105   1.162
   1.256   1.247   1.100   0.965   1.038   1.343   1.672   1.768   1.571   1.229
   0.898   0.576   0.171  -0.325  -0.795  -1.108  -1.214  -1.108  -0.795  -0.325
   0.171   0.576   0.898   1.229   1.571   1.768   1.672   1.343   1.038   0.965
   1.100   1.247   1.256   1.162   1.105   1.162   1.256   1.247   1.100   0.965
   1.038   1.343   1.672   1.768   1.571   1.229   0.898   0.576   0.171  -0.325
  -0.795  -1.108
  -0.614  -0.553  -0.385  -0.163   0.023   0.133   0.239   0.459   0.814   1.172
   1.365   1.326   1.119   0.896   0.836   1.075   1.589   2.132   2.366   2.132
   1.589   1.075   0.836   0.896   1.119   1.326   1.365   1.172   0.814   0.459
   0.239   0.133   0.023  -0.163  -0.385  -0.553  -0.614  -0.553  -0.385  -0.163
   0.023   0.133   0.239   0.459   0.814   1.172   1.365   1.326   1.119   0.896
   0.836   1.075   1.589   2.132   2.366   2.132   1.589   1.075   0.836   0.896
   1.119   1.326   1.365   1.172   0.814   0.459   0.239   0.133   0.023  -0.163
  -0.385  -0.553
   0.697   0.654   0.537   0.365   0.146  -0.083  -0.220  -0.150   0.154   0.595
   0.998   1.193   1.085   0.770   0.579   0.904   1.814   2.849   3.307   2.849
   1.814   0.904   0.579   0.770   1.085   1.193   0.998   0.595   0.154  -0.150
  -0.220  -0.083   0.146   0.365   0.537   0.654   0.697   0.654   0.537   0.365
   0.146  -0.083  -0.220  -0.150   0.154   0.595   0.998   1.193   1.085   0.770
   0.579   0.904   1.814   2.849   3.307   2.849   1.814   0.904   0.579   0.770
   1.085   1.193   0.998   0.595   0.154  -0.150  -0.220  -0.083   0.146   0.365
   0.537   0.654
 200       5.00   72    0 5.00   18    0
   0.245   0.245   0.247   0.249   0.252   0.256   0.260   0.265   0.270   0.276
   0.281   0.287   0.292   0.297   0.301   0.304   0.307   0.308   0.309   0.308
   0.307   0.304   0.301   0.297   0.292   0.287   0.281   0.276   0.270   0.265
   0.260   0.256   0.252   0.249   0.247   0.245   0.245   0.245   0.247   0.249
   0.252   0.256   0.260   0.265   0.270   0.276   0.281   0.287   0.292   0.297
   0.301   0.304   0.307   0.308   0.309   0.308   0.307   0.304   0.301   0.297
   0.292   0.287   0.281   0.276   0.270   0.265   0.260   0.256   0.252   0.249
   0.247   0.245
  -0.085  -0.083  -0.078  -0.069  -0.057  -0.040  -0.018   0.010   0.042   0.080
   0.122   0.167   0.213   0.258   0.299   0.335   0.362   0.380   0.386   0.380
   0.362   0.335   0.299   0.258   0.213   0.167   0.122   0.080   0.042   0.010
  -0.018  -0.040  -0.057  -0.069  -0.078  -0.083  -0.085  -0.083  -0.078  -0.069
  -0.057  -0.040  -0.018   0.010   0.042   0.080   0.122   0.167   0.213   0.258
   0.299   0.335   0.362   0.380   0.386   0.380   0.362   0.335   0.299   0.258
   0.213   0.167   0.122   0.080   0.042   0.010  -0.018  -0.040  -0.057  -0.069
  -0.078  -0.083
  -0.290  -0.294  -0.303  -0.316  -0.332  -0.346  -0.355  -0.353  -0.334  -0.296
  -0.234  -0.149  -0.043   0.076   0.198   0.311   0.404   0.464   0.485   0.464
   0.404   0.311   0.198   0.076  -0.043  -0.149  -0.234  -0.296  -0.334  -0.353
  -0.355  -0.346  -0.332  -0.316  -0.303  -0.294  -0.290  -0.294  -0.303  -0.316
  -0.332  -0.346  -0.355  -0.353  -0.334  -0.296  -0.234  -0.149  -0.043   0.076
   0.198   0.311   0.404   0.464   0.485   0.464   0.404   0.311   0.198   0.076
  -0.043  -0.149  -0.234  -0.296  -0.334  -0.353  -0.355  -0.346  -0.332  -0.316
  -0.303  -0.294
   0.255   0.243   0.207   0.146   0.061  -0.045  -0.166  -0.292  -0.407  -0.492
  -0.529  -0.502  -0.406  -0.247  -0.045   0.169   0.358   0.488   0.534   0.488
   0.358   0.169  -0.045  -0.247  -0.406  -0.502  -0.529  -0.492  -0.407  -0.292
  -0.166  -0.045   0.061   0.146   0.207   0.243   0.255   0.243   0.207   0.146
   0.061  -0.045  -0.166  -0.292  -0.407  -0.492  -0.529  -0.502  -0.406  -0.247
  -0.045   0.169   0.358   0.488   0.534   0.488   0.358   0.169  -0.045  -0.247
  -0.406  -0.502  -0.529  -0.492  -0.407  -0.292  -0.166  -0.045   0.061   0.146
   0.207   0.243
   1.704   1.688   1.641   1.559   1.433   1.256   1.020   0.727   0.393   0.052
  -0.250  -0.463  -0.548  -0.489  -0.306  -0.047   0.218   0.414   0.486   0.414
   0.218  -0.047  -0.306  -0.489  -0.548  -0.463  -0.250   0.052   0.393   0.727
   1.020   1.256   1.433   1.559   1.641   1.688   1.704   1.688   1.641   1.559
   1.433   1.256   1.020   0.727   0.393   0.052  -0.250  -0.463  -0.548  -0.489
  -0.306  -0.047   0.218   0.414   0.486   0.414   0.218  -0.047  -0.306  -0.489
  -0.548  -0.463  -0.250   0.052   0.393   0.727   1.020   1.256   1.433   1.559
   1.641   1.688
   3.252   3.235   3.189   3.123   3.037   2.909   2.702   2.380   1.930   1.374
   0.777   0.226  -0.187  -0.397  -0.388  -0.207   0.052   0.271   0.357   0.271
   0.052  -0.207  -0.388  -0.397  -0.187   0.226   0.777   1.374   1.930   2.380
   2.702   2.909   3.037   3.123   3.189   3.235   3.252   3.235   3.189   3.123
   3.037   2.909   2.702   2.380   1.930   1.374   0.777   0.226  -0.187  -0.397
  -0.388  -0.207   0.052   0.271   0.357   0.271   0.052  -0.207  -0.388  -0.397
  -0.187   0.226   0.777   1.374   1.930   2.380   2.702   2.909   3.037   3.123
   3.189   3.235
   3.666   3.631   3.552   3.491   3.491   3.537   3.558   3.459   3.170   2.673
   2.010   1.272   0.582   0.062  -0.203  -0.206  -0.036   0.159   0.243   0.159
  -0.036  -0.206  -0.203   0.062   0.582   1.272   2.010   2.673   3.170   3.459
   3.558   3.537   3.491   3.491   3.552   3.631   3.666   3.631   3.552   3.491
   3.491   3.537   3.558   3.459   3.170   2.673   2.010   1.272   0.582   0.062
  -0.203  -0.206  -0.036   0.159   0.243   0.159  -0.036  -0.206  -0.203   0.062
   0.582   1.272   2.010   2.673   3.170   3.459   3.558   3.537   3.491   3.491
   3.552   3.631
   2.561   2.485   2.326   2.229   2.305   2.549   2.852   3.086   3.157   3.023
   2.668   2.103   1.394   0.688   0.168  -0.046   0.016   0.188   0.274   0.188
   0.016  -0.046   0.168   0.688   1.394   2.103   2.668   3.023   3.157   3.086
   2.852   2.549   2.305   2.229   2.326   2.485   2.561   2.485   2.326   2.229
   2.305   2.549   2.852   3.086   3.157   3.023   2.668   2.103   1.394   0.688
   0.168  -0.046   0.016   0.188   0.274   0.188   0.016  -0.046   0.168   0.688
   1.394   2.103   2.668   3.023   3.157   3.086   2.852   2.549   2.305   2.229
   2.326   2.485
   0.915   0.805   0.582   0.469   0.603   0.939   1.329   1.678   2.000   2.319
   2.545   2.493   2.044   1.302   0.575   0.172   0.171   0.376   0.490   0.376
   0.171   0.172   0.575   1.302   2.044   2.493   2.545   2.319   2.000   1.678
   1.329   0.939   0.603   0.469   0.582   0.805   0.915   0.805   0.582   0.469
   0.603   0.939   1.329   1.678   2.000   2.319   2.545   2.493   2.044   1.302
   0.575   0.172   0.171   0.376   0.490   0.376   0.171   0.172   0.575   1.302
   2.044   2.493   2.545   2.319   2.000   1.678   1.329   0.939   0.603   0.469
   0.582   0.805
   0.032  -0.080  -0.282  -0.328  -0.136   0.129   0.277   0.355   0.634   1.302
   2.175   2.764   2.657   1.883   0.921   0.322   0.295   0.584   0.751   0.584
   0.295   0.322   0.921   1.883   2.657   2.764   2.175   1.302   0.634   0.355
   0.277   0.129  -0.136  -0.328  -0.282  -0.080   0.032  -0.080  -0.282  -0.328
  -0.136   0.129   0.277   0.355   0.634   1.302   2.175   2.764   2.657   1.883
   0.921   0.322   0.295   0.584   0.751   0.584   0.295   0.322   0.921   1.883
   2.657   2.764   2.175   1.302   0.634   0.355   0.277   0.129  -0.136  -0.328
  -0.282  -0.080
   0.156   0.067  -0.056   0.011   0.235   0.309   0.039  -0.315  -0.177   0.778
   2.210   3.290   3.350   2.414   1.157   0.348   0.274   0.616   0.818   0.616
   0.274   0.348   1.157   2.414   3.350   3.290   2.210   0.778  -0.177  -0.315
   0.039   0.309   0.235   0.011  -0.056   0.067   0.156   0.067  -0.056   0.011
   0.235   0.309   0.039  -0.315  -0.177   0.778   2.210   3.290   3.350   2.414
   1.157   0.348   0.274   0.616   0.818   0.616   0.274   0.348   1.157   2.414
   3.350   3.290   2.210   0.778  -0.177  -0.315   0.039   0.309   0.235   0.011
  -0.056   0.067
   0.457   0.391   0.328   0.452   0.643   0.534   0.005  -0.490  -0.229   1.055
   2.789   3.943   3.840   2.657   1.214   0.300   0.150   0.421   0.591   0.421
   0.150   0.300   1.214   2.657   3.840   3.943   2.789   1.055  -0.229  -0.490
   0.005   0.534   0.643   0.452   0.328   0.391   0.457   0.391   0.328   0.452
   0.643   0.534   0.005  -0.490  -0.229   1.055   2.789   3.943   3.840   2.657
   1.214   0.300   0.150   0.421   0.591   0.421   0.150   0.300   1.214   2.657
   3.840   3.943   2.789   1.055  -0.229  -0.490   0.005   0.534   0.643   0.452
   0.328   0.391
   0.274   0.220   0.174   0.279   0.408   0.271  -0.115  -0.235   0.481   1.996
   3.531   4.170   3.599   2.289   1.020   0.289   0.102   0.175   0.234   0.175
   0.102   0.289   1.020   2.289   3.599   4.170   3.531   1.996   0.481  -0.235
  -0.115   0.271   0.408   0.279   0.174   0.220   0.274   0.220   0.174   0.279
   0.408   0.271  -0.115  -0.235   0.481   1.996   3.531   4.170   3.599   2.289
   1.020   0.289   0.102   0.175   0.234   0.175   0.102   0.289   1.020   2.289
   3.599   4.170   3.531   1.996   0.481  -0.235  -0.115   0.271   0.408   0.279
   0.174   0.220
  -0.130  -0.172  -0.208  -0.126   0.006   0.058   0.161   0.698   1.845   3.179
   3.911   3.582   2.477   1.321   0.623   0.361   0.239   0.101   0.029   0.101
   0.239   0.361   0.623   1.321   2.477   3.582   3.911   3.179   1.845   0.698
   0.161   0.058   0.006  -0.126  -0.208  -0.172  -0.130  -0.172  -0.208  -0.126
   0.006   0.058   0.161   0.698   1.845   3.179   3.911   3.582   2.477   1.321
   0.623   0.361   0.239   0.101   0.029   0.101   0.239   0.361   0.623   1.321
   2.477   3.582   3.911   3.179   1.845   0.698   0.161   0.058   0.006  -0.126
  -0.208  -0.172
  -0.150  -0.186  -0.220  -0.138   0.086   0.459   1.101   2.114   3.256   3.912
   3.567   2.359   1.028   0.286   0.236   0.433   0.434   0.222   0.092   0.222
   0.434   0.433   0.236   0.286   1.028   2.359   3.567   3.912   3.256   2.114
   1.101   0.459   0.086  -0.138  -0.220  -0.186  -0.150  -0.186  -0.220  -0.138
   0.086   0.459   1.101   2.114   3.256   3.912   3.567   2.359   1.028   0.286
   0.236   0.433   0.434   0.222   0.092   0.222   0.434   0.433   0.236   0.286
   1.028   2.359   3.567   3.912   3.256   2.114   1.101   0.459   0.086  -0.138
  -0.220  -0.186
   0.296   0.228   0.117   0.151   0.467   1.119   2.074   3.110   3.760   3.554
   2.466   1.059   0.071  -0.170   0.088   0.377   0.444   0.353   0.293   0.353
   0.444   0.377   0.088  -0.170   0.071   1.059   2.466   3.554   3.760   3.110
   2.074   1.119   0.467   0.151   0.117   0.228   0.296   0.228   0.117   0.151
   0.467   1.119   2.074   3.110   3.760   3.554   2.466   1.059   0.071  -0.170
   0.088   0.377   0.444   0.353   0.293   0.353   0.444   0.377   0.088  -0.170
   0.071   1.059   2.466   3.554   3.760   3.110   2.074   1.119   0.467   0.151
   0.117   0.228
   0.797   0.653   0.368   0.258   0.580   1.363   2.356   3.083   3.071   2.228
   1.019   0.140  -0.087   0.078   0.204   0.184   0.206   0.351   0.443   0.351
   0.206   0.184   0.204   0.078  -0.087   0.140   1.019   2.228   3.071   3.083
   2.356   1.363   0.580   0.258   0.368   0.653   0.797   0.653   0.368   0.258
   0.580   1.363   2.356   3.083   3.071   2.228   1.019   0.140  -0.087   0.078
   0.204   0.184   0.206   0.351   0.443   0.351   0.206   0.184   0.204   0.078
  -0.087   0.140   1.019   2.228   3.071   3.083   2.356   1.363   0.580   0.258
   0.368   0.653
   1.053   0.841   0.396   0.144   0.423   1.227   2.151   2.585   2.131   1.008
  -0.018  -0.284   0.122   0.502   0.376   0.004  -0.051   0.277   0.493   0.277
  -0.051   0.004   0.376   0.502   0.122  -0.284  -0.018   1.008   2.131   2.585
   2.151   1.227   0.423   0.144   0.396   0.841   1.053   0.841   0.396   0.144
   0.423   1.227   2.151   2.585   2.131   1.008  -0.018  -0.284   0.122   0.502
   0.376   0.004  -0.051   0.277   0.493   0.277  -0.051   0.004   0.376   0.502
   0.122  -0.284  -0.018   1.008   2.131   2.585   2.151   1.227   0.423   0.144
   0.396   0.841
 111       5.00   72    0 5.00   18    0
   0.412   0.414   0.419   0.428   0.440   0.454   0.472   0.491   0.511   0.532
   0.554   0.575   0.595   0.613   0.628   0.641   0.651   0.656   0.658   0.656
   0.651   0.641   0.628   0.613   0.595   0.575   0.554   0.532   0.511   0.491
   0.472   0.454   0.440   0.428   0.419   0.414   0.412   0.414   0.419   0.428
   0.440   0.454   0.472   0.491   0.511   0.532   0.554   0.575   0.595   0.613
   0.628   0.641   0.651   0.656   0.658   0.656   0.651   0.641   0.628   0.613
   0.595   0.575   0.554   0.532   0.511   0.491   0.472   0.454   0.440   0.428
   0.419   0.414
  -0.650  -0.645  -0.631  -0.605  -0.567  -0.514  -0.445  -0.360  -0.258  -0.141
  -0.013   0.122   0.258   0.389   0.507   0.607   0.683   0.731   0.747   0.731
   0.683   0.607   0.507   0.389   0.258   0.122  -0.013  -0.141  -0.258  -0.360
  -0.445  -0.514  -0.567  -0.605  -0.631  -0.645  -0.650  -0.645  -0.631  -0.605
  -0.567  -0.514  -0.445  -0.360  -0.258  -0.141  -0.013   0.122   0.258   0.389
   0.507   0.607   0.683   0.731   0.747   0.731   0.683   0.607   0.507   0.389
   0.258   0.122  -0.013  -0.141  -0.258  -0.360  -0.445  -0.514  -0.567  -0.605
  -0.631  -0.645
  -0.017  -0.047  -0.133  -0.260  -0.409  -0.556  -0.678  -0.753  -0.767  -0.715
  -0.598  -0.426  -0.215   0.014   0.241   0.443   0.602   0.704   0.739   0.704
   0.602   0.443   0.241   0.014  -0.215  -0.426  -0.598  -0.715  -0.767  -0.753
  -0.678  -0.556  -0.409  -0.260  -0.133  -0.047  -0.017  -0.047  -0.133  -0.260
  -0.409  -0.556  -0.678  -0.753  -0.767  -0.715  -0.598  -0.426  -0.215   0.014
   0.241   0.443   0.602   0.704   0.739   0.704   0.602   0.443   0.241   0.014
  -0.215  -0.426  -0.598  -0.715  -0.767  -0.753  -0.678  -0.556  -0.409  -0.260
  -0.133  -0.047
   3.444   3.329   2.999   2.496   1.880   1.225   0.600   0.067  -0.332  -0.577
  -0.669  -0.626  -0.482  -0.275  -0.044   0.175   0.353   0.469   0.509   0.469
   0.353   0.175  -0.044  -0.275  -0.482  -0.626  -0.669  -0.577  -0.332   0.067
   0.600   1.225   1.880   2.496   2.999   3.329   3.444   3.329   2.999   2.496
   1.880   1.225   0.600   0.067  -0.332  -0.577  -0.669  -0.626  -0.482  -0.275
  -0.044   0.175   0.353   0.469   0.509   0.469   0.353   0.175  -0.044  -0.275
  -0.482  -0.626  -0.669  -0.577  -0.332   0.067   0.600   1.225   1.880   2.496
   2.999   3.329
   6.981   6.790   6.243   5.408   4.387   3.296   2.249   1.335   0.614   0.108
  -0.195  -0.326  -0.331  -0.255  -0.138  -0.014   0.093   0.164   0.188   0.164
   0.093  -0.014  -0.138  -0.255  -0.331  -0.326  -0.195   0.108   0.614   1.335
   2.249   3.296   4.387   5.408   6.243   6.790   6.981   6.790   6.243   5.408
   4.387   3.296   2.249   1.335   0.614   0.108  -0.195  -0.326  -0.331  -0.255
  -0.138  -0.014   0.093   0.164   0.188   0.164   0.093  -0.014  -0.138  -0.255
  -0.331  -0.326  -0.195   0.108   0.614   1.335   2.249   3.296   4.387   5.408
   6.243   6.790
   7.172   6.994   6.484   5.708   4.763   3.760   2.805   1.974   1.308   0.810
   0.456   0.215   0.060  -0.027  -0.056  -0.041   0.000   0.039   0.055   0.039
   0.000  -0.041  -0.056  -0.027   0.060   0.215   0.456   0.810   1.308   1.974
   2.805   3.760   4.763   5.708   6.484   6.994   7.172   6.994   6.484   5.708
   4.763   3.760   2.805   1.974   1.308   0.810   0.456   0.215   0.060  -0.027
  -0.056  -0.041   0.000   0.039   0.055   0.039   0.000  -0.041  -0.056  -0.027
   0.060   0.215   0.456   0.810   1.308   1.974   2.805   3.760   4.763   5.708
   6.484   6.994
   4.072   4.002   3.801   3.491   3.108   2.699   2.309   1.959   1.647   1.343
   1.020   0.674   0.340   0.079  -0.055  -0.051   0.048   0.161   0.209   0.161
   0.048  -0.051  -0.055   0.079   0.340   0.674   1.020   1.343   1.647   1.959
   2.309   2.699   3.108   3.491   3.801   4.002   4.072   4.002   3.801   3.491
   3.108   2.699   2.309   1.959   1.647   1.343   1.020   0.674   0.340   0.079
  -0.055  -0.051   0.048   0.161   0.209   0.161   0.048  -0.051  -0.055   0.079
   0.340   0.674   1.020   1.343   1.647   1.959   2.309   2.699   3.108   3.491
   3.801   4.002
   0.746   0.795   0.930   1.119   1.329   1.538   1.732   1.886   1.949   1.855
   1.558   1.079   0.524   0.055  -0.186  -0.153   0.071   0.318   0.423   0.318
   0.071  -0.153  -0.186   0.055   0.524   1.079   1.558   1.855   1.949   1.886
   1.732   1.538   1.329   1.119   0.930   0.795   0.746   0.795   0.930   1.119
   1.329   1.538   1.732   1.886   1.949   1.855   1.558   1.079   0.524   0.055
  -0.186  -0.153   0.071   0.318   0.423   0.318   0.071  -0.153  -0.186   0.055
   0.524   1.079   1.558   1.855   1.949   1.886   1.732   1.538   1.329   1.119
   0.930   0.795
  -0.576  -0.490  -0.250   0.095   0.491   0.910   1.341   1.763   2.111   2.273
   2.139   1.685   1.020   0.364  -0.061  -0.149   0.030   0.278   0.389   0.278
   0.030  -0.149  -0.061   0.364   1.020   1.685   2.139   2.273   2.111   1.763
   1.341   0.910   0.491   0.095  -0.250  -0.490  -0.576  -0.490  -0.250   0.095
   0.491   0.910   1.341   1.763   2.111   2.273   2.139   1.685   1.020   0.364
  -0.061  -0.149   0.030   0.278   0.389   0.278   0.030  -0.149  -0.061   0.364
   1.020   1.685   2.139   2.273   2.111   1.763   1.341   0.910   0.491   0.095
  -0.250  -0.490
  -0.353  -0.313  -0.204  -0.048   0.138   0.368   0.685   1.129   1.672   2.184
   2.471   2.388   1.939   1.292   0.681   0.280   0.118   0.105   0.118   0.105
   0.118   0.280   0.681   1.292   1.939   2.388   2.471   2.184   1.672   1.129
   0.685   0.368   0.138  -0.048  -0.204  -0.313  -0.353  -0.313  -0.204  -0.048
   0.138   0.368   0.685   1.129   1.672   2.184   2.471   2.388   1.939   1.292
   0.681   0.280   0.118   0.105   0.118   0.105   0.118   0.280   0.681   1.292
   1.939   2.388   2.471   2.184   1.672   1.129   0.685   0.368   0.138  -0.048
  -0.204  -0.313
   0.013  -0.007  -0.056  -0.118  -0.177  -0.204  -0.131   0.142   0.675   1.402
   2.119   2.586   2.655   2.337   1.770   1.123   0.547   0.152   0.011   0.152
   0.547   1.123   1.770   2.337   2.655   2.586   2.119   1.402   0.675   0.142
  -0.131  -0.204  -0.177  -0.118  -0.056  -0.007   0.013  -0.007  -0.056  -0.118
  -0.177  -0.204  -0.131   0.142   0.675   1.402   2.119   2.586   2.655   2.337
   1.770   1.123   0.547   0.152   0.011   0.152   0.547   1.123   1.770   2.337
   2.655   2.586   2.119   1.402   0.675   0.142  -0.131  -0.204  -0.177  -0.118
  -0.056  -0.007
   0.071   0.033  -0.053  -0.135  -0.200  -0.276  -0.360  -0.360  -0.136   0.385
   1.121   1.869   2.415   2.620   2.445   1.942   1.274   0.699   0.470   0.699
   1.274   1.942   2.445   2.620   2.415   1.869   1.121   0.385  -0.136  -0.360
  -0.360  -0.276  -0.200  -0.135  -0.053   0.033   0.071   0.033  -0.053  -0.135
  -0.200  -0.276  -0.360  -0.360  -0.136   0.385   1.121   1.869   2.415   2.620
   2.445   1.942   1.274   0.699   0.470   0.699   1.274   1.942   2.445   2.620
   2.415   1.869   1.121   0.385  -0.136  -0.360  -0.360  -0.276  -0.200  -0.135
  -0.053   0.033
   0.032  -0.006  -0.069  -0.065   0.027   0.118   0.093  -0.055  -0.195  -0.154
   0.154   0.685   1.316   1.896   2.259   2.284   1.999   1.624   1.453   1.624
   1.999   2.284   2.259   1.896   1.316   0.685   0.154  -0.154  -0.195  -0.055
   0.093   0.118   0.027  -0.065  -0.069  -0.006   0.032  -0.006  -0.069  -0.065
   0.027   0.118   0.093  -0.055  -0.195  -0.154   0.154   0.685   1.316   1.896
   2.259   2.284   1.999   1.624   1.453   1.624   1.999   2.284   2.259   1.896
   1.316   0.685   0.154  -0.154  -0.195  -0.055   0.093   0.118   0.027  -0.065
  -0.069  -0.006
  -0.073  -0.130  -0.237  -0.257  -0.106   0.156   0.365   0.385   0.225   0.011
  -0.110  -0.039   0.277   0.828   1.498   2.073   2.392   2.473   2.470   2.473
   2.392   2.073   1.498   0.828   0.277  -0.039  -0.110   0.011   0.225   0.385
   0.365   0.156  -0.106  -0.257  -0.237  -0.130  -0.073  -0.130  -0.237  -0.257
  -0.106   0.156   0.365   0.385   0.225   0.011  -0.110  -0.039   0.277   0.828
   1.498   2.073   2.392   2.473   2.470   2.473   2.392   2.073   1.498   0.828
   0.277  -0.039  -0.110   0.011   0.225   0.385   0.365   0.156  -0.106  -0.257
  -0.237  -0.130
  -0.019  -0.088  -0.260  -0.430  -0.460  -0.278   0.045   0.340   0.479   0.437
   0.269   0.067  -0.019   0.185   0.753   1.555   2.324   2.839   3.014   2.839
   2.324   1.555   0.753   0.185  -0.019   0.067   0.269   0.437   0.479   0.340
   0.045  -0.278  -0.460  -0.430  -0.260  -0.088  -0.019  -0.088  -0.260  -0.430
  -0.460  -0.278   0.045   0.340   0.479   0.437   0.269   0.067  -0.019   0.185
   0.753   1.555   2.324   2.839   3.014   2.839   2.324   1.555   0.753   0.185
  -0.019   0.067   0.269   0.437   0.479   0.340   0.045  -0.278  -0.460  -0.430
  -0.260  -0.088
   0.969   0.966   0.886   0.632   0.270   0.003  -0.031   0.133   0.366   0.554
   0.610   0.477   0.217   0.067   0.302   0.993   1.910   2.670   2.961   2.670
   1.910   0.993   0.302   0.067   0.217   0.477   0.610   0.554   0.366   0.133
  -0.031   0.003   0.270   0.632   0.886   0.966   0.969   0.966   0.886   0.632
   0.270   0.003  -0.031   0.133   0.366   0.554   0.610   0.477   0.217   0.067
   0.302   0.993   1.910   2.670   2.961   2.670   1.910   0.993   0.302   0.067
   0.217   0.477   0.610   0.554   0.366   0.133  -0.031   0.003   0.270   0.632
   0.886   0.966
   3.105   3.253   3.464   3.313   2.650   1.719   0.884   0.353   0.159   0.248
   0.466   0.568   0.398   0.103   0.058   0.531   1.406   2.244   2.587   2.244
   1.406   0.531   0.058   0.103   0.398   0.568   0.466   0.248   0.159   0.353
   0.884   1.719   2.650   3.313   3.464   3.253   3.105   3.253   3.464   3.313
   2.650   1.719   0.884   0.353   0.159   0.248   0.466   0.568   0.398   0.103
   0.058   0.531   1.406   2.244   2.587   2.244   1.406   0.531   0.058   0.103
   0.398   0.568   0.466   0.248   0.159   0.353   0.884   1.719   2.650   3.313
   3.464   3.253
   5.038   5.318   5.804   5.810   4.985   3.557   2.027   0.795   0.066  -0.106
   0.126   0.398   0.378   0.089  -0.076   0.260   1.073   1.919   2.277   1.919
   1.073   0.260  -0.076   0.089   0.378   0.398   0.126  -0.106   0.066   0.795
   2.027   3.557   4.985   5.810   5.804   5.318   5.038   5.318   5.804   5.810
   4.985   3.557   2.027   0.795   0.066  -0.106   0.126   0.398   0.378   0.089
  -0.076   0.260   1.073   1.919   2.277   1.919   1.073   0.260  -0.076   0.089
   0.378   0.398   0.126  -0.106   0.066   0.795   2.027   3.557   4.985   5.810
   5.804   5.318
TEXTURE_INDEX=   8.5285
ERR_CF 220         1080     436  141.01   29.68
ERR_CF 200         1080     268  147.80   24.92
ERR_CF 111         1036     252  360.88   22.34
