TEXEVAL                                                                         
Analysis started on 31-Aug-18 11:38:42                                          
 LMAX=16LFMAX=03 CUBIC ORTHO   
 220      5.00 5.00
 200      5.00 5.00
 111      5.00 5.00
 220       5.00   72    0 5.00   15    0
   2.859   2.859   2.859   2.859   2.859   2.859   2.859   2.859   2.859   2.859
   2.859   2.859   2.859   2.859   2.859   2.859   2.859   2.859   2.859   2.859
   2.859   2.859   2.859   2.859   2.859   2.859   2.859   2.859   2.859   2.859
   2.859   2.859   2.859   2.859   2.859   2.859   2.859   2.859   2.859   2.859
   2.859   2.859   2.859   2.859   2.859   2.859   2.859   2.859   2.859   2.859
   2.859   2.859   2.859   2.859   2.859   2.859   2.859   2.859   2.859   2.859
   2.859   2.859   2.859   2.859   2.859   2.859   2.859   2.859   2.859   2.859
   2.859   2.859
   1.137   0.928   0.748   0.856   1.037   0.951   1.056   1.286   1.464   1.643
   1.770   2.130   2.534   2.493   2.482   2.726   3.001   3.150   3.037   3.150
   3.001   2.726   2.482   2.493   2.534   2.130   1.770   1.643   1.464   1.286
   1.056   0.951   1.037   0.856   0.748   0.928   1.137   0.928   0.748   0.856
   1.037   0.951   1.056   1.286   1.464   1.643   1.770   2.130   2.534   2.493
   2.482   2.726   3.001   3.150   3.037   3.150   3.001   2.726   2.482   2.493
   2.534   2.130   1.770   1.643   1.464   1.286   1.056   0.951   1.037   0.856
   0.748   0.928
   0.313   0.296   0.189   0.276   0.331   0.391   0.422   0.667   0.619   0.851
   1.079   1.323   1.906   2.060   2.552   2.976   3.603   3.780   4.208   3.780
   3.603   2.976   2.552   2.060   1.906   1.323   1.079   0.851   0.619   0.667
   0.422   0.391   0.331   0.276   0.189   0.296   0.313   0.296   0.189   0.276
   0.331   0.391   0.422   0.667   0.619   0.851   1.079   1.323   1.906   2.060
   2.552   2.976   3.603   3.780   4.208   3.780   3.603   2.976   2.552   2.060
   1.906   1.323   1.079   0.851   0.619   0.667   0.422   0.391   0.331   0.276
   0.189   0.296
   0.116   0.130   0.129   0.124   0.207   0.222   0.252   0.431   0.418   0.574
   0.810   1.171   1.573   2.275   3.090   4.181   4.960   5.429   6.225   5.429
   4.960   4.181   3.090   2.275   1.573   1.171   0.810   0.574   0.418   0.431
   0.252   0.222   0.207   0.124   0.129   0.130   0.116   0.130   0.129   0.124
   0.207   0.222   0.252   0.431   0.418   0.574   0.810   1.171   1.573   2.275
   3.090   4.181   4.960   5.429   6.225   5.429   4.960   4.181   3.090   2.275
   1.573   1.171   0.810   0.574   0.418   0.431   0.252   0.222   0.207   0.124
   0.129   0.130
   0.049   0.092   0.114   0.104   0.134   0.122   0.245   0.260   0.294   0.376
   0.610   0.898   1.122   2.011   3.027   4.520   5.837   7.249   8.020   7.249
   5.837   4.520   3.027   2.011   1.122   0.898   0.610   0.376   0.294   0.260
   0.245   0.122   0.134   0.104   0.114   0.092   0.049   0.092   0.114   0.104
   0.134   0.122   0.245   0.260   0.294   0.376   0.610   0.898   1.122   2.011
   3.027   4.520   5.837   7.249   8.020   7.249   5.837   4.520   3.027   2.011
   1.122   0.898   0.610   0.376   0.294   0.260   0.245   0.122   0.134   0.104
   0.114   0.092
   0.073   0.063   0.063   0.113   0.071   0.106   0.203   0.179   0.225   0.320
   0.536   0.672   0.937   1.403   2.342   3.556   5.234   6.798   7.078   6.798
   5.234   3.556   2.342   1.403   0.937   0.672   0.536   0.320   0.225   0.179
   0.203   0.106   0.071   0.113   0.063   0.063   0.073   0.063   0.063   0.113
   0.071   0.106   0.203   0.179   0.225   0.320   0.536   0.672   0.937   1.403
   2.342   3.556   5.234   6.798   7.078   6.798   5.234   3.556   2.342   1.403
   0.937   0.672   0.536   0.320   0.225   0.179   0.203   0.106   0.071   0.113
   0.063   0.063
   0.120   0.108   0.127   0.150   0.087   0.117   0.149   0.173   0.188   0.339
   0.468   0.609   0.971   1.572   2.481   3.421   4.573   4.812   4.241   4.812
   4.573   3.421   2.481   1.572   0.971   0.609   0.468   0.339   0.188   0.173
   0.149   0.117   0.087   0.150   0.127   0.108   0.120   0.108   0.127   0.150
   0.087   0.117   0.149   0.173   0.188   0.339   0.468   0.609   0.971   1.572
   2.481   3.421   4.573   4.812   4.241   4.812   4.573   3.421   2.481   1.572
   0.971   0.609   0.468   0.339   0.188   0.173   0.149   0.117   0.087   0.150
   0.127   0.108
   0.580   0.341   0.283   0.335   0.166   0.135   0.125   0.186   0.167   0.299
   0.365   0.568   0.876   1.565   2.879   3.859   4.005   3.116   2.754   3.116
   4.005   3.859   2.879   1.565   0.876   0.568   0.365   0.299   0.167   0.186
   0.125   0.135   0.166   0.335   0.283   0.341   0.580   0.341   0.283   0.335
   0.166   0.135   0.125   0.186   0.167   0.299   0.365   0.568   0.876   1.565
   2.879   3.859   4.005   3.116   2.754   3.116   4.005   3.859   2.879   1.565
   0.876   0.568   0.365   0.299   0.167   0.186   0.125   0.135   0.166   0.335
   0.283   0.341
   0.952   0.719   0.530   0.546   0.241   0.133   0.157   0.198   0.137   0.199
   0.228   0.405   0.651   1.149   2.117   2.998   2.706   1.816   1.811   1.816
   2.706   2.998   2.117   1.149   0.651   0.405   0.228   0.199   0.137   0.198
   0.157   0.133   0.241   0.546   0.530   0.719   0.952   0.719   0.530   0.546
   0.241   0.133   0.157   0.198   0.137   0.199   0.228   0.405   0.651   1.149
   2.117   2.998   2.706   1.816   1.811   1.816   2.706   2.998   2.117   1.149
   0.651   0.405   0.228   0.199   0.137   0.198   0.157   0.133   0.241   0.546
   0.530   0.719
   0.975   1.038   0.787   0.550   0.376   0.168   0.331   0.182   0.185   0.176
   0.131   0.219   0.363   0.722   1.094   1.536   1.334   1.118   0.910   1.118
   1.334   1.536   1.094   0.722   0.363   0.219   0.131   0.176   0.185   0.182
   0.331   0.168   0.376   0.550   0.787   1.038   0.975   1.038   0.787   0.550
   0.376   0.168   0.331   0.182   0.185   0.176   0.131   0.219   0.363   0.722
   1.094   1.536   1.334   1.118   0.910   1.118   1.334   1.536   1.094   0.722
   0.363   0.219   0.131   0.176   0.185   0.182   0.331   0.168   0.376   0.550
   0.787   1.038
   2.614   2.716   1.701   1.032   0.683   0.401   0.491   0.121   0.217   0.228
   0.161   0.108   0.200   0.353   0.668   0.695   0.534   0.659   0.546   0.659
   0.534   0.695   0.668   0.353   0.200   0.108   0.161   0.228   0.217   0.121
   0.491   0.401   0.683   1.032   1.701   2.716   2.614   2.716   1.701   1.032
   0.683   0.401   0.491   0.121   0.217   0.228   0.161   0.108   0.200   0.353
   0.668   0.695   0.534   0.659   0.546   0.659   0.534   0.695   0.668   0.353
   0.200   0.108   0.161   0.228   0.217   0.121   0.491   0.401   0.683   1.032
   1.701   2.716
   5.615   5.294   3.065   1.925   1.265   0.899   0.860   0.313   0.225   0.365
   0.216   0.138   0.172   0.211   0.509   0.285   0.254   0.308   0.374   0.308
   0.254   0.285   0.509   0.211   0.172   0.138   0.216   0.365   0.225   0.313
   0.860   0.899   1.265   1.925   3.065   5.294   5.615   5.294   3.065   1.925
   1.265   0.899   0.860   0.313   0.225   0.365   0.216   0.138   0.172   0.211
   0.509   0.285   0.254   0.308   0.374   0.308   0.254   0.285   0.509   0.211
   0.172   0.138   0.216   0.365   0.225   0.313   0.860   0.899   1.265   1.925
   3.065   5.294
   4.750   4.340   2.969   2.469   2.101   1.705   1.323   0.745   0.487   0.396
   0.320   0.410   0.205   0.323   0.396   0.273   0.240   0.186   0.307   0.186
   0.240   0.273   0.396   0.323   0.205   0.410   0.320   0.396   0.487   0.745
   1.323   1.705   2.101   2.469   2.969   4.340   4.750   4.340   2.969   2.469
   2.101   1.705   1.323   0.745   0.487   0.396   0.320   0.410   0.205   0.323
   0.396   0.273   0.240   0.186   0.307   0.186   0.240   0.273   0.396   0.323
   0.205   0.410   0.320   0.396   0.487   0.745   1.323   1.705   2.101   2.469
   2.969   4.340
   1.555   1.607   1.975   2.191   2.340   2.183   1.534   1.258   1.112   0.507
   0.375   0.540   0.440   0.338   0.347   0.459   0.335   0.201   0.417   0.201
   0.335   0.459   0.347   0.338   0.440   0.540   0.375   0.507   1.112   1.258
   1.534   2.183   2.340   2.191   1.975   1.607   1.555   1.607   1.975   2.191
   2.340   2.183   1.534   1.258   1.112   0.507   0.375   0.540   0.440   0.338
   0.347   0.459   0.335   0.201   0.417   0.201   0.335   0.459   0.347   0.338
   0.440   0.540   0.375   0.507   1.112   1.258   1.534   2.183   2.340   2.191
   1.975   1.607
   0.349   0.461   0.848   0.982   1.315   1.267   0.981   1.356   1.677   1.404
   0.621   0.509   0.387   0.275   0.549   0.768   0.603   0.222   0.558   0.222
   0.603   0.768   0.549   0.275   0.387   0.509   0.621   1.404   1.677   1.356
   0.981   1.267   1.315   0.982   0.848   0.461   0.349   0.461   0.848   0.982
   1.315   1.267   0.981   1.356   1.677   1.404   0.621   0.509   0.387   0.275
   0.549   0.768   0.603   0.222   0.558   0.222   0.603   0.768   0.549   0.275
   0.387   0.509   0.621   1.404   1.677   1.356   0.981   1.267   1.315   0.982
   0.848   0.461
 200       5.00   72    0 5.00   15    0
   1.697   1.697   1.697   1.697   1.697   1.697   1.697   1.697   1.697   1.697
   1.697   1.697   1.697   1.697   1.697   1.697   1.697   1.697   1.697   1.697
   1.697   1.697   1.697   1.697   1.697   1.697   1.697   1.697   1.697   1.697
   1.697   1.697   1.697   1.697   1.697   1.697   1.697   1.697   1.697   1.697
   1.697   1.697   1.697   1.697   1.697   1.697   1.697   1.697   1.697   1.697
   1.697   1.697   1.697   1.697   1.697   1.697   1.697   1.697   1.697   1.697
   1.697   1.697   1.697   1.697   1.697   1.697   1.697   1.697   1.697   1.697
   1.697   1.697
   0.993   1.608   1.215   1.059   1.211   1.100   1.165   1.536   1.021   1.394
   1.357   1.649   2.047   1.518   1.576   1.600   1.532   2.183   1.648   2.183
   1.532   1.600   1.576   1.518   2.047   1.649   1.357   1.394   1.021   1.536
   1.165   1.100   1.211   1.059   1.215   1.608   0.993   1.608   1.215   1.059
   1.211   1.100   1.165   1.536   1.021   1.394   1.357   1.649   2.047   1.518
   1.576   1.600   1.532   2.183   1.648   2.183   1.532   1.600   1.576   1.518
   2.047   1.649   1.357   1.394   1.021   1.536   1.165   1.100   1.211   1.059
   1.215   1.608
   0.688   0.754   0.508   0.492   0.664   0.550   0.790   0.743   0.702   0.598
   0.650   0.572   1.065   0.726   0.876   0.801   0.845   0.959   0.856   0.959
   0.845   0.801   0.876   0.726   1.065   0.572   0.650   0.598   0.702   0.743
   0.790   0.550   0.664   0.492   0.508   0.754   0.688   0.754   0.508   0.492
   0.664   0.550   0.790   0.743   0.702   0.598   0.650   0.572   1.065   0.726
   0.876   0.801   0.845   0.959   0.856   0.959   0.845   0.801   0.876   0.726
   1.065   0.572   0.650   0.598   0.702   0.743   0.790   0.550   0.664   0.492
   0.508   0.754
   0.532   0.399   0.417   0.260   0.593   0.508   0.500   0.427   0.551   0.357
   0.297   0.300   0.496   0.467   0.413   0.467   0.438   0.528   0.471   0.528
   0.438   0.467   0.413   0.467   0.496   0.300   0.297   0.357   0.551   0.427
   0.500   0.508   0.593   0.260   0.417   0.399   0.532   0.399   0.417   0.260
   0.593   0.508   0.500   0.427   0.551   0.357   0.297   0.300   0.496   0.467
   0.413   0.467   0.438   0.528   0.471   0.528   0.438   0.467   0.413   0.467
   0.496   0.300   0.297   0.357   0.551   0.427   0.500   0.508   0.593   0.260
   0.417   0.399
   0.615   0.765   0.610   0.662   0.907   0.774   0.733   0.584   0.647   0.421
   0.290   0.333   0.405   0.375   0.264   0.374   0.269   0.483   0.382   0.483
   0.269   0.374   0.264   0.375   0.405   0.333   0.290   0.421   0.647   0.584
   0.733   0.774   0.907   0.662   0.610   0.765   0.615   0.765   0.610   0.662
   0.907   0.774   0.733   0.584   0.647   0.421   0.290   0.333   0.405   0.375
   0.264   0.374   0.269   0.483   0.382   0.483   0.269   0.374   0.264   0.375
   0.405   0.333   0.290   0.421   0.647   0.584   0.733   0.774   0.907   0.662
   0.610   0.765
   2.705   2.721   2.887   3.102   2.683   2.629   2.040   1.599   0.931   0.697
   0.416   0.372   0.411   0.358   0.260   0.303   0.274   0.387   0.419   0.387
   0.274   0.303   0.260   0.358   0.411   0.372   0.416   0.697   0.931   1.599
   2.040   2.629   2.683   3.102   2.887   2.721   2.705   2.721   2.887   3.102
   2.683   2.629   2.040   1.599   0.931   0.697   0.416   0.372   0.411   0.358
   0.260   0.303   0.274   0.387   0.419   0.387   0.274   0.303   0.260   0.358
   0.411   0.372   0.416   0.697   0.931   1.599   2.040   2.629   2.683   3.102
   2.887   2.721
   3.974   4.078   4.636   5.289   5.044   5.384   4.644   3.412   2.040   1.306
   0.760   0.447   0.429   0.285   0.224   0.303   0.301   0.440   0.548   0.440
   0.301   0.303   0.224   0.285   0.429   0.447   0.760   1.306   2.040   3.412
   4.644   5.384   5.044   5.289   4.636   4.078   3.974   4.078   4.636   5.289
   5.044   5.384   4.644   3.412   2.040   1.306   0.760   0.447   0.429   0.285
   0.224   0.303   0.301   0.440   0.548   0.440   0.301   0.303   0.224   0.285
   0.429   0.447   0.760   1.306   2.040   3.412   4.644   5.384   5.044   5.289
   4.636   4.078
   1.838   2.131   2.502   3.314   3.734   4.398   4.260   3.488   2.844   1.868
   1.153   0.642   0.493   0.310   0.408   0.356   0.410   0.541   0.475   0.541
   0.410   0.356   0.408   0.310   0.493   0.642   1.153   1.868   2.844   3.488
   4.260   4.398   3.734   3.314   2.502   2.131   1.838   2.131   2.502   3.314
   3.734   4.398   4.260   3.488   2.844   1.868   1.153   0.642   0.493   0.310
   0.408   0.356   0.410   0.541   0.475   0.541   0.410   0.356   0.408   0.310
   0.493   0.642   1.153   1.868   2.844   3.488   4.260   4.398   3.734   3.314
   2.502   2.131
   0.166   0.207   0.428   0.675   1.027   1.329   1.583   1.620   1.800   1.480
   1.271   0.952   0.680   0.550   0.551   0.495   0.570   0.529   0.455   0.529
   0.570   0.495   0.551   0.550   0.680   0.952   1.271   1.480   1.800   1.620
   1.583   1.329   1.027   0.675   0.428   0.207   0.166   0.207   0.428   0.675
   1.027   1.329   1.583   1.620   1.800   1.480   1.271   0.952   0.680   0.550
   0.551   0.495   0.570   0.529   0.455   0.529   0.570   0.495   0.551   0.550
   0.680   0.952   1.271   1.480   1.800   1.620   1.583   1.329   1.027   0.675
   0.428   0.207
   0.066   0.056   0.107   0.175   0.275   0.255   0.539   0.472   0.616   0.588
   0.951   1.242   1.145   0.912   0.547   0.656   0.602   0.571   0.562   0.571
   0.602   0.656   0.547   0.912   1.145   1.242   0.951   0.588   0.616   0.472
   0.539   0.255   0.275   0.175   0.107   0.056   0.066   0.056   0.107   0.175
   0.275   0.255   0.539   0.472   0.616   0.588   0.951   1.242   1.145   0.912
   0.547   0.656   0.602   0.571   0.562   0.571   0.602   0.656   0.547   0.912
   1.145   1.242   0.951   0.588   0.616   0.472   0.539   0.255   0.275   0.175
   0.107   0.056
   0.071   0.035   0.026   0.093   0.145   0.125   0.171   0.231   0.393   0.438
   0.849   1.535   2.004   1.450   0.750   0.745   0.577   0.628   0.509   0.628
   0.577   0.745   0.750   1.450   2.004   1.535   0.849   0.438   0.393   0.231
   0.171   0.125   0.145   0.093   0.026   0.035   0.071   0.035   0.026   0.093
   0.145   0.125   0.171   0.231   0.393   0.438   0.849   1.535   2.004   1.450
   0.750   0.745   0.577   0.628   0.509   0.628   0.577   0.745   0.750   1.450
   2.004   1.535   0.849   0.438   0.393   0.231   0.171   0.125   0.145   0.093
   0.026   0.035
   0.117   0.115   0.080   0.125   0.213   0.148   0.243   0.162   0.311   0.669
   1.424   2.453   3.234   2.025   0.984   0.773   0.663   0.709   0.407   0.709
   0.663   0.773   0.984   2.025   3.234   2.453   1.424   0.669   0.311   0.162
   0.243   0.148   0.213   0.125   0.080   0.115   0.117   0.115   0.080   0.125
   0.213   0.148   0.243   0.162   0.311   0.669   1.424   2.453   3.234   2.025
   0.984   0.773   0.663   0.709   0.407   0.709   0.663   0.773   0.984   2.025
   3.234   2.453   1.424   0.669   0.311   0.162   0.243   0.148   0.213   0.125
   0.080   0.115
   0.175   0.206   0.115   0.263   0.297   0.201   0.406   0.265   0.396   1.111
   2.555   3.309   3.473   1.885   1.068   0.746   0.585   0.618   0.372   0.618
   0.585   0.746   1.068   1.885   3.473   3.309   2.555   1.111   0.396   0.265
   0.406   0.201   0.297   0.263   0.115   0.206   0.175   0.206   0.115   0.263
   0.297   0.201   0.406   0.265   0.396   1.111   2.555   3.309   3.473   1.885
   1.068   0.746   0.585   0.618   0.372   0.618   0.585   0.746   1.068   1.885
   3.473   3.309   2.555   1.111   0.396   0.265   0.406   0.201   0.297   0.263
   0.115   0.206
   0.131   0.144   0.148   0.283   0.370   0.395   0.518   0.722   1.547   2.633
   3.688   3.035   1.931   1.154   0.815   0.617   0.403   0.358   0.504   0.358
   0.403   0.617   0.815   1.154   1.931   3.035   3.688   2.633   1.547   0.722
   0.518   0.395   0.370   0.283   0.148   0.144   0.131   0.144   0.148   0.283
   0.370   0.395   0.518   0.722   1.547   2.633   3.688   3.035   1.931   1.154
   0.815   0.617   0.403   0.358   0.504   0.358   0.403   0.617   0.815   1.154
   1.931   3.035   3.688   2.633   1.547   0.722   0.518   0.395   0.370   0.283
   0.148   0.144
   0.195   0.163   0.118   0.263   0.363   0.573   0.727   1.636   3.160   3.742
   2.926   1.750   0.594   0.602   0.476   0.381   0.317   0.246   0.473   0.246
   0.317   0.381   0.476   0.602   0.594   1.750   2.926   3.742   3.160   1.636
   0.727   0.573   0.363   0.263   0.118   0.163   0.195   0.163   0.118   0.263
   0.363   0.573   0.727   1.636   3.160   3.742   2.926   1.750   0.594   0.602
   0.476   0.381   0.317   0.246   0.473   0.246   0.317   0.381   0.476   0.602
   0.594   1.750   2.926   3.742   3.160   1.636   0.727   0.573   0.363   0.263
   0.118   0.163
 111       5.00   72    0 5.00   15    0
   0.059   0.059   0.059   0.059   0.059   0.059   0.059   0.059   0.059   0.059
   0.059   0.059   0.059   0.059   0.059   0.059   0.059   0.059   0.059   0.059
   0.059   0.059   0.059   0.059   0.059   0.059   0.059   0.059   0.059   0.059
   0.059   0.059   0.059   0.059   0.059   0.059   0.059   0.059   0.059   0.059
   0.059   0.059   0.059   0.059   0.059   0.059   0.059   0.059   0.059   0.059
   0.059   0.059   0.059   0.059   0.059   0.059   0.059   0.059   0.059   0.059
   0.059   0.059   0.059   0.059   0.059   0.059   0.059   0.059   0.059   0.059
   0.059   0.059
   0.113   0.047   0.193   0.108   0.108   0.096   0.100   0.104   0.071   0.046
   0.072   0.037   0.035   0.062   0.139   0.084   0.054   0.064   0.022   0.064
   0.054   0.084   0.139   0.062   0.035   0.037   0.072   0.046   0.071   0.104
   0.100   0.096   0.108   0.108   0.193   0.047   0.113   0.047   0.193   0.108
   0.108   0.096   0.100   0.104   0.071   0.046   0.072   0.037   0.035   0.062
   0.139   0.084   0.054   0.064   0.022   0.064   0.054   0.084   0.139   0.062
   0.035   0.037   0.072   0.046   0.071   0.104   0.100   0.096   0.108   0.108
   0.193   0.047
   0.455   0.426   0.473   0.443   0.451   0.239   0.134   0.206   0.083   0.073
   0.060   0.076   0.078   0.069   0.029   0.061   0.104   0.038   0.024   0.038
   0.104   0.061   0.029   0.069   0.078   0.076   0.060   0.073   0.083   0.206
   0.134   0.239   0.451   0.443   0.473   0.426   0.455   0.426   0.473   0.443
   0.451   0.239   0.134   0.206   0.083   0.073   0.060   0.076   0.078   0.069
   0.029   0.061   0.104   0.038   0.024   0.038   0.104   0.061   0.029   0.069
   0.078   0.076   0.060   0.073   0.083   0.206   0.134   0.239   0.451   0.443
   0.473   0.426
   3.922   3.475   3.121   2.647   1.776   1.058   0.639   0.358   0.206   0.114
   0.077   0.075   0.079   0.021   0.028   0.024   0.077   0.016   0.015   0.016
   0.077   0.024   0.028   0.021   0.079   0.075   0.077   0.114   0.206   0.358
   0.639   1.058   1.776   2.647   3.121   3.475   3.922   3.475   3.121   2.647
   1.776   1.058   0.639   0.358   0.206   0.114   0.077   0.075   0.079   0.021
   0.028   0.024   0.077   0.016   0.015   0.016   0.077   0.024   0.028   0.021
   0.079   0.075   0.077   0.114   0.206   0.358   0.639   1.058   1.776   2.647
   3.121   3.475
   9.836   9.345   8.201   6.535   4.243   2.857   1.737   1.018   0.528   0.293
   0.120   0.081   0.126   0.001   0.009   0.027   0.007   0.001   0.000   0.001
   0.007   0.027   0.009   0.001   0.126   0.081   0.120   0.293   0.528   1.018
   1.737   2.857   4.243   6.535   8.201   9.345   9.836   9.345   8.201   6.535
   4.243   2.857   1.737   1.018   0.528   0.293   0.120   0.081   0.126   0.001
   0.009   0.027   0.007   0.001   0.000   0.001   0.007   0.027   0.009   0.001
   0.126   0.081   0.120   0.293   0.528   1.018   1.737   2.857   4.243   6.535
   8.201   9.345
   8.035   8.022   7.081   5.867   4.319   3.313   2.282   1.605   0.976   0.554
   0.304   0.183   0.172   0.042   0.020   0.040   0.006   0.008   0.017   0.008
   0.006   0.040   0.020   0.042   0.172   0.183   0.304   0.554   0.976   1.605
   2.282   3.313   4.319   5.867   7.081   8.022   8.035   8.022   7.081   5.867
   4.319   3.313   2.282   1.605   0.976   0.554   0.304   0.183   0.172   0.042
   0.020   0.040   0.006   0.008   0.017   0.008   0.006   0.040   0.020   0.042
   0.172   0.183   0.304   0.554   0.976   1.605   2.282   3.313   4.319   5.867
   7.081   8.022
   2.807   2.698   2.633   2.429   2.264   2.059   1.747   1.440   1.075   0.627
   0.509   0.281   0.213   0.159   0.152   0.055   0.045   0.073   0.052   0.073
   0.045   0.055   0.152   0.159   0.213   0.281   0.509   0.627   1.075   1.440
   1.747   2.059   2.264   2.429   2.633   2.698   2.807   2.698   2.633   2.429
   2.264   2.059   1.747   1.440   1.075   0.627   0.509   0.281   0.213   0.159
   0.152   0.055   0.045   0.073   0.052   0.073   0.045   0.055   0.152   0.159
   0.213   0.281   0.509   0.627   1.075   1.440   1.747   2.059   2.264   2.429
   2.633   2.698
   1.364   1.254   1.366   1.311   1.237   1.308   1.198   1.131   1.033   0.801
   0.647   0.363   0.343   0.288   0.287   0.191   0.096   0.148   0.092   0.148
   0.096   0.191   0.287   0.288   0.343   0.363   0.647   0.801   1.033   1.131
   1.198   1.308   1.237   1.311   1.366   1.254   1.364   1.254   1.366   1.311
   1.237   1.308   1.198   1.131   1.033   0.801   0.647   0.363   0.343   0.288
   0.287   0.191   0.096   0.148   0.092   0.148   0.096   0.191   0.287   0.288
   0.343   0.363   0.647   0.801   1.033   1.131   1.198   1.308   1.237   1.311
   1.366   1.254
   0.407   0.453   0.495   0.633   0.635   0.937   1.027   0.960   1.251   1.410
   1.267   0.722   0.614   0.401   0.318   0.249   0.179   0.181   0.119   0.181
   0.179   0.249   0.318   0.401   0.614   0.722   1.267   1.410   1.251   0.960
   1.027   0.937   0.635   0.633   0.495   0.453   0.407   0.453   0.495   0.633
   0.635   0.937   1.027   0.960   1.251   1.410   1.267   0.722   0.614   0.401
   0.318   0.249   0.179   0.181   0.119   0.181   0.179   0.249   0.318   0.401
   0.614   0.722   1.267   1.410   1.251   0.960   1.027   0.937   0.635   0.633
   0.495   0.453
   0.120   0.201   0.115   0.250   0.281   0.535   0.803   1.020   1.608   2.093
   2.370   1.686   1.329   0.764   0.513   0.252   0.320   0.268   0.158   0.268
   0.320   0.252   0.513   0.764   1.329   1.686   2.370   2.093   1.608   1.020
   0.803   0.535   0.281   0.250   0.115   0.201   0.120   0.201   0.115   0.250
   0.281   0.535   0.803   1.020   1.608   2.093   2.370   1.686   1.329   0.764
   0.513   0.252   0.320   0.268   0.158   0.268   0.320   0.252   0.513   0.764
   1.329   1.686   2.370   2.093   1.608   1.020   0.803   0.535   0.281   0.250
   0.115   0.201
   0.066   0.088   0.100   0.141   0.164   0.258   0.441   0.913   1.792   2.466
   2.977   2.689   2.287   1.560   0.948   0.461   0.516   0.438   0.237   0.438
   0.516   0.461   0.948   1.560   2.287   2.689   2.977   2.466   1.792   0.913
   0.441   0.258   0.164   0.141   0.100   0.088   0.066   0.088   0.100   0.141
   0.164   0.258   0.441   0.913   1.792   2.466   2.977   2.689   2.287   1.560
   0.948   0.461   0.516   0.438   0.237   0.438   0.516   0.461   0.948   1.560
   2.287   2.689   2.977   2.466   1.792   0.913   0.441   0.258   0.164   0.141
   0.100   0.088
   0.079   0.077   0.090   0.098   0.064   0.136   0.213   0.556   1.456   2.136
   2.305   2.313   2.348   2.176   1.700   1.240   0.811   0.699   0.563   0.699
   0.811   1.240   1.700   2.176   2.348   2.313   2.305   2.136   1.456   0.556
   0.213   0.136   0.064   0.098   0.090   0.077   0.079   0.077   0.090   0.098
   0.064   0.136   0.213   0.556   1.456   2.136   2.305   2.313   2.348   2.176
   1.700   1.240   0.811   0.699   0.563   0.699   0.811   1.240   1.700   2.176
   2.348   2.313   2.305   2.136   1.456   0.556   0.213   0.136   0.064   0.098
   0.090   0.077
   0.115   0.109   0.109   0.172   0.064   0.158   0.230   0.343   0.826   1.234
   1.225   0.999   1.232   1.674   1.989   2.291   1.703   1.234   1.084   1.234
   1.703   2.291   1.989   1.674   1.232   0.999   1.225   1.234   0.826   0.343
   0.230   0.158   0.064   0.172   0.109   0.109   0.115   0.109   0.109   0.172
   0.064   0.158   0.230   0.343   0.826   1.234   1.225   0.999   1.232   1.674
   1.989   2.291   1.703   1.234   1.084   1.234   1.703   2.291   1.989   1.674
   1.232   0.999   1.225   1.234   0.826   0.343   0.230   0.158   0.064   0.172
   0.109   0.109
   0.084   0.084   0.175   0.125   0.190   0.124   0.240   0.278   0.414   0.572
   0.596   0.402   0.465   0.746   1.223   2.211   2.551   1.962   1.473   1.962
   2.551   2.211   1.223   0.746   0.465   0.402   0.596   0.572   0.414   0.278
   0.240   0.124   0.190   0.125   0.175   0.084   0.084   0.084   0.175   0.125
   0.190   0.124   0.240   0.278   0.414   0.572   0.596   0.402   0.465   0.746
   1.223   2.211   2.551   1.962   1.473   1.962   2.551   2.211   1.223   0.746
   0.465   0.402   0.596   0.572   0.414   0.278   0.240   0.124   0.190   0.125
   0.175   0.084
   0.161   0.181   0.185   0.109   0.328   0.117   0.286   0.315   0.286   0.341
   0.328   0.294   0.424   0.324   0.541   1.246   2.129   2.199   1.823   2.199
   2.129   1.246   0.541   0.324   0.424   0.294   0.328   0.341   0.286   0.315
   0.286   0.117   0.328   0.109   0.185   0.181   0.161   0.181   0.185   0.109
   0.328   0.117   0.286   0.315   0.286   0.341   0.328   0.294   0.424   0.324
   0.541   1.246   2.129   2.199   1.823   2.199   2.129   1.246   0.541   0.324
   0.424   0.294   0.328   0.341   0.286   0.315   0.286   0.117   0.328   0.109
   0.185   0.181
  4  1     -2.4907881E-01
  4  2      3.5214078E-01
  4  3     -1.0672364E+00
  6  1      1.0283455E+00
  6  2     -5.0560874E+00
  6  3      2.0526362E+00
  6  4     -3.8554325E-01
  8  1     -8.8965667E-01
  8  2     -6.7518566E-02
  8  3      1.4952412E+00
  8  4      9.1548188E-01
  8  5      1.0883238E+00
 10  1     -2.4074212E+00
 10  2      2.2169020E+00
 10  3      1.9277621E+00
 10  4      1.0240048E+00
 10  5      2.9366948E-01
 10  6     -2.1950319E-01
 12  1      1.0050594E+00  1.6213719E+00
 12  2     -5.2055468E-01 -2.1278523E+00
 12  3      2.9204783E-01  3.2820853E+00
 12  4     -1.0836495E+00 -2.2650900E+00
 12  5     -9.8243565E-01  5.9147840E-02
 12  6     -1.0906685E+00  4.1420598E-02
 12  7     -2.7831191E-02 -3.7424662E-01
 14  1     -4.4179126E-01
 14  2      5.0774374E-01
 14  3     -7.0106278E-02
 14  4     -8.5775262E-01
 14  5     -7.1746233E-01
 14  6      5.6327883E-01
 14  7      2.9493608E-01
 14  8     -6.6134625E-02
 16  1     -1.6490600E-01 -1.4092938E+00
 16  2     -5.9029198E-02  2.1433856E+00
 16  3      7.4806414E-01 -1.6275630E+00
 16  4     -1.5222533E-01 -1.1218922E+00
 16  5     -9.6517282E-01  4.0287023E-01
 16  6      5.3337115E-01  2.2944195E-01
 16  7      9.3891329E-01  2.9175766E-01
 16  8      5.1767922E-01 -3.1453714E-01
 16  9      3.3309121E-01  4.7792486E-01
 220       5.00   72    0 5.00   18    0
   1.404   1.405   1.408   1.412   1.419   1.426   1.436   1.446   1.456   1.468
   1.479   1.490   1.500   1.510   1.518   1.525   1.530   1.533   1.534   1.533
   1.530   1.525   1.518   1.510   1.500   1.490   1.479   1.468   1.456   1.446
   1.436   1.426   1.419   1.412   1.408   1.405   1.404   1.405   1.408   1.412
   1.419   1.426   1.436   1.446   1.456   1.468   1.479   1.490   1.500   1.510
   1.518   1.525   1.530   1.533   1.534   1.533   1.530   1.525   1.518   1.510
   1.500   1.490   1.479   1.468   1.456   1.446   1.436   1.426   1.419   1.412
   1.408   1.405
   0.923   0.928   0.945   0.973   1.013   1.065   1.128   1.201   1.284   1.375
   1.472   1.571   1.668   1.761   1.844   1.913   1.965   1.998   2.009   1.998
   1.965   1.913   1.844   1.761   1.668   1.571   1.472   1.375   1.284   1.201
   1.128   1.065   1.013   0.973   0.945   0.928   0.923   0.928   0.945   0.973
   1.013   1.065   1.128   1.201   1.284   1.375   1.472   1.571   1.668   1.761
   1.844   1.913   1.965   1.998   2.009   1.998   1.965   1.913   1.844   1.761
   1.668   1.571   1.472   1.375   1.284   1.201   1.128   1.065   1.013   0.973
   0.945   0.928
   0.250   0.255   0.271   0.301   0.349   0.418   0.513   0.641   0.804   1.002
   1.234   1.492   1.765   2.040   2.299   2.523   2.698   2.808   2.846   2.808
   2.698   2.523   2.299   2.040   1.765   1.492   1.234   1.002   0.804   0.641
   0.513   0.418   0.349   0.301   0.271   0.255   0.250   0.255   0.271   0.301
   0.349   0.418   0.513   0.641   0.804   1.002   1.234   1.492   1.765   2.040
   2.299   2.523   2.698   2.808   2.846   2.808   2.698   2.523   2.299   2.040
   1.765   1.492   1.234   1.002   0.804   0.641   0.513   0.418   0.349   0.301
   0.271   0.255
  -0.207  -0.209  -0.213  -0.218  -0.216  -0.199  -0.152  -0.056   0.107   0.352
   0.687   1.106   1.592   2.112   2.627   3.090   3.458   3.694   3.776   3.694
   3.458   3.090   2.627   2.112   1.592   1.106   0.687   0.352   0.107  -0.056
  -0.152  -0.199  -0.216  -0.218  -0.213  -0.209  -0.207  -0.209  -0.213  -0.218
  -0.216  -0.199  -0.152  -0.056   0.107   0.352   0.687   1.106   1.592   2.112
   2.627   3.090   3.458   3.694   3.776   3.694   3.458   3.090   2.627   2.112
   1.592   1.106   0.687   0.352   0.107  -0.056  -0.152  -0.199  -0.216  -0.218
  -0.213  -0.209
  -0.250  -0.250  -0.254  -0.271  -0.307  -0.361  -0.418  -0.444  -0.395  -0.226
   0.098   0.584   1.214   1.939   2.686   3.376   3.932   4.293   4.418   4.293
   3.932   3.376   2.686   1.939   1.214   0.584   0.098  -0.226  -0.395  -0.444
  -0.418  -0.361  -0.307  -0.271  -0.254  -0.250  -0.250  -0.250  -0.254  -0.271
  -0.307  -0.361  -0.418  -0.444  -0.395  -0.226   0.098   0.584   1.214   1.939
   2.686   3.376   3.932   4.293   4.418   4.293   3.932   3.376   2.686   1.939
   1.214   0.584   0.098  -0.226  -0.395  -0.444  -0.418  -0.361  -0.307  -0.271
  -0.254  -0.250
  -0.088  -0.066  -0.014   0.038   0.051  -0.002  -0.123  -0.276  -0.392  -0.385
  -0.183   0.248   0.890   1.678   2.514   3.291   3.916   4.318   4.457   4.318
   3.916   3.291   2.514   1.678   0.890   0.248  -0.183  -0.385  -0.392  -0.276
  -0.123  -0.002   0.051   0.038  -0.014  -0.066  -0.088  -0.066  -0.014   0.038
   0.051  -0.002  -0.123  -0.276  -0.392  -0.385  -0.183   0.248   0.890   1.678
   2.514   3.291   3.916   4.318   4.457   4.318   3.916   3.291   2.514   1.678
   0.890   0.248  -0.183  -0.385  -0.392  -0.276  -0.123  -0.002   0.051   0.038
  -0.014  -0.066
  -0.069  -0.027   0.088   0.239   0.370   0.418   0.346   0.169  -0.037  -0.158
  -0.086   0.236   0.789   1.493   2.233   2.902   3.418   3.740   3.849   3.740
   3.418   2.902   2.233   1.493   0.789   0.236  -0.086  -0.158  -0.037   0.169
   0.346   0.418   0.370   0.239   0.088  -0.027  -0.069  -0.027   0.088   0.239
   0.370   0.418   0.346   0.169  -0.037  -0.158  -0.086   0.236   0.789   1.493
   2.233   2.902   3.418   3.740   3.849   3.740   3.418   2.902   2.233   1.493
   0.789   0.236  -0.086  -0.158  -0.037   0.169   0.346   0.418   0.370   0.239
   0.088  -0.027
  -0.130  -0.114  -0.053   0.073   0.251   0.415   0.485   0.420   0.267   0.139
   0.162   0.403   0.837   1.373   1.900   2.333   2.634   2.804   2.858   2.804
   2.634   2.333   1.900   1.373   0.837   0.403   0.162   0.139   0.267   0.420
   0.485   0.415   0.251   0.073  -0.053  -0.114  -0.130  -0.114  -0.053   0.073
   0.251   0.415   0.485   0.420   0.267   0.139   0.162   0.403   0.837   1.373
   1.900   2.333   2.634   2.804   2.858   2.804   2.634   2.333   1.900   1.373
   0.837   0.403   0.162   0.139   0.267   0.420   0.485   0.415   0.251   0.073
  -0.053  -0.114
   0.328   0.239   0.045  -0.095  -0.070   0.098   0.283   0.366   0.333   0.276
   0.314   0.509   0.827   1.178   1.478   1.686   1.805   1.862   1.878   1.862
   1.805   1.686   1.478   1.178   0.827   0.509   0.314   0.276   0.333   0.366
   0.283   0.098  -0.070  -0.095   0.045   0.239   0.328   0.239   0.045  -0.095
  -0.070   0.098   0.283   0.366   0.333   0.276   0.314   0.509   0.827   1.178
   1.478   1.686   1.805   1.862   1.878   1.862   1.805   1.686   1.478   1.178
   0.827   0.509   0.314   0.276   0.333   0.366   0.283   0.098  -0.070  -0.095
   0.045   0.239
   1.761   1.520   0.945   0.370   0.064   0.062   0.203   0.302   0.297   0.262
   0.299   0.445   0.649   0.836   0.967   1.052   1.114   1.160   1.178   1.160
   1.114   1.052   0.967   0.836   0.649   0.445   0.299   0.262   0.297   0.302
   0.203   0.062   0.064   0.370   0.945   1.520   1.761   1.520   0.945   0.370
   0.064   0.062   0.203   0.302   0.297   0.262   0.299   0.445   0.649   0.836
   0.967   1.052   1.114   1.160   1.178   1.160   1.114   1.052   0.967   0.836
   0.649   0.445   0.299   0.262   0.297   0.302   0.203   0.062   0.064   0.370
   0.945   1.520
   3.708   3.351   2.485   1.559   0.933   0.669   0.587   0.495   0.346   0.220
   0.201   0.281   0.388   0.461   0.503   0.556   0.642   0.732   0.771   0.732
   0.642   0.556   0.503   0.461   0.388   0.281   0.201   0.220   0.346   0.495
   0.587   0.669   0.933   1.559   2.485   3.351   3.708   3.351   2.485   1.559
   0.933   0.669   0.587   0.495   0.346   0.220   0.201   0.281   0.388   0.461
   0.503   0.556   0.642   0.732   0.771   0.732   0.642   0.556   0.503   0.461
   0.388   0.281   0.201   0.220   0.346   0.495   0.587   0.669   0.933   1.559
   2.485   3.351
   4.907   4.550   3.682   2.734   2.031   1.595   1.261   0.903   0.544   0.287
   0.181   0.186   0.223   0.248   0.271   0.319   0.397   0.474   0.506   0.474
   0.397   0.319   0.271   0.248   0.223   0.186   0.181   0.287   0.544   0.903
   1.261   1.595   2.031   2.734   3.682   4.550   4.907   4.550   3.682   2.734
   2.031   1.595   1.261   0.903   0.544   0.287   0.181   0.186   0.223   0.248
   0.271   0.319   0.397   0.474   0.506   0.474   0.397   0.319   0.271   0.248
   0.223   0.186   0.181   0.287   0.544   0.903   1.261   1.595   2.031   2.734
   3.682   4.550
   4.397   4.159   3.594   2.997   2.541   2.177   1.782   1.332   0.910   0.599
   0.406   0.299   0.262   0.284   0.335   0.364   0.348   0.308   0.287   0.308
   0.348   0.364   0.335   0.284   0.262   0.299   0.406   0.599   0.910   1.332
   1.782   2.177   2.541   2.997   3.594   4.159   4.397   4.159   3.594   2.997
   2.541   2.177   1.782   1.332   0.910   0.599   0.406   0.299   0.262   0.284
   0.335   0.364   0.348   0.308   0.287   0.308   0.348   0.364   0.335   0.284
   0.262   0.299   0.406   0.599   0.910   1.332   1.782   2.177   2.541   2.997
   3.594   4.159
   2.468   2.396   2.255   2.169   2.140   2.065   1.880   1.639   1.410   1.179
   0.902   0.624   0.467   0.484   0.577   0.592   0.468   0.293   0.212   0.293
   0.468   0.592   0.577   0.484   0.467   0.624   0.902   1.179   1.410   1.639
   1.880   2.065   2.140   2.169   2.255   2.396   2.468   2.396   2.255   2.169
   2.140   2.065   1.880   1.639   1.410   1.179   0.902   0.624   0.467   0.484
   0.577   0.592   0.468   0.293   0.212   0.293   0.468   0.592   0.577   0.484
   0.467   0.624   0.902   1.179   1.410   1.639   1.880   2.065   2.140   2.169
   2.255   2.396
   0.441   0.487   0.649   0.929   1.231   1.444   1.572   1.702   1.813   1.752
   1.427   0.987   0.707   0.701   0.831   0.874   0.755   0.577   0.495   0.577
   0.755   0.874   0.831   0.701   0.707   0.987   1.427   1.752   1.813   1.702
   1.572   1.444   1.231   0.929   0.649   0.487   0.441   0.487   0.649   0.929
   1.231   1.444   1.572   1.702   1.813   1.752   1.427   0.987   0.707   0.701
   0.831   0.874   0.755   0.577   0.495   0.577   0.755   0.874   0.831   0.701
   0.707   0.987   1.427   1.752   1.813   1.702   1.572   1.444   1.231   0.929
   0.649   0.487
  -0.498  -0.429  -0.212   0.118   0.455   0.728   1.010   1.395   1.780   1.897
   1.621   1.162   0.865   0.860   1.010   1.134   1.186   1.208   1.217   1.208
   1.186   1.134   1.010   0.860   0.865   1.162   1.621   1.897   1.780   1.395
   1.010   0.728   0.455   0.118  -0.212  -0.429  -0.498  -0.429  -0.212   0.118
   0.455   0.728   1.010   1.395   1.780   1.897   1.621   1.162   0.865   0.860
   1.010   1.134   1.186   1.208   1.217   1.208   1.186   1.134   1.010   0.860
   0.865   1.162   1.621   1.897   1.780   1.395   1.010   0.728   0.455   0.118
  -0.212  -0.429
  -0.255  -0.231  -0.146  -0.008   0.113   0.202   0.389   0.789   1.271   1.519
   1.392   1.089   0.915   0.959   1.120   1.343   1.655   1.991   2.143   1.991
   1.655   1.343   1.120   0.959   0.915   1.089   1.392   1.519   1.271   0.789
   0.389   0.202   0.113  -0.008  -0.146  -0.231  -0.255  -0.231  -0.146  -0.008
   0.113   0.202   0.389   0.789   1.271   1.519   1.392   1.089   0.915   0.959
   1.120   1.343   1.655   1.991   2.143   1.991   1.655   1.343   1.120   0.959
   0.915   1.089   1.392   1.519   1.271   0.789   0.389   0.202   0.113  -0.008
  -0.146  -0.231
   0.302   0.276   0.223   0.165   0.065  -0.056  -0.031   0.279   0.748   1.064
   1.074   0.945   0.910   1.010   1.178   1.467   1.970   2.539   2.798   2.539
   1.970   1.467   1.178   1.010   0.910   0.945   1.074   1.064   0.748   0.279
  -0.031  -0.056   0.065   0.165   0.223   0.276   0.302   0.276   0.223   0.165
   0.065  -0.056  -0.031   0.279   0.748   1.064   1.074   0.945   0.910   1.010
   1.178   1.467   1.970   2.539   2.798   2.539   1.970   1.467   1.178   1.010
   0.910   0.945   1.074   1.064   0.748   0.279  -0.031  -0.056   0.065   0.165
   0.223   0.276
 200       5.00   72    0 5.00   18    0
   1.442   1.442   1.442   1.443   1.444   1.446   1.447   1.449   1.451   1.454
   1.456   1.458   1.460   1.462   1.463   1.464   1.465   1.466   1.466   1.466
   1.465   1.464   1.463   1.462   1.460   1.458   1.456   1.454   1.451   1.449
   1.447   1.446   1.444   1.443   1.442   1.442   1.442   1.442   1.442   1.443
   1.444   1.446   1.447   1.449   1.451   1.454   1.456   1.458   1.460   1.462
   1.463   1.464   1.465   1.466   1.466   1.466   1.465   1.464   1.463   1.462
   1.460   1.458   1.456   1.454   1.451   1.449   1.447   1.446   1.444   1.443
   1.442   1.442
   0.968   0.970   0.973   0.979   0.987   0.998   1.011   1.027   1.045   1.065
   1.087   1.111   1.134   1.157   1.178   1.196   1.210   1.219   1.222   1.219
   1.210   1.196   1.178   1.157   1.134   1.111   1.087   1.065   1.045   1.027
   1.011   0.998   0.987   0.979   0.973   0.970   0.968   0.970   0.973   0.979
   0.987   0.998   1.011   1.027   1.045   1.065   1.087   1.111   1.134   1.157
   1.178   1.196   1.210   1.219   1.222   1.219   1.210   1.196   1.178   1.157
   1.134   1.111   1.087   1.065   1.045   1.027   1.011   0.998   0.987   0.979
   0.973   0.970
   0.253   0.255   0.261   0.270   0.282   0.296   0.314   0.337   0.366   0.406
   0.456   0.519   0.591   0.668   0.746   0.816   0.872   0.909   0.922   0.909
   0.872   0.816   0.746   0.668   0.591   0.519   0.456   0.406   0.366   0.337
   0.314   0.296   0.282   0.270   0.261   0.255   0.253   0.255   0.261   0.270
   0.282   0.296   0.314   0.337   0.366   0.406   0.456   0.519   0.591   0.668
   0.746   0.816   0.872   0.909   0.922   0.909   0.872   0.816   0.746   0.668
   0.591   0.519   0.456   0.406   0.366   0.337   0.314   0.296   0.282   0.270
   0.261   0.255
   0.028   0.032   0.043   0.053   0.054   0.038   0.005  -0.038  -0.080  -0.103
  -0.094  -0.042   0.054   0.185   0.335   0.484   0.609   0.693   0.723   0.693
   0.609   0.484   0.335   0.185   0.054  -0.042  -0.094  -0.103  -0.080  -0.038
   0.005   0.038   0.054   0.053   0.043   0.032   0.028   0.032   0.043   0.053
   0.054   0.038   0.005  -0.038  -0.080  -0.103  -0.094  -0.042   0.054   0.185
   0.335   0.484   0.609   0.693   0.723   0.693   0.609   0.484   0.335   0.185
   0.054  -0.042  -0.094  -0.103  -0.080  -0.038   0.005   0.038   0.054   0.053
   0.043   0.032
   0.988   1.003   1.037   1.064   1.049   0.963   0.796   0.562   0.295   0.045
  -0.140  -0.228  -0.209  -0.098   0.073   0.262   0.431   0.546   0.586   0.546
   0.431   0.262   0.073  -0.098  -0.209  -0.228  -0.140   0.045   0.295   0.562
   0.796   0.963   1.049   1.064   1.037   1.003   0.988   1.003   1.037   1.064
   1.049   0.963   0.796   0.562   0.295   0.045  -0.140  -0.228  -0.209  -0.098
   0.073   0.262   0.431   0.546   0.586   0.546   0.431   0.262   0.073  -0.098
  -0.209  -0.228  -0.140   0.045   0.295   0.562   0.796   0.963   1.049   1.064
   1.037   1.003
   2.658   2.695   2.786   2.875   2.886   2.751   2.438   1.964   1.396   0.831
   0.364   0.055  -0.080  -0.072   0.027   0.160   0.282   0.364   0.392   0.364
   0.282   0.160   0.027  -0.072  -0.080   0.055   0.364   0.831   1.396   1.964
   2.438   2.751   2.886   2.875   2.786   2.695   2.658   2.695   2.786   2.875
   2.886   2.751   2.438   1.964   1.396   0.831   0.364   0.055  -0.080  -0.072
   0.027   0.160   0.282   0.364   0.392   0.364   0.282   0.160   0.027  -0.072
  -0.080   0.055   0.364   0.831   1.396   1.964   2.438   2.751   2.886   2.875
   2.786   2.695
   3.469   3.530   3.691   3.882   4.000   3.934   3.612   3.041   2.310   1.564
   0.939   0.512   0.283   0.197   0.184   0.188   0.185   0.178   0.173   0.178
   0.185   0.188   0.184   0.197   0.283   0.512   0.939   1.564   2.310   3.041
   3.612   3.934   4.000   3.882   3.691   3.530   3.469   3.530   3.691   3.882
   4.000   3.934   3.612   3.041   2.310   1.564   0.939   0.512   0.283   0.197
   0.184   0.188   0.185   0.178   0.173   0.178   0.185   0.188   0.184   0.197
   0.283   0.512   0.939   1.564   2.310   3.041   3.612   3.934   4.000   3.882
   3.691   3.530
   2.493   2.556   2.741   3.015   3.288   3.421   3.289   2.863   2.240   1.595
   1.082   0.761   0.596   0.503   0.417   0.321   0.230   0.168   0.146   0.168
   0.230   0.321   0.417   0.503   0.596   0.761   1.082   1.595   2.240   2.863
   3.289   3.421   3.288   3.015   2.741   2.556   2.493   2.556   2.741   3.015
   3.288   3.421   3.289   2.863   2.240   1.595   1.082   0.761   0.596   0.503
   0.417   0.321   0.230   0.168   0.146   0.168   0.230   0.321   0.417   0.503
   0.596   0.761   1.082   1.595   2.240   2.863   3.289   3.421   3.288   3.015
   2.741   2.556
   0.681   0.708   0.825   1.086   1.456   1.781   1.885   1.706   1.353   1.020
   0.839   0.800   0.794   0.726   0.598   0.478   0.425   0.430   0.441   0.430
   0.425   0.478   0.598   0.726   0.794   0.800   0.839   1.020   1.353   1.706
   1.885   1.781   1.456   1.086   0.825   0.708   0.681   0.708   0.825   1.086
   1.456   1.781   1.885   1.706   1.353   1.020   0.839   0.800   0.794   0.726
   0.598   0.478   0.425   0.430   0.441   0.430   0.425   0.478   0.598   0.726
   0.794   0.800   0.839   1.020   1.353   1.706   1.885   1.781   1.456   1.086
   0.825   0.708
  -0.267  -0.295  -0.303  -0.151   0.172   0.504   0.649   0.574   0.451   0.492
   0.742   1.035   1.150   1.011   0.753   0.594   0.637   0.792   0.875   0.792
   0.637   0.594   0.753   1.011   1.150   1.035   0.742   0.492   0.451   0.574
   0.649   0.504   0.172  -0.151  -0.303  -0.295  -0.267  -0.295  -0.303  -0.151
   0.172   0.504   0.649   0.574   0.451   0.492   0.742   1.035   1.150   1.011
   0.753   0.594   0.637   0.792   0.875   0.792   0.637   0.594   0.753   1.011
   1.150   1.035   0.742   0.492   0.451   0.574   0.649   0.504   0.172  -0.151
  -0.303  -0.295
   0.040  -0.019  -0.101  -0.055   0.121   0.249   0.185   0.027   0.063   0.492
   1.190   1.777   1.908   1.557   1.027   0.698   0.725   0.948   1.071   0.948
   0.725   0.698   1.027   1.557   1.908   1.777   1.190   0.492   0.063   0.027
   0.185   0.249   0.121  -0.055  -0.101  -0.019   0.040  -0.019  -0.101  -0.055
   0.121   0.249   0.185   0.027   0.063   0.492   1.190   1.777   1.908   1.557
   1.027   0.698   0.725   0.948   1.071   0.948   0.725   0.698   1.027   1.557
   1.908   1.777   1.190   0.492   0.063   0.027   0.185   0.249   0.121  -0.055
  -0.101  -0.019
   0.467   0.433   0.400   0.456   0.528   0.435   0.153  -0.040   0.225   1.042
   2.071   2.769   2.785   2.191   1.395   0.834   0.680   0.785   0.865   0.785
   0.680   0.834   1.395   2.191   2.785   2.769   2.071   1.042   0.225  -0.040
   0.153   0.435   0.528   0.456   0.400   0.433   0.467   0.433   0.400   0.456
   0.528   0.435   0.153  -0.040   0.225   1.042   2.071   2.769   2.785   2.191
   1.395   0.834   0.680   0.785   0.865   0.785   0.680   0.834   1.395   2.191
   2.785   2.769   2.071   1.042   0.225  -0.040   0.153   0.435   0.528   0.456
   0.400   0.433
   0.148   0.165   0.256   0.430   0.544   0.444   0.234   0.295   0.920   1.969
   2.934   3.336   3.058   2.337   1.540   0.938   0.619   0.516   0.501   0.516
   0.619   0.938   1.540   2.337   3.058   3.336   2.934   1.969   0.920   0.295
   0.234   0.444   0.544   0.430   0.256   0.165   0.148   0.165   0.256   0.430
   0.544   0.444   0.234   0.295   0.920   1.969   2.934   3.336   3.058   2.337
   1.540   0.938   0.619   0.516   0.501   0.516   0.619   0.938   1.540   2.337
   3.058   3.336   2.934   1.969   0.920   0.295   0.234   0.444   0.544   0.430
   0.256   0.165
  -0.384  -0.350  -0.206   0.061   0.314   0.441   0.609   1.140   2.080   3.001
   3.361   3.019   2.307   1.643   1.192   0.883   0.630   0.440   0.368   0.440
   0.630   0.883   1.192   1.643   2.307   3.019   3.361   3.001   2.080   1.140
   0.609   0.441   0.314   0.061  -0.206  -0.350  -0.384  -0.350  -0.206   0.061
   0.314   0.441   0.609   1.140   2.080   3.001   3.361   3.019   2.307   1.643
   1.192   0.883   0.630   0.440   0.368   0.440   0.630   0.883   1.192   1.643
   2.307   3.019   3.361   3.001   2.080   1.140   0.609   0.441   0.314   0.061
  -0.206  -0.350
  -0.137  -0.164  -0.142   0.059   0.386   0.749   1.271   2.125   3.098   3.569
   3.113   2.013   0.999   0.547   0.559   0.671   0.681   0.621   0.588   0.621
   0.681   0.671   0.559   0.547   0.999   2.013   3.113   3.569   3.098   2.125
   1.271   0.749   0.386   0.059  -0.142  -0.164  -0.137  -0.164  -0.142   0.059
   0.386   0.749   1.271   2.125   3.098   3.569   3.113   2.013   0.999   0.547
   0.559   0.671   0.681   0.621   0.588   0.621   0.681   0.671   0.559   0.547
   0.999   2.013   3.113   3.569   3.098   2.125   1.271   0.749   0.386   0.059
  -0.142  -0.164
   0.938   0.788   0.537   0.503   0.730   1.087   1.596   2.332   3.011   3.044
   2.185   0.941   0.098  -0.047   0.201   0.472   0.679   0.857   0.938   0.857
   0.679   0.472   0.201  -0.047   0.098   0.941   2.185   3.044   3.011   2.332
   1.596   1.087   0.730   0.503   0.537   0.788   0.938   0.788   0.537   0.503
   0.730   1.087   1.596   2.332   3.011   3.044   2.185   0.941   0.098  -0.047
   0.201   0.472   0.679   0.857   0.938   0.857   0.679   0.472   0.201  -0.047
   0.098   0.941   2.185   3.044   3.011   2.332   1.596   1.087   0.730   0.503
   0.537   0.788
   2.055   1.775   1.229   0.906   0.907   1.011   1.143   1.402   1.662   1.536
   0.924   0.273   0.062   0.230   0.383   0.424   0.600   0.958   1.156   0.958
   0.600   0.424   0.383   0.230   0.062   0.273   0.924   1.536   1.662   1.402
   1.143   1.011   0.907   0.906   1.229   1.775   2.055   1.775   1.229   0.906
   0.907   1.011   1.143   1.402   1.662   1.536   0.924   0.273   0.062   0.230
   0.383   0.424   0.600   0.958   1.156   0.958   0.600   0.424   0.383   0.230
   0.062   0.273   0.924   1.536   1.662   1.402   1.143   1.011   0.907   0.906
   1.229   1.775
   2.639   2.280   1.551   1.036   0.851   0.702   0.460   0.297   0.268   0.182
   0.004   0.029   0.406   0.778   0.739   0.472   0.516   0.947   1.212   0.947
   0.516   0.472   0.739   0.778   0.406   0.029   0.004   0.182   0.268   0.297
   0.460   0.702   0.851   1.036   1.551   2.280   2.639   2.280   1.551   1.036
   0.851   0.702   0.460   0.297   0.268   0.182   0.004   0.029   0.406   0.778
   0.739   0.472   0.516   0.947   1.212   0.947   0.516   0.472   0.739   0.778
   0.406   0.029   0.004   0.182   0.268   0.297   0.460   0.702   0.851   1.036
   1.551   2.280
 111       5.00   72    0 5.00   18    0
   0.206   0.207   0.211   0.216   0.223   0.232   0.243   0.254   0.267   0.281
   0.294   0.307   0.320   0.331   0.342   0.350   0.356   0.360   0.361   0.360
   0.356   0.350   0.342   0.331   0.320   0.307   0.294   0.281   0.267   0.254
   0.243   0.232   0.223   0.216   0.211   0.207   0.206   0.207   0.211   0.216
   0.223   0.232   0.243   0.254   0.267   0.281   0.294   0.307   0.320   0.331
   0.342   0.350   0.356   0.360   0.361   0.360   0.356   0.350   0.342   0.331
   0.320   0.307   0.294   0.281   0.267   0.254   0.243   0.232   0.223   0.216
   0.211   0.207
  -0.299  -0.300  -0.303  -0.305  -0.304  -0.296  -0.279  -0.250  -0.206  -0.149
  -0.079   0.000   0.086   0.171   0.252   0.321   0.375   0.409   0.420   0.409
   0.375   0.321   0.252   0.171   0.086   0.000  -0.079  -0.149  -0.206  -0.250
  -0.279  -0.296  -0.304  -0.305  -0.303  -0.300  -0.299  -0.300  -0.303  -0.305
  -0.304  -0.296  -0.279  -0.250  -0.206  -0.149  -0.079   0.000   0.086   0.171
   0.252   0.321   0.375   0.409   0.420   0.409   0.375   0.321   0.252   0.171
   0.086   0.000  -0.079  -0.149  -0.206  -0.250  -0.279  -0.296  -0.304  -0.305
  -0.303  -0.300
   0.904   0.862   0.743   0.562   0.340   0.105  -0.115  -0.297  -0.421  -0.477
  -0.463  -0.388  -0.263  -0.108   0.056   0.210   0.333   0.414   0.442   0.414
   0.333   0.210   0.056  -0.108  -0.263  -0.388  -0.463  -0.477  -0.421  -0.297
  -0.115   0.105   0.340   0.562   0.743   0.862   0.904   0.862   0.743   0.562
   0.340   0.105  -0.115  -0.297  -0.421  -0.477  -0.463  -0.388  -0.263  -0.108
   0.056   0.210   0.333   0.414   0.442   0.414   0.333   0.210   0.056  -0.108
  -0.263  -0.388  -0.463  -0.477  -0.421  -0.297  -0.115   0.105   0.340   0.562
   0.743   0.862
   4.287   4.164   3.810   3.266   2.594   1.869   1.163   0.541   0.051  -0.285
  -0.463  -0.502  -0.434  -0.295  -0.125   0.043   0.181   0.272   0.303   0.272
   0.181   0.043  -0.125  -0.295  -0.434  -0.502  -0.463  -0.285   0.051   0.541
   1.163   1.869   2.594   3.266   3.810   4.164   4.287   4.164   3.810   3.266
   2.594   1.869   1.163   0.541   0.051  -0.285  -0.463  -0.502  -0.434  -0.295
  -0.125   0.043   0.181   0.272   0.303   0.272   0.181   0.043  -0.125  -0.295
  -0.434  -0.502  -0.463  -0.285   0.051   0.541   1.163   1.869   2.594   3.266
   3.810   4.164
   6.991   6.807   6.277   5.466   4.468   3.397   2.363   1.459   0.746   0.246
  -0.052  -0.186  -0.207  -0.166  -0.105  -0.047  -0.006   0.017   0.024   0.017
  -0.006  -0.047  -0.105  -0.166  -0.207  -0.186  -0.052   0.246   0.746   1.459
   2.363   3.397   4.468   5.466   6.277   6.807   6.991   6.807   6.277   5.466
   4.468   3.397   2.363   1.459   0.746   0.246  -0.052  -0.186  -0.207  -0.166
  -0.105  -0.047  -0.006   0.017   0.024   0.017  -0.006  -0.047  -0.105  -0.166
  -0.207  -0.186  -0.052   0.246   0.746   1.459   2.363   3.397   4.468   5.466
   6.277   6.807
   6.301   6.141   5.681   4.975   4.109   3.185   2.307   1.562   0.997   0.619
   0.397   0.281   0.215   0.158   0.087   0.004  -0.077  -0.137  -0.158  -0.137
  -0.077   0.004   0.087   0.158   0.215   0.281   0.397   0.619   0.997   1.562
   2.307   3.185   4.109   4.975   5.681   6.141   6.301   6.141   5.681   4.975
   4.109   3.185   2.307   1.562   0.997   0.619   0.397   0.281   0.215   0.158
   0.087   0.004  -0.077  -0.137  -0.158  -0.137  -0.077   0.004   0.087   0.158
   0.215   0.281   0.397   0.619   0.997   1.562   2.307   3.185   4.109   4.975
   5.681   6.141
   3.141   3.081   2.901   2.610   2.232   1.813   1.412   1.083   0.848   0.697
   0.596   0.507   0.408   0.297   0.187   0.092   0.023  -0.017  -0.030  -0.017
   0.023   0.092   0.187   0.297   0.408   0.507   0.596   0.697   0.848   1.083
   1.412   1.813   2.232   2.610   2.901   3.081   3.141   3.081   2.901   2.610
   2.232   1.813   1.412   1.083   0.848   0.697   0.596   0.507   0.408   0.297
   0.187   0.092   0.023  -0.017  -0.030  -0.017   0.023   0.092   0.187   0.297
   0.408   0.507   0.596   0.697   0.848   1.083   1.412   1.813   2.232   2.610
   2.901   3.081
   0.593   0.630   0.719   0.814   0.875   0.896   0.897   0.904   0.911   0.885
   0.785   0.605   0.386   0.196   0.094   0.094   0.163   0.240   0.273   0.240
   0.163   0.094   0.094   0.196   0.386   0.605   0.785   0.885   0.911   0.904
   0.897   0.896   0.875   0.814   0.719   0.630   0.593   0.630   0.719   0.814
   0.875   0.896   0.897   0.904   0.911   0.885   0.785   0.605   0.386   0.196
   0.094   0.094   0.163   0.240   0.273   0.240   0.163   0.094   0.094   0.196
   0.386   0.605   0.785   0.885   0.911   0.904   0.897   0.896   0.875   0.814
   0.719   0.630
  -0.019   0.050   0.224   0.437   0.633   0.810   1.002   1.226   1.439   1.540
   1.439   1.129   0.711   0.338   0.129   0.106   0.203   0.318   0.367   0.318
   0.203   0.106   0.129   0.338   0.711   1.129   1.439   1.540   1.439   1.226
   1.002   0.810   0.633   0.437   0.224   0.050  -0.019   0.050   0.224   0.437
   0.633   0.810   1.002   1.226   1.439   1.540   1.439   1.129   0.711   0.338
   0.129   0.106   0.203   0.318   0.367   0.318   0.203   0.106   0.129   0.338
   0.711   1.129   1.439   1.540   1.439   1.226   1.002   0.810   0.633   0.437
   0.224   0.050
   0.128   0.171   0.274   0.389   0.500   0.660   0.954   1.415   1.953   2.370
   2.471   2.199   1.672   1.103   0.661   0.393   0.252   0.183   0.161   0.183
   0.252   0.393   0.661   1.103   1.672   2.199   2.471   2.370   1.953   1.415
   0.954   0.660   0.500   0.389   0.274   0.171   0.128   0.171   0.274   0.389
   0.500   0.660   0.954   1.415   1.953   2.370   2.471   2.199   1.672   1.103
   0.661   0.393   0.252   0.183   0.161   0.183   0.252   0.393   0.661   1.103
   1.672   2.199   2.471   2.370   1.953   1.415   0.954   0.660   0.500   0.389
   0.274   0.171
  -0.053  -0.045  -0.033  -0.035  -0.025   0.091   0.436   1.067   1.887   2.645
   3.065   3.026   2.626   2.082   1.552   1.067   0.616   0.258   0.117   0.258
   0.616   1.067   1.552   2.082   2.626   3.026   3.065   2.645   1.887   1.067
   0.436   0.091  -0.025  -0.035  -0.033  -0.045  -0.053  -0.045  -0.033  -0.035
  -0.025   0.091   0.436   1.067   1.887   2.645   3.065   3.026   2.626   2.082
   1.552   1.067   0.616   0.258   0.117   0.258   0.616   1.067   1.552   2.082
   2.626   3.026   3.065   2.645   1.887   1.067   0.436   0.091  -0.025  -0.035
  -0.033  -0.045
  -0.215  -0.221  -0.241  -0.270  -0.282  -0.208   0.047   0.556   1.279   2.029
   2.560   2.736   2.631   2.423   2.193   1.870   1.402   0.931   0.728   0.931
   1.402   1.870   2.193   2.423   2.631   2.736   2.560   2.029   1.279   0.556
   0.047  -0.208  -0.282  -0.270  -0.241  -0.221  -0.215  -0.221  -0.241  -0.270
  -0.282  -0.208   0.047   0.556   1.279   2.029   2.560   2.736   2.631   2.423
   2.193   1.870   1.402   0.931   0.728   0.931   1.402   1.870   2.193   2.423
   2.631   2.736   2.560   2.029   1.279   0.556   0.047  -0.208  -0.282  -0.270
  -0.241  -0.221
  -0.023  -0.029  -0.036  -0.027   0.011   0.077   0.178   0.353   0.645   1.015
   1.334   1.516   1.633   1.843   2.154   2.353   2.254   1.962   1.805   1.962
   2.254   2.353   2.154   1.843   1.633   1.516   1.334   1.015   0.645   0.353
   0.178   0.077   0.011  -0.027  -0.036  -0.029  -0.023  -0.029  -0.036  -0.027
   0.011   0.077   0.178   0.353   0.645   1.015   1.334   1.516   1.633   1.843
   2.154   2.353   2.254   1.962   1.805   1.962   2.254   2.353   2.154   1.843
   1.633   1.516   1.334   1.015   0.645   0.353   0.178   0.077   0.011  -0.027
  -0.036  -0.029
  -0.050  -0.052  -0.046  -0.003   0.109   0.260   0.366   0.379   0.358   0.382
   0.438   0.475   0.578   0.940   1.593   2.260   2.605   2.606   2.548   2.606
   2.605   2.260   1.593   0.940   0.578   0.475   0.438   0.382   0.358   0.379
   0.366   0.260   0.109  -0.003  -0.046  -0.052  -0.050  -0.052  -0.046  -0.003
   0.109   0.260   0.366   0.379   0.358   0.382   0.438   0.475   0.578   0.940
   1.593   2.260   2.605   2.606   2.548   2.606   2.605   2.260   1.593   0.940
   0.578   0.475   0.438   0.382   0.358   0.379   0.366   0.260   0.109  -0.003
  -0.046  -0.052
  -0.340  -0.332  -0.328  -0.327  -0.245  -0.030   0.221   0.360   0.373   0.370
   0.377   0.321   0.252   0.417   0.975   1.711   2.226   2.382   2.382   2.382
   2.226   1.711   0.975   0.417   0.252   0.321   0.377   0.370   0.373   0.360
   0.221  -0.030  -0.245  -0.327  -0.328  -0.332  -0.340  -0.332  -0.328  -0.327
  -0.245  -0.030   0.221   0.360   0.373   0.370   0.377   0.321   0.252   0.417
   0.975   1.711   2.226   2.382   2.382   2.382   2.226   1.711   0.975   0.417
   0.252   0.321   0.377   0.370   0.373   0.360   0.221  -0.030  -0.245  -0.327
  -0.328  -0.332
   0.421   0.453   0.444   0.274   0.065   0.041   0.214   0.389   0.469   0.548
   0.658   0.652   0.467   0.345   0.565   1.046   1.427   1.530   1.517   1.530
   1.427   1.046   0.565   0.345   0.467   0.652   0.658   0.548   0.469   0.389
   0.214   0.041   0.065   0.274   0.444   0.453   0.421   0.453   0.444   0.274
   0.065   0.041   0.214   0.389   0.469   0.548   0.658   0.652   0.467   0.345
   0.565   1.046   1.427   1.530   1.517   1.530   1.427   1.046   0.565   0.345
   0.467   0.652   0.658   0.548   0.469   0.389   0.214   0.041   0.065   0.274
   0.444   0.453
   2.939   3.002   2.973   2.539   1.807   1.185   0.864   0.687   0.526   0.490
   0.638   0.749   0.609   0.365   0.337   0.546   0.707   0.671   0.610   0.671
   0.707   0.546   0.337   0.365   0.609   0.749   0.638   0.490   0.526   0.687
   0.864   1.185   1.807   2.539   2.973   3.002   2.939   3.002   2.973   2.539
   1.807   1.185   0.864   0.687   0.526   0.490   0.638   0.749   0.609   0.365
   0.337   0.546   0.707   0.671   0.610   0.671   0.707   0.546   0.337   0.365
   0.609   0.749   0.638   0.490   0.526   0.687   0.864   1.185   1.807   2.539
   2.973   3.002
   5.450   5.537   5.491   4.849   3.680   2.511   1.669   1.051   0.544   0.293
   0.392   0.583   0.542   0.321   0.220   0.302   0.334   0.203   0.107   0.203
   0.334   0.302   0.220   0.321   0.542   0.583   0.392   0.293   0.544   1.051
   1.669   2.511   3.680   4.849   5.491   5.537   5.450   5.537   5.491   4.849
   3.680   2.511   1.669   1.051   0.544   0.293   0.392   0.583   0.542   0.321
   0.220   0.302   0.334   0.203   0.107   0.203   0.334   0.302   0.220   0.321
   0.542   0.583   0.392   0.293   0.544   1.051   1.669   2.511   3.680   4.849
   5.491   5.537
TEXTURE_INDEX=   6.1907
ERR_CF 220         1080     438   65.18   25.80
ERR_CF 200         1080     388   54.48   18.62
ERR_CF 111         1054     312  155.00   20.91
