TEXEVAL                                                                         
Analysis started on 31-Aug-18 12:12:42                                          
 LMAX=16LFMAX=03 CUBIC ORTHO   
 220      5.00 5.00
 200      5.00 5.00
 111      5.00 5.00
 220       5.00   72    0 5.00   15    0
   2.941   2.941   2.941   2.941   2.941   2.941   2.941   2.941   2.941   2.941
   2.941   2.941   2.941   2.941   2.941   2.941   2.941   2.941   2.941   2.941
   2.941   2.941   2.941   2.941   2.941   2.941   2.941   2.941   2.941   2.941
   2.941   2.941   2.941   2.941   2.941   2.941   2.941   2.941   2.941   2.941
   2.941   2.941   2.941   2.941   2.941   2.941   2.941   2.941   2.941   2.941
   2.941   2.941   2.941   2.941   2.941   2.941   2.941   2.941   2.941   2.941
   2.941   2.941   2.941   2.941   2.941   2.941   2.941   2.941   2.941   2.941
   2.941   2.941
   1.550   1.793   1.785   1.718   1.374   2.545   2.029   2.212   1.925   1.546
   2.031   2.587   2.112   2.034   2.392   2.664   2.797   2.538   2.963   2.538
   2.797   2.664   2.392   2.034   2.112   2.587   2.031   1.546   1.925   2.212
   2.029   2.545   1.374   1.718   1.785   1.793   1.550   1.793   1.785   1.718
   1.374   2.545   2.029   2.212   1.925   1.546   2.031   2.587   2.112   2.034
   2.392   2.664   2.797   2.538   2.963   2.538   2.797   2.664   2.392   2.034
   2.112   2.587   2.031   1.546   1.925   2.212   2.029   2.545   1.374   1.718
   1.785   1.793
   1.371   0.926   1.090   1.405   0.904   1.286   1.313   1.223   1.383   1.130
   1.373   1.499   1.270   1.907   2.138   2.832   2.695   2.554   3.173   2.554
   2.695   2.832   2.138   1.907   1.270   1.499   1.373   1.130   1.383   1.223
   1.313   1.286   0.904   1.405   1.090   0.926   1.371   0.926   1.090   1.405
   0.904   1.286   1.313   1.223   1.383   1.130   1.373   1.499   1.270   1.907
   2.138   2.832   2.695   2.554   3.173   2.554   2.695   2.832   2.138   1.907
   1.270   1.499   1.373   1.130   1.383   1.223   1.313   1.286   0.904   1.405
   1.090   0.926
   0.701   0.750   0.564   0.983   0.742   0.627   0.974   0.887   0.979   1.087
   0.775   1.081   1.160   1.760   1.937   2.226   2.661   2.707   3.057   2.707
   2.661   2.226   1.937   1.760   1.160   1.081   0.775   1.087   0.979   0.887
   0.974   0.627   0.742   0.983   0.564   0.750   0.701   0.750   0.564   0.983
   0.742   0.627   0.974   0.887   0.979   1.087   0.775   1.081   1.160   1.760
   1.937   2.226   2.661   2.707   3.057   2.707   2.661   2.226   1.937   1.760
   1.160   1.081   0.775   1.087   0.979   0.887   0.974   0.627   0.742   0.983
   0.564   0.750
   0.477   0.660   0.461   0.813   0.659   0.669   0.933   0.608   0.832   0.902
   0.718   0.976   1.203   1.347   1.830   2.080   2.501   2.718   3.410   2.718
   2.501   2.080   1.830   1.347   1.203   0.976   0.718   0.902   0.832   0.608
   0.933   0.669   0.659   0.813   0.461   0.660   0.477   0.660   0.461   0.813
   0.659   0.669   0.933   0.608   0.832   0.902   0.718   0.976   1.203   1.347
   1.830   2.080   2.501   2.718   3.410   2.718   2.501   2.080   1.830   1.347
   1.203   0.976   0.718   0.902   0.832   0.608   0.933   0.669   0.659   0.813
   0.461   0.660
   0.434   0.700   0.528   0.735   0.571   0.563   0.744   0.732   0.684   0.833
   0.885   0.824   1.024   1.333   1.796   1.954   2.245   2.705   3.152   2.705
   2.245   1.954   1.796   1.333   1.024   0.824   0.885   0.833   0.684   0.732
   0.744   0.563   0.571   0.735   0.528   0.700   0.434   0.700   0.528   0.735
   0.571   0.563   0.744   0.732   0.684   0.833   0.885   0.824   1.024   1.333
   1.796   1.954   2.245   2.705   3.152   2.705   2.245   1.954   1.796   1.333
   1.024   0.824   0.885   0.833   0.684   0.732   0.744   0.563   0.571   0.735
   0.528   0.700
   0.457   0.609   0.546   0.691   0.613   0.519   0.526   0.735   0.749   0.948
   0.741   0.934   1.089   1.152   1.507   1.749   1.912   2.224   3.023   2.224
   1.912   1.749   1.507   1.152   1.089   0.934   0.741   0.948   0.749   0.735
   0.526   0.519   0.613   0.691   0.546   0.609   0.457   0.609   0.546   0.691
   0.613   0.519   0.526   0.735   0.749   0.948   0.741   0.934   1.089   1.152
   1.507   1.749   1.912   2.224   3.023   2.224   1.912   1.749   1.507   1.152
   1.089   0.934   0.741   0.948   0.749   0.735   0.526   0.519   0.613   0.691
   0.546   0.609
   0.563   0.554   0.788   0.745   0.583   0.533   0.452   0.491   0.761   0.786
   0.479   0.868   1.071   1.035   1.115   1.504   1.914   1.581   2.539   1.581
   1.914   1.504   1.115   1.035   1.071   0.868   0.479   0.786   0.761   0.491
   0.452   0.533   0.583   0.745   0.788   0.554   0.563   0.554   0.788   0.745
   0.583   0.533   0.452   0.491   0.761   0.786   0.479   0.868   1.071   1.035
   1.115   1.504   1.914   1.581   2.539   1.581   1.914   1.504   1.115   1.035
   1.071   0.868   0.479   0.786   0.761   0.491   0.452   0.533   0.583   0.745
   0.788   0.554
   0.739   0.865   1.044   0.929   0.703   0.751   0.744   0.501   0.759   0.656
   0.691   0.744   0.864   0.918   1.012   1.615   1.779   1.472   1.866   1.472
   1.779   1.615   1.012   0.918   0.864   0.744   0.691   0.656   0.759   0.501
   0.744   0.751   0.703   0.929   1.044   0.865   0.739   0.865   1.044   0.929
   0.703   0.751   0.744   0.501   0.759   0.656   0.691   0.744   0.864   0.918
   1.012   1.615   1.779   1.472   1.866   1.472   1.779   1.615   1.012   0.918
   0.864   0.744   0.691   0.656   0.759   0.501   0.744   0.751   0.703   0.929
   1.044   0.865
   0.994   1.139   1.478   0.950   0.811   1.107   0.894   0.792   0.776   0.580
   0.640   0.903   0.785   0.940   1.153   1.526   1.379   1.056   1.386   1.056
   1.379   1.526   1.153   0.940   0.785   0.903   0.640   0.580   0.776   0.792
   0.894   1.107   0.811   0.950   1.478   1.139   0.994   1.139   1.478   0.950
   0.811   1.107   0.894   0.792   0.776   0.580   0.640   0.903   0.785   0.940
   1.153   1.526   1.379   1.056   1.386   1.056   1.379   1.526   1.153   0.940
   0.785   0.903   0.640   0.580   0.776   0.792   0.894   1.107   0.811   0.950
   1.478   1.139
   1.380   1.492   2.051   0.961   1.276   1.254   0.975   0.939   1.059   0.637
   0.558   0.818   0.829   0.890   0.893   0.957   1.100   0.745   0.887   0.745
   1.100   0.957   0.893   0.890   0.829   0.818   0.558   0.637   1.059   0.939
   0.975   1.254   1.276   0.961   2.051   1.492   1.380   1.492   2.051   0.961
   1.276   1.254   0.975   0.939   1.059   0.637   0.558   0.818   0.829   0.890
   0.893   0.957   1.100   0.745   0.887   0.745   1.100   0.957   0.893   0.890
   0.829   0.818   0.558   0.637   1.059   0.939   0.975   1.254   1.276   0.961
   2.051   1.492
   1.809   2.299   2.219   1.674   1.749   1.256   1.167   0.981   1.188   1.073
   0.916   0.695   0.782   0.811   0.657   0.808   0.966   0.829   1.030   0.829
   0.966   0.808   0.657   0.811   0.782   0.695   0.916   1.073   1.188   0.981
   1.167   1.256   1.749   1.674   2.219   2.299   1.809   2.299   2.219   1.674
   1.749   1.256   1.167   0.981   1.188   1.073   0.916   0.695   0.782   0.811
   0.657   0.808   0.966   0.829   1.030   0.829   0.966   0.808   0.657   0.811
   0.782   0.695   0.916   1.073   1.188   0.981   1.167   1.256   1.749   1.674
   2.219   2.299
   1.830   2.545   2.107   2.034   1.574   1.370   1.453   1.525   1.186   1.320
   1.081   0.827   1.021   0.829   0.780   0.716   0.924   0.868   0.946   0.868
   0.924   0.716   0.780   0.829   1.021   0.827   1.081   1.320   1.186   1.525
   1.453   1.370   1.574   2.034   2.107   2.545   1.830   2.545   2.107   2.034
   1.574   1.370   1.453   1.525   1.186   1.320   1.081   0.827   1.021   0.829
   0.780   0.716   0.924   0.868   0.946   0.868   0.924   0.716   0.780   0.829
   1.021   0.827   1.081   1.320   1.186   1.525   1.453   1.370   1.574   2.034
   2.107   2.545
   1.059   1.770   1.524   1.596   1.170   1.356   1.323   1.372   1.245   0.989
   1.315   0.948   0.850   0.660   0.731   0.662   0.903   0.860   0.384   0.860
   0.903   0.662   0.731   0.660   0.850   0.948   1.315   0.989   1.245   1.372
   1.323   1.356   1.170   1.596   1.524   1.770   1.059   1.770   1.524   1.596
   1.170   1.356   1.323   1.372   1.245   0.989   1.315   0.948   0.850   0.660
   0.731   0.662   0.903   0.860   0.384   0.860   0.903   0.662   0.731   0.660
   0.850   0.948   1.315   0.989   1.245   1.372   1.323   1.356   1.170   1.596
   1.524   1.770
   0.261   0.819   0.820   0.875   0.731   1.179   0.741   1.043   1.102   0.629
   1.492   0.728   0.479   0.488   0.671   0.605   0.491   0.821   0.431   0.821
   0.491   0.605   0.671   0.488   0.479   0.728   1.492   0.629   1.102   1.043
   0.741   1.179   0.731   0.875   0.820   0.819   0.261   0.819   0.820   0.875
   0.731   1.179   0.741   1.043   1.102   0.629   1.492   0.728   0.479   0.488
   0.671   0.605   0.491   0.821   0.431   0.821   0.491   0.605   0.671   0.488
   0.479   0.728   1.492   0.629   1.102   1.043   0.741   1.179   0.731   0.875
   0.820   0.819
 200       5.00   72    0 5.00   15    0
   1.882   1.882   1.882   1.882   1.882   1.882   1.882   1.882   1.882   1.882
   1.882   1.882   1.882   1.882   1.882   1.882   1.882   1.882   1.882   1.882
   1.882   1.882   1.882   1.882   1.882   1.882   1.882   1.882   1.882   1.882
   1.882   1.882   1.882   1.882   1.882   1.882   1.882   1.882   1.882   1.882
   1.882   1.882   1.882   1.882   1.882   1.882   1.882   1.882   1.882   1.882
   1.882   1.882   1.882   1.882   1.882   1.882   1.882   1.882   1.882   1.882
   1.882   1.882   1.882   1.882   1.882   1.882   1.882   1.882   1.882   1.882
   1.882   1.882
   2.635   1.883   1.395   1.824   1.989   1.796   1.832   2.488   1.974   2.165
   1.291   2.124   1.608   1.602   1.620   2.242   1.637   1.586   1.974   1.586
   1.637   2.242   1.620   1.602   1.608   2.124   1.291   2.165   1.974   2.488
   1.832   1.796   1.989   1.824   1.395   1.883   2.635   1.883   1.395   1.824
   1.989   1.796   1.832   2.488   1.974   2.165   1.291   2.124   1.608   1.602
   1.620   2.242   1.637   1.586   1.974   1.586   1.637   2.242   1.620   1.602
   1.608   2.124   1.291   2.165   1.974   2.488   1.832   1.796   1.989   1.824
   1.395   1.883
   2.134   2.116   1.403   1.511   1.470   1.208   1.831   1.567   1.928   1.702
   1.368   1.647   1.248   1.415   1.354   1.792   1.302   1.857   1.654   1.857
   1.302   1.792   1.354   1.415   1.248   1.647   1.368   1.702   1.928   1.567
   1.831   1.208   1.470   1.511   1.403   2.116   2.134   2.116   1.403   1.511
   1.470   1.208   1.831   1.567   1.928   1.702   1.368   1.647   1.248   1.415
   1.354   1.792   1.302   1.857   1.654   1.857   1.302   1.792   1.354   1.415
   1.248   1.647   1.368   1.702   1.928   1.567   1.831   1.208   1.470   1.511
   1.403   2.116
   1.268   2.027   2.090   1.947   1.305   1.307   2.094   1.311   1.692   1.486
   1.277   1.072   1.176   1.359   1.009   1.345   0.963   1.859   1.705   1.859
   0.963   1.345   1.009   1.359   1.176   1.072   1.277   1.486   1.692   1.311
   2.094   1.307   1.305   1.947   2.090   2.027   1.268   2.027   2.090   1.947
   1.305   1.307   2.094   1.311   1.692   1.486   1.277   1.072   1.176   1.359
   1.009   1.345   0.963   1.859   1.705   1.859   0.963   1.345   1.009   1.359
   1.176   1.072   1.277   1.486   1.692   1.311   2.094   1.307   1.305   1.947
   2.090   2.027
   1.768   2.061   2.238   2.314   1.854   1.388   1.774   1.631   1.253   1.296
   1.099   0.928   0.890   1.075   0.785   1.275   1.011   1.209   1.408   1.209
   1.011   1.275   0.785   1.075   0.890   0.928   1.099   1.296   1.253   1.631
   1.774   1.388   1.854   2.314   2.238   2.061   1.768   2.061   2.238   2.314
   1.854   1.388   1.774   1.631   1.253   1.296   1.099   0.928   0.890   1.075
   0.785   1.275   1.011   1.209   1.408   1.209   1.011   1.275   0.785   1.075
   0.890   0.928   1.099   1.296   1.253   1.631   1.774   1.388   1.854   2.314
   2.238   2.061
   1.929   1.941   2.066   1.851   2.236   1.568   1.537   1.599   1.349   1.264
   1.225   0.885   0.826   1.002   0.880   1.080   1.080   1.024   0.840   1.024
   1.080   1.080   0.880   1.002   0.826   0.885   1.225   1.264   1.349   1.599
   1.537   1.568   2.236   1.851   2.066   1.941   1.929   1.941   2.066   1.851
   2.236   1.568   1.537   1.599   1.349   1.264   1.225   0.885   0.826   1.002
   0.880   1.080   1.080   1.024   0.840   1.024   1.080   1.080   0.880   1.002
   0.826   0.885   1.225   1.264   1.349   1.599   1.537   1.568   2.236   1.851
   2.066   1.941
   1.850   1.408   1.663   1.404   1.785   1.587   1.557   1.310   1.111   0.919
   1.071   0.735   0.823   0.925   0.930   0.887   1.012   1.016   1.150   1.016
   1.012   0.887   0.930   0.925   0.823   0.735   1.071   0.919   1.111   1.310
   1.557   1.587   1.785   1.404   1.663   1.408   1.850   1.408   1.663   1.404
   1.785   1.587   1.557   1.310   1.111   0.919   1.071   0.735   0.823   0.925
   0.930   0.887   1.012   1.016   1.150   1.016   1.012   0.887   0.930   0.925
   0.823   0.735   1.071   0.919   1.111   1.310   1.557   1.587   1.785   1.404
   1.663   1.408
   1.295   0.957   0.947   0.928   0.936   1.212   1.016   0.775   0.877   0.723
   0.897   0.645   0.900   0.870   1.061   0.833   1.125   0.924   1.395   0.924
   1.125   0.833   1.061   0.870   0.900   0.645   0.897   0.723   0.877   0.775
   1.016   1.212   0.936   0.928   0.947   0.957   1.295   0.957   0.947   0.928
   0.936   1.212   1.016   0.775   0.877   0.723   0.897   0.645   0.900   0.870
   1.061   0.833   1.125   0.924   1.395   0.924   1.125   0.833   1.061   0.870
   0.900   0.645   0.897   0.723   0.877   0.775   1.016   1.212   0.936   0.928
   0.947   0.957
   0.379   0.722   0.660   0.544   0.450   0.709   0.658   0.523   0.814   0.781
   0.601   0.620   0.931   1.023   0.870   0.901   0.918   1.032   1.328   1.032
   0.918   0.901   0.870   1.023   0.931   0.620   0.601   0.781   0.814   0.523
   0.658   0.709   0.450   0.544   0.660   0.722   0.379   0.722   0.660   0.544
   0.450   0.709   0.658   0.523   0.814   0.781   0.601   0.620   0.931   1.023
   0.870   0.901   0.918   1.032   1.328   1.032   0.918   0.901   0.870   1.023
   0.931   0.620   0.601   0.781   0.814   0.523   0.658   0.709   0.450   0.544
   0.660   0.722
   0.220   0.356   0.516   0.375   0.264   0.275   0.590   0.483   0.621   0.527
   0.524   0.715   0.782   1.365   0.757   0.836   0.806   1.063   1.340   1.063
   0.806   0.836   0.757   1.365   0.782   0.715   0.524   0.527   0.621   0.483
   0.590   0.275   0.264   0.375   0.516   0.356   0.220   0.356   0.516   0.375
   0.264   0.275   0.590   0.483   0.621   0.527   0.524   0.715   0.782   1.365
   0.757   0.836   0.806   1.063   1.340   1.063   0.806   0.836   0.757   1.365
   0.782   0.715   0.524   0.527   0.621   0.483   0.590   0.275   0.264   0.375
   0.516   0.356
   0.185   0.317   0.458   0.412   0.433   0.286   0.461   0.680   0.553   0.443
   0.558   0.766   0.910   1.121   0.977   0.782   0.995   1.225   1.227   1.225
   0.995   0.782   0.977   1.121   0.910   0.766   0.558   0.443   0.553   0.680
   0.461   0.286   0.433   0.412   0.458   0.317   0.185   0.317   0.458   0.412
   0.433   0.286   0.461   0.680   0.553   0.443   0.558   0.766   0.910   1.121
   0.977   0.782   0.995   1.225   1.227   1.225   0.995   0.782   0.977   1.121
   0.910   0.766   0.558   0.443   0.553   0.680   0.461   0.286   0.433   0.412
   0.458   0.317
   0.189   0.435   0.405   0.609   0.645   0.344   0.423   0.642   0.437   0.499
   0.787   1.000   0.878   0.645   0.920   0.807   0.835   1.390   1.026   1.390
   0.835   0.807   0.920   0.645   0.878   1.000   0.787   0.499   0.437   0.642
   0.423   0.344   0.645   0.609   0.405   0.435   0.189   0.435   0.405   0.609
   0.645   0.344   0.423   0.642   0.437   0.499   0.787   1.000   0.878   0.645
   0.920   0.807   0.835   1.390   1.026   1.390   0.835   0.807   0.920   0.645
   0.878   1.000   0.787   0.499   0.437   0.642   0.423   0.344   0.645   0.609
   0.405   0.435
   0.149   0.512   0.543   0.592   0.552   0.401   0.550   0.711   0.375   0.625
   0.952   1.123   0.795   0.670   0.673   0.682   0.644   0.943   1.162   0.943
   0.644   0.682   0.673   0.670   0.795   1.123   0.952   0.625   0.375   0.711
   0.550   0.401   0.552   0.592   0.543   0.512   0.149   0.512   0.543   0.592
   0.552   0.401   0.550   0.711   0.375   0.625   0.952   1.123   0.795   0.670
   0.673   0.682   0.644   0.943   1.162   0.943   0.644   0.682   0.673   0.670
   0.795   1.123   0.952   0.625   0.375   0.711   0.550   0.401   0.552   0.592
   0.543   0.512
   0.362   0.533   0.683   0.589   0.579   0.616   0.690   0.878   0.638   1.178
   1.137   1.069   0.750   0.712   0.699   0.818   0.850   0.791   1.104   0.791
   0.850   0.818   0.699   0.712   0.750   1.069   1.137   1.178   0.638   0.878
   0.690   0.616   0.579   0.589   0.683   0.533   0.362   0.533   0.683   0.589
   0.579   0.616   0.690   0.878   0.638   1.178   1.137   1.069   0.750   0.712
   0.699   0.818   0.850   0.791   1.104   0.791   0.850   0.818   0.699   0.712
   0.750   1.069   1.137   1.178   0.638   0.878   0.690   0.616   0.579   0.589
   0.683   0.533
   0.921   0.702   0.587   0.896   0.649   0.816   0.693   0.833   0.770   1.153
   1.333   1.134   0.859   1.046   1.000   1.128   0.846   0.966   0.645   0.966
   0.846   1.128   1.000   1.046   0.859   1.134   1.333   1.153   0.770   0.833
   0.693   0.816   0.649   0.896   0.587   0.702   0.921   0.702   0.587   0.896
   0.649   0.816   0.693   0.833   0.770   1.153   1.333   1.134   0.859   1.046
   1.000   1.128   0.846   0.966   0.645   0.966   0.846   1.128   1.000   1.046
   0.859   1.134   1.333   1.153   0.770   0.833   0.693   0.816   0.649   0.896
   0.587   0.702
 111       5.00   72    0 5.00   15    0
   0.563   0.563   0.563   0.563   0.563   0.563   0.563   0.563   0.563   0.563
   0.563   0.563   0.563   0.563   0.563   0.563   0.563   0.563   0.563   0.563
   0.563   0.563   0.563   0.563   0.563   0.563   0.563   0.563   0.563   0.563
   0.563   0.563   0.563   0.563   0.563   0.563   0.563   0.563   0.563   0.563
   0.563   0.563   0.563   0.563   0.563   0.563   0.563   0.563   0.563   0.563
   0.563   0.563   0.563   0.563   0.563   0.563   0.563   0.563   0.563   0.563
   0.563   0.563   0.563   0.563   0.563   0.563   0.563   0.563   0.563   0.563
   0.563   0.563
   0.224   0.515   0.476   0.438   0.378   0.493   0.681   0.465   0.367   0.564
   0.408   0.429   0.373   0.537   0.312   0.317   0.312   0.387   0.395   0.387
   0.312   0.317   0.312   0.537   0.373   0.429   0.408   0.564   0.367   0.465
   0.681   0.493   0.378   0.438   0.476   0.515   0.224   0.515   0.476   0.438
   0.378   0.493   0.681   0.465   0.367   0.564   0.408   0.429   0.373   0.537
   0.312   0.317   0.312   0.387   0.395   0.387   0.312   0.317   0.312   0.537
   0.373   0.429   0.408   0.564   0.367   0.465   0.681   0.493   0.378   0.438
   0.476   0.515
   0.439   0.719   0.633   0.618   0.642   0.455   0.575   0.455   0.462   0.656
   0.370   0.362   0.539   0.517   0.360   0.459   0.373   0.355   0.336   0.355
   0.373   0.459   0.360   0.517   0.539   0.362   0.370   0.656   0.462   0.455
   0.575   0.455   0.642   0.618   0.633   0.719   0.439   0.719   0.633   0.618
   0.642   0.455   0.575   0.455   0.462   0.656   0.370   0.362   0.539   0.517
   0.360   0.459   0.373   0.355   0.336   0.355   0.373   0.459   0.360   0.517
   0.539   0.362   0.370   0.656   0.462   0.455   0.575   0.455   0.642   0.618
   0.633   0.719
   0.919   1.074   0.785   1.020   1.051   0.627   0.548   0.652   0.592   0.586
   0.408   0.520   0.495   0.473   0.336   0.599   0.429   0.359   0.234   0.359
   0.429   0.599   0.336   0.473   0.495   0.520   0.408   0.586   0.592   0.652
   0.548   0.627   1.051   1.020   0.785   1.074   0.919   1.074   0.785   1.020
   1.051   0.627   0.548   0.652   0.592   0.586   0.408   0.520   0.495   0.473
   0.336   0.599   0.429   0.359   0.234   0.359   0.429   0.599   0.336   0.473
   0.495   0.520   0.408   0.586   0.592   0.652   0.548   0.627   1.051   1.020
   0.785   1.074
   1.484   1.848   1.489   1.764   1.643   1.189   1.169   0.985   1.031   0.637
   0.474   0.719   0.668   0.501   0.380   0.561   0.379   0.383   0.212   0.383
   0.379   0.561   0.380   0.501   0.668   0.719   0.474   0.637   1.031   0.985
   1.169   1.189   1.643   1.764   1.489   1.848   1.484   1.848   1.489   1.764
   1.643   1.189   1.169   0.985   1.031   0.637   0.474   0.719   0.668   0.501
   0.380   0.561   0.379   0.383   0.212   0.383   0.379   0.561   0.380   0.501
   0.668   0.719   0.474   0.637   1.031   0.985   1.169   1.189   1.643   1.764
   1.489   1.848
   2.382   3.144   2.627   2.566   2.294   1.892   2.100   1.293   1.300   0.922
   0.687   0.854   0.989   0.489   0.473   0.593   0.508   0.553   0.452   0.553
   0.508   0.593   0.473   0.489   0.989   0.854   0.687   0.922   1.300   1.293
   2.100   1.892   2.294   2.566   2.627   3.144   2.382   3.144   2.627   2.566
   2.294   1.892   2.100   1.293   1.300   0.922   0.687   0.854   0.989   0.489
   0.473   0.593   0.508   0.553   0.452   0.553   0.508   0.593   0.473   0.489
   0.989   0.854   0.687   0.922   1.300   1.293   2.100   1.892   2.294   2.566
   2.627   3.144
   2.842   3.674   3.141   2.878   2.660   2.549   2.228   1.622   1.535   1.308
   1.155   1.104   0.861   0.564   0.665   0.577   0.614   0.655   0.751   0.655
   0.614   0.577   0.665   0.564   0.861   1.104   1.155   1.308   1.535   1.622
   2.228   2.549   2.660   2.878   3.141   3.674   2.842   3.674   3.141   2.878
   2.660   2.549   2.228   1.622   1.535   1.308   1.155   1.104   0.861   0.564
   0.665   0.577   0.614   0.655   0.751   0.655   0.614   0.577   0.665   0.564
   0.861   1.104   1.155   1.308   1.535   1.622   2.228   2.549   2.660   2.878
   3.141   3.674
   2.371   2.563   2.423   2.581   2.576   2.646   2.117   1.921   1.819   1.609
   1.630   1.085   0.983   0.625   0.928   0.644   0.659   0.654   0.811   0.654
   0.659   0.644   0.928   0.625   0.983   1.085   1.630   1.609   1.819   1.921
   2.117   2.646   2.576   2.581   2.423   2.563   2.371   2.563   2.423   2.581
   2.576   2.646   2.117   1.921   1.819   1.609   1.630   1.085   0.983   0.625
   0.928   0.644   0.659   0.654   0.811   0.654   0.659   0.644   0.928   0.625
   0.983   1.085   1.630   1.609   1.819   1.921   2.117   2.646   2.576   2.581
   2.423   2.563
   1.228   1.115   1.246   1.505   1.837   1.911   1.755   2.095   1.803   1.674
   1.527   0.959   1.086   0.712   0.875   0.770   0.806   0.704   0.593   0.704
   0.806   0.770   0.875   0.712   1.086   0.959   1.527   1.674   1.803   2.095
   1.755   1.911   1.837   1.505   1.246   1.115   1.228   1.115   1.246   1.505
   1.837   1.911   1.755   2.095   1.803   1.674   1.527   0.959   1.086   0.712
   0.875   0.770   0.806   0.704   0.593   0.704   0.806   0.770   0.875   0.712
   1.086   0.959   1.527   1.674   1.803   2.095   1.755   1.911   1.837   1.505
   1.246   1.115
   0.265   0.409   0.487   0.684   0.985   1.132   1.213   1.766   1.745   1.814
   1.187   1.259   1.014   0.990   0.901   0.744   0.924   0.722   0.611   0.722
   0.924   0.744   0.901   0.990   1.014   1.259   1.187   1.814   1.745   1.766
   1.213   1.132   0.985   0.684   0.487   0.409   0.265   0.409   0.487   0.684
   0.985   1.132   1.213   1.766   1.745   1.814   1.187   1.259   1.014   0.990
   0.901   0.744   0.924   0.722   0.611   0.722   0.924   0.744   0.901   0.990
   1.014   1.259   1.187   1.814   1.745   1.766   1.213   1.132   0.985   0.684
   0.487   0.409
   0.158   0.291   0.264   0.451   0.512   0.720   0.850   1.161   1.625   1.660
   1.290   1.468   1.209   1.100   1.085   0.923   0.967   0.843   0.966   0.843
   0.967   0.923   1.085   1.100   1.209   1.468   1.290   1.660   1.625   1.161
   0.850   0.720   0.512   0.451   0.264   0.291   0.158   0.291   0.264   0.451
   0.512   0.720   0.850   1.161   1.625   1.660   1.290   1.468   1.209   1.100
   1.085   0.923   0.967   0.843   0.966   0.843   0.967   0.923   1.085   1.100
   1.209   1.468   1.290   1.660   1.625   1.161   0.850   0.720   0.512   0.451
   0.264   0.291
   0.107   0.239   0.209   0.277   0.243   0.526   0.734   0.846   1.455   1.387
   1.313   1.167   1.153   1.126   0.931   0.984   1.078   0.846   0.907   0.846
   1.078   0.984   0.931   1.126   1.153   1.167   1.313   1.387   1.455   0.846
   0.734   0.526   0.243   0.277   0.209   0.239   0.107   0.239   0.209   0.277
   0.243   0.526   0.734   0.846   1.455   1.387   1.313   1.167   1.153   1.126
   0.931   0.984   1.078   0.846   0.907   0.846   1.078   0.984   0.931   1.126
   1.153   1.167   1.313   1.387   1.455   0.846   0.734   0.526   0.243   0.277
   0.209   0.239
   0.056   0.303   0.248   0.309   0.318   0.701   0.771   1.100   1.347   1.506
   1.185   1.166   1.001   1.028   0.854   0.999   1.056   0.918   1.152   0.918
   1.056   0.999   0.854   1.028   1.001   1.166   1.185   1.506   1.347   1.100
   0.771   0.701   0.318   0.309   0.248   0.303   0.056   0.303   0.248   0.309
   0.318   0.701   0.771   1.100   1.347   1.506   1.185   1.166   1.001   1.028
   0.854   0.999   1.056   0.918   1.152   0.918   1.056   0.999   0.854   1.028
   1.001   1.166   1.185   1.506   1.347   1.100   0.771   0.701   0.318   0.309
   0.248   0.303
   0.152   0.465   0.367   0.486   0.539   0.619   0.860   1.112   1.269   1.293
   1.050   1.152   0.964   1.060   0.919   1.063   0.943   0.938   1.063   0.938
   0.943   1.063   0.919   1.060   0.964   1.152   1.050   1.293   1.269   1.112
   0.860   0.619   0.539   0.486   0.367   0.465   0.152   0.465   0.367   0.486
   0.539   0.619   0.860   1.112   1.269   1.293   1.050   1.152   0.964   1.060
   0.919   1.063   0.943   0.938   1.063   0.938   0.943   1.063   0.919   1.060
   0.964   1.152   1.050   1.293   1.269   1.112   0.860   0.619   0.539   0.486
   0.367   0.465
   0.161   0.542   0.460   0.604   0.861   0.617   0.949   0.789   1.155   0.957
   1.006   0.880   0.911   1.116   1.181   0.931   1.073   1.014   0.670   1.014
   1.073   0.931   1.181   1.116   0.911   0.880   1.006   0.957   1.155   0.789
   0.949   0.617   0.861   0.604   0.460   0.542   0.161   0.542   0.460   0.604
   0.861   0.617   0.949   0.789   1.155   0.957   1.006   0.880   0.911   1.116
   1.181   0.931   1.073   1.014   0.670   1.014   1.073   0.931   1.181   1.116
   0.911   0.880   1.006   0.957   1.155   0.789   0.949   0.617   0.861   0.604
   0.460   0.542
  4  1      9.1695039E-01
  4  2     -4.1575671E-01
  4  3      4.6751841E-01
  6  1      1.1356697E+00
  6  2     -2.0197351E+00
  6  3      8.4291520E-01
  6  4      3.7111510E-02
  8  1      8.6693411E-02
  8  2      8.5723308E-02
  8  3      7.4402286E-01
  8  4     -9.4947825E-02
  8  5      4.0089992E-01
 10  1      3.8221350E-01
 10  2     -4.7445043E-01
 10  3      5.5915128E-01
 10  4     -1.2523225E-01
 10  5      2.3848347E-01
 10  6      1.8473670E-01
 12  1      2.7737498E-02  8.9194476E-01
 12  2     -2.5883488E-01 -8.5816415E-01
 12  3      2.5026819E-01  8.3426311E-01
 12  4      1.1221418E-02 -4.5449616E-01
 12  5      5.2629511E-02  8.9786881E-02
 12  6     -2.2828785E-01 -4.3231603E-02
 12  7     -1.3106158E-02 -4.0741456E-01
 14  1     -5.5443487E-02
 14  2     -1.0747445E-01
 14  3      1.5227190E-01
 14  4     -9.2017690E-02
 14  5      2.0056233E-01
 14  6      2.7352618E-02
 14  7     -1.3875692E-02
 14  8     -1.7503027E-01
 16  1      1.5172830E-01  6.9275970E-02
 16  2     -1.3189061E-01 -1.7473348E-01
 16  3      1.3433375E-01  2.5358514E-01
 16  4     -1.7716293E-01 -2.8535749E-01
 16  5      2.1771518E-01 -3.2804928E-02
 16  6      1.2900219E-01  3.2006123E-02
 16  7      9.2826587E-02  1.7700645E-01
 16  8     -1.1352062E-01  1.8286062E-01
 16  9     -1.6917337E-01 -4.8005224E-02
 220       5.00   72    0 5.00   18    0
   1.908   1.908   1.910   1.913   1.917   1.922   1.927   1.933   1.940   1.947
   1.954   1.961   1.967   1.973   1.978   1.982   1.985   1.987   1.987   1.987
   1.985   1.982   1.978   1.973   1.967   1.961   1.954   1.947   1.940   1.933
   1.927   1.922   1.917   1.913   1.910   1.908   1.908   1.908   1.910   1.913
   1.917   1.922   1.927   1.933   1.940   1.947   1.954   1.961   1.967   1.973
   1.978   1.982   1.985   1.987   1.987   1.987   1.985   1.982   1.978   1.973
   1.967   1.961   1.954   1.947   1.940   1.933   1.927   1.922   1.917   1.913
   1.910   1.908
   1.315   1.318   1.330   1.348   1.374   1.406   1.445   1.488   1.537   1.589
   1.642   1.696   1.747   1.796   1.838   1.874   1.900   1.917   1.922   1.917
   1.900   1.874   1.838   1.796   1.747   1.696   1.642   1.589   1.537   1.488
   1.445   1.406   1.374   1.348   1.330   1.318   1.315   1.318   1.330   1.348
   1.374   1.406   1.445   1.488   1.537   1.589   1.642   1.696   1.747   1.796
   1.838   1.874   1.900   1.917   1.922   1.917   1.900   1.874   1.838   1.796
   1.747   1.696   1.642   1.589   1.537   1.488   1.445   1.406   1.374   1.348
   1.330   1.318
   0.629   0.634   0.648   0.671   0.706   0.753   0.812   0.884   0.970   1.068
   1.176   1.292   1.411   1.528   1.635   1.728   1.799   1.844   1.859   1.844
   1.799   1.728   1.635   1.528   1.411   1.292   1.176   1.068   0.970   0.884
   0.812   0.753   0.706   0.671   0.648   0.634   0.629   0.634   0.648   0.671
   0.706   0.753   0.812   0.884   0.970   1.068   1.176   1.292   1.411   1.528
   1.635   1.728   1.799   1.844   1.859   1.844   1.799   1.728   1.635   1.528
   1.411   1.292   1.176   1.068   0.970   0.884   0.812   0.753   0.706   0.671
   0.648   0.634
   0.313   0.314   0.318   0.325   0.339   0.363   0.401   0.457   0.535   0.638
   0.768   0.922   1.095   1.278   1.458   1.621   1.750   1.834   1.863   1.834
   1.750   1.621   1.458   1.278   1.095   0.922   0.768   0.638   0.535   0.457
   0.401   0.363   0.339   0.325   0.318   0.314   0.313   0.314   0.318   0.325
   0.339   0.363   0.401   0.457   0.535   0.638   0.768   0.922   1.095   1.278
   1.458   1.621   1.750   1.834   1.863   1.834   1.750   1.621   1.458   1.278
   1.095   0.922   0.768   0.638   0.535   0.457   0.401   0.363   0.339   0.325
   0.318   0.314
   0.377   0.374   0.365   0.353   0.341   0.332   0.332   0.346   0.382   0.448
   0.553   0.700   0.889   1.111   1.347   1.574   1.762   1.887   1.930   1.887
   1.762   1.574   1.347   1.111   0.889   0.700   0.553   0.448   0.382   0.346
   0.332   0.332   0.341   0.353   0.365   0.374   0.377   0.374   0.365   0.353
   0.341   0.332   0.332   0.346   0.382   0.448   0.553   0.700   0.889   1.111
   1.347   1.574   1.762   1.887   1.930   1.887   1.762   1.574   1.347   1.111
   0.889   0.700   0.553   0.448   0.382   0.346   0.332   0.332   0.341   0.353
   0.365   0.374
   0.525   0.521   0.508   0.491   0.475   0.461   0.450   0.444   0.448   0.471
   0.529   0.637   0.803   1.025   1.284   1.547   1.776   1.932   1.988   1.932
   1.776   1.547   1.284   1.025   0.803   0.637   0.529   0.471   0.448   0.444
   0.450   0.461   0.475   0.491   0.508   0.521   0.525   0.521   0.508   0.491
   0.475   0.461   0.450   0.444   0.448   0.471   0.529   0.637   0.803   1.025
   1.284   1.547   1.776   1.932   1.988   1.932   1.776   1.547   1.284   1.025
   0.803   0.637   0.529   0.471   0.448   0.444   0.450   0.461   0.475   0.491
   0.508   0.521
   0.577   0.569   0.551   0.534   0.527   0.534   0.548   0.560   0.565   0.570
   0.594   0.660   0.787   0.981   1.225   1.488   1.724   1.887   1.946   1.887
   1.724   1.488   1.225   0.981   0.787   0.660   0.594   0.570   0.565   0.560
   0.548   0.534   0.527   0.534   0.551   0.569   0.577   0.569   0.551   0.534
   0.527   0.534   0.548   0.560   0.565   0.570   0.594   0.660   0.787   0.981
   1.225   1.488   1.724   1.887   1.946   1.887   1.724   1.488   1.225   0.981
   0.787   0.660   0.594   0.570   0.565   0.560   0.548   0.534   0.527   0.534
   0.551   0.569
   0.626   0.610   0.571   0.534   0.520   0.536   0.571   0.605   0.624   0.630
   0.642   0.686   0.784   0.942   1.148   1.373   1.576   1.718   1.769   1.718
   1.576   1.373   1.148   0.942   0.784   0.686   0.642   0.630   0.624   0.605
   0.571   0.536   0.520   0.534   0.571   0.610   0.626   0.610   0.571   0.534
   0.520   0.536   0.571   0.605   0.624   0.630   0.642   0.686   0.784   0.942
   1.148   1.373   1.576   1.718   1.769   1.718   1.576   1.373   1.148   0.942
   0.784   0.686   0.642   0.630   0.624   0.605   0.571   0.536   0.520   0.534
   0.571   0.610
   0.856   0.828   0.758   0.681   0.630   0.616   0.628   0.643   0.645   0.639
   0.645   0.686   0.773   0.902   1.059   1.222   1.364   1.463   1.498   1.463
   1.364   1.222   1.059   0.902   0.773   0.686   0.645   0.639   0.645   0.643
   0.628   0.616   0.630   0.681   0.758   0.828   0.856   0.828   0.758   0.681
   0.630   0.616   0.628   0.643   0.645   0.639   0.645   0.686   0.773   0.902
   1.059   1.222   1.364   1.463   1.498   1.463   1.364   1.222   1.059   0.902
   0.773   0.686   0.645   0.639   0.645   0.643   0.628   0.616   0.630   0.681
   0.758   0.828
   1.325   1.288   1.191   1.071   0.964   0.886   0.830   0.778   0.723   0.678
   0.665   0.700   0.777   0.877   0.980   1.073   1.149   1.200   1.218   1.200
   1.149   1.073   0.980   0.877   0.777   0.700   0.665   0.678   0.723   0.778
   0.830   0.886   0.964   1.071   1.191   1.288   1.325   1.288   1.191   1.071
   0.964   0.886   0.830   0.778   0.723   0.678   0.665   0.700   0.777   0.877
   0.980   1.073   1.149   1.200   1.218   1.200   1.149   1.073   0.980   0.877
   0.777   0.700   0.665   0.678   0.723   0.778   0.830   0.886   0.964   1.071
   1.191   1.288
   1.897   1.857   1.748   1.596   1.435   1.287   1.157   1.034   0.916   0.822
   0.774   0.780   0.825   0.880   0.925   0.957   0.980   0.997   1.003   0.997
   0.980   0.957   0.925   0.880   0.825   0.780   0.774   0.822   0.916   1.034
   1.157   1.287   1.435   1.596   1.748   1.857   1.897   1.857   1.748   1.596
   1.435   1.287   1.157   1.034   0.916   0.822   0.774   0.780   0.825   0.880
   0.925   0.957   0.980   0.997   1.003   0.997   0.980   0.957   0.925   0.880
   0.825   0.780   0.774   0.822   0.916   1.034   1.157   1.287   1.435   1.596
   1.748   1.857
   2.288   2.255   2.156   1.997   1.805   1.617   1.455   1.315   1.181   1.059
   0.966   0.917   0.900   0.895   0.888   0.878   0.870   0.867   0.867   0.867
   0.870   0.878   0.888   0.895   0.900   0.917   0.966   1.059   1.181   1.315
   1.455   1.617   1.805   1.997   2.156   2.255   2.288   2.255   2.156   1.997
   1.805   1.617   1.455   1.315   1.181   1.059   0.966   0.917   0.900   0.895
   0.888   0.878   0.870   0.867   0.867   0.867   0.870   0.878   0.888   0.895
   0.900   0.917   0.966   1.059   1.181   1.315   1.455   1.617   1.805   1.997
   2.156   2.255
   2.204   2.193   2.140   2.018   1.844   1.678   1.562   1.484   1.400   1.283
   1.150   1.031   0.944   0.889   0.853   0.827   0.804   0.786   0.779   0.786
   0.804   0.827   0.853   0.889   0.944   1.031   1.150   1.283   1.400   1.484
   1.562   1.678   1.844   2.018   2.140   2.193   2.204   2.193   2.140   2.018
   1.844   1.678   1.562   1.484   1.400   1.283   1.150   1.031   0.944   0.889
   0.853   0.827   0.804   0.786   0.779   0.786   0.804   0.827   0.853   0.889
   0.944   1.031   1.150   1.283   1.400   1.484   1.562   1.678   1.844   2.018
   2.140   2.193
   1.581   1.607   1.639   1.606   1.508   1.424   1.418   1.463   1.472   1.390
   1.232   1.058   0.924   0.851   0.825   0.810   0.780   0.739   0.720   0.739
   0.780   0.810   0.825   0.851   0.924   1.058   1.232   1.390   1.472   1.463
   1.418   1.424   1.508   1.606   1.639   1.607   1.581   1.607   1.639   1.606
   1.508   1.424   1.418   1.463   1.472   1.390   1.232   1.058   0.924   0.851
   0.825   0.810   0.780   0.739   0.720   0.739   0.780   0.810   0.825   0.851
   0.924   1.058   1.232   1.390   1.472   1.463   1.418   1.424   1.508   1.606
   1.639   1.607
   0.745   0.810   0.934   0.998   0.985   0.994   1.104   1.273   1.384   1.357
   1.211   1.026   0.885   0.827   0.836   0.851   0.819   0.755   0.722   0.755
   0.819   0.851   0.836   0.827   0.885   1.026   1.211   1.357   1.384   1.273
   1.104   0.994   0.985   0.998   0.934   0.810   0.745   0.810   0.934   0.998
   0.985   0.994   1.104   1.273   1.384   1.357   1.211   1.026   0.885   0.827
   0.836   0.851   0.819   0.755   0.722   0.755   0.819   0.851   0.836   0.827
   0.885   1.026   1.211   1.357   1.384   1.273   1.104   0.994   0.985   0.998
   0.934   0.810
   0.200   0.286   0.455   0.554   0.562   0.598   0.761   1.008   1.201   1.251
   1.167   1.025   0.908   0.875   0.917   0.963   0.941   0.866   0.824   0.866
   0.941   0.963   0.917   0.875   0.908   1.025   1.167   1.251   1.201   1.008
   0.761   0.598   0.562   0.554   0.455   0.286   0.200   0.286   0.455   0.554
   0.562   0.598   0.761   1.008   1.201   1.251   1.167   1.025   0.908   0.875
   0.917   0.963   0.941   0.866   0.824   0.866   0.941   0.963   0.917   0.875
   0.908   1.025   1.167   1.251   1.201   1.008   0.761   0.598   0.562   0.554
   0.455   0.286
   0.158   0.240   0.388   0.440   0.383   0.364   0.507   0.772   1.022   1.156
   1.165   1.094   1.013   0.990   1.046   1.113   1.109   1.040   0.998   1.040
   1.109   1.113   1.046   0.990   1.013   1.094   1.165   1.156   1.022   0.772
   0.507   0.364   0.383   0.440   0.388   0.240   0.158   0.240   0.388   0.440
   0.383   0.364   0.507   0.772   1.022   1.156   1.165   1.094   1.013   0.990
   1.046   1.113   1.109   1.040   0.998   1.040   1.109   1.113   1.046   0.990
   1.013   1.094   1.165   1.156   1.022   0.772   0.507   0.364   0.383   0.440
   0.388   0.240
   0.336   0.405   0.515   0.502   0.367   0.280   0.380   0.638   0.916   1.109
   1.189   1.173   1.114   1.092   1.146   1.223   1.234   1.175   1.137   1.175
   1.234   1.223   1.146   1.092   1.114   1.173   1.189   1.109   0.916   0.638
   0.380   0.280   0.367   0.502   0.515   0.405   0.336   0.405   0.515   0.502
   0.367   0.280   0.380   0.638   0.916   1.109   1.189   1.173   1.114   1.092
   1.146   1.223   1.234   1.175   1.137   1.175   1.234   1.223   1.146   1.092
   1.114   1.173   1.189   1.109   0.916   0.638   0.380   0.280   0.367   0.502
   0.515   0.405
 200       5.00   72    0 5.00   18    0
   1.531   1.532   1.532   1.533   1.534   1.535   1.537   1.538   1.540   1.542
   1.544   1.546   1.548   1.549   1.551   1.552   1.553   1.553   1.553   1.553
   1.553   1.552   1.551   1.549   1.548   1.546   1.544   1.542   1.540   1.538
   1.537   1.535   1.534   1.533   1.532   1.532   1.531   1.532   1.532   1.533
   1.534   1.535   1.537   1.538   1.540   1.542   1.544   1.546   1.548   1.549
   1.551   1.552   1.553   1.553   1.553   1.553   1.553   1.552   1.551   1.549
   1.548   1.546   1.544   1.542   1.540   1.538   1.537   1.535   1.534   1.533
   1.532   1.532
   1.340   1.340   1.341   1.341   1.342   1.344   1.348   1.353   1.359   1.368
   1.379   1.390   1.403   1.416   1.428   1.439   1.447   1.452   1.454   1.452
   1.447   1.439   1.428   1.416   1.403   1.390   1.379   1.368   1.359   1.353
   1.348   1.344   1.342   1.341   1.341   1.340   1.340   1.340   1.341   1.341
   1.342   1.344   1.348   1.353   1.359   1.368   1.379   1.390   1.403   1.416
   1.428   1.439   1.447   1.452   1.454   1.452   1.447   1.439   1.428   1.416
   1.403   1.390   1.379   1.368   1.359   1.353   1.348   1.344   1.342   1.341
   1.341   1.340
   1.318   1.314   1.302   1.284   1.262   1.236   1.211   1.188   1.171   1.162
   1.162   1.173   1.192   1.218   1.248   1.277   1.301   1.318   1.324   1.318
   1.301   1.277   1.248   1.218   1.192   1.173   1.162   1.162   1.171   1.188
   1.211   1.236   1.262   1.284   1.302   1.314   1.318   1.314   1.302   1.284
   1.262   1.236   1.211   1.188   1.171   1.162   1.162   1.173   1.192   1.218
   1.248   1.277   1.301   1.318   1.324   1.318   1.301   1.277   1.248   1.218
   1.192   1.173   1.162   1.162   1.171   1.188   1.211   1.236   1.262   1.284
   1.302   1.314
   1.620   1.610   1.579   1.530   1.465   1.387   1.301   1.213   1.132   1.064
   1.017   0.996   1.001   1.030   1.076   1.130   1.178   1.213   1.225   1.213
   1.178   1.130   1.076   1.030   1.001   0.996   1.017   1.064   1.132   1.213
   1.301   1.387   1.465   1.530   1.579   1.610   1.620   1.610   1.579   1.530
   1.465   1.387   1.301   1.213   1.132   1.064   1.017   0.996   1.001   1.030
   1.076   1.130   1.178   1.213   1.225   1.213   1.178   1.130   1.076   1.030
   1.001   0.996   1.017   1.064   1.132   1.213   1.301   1.387   1.465   1.530
   1.579   1.610
   1.936   1.924   1.885   1.823   1.736   1.628   1.501   1.361   1.217   1.083
   0.973   0.900   0.872   0.888   0.941   1.014   1.087   1.141   1.160   1.141
   1.087   1.014   0.941   0.888   0.872   0.900   0.973   1.083   1.217   1.361
   1.501   1.628   1.736   1.823   1.885   1.924   1.936   1.924   1.885   1.823
   1.736   1.628   1.501   1.361   1.217   1.083   0.973   0.900   0.872   0.888
   0.941   1.014   1.087   1.141   1.160   1.141   1.087   1.014   0.941   0.888
   0.872   0.900   0.973   1.083   1.217   1.361   1.501   1.628   1.736   1.823
   1.885   1.924
   1.906   1.894   1.858   1.803   1.731   1.642   1.532   1.402   1.256   1.106
   0.969   0.865   0.811   0.810   0.857   0.933   1.014   1.075   1.097   1.075
   1.014   0.933   0.857   0.810   0.811   0.865   0.969   1.106   1.256   1.402
   1.532   1.642   1.731   1.803   1.858   1.894   1.906   1.894   1.858   1.803
   1.731   1.642   1.532   1.402   1.256   1.106   0.969   0.865   0.811   0.810
   0.857   0.933   1.014   1.075   1.097   1.075   1.014   0.933   0.857   0.810
   0.811   0.865   0.969   1.106   1.256   1.402   1.532   1.642   1.731   1.803
   1.858   1.894
   1.546   1.530   1.488   1.434   1.380   1.330   1.277   1.210   1.124   1.026
   0.930   0.854   0.814   0.813   0.849   0.907   0.969   1.017   1.034   1.017
   0.969   0.907   0.849   0.813   0.814   0.854   0.930   1.026   1.124   1.210
   1.277   1.330   1.380   1.434   1.488   1.530   1.546   1.530   1.488   1.434
   1.380   1.330   1.277   1.210   1.124   1.026   0.930   0.854   0.814   0.813
   0.849   0.907   0.969   1.017   1.034   1.017   0.969   0.907   0.849   0.813
   0.814   0.854   0.930   1.026   1.124   1.210   1.277   1.330   1.380   1.434
   1.488   1.530
   1.109   1.086   1.028   0.964   0.919   0.899   0.894   0.886   0.869   0.848
   0.836   0.840   0.860   0.890   0.922   0.955   0.983   1.003   1.011   1.003
   0.983   0.955   0.922   0.890   0.860   0.840   0.836   0.848   0.869   0.886
   0.894   0.899   0.919   0.964   1.028   1.086   1.109   1.086   1.028   0.964
   0.919   0.899   0.894   0.886   0.869   0.848   0.836   0.840   0.860   0.890
   0.922   0.955   0.983   1.003   1.011   1.003   0.983   0.955   0.922   0.890
   0.860   0.840   0.836   0.848   0.869   0.886   0.894   0.899   0.919   0.964
   1.028   1.086
   0.718   0.697   0.648   0.605   0.591   0.605   0.625   0.635   0.642   0.667
   0.727   0.814   0.905   0.974   1.014   1.033   1.046   1.057   1.061   1.057
   1.046   1.033   1.014   0.974   0.905   0.814   0.727   0.667   0.642   0.635
   0.625   0.605   0.591   0.605   0.648   0.697   0.718   0.697   0.648   0.605
   0.591   0.605   0.625   0.635   0.642   0.667   0.727   0.814   0.905   0.974
   1.014   1.033   1.046   1.057   1.061   1.057   1.046   1.033   1.014   0.974
   0.905   0.814   0.727   0.667   0.642   0.635   0.625   0.605   0.591   0.605
   0.648   0.697
   0.382   0.378   0.376   0.399   0.452   0.512   0.546   0.546   0.540   0.573
   0.667   0.797   0.915   0.989   1.025   1.055   1.098   1.143   1.163   1.143
   1.098   1.055   1.025   0.989   0.915   0.797   0.667   0.573   0.540   0.546
   0.546   0.512   0.452   0.399   0.376   0.378   0.382   0.378   0.376   0.399
   0.452   0.512   0.546   0.546   0.540   0.573   0.667   0.797   0.915   0.989
   1.025   1.055   1.098   1.143   1.163   1.143   1.098   1.055   1.025   0.989
   0.915   0.797   0.667   0.573   0.540   0.546   0.546   0.512   0.452   0.399
   0.376   0.378
   0.204   0.218   0.264   0.343   0.440   0.521   0.556   0.549   0.545   0.594
   0.704   0.827   0.903   0.921   0.925   0.974   1.080   1.193   1.242   1.193
   1.080   0.974   0.925   0.921   0.903   0.827   0.704   0.594   0.545   0.549
   0.556   0.521   0.440   0.343   0.264   0.218   0.204   0.218   0.264   0.343
   0.440   0.521   0.556   0.549   0.545   0.594   0.704   0.827   0.903   0.921
   0.925   0.974   1.080   1.193   1.242   1.193   1.080   0.974   0.925   0.921
   0.903   0.827   0.704   0.594   0.545   0.549   0.556   0.521   0.440   0.343
   0.264   0.218
   0.276   0.299   0.360   0.435   0.501   0.541   0.554   0.562   0.605   0.705
   0.835   0.921   0.913   0.840   0.794   0.850   1.003   1.165   1.233   1.165
   1.003   0.850   0.794   0.840   0.913   0.921   0.835   0.705   0.605   0.562
   0.554   0.541   0.501   0.435   0.360   0.299   0.276   0.299   0.360   0.435
   0.501   0.541   0.554   0.562   0.605   0.705   0.835   0.921   0.913   0.840
   0.794   0.850   1.003   1.165   1.233   1.165   1.003   0.850   0.794   0.840
   0.913   0.921   0.835   0.705   0.605   0.562   0.554   0.541   0.501   0.435
   0.360   0.299
   0.426   0.460   0.530   0.582   0.590   0.572   0.568   0.610   0.715   0.866
   1.000   1.036   0.951   0.816   0.745   0.799   0.941   1.079   1.135   1.079
   0.941   0.799   0.745   0.816   0.951   1.036   1.000   0.866   0.715   0.610
   0.568   0.572   0.590   0.582   0.530   0.460   0.426   0.460   0.530   0.582
   0.590   0.572   0.568   0.610   0.715   0.866   1.000   1.036   0.951   0.816
   0.745   0.799   0.941   1.079   1.135   1.079   0.941   0.799   0.745   0.816
   0.951   1.036   1.000   0.866   0.715   0.610   0.568   0.572   0.590   0.582
   0.530   0.460
   0.418   0.474   0.591   0.671   0.676   0.656   0.672   0.751   0.881   1.026
   1.118   1.097   0.972   0.843   0.812   0.881   0.970   1.018   1.028   1.018
   0.970   0.881   0.812   0.843   0.972   1.097   1.118   1.026   0.881   0.751
   0.672   0.656   0.676   0.671   0.591   0.474   0.418   0.474   0.591   0.671
   0.676   0.656   0.672   0.751   0.881   1.026   1.118   1.097   0.972   0.843
   0.812   0.881   0.970   1.018   1.028   1.018   0.970   0.881   0.812   0.843
   0.972   1.097   1.118   1.026   0.881   0.751   0.672   0.656   0.676   0.671
   0.591   0.474
   0.439   0.514   0.668   0.776   0.803   0.812   0.863   0.950   1.043   1.119
   1.138   1.063   0.930   0.856   0.917   1.046   1.106   1.068   1.032   1.068
   1.106   1.046   0.917   0.856   0.930   1.063   1.138   1.119   1.043   0.950
   0.863   0.812   0.803   0.776   0.668   0.514   0.439   0.514   0.668   0.776
   0.803   0.812   0.863   0.950   1.043   1.119   1.138   1.063   0.930   0.856
   0.917   1.046   1.106   1.068   1.032   1.068   1.106   1.046   0.917   0.856
   0.930   1.063   1.138   1.119   1.043   0.950   0.863   0.812   0.803   0.776
   0.668   0.514
   1.028   1.075   1.146   1.142   1.070   1.023   1.042   1.080   1.099   1.100
   1.072   0.973   0.837   0.804   0.960   1.192   1.304   1.258   1.209   1.258
   1.304   1.192   0.960   0.804   0.837   0.973   1.072   1.100   1.099   1.080
   1.042   1.023   1.070   1.142   1.146   1.075   1.028   1.075   1.146   1.142
   1.070   1.023   1.042   1.080   1.099   1.100   1.072   0.973   0.837   0.804
   0.960   1.192   1.304   1.258   1.209   1.258   1.304   1.192   0.960   0.804
   0.837   0.973   1.072   1.100   1.099   1.080   1.042   1.023   1.070   1.142
   1.146   1.075
   2.269   2.234   2.089   1.803   1.471   1.236   1.131   1.076   1.023   0.996
   0.978   0.891   0.744   0.707   0.917   1.261   1.489   1.517   1.490   1.517
   1.489   1.261   0.917   0.707   0.744   0.891   0.978   0.996   1.023   1.076
   1.131   1.236   1.471   1.803   2.089   2.234   2.269   2.234   2.089   1.803
   1.471   1.236   1.131   1.076   1.023   0.996   0.978   0.891   0.744   0.707
   0.917   1.261   1.489   1.517   1.490   1.517   1.489   1.261   0.917   0.707
   0.744   0.891   0.978   0.996   1.023   1.076   1.131   1.236   1.471   1.803
   2.089   2.234
   3.360   3.252   2.909   2.365   1.790   1.373   1.148   1.014   0.921   0.899
   0.916   0.851   0.691   0.632   0.858   1.274   1.599   1.703   1.704   1.703
   1.599   1.274   0.858   0.632   0.691   0.851   0.916   0.899   0.921   1.014
   1.148   1.373   1.790   2.365   2.909   3.252   3.360   3.252   2.909   2.365
   1.790   1.373   1.148   1.014   0.921   0.899   0.916   0.851   0.691   0.632
   0.858   1.274   1.599   1.703   1.704   1.703   1.599   1.274   0.858   0.632
   0.691   0.851   0.916   0.899   0.921   1.014   1.148   1.373   1.790   2.365
   2.909   3.252
 111       5.00   72    0 5.00   18    0
   0.420   0.420   0.420   0.420   0.419   0.419   0.418   0.418   0.417   0.416
   0.416   0.415   0.415   0.414   0.414   0.413   0.413   0.413   0.413   0.413
   0.413   0.413   0.414   0.414   0.415   0.415   0.416   0.416   0.417   0.418
   0.418   0.419   0.419   0.420   0.420   0.420   0.420   0.420   0.420   0.420
   0.419   0.419   0.418   0.418   0.417   0.416   0.416   0.415   0.415   0.414
   0.414   0.413   0.413   0.413   0.413   0.413   0.413   0.413   0.414   0.414
   0.415   0.415   0.416   0.416   0.417   0.418   0.418   0.419   0.419   0.420
   0.420   0.420
   0.331   0.330   0.329   0.326   0.323   0.319   0.315   0.310   0.305   0.299
   0.293   0.288   0.282   0.277   0.272   0.268   0.266   0.264   0.263   0.264
   0.266   0.268   0.272   0.277   0.282   0.288   0.293   0.299   0.305   0.310
   0.315   0.319   0.323   0.326   0.329   0.330   0.331   0.330   0.329   0.326
   0.323   0.319   0.315   0.310   0.305   0.299   0.293   0.288   0.282   0.277
   0.272   0.268   0.266   0.264   0.263   0.264   0.266   0.268   0.272   0.277
   0.282   0.288   0.293   0.299   0.305   0.310   0.315   0.319   0.323   0.326
   0.329   0.330
   0.335   0.332   0.324   0.311   0.295   0.277   0.258   0.239   0.221   0.204
   0.187   0.171   0.156   0.142   0.128   0.116   0.107   0.101   0.099   0.101
   0.107   0.116   0.128   0.142   0.156   0.171   0.187   0.204   0.221   0.239
   0.258   0.277   0.295   0.311   0.324   0.332   0.335   0.332   0.324   0.311
   0.295   0.277   0.258   0.239   0.221   0.204   0.187   0.171   0.156   0.142
   0.128   0.116   0.107   0.101   0.099   0.101   0.107   0.116   0.128   0.142
   0.156   0.171   0.187   0.204   0.221   0.239   0.258   0.277   0.295   0.311
   0.324   0.332
   0.730   0.718   0.683   0.631   0.567   0.497   0.427   0.364   0.309   0.263
   0.225   0.193   0.165   0.140   0.116   0.096   0.079   0.068   0.064   0.068
   0.079   0.096   0.116   0.140   0.165   0.193   0.225   0.263   0.309   0.364
   0.427   0.497   0.567   0.631   0.683   0.718   0.730   0.718   0.683   0.631
   0.567   0.497   0.427   0.364   0.309   0.263   0.225   0.193   0.165   0.140
   0.116   0.096   0.079   0.068   0.064   0.068   0.079   0.096   0.116   0.140
   0.165   0.193   0.225   0.263   0.309   0.364   0.427   0.497   0.567   0.631
   0.683   0.718
   1.617   1.588   1.506   1.380   1.223   1.052   0.884   0.730   0.599   0.494
   0.414   0.354   0.309   0.274   0.246   0.222   0.204   0.193   0.188   0.193
   0.204   0.222   0.246   0.274   0.309   0.354   0.414   0.494   0.599   0.730
   0.884   1.052   1.223   1.380   1.506   1.588   1.617   1.588   1.506   1.380
   1.223   1.052   0.884   0.730   0.599   0.494   0.414   0.354   0.309   0.274
   0.246   0.222   0.204   0.193   0.188   0.193   0.204   0.222   0.246   0.274
   0.309   0.354   0.414   0.494   0.599   0.730   0.884   1.052   1.223   1.380
   1.506   1.588
   2.585   2.546   2.431   2.251   2.021   1.763   1.498   1.246   1.021   0.833
   0.685   0.576   0.500   0.451   0.422   0.406   0.398   0.394   0.393   0.394
   0.398   0.406   0.422   0.451   0.500   0.576   0.685   0.833   1.021   1.246
   1.498   1.763   2.021   2.251   2.431   2.546   2.585   2.546   2.431   2.251
   2.021   1.763   1.498   1.246   1.021   0.833   0.685   0.576   0.500   0.451
   0.422   0.406   0.398   0.394   0.393   0.394   0.398   0.406   0.422   0.451
   0.500   0.576   0.685   0.833   1.021   1.246   1.498   1.763   2.021   2.251
   2.431   2.546
   2.909   2.884   2.808   2.678   2.494   2.265   2.004   1.730   1.460   1.209
   0.990   0.814   0.687   0.609   0.571   0.561   0.566   0.573   0.577   0.573
   0.566   0.561   0.571   0.609   0.687   0.814   0.990   1.209   1.460   1.730
   2.004   2.265   2.494   2.678   2.808   2.884   2.909   2.884   2.808   2.678
   2.494   2.265   2.004   1.730   1.460   1.209   0.990   0.814   0.687   0.609
   0.571   0.561   0.566   0.573   0.577   0.573   0.566   0.561   0.571   0.609
   0.687   0.814   0.990   1.209   1.460   1.730   2.004   2.265   2.494   2.678
   2.808   2.884
   2.263   2.279   2.315   2.342   2.332   2.270   2.153   1.987   1.781   1.546
   1.302   1.078   0.898   0.776   0.710   0.685   0.682   0.686   0.688   0.686
   0.682   0.685   0.710   0.776   0.898   1.078   1.302   1.546   1.781   1.987
   2.153   2.270   2.332   2.342   2.315   2.279   2.263   2.279   2.315   2.342
   2.332   2.270   2.153   1.987   1.781   1.546   1.302   1.078   0.898   0.776
   0.710   0.685   0.682   0.686   0.688   0.686   0.682   0.685   0.710   0.776
   0.898   1.078   1.302   1.546   1.781   1.987   2.153   2.270   2.332   2.342
   2.315   2.279
   1.129   1.184   1.327   1.505   1.670   1.797   1.879   1.909   1.869   1.750
   1.564   1.349   1.149   0.994   0.890   0.824   0.782   0.757   0.748   0.757
   0.782   0.824   0.890   0.994   1.149   1.349   1.564   1.750   1.869   1.909
   1.879   1.797   1.670   1.505   1.327   1.184   1.129   1.184   1.327   1.505
   1.670   1.797   1.879   1.909   1.869   1.750   1.564   1.349   1.149   0.994
   0.890   0.824   0.782   0.757   0.748   0.757   0.782   0.824   0.890   0.994
   1.149   1.349   1.564   1.750   1.869   1.909   1.879   1.797   1.670   1.505
   1.327   1.184
   0.314   0.378   0.542   0.744   0.945   1.146   1.359   1.570   1.725   1.771
   1.697   1.544   1.371   1.218   1.094   0.989   0.901   0.838   0.815   0.838
   0.901   0.989   1.094   1.218   1.371   1.544   1.697   1.771   1.725   1.570
   1.359   1.146   0.945   0.744   0.542   0.378   0.314   0.378   0.542   0.744
   0.945   1.146   1.359   1.570   1.725   1.771   1.697   1.544   1.371   1.218
   1.094   0.989   0.901   0.838   0.815   0.838   0.901   0.989   1.094   1.218
   1.371   1.544   1.697   1.771   1.725   1.570   1.359   1.146   0.945   0.744
   0.542   0.378
   0.134   0.179   0.284   0.394   0.500   0.649   0.891   1.204   1.491   1.656
   1.669   1.580   1.459   1.344   1.236   1.130   1.033   0.962   0.937   0.962
   1.033   1.130   1.236   1.344   1.459   1.580   1.669   1.656   1.491   1.204
   0.891   0.649   0.500   0.394   0.284   0.179   0.134   0.179   0.284   0.394
   0.500   0.649   0.891   1.204   1.491   1.656   1.669   1.580   1.459   1.344
   1.236   1.130   1.033   0.962   0.937   0.962   1.033   1.130   1.236   1.344
   1.459   1.580   1.669   1.656   1.491   1.204   0.891   0.649   0.500   0.394
   0.284   0.179
   0.254   0.280   0.327   0.347   0.358   0.445   0.677   1.015   1.330   1.507
   1.527   1.461   1.382   1.317   1.253   1.187   1.132   1.101   1.092   1.101
   1.132   1.187   1.253   1.317   1.382   1.461   1.527   1.507   1.330   1.015
   0.677   0.445   0.358   0.347   0.327   0.280   0.254   0.280   0.327   0.347
   0.358   0.445   0.677   1.015   1.330   1.507   1.527   1.461   1.382   1.317
   1.253   1.187   1.132   1.101   1.092   1.101   1.132   1.187   1.253   1.317
   1.382   1.461   1.527   1.507   1.330   1.015   0.677   0.445   0.358   0.347
   0.327   0.280
   0.291   0.313   0.351   0.364   0.373   0.466   0.696   1.009   1.267   1.372
   1.341   1.267   1.219   1.196   1.171   1.148   1.150   1.175   1.190   1.175
   1.150   1.148   1.171   1.196   1.219   1.267   1.341   1.372   1.267   1.009
   0.696   0.466   0.373   0.364   0.351   0.313   0.291   0.313   0.351   0.364
   0.373   0.466   0.696   1.009   1.267   1.372   1.341   1.267   1.219   1.196
   1.171   1.148   1.150   1.175   1.190   1.175   1.150   1.148   1.171   1.196
   1.219   1.267   1.341   1.372   1.267   1.009   0.696   0.466   0.373   0.364
   0.351   0.313
   0.280   0.304   0.355   0.403   0.462   0.586   0.800   1.043   1.206   1.228
   1.156   1.086   1.068   1.076   1.071   1.061   1.077   1.119   1.142   1.119
   1.077   1.061   1.071   1.076   1.068   1.086   1.156   1.228   1.206   1.043
   0.800   0.586   0.462   0.403   0.355   0.304   0.280   0.304   0.355   0.403
   0.462   0.586   0.800   1.043   1.206   1.228   1.156   1.086   1.068   1.076
   1.071   1.061   1.077   1.119   1.142   1.119   1.077   1.061   1.071   1.076
   1.068   1.086   1.156   1.228   1.206   1.043   0.800   0.586   0.462   0.403
   0.355   0.304
   0.478   0.491   0.524   0.574   0.644   0.747   0.884   1.021   1.098   1.083
   1.009   0.951   0.950   0.983   1.001   0.987   0.965   0.955   0.955   0.955
   0.965   0.987   1.001   0.983   0.950   0.951   1.009   1.083   1.098   1.021
   0.884   0.747   0.644   0.574   0.524   0.491   0.478   0.491   0.524   0.574
   0.644   0.747   0.884   1.021   1.098   1.083   1.009   0.951   0.950   0.983
   1.001   0.987   0.965   0.955   0.955   0.955   0.965   0.987   1.001   0.983
   0.950   0.951   1.009   1.083   1.098   1.021   0.884   0.747   0.644   0.574
   0.524   0.491
   0.919   0.907   0.890   0.895   0.919   0.943   0.960   0.988   1.018   1.009
   0.941   0.854   0.825   0.875   0.947   0.958   0.882   0.779   0.731   0.779
   0.882   0.958   0.947   0.875   0.825   0.854   0.941   1.009   1.018   0.988
   0.960   0.943   0.919   0.895   0.890   0.907   0.919   0.907   0.890   0.895
   0.919   0.943   0.960   0.988   1.018   1.009   0.941   0.854   0.825   0.875
   0.947   0.958   0.882   0.779   0.731   0.779   0.882   0.958   0.947   0.875
   0.825   0.854   0.941   1.009   1.018   0.988   0.960   0.943   0.919   0.895
   0.890   0.907
   1.374   1.339   1.272   1.229   1.203   1.146   1.060   1.014   1.036   1.048
   0.957   0.785   0.676   0.733   0.888   0.965   0.863   0.670   0.574   0.670
   0.863   0.965   0.888   0.733   0.676   0.785   0.957   1.048   1.036   1.014
   1.060   1.146   1.203   1.229   1.272   1.339   1.374   1.339   1.272   1.229
   1.203   1.146   1.060   1.014   1.036   1.048   0.957   0.785   0.676   0.733
   0.888   0.965   0.863   0.670   0.574   0.670   0.863   0.965   0.888   0.733
   0.676   0.785   0.957   1.048   1.036   1.014   1.060   1.146   1.203   1.229
   1.272   1.339
   1.632   1.585   1.494   1.429   1.380   1.282   1.145   1.070   1.098   1.123
   1.000   0.747   0.565   0.620   0.841   0.979   0.875   0.633   0.508   0.633
   0.875   0.979   0.841   0.620   0.565   0.747   1.000   1.123   1.098   1.070
   1.145   1.282   1.380   1.429   1.494   1.585   1.632   1.585   1.494   1.429
   1.380   1.282   1.145   1.070   1.098   1.123   1.000   0.747   0.565   0.620
   0.841   0.979   0.875   0.633   0.508   0.633   0.875   0.979   0.841   0.620
   0.565   0.747   1.000   1.123   1.098   1.070   1.145   1.282   1.380   1.429
   1.494   1.585
TEXTURE_INDEX=   1.8154
ERR_CF 220         1080     560   23.56   21.43
ERR_CF 200         1080     554   17.72   15.86
ERR_CF 111         1080     394   23.69   11.84
