TEXEVAL                                                                         
Analysis started on 31-Aug-18 12:11:38                                          
 LMAX=16LFMAX=03 CUBIC ORTHO   
 220      5.00 5.00
 200      5.00 5.00
 111      5.00 5.00
 220       5.00   72    0 5.00   15    0
   3.151   3.151   3.151   3.151   3.151   3.151   3.151   3.151   3.151   3.151
   3.151   3.151   3.151   3.151   3.151   3.151   3.151   3.151   3.151   3.151
   3.151   3.151   3.151   3.151   3.151   3.151   3.151   3.151   3.151   3.151
   3.151   3.151   3.151   3.151   3.151   3.151   3.151   3.151   3.151   3.151
   3.151   3.151   3.151   3.151   3.151   3.151   3.151   3.151   3.151   3.151
   3.151   3.151   3.151   3.151   3.151   3.151   3.151   3.151   3.151   3.151
   3.151   3.151   3.151   3.151   3.151   3.151   3.151   3.151   3.151   3.151
   3.151   3.151
   1.774   2.223   1.363   2.128   1.727   1.683   1.862   1.859   2.255   2.237
   2.438   2.335   3.138   2.785   3.509   2.602   3.029   3.519   2.601   3.519
   3.029   2.602   3.509   2.785   3.138   2.335   2.438   2.237   2.255   1.859
   1.862   1.683   1.727   2.128   1.363   2.223   1.774   2.223   1.363   2.128
   1.727   1.683   1.862   1.859   2.255   2.237   2.438   2.335   3.138   2.785
   3.509   2.602   3.029   3.519   2.601   3.519   3.029   2.602   3.509   2.785
   3.138   2.335   2.438   2.237   2.255   1.859   1.862   1.683   1.727   2.128
   1.363   2.223
   0.722   0.740   1.021   1.432   0.938   1.152   1.432   1.475   1.192   1.207
   1.428   1.663   2.054   2.207   2.676   2.606   2.942   3.394   2.237   3.394
   2.942   2.606   2.676   2.207   2.054   1.663   1.428   1.207   1.192   1.475
   1.432   1.152   0.938   1.432   1.021   0.740   0.722   0.740   1.021   1.432
   0.938   1.152   1.432   1.475   1.192   1.207   1.428   1.663   2.054   2.207
   2.676   2.606   2.942   3.394   2.237   3.394   2.942   2.606   2.676   2.207
   2.054   1.663   1.428   1.207   1.192   1.475   1.432   1.152   0.938   1.432
   1.021   0.740
   0.609   0.599   0.817   0.657   1.036   0.799   1.036   0.787   0.985   0.910
   1.302   1.232   1.495   1.742   2.106   2.633   3.208   3.054   2.808   3.054
   3.208   2.633   2.106   1.742   1.495   1.232   1.302   0.910   0.985   0.787
   1.036   0.799   1.036   0.657   0.817   0.599   0.609   0.599   0.817   0.657
   1.036   0.799   1.036   0.787   0.985   0.910   1.302   1.232   1.495   1.742
   2.106   2.633   3.208   3.054   2.808   3.054   3.208   2.633   2.106   1.742
   1.495   1.232   1.302   0.910   0.985   0.787   1.036   0.799   1.036   0.657
   0.817   0.599
   0.708   0.582   0.755   0.595   0.774   0.653   0.838   0.556   0.848   0.863
   0.936   1.087   1.249   1.418   1.505   1.723   2.263   2.481   2.321   2.481
   2.263   1.723   1.505   1.418   1.249   1.087   0.936   0.863   0.848   0.556
   0.838   0.653   0.774   0.595   0.755   0.582   0.708   0.582   0.755   0.595
   0.774   0.653   0.838   0.556   0.848   0.863   0.936   1.087   1.249   1.418
   1.505   1.723   2.263   2.481   2.321   2.481   2.263   1.723   1.505   1.418
   1.249   1.087   0.936   0.863   0.848   0.556   0.838   0.653   0.774   0.595
   0.755   0.582
   0.649   0.565   0.698   0.731   0.638   0.699   0.621   0.740   0.796   0.764
   0.749   1.135   1.077   1.458   1.564   1.779   1.613   2.358   1.970   2.358
   1.613   1.779   1.564   1.458   1.077   1.135   0.749   0.764   0.796   0.740
   0.621   0.699   0.638   0.731   0.698   0.565   0.649   0.565   0.698   0.731
   0.638   0.699   0.621   0.740   0.796   0.764   0.749   1.135   1.077   1.458
   1.564   1.779   1.613   2.358   1.970   2.358   1.613   1.779   1.564   1.458
   1.077   1.135   0.749   0.764   0.796   0.740   0.621   0.699   0.638   0.731
   0.698   0.565
   0.613   0.613   0.580   0.609   0.704   0.752   0.624   0.832   0.820   0.627
   0.788   0.927   0.969   1.347   1.441   1.872   1.632   2.423   2.235   2.423
   1.632   1.872   1.441   1.347   0.969   0.927   0.788   0.627   0.820   0.832
   0.624   0.752   0.704   0.609   0.580   0.613   0.613   0.613   0.580   0.609
   0.704   0.752   0.624   0.832   0.820   0.627   0.788   0.927   0.969   1.347
   1.441   1.872   1.632   2.423   2.235   2.423   1.632   1.872   1.441   1.347
   0.969   0.927   0.788   0.627   0.820   0.832   0.624   0.752   0.704   0.609
   0.580   0.613
   0.658   0.892   0.737   0.530   0.780   0.725   0.763   0.587   0.813   0.596
   0.652   0.754   0.909   1.005   1.157   1.700   1.736   2.130   1.865   2.130
   1.736   1.700   1.157   1.005   0.909   0.754   0.652   0.596   0.813   0.587
   0.763   0.725   0.780   0.530   0.737   0.892   0.658   0.892   0.737   0.530
   0.780   0.725   0.763   0.587   0.813   0.596   0.652   0.754   0.909   1.005
   1.157   1.700   1.736   2.130   1.865   2.130   1.736   1.700   1.157   1.005
   0.909   0.754   0.652   0.596   0.813   0.587   0.763   0.725   0.780   0.530
   0.737   0.892
   0.781   0.978   0.758   0.769   0.722   0.741   0.592   0.760   0.698   0.586
   0.580   0.799   0.777   0.881   1.108   1.512   1.867   1.731   1.220   1.731
   1.867   1.512   1.108   0.881   0.777   0.799   0.580   0.586   0.698   0.760
   0.592   0.741   0.722   0.769   0.758   0.978   0.781   0.978   0.758   0.769
   0.722   0.741   0.592   0.760   0.698   0.586   0.580   0.799   0.777   0.881
   1.108   1.512   1.867   1.731   1.220   1.731   1.867   1.512   1.108   0.881
   0.777   0.799   0.580   0.586   0.698   0.760   0.592   0.741   0.722   0.769
   0.758   0.978
   0.910   1.069   1.189   1.107   0.837   1.003   0.604   0.918   0.784   0.645
   0.586   0.797   0.702   1.062   1.203   1.196   1.508   1.324   1.114   1.324
   1.508   1.196   1.203   1.062   0.702   0.797   0.586   0.645   0.784   0.918
   0.604   1.003   0.837   1.107   1.189   1.069   0.910   1.069   1.189   1.107
   0.837   1.003   0.604   0.918   0.784   0.645   0.586   0.797   0.702   1.062
   1.203   1.196   1.508   1.324   1.114   1.324   1.508   1.196   1.203   1.062
   0.702   0.797   0.586   0.645   0.784   0.918   0.604   1.003   0.837   1.107
   1.189   1.069
   1.142   1.629   1.610   1.582   1.330   1.431   0.948   1.110   0.864   0.779
   0.533   0.936   0.528   0.971   1.136   0.975   1.067   0.927   1.081   0.927
   1.067   0.975   1.136   0.971   0.528   0.936   0.533   0.779   0.864   1.110
   0.948   1.431   1.330   1.582   1.610   1.629   1.142   1.629   1.610   1.582
   1.330   1.431   0.948   1.110   0.864   0.779   0.533   0.936   0.528   0.971
   1.136   0.975   1.067   0.927   1.081   0.927   1.067   0.975   1.136   0.971
   0.528   0.936   0.533   0.779   0.864   1.110   0.948   1.431   1.330   1.582
   1.610   1.629
   1.995   2.312   1.703   1.899   1.759   1.829   1.316   1.419   1.146   0.990
   0.980   0.841   0.840   0.728   1.050   0.849   0.782   0.737   0.748   0.737
   0.782   0.849   1.050   0.728   0.840   0.841   0.980   0.990   1.146   1.419
   1.316   1.829   1.759   1.899   1.703   2.312   1.995   2.312   1.703   1.899
   1.759   1.829   1.316   1.419   1.146   0.990   0.980   0.841   0.840   0.728
   1.050   0.849   0.782   0.737   0.748   0.737   0.782   0.849   1.050   0.728
   0.840   0.841   0.980   0.990   1.146   1.419   1.316   1.829   1.759   1.899
   1.703   2.312
   2.593   2.149   1.820   1.822   1.820   1.524   1.305   1.542   1.292   1.083
   1.161   0.784   0.911   0.672   0.750   0.792   0.655   0.842   0.504   0.842
   0.655   0.792   0.750   0.672   0.911   0.784   1.161   1.083   1.292   1.542
   1.305   1.524   1.820   1.822   1.820   2.149   2.593   2.149   1.820   1.822
   1.820   1.524   1.305   1.542   1.292   1.083   1.161   0.784   0.911   0.672
   0.750   0.792   0.655   0.842   0.504   0.842   0.655   0.792   0.750   0.672
   0.911   0.784   1.161   1.083   1.292   1.542   1.305   1.524   1.820   1.822
   1.820   2.149
   1.681   1.234   1.404   1.419   1.441   0.975   1.246   1.318   1.157   0.987
   0.927   1.052   0.669   0.720   0.302   0.743   0.735   0.733   0.778   0.733
   0.735   0.743   0.302   0.720   0.669   1.052   0.927   0.987   1.157   1.318
   1.246   0.975   1.441   1.419   1.404   1.234   1.681   1.234   1.404   1.419
   1.441   0.975   1.246   1.318   1.157   0.987   0.927   1.052   0.669   0.720
   0.302   0.743   0.735   0.733   0.778   0.733   0.735   0.743   0.302   0.720
   0.669   1.052   0.927   0.987   1.157   1.318   1.246   0.975   1.441   1.419
   1.404   1.234
   0.632   0.666   0.873   0.679   0.817   0.962   1.290   0.925   1.237   1.172
   0.916   0.880   0.956   0.737   0.433   0.632   0.946   0.617   0.873   0.617
   0.946   0.632   0.433   0.737   0.956   0.880   0.916   1.172   1.237   0.925
   1.290   0.962   0.817   0.679   0.873   0.666   0.632   0.666   0.873   0.679
   0.817   0.962   1.290   0.925   1.237   1.172   0.916   0.880   0.956   0.737
   0.433   0.632   0.946   0.617   0.873   0.617   0.946   0.632   0.433   0.737
   0.956   0.880   0.916   1.172   1.237   0.925   1.290   0.962   0.817   0.679
   0.873   0.666
 200       5.00   72    0 5.00   15    0
   1.404   1.404   1.404   1.404   1.404   1.404   1.404   1.404   1.404   1.404
   1.404   1.404   1.404   1.404   1.404   1.404   1.404   1.404   1.404   1.404
   1.404   1.404   1.404   1.404   1.404   1.404   1.404   1.404   1.404   1.404
   1.404   1.404   1.404   1.404   1.404   1.404   1.404   1.404   1.404   1.404
   1.404   1.404   1.404   1.404   1.404   1.404   1.404   1.404   1.404   1.404
   1.404   1.404   1.404   1.404   1.404   1.404   1.404   1.404   1.404   1.404
   1.404   1.404   1.404   1.404   1.404   1.404   1.404   1.404   1.404   1.404
   1.404   1.404
   1.541   1.745   1.833   1.782   1.502   1.534   1.411   1.297   1.390   1.249
   1.475   2.223   1.529   1.644   1.408   1.870   1.484   1.561   1.548   1.561
   1.484   1.870   1.408   1.644   1.529   2.223   1.475   1.249   1.390   1.297
   1.411   1.534   1.502   1.782   1.833   1.745   1.541   1.745   1.833   1.782
   1.502   1.534   1.411   1.297   1.390   1.249   1.475   2.223   1.529   1.644
   1.408   1.870   1.484   1.561   1.548   1.561   1.484   1.870   1.408   1.644
   1.529   2.223   1.475   1.249   1.390   1.297   1.411   1.534   1.502   1.782
   1.833   1.745
   1.312   1.768   1.838   1.648   1.522   1.479   1.367   1.509   1.316   1.366
   1.575   2.157   1.211   1.404   1.660   1.827   1.496   1.182   1.773   1.182
   1.496   1.827   1.660   1.404   1.211   2.157   1.575   1.366   1.316   1.509
   1.367   1.479   1.522   1.648   1.838   1.768   1.312   1.768   1.838   1.648
   1.522   1.479   1.367   1.509   1.316   1.366   1.575   2.157   1.211   1.404
   1.660   1.827   1.496   1.182   1.773   1.182   1.496   1.827   1.660   1.404
   1.211   2.157   1.575   1.366   1.316   1.509   1.367   1.479   1.522   1.648
   1.838   1.768
   1.455   1.776   1.976   1.786   1.841   1.485   1.431   1.544   1.312   1.352
   1.281   1.307   1.381   1.484   1.362   1.236   1.182   1.075   1.474   1.075
   1.182   1.236   1.362   1.484   1.381   1.307   1.281   1.352   1.312   1.544
   1.431   1.485   1.841   1.786   1.976   1.776   1.455   1.776   1.976   1.786
   1.841   1.485   1.431   1.544   1.312   1.352   1.281   1.307   1.381   1.484
   1.362   1.236   1.182   1.075   1.474   1.075   1.182   1.236   1.362   1.484
   1.381   1.307   1.281   1.352   1.312   1.544   1.431   1.485   1.841   1.786
   1.976   1.776
   2.128   2.300   2.310   1.919   2.068   1.747   1.490   1.510   1.583   1.180
   1.033   1.158   1.096   1.328   0.865   0.859   1.077   1.285   1.000   1.285
   1.077   0.859   0.865   1.328   1.096   1.158   1.033   1.180   1.583   1.510
   1.490   1.747   2.068   1.919   2.310   2.300   2.128   2.300   2.310   1.919
   2.068   1.747   1.490   1.510   1.583   1.180   1.033   1.158   1.096   1.328
   0.865   0.859   1.077   1.285   1.000   1.285   1.077   0.859   0.865   1.328
   1.096   1.158   1.033   1.180   1.583   1.510   1.490   1.747   2.068   1.919
   2.310   2.300
   2.392   2.685   2.525   2.111   1.864   2.245   1.515   1.489   1.479   0.924
   1.044   1.210   1.130   0.909   0.622   0.938   0.918   1.179   1.150   1.179
   0.918   0.938   0.622   0.909   1.130   1.210   1.044   0.924   1.479   1.489
   1.515   2.245   1.864   2.111   2.525   2.685   2.392   2.685   2.525   2.111
   1.864   2.245   1.515   1.489   1.479   0.924   1.044   1.210   1.130   0.909
   0.622   0.938   0.918   1.179   1.150   1.179   0.918   0.938   0.622   0.909
   1.130   1.210   1.044   0.924   1.479   1.489   1.515   2.245   1.864   2.111
   2.525   2.685
   2.125   1.932   1.995   1.686   1.660   1.701   1.303   1.474   1.165   0.834
   1.277   0.879   1.004   0.800   0.715   0.833   0.752   0.940   1.556   0.940
   0.752   0.833   0.715   0.800   1.004   0.879   1.277   0.834   1.165   1.474
   1.303   1.701   1.660   1.686   1.995   1.932   2.125   1.932   1.995   1.686
   1.660   1.701   1.303   1.474   1.165   0.834   1.277   0.879   1.004   0.800
   0.715   0.833   0.752   0.940   1.556   0.940   0.752   0.833   0.715   0.800
   1.004   0.879   1.277   0.834   1.165   1.474   1.303   1.701   1.660   1.686
   1.995   1.932
   1.301   1.149   1.388   1.126   1.146   0.824   1.199   0.951   0.925   0.888
   1.079   0.698   0.780   0.805   0.939   0.734   0.904   0.946   1.534   0.946
   0.904   0.734   0.939   0.805   0.780   0.698   1.079   0.888   0.925   0.951
   1.199   0.824   1.146   1.126   1.388   1.149   1.301   1.149   1.388   1.126
   1.146   0.824   1.199   0.951   0.925   0.888   1.079   0.698   0.780   0.805
   0.939   0.734   0.904   0.946   1.534   0.946   0.904   0.734   0.939   0.805
   0.780   0.698   1.079   0.888   0.925   0.951   1.199   0.824   1.146   1.126
   1.388   1.149
   0.865   0.742   0.895   0.623   0.591   0.576   0.678   0.525   0.663   0.846
   0.765   0.671   0.959   0.898   0.796   0.966   1.070   1.118   1.231   1.118
   1.070   0.966   0.796   0.898   0.959   0.671   0.765   0.846   0.663   0.525
   0.678   0.576   0.591   0.623   0.895   0.742   0.865   0.742   0.895   0.623
   0.591   0.576   0.678   0.525   0.663   0.846   0.765   0.671   0.959   0.898
   0.796   0.966   1.070   1.118   1.231   1.118   1.070   0.966   0.796   0.898
   0.959   0.671   0.765   0.846   0.663   0.525   0.678   0.576   0.591   0.623
   0.895   0.742
   0.706   0.542   0.438   0.435   0.464   0.412   0.379   0.508   0.434   0.629
   0.671   0.666   0.786   0.793   0.721   0.932   1.233   1.383   1.337   1.383
   1.233   0.932   0.721   0.793   0.786   0.666   0.671   0.629   0.434   0.508
   0.379   0.412   0.464   0.435   0.438   0.542   0.706   0.542   0.438   0.435
   0.464   0.412   0.379   0.508   0.434   0.629   0.671   0.666   0.786   0.793
   0.721   0.932   1.233   1.383   1.337   1.383   1.233   0.932   0.721   0.793
   0.786   0.666   0.671   0.629   0.434   0.508   0.379   0.412   0.464   0.435
   0.438   0.542
   0.334   0.548   0.372   0.450   0.412   0.382   0.452   0.530   0.433   0.408
   0.789   0.823   0.517   0.594   0.832   0.873   1.145   1.347   1.343   1.347
   1.145   0.873   0.832   0.594   0.517   0.823   0.789   0.408   0.433   0.530
   0.452   0.382   0.412   0.450   0.372   0.548   0.334   0.548   0.372   0.450
   0.412   0.382   0.452   0.530   0.433   0.408   0.789   0.823   0.517   0.594
   0.832   0.873   1.145   1.347   1.343   1.347   1.145   0.873   0.832   0.594
   0.517   0.823   0.789   0.408   0.433   0.530   0.452   0.382   0.412   0.450
   0.372   0.548
   0.288   0.561   0.372   0.528   0.563   0.439   0.609   0.538   0.550   0.383
   0.897   0.756   0.408   0.536   0.866   0.911   1.009   1.390   1.096   1.390
   1.009   0.911   0.866   0.536   0.408   0.756   0.897   0.383   0.550   0.538
   0.609   0.439   0.563   0.528   0.372   0.561   0.288   0.561   0.372   0.528
   0.563   0.439   0.609   0.538   0.550   0.383   0.897   0.756   0.408   0.536
   0.866   0.911   1.009   1.390   1.096   1.390   1.009   0.911   0.866   0.536
   0.408   0.756   0.897   0.383   0.550   0.538   0.609   0.439   0.563   0.528
   0.372   0.561
   0.334   0.368   0.405   0.510   0.684   0.633   0.629   0.600   0.704   0.450
   0.743   0.590   0.455   0.534   0.764   0.739   0.938   1.174   1.006   1.174
   0.938   0.739   0.764   0.534   0.455   0.590   0.743   0.450   0.704   0.600
   0.629   0.633   0.684   0.510   0.405   0.368   0.334   0.368   0.405   0.510
   0.684   0.633   0.629   0.600   0.704   0.450   0.743   0.590   0.455   0.534
   0.764   0.739   0.938   1.174   1.006   1.174   0.938   0.739   0.764   0.534
   0.455   0.590   0.743   0.450   0.704   0.600   0.629   0.633   0.684   0.510
   0.405   0.368
   0.563   0.556   0.436   0.477   0.525   0.681   0.623   0.393   0.658   0.487
   0.669   0.627   0.603   0.697   0.539   0.667   0.634   0.914   0.992   0.914
   0.634   0.667   0.539   0.697   0.603   0.627   0.669   0.487   0.658   0.393
   0.623   0.681   0.525   0.477   0.436   0.556   0.563   0.556   0.436   0.477
   0.525   0.681   0.623   0.393   0.658   0.487   0.669   0.627   0.603   0.697
   0.539   0.667   0.634   0.914   0.992   0.914   0.634   0.667   0.539   0.697
   0.603   0.627   0.669   0.487   0.658   0.393   0.623   0.681   0.525   0.477
   0.436   0.556
   0.802   0.755   0.679   0.549   0.588   0.770   0.547   0.239   0.754   0.490
   0.695   0.866   0.807   1.089   0.927   0.737   0.835   0.932   0.862   0.932
   0.835   0.737   0.927   1.089   0.807   0.866   0.695   0.490   0.754   0.239
   0.547   0.770   0.588   0.549   0.679   0.755   0.802   0.755   0.679   0.549
   0.588   0.770   0.547   0.239   0.754   0.490   0.695   0.866   0.807   1.089
   0.927   0.737   0.835   0.932   0.862   0.932   0.835   0.737   0.927   1.089
   0.807   0.866   0.695   0.490   0.754   0.239   0.547   0.770   0.588   0.549
   0.679   0.755
 111       5.00   72    0 5.00   15    0
   0.208   0.208   0.208   0.208   0.208   0.208   0.208   0.208   0.208   0.208
   0.208   0.208   0.208   0.208   0.208   0.208   0.208   0.208   0.208   0.208
   0.208   0.208   0.208   0.208   0.208   0.208   0.208   0.208   0.208   0.208
   0.208   0.208   0.208   0.208   0.208   0.208   0.208   0.208   0.208   0.208
   0.208   0.208   0.208   0.208   0.208   0.208   0.208   0.208   0.208   0.208
   0.208   0.208   0.208   0.208   0.208   0.208   0.208   0.208   0.208   0.208
   0.208   0.208   0.208   0.208   0.208   0.208   0.208   0.208   0.208   0.208
   0.208   0.208
   0.154   0.249   0.374   0.271   0.318   0.350   0.299   0.198   0.177   0.138
   0.382   0.276   0.308   0.186   0.266   0.205   0.173   0.188   0.135   0.188
   0.173   0.205   0.266   0.186   0.308   0.276   0.382   0.138   0.177   0.198
   0.299   0.350   0.318   0.271   0.374   0.249   0.154   0.249   0.374   0.271
   0.318   0.350   0.299   0.198   0.177   0.138   0.382   0.276   0.308   0.186
   0.266   0.205   0.173   0.188   0.135   0.188   0.173   0.205   0.266   0.186
   0.308   0.276   0.382   0.138   0.177   0.198   0.299   0.350   0.318   0.271
   0.374   0.249
   0.307   0.692   0.446   0.424   0.457   0.490   0.350   0.367   0.233   0.486
   0.523   0.359   0.330   0.236   0.333   0.302   0.188   0.235   0.196   0.235
   0.188   0.302   0.333   0.236   0.330   0.359   0.523   0.486   0.233   0.367
   0.350   0.490   0.457   0.424   0.446   0.692   0.307   0.692   0.446   0.424
   0.457   0.490   0.350   0.367   0.233   0.486   0.523   0.359   0.330   0.236
   0.333   0.302   0.188   0.235   0.196   0.235   0.188   0.302   0.333   0.236
   0.330   0.359   0.523   0.486   0.233   0.367   0.350   0.490   0.457   0.424
   0.446   0.692
   0.869   1.008   0.842   0.816   0.917   1.031   0.720   0.627   0.595   0.776
   0.480   0.421   0.384   0.428   0.318   0.395   0.217   0.311   0.302   0.311
   0.217   0.395   0.318   0.428   0.384   0.421   0.480   0.776   0.595   0.627
   0.720   1.031   0.917   0.816   0.842   1.008   0.869   1.008   0.842   0.816
   0.917   1.031   0.720   0.627   0.595   0.776   0.480   0.421   0.384   0.428
   0.318   0.395   0.217   0.311   0.302   0.311   0.217   0.395   0.318   0.428
   0.384   0.421   0.480   0.776   0.595   0.627   0.720   1.031   0.917   0.816
   0.842   1.008
   1.822   1.718   1.777   1.619   1.672   1.649   1.187   1.093   1.008   0.717
   0.671   0.626   0.331   0.543   0.451   0.451   0.478   0.495   0.275   0.495
   0.478   0.451   0.451   0.543   0.331   0.626   0.671   0.717   1.008   1.093
   1.187   1.649   1.672   1.619   1.777   1.718   1.822   1.718   1.777   1.619
   1.672   1.649   1.187   1.093   1.008   0.717   0.671   0.626   0.331   0.543
   0.451   0.451   0.478   0.495   0.275   0.495   0.478   0.451   0.451   0.543
   0.331   0.626   0.671   0.717   1.008   1.093   1.187   1.649   1.672   1.619
   1.777   1.718
   3.104   2.822   2.783   2.449   2.444   2.141   1.710   1.593   1.161   0.825
   0.952   0.886   0.582   0.539   0.411   0.576   0.583   0.471   0.340   0.471
   0.583   0.576   0.411   0.539   0.582   0.886   0.952   0.825   1.161   1.593
   1.710   2.141   2.444   2.449   2.783   2.822   3.104   2.822   2.783   2.449
   2.444   2.141   1.710   1.593   1.161   0.825   0.952   0.886   0.582   0.539
   0.411   0.576   0.583   0.471   0.340   0.471   0.583   0.576   0.411   0.539
   0.582   0.886   0.952   0.825   1.161   1.593   1.710   2.141   2.444   2.449
   2.783   2.822
   3.559   3.160   3.269   2.870   2.970   2.285   1.933   1.741   1.437   1.003
   1.022   0.976   0.815   0.630   0.304   0.534   0.433   0.328   0.389   0.328
   0.433   0.534   0.304   0.630   0.815   0.976   1.022   1.003   1.437   1.741
   1.933   2.285   2.970   2.870   3.269   3.160   3.559   3.160   3.269   2.870
   2.970   2.285   1.933   1.741   1.437   1.003   1.022   0.976   0.815   0.630
   0.304   0.534   0.433   0.328   0.389   0.328   0.433   0.534   0.304   0.630
   0.815   0.976   1.022   1.003   1.437   1.741   1.933   2.285   2.970   2.870
   3.269   3.160
   2.551   2.553   2.439   2.693   2.604   2.212   1.900   1.809   1.849   1.515
   1.101   1.050   0.940   0.790   0.631   0.678   0.459   0.423   0.590   0.423
   0.459   0.678   0.631   0.790   0.940   1.050   1.101   1.515   1.849   1.809
   1.900   2.212   2.604   2.693   2.439   2.553   2.551   2.553   2.439   2.693
   2.604   2.212   1.900   1.809   1.849   1.515   1.101   1.050   0.940   0.790
   0.631   0.678   0.459   0.423   0.590   0.423   0.459   0.678   0.631   0.790
   0.940   1.050   1.101   1.515   1.849   1.809   1.900   2.212   2.604   2.693
   2.439   2.553
   1.127   1.372   1.065   1.756   1.757   1.718   1.835   1.857   1.791   2.023
   1.453   1.442   1.170   1.043   0.893   0.876   0.694   0.646   0.887   0.646
   0.694   0.876   0.893   1.043   1.170   1.442   1.453   2.023   1.791   1.857
   1.835   1.718   1.757   1.756   1.065   1.372   1.127   1.372   1.065   1.756
   1.757   1.718   1.835   1.857   1.791   2.023   1.453   1.442   1.170   1.043
   0.893   0.876   0.694   0.646   0.887   0.646   0.694   0.876   0.893   1.043
   1.170   1.442   1.453   2.023   1.791   1.857   1.835   1.718   1.757   1.756
   1.065   1.372
   0.407   0.575   0.410   0.731   1.023   1.107   1.498   1.543   1.545   1.840
   1.817   1.603   1.140   1.055   0.785   0.942   0.901   0.939   0.906   0.939
   0.901   0.942   0.785   1.055   1.140   1.603   1.817   1.840   1.545   1.543
   1.498   1.107   1.023   0.731   0.410   0.575   0.407   0.575   0.410   0.731
   1.023   1.107   1.498   1.543   1.545   1.840   1.817   1.603   1.140   1.055
   0.785   0.942   0.901   0.939   0.906   0.939   0.901   0.942   0.785   1.055
   1.140   1.603   1.817   1.840   1.545   1.543   1.498   1.107   1.023   0.731
   0.410   0.575
   0.443   0.381   0.247   0.460   0.643   0.822   0.987   1.118   1.439   1.482
   1.715   1.462   1.370   1.196   1.074   1.230   0.902   1.080   0.850   1.080
   0.902   1.230   1.074   1.196   1.370   1.462   1.715   1.482   1.439   1.118
   0.987   0.822   0.643   0.460   0.247   0.381   0.443   0.381   0.247   0.460
   0.643   0.822   0.987   1.118   1.439   1.482   1.715   1.462   1.370   1.196
   1.074   1.230   0.902   1.080   0.850   1.080   0.902   1.230   1.074   1.196
   1.370   1.462   1.715   1.482   1.439   1.118   0.987   0.822   0.643   0.460
   0.247   0.381
   0.346   0.465   0.276   0.404   0.518   0.533   0.515   0.973   1.070   1.214
   1.494   1.657   1.583   1.394   1.147   1.138   1.003   0.925   0.920   0.925
   1.003   1.138   1.147   1.394   1.583   1.657   1.494   1.214   1.070   0.973
   0.515   0.533   0.518   0.404   0.276   0.465   0.346   0.465   0.276   0.404
   0.518   0.533   0.515   0.973   1.070   1.214   1.494   1.657   1.583   1.394
   1.147   1.138   1.003   0.925   0.920   0.925   1.003   1.138   1.147   1.394
   1.583   1.657   1.494   1.214   1.070   0.973   0.515   0.533   0.518   0.404
   0.276   0.465
   0.319   0.431   0.203   0.313   0.421   0.414   0.548   0.986   0.936   1.106
   1.329   1.504   1.215   1.181   0.979   1.017   1.092   0.812   1.123   0.812
   1.092   1.017   0.979   1.181   1.215   1.504   1.329   1.106   0.936   0.986
   0.548   0.414   0.421   0.313   0.203   0.431   0.319   0.431   0.203   0.313
   0.421   0.414   0.548   0.986   0.936   1.106   1.329   1.504   1.215   1.181
   0.979   1.017   1.092   0.812   1.123   0.812   1.092   1.017   0.979   1.181
   1.215   1.504   1.329   1.106   0.936   0.986   0.548   0.414   0.421   0.313
   0.203   0.431
   0.233   0.296   0.289   0.361   0.417   0.491   0.725   1.043   1.055   1.088
   0.993   1.104   1.061   1.075   0.990   1.027   0.829   0.863   0.943   0.863
   0.829   1.027   0.990   1.075   1.061   1.104   0.993   1.088   1.055   1.043
   0.725   0.491   0.417   0.361   0.289   0.296   0.233   0.296   0.289   0.361
   0.417   0.491   0.725   1.043   1.055   1.088   0.993   1.104   1.061   1.075
   0.990   1.027   0.829   0.863   0.943   0.863   0.829   1.027   0.990   1.075
   1.061   1.104   0.993   1.088   1.055   1.043   0.725   0.491   0.417   0.361
   0.289   0.296
   0.440   0.490   0.431   0.637   0.569   0.652   0.734   1.040   0.933   1.136
   1.008   0.984   1.063   1.063   1.120   0.941   0.676   0.805   0.773   0.805
   0.676   0.941   1.120   1.063   1.063   0.984   1.008   1.136   0.933   1.040
   0.734   0.652   0.569   0.637   0.431   0.490   0.440   0.490   0.431   0.637
   0.569   0.652   0.734   1.040   0.933   1.136   1.008   0.984   1.063   1.063
   1.120   0.941   0.676   0.805   0.773   0.805   0.676   0.941   1.120   1.063
   1.063   0.984   1.008   1.136   0.933   1.040   0.734   0.652   0.569   0.637
   0.431   0.490
  4  1      9.5929034E-01
  4  2     -3.2992382E-01
  4  3      7.2998644E-01
  6  1      1.3080019E+00
  6  2     -2.0863782E+00
  6  3      7.1213618E-01
  6  4     -1.7728441E-01
  8  1      2.0958120E-01
  8  2      1.2232222E-01
  8  3      7.2918573E-01
  8  4     -2.2718592E-01
  8  5      3.2778296E-01
 10  1      2.6265576E-01
 10  2     -4.5318636E-01
 10  3      5.5126271E-01
 10  4     -1.0974738E-01
 10  5      1.4289482E-01
 10  6      7.8384514E-02
 12  1      3.2630026E-03  7.2516864E-01
 12  2     -2.8808181E-01 -1.1688175E+00
 12  3      2.8561239E-01  7.3098304E-01
 12  4      2.1450815E-01 -3.0373488E-01
 12  5      3.6464128E-01  1.3426479E-01
 12  6     -1.4644142E-01 -3.3869438E-02
 12  7      1.4841848E-01  1.1492434E-01
 14  1     -1.0288692E-01
 14  2     -1.6532728E-01
 14  3      1.4185470E-01
 14  4     -8.7281894E-02
 14  5      1.1693339E-01
 14  6      1.9791239E-01
 14  7     -1.7168246E-02
 14  8      1.5146543E-01
 16  1     -1.6417138E-01  2.7704558E-02
 16  2     -2.2154631E-01 -1.9813257E-01
 16  3      1.2560011E-01  3.3406736E-01
 16  4      1.0654117E-02 -1.7510875E-01
 16  5      1.7324511E-01  8.9734630E-02
 16  6     -2.3629859E-02  1.0020389E-02
 16  7     -6.1215877E-02  3.9495416E-03
 16  8      1.2218696E-01 -2.0190386E-03
 16  9      1.8030871E-01  3.2104183E-02
 220       5.00   72    0 5.00   18    0
   1.859   1.860   1.862   1.866   1.871   1.878   1.885   1.893   1.901   1.910
   1.919   1.928   1.936   1.944   1.950   1.955   1.959   1.961   1.962   1.961
   1.959   1.955   1.950   1.944   1.936   1.928   1.919   1.910   1.901   1.893
   1.885   1.878   1.871   1.866   1.862   1.860   1.859   1.860   1.862   1.866
   1.871   1.878   1.885   1.893   1.901   1.910   1.919   1.928   1.936   1.944
   1.950   1.955   1.959   1.961   1.962   1.961   1.959   1.955   1.950   1.944
   1.936   1.928   1.919   1.910   1.901   1.893   1.885   1.878   1.871   1.866
   1.862   1.860
   1.289   1.294   1.309   1.334   1.368   1.411   1.462   1.519   1.582   1.648
   1.716   1.783   1.848   1.907   1.959   2.003   2.035   2.054   2.061   2.054
   2.035   2.003   1.959   1.907   1.848   1.783   1.716   1.648   1.582   1.519
   1.462   1.411   1.368   1.334   1.309   1.294   1.289   1.294   1.309   1.334
   1.368   1.411   1.462   1.519   1.582   1.648   1.716   1.783   1.848   1.907
   1.959   2.003   2.035   2.054   2.061   2.054   2.035   2.003   1.959   1.907
   1.848   1.783   1.716   1.648   1.582   1.519   1.462   1.411   1.368   1.334
   1.309   1.294
   0.605   0.612   0.633   0.668   0.718   0.784   0.865   0.962   1.073   1.197
   1.330   1.469   1.607   1.740   1.860   1.962   2.040   2.088   2.105   2.088
   2.040   1.962   1.860   1.740   1.607   1.469   1.330   1.197   1.073   0.962
   0.865   0.784   0.718   0.668   0.633   0.612   0.605   0.612   0.633   0.668
   0.718   0.784   0.865   0.962   1.073   1.197   1.330   1.469   1.607   1.740
   1.860   1.962   2.040   2.088   2.105   2.088   2.040   1.962   1.860   1.740
   1.607   1.469   1.330   1.197   1.073   0.962   0.865   0.784   0.718   0.668
   0.633   0.612
   0.258   0.261   0.269   0.286   0.313   0.355   0.415   0.496   0.601   0.731
   0.883   1.056   1.241   1.430   1.610   1.768   1.893   1.972   1.999   1.972
   1.893   1.768   1.610   1.430   1.241   1.056   0.883   0.731   0.601   0.496
   0.415   0.355   0.313   0.286   0.269   0.261   0.258   0.261   0.269   0.286
   0.313   0.355   0.415   0.496   0.601   0.731   0.883   1.056   1.241   1.430
   1.610   1.768   1.893   1.972   1.999   1.972   1.893   1.768   1.610   1.430
   1.241   1.056   0.883   0.731   0.601   0.496   0.415   0.355   0.313   0.286
   0.269   0.261
   0.297   0.294   0.286   0.275   0.267   0.266   0.278   0.309   0.365   0.451
   0.572   0.727   0.913   1.121   1.334   1.533   1.696   1.803   1.840   1.803
   1.696   1.533   1.334   1.121   0.913   0.727   0.572   0.451   0.365   0.309
   0.278   0.266   0.267   0.275   0.286   0.294   0.297   0.294   0.286   0.275
   0.267   0.266   0.278   0.309   0.365   0.451   0.572   0.727   0.913   1.121
   1.334   1.533   1.696   1.803   1.840   1.803   1.696   1.533   1.334   1.121
   0.913   0.727   0.572   0.451   0.365   0.309   0.278   0.266   0.267   0.275
   0.286   0.294
   0.447   0.443   0.432   0.416   0.400   0.386   0.377   0.377   0.392   0.428
   0.497   0.607   0.764   0.961   1.184   1.406   1.597   1.725   1.771   1.725
   1.597   1.406   1.184   0.961   0.764   0.607   0.497   0.428   0.392   0.377
   0.377   0.386   0.400   0.416   0.432   0.443   0.447   0.443   0.432   0.416
   0.400   0.386   0.377   0.377   0.392   0.428   0.497   0.607   0.764   0.961
   1.184   1.406   1.597   1.725   1.771   1.725   1.597   1.406   1.184   0.961
   0.764   0.607   0.497   0.428   0.392   0.377   0.377   0.386   0.400   0.416
   0.432   0.443
   0.488   0.487   0.487   0.488   0.494   0.504   0.513   0.519   0.524   0.535
   0.567   0.639   0.763   0.943   1.162   1.392   1.596   1.736   1.786   1.736
   1.596   1.392   1.162   0.943   0.763   0.639   0.567   0.535   0.524   0.519
   0.513   0.504   0.494   0.488   0.487   0.487   0.488   0.487   0.487   0.488
   0.494   0.504   0.513   0.519   0.524   0.535   0.567   0.639   0.763   0.943
   1.162   1.392   1.596   1.736   1.786   1.736   1.596   1.392   1.162   0.943
   0.763   0.639   0.567   0.535   0.524   0.519   0.513   0.504   0.494   0.488
   0.487   0.487
   0.481   0.482   0.488   0.502   0.524   0.552   0.578   0.596   0.602   0.606
   0.624   0.678   0.787   0.953   1.160   1.377   1.567   1.695   1.740   1.695
   1.567   1.377   1.160   0.953   0.787   0.678   0.624   0.606   0.602   0.596
   0.578   0.552   0.524   0.502   0.488   0.482   0.481   0.482   0.488   0.502
   0.524   0.552   0.578   0.596   0.602   0.606   0.624   0.678   0.787   0.953
   1.160   1.377   1.567   1.695   1.740   1.695   1.567   1.377   1.160   0.953
   0.787   0.678   0.624   0.606   0.602   0.596   0.578   0.552   0.524   0.502
   0.488   0.482
   0.656   0.654   0.648   0.645   0.647   0.653   0.655   0.648   0.634   0.622
   0.630   0.681   0.785   0.939   1.118   1.289   1.424   1.508   1.536   1.508
   1.424   1.289   1.118   0.939   0.785   0.681   0.630   0.622   0.634   0.648
   0.655   0.653   0.647   0.645   0.648   0.654   0.656   0.654   0.648   0.645
   0.647   0.653   0.655   0.648   0.634   0.622   0.630   0.681   0.785   0.939
   1.118   1.289   1.424   1.508   1.536   1.508   1.424   1.289   1.118   0.939
   0.785   0.681   0.630   0.622   0.634   0.648   0.655   0.653   0.647   0.645
   0.648   0.654
   1.143   1.130   1.095   1.049   0.998   0.944   0.882   0.816   0.750   0.700
   0.683   0.714   0.800   0.926   1.057   1.157   1.210   1.225   1.227   1.225
   1.210   1.157   1.057   0.926   0.800   0.714   0.683   0.700   0.750   0.816
   0.882   0.944   0.998   1.049   1.095   1.130   1.143   1.130   1.095   1.049
   0.998   0.944   0.882   0.816   0.750   0.700   0.683   0.714   0.800   0.926
   1.057   1.157   1.210   1.225   1.227   1.225   1.210   1.157   1.057   0.926
   0.800   0.714   0.683   0.700   0.750   0.816   0.882   0.944   0.998   1.049
   1.095   1.130
   1.800   1.773   1.701   1.606   1.502   1.389   1.265   1.136   1.014   0.913
   0.844   0.822   0.852   0.920   0.991   1.023   1.005   0.965   0.945   0.965
   1.005   1.023   0.991   0.920   0.852   0.822   0.844   0.913   1.014   1.136
   1.265   1.389   1.502   1.606   1.701   1.773   1.800   1.773   1.701   1.606
   1.502   1.389   1.265   1.136   1.014   0.913   0.844   0.822   0.852   0.920
   0.991   1.023   1.005   0.965   0.945   0.965   1.005   1.023   0.991   0.920
   0.852   0.822   0.844   0.913   1.014   1.136   1.265   1.389   1.502   1.606
   1.701   1.773
   2.267   2.228   2.131   2.013   1.894   1.767   1.623   1.469   1.319   1.179
   1.052   0.947   0.886   0.876   0.890   0.888   0.850   0.798   0.774   0.798
   0.850   0.888   0.890   0.876   0.886   0.947   1.052   1.179   1.319   1.469
   1.623   1.767   1.894   2.013   2.131   2.228   2.267   2.228   2.131   2.013
   1.894   1.767   1.623   1.469   1.319   1.179   1.052   0.947   0.886   0.876
   0.890   0.888   0.850   0.798   0.774   0.798   0.850   0.888   0.890   0.876
   0.886   0.947   1.052   1.179   1.319   1.469   1.623   1.767   1.894   2.013
   2.131   2.228
   2.206   2.166   2.075   1.988   1.922   1.851   1.750   1.627   1.498   1.361
   1.199   1.021   0.871   0.786   0.763   0.764   0.757   0.738   0.727   0.738
   0.757   0.764   0.763   0.786   0.871   1.021   1.199   1.361   1.498   1.627
   1.750   1.851   1.922   1.988   2.075   2.166   2.206   2.166   2.075   1.988
   1.922   1.851   1.750   1.627   1.498   1.361   1.199   1.021   0.871   0.786
   0.763   0.764   0.757   0.738   0.727   0.738   0.757   0.764   0.763   0.786
   0.871   1.021   1.199   1.361   1.498   1.627   1.750   1.851   1.922   1.988
   2.075   2.166
   1.592   1.563   1.515   1.511   1.556   1.595   1.586   1.539   1.480   1.395
   1.251   1.053   0.859   0.734   0.694   0.712   0.748   0.777   0.788   0.777
   0.748   0.712   0.694   0.734   0.859   1.053   1.251   1.395   1.480   1.539
   1.586   1.595   1.556   1.511   1.515   1.563   1.592   1.563   1.515   1.511
   1.556   1.595   1.586   1.539   1.480   1.395   1.251   1.053   0.859   0.734
   0.694   0.712   0.748   0.777   0.788   0.777   0.748   0.712   0.694   0.734
   0.859   1.053   1.251   1.395   1.480   1.539   1.586   1.595   1.556   1.511
   1.515   1.563
   0.794   0.779   0.779   0.862   1.017   1.163   1.246   1.288   1.321   1.321
   1.239   1.079   0.907   0.791   0.753   0.776   0.833   0.892   0.917   0.892
   0.833   0.776   0.753   0.791   0.907   1.079   1.239   1.321   1.321   1.288
   1.246   1.163   1.017   0.862   0.779   0.779   0.794   0.779   0.779   0.862
   1.017   1.163   1.246   1.288   1.321   1.321   1.239   1.079   0.907   0.791
   0.753   0.776   0.833   0.892   0.917   0.892   0.833   0.776   0.753   0.791
   0.907   1.079   1.239   1.321   1.321   1.288   1.246   1.163   1.017   0.862
   0.779   0.779
   0.293   0.279   0.289   0.398   0.590   0.776   0.905   1.009   1.120   1.199
   1.187   1.094   0.987   0.920   0.898   0.911   0.960   1.023   1.052   1.023
   0.960   0.911   0.898   0.920   0.987   1.094   1.187   1.199   1.120   1.009
   0.905   0.776   0.590   0.398   0.289   0.279   0.293   0.279   0.289   0.398
   0.590   0.776   0.905   1.009   1.120   1.199   1.187   1.094   0.987   0.920
   0.898   0.911   0.960   1.023   1.052   1.023   0.960   0.911   0.898   0.920
   0.987   1.094   1.187   1.199   1.120   1.009   0.905   0.776   0.590   0.398
   0.289   0.279
   0.257   0.228   0.200   0.260   0.404   0.553   0.670   0.797   0.952   1.078
   1.111   1.074   1.036   1.029   1.028   1.030   1.058   1.111   1.140   1.111
   1.058   1.030   1.028   1.029   1.036   1.074   1.111   1.078   0.952   0.797
   0.670   0.553   0.404   0.260   0.200   0.228   0.257   0.228   0.200   0.260
   0.404   0.553   0.670   0.797   0.952   1.078   1.111   1.074   1.036   1.029
   1.028   1.030   1.058   1.111   1.140   1.111   1.058   1.030   1.028   1.029
   1.036   1.074   1.111   1.078   0.952   0.797   0.670   0.553   0.404   0.260
   0.200   0.228
   0.417   0.371   0.297   0.297   0.378   0.473   0.562   0.687   0.858   1.000
   1.050   1.039   1.043   1.075   1.091   1.086   1.100   1.146   1.173   1.146
   1.100   1.086   1.091   1.075   1.043   1.039   1.050   1.000   0.858   0.687
   0.562   0.473   0.378   0.297   0.297   0.371   0.417   0.371   0.297   0.297
   0.378   0.473   0.562   0.687   0.858   1.000   1.050   1.039   1.043   1.075
   1.091   1.086   1.100   1.146   1.173   1.146   1.100   1.086   1.091   1.075
   1.043   1.039   1.050   1.000   0.858   0.687   0.562   0.473   0.378   0.297
   0.297   0.371
 200       5.00   72    0 5.00   18    0
   1.416   1.417   1.418   1.419   1.421   1.423   1.425   1.428   1.431   1.434
   1.437   1.441   1.444   1.446   1.449   1.450   1.452   1.453   1.453   1.453
   1.452   1.450   1.449   1.446   1.444   1.441   1.437   1.434   1.431   1.428
   1.425   1.423   1.421   1.419   1.418   1.417   1.416   1.417   1.418   1.419
   1.421   1.423   1.425   1.428   1.431   1.434   1.437   1.441   1.444   1.446
   1.449   1.450   1.452   1.453   1.453   1.453   1.452   1.450   1.449   1.446
   1.444   1.441   1.437   1.434   1.431   1.428   1.425   1.423   1.421   1.419
   1.418   1.417
   1.320   1.321   1.323   1.326   1.332   1.339   1.348   1.361   1.375   1.392
   1.411   1.431   1.452   1.472   1.490   1.506   1.518   1.525   1.528   1.525
   1.518   1.506   1.490   1.472   1.452   1.431   1.411   1.392   1.375   1.361
   1.348   1.339   1.332   1.326   1.323   1.321   1.320   1.321   1.323   1.326
   1.332   1.339   1.348   1.361   1.375   1.392   1.411   1.431   1.452   1.472
   1.490   1.506   1.518   1.525   1.528   1.525   1.518   1.506   1.490   1.472
   1.452   1.431   1.411   1.392   1.375   1.361   1.348   1.339   1.332   1.326
   1.323   1.321
   1.377   1.372   1.360   1.341   1.318   1.295   1.275   1.260   1.255   1.259
   1.273   1.297   1.329   1.365   1.402   1.436   1.464   1.482   1.488   1.482
   1.464   1.436   1.402   1.365   1.329   1.297   1.273   1.259   1.255   1.260
   1.275   1.295   1.318   1.341   1.360   1.372   1.377   1.372   1.360   1.341
   1.318   1.295   1.275   1.260   1.255   1.259   1.273   1.297   1.329   1.365
   1.402   1.436   1.464   1.482   1.488   1.482   1.464   1.436   1.402   1.365
   1.329   1.297   1.273   1.259   1.255   1.260   1.275   1.295   1.318   1.341
   1.360   1.372
   1.691   1.675   1.630   1.560   1.474   1.379   1.286   1.200   1.130   1.080
   1.051   1.045   1.059   1.089   1.129   1.172   1.210   1.236   1.245   1.236
   1.210   1.172   1.129   1.089   1.059   1.045   1.051   1.080   1.130   1.200
   1.286   1.379   1.474   1.560   1.630   1.675   1.691   1.675   1.630   1.560
   1.474   1.379   1.286   1.200   1.130   1.080   1.051   1.045   1.059   1.089
   1.129   1.172   1.210   1.236   1.245   1.236   1.210   1.172   1.129   1.089
   1.059   1.045   1.051   1.080   1.130   1.200   1.286   1.379   1.474   1.560
   1.630   1.675
   2.029   2.003   1.926   1.811   1.669   1.516   1.364   1.224   1.100   0.998
   0.918   0.864   0.836   0.834   0.854   0.887   0.923   0.950   0.960   0.950
   0.923   0.887   0.854   0.834   0.836   0.864   0.918   0.998   1.100   1.224
   1.364   1.516   1.669   1.811   1.926   2.003   2.029   2.003   1.926   1.811
   1.669   1.516   1.364   1.224   1.100   0.998   0.918   0.864   0.836   0.834
   0.854   0.887   0.923   0.950   0.960   0.950   0.923   0.887   0.854   0.834
   0.836   0.864   0.918   0.998   1.100   1.224   1.364   1.516   1.669   1.811
   1.926   2.003
   2.086   2.053   1.961   1.827   1.673   1.519   1.378   1.256   1.149   1.051
   0.959   0.875   0.809   0.768   0.760   0.778   0.811   0.840   0.852   0.840
   0.811   0.778   0.760   0.768   0.809   0.875   0.959   1.051   1.149   1.256
   1.378   1.519   1.673   1.827   1.961   2.053   2.086   2.053   1.961   1.827
   1.673   1.519   1.378   1.256   1.149   1.051   0.959   0.875   0.809   0.768
   0.760   0.778   0.811   0.840   0.852   0.840   0.811   0.778   0.760   0.768
   0.809   0.875   0.959   1.051   1.149   1.256   1.378   1.519   1.673   1.827
   1.961   2.053
   1.801   1.767   1.671   1.539   1.400   1.282   1.201   1.154   1.125   1.090
   1.036   0.962   0.885   0.829   0.812   0.836   0.884   0.929   0.948   0.929
   0.884   0.836   0.812   0.829   0.885   0.962   1.036   1.090   1.125   1.154
   1.201   1.282   1.400   1.539   1.671   1.767   1.801   1.767   1.671   1.539
   1.400   1.282   1.201   1.154   1.125   1.090   1.036   0.962   0.885   0.829
   0.812   0.836   0.884   0.929   0.948   0.929   0.884   0.836   0.812   0.829
   0.885   0.962   1.036   1.090   1.125   1.154   1.201   1.282   1.400   1.539
   1.671   1.767
   1.330   1.298   1.213   1.097   0.980   0.896   0.864   0.883   0.931   0.972
   0.977   0.942   0.887   0.849   0.858   0.919   1.008   1.086   1.117   1.086
   1.008   0.919   0.858   0.849   0.887   0.942   0.977   0.972   0.931   0.883
   0.864   0.896   0.980   1.097   1.213   1.298   1.330   1.298   1.213   1.097
   0.980   0.896   0.864   0.883   0.931   0.972   0.977   0.942   0.887   0.849
   0.858   0.919   1.008   1.086   1.117   1.086   1.008   0.919   0.858   0.849
   0.887   0.942   0.977   0.972   0.931   0.883   0.864   0.896   0.980   1.097
   1.213   1.298
   0.831   0.815   0.769   0.699   0.622   0.563   0.550   0.593   0.678   0.766
   0.819   0.823   0.801   0.799   0.853   0.966   1.107   1.223   1.267   1.223
   1.107   0.966   0.853   0.799   0.801   0.823   0.819   0.766   0.678   0.593
   0.550   0.563   0.622   0.699   0.769   0.815   0.831   0.815   0.769   0.699
   0.622   0.563   0.550   0.593   0.678   0.766   0.819   0.823   0.801   0.799
   0.853   0.966   1.107   1.223   1.267   1.223   1.107   0.966   0.853   0.799
   0.801   0.823   0.819   0.766   0.678   0.593   0.550   0.563   0.622   0.699
   0.769   0.815
   0.433   0.440   0.455   0.461   0.448   0.424   0.417   0.457   0.548   0.653
   0.726   0.745   0.738   0.758   0.847   1.005   1.188   1.333   1.388   1.333
   1.188   1.005   0.847   0.758   0.738   0.745   0.726   0.653   0.548   0.457
   0.417   0.424   0.448   0.461   0.455   0.440   0.433   0.440   0.455   0.461
   0.448   0.424   0.417   0.457   0.548   0.653   0.726   0.745   0.738   0.758
   0.847   1.005   1.188   1.333   1.388   1.333   1.188   1.005   0.847   0.758
   0.738   0.745   0.726   0.653   0.548   0.457   0.417   0.424   0.448   0.461
   0.455   0.440
   0.273   0.293   0.345   0.406   0.446   0.454   0.451   0.483   0.566   0.671
   0.741   0.748   0.725   0.738   0.835   1.013   1.218   1.379   1.439   1.379
   1.218   1.013   0.835   0.738   0.725   0.748   0.741   0.671   0.566   0.483
   0.451   0.454   0.446   0.406   0.345   0.293   0.273   0.293   0.345   0.406
   0.446   0.454   0.451   0.483   0.566   0.671   0.741   0.748   0.725   0.738
   0.835   1.013   1.218   1.379   1.439   1.379   1.218   1.013   0.835   0.738
   0.725   0.748   0.741   0.671   0.566   0.483   0.451   0.454   0.446   0.406
   0.345   0.293
   0.375   0.385   0.418   0.474   0.525   0.542   0.531   0.541   0.607   0.701
   0.760   0.749   0.702   0.692   0.771   0.935   1.130   1.285   1.343   1.285
   1.130   0.935   0.771   0.692   0.702   0.749   0.760   0.701   0.607   0.541
   0.531   0.542   0.525   0.474   0.418   0.385   0.375   0.385   0.418   0.474
   0.525   0.542   0.531   0.541   0.607   0.701   0.760   0.749   0.702   0.692
   0.771   0.935   1.130   1.285   1.343   1.285   1.130   0.935   0.771   0.692
   0.702   0.749   0.760   0.701   0.607   0.541   0.531   0.542   0.525   0.474
   0.418   0.385
   0.542   0.528   0.514   0.541   0.595   0.618   0.594   0.573   0.607   0.685
   0.743   0.741   0.702   0.681   0.721   0.827   0.966   1.087   1.135   1.087
   0.966   0.827   0.721   0.681   0.702   0.741   0.743   0.685   0.607   0.573
   0.594   0.618   0.595   0.541   0.514   0.528   0.542   0.528   0.514   0.541
   0.595   0.618   0.594   0.573   0.607   0.685   0.743   0.741   0.702   0.681
   0.721   0.827   0.966   1.087   1.135   1.087   0.966   0.827   0.721   0.681
   0.702   0.741   0.743   0.685   0.607   0.573   0.594   0.618   0.595   0.541
   0.514   0.528
   0.595   0.565   0.526   0.557   0.645   0.702   0.684   0.640   0.646   0.708
   0.779   0.822   0.839   0.839   0.833   0.847   0.902   0.977   1.013   0.977
   0.902   0.847   0.833   0.839   0.839   0.822   0.779   0.708   0.646   0.640
   0.684   0.702   0.645   0.557   0.526   0.565   0.595   0.565   0.526   0.557
   0.645   0.702   0.684   0.640   0.646   0.708   0.779   0.822   0.839   0.839
   0.833   0.847   0.902   0.977   1.013   0.977   0.902   0.847   0.833   0.839
   0.839   0.822   0.779   0.708   0.646   0.640   0.684   0.702   0.645   0.557
   0.526   0.565
   0.740   0.698   0.639   0.666   0.770   0.844   0.830   0.784   0.779   0.825
   0.896   0.982   1.072   1.117   1.086   1.029   1.036   1.108   1.152   1.108
   1.036   1.029   1.086   1.117   1.072   0.982   0.896   0.825   0.779   0.784
   0.830   0.844   0.770   0.666   0.639   0.698   0.740   0.698   0.639   0.666
   0.770   0.844   0.830   0.784   0.779   0.825   0.896   0.982   1.072   1.117
   1.086   1.029   1.036   1.108   1.152   1.108   1.036   1.029   1.086   1.117
   1.072   0.982   0.896   0.825   0.779   0.784   0.830   0.844   0.770   0.666
   0.639   0.698
   1.413   1.336   1.185   1.091   1.071   1.043   0.974   0.919   0.915   0.931
   0.954   1.027   1.156   1.250   1.237   1.195   1.261   1.426   1.517   1.426
   1.261   1.195   1.237   1.250   1.156   1.027   0.954   0.931   0.915   0.919
   0.974   1.043   1.071   1.091   1.185   1.336   1.413   1.336   1.185   1.091
   1.071   1.043   0.974   0.919   0.915   0.931   0.954   1.027   1.156   1.250
   1.237   1.195   1.261   1.426   1.517   1.426   1.261   1.195   1.237   1.250
   1.156   1.027   0.954   0.931   0.915   0.919   0.974   1.043   1.071   1.091
   1.185   1.336
   2.612   2.471   2.143   1.795   1.499   1.241   1.042   0.953   0.943   0.911
   0.843   0.841   0.957   1.086   1.132   1.185   1.407   1.740   1.906   1.740
   1.407   1.185   1.132   1.086   0.957   0.841   0.843   0.911   0.943   0.953
   1.042   1.241   1.499   1.795   2.143   2.471   2.612   2.471   2.143   1.795
   1.499   1.241   1.042   0.953   0.943   0.911   0.843   0.841   0.957   1.086
   1.132   1.185   1.407   1.740   1.906   1.740   1.407   1.185   1.132   1.086
   0.957   0.841   0.843   0.911   0.943   0.953   1.042   1.241   1.499   1.795
   2.143   2.471
   3.613   3.417   2.935   2.364   1.825   1.363   1.045   0.919   0.900   0.828
   0.683   0.609   0.696   0.842   0.939   1.086   1.444   1.913   2.137   1.913
   1.444   1.086   0.939   0.842   0.696   0.609   0.683   0.828   0.900   0.919
   1.045   1.363   1.825   2.364   2.935   3.417   3.613   3.417   2.935   2.364
   1.825   1.363   1.045   0.919   0.900   0.828   0.683   0.609   0.696   0.842
   0.939   1.086   1.444   1.913   2.137   1.913   1.444   1.086   0.939   0.842
   0.696   0.609   0.683   0.828   0.900   0.919   1.045   1.363   1.825   2.364
   2.935   3.417
 111       5.00   72    0 5.00   18    0
   0.213   0.213   0.213   0.212   0.212   0.212   0.212   0.212   0.212   0.212
   0.211   0.211   0.211   0.211   0.211   0.211   0.210   0.210   0.210   0.210
   0.210   0.211   0.211   0.211   0.211   0.211   0.211   0.212   0.212   0.212
   0.212   0.212   0.212   0.212   0.213   0.213   0.213   0.213   0.213   0.212
   0.212   0.212   0.212   0.212   0.212   0.212   0.211   0.211   0.211   0.211
   0.211   0.211   0.210   0.210   0.210   0.210   0.210   0.211   0.211   0.211
   0.211   0.211   0.211   0.212   0.212   0.212   0.212   0.212   0.212   0.212
   0.213   0.213
   0.150   0.151   0.151   0.151   0.151   0.151   0.151   0.150   0.148   0.146
   0.144   0.141   0.137   0.134   0.130   0.127   0.125   0.124   0.123   0.124
   0.125   0.127   0.130   0.134   0.137   0.141   0.144   0.146   0.148   0.150
   0.151   0.151   0.151   0.151   0.151   0.151   0.150   0.151   0.151   0.151
   0.151   0.151   0.151   0.150   0.148   0.146   0.144   0.141   0.137   0.134
   0.130   0.127   0.125   0.124   0.123   0.124   0.125   0.127   0.130   0.134
   0.137   0.141   0.144   0.146   0.148   0.150   0.151   0.151   0.151   0.151
   0.151   0.151
   0.197   0.197   0.195   0.191   0.186   0.181   0.174   0.166   0.158   0.147
   0.136   0.123   0.108   0.093   0.079   0.065   0.055   0.048   0.045   0.048
   0.055   0.065   0.079   0.093   0.108   0.123   0.136   0.147   0.158   0.166
   0.174   0.181   0.186   0.191   0.195   0.197   0.197   0.197   0.195   0.191
   0.186   0.181   0.174   0.166   0.158   0.147   0.136   0.123   0.108   0.093
   0.079   0.065   0.055   0.048   0.045   0.048   0.055   0.065   0.079   0.093
   0.108   0.123   0.136   0.147   0.158   0.166   0.174   0.181   0.186   0.191
   0.195   0.197
   0.642   0.635   0.614   0.580   0.537   0.489   0.439   0.390   0.345   0.303
   0.266   0.231   0.199   0.167   0.138   0.112   0.091   0.077   0.072   0.077
   0.091   0.112   0.138   0.167   0.199   0.231   0.266   0.303   0.345   0.390
   0.439   0.489   0.537   0.580   0.614   0.635   0.642   0.635   0.614   0.580
   0.537   0.489   0.439   0.390   0.345   0.303   0.266   0.231   0.199   0.167
   0.138   0.112   0.091   0.077   0.072   0.077   0.091   0.112   0.138   0.167
   0.199   0.231   0.266   0.303   0.345   0.390   0.439   0.489   0.537   0.580
   0.614   0.635
   1.588   1.566   1.501   1.399   1.267   1.118   0.962   0.813   0.680   0.568
   0.479   0.410   0.357   0.315   0.280   0.250   0.227   0.211   0.206   0.211
   0.227   0.250   0.280   0.315   0.357   0.410   0.479   0.568   0.680   0.813
   0.962   1.118   1.267   1.399   1.501   1.566   1.588   1.566   1.501   1.399
   1.267   1.118   0.962   0.813   0.680   0.568   0.479   0.410   0.357   0.315
   0.280   0.250   0.227   0.211   0.206   0.211   0.227   0.250   0.280   0.315
   0.357   0.410   0.479   0.568   0.680   0.813   0.962   1.118   1.267   1.399
   1.501   1.566
   2.611   2.578   2.479   2.319   2.105   1.853   1.581   1.312   1.067   0.861
   0.702   0.588   0.511   0.460   0.427   0.405   0.389   0.379   0.376   0.379
   0.389   0.405   0.427   0.460   0.511   0.588   0.702   0.861   1.067   1.312
   1.581   1.853   2.105   2.319   2.479   2.578   2.611   2.578   2.479   2.319
   2.105   1.853   1.581   1.312   1.067   0.861   0.702   0.588   0.511   0.460
   0.427   0.405   0.389   0.379   0.376   0.379   0.389   0.405   0.427   0.460
   0.511   0.588   0.702   0.861   1.067   1.312   1.581   1.853   2.105   2.319
   2.479   2.578
   2.965   2.944   2.876   2.752   2.567   2.324   2.036   1.730   1.434   1.172
   0.958   0.798   0.685   0.612   0.568   0.544   0.532   0.528   0.527   0.528
   0.532   0.544   0.568   0.612   0.685   0.798   0.958   1.172   1.434   1.730
   2.036   2.324   2.567   2.752   2.876   2.944   2.965   2.944   2.876   2.752
   2.567   2.324   2.036   1.730   1.434   1.172   0.958   0.798   0.685   0.612
   0.568   0.544   0.532   0.528   0.527   0.528   0.532   0.544   0.568   0.612
   0.685   0.798   0.958   1.172   1.434   1.730   2.036   2.324   2.567   2.752
   2.876   2.944
   2.315   2.329   2.360   2.380   2.358   2.275   2.128   1.934   1.715   1.494
   1.286   1.103   0.949   0.829   0.746   0.699   0.678   0.673   0.673   0.673
   0.678   0.699   0.746   0.829   0.949   1.103   1.286   1.494   1.715   1.934
   2.128   2.275   2.358   2.380   2.360   2.329   2.315   2.329   2.360   2.380
   2.358   2.275   2.128   1.934   1.715   1.494   1.286   1.103   0.949   0.829
   0.746   0.699   0.678   0.673   0.673   0.673   0.678   0.699   0.746   0.829
   0.949   1.103   1.286   1.494   1.715   1.934   2.128   2.275   2.358   2.380
   2.360   2.329
   1.158   1.205   1.330   1.495   1.655   1.775   1.840   1.851   1.813   1.730
   1.606   1.447   1.270   1.102   0.970   0.888   0.852   0.845   0.845   0.845
   0.852   0.888   0.970   1.102   1.270   1.447   1.606   1.730   1.813   1.851
   1.840   1.775   1.655   1.495   1.330   1.205   1.158   1.205   1.330   1.495
   1.655   1.775   1.840   1.851   1.813   1.730   1.606   1.447   1.270   1.102
   0.970   0.888   0.852   0.845   0.845   0.845   0.852   0.888   0.970   1.102
   1.270   1.447   1.606   1.730   1.813   1.851   1.840   1.775   1.655   1.495
   1.330   1.205
   0.322   0.373   0.513   0.710   0.932   1.152   1.358   1.540   1.682   1.763
   1.760   1.667   1.505   1.320   1.162   1.061   1.021   1.017   1.020   1.017
   1.021   1.061   1.162   1.320   1.505   1.667   1.760   1.763   1.682   1.540
   1.358   1.152   0.932   0.710   0.513   0.373   0.322   0.373   0.513   0.710
   0.932   1.152   1.358   1.540   1.682   1.763   1.760   1.667   1.505   1.320
   1.162   1.061   1.021   1.017   1.020   1.017   1.021   1.061   1.162   1.320
   1.505   1.667   1.760   1.763   1.682   1.540   1.358   1.152   0.932   0.710
   0.513   0.373
   0.124   0.153   0.236   0.361   0.522   0.716   0.943   1.188   1.423   1.604
   1.691   1.667   1.550   1.388   1.239   1.145   1.112   1.115   1.121   1.115
   1.112   1.145   1.239   1.388   1.550   1.667   1.691   1.604   1.423   1.188
   0.943   0.716   0.522   0.361   0.236   0.153   0.124   0.153   0.236   0.361
   0.522   0.716   0.943   1.188   1.423   1.604   1.691   1.667   1.550   1.388
   1.239   1.145   1.112   1.115   1.121   1.115   1.112   1.145   1.239   1.388
   1.550   1.667   1.691   1.604   1.423   1.188   0.943   0.716   0.522   0.361
   0.236   0.153
   0.222   0.230   0.256   0.309   0.402   0.548   0.748   0.982   1.211   1.396
   1.501   1.511   1.438   1.319   1.203   1.126   1.099   1.101   1.106   1.101
   1.099   1.126   1.203   1.319   1.438   1.511   1.501   1.396   1.211   0.982
   0.748   0.548   0.402   0.309   0.256   0.230   0.222   0.230   0.256   0.309
   0.402   0.548   0.748   0.982   1.211   1.396   1.501   1.511   1.438   1.319
   1.203   1.126   1.099   1.101   1.106   1.101   1.099   1.126   1.203   1.319
   1.438   1.511   1.501   1.396   1.211   0.982   0.748   0.548   0.402   0.309
   0.256   0.230
   0.236   0.238   0.251   0.292   0.383   0.536   0.737   0.948   1.128   1.252
   1.317   1.326   1.285   1.211   1.126   1.060   1.025   1.015   1.015   1.015
   1.025   1.060   1.126   1.211   1.285   1.326   1.317   1.252   1.128   0.948
   0.737   0.536   0.383   0.292   0.251   0.238   0.236   0.238   0.251   0.292
   0.383   0.536   0.737   0.948   1.128   1.252   1.317   1.326   1.285   1.211
   1.126   1.060   1.025   1.015   1.015   1.015   1.025   1.060   1.126   1.211
   1.285   1.326   1.317   1.252   1.128   0.948   0.737   0.536   0.383   0.292
   0.251   0.238
   0.224   0.227   0.241   0.288   0.393   0.567   0.783   0.979   1.107   1.164
   1.179   1.179   1.166   1.127   1.064   0.998   0.949   0.925   0.918   0.925
   0.949   0.998   1.064   1.127   1.166   1.179   1.179   1.164   1.107   0.979
   0.783   0.567   0.393   0.288   0.241   0.227   0.224   0.227   0.241   0.288
   0.393   0.567   0.783   0.979   1.107   1.164   1.179   1.179   1.166   1.127
   1.064   0.998   0.949   0.925   0.918   0.925   0.949   0.998   1.064   1.127
   1.166   1.179   1.179   1.164   1.107   0.979   0.783   0.567   0.393   0.288
   0.241   0.227
   0.446   0.444   0.439   0.449   0.510   0.647   0.834   0.998   1.081   1.089
   1.075   1.077   1.085   1.066   1.007   0.932   0.873   0.844   0.836   0.844
   0.873   0.932   1.007   1.066   1.085   1.077   1.075   1.089   1.081   0.998
   0.834   0.647   0.510   0.449   0.439   0.444   0.446   0.444   0.439   0.449
   0.510   0.647   0.834   0.998   1.081   1.089   1.075   1.077   1.085   1.066
   1.007   0.932   0.873   0.844   0.836   0.844   0.873   0.932   1.007   1.066
   1.085   1.077   1.075   1.089   1.081   0.998   0.834   0.647   0.510   0.449
   0.439   0.444
   0.910   0.901   0.868   0.816   0.787   0.829   0.937   1.042   1.078   1.051
   1.020   1.021   1.032   1.002   0.920   0.824   0.759   0.735   0.732   0.735
   0.759   0.824   0.920   1.002   1.032   1.021   1.020   1.051   1.078   1.042
   0.937   0.829   0.787   0.816   0.868   0.901   0.910   0.901   0.868   0.816
   0.787   0.829   0.937   1.042   1.078   1.051   1.020   1.021   1.032   1.002
   0.920   0.824   0.759   0.735   0.732   0.735   0.759   0.824   0.920   1.002
   1.032   1.021   1.020   1.051   1.078   1.042   0.937   0.829   0.787   0.816
   0.868   0.901
   1.363   1.357   1.320   1.233   1.131   1.084   1.111   1.154   1.145   1.085
   1.033   1.018   1.005   0.936   0.809   0.681   0.608   0.592   0.594   0.592
   0.608   0.681   0.809   0.936   1.005   1.018   1.033   1.085   1.145   1.154
   1.111   1.084   1.131   1.233   1.320   1.357   1.363   1.357   1.320   1.233
   1.131   1.084   1.111   1.154   1.145   1.085   1.033   1.018   1.005   0.936
   0.809   0.681   0.608   0.592   0.594   0.592   0.608   0.681   0.809   0.936
   1.005   1.018   1.033   1.085   1.145   1.154   1.111   1.084   1.131   1.233
   1.320   1.357
   1.606   1.608   1.585   1.496   1.367   1.276   1.258   1.264   1.227   1.145
   1.074   1.039   0.998   0.892   0.727   0.573   0.493   0.481   0.487   0.481
   0.493   0.573   0.727   0.892   0.998   1.039   1.074   1.145   1.227   1.264
   1.258   1.276   1.367   1.496   1.585   1.608   1.606   1.608   1.585   1.496
   1.367   1.276   1.258   1.264   1.227   1.145   1.074   1.039   0.998   0.892
   0.727   0.573   0.493   0.481   0.487   0.481   0.493   0.573   0.727   0.892
   0.998   1.039   1.074   1.145   1.227   1.264   1.258   1.276   1.367   1.496
   1.585   1.608
TEXTURE_INDEX=   1.8884
ERR_CF 220         1080     570   24.07   22.01
ERR_CF 200         1080     524   15.99   12.90
ERR_CF 111         1080     416   21.01    9.64
