TEXEVAL                                                                         
Analysis started on 10-Sep-18 11:10:00                                          
 LMAX=16LFMAX=03 CUBIC ORTHO   
 220      5.00 5.00
 200      5.00 5.00
 111      5.00 5.00
 220       5.00   72    0 5.00   15    0
   5.049   5.049   5.049   5.049   5.049   5.049   5.049   5.049   5.049   5.049
   5.049   5.049   5.049   5.049   5.049   5.049   5.049   5.049   5.049   5.049
   5.049   5.049   5.049   5.049   5.049   5.049   5.049   5.049   5.049   5.049
   5.049   5.049   5.049   5.049   5.049   5.049   5.049   5.049   5.049   5.049
   5.049   5.049   5.049   5.049   5.049   5.049   5.049   5.049   5.049   5.049
   5.049   5.049   5.049   5.049   5.049   5.049   5.049   5.049   5.049   5.049
   5.049   5.049   5.049   5.049   5.049   5.049   5.049   5.049   5.049   5.049
   5.049   5.049
   1.879   1.844   1.859   1.918   1.988   2.084   2.266   2.390   2.598   2.887
   3.113   3.435   3.828   4.058   4.414   4.760   5.063   5.204   5.247   5.204
   5.063   4.760   4.414   4.058   3.828   3.435   3.113   2.887   2.598   2.390
   2.266   2.084   1.988   1.918   1.859   1.844   1.879   1.844   1.859   1.918
   1.988   2.084   2.266   2.390   2.598   2.887   3.113   3.435   3.828   4.058
   4.414   4.760   5.063   5.204   5.247   5.204   5.063   4.760   4.414   4.058
   3.828   3.435   3.113   2.887   2.598   2.390   2.266   2.084   1.988   1.918
   1.859   1.844
   0.554   0.534   0.538   0.576   0.637   0.664   0.762   0.915   1.054   1.282
   1.567   1.857   2.406   2.883   3.380   3.855   4.436   4.821   4.973   4.821
   4.436   3.855   3.380   2.883   2.406   1.857   1.567   1.282   1.054   0.915
   0.762   0.664   0.637   0.576   0.538   0.534   0.554   0.534   0.538   0.576
   0.637   0.664   0.762   0.915   1.054   1.282   1.567   1.857   2.406   2.883
   3.380   3.855   4.436   4.821   4.973   4.821   4.436   3.855   3.380   2.883
   2.406   1.857   1.567   1.282   1.054   0.915   0.762   0.664   0.637   0.576
   0.538   0.534
   0.317   0.312   0.310   0.334   0.332   0.343   0.374   0.486   0.519   0.637
   0.861   1.091   1.541   2.076   2.578   3.325   3.874   4.499   4.705   4.499
   3.874   3.325   2.578   2.076   1.541   1.091   0.861   0.637   0.519   0.486
   0.374   0.343   0.332   0.334   0.310   0.312   0.317   0.312   0.310   0.334
   0.332   0.343   0.374   0.486   0.519   0.637   0.861   1.091   1.541   2.076
   2.578   3.325   3.874   4.499   4.705   4.499   3.874   3.325   2.578   2.076
   1.541   1.091   0.861   0.637   0.519   0.486   0.374   0.343   0.332   0.334
   0.310   0.312
   0.300   0.320   0.309   0.303   0.282   0.345   0.309   0.406   0.433   0.510
   0.644   0.842   1.115   1.552   2.049   2.966   3.547   4.211   4.357   4.211
   3.547   2.966   2.049   1.552   1.115   0.842   0.644   0.510   0.433   0.406
   0.309   0.345   0.282   0.303   0.309   0.320   0.300   0.320   0.309   0.303
   0.282   0.345   0.309   0.406   0.433   0.510   0.644   0.842   1.115   1.552
   2.049   2.966   3.547   4.211   4.357   4.211   3.547   2.966   2.049   1.552
   1.115   0.842   0.644   0.510   0.433   0.406   0.309   0.345   0.282   0.303
   0.309   0.320
   0.298   0.309   0.299   0.304   0.305   0.369   0.341   0.436   0.481   0.599
   0.683   0.804   1.045   1.408   1.838   2.682   3.119   3.749   3.849   3.749
   3.119   2.682   1.838   1.408   1.045   0.804   0.683   0.599   0.481   0.436
   0.341   0.369   0.305   0.304   0.299   0.309   0.298   0.309   0.299   0.304
   0.305   0.369   0.341   0.436   0.481   0.599   0.683   0.804   1.045   1.408
   1.838   2.682   3.119   3.749   3.849   3.749   3.119   2.682   1.838   1.408
   1.045   0.804   0.683   0.599   0.481   0.436   0.341   0.369   0.305   0.304
   0.299   0.309
   0.278   0.286   0.286   0.302   0.313   0.379   0.399   0.497   0.571   0.697
   0.809   0.882   1.106   1.469   1.773   2.210   2.556   2.879   2.935   2.879
   2.556   2.210   1.773   1.469   1.106   0.882   0.809   0.697   0.571   0.497
   0.399   0.379   0.313   0.302   0.286   0.286   0.278   0.286   0.286   0.302
   0.313   0.379   0.399   0.497   0.571   0.697   0.809   0.882   1.106   1.469
   1.773   2.210   2.556   2.879   2.935   2.879   2.556   2.210   1.773   1.469
   1.106   0.882   0.809   0.697   0.571   0.497   0.399   0.379   0.313   0.302
   0.286   0.286
   0.324   0.249   0.280   0.279   0.330   0.380   0.424   0.526   0.576   0.716
   0.826   0.950   1.154   1.458   1.602   1.713   1.956   1.919   1.924   1.919
   1.956   1.713   1.602   1.458   1.154   0.950   0.826   0.716   0.576   0.526
   0.424   0.380   0.330   0.279   0.280   0.249   0.324   0.249   0.280   0.279
   0.330   0.380   0.424   0.526   0.576   0.716   0.826   0.950   1.154   1.458
   1.602   1.713   1.956   1.919   1.924   1.919   1.956   1.713   1.602   1.458
   1.154   0.950   0.826   0.716   0.576   0.526   0.424   0.380   0.330   0.279
   0.280   0.249
   0.390   0.248   0.311   0.324   0.358   0.403   0.407   0.480   0.547   0.598
   0.644   0.923   1.082   1.276   1.347   1.455   1.409   1.207   1.203   1.207
   1.409   1.455   1.347   1.276   1.082   0.923   0.644   0.598   0.547   0.480
   0.407   0.403   0.358   0.324   0.311   0.248   0.390   0.248   0.311   0.324
   0.358   0.403   0.407   0.480   0.547   0.598   0.644   0.923   1.082   1.276
   1.347   1.455   1.409   1.207   1.203   1.207   1.409   1.455   1.347   1.276
   1.082   0.923   0.644   0.598   0.547   0.480   0.407   0.403   0.358   0.324
   0.311   0.248
   0.587   0.492   0.528   0.526   0.524   0.517   0.477   0.507   0.594   0.575
   0.570   0.854   0.910   1.053   1.194   1.183   1.046   0.851   0.883   0.851
   1.046   1.183   1.194   1.053   0.910   0.854   0.570   0.575   0.594   0.507
   0.477   0.517   0.524   0.526   0.528   0.492   0.587   0.492   0.528   0.526
   0.524   0.517   0.477   0.507   0.594   0.575   0.570   0.854   0.910   1.053
   1.194   1.183   1.046   0.851   0.883   0.851   1.046   1.183   1.194   1.053
   0.910   0.854   0.570   0.575   0.594   0.507   0.477   0.517   0.524   0.526
   0.528   0.492
   1.491   1.448   1.286   1.073   0.931   0.891   0.643   0.696   0.655   0.670
   0.585   0.762   0.769   0.885   1.042   0.989   0.747   0.763   0.654   0.763
   0.747   0.989   1.042   0.885   0.769   0.762   0.585   0.670   0.655   0.696
   0.643   0.891   0.931   1.073   1.286   1.448   1.491   1.448   1.286   1.073
   0.931   0.891   0.643   0.696   0.655   0.670   0.585   0.762   0.769   0.885
   1.042   0.989   0.747   0.763   0.654   0.763   0.747   0.989   1.042   0.885
   0.769   0.762   0.585   0.670   0.655   0.696   0.643   0.891   0.931   1.073
   1.286   1.448
   3.837   3.678   3.160   2.533   2.048   1.531   1.048   0.954   0.805   0.668
   0.618   0.695   0.615   0.749   0.907   0.794   0.665   0.547   0.472   0.547
   0.665   0.794   0.907   0.749   0.615   0.695   0.618   0.668   0.805   0.954
   1.048   1.531   2.048   2.533   3.160   3.678   3.837   3.678   3.160   2.533
   2.048   1.531   1.048   0.954   0.805   0.668   0.618   0.695   0.615   0.749
   0.907   0.794   0.665   0.547   0.472   0.547   0.665   0.794   0.907   0.749
   0.615   0.695   0.618   0.668   0.805   0.954   1.048   1.531   2.048   2.533
   3.160   3.678
   4.323   4.085   3.808   3.036   2.750   2.018   1.773   1.470   1.129   0.799
   0.859   0.725   0.664   0.871   0.854   0.656   0.704   0.457   0.588   0.457
   0.704   0.656   0.854   0.871   0.664   0.725   0.859   0.799   1.129   1.470
   1.773   2.018   2.750   3.036   3.808   4.085   4.323   4.085   3.808   3.036
   2.750   2.018   1.773   1.470   1.129   0.799   0.859   0.725   0.664   0.871
   0.854   0.656   0.704   0.457   0.588   0.457   0.704   0.656   0.854   0.871
   0.664   0.725   0.859   0.799   1.129   1.470   1.773   2.018   2.750   3.036
   3.808   4.085
   2.100   1.802   2.028   1.760   1.860   1.685   1.809   1.819   1.500   1.255
   0.914   0.746   0.718   0.838   0.767   0.845   0.696   0.662   0.769   0.662
   0.696   0.845   0.767   0.838   0.718   0.746   0.914   1.255   1.500   1.819
   1.809   1.685   1.860   1.760   2.028   1.802   2.100   1.802   2.028   1.760
   1.860   1.685   1.809   1.819   1.500   1.255   0.914   0.746   0.718   0.838
   0.767   0.845   0.696   0.662   0.769   0.662   0.696   0.845   0.767   0.838
   0.718   0.746   0.914   1.255   1.500   1.819   1.809   1.685   1.860   1.760
   2.028   1.802
   0.669   0.523   0.538   0.759   0.745   0.857   1.008   1.418   1.368   1.217
   0.896   0.639   0.891   0.629   0.726   0.816   0.887   0.905   0.935   0.905
   0.887   0.816   0.726   0.629   0.891   0.639   0.896   1.217   1.368   1.418
   1.008   0.857   0.745   0.759   0.538   0.523   0.669   0.523   0.538   0.759
   0.745   0.857   1.008   1.418   1.368   1.217   0.896   0.639   0.891   0.629
   0.726   0.816   0.887   0.905   0.935   0.905   0.887   0.816   0.726   0.629
   0.891   0.639   0.896   1.217   1.368   1.418   1.008   0.857   0.745   0.759
   0.538   0.523
 200       5.00   72    0 5.00   15    0
   0.513   0.513   0.513   0.513   0.513   0.513   0.513   0.513   0.513   0.513
   0.513   0.513   0.513   0.513   0.513   0.513   0.513   0.513   0.513   0.513
   0.513   0.513   0.513   0.513   0.513   0.513   0.513   0.513   0.513   0.513
   0.513   0.513   0.513   0.513   0.513   0.513   0.513   0.513   0.513   0.513
   0.513   0.513   0.513   0.513   0.513   0.513   0.513   0.513   0.513   0.513
   0.513   0.513   0.513   0.513   0.513   0.513   0.513   0.513   0.513   0.513
   0.513   0.513   0.513   0.513   0.513   0.513   0.513   0.513   0.513   0.513
   0.513   0.513
   0.615   0.617   0.602   0.590   0.602   0.566   0.572   0.566   0.534   0.535
   0.527   0.527   0.530   0.494   0.502   0.527   0.510   0.487   0.498   0.487
   0.510   0.527   0.502   0.494   0.530   0.527   0.527   0.535   0.534   0.566
   0.572   0.566   0.602   0.590   0.602   0.617   0.615   0.617   0.602   0.590
   0.602   0.566   0.572   0.566   0.534   0.535   0.527   0.527   0.530   0.494
   0.502   0.527   0.510   0.487   0.498   0.487   0.510   0.527   0.502   0.494
   0.530   0.527   0.527   0.535   0.534   0.566   0.572   0.566   0.602   0.590
   0.602   0.617
   0.808   0.813   0.787   0.775   0.746   0.678   0.699   0.669   0.593   0.579
   0.581   0.557   0.520   0.511   0.512   0.545   0.532   0.498   0.525   0.498
   0.532   0.545   0.512   0.511   0.520   0.557   0.581   0.579   0.593   0.669
   0.699   0.678   0.746   0.775   0.787   0.813   0.808   0.813   0.787   0.775
   0.746   0.678   0.699   0.669   0.593   0.579   0.581   0.557   0.520   0.511
   0.512   0.545   0.532   0.498   0.525   0.498   0.532   0.545   0.512   0.511
   0.520   0.557   0.581   0.579   0.593   0.669   0.699   0.678   0.746   0.775
   0.787   0.813
   1.292   1.248   1.186   1.177   1.092   0.947   0.975   0.891   0.803   0.724
   0.681   0.634   0.574   0.577   0.536   0.583   0.530   0.541   0.525   0.541
   0.530   0.583   0.536   0.577   0.574   0.634   0.681   0.724   0.803   0.891
   0.975   0.947   1.092   1.177   1.186   1.248   1.292   1.248   1.186   1.177
   1.092   0.947   0.975   0.891   0.803   0.724   0.681   0.634   0.574   0.577
   0.536   0.583   0.530   0.541   0.525   0.541   0.530   0.583   0.536   0.577
   0.574   0.634   0.681   0.724   0.803   0.891   0.975   0.947   1.092   1.177
   1.186   1.248
   2.293   2.189   2.107   1.987   1.855   1.634   1.485   1.322   1.111   0.984
   0.831   0.766   0.681   0.639   0.620   0.617   0.571   0.615   0.566   0.615
   0.571   0.617   0.620   0.639   0.681   0.766   0.831   0.984   1.111   1.322
   1.485   1.634   1.855   1.987   2.107   2.189   2.293   2.189   2.107   1.987
   1.855   1.634   1.485   1.322   1.111   0.984   0.831   0.766   0.681   0.639
   0.620   0.617   0.571   0.615   0.566   0.615   0.571   0.617   0.620   0.639
   0.681   0.766   0.831   0.984   1.111   1.322   1.485   1.634   1.855   1.987
   2.107   2.189
   3.141   3.110   3.010   2.852   2.783   2.646   2.267   2.013   1.725   1.483
   1.155   1.004   0.859   0.790   0.734   0.706   0.709   0.740   0.658   0.740
   0.709   0.706   0.734   0.790   0.859   1.004   1.155   1.483   1.725   2.013
   2.267   2.646   2.783   2.852   3.010   3.110   3.141   3.110   3.010   2.852
   2.783   2.646   2.267   2.013   1.725   1.483   1.155   1.004   0.859   0.790
   0.734   0.706   0.709   0.740   0.658   0.740   0.709   0.706   0.734   0.790
   0.859   1.004   1.155   1.483   1.725   2.013   2.267   2.646   2.783   2.852
   3.010   3.110
   2.372   2.418   2.376   2.402   2.527   2.682   2.492   2.360   2.312   2.045
   1.627   1.369   1.171   1.010   0.873   0.778   0.812   0.903   0.724   0.903
   0.812   0.778   0.873   1.010   1.171   1.369   1.627   2.045   2.312   2.360
   2.492   2.682   2.527   2.402   2.376   2.418   2.372   2.418   2.376   2.402
   2.527   2.682   2.492   2.360   2.312   2.045   1.627   1.369   1.171   1.010
   0.873   0.778   0.812   0.903   0.724   0.903   0.812   0.778   0.873   1.010
   1.171   1.369   1.627   2.045   2.312   2.360   2.492   2.682   2.527   2.402
   2.376   2.418
   0.929   0.932   0.980   1.070   1.234   1.511   1.636   1.877   2.119   2.095
   1.938   1.659   1.426   1.175   1.064   0.929   0.873   0.968   0.784   0.968
   0.873   0.929   1.064   1.175   1.426   1.659   1.938   2.095   2.119   1.877
   1.636   1.511   1.234   1.070   0.980   0.932   0.929   0.932   0.980   1.070
   1.234   1.511   1.636   1.877   2.119   2.095   1.938   1.659   1.426   1.175
   1.064   0.929   0.873   0.968   0.784   0.968   0.873   0.929   1.064   1.175
   1.426   1.659   1.938   2.095   2.119   1.877   1.636   1.511   1.234   1.070
   0.980   0.932
   0.407   0.336   0.399   0.418   0.492   0.633   0.730   1.129   1.383   1.631
   1.885   1.729   1.484   1.298   1.169   1.064   1.035   0.957   0.838   0.957
   1.035   1.064   1.169   1.298   1.484   1.729   1.885   1.631   1.383   1.129
   0.730   0.633   0.492   0.418   0.399   0.336   0.407   0.336   0.399   0.418
   0.492   0.633   0.730   1.129   1.383   1.631   1.885   1.729   1.484   1.298
   1.169   1.064   1.035   0.957   0.838   0.957   1.035   1.064   1.169   1.298
   1.484   1.729   1.885   1.631   1.383   1.129   0.730   0.633   0.492   0.418
   0.399   0.336
   0.294   0.238   0.270   0.276   0.317   0.374   0.390   0.640   0.790   1.114
   1.491   1.606   1.506   1.500   1.292   1.118   1.126   0.938   0.841   0.938
   1.126   1.118   1.292   1.500   1.506   1.606   1.491   1.114   0.790   0.640
   0.390   0.374   0.317   0.276   0.270   0.238   0.294   0.238   0.270   0.276
   0.317   0.374   0.390   0.640   0.790   1.114   1.491   1.606   1.506   1.500
   1.292   1.118   1.126   0.938   0.841   0.938   1.126   1.118   1.292   1.500
   1.506   1.606   1.491   1.114   0.790   0.640   0.390   0.374   0.317   0.276
   0.270   0.238
   0.181   0.176   0.158   0.206   0.196   0.253   0.304   0.420   0.570   0.891
   1.164   1.456   1.481   1.461   1.196   1.059   0.984   0.796   0.762   0.796
   0.984   1.059   1.196   1.461   1.481   1.456   1.164   0.891   0.570   0.420
   0.304   0.253   0.196   0.206   0.158   0.176   0.181   0.176   0.158   0.206
   0.196   0.253   0.304   0.420   0.570   0.891   1.164   1.456   1.481   1.461
   1.196   1.059   0.984   0.796   0.762   0.796   0.984   1.059   1.196   1.461
   1.481   1.456   1.164   0.891   0.570   0.420   0.304   0.253   0.196   0.206
   0.158   0.176
   0.235   0.183   0.226   0.229   0.207   0.213   0.316   0.425   0.565   0.964
   1.127   1.402   1.397   1.265   0.977   0.882   0.860   0.731   0.752   0.731
   0.860   0.882   0.977   1.265   1.397   1.402   1.127   0.964   0.565   0.425
   0.316   0.213   0.207   0.229   0.226   0.183   0.235   0.183   0.226   0.229
   0.207   0.213   0.316   0.425   0.565   0.964   1.127   1.402   1.397   1.265
   0.977   0.882   0.860   0.731   0.752   0.731   0.860   0.882   0.977   1.265
   1.397   1.402   1.127   0.964   0.565   0.425   0.316   0.213   0.207   0.229
   0.226   0.183
   0.284   0.234   0.281   0.225   0.264   0.224   0.263   0.418   0.672   1.163
   1.333   1.450   1.394   1.126   0.942   0.744   0.661   0.767   0.736   0.767
   0.661   0.744   0.942   1.126   1.394   1.450   1.333   1.163   0.672   0.418
   0.263   0.224   0.264   0.225   0.281   0.234   0.284   0.234   0.281   0.225
   0.264   0.224   0.263   0.418   0.672   1.163   1.333   1.450   1.394   1.126
   0.942   0.744   0.661   0.767   0.736   0.767   0.661   0.744   0.942   1.126
   1.394   1.450   1.333   1.163   0.672   0.418   0.263   0.224   0.264   0.225
   0.281   0.234
   0.307   0.291   0.244   0.280   0.214   0.389   0.293   0.538   0.904   1.440
   1.501   1.380   1.345   0.831   0.820   0.566   0.492   0.761   0.625   0.761
   0.492   0.566   0.820   0.831   1.345   1.380   1.501   1.440   0.904   0.538
   0.293   0.389   0.214   0.280   0.244   0.291   0.307   0.291   0.244   0.280
   0.214   0.389   0.293   0.538   0.904   1.440   1.501   1.380   1.345   0.831
   0.820   0.566   0.492   0.761   0.625   0.761   0.492   0.566   0.820   0.831
   1.345   1.380   1.501   1.440   0.904   0.538   0.293   0.389   0.214   0.280
   0.244   0.291
   0.391   0.496   0.405   0.408   0.379   0.694   0.582   0.825   1.026   1.593
   1.467   1.090   1.051   0.580   0.626   0.581   0.419   0.566   0.493   0.566
   0.419   0.581   0.626   0.580   1.051   1.090   1.467   1.593   1.026   0.825
   0.582   0.694   0.379   0.408   0.405   0.496   0.391   0.496   0.405   0.408
   0.379   0.694   0.582   0.825   1.026   1.593   1.467   1.090   1.051   0.580
   0.626   0.581   0.419   0.566   0.493   0.566   0.419   0.581   0.626   0.580
   1.051   1.090   1.467   1.593   1.026   0.825   0.582   0.694   0.379   0.408
   0.405   0.496
 111       5.00   72    0 5.00   15    0
   0.078   0.078   0.078   0.078   0.078   0.078   0.078   0.078   0.078   0.078
   0.078   0.078   0.078   0.078   0.078   0.078   0.078   0.078   0.078   0.078
   0.078   0.078   0.078   0.078   0.078   0.078   0.078   0.078   0.078   0.078
   0.078   0.078   0.078   0.078   0.078   0.078   0.078   0.078   0.078   0.078
   0.078   0.078   0.078   0.078   0.078   0.078   0.078   0.078   0.078   0.078
   0.078   0.078   0.078   0.078   0.078   0.078   0.078   0.078   0.078   0.078
   0.078   0.078   0.078   0.078   0.078   0.078   0.078   0.078   0.078   0.078
   0.078   0.078
   0.149   0.146   0.146   0.139   0.142   0.136   0.133   0.129   0.129   0.129
   0.116   0.123   0.114   0.113   0.116   0.107   0.112   0.108   0.116   0.108
   0.112   0.107   0.116   0.113   0.114   0.123   0.116   0.129   0.129   0.129
   0.133   0.136   0.142   0.139   0.146   0.146   0.149   0.146   0.146   0.139
   0.142   0.136   0.133   0.129   0.129   0.129   0.116   0.123   0.114   0.113
   0.116   0.107   0.112   0.108   0.116   0.108   0.112   0.107   0.116   0.113
   0.114   0.123   0.116   0.129   0.129   0.129   0.133   0.136   0.142   0.139
   0.146   0.146
   0.272   0.290   0.272   0.254   0.240   0.221   0.212   0.186   0.180   0.177
   0.161   0.153   0.145   0.139   0.139   0.130   0.128   0.130   0.150   0.130
   0.128   0.130   0.139   0.139   0.145   0.153   0.161   0.177   0.180   0.186
   0.212   0.221   0.240   0.254   0.272   0.290   0.272   0.290   0.272   0.254
   0.240   0.221   0.212   0.186   0.180   0.177   0.161   0.153   0.145   0.139
   0.139   0.130   0.128   0.130   0.150   0.130   0.128   0.130   0.139   0.139
   0.145   0.153   0.161   0.177   0.180   0.186   0.212   0.221   0.240   0.254
   0.272   0.290
   0.972   0.985   0.877   0.762   0.634   0.536   0.442   0.336   0.308   0.270
   0.227   0.204   0.182   0.175   0.151   0.149   0.140   0.156   0.169   0.156
   0.140   0.149   0.151   0.175   0.182   0.204   0.227   0.270   0.308   0.336
   0.442   0.536   0.634   0.762   0.877   0.985   0.972   0.985   0.877   0.762
   0.634   0.536   0.442   0.336   0.308   0.270   0.227   0.204   0.182   0.175
   0.151   0.149   0.140   0.156   0.169   0.156   0.140   0.149   0.151   0.175
   0.182   0.204   0.227   0.270   0.308   0.336   0.442   0.536   0.634   0.762
   0.877   0.985
   3.449   3.347   2.986   2.463   2.038   1.560   1.154   0.840   0.632   0.477
   0.363   0.295   0.229   0.214   0.180   0.170   0.149   0.144   0.134   0.144
   0.149   0.170   0.180   0.214   0.229   0.295   0.363   0.477   0.632   0.840
   1.154   1.560   2.038   2.463   2.986   3.347   3.449   3.347   2.986   2.463
   2.038   1.560   1.154   0.840   0.632   0.477   0.363   0.295   0.229   0.214
   0.180   0.170   0.149   0.144   0.134   0.144   0.149   0.170   0.180   0.214
   0.229   0.295   0.363   0.477   0.632   0.840   1.154   1.560   2.038   2.463
   2.986   3.347
   5.654   5.612   5.084   4.440   3.803   3.086   2.411   1.842   1.278   0.898
   0.620   0.465   0.331   0.282   0.224   0.195   0.163   0.140   0.129   0.140
   0.163   0.195   0.224   0.282   0.331   0.465   0.620   0.898   1.278   1.842
   2.411   3.086   3.803   4.440   5.084   5.612   5.654   5.612   5.084   4.440
   3.803   3.086   2.411   1.842   1.278   0.898   0.620   0.465   0.331   0.282
   0.224   0.195   0.163   0.140   0.129   0.140   0.163   0.195   0.224   0.282
   0.331   0.465   0.620   0.898   1.278   1.842   2.411   3.086   3.803   4.440
   5.084   5.612
   4.682   4.765   4.531   4.250   4.019   3.564   3.135   2.645   1.975   1.451
   1.019   0.761   0.540   0.386   0.293   0.248   0.235   0.198   0.217   0.198
   0.235   0.248   0.293   0.386   0.540   0.761   1.019   1.451   1.975   2.645
   3.135   3.564   4.019   4.250   4.531   4.765   4.682   4.765   4.531   4.250
   4.019   3.564   3.135   2.645   1.975   1.451   1.019   0.761   0.540   0.386
   0.293   0.248   0.235   0.198   0.217   0.198   0.235   0.248   0.293   0.386
   0.540   0.761   1.019   1.451   1.975   2.645   3.135   3.564   4.019   4.250
   4.531   4.765
   2.200   2.290   2.395   2.510   2.718   2.730   2.773   2.588   2.176   1.829
   1.421   1.112   0.776   0.575   0.426   0.350   0.335   0.286   0.305   0.286
   0.335   0.350   0.426   0.575   0.776   1.112   1.421   1.829   2.176   2.588
   2.773   2.730   2.718   2.510   2.395   2.290   2.200   2.290   2.395   2.510
   2.718   2.730   2.773   2.588   2.176   1.829   1.421   1.112   0.776   0.575
   0.426   0.350   0.335   0.286   0.305   0.286   0.335   0.350   0.426   0.575
   0.776   1.112   1.421   1.829   2.176   2.588   2.773   2.730   2.718   2.510
   2.395   2.290
   0.714   0.779   0.880   1.064   1.284   1.642   1.867   1.984   1.896   1.813
   1.584   1.256   1.015   0.768   0.606   0.469   0.424   0.387   0.379   0.387
   0.424   0.469   0.606   0.768   1.015   1.256   1.584   1.813   1.896   1.984
   1.867   1.642   1.284   1.064   0.880   0.779   0.714   0.779   0.880   1.064
   1.284   1.642   1.867   1.984   1.896   1.813   1.584   1.256   1.015   0.768
   0.606   0.469   0.424   0.387   0.379   0.387   0.424   0.469   0.606   0.768
   1.015   1.256   1.584   1.813   1.896   1.984   1.867   1.642   1.284   1.064
   0.880   0.779
   0.319   0.312   0.362   0.365   0.487   0.778   1.011   1.315   1.436   1.522
   1.495   1.281   1.264   1.017   0.818   0.653   0.614   0.544   0.498   0.544
   0.614   0.653   0.818   1.017   1.264   1.281   1.495   1.522   1.436   1.315
   1.011   0.778   0.487   0.365   0.362   0.312   0.319   0.312   0.362   0.365
   0.487   0.778   1.011   1.315   1.436   1.522   1.495   1.281   1.264   1.017
   0.818   0.653   0.614   0.544   0.498   0.544   0.614   0.653   0.818   1.017
   1.264   1.281   1.495   1.522   1.436   1.315   1.011   0.778   0.487   0.365
   0.362   0.312
   0.212   0.219   0.255   0.211   0.239   0.307   0.491   0.761   0.930   1.090
   1.214   1.267   1.362   1.302   1.120   0.911   0.818   0.725   0.641   0.725
   0.818   0.911   1.120   1.302   1.362   1.267   1.214   1.090   0.930   0.761
   0.491   0.307   0.239   0.211   0.255   0.219   0.212   0.219   0.255   0.211
   0.239   0.307   0.491   0.761   0.930   1.090   1.214   1.267   1.362   1.302
   1.120   0.911   0.818   0.725   0.641   0.725   0.818   0.911   1.120   1.302
   1.362   1.267   1.214   1.090   0.930   0.761   0.491   0.307   0.239   0.211
   0.255   0.219
   0.212   0.234   0.201   0.147   0.176   0.190   0.248   0.484   0.625   0.689
   0.858   0.999   1.204   1.270   1.420   1.159   0.952   0.830   0.839   0.830
   0.952   1.159   1.420   1.270   1.204   0.999   0.858   0.689   0.625   0.484
   0.248   0.190   0.176   0.147   0.201   0.234   0.212   0.234   0.201   0.147
   0.176   0.190   0.248   0.484   0.625   0.689   0.858   0.999   1.204   1.270
   1.420   1.159   0.952   0.830   0.839   0.830   0.952   1.159   1.420   1.270
   1.204   0.999   0.858   0.689   0.625   0.484   0.248   0.190   0.176   0.147
   0.201   0.234
   0.261   0.264   0.167   0.173   0.194   0.208   0.260   0.387   0.526   0.491
   0.640   0.670   0.962   1.070   1.391   1.153   1.122   0.953   1.018   0.953
   1.122   1.153   1.391   1.070   0.962   0.670   0.640   0.491   0.526   0.387
   0.260   0.208   0.194   0.173   0.167   0.264   0.261   0.264   0.167   0.173
   0.194   0.208   0.260   0.387   0.526   0.491   0.640   0.670   0.962   1.070
   1.391   1.153   1.122   0.953   1.018   0.953   1.122   1.153   1.391   1.070
   0.962   0.670   0.640   0.491   0.526   0.387   0.260   0.208   0.194   0.173
   0.167   0.264
   0.268   0.311   0.255   0.233   0.219   0.224   0.319   0.338   0.437   0.461
   0.503   0.540   0.749   0.842   1.004   1.056   1.080   1.071   0.991   1.071
   1.080   1.056   1.004   0.842   0.749   0.540   0.503   0.461   0.437   0.338
   0.319   0.224   0.219   0.233   0.255   0.311   0.268   0.311   0.255   0.233
   0.219   0.224   0.319   0.338   0.437   0.461   0.503   0.540   0.749   0.842
   1.004   1.056   1.080   1.071   0.991   1.071   1.080   1.056   1.004   0.842
   0.749   0.540   0.503   0.461   0.437   0.338   0.319   0.224   0.219   0.233
   0.255   0.311
   0.446   0.443   0.390   0.361   0.295   0.276   0.335   0.382   0.423   0.534
   0.436   0.526   0.585   0.664   0.786   0.981   0.977   1.019   0.949   1.019
   0.977   0.981   0.786   0.664   0.585   0.526   0.436   0.534   0.423   0.382
   0.335   0.276   0.295   0.361   0.390   0.443   0.446   0.443   0.390   0.361
   0.295   0.276   0.335   0.382   0.423   0.534   0.436   0.526   0.585   0.664
   0.786   0.981   0.977   1.019   0.949   1.019   0.977   0.981   0.786   0.664
   0.585   0.526   0.436   0.534   0.423   0.382   0.335   0.276   0.295   0.361
   0.390   0.443
  4  1      1.0613263E-01
  4  2     -5.0344677E-01
  4  3     -6.5003292E-01
  6  1      2.4458476E+00
  6  2     -3.4432575E+00
  6  3      9.9336692E-01
  6  4     -9.4600293E-02
  8  1     -2.5087401E-01
  8  2      2.6565252E-01
  8  3      1.0404258E-01
  8  4      6.3127620E-01
  8  5      4.1408618E-01
 10  1     -1.3833783E-01
 10  2     -3.0961298E-01
 10  3      7.4674907E-01
 10  4     -9.9265432E-02
 10  5     -7.4455053E-02
 10  6      5.8192399E-02
 12  1     -5.9154922E-02  1.9621965E+00
 12  2     -5.4986440E-02 -2.3888198E+00
 12  3      3.1252082E-03  2.1301367E+00
 12  4     -2.8701495E-02 -8.4230545E-01
 12  5     -1.9978126E-02 -7.4602569E-02
 12  6     -4.3480245E-01  2.0134000E-01
 12  7     -1.4269712E-01 -8.5206159E-02
 14  1     -3.8828846E-01
 14  2      4.0913728E-01
 14  3     -1.9279328E-01
 14  4     -4.3416974E-02
 14  5     -2.5493058E-01
 14  6     -1.4317343E-02
 14  7     -7.1003758E-03
 14  8     -2.8729739E-01
 16  1      1.1326897E-01  1.3963426E-02
 16  2     -2.4863923E-01  1.1954807E-01
 16  3      2.1738092E-01  2.3606522E-01
 16  4     -9.4330208E-02 -5.5436257E-01
 16  5      1.1548026E-01  2.0412196E-01
 16  6      2.1602812E-02  2.6747282E-03
 16  7      4.8299981E-02 -1.8387844E-02
 16  8     -8.2211919E-02  1.4312062E-01
 16  9      1.9593109E-01  3.8334465E-02
 220       5.00   72    0 5.00   18    0
   3.043   3.045   3.048   3.054   3.062   3.072   3.084   3.097   3.111   3.125
   3.140   3.154   3.167   3.179   3.189   3.197   3.203   3.207   3.209   3.207
   3.203   3.197   3.189   3.179   3.167   3.154   3.140   3.125   3.111   3.097
   3.084   3.072   3.062   3.054   3.048   3.045   3.043   3.045   3.048   3.054
   3.062   3.072   3.084   3.097   3.111   3.125   3.140   3.154   3.167   3.179
   3.189   3.197   3.203   3.207   3.209   3.207   3.203   3.197   3.189   3.179
   3.167   3.154   3.140   3.125   3.111   3.097   3.084   3.072   3.062   3.054
   3.048   3.045
   1.878   1.886   1.910   1.949   2.004   2.073   2.155   2.248   2.350   2.458
   2.570   2.681   2.789   2.888   2.976   3.049   3.103   3.137   3.148   3.137
   3.103   3.049   2.976   2.888   2.789   2.681   2.570   2.458   2.350   2.248
   2.155   2.073   2.004   1.949   1.910   1.886   1.878   1.886   1.910   1.949
   2.004   2.073   2.155   2.248   2.350   2.458   2.570   2.681   2.789   2.888
   2.976   3.049   3.103   3.137   3.148   3.137   3.103   3.049   2.976   2.888
   2.789   2.681   2.570   2.458   2.350   2.248   2.155   2.073   2.004   1.949
   1.910   1.886
   0.481   0.492   0.523   0.577   0.654   0.757   0.887   1.045   1.230   1.439
   1.668   1.910   2.154   2.391   2.608   2.792   2.933   3.021   3.051   3.021
   2.933   2.792   2.608   2.391   2.154   1.910   1.668   1.439   1.230   1.045
   0.887   0.757   0.654   0.577   0.523   0.492   0.481   0.492   0.523   0.577
   0.654   0.757   0.887   1.045   1.230   1.439   1.668   1.910   2.154   2.391
   2.608   2.792   2.933   3.021   3.051   3.021   2.933   2.792   2.608   2.391
   2.154   1.910   1.668   1.439   1.230   1.045   0.887   0.757   0.654   0.577
   0.523   0.492
  -0.193  -0.191  -0.184  -0.169  -0.138  -0.084   0.001   0.127   0.300   0.525
   0.801   1.121   1.471   1.831   2.178   2.485   2.726   2.880   2.933   2.880
   2.726   2.485   2.178   1.831   1.471   1.121   0.801   0.525   0.300   0.127
   0.001  -0.084  -0.138  -0.169  -0.184  -0.191  -0.193  -0.191  -0.184  -0.169
  -0.138  -0.084   0.001   0.127   0.300   0.525   0.801   1.121   1.471   1.831
   2.178   2.485   2.726   2.880   2.933   2.880   2.726   2.485   2.178   1.831
   1.471   1.121   0.801   0.525   0.300   0.127   0.001  -0.084  -0.138  -0.169
  -0.184  -0.191
  -0.023  -0.031  -0.055  -0.091  -0.131  -0.167  -0.182  -0.162  -0.088   0.055
   0.277   0.578   0.946   1.359   1.781   2.171   2.487   2.693   2.765   2.693
   2.487   2.171   1.781   1.359   0.946   0.578   0.277   0.055  -0.088  -0.162
  -0.182  -0.167  -0.131  -0.091  -0.055  -0.031  -0.023  -0.031  -0.055  -0.091
  -0.131  -0.167  -0.182  -0.162  -0.088   0.055   0.277   0.578   0.946   1.359
   1.781   2.171   2.487   2.693   2.765   2.693   2.487   2.171   1.781   1.359
   0.946   0.578   0.277   0.055  -0.088  -0.162  -0.182  -0.167  -0.131  -0.091
  -0.055  -0.031
   0.346   0.339   0.320   0.285   0.234   0.170   0.102   0.045   0.023   0.060
   0.179   0.390   0.693   1.066   1.473   1.866   2.194   2.411   2.487   2.411
   2.194   1.866   1.473   1.066   0.693   0.390   0.179   0.060   0.023   0.045
   0.102   0.170   0.234   0.285   0.320   0.339   0.346   0.339   0.320   0.285
   0.234   0.170   0.102   0.045   0.023   0.060   0.179   0.390   0.693   1.066
   1.473   1.866   2.194   2.411   2.487   2.411   2.194   1.866   1.473   1.066
   0.693   0.390   0.179   0.060   0.023   0.045   0.102   0.170   0.234   0.285
   0.320   0.339
   0.283   0.294   0.321   0.354   0.382   0.391   0.376   0.343   0.309   0.301
   0.349   0.472   0.677   0.951   1.263   1.571   1.832   2.006   2.067   2.006
   1.832   1.571   1.263   0.951   0.677   0.472   0.349   0.301   0.309   0.343
   0.376   0.391   0.382   0.354   0.321   0.294   0.283   0.294   0.321   0.354
   0.382   0.391   0.376   0.343   0.309   0.301   0.349   0.472   0.677   0.951
   1.263   1.571   1.832   2.006   2.067   2.006   1.832   1.571   1.263   0.951
   0.677   0.472   0.349   0.301   0.309   0.343   0.376   0.391   0.382   0.354
   0.321   0.294
  -0.153  -0.127  -0.054   0.054   0.178   0.294   0.383   0.439   0.468   0.494
   0.541   0.631   0.768   0.941   1.127   1.299   1.437   1.525   1.555   1.525
   1.437   1.299   1.127   0.941   0.768   0.631   0.541   0.494   0.468   0.439
   0.383   0.294   0.178   0.054  -0.054  -0.127  -0.153  -0.127  -0.054   0.054
   0.178   0.294   0.383   0.439   0.468   0.494   0.541   0.631   0.768   0.941
   1.127   1.299   1.437   1.525   1.555   1.525   1.437   1.299   1.127   0.941
   0.768   0.631   0.541   0.494   0.468   0.439   0.383   0.294   0.178   0.054
  -0.054  -0.127
  -0.269  -0.251  -0.194  -0.101   0.021   0.156   0.283   0.387   0.466   0.536
   0.618   0.722   0.842   0.955   1.039   1.082   1.092   1.085   1.081   1.085
   1.092   1.082   1.039   0.955   0.842   0.722   0.618   0.536   0.466   0.387
   0.283   0.156   0.021  -0.101  -0.194  -0.251  -0.269  -0.251  -0.194  -0.101
   0.021   0.156   0.283   0.387   0.466   0.536   0.618   0.722   0.842   0.955
   1.039   1.082   1.092   1.085   1.081   1.085   1.092   1.082   1.039   0.955
   0.842   0.722   0.618   0.536   0.466   0.387   0.283   0.156   0.021  -0.101
  -0.194  -0.251
   0.592   0.569   0.510   0.447   0.407   0.403   0.425   0.457   0.491   0.538
   0.615   0.726   0.850   0.947   0.981   0.948   0.874   0.803   0.774   0.803
   0.874   0.948   0.981   0.947   0.850   0.726   0.615   0.538   0.491   0.457
   0.425   0.403   0.407   0.447   0.510   0.569   0.592   0.569   0.510   0.447
   0.407   0.403   0.425   0.457   0.491   0.538   0.615   0.726   0.850   0.947
   0.981   0.948   0.874   0.803   0.774   0.803   0.874   0.948   0.981   0.947
   0.850   0.726   0.615   0.538   0.491   0.457   0.425   0.403   0.407   0.447
   0.510   0.569
   2.321   2.233   1.996   1.684   1.377   1.128   0.948   0.818   0.719   0.656
   0.651   0.714   0.820   0.914   0.942   0.891   0.794   0.705   0.670   0.705
   0.794   0.891   0.942   0.914   0.820   0.714   0.651   0.656   0.719   0.818
   0.948   1.128   1.377   1.684   1.996   2.233   2.321   2.233   1.996   1.684
   1.377   1.128   0.948   0.818   0.719   0.656   0.651   0.714   0.820   0.914
   0.942   0.891   0.794   0.705   0.670   0.705   0.794   0.891   0.942   0.914
   0.820   0.714   0.651   0.656   0.719   0.818   0.948   1.128   1.377   1.684
   1.996   2.233
   3.901   3.761   3.385   2.880   2.368   1.936   1.605   1.345   1.119   0.921
   0.787   0.752   0.804   0.881   0.914   0.875   0.794   0.721   0.692   0.721
   0.794   0.875   0.914   0.881   0.804   0.752   0.787   0.921   1.119   1.345
   1.605   1.936   2.368   2.880   3.385   3.761   3.901   3.761   3.385   2.880
   2.368   1.936   1.605   1.345   1.119   0.921   0.787   0.752   0.804   0.881
   0.914   0.875   0.794   0.721   0.692   0.721   0.794   0.875   0.914   0.881
   0.804   0.752   0.787   0.921   1.119   1.345   1.605   1.936   2.368   2.880
   3.385   3.761
   4.130   3.993   3.626   3.137   2.653   2.257   1.965   1.729   1.485   1.217
   0.980   0.845   0.831   0.877   0.900   0.867   0.807   0.758   0.741   0.758
   0.807   0.867   0.900   0.877   0.831   0.845   0.980   1.217   1.485   1.729
   1.965   2.257   2.653   3.137   3.626   3.993   4.130   3.993   3.626   3.137
   2.653   2.257   1.965   1.729   1.485   1.217   0.980   0.845   0.831   0.877
   0.900   0.867   0.807   0.758   0.741   0.758   0.807   0.867   0.900   0.877
   0.831   0.845   0.980   1.217   1.485   1.729   1.965   2.257   2.653   3.137
   3.626   3.993
   2.723   2.649   2.455   2.213   2.001   1.865   1.800   1.743   1.615   1.388
   1.130   0.950   0.895   0.911   0.911   0.869   0.822   0.801   0.799   0.801
   0.822   0.869   0.911   0.911   0.895   0.950   1.130   1.388   1.615   1.743
   1.800   1.865   2.001   2.213   2.455   2.649   2.723   2.649   2.455   2.213
   2.001   1.865   1.800   1.743   1.615   1.388   1.130   0.950   0.895   0.911
   0.911   0.869   0.822   0.801   0.799   0.801   0.822   0.869   0.911   0.911
   0.895   0.950   1.130   1.388   1.615   1.743   1.800   1.865   2.001   2.213
   2.455   2.649
   0.709   0.715   0.743   0.809   0.921   1.077   1.259   1.414   1.461   1.357
   1.164   1.009   0.959   0.965   0.948   0.904   0.887   0.915   0.937   0.915
   0.887   0.904   0.948   0.965   0.959   1.009   1.164   1.357   1.461   1.414
   1.259   1.077   0.921   0.809   0.743   0.715   0.709   0.715   0.743   0.809
   0.921   1.077   1.259   1.414   1.461   1.357   1.164   1.009   0.959   0.965
   0.948   0.904   0.887   0.915   0.937   0.915   0.887   0.904   0.948   0.965
   0.959   1.009   1.164   1.357   1.461   1.414   1.259   1.077   0.921   0.809
   0.743   0.715
  -0.454  -0.406  -0.267  -0.055   0.190   0.442   0.701   0.953   1.128   1.160
   1.080   0.999   0.988   1.007   0.997   0.983   1.040   1.156   1.217   1.156
   1.040   0.983   0.997   1.007   0.988   0.999   1.080   1.160   1.128   0.953
   0.701   0.442   0.190  -0.055  -0.267  -0.406  -0.454  -0.406  -0.267  -0.055
   0.190   0.442   0.701   0.953   1.128   1.160   1.080   0.999   0.988   1.007
   0.997   0.983   1.040   1.156   1.217   1.156   1.040   0.983   0.997   1.007
   0.988   0.999   1.080   1.160   1.128   0.953   0.701   0.442   0.190  -0.055
  -0.267  -0.406
  -0.275  -0.242  -0.145  -0.010   0.120   0.231   0.370   0.572   0.786   0.915
   0.940   0.941   0.978   1.022   1.036   1.082   1.243   1.467   1.576   1.467
   1.243   1.082   1.036   1.022   0.978   0.941   0.940   0.915   0.786   0.572
   0.370   0.231   0.120  -0.010  -0.145  -0.242  -0.275  -0.242  -0.145  -0.010
   0.120   0.231   0.370   0.572   0.786   0.915   0.940   0.941   0.978   1.022
   1.036   1.082   1.243   1.467   1.576   1.467   1.243   1.082   1.036   1.022
   0.978   0.941   0.940   0.915   0.786   0.572   0.370   0.231   0.120  -0.010
  -0.145  -0.242
   0.373   0.375   0.382   0.382   0.342   0.273   0.259   0.374   0.578   0.752
   0.838   0.889   0.957   1.019   1.056   1.150   1.389   1.692   1.834   1.692
   1.389   1.150   1.056   1.019   0.957   0.889   0.838   0.752   0.578   0.374
   0.259   0.273   0.342   0.382   0.382   0.375   0.373   0.375   0.382   0.382
   0.342   0.273   0.259   0.374   0.578   0.752   0.838   0.889   0.957   1.019
   1.056   1.150   1.389   1.692   1.834   1.692   1.389   1.150   1.056   1.019
   0.957   0.889   0.838   0.752   0.578   0.374   0.259   0.273   0.342   0.382
   0.382   0.375
 200       5.00   72    0 5.00   18    0
   0.690   0.691   0.692   0.694   0.697   0.700   0.704   0.709   0.714   0.719
   0.724   0.729   0.734   0.738   0.742   0.745   0.747   0.748   0.749   0.748
   0.747   0.745   0.742   0.738   0.734   0.729   0.724   0.719   0.714   0.709
   0.704   0.700   0.697   0.694   0.692   0.691   0.690   0.691   0.692   0.694
   0.697   0.700   0.704   0.709   0.714   0.719   0.724   0.729   0.734   0.738
   0.742   0.745   0.747   0.748   0.749   0.748   0.747   0.745   0.742   0.738
   0.734   0.729   0.724   0.719   0.714   0.709   0.704   0.700   0.697   0.694
   0.692   0.691
   0.351   0.352   0.356   0.363   0.373   0.387   0.405   0.426   0.451   0.480
   0.512   0.545   0.578   0.611   0.641   0.666   0.685   0.697   0.701   0.697
   0.685   0.666   0.641   0.611   0.578   0.545   0.512   0.480   0.451   0.426
   0.405   0.387   0.373   0.363   0.356   0.352   0.351   0.352   0.356   0.363
   0.373   0.387   0.405   0.426   0.451   0.480   0.512   0.545   0.578   0.611
   0.641   0.666   0.685   0.697   0.701   0.697   0.685   0.666   0.641   0.611
   0.578   0.545   0.512   0.480   0.451   0.426   0.405   0.387   0.373   0.363
   0.356   0.352
   0.359   0.355   0.343   0.325   0.303   0.281   0.262   0.249   0.248   0.259
   0.285   0.325   0.378   0.438   0.500   0.558   0.605   0.636   0.646   0.636
   0.605   0.558   0.500   0.438   0.378   0.325   0.285   0.259   0.248   0.249
   0.262   0.281   0.303   0.325   0.343   0.355   0.359   0.355   0.343   0.325
   0.303   0.281   0.262   0.249   0.248   0.259   0.285   0.325   0.378   0.438
   0.500   0.558   0.605   0.636   0.646   0.636   0.605   0.558   0.500   0.438
   0.378   0.325   0.285   0.259   0.248   0.249   0.262   0.281   0.303   0.325
   0.343   0.355
   1.105   1.090   1.047   0.979   0.888   0.781   0.665   0.549   0.442   0.355
   0.297   0.274   0.288   0.334   0.403   0.480   0.551   0.601   0.619   0.601
   0.551   0.480   0.403   0.334   0.288   0.274   0.297   0.355   0.442   0.549
   0.665   0.781   0.888   0.979   1.047   1.090   1.105   1.090   1.047   0.979
   0.888   0.781   0.665   0.549   0.442   0.355   0.297   0.274   0.288   0.334
   0.403   0.480   0.551   0.601   0.619   0.601   0.551   0.480   0.403   0.334
   0.288   0.274   0.297   0.355   0.442   0.549   0.665   0.781   0.888   0.979
   1.047   1.090
   2.085   2.067   2.013   1.925   1.803   1.650   1.468   1.265   1.050   0.840
   0.652   0.505   0.415   0.386   0.411   0.473   0.545   0.601   0.622   0.601
   0.545   0.473   0.411   0.386   0.415   0.505   0.652   0.840   1.050   1.265
   1.468   1.650   1.803   1.925   2.013   2.067   2.085   2.067   2.013   1.925
   1.803   1.650   1.468   1.265   1.050   0.840   0.652   0.505   0.415   0.386
   0.411   0.473   0.545   0.601   0.622   0.601   0.545   0.473   0.411   0.386
   0.415   0.505   0.652   0.840   1.050   1.265   1.468   1.650   1.803   1.925
   2.013   2.067
   2.481   2.470   2.437   2.384   2.312   2.217   2.091   1.924   1.714   1.466
   1.202   0.951   0.744   0.607   0.547   0.551   0.592   0.635   0.652   0.635
   0.592   0.551   0.547   0.607   0.744   0.951   1.202   1.466   1.714   1.924
   2.091   2.217   2.312   2.384   2.437   2.470   2.481   2.470   2.437   2.384
   2.312   2.217   2.091   1.924   1.714   1.466   1.202   0.951   0.744   0.607
   0.547   0.551   0.592   0.635   0.652   0.635   0.592   0.551   0.547   0.607
   0.744   0.951   1.202   1.466   1.714   1.924   2.091   2.217   2.312   2.384
   2.437   2.470
   2.059   2.053   2.039   2.031   2.037   2.059   2.078   2.069   2.002   1.860
   1.649   1.395   1.140   0.926   0.783   0.713   0.700   0.712   0.719   0.712
   0.700   0.713   0.783   0.926   1.140   1.395   1.649   1.860   2.002   2.069
   2.078   2.059   2.037   2.031   2.039   2.053   2.059   2.053   2.039   2.031
   2.037   2.059   2.078   2.069   2.002   1.860   1.649   1.395   1.140   0.926
   0.783   0.713   0.700   0.712   0.719   0.712   0.700   0.713   0.783   0.926
   1.140   1.395   1.649   1.860   2.002   2.069   2.078   2.059   2.037   2.031
   2.039   2.053
   1.254   1.245   1.228   1.228   1.272   1.371   1.514   1.667   1.786   1.830
   1.778   1.637   1.438   1.227   1.048   0.925   0.859   0.833   0.828   0.833
   0.859   0.925   1.048   1.227   1.438   1.637   1.778   1.830   1.786   1.667
   1.514   1.371   1.272   1.228   1.228   1.245   1.254   1.245   1.228   1.228
   1.272   1.371   1.514   1.667   1.786   1.830   1.778   1.637   1.438   1.227
   1.048   0.925   0.859   0.833   0.828   0.833   0.859   0.925   1.048   1.227
   1.438   1.637   1.778   1.830   1.786   1.667   1.514   1.371   1.272   1.228
   1.228   1.245
   0.575   0.565   0.547   0.545   0.586   0.689   0.858   1.074   1.301   1.495
   1.614   1.633   1.557   1.415   1.253   1.111   1.013   0.960   0.943   0.960
   1.013   1.111   1.253   1.415   1.557   1.633   1.614   1.495   1.301   1.074
   0.858   0.689   0.586   0.545   0.547   0.565   0.575   0.565   0.547   0.545
   0.586   0.689   0.858   1.074   1.301   1.495   1.614   1.633   1.557   1.415
   1.253   1.111   1.013   0.960   0.943   0.960   1.013   1.111   1.253   1.415
   1.557   1.633   1.614   1.495   1.301   1.074   0.858   0.689   0.586   0.545
   0.547   0.565
   0.208   0.210   0.218   0.237   0.274   0.343   0.461   0.641   0.877   1.137
   1.366   1.510   1.541   1.469   1.337   1.198   1.090   1.028   1.008   1.028
   1.090   1.198   1.337   1.469   1.541   1.510   1.366   1.137   0.877   0.641
   0.461   0.343   0.274   0.237   0.218   0.210   0.208   0.210   0.218   0.237
   0.274   0.343   0.461   0.641   0.877   1.137   1.366   1.510   1.541   1.469
   1.337   1.198   1.090   1.028   1.008   1.028   1.090   1.198   1.337   1.469
   1.541   1.510   1.366   1.137   0.877   0.641   0.461   0.343   0.274   0.237
   0.218   0.210
   0.131   0.144   0.178   0.215   0.242   0.263   0.314   0.441   0.665   0.955
   1.237   1.432   1.494   1.433   1.300   1.160   1.060   1.009   0.995   1.009
   1.060   1.160   1.300   1.433   1.494   1.432   1.237   0.955   0.665   0.441
   0.314   0.263   0.242   0.215   0.178   0.144   0.131   0.144   0.178   0.215
   0.242   0.263   0.314   0.441   0.665   0.955   1.237   1.432   1.494   1.433
   1.300   1.160   1.060   1.009   0.995   1.009   1.060   1.160   1.300   1.433
   1.494   1.432   1.237   0.955   0.665   0.441   0.314   0.263   0.242   0.215
   0.178   0.144
   0.239   0.248   0.267   0.281   0.270   0.244   0.258   0.384   0.647   0.986
   1.291   1.466   1.477   1.359   1.187   1.039   0.957   0.933   0.931   0.933
   0.957   1.039   1.187   1.359   1.477   1.466   1.291   0.986   0.647   0.384
   0.258   0.244   0.270   0.281   0.267   0.248   0.239   0.248   0.267   0.281
   0.270   0.244   0.258   0.384   0.647   0.986   1.291   1.466   1.477   1.359
   1.187   1.039   0.957   0.933   0.931   0.933   0.957   1.039   1.187   1.359
   1.477   1.466   1.291   0.986   0.647   0.384   0.258   0.244   0.270   0.281
   0.267   0.248
   0.328   0.324   0.317   0.307   0.281   0.250   0.282   0.460   0.796   1.182
   1.464   1.550   1.453   1.254   1.045   0.900   0.845   0.852   0.864   0.852
   0.845   0.900   1.045   1.254   1.453   1.550   1.464   1.182   0.796   0.460
   0.282   0.250   0.281   0.307   0.317   0.324   0.328   0.324   0.317   0.307
   0.281   0.250   0.282   0.460   0.796   1.182   1.464   1.550   1.453   1.254
   1.045   0.900   0.845   0.852   0.864   0.852   0.845   0.900   1.045   1.254
   1.453   1.550   1.464   1.182   0.796   0.460   0.282   0.250   0.281   0.307
   0.317   0.324
   0.244   0.240   0.249   0.295   0.355   0.406   0.502   0.734   1.102   1.460
   1.633   1.568   1.349   1.099   0.899   0.785   0.762   0.792   0.813   0.792
   0.762   0.785   0.899   1.099   1.349   1.568   1.633   1.460   1.102   0.734
   0.502   0.406   0.355   0.295   0.249   0.240   0.244   0.240   0.249   0.295
   0.355   0.406   0.502   0.734   1.102   1.460   1.633   1.568   1.349   1.099
   0.899   0.785   0.762   0.792   0.813   0.792   0.762   0.785   0.899   1.099
   1.349   1.568   1.633   1.460   1.102   0.734   0.502   0.406   0.355   0.295
   0.249   0.240
   0.197   0.198   0.247   0.396   0.600   0.770   0.920   1.147   1.458   1.695
   1.689   1.450   1.140   0.902   0.768   0.710   0.710   0.743   0.764   0.743
   0.710   0.710   0.768   0.902   1.140   1.450   1.689   1.695   1.458   1.147
   0.920   0.770   0.600   0.396   0.247   0.198   0.197   0.198   0.247   0.396
   0.600   0.770   0.920   1.147   1.458   1.695   1.689   1.450   1.140   0.902
   0.768   0.710   0.710   0.743   0.764   0.743   0.710   0.710   0.768   0.902
   1.140   1.450   1.689   1.695   1.458   1.147   0.920   0.770   0.600   0.396
   0.247   0.198
   0.642   0.618   0.628   0.784   1.032   1.226   1.336   1.474   1.667   1.756
   1.583   1.215   0.877   0.711   0.675   0.673   0.676   0.693   0.704   0.693
   0.676   0.673   0.675   0.711   0.877   1.215   1.583   1.756   1.667   1.474
   1.336   1.226   1.032   0.784   0.628   0.618   0.642   0.618   0.628   0.784
   1.032   1.226   1.336   1.474   1.667   1.756   1.583   1.215   0.877   0.711
   0.675   0.673   0.676   0.693   0.704   0.693   0.676   0.673   0.675   0.711
   0.877   1.215   1.583   1.756   1.667   1.474   1.336   1.226   1.032   0.784
   0.628   0.618
   1.641   1.550   1.407   1.405   1.525   1.593   1.563   1.563   1.642   1.633
   1.372   0.958   0.651   0.577   0.631   0.666   0.655   0.644   0.643   0.644
   0.655   0.666   0.631   0.577   0.651   0.958   1.372   1.633   1.642   1.563
   1.563   1.593   1.525   1.405   1.407   1.550   1.641   1.550   1.407   1.405
   1.525   1.593   1.563   1.563   1.642   1.633   1.372   0.958   0.651   0.577
   0.631   0.666   0.655   0.644   0.643   0.644   0.655   0.666   0.631   0.577
   0.651   0.958   1.372   1.633   1.642   1.563   1.563   1.593   1.525   1.405
   1.407   1.550
   2.529   2.376   2.080   1.901   1.858   1.779   1.616   1.513   1.528   1.482
   1.202   0.792   0.525   0.515   0.621   0.670   0.645   0.614   0.604   0.614
   0.645   0.670   0.621   0.515   0.525   0.792   1.202   1.482   1.528   1.513
   1.616   1.779   1.858   1.901   2.080   2.376   2.529   2.376   2.080   1.901
   1.858   1.779   1.616   1.513   1.528   1.482   1.202   0.792   0.525   0.515
   0.621   0.670   0.645   0.614   0.604   0.614   0.645   0.670   0.621   0.515
   0.525   0.792   1.202   1.482   1.528   1.513   1.616   1.779   1.858   1.901
   2.080   2.376
 111       5.00   72    0 5.00   18    0
   0.162   0.162   0.164   0.168   0.172   0.177   0.183   0.190   0.197   0.205
   0.213   0.220   0.227   0.233   0.239   0.243   0.247   0.249   0.249   0.249
   0.247   0.243   0.239   0.233   0.227   0.220   0.213   0.205   0.197   0.190
   0.183   0.177   0.172   0.168   0.164   0.162   0.162   0.162   0.164   0.168
   0.172   0.177   0.183   0.190   0.197   0.205   0.213   0.220   0.227   0.233
   0.239   0.243   0.247   0.249   0.249   0.249   0.247   0.243   0.239   0.233
   0.227   0.220   0.213   0.205   0.197   0.190   0.183   0.177   0.172   0.168
   0.164   0.162
  -0.266  -0.263  -0.254  -0.240  -0.219  -0.192  -0.159  -0.121  -0.078  -0.032
   0.017   0.066   0.114   0.159   0.199   0.232   0.256   0.271   0.277   0.271
   0.256   0.232   0.199   0.159   0.114   0.066   0.017  -0.032  -0.078  -0.121
  -0.159  -0.192  -0.219  -0.240  -0.254  -0.263  -0.266  -0.263  -0.254  -0.240
  -0.219  -0.192  -0.159  -0.121  -0.078  -0.032   0.017   0.066   0.114   0.159
   0.199   0.232   0.256   0.271   0.277   0.271   0.256   0.232   0.199   0.159
   0.114   0.066   0.017  -0.032  -0.078  -0.121  -0.159  -0.192  -0.219  -0.240
  -0.254  -0.263
  -0.218  -0.222  -0.236  -0.255  -0.274  -0.290  -0.295  -0.287  -0.263  -0.223
  -0.167  -0.101  -0.028   0.045   0.114   0.173   0.219   0.247   0.257   0.247
   0.219   0.173   0.114   0.045  -0.028  -0.101  -0.167  -0.223  -0.263  -0.287
  -0.295  -0.290  -0.274  -0.255  -0.236  -0.222  -0.218  -0.222  -0.236  -0.255
  -0.274  -0.290  -0.295  -0.287  -0.263  -0.223  -0.167  -0.101  -0.028   0.045
   0.114   0.173   0.219   0.247   0.257   0.247   0.219   0.173   0.114   0.045
  -0.028  -0.101  -0.167  -0.223  -0.263  -0.287  -0.295  -0.290  -0.274  -0.255
  -0.236  -0.222
   1.045   1.012   0.918   0.774   0.599   0.412   0.235   0.084  -0.028  -0.095
  -0.119  -0.107  -0.068  -0.014   0.044   0.097   0.138   0.164   0.173   0.164
   0.138   0.097   0.044  -0.014  -0.068  -0.107  -0.119  -0.095  -0.028   0.084
   0.235   0.412   0.599   0.774   0.918   1.012   1.045   1.012   0.918   0.774
   0.599   0.412   0.235   0.084  -0.028  -0.095  -0.119  -0.107  -0.068  -0.014
   0.044   0.097   0.138   0.164   0.173   0.164   0.138   0.097   0.044  -0.014
  -0.068  -0.107  -0.119  -0.095  -0.028   0.084   0.235   0.412   0.599   0.774
   0.918   1.012
   3.090   3.021   2.823   2.516   2.134   1.715   1.299   0.921   0.607   0.370
   0.210   0.119   0.079   0.072   0.081   0.095   0.107   0.114   0.117   0.114
   0.107   0.095   0.081   0.072   0.079   0.119   0.210   0.370   0.607   0.921
   1.299   1.715   2.134   2.516   2.823   3.021   3.090   3.021   2.823   2.516
   2.134   1.715   1.299   0.921   0.607   0.370   0.210   0.119   0.079   0.072
   0.081   0.095   0.107   0.114   0.117   0.114   0.107   0.095   0.081   0.072
   0.079   0.119   0.210   0.370   0.607   0.921   1.299   1.715   2.134   2.516
   2.823   3.021
   4.511   4.433   4.205   3.846   3.387   2.866   2.327   1.811   1.353   0.976
   0.690   0.489   0.360   0.280   0.233   0.203   0.183   0.171   0.167   0.171
   0.183   0.203   0.233   0.280   0.360   0.489   0.690   0.976   1.353   1.811
   2.327   2.866   3.387   3.846   4.205   4.433   4.511   4.433   4.205   3.846
   3.387   2.866   2.327   1.811   1.353   0.976   0.690   0.489   0.360   0.280
   0.233   0.203   0.183   0.171   0.167   0.171   0.183   0.203   0.233   0.280
   0.360   0.489   0.690   0.976   1.353   1.811   2.327   2.866   3.387   3.846
   4.205   4.433
   4.214   4.175   4.057   3.858   3.579   3.227   2.817   2.373   1.927   1.510
   1.149   0.859   0.644   0.495   0.398   0.340   0.306   0.289   0.284   0.289
   0.306   0.340   0.398   0.495   0.644   0.859   1.149   1.510   1.927   2.373
   2.817   3.227   3.579   3.858   4.057   4.175   4.214   4.175   4.057   3.858
   3.579   3.227   2.817   2.373   1.927   1.510   1.149   0.859   0.644   0.495
   0.398   0.340   0.306   0.289   0.284   0.289   0.306   0.340   0.398   0.495
   0.644   0.859   1.149   1.510   1.927   2.373   2.817   3.227   3.579   3.858
   4.057   4.175
   2.482   2.506   2.570   2.648   2.706   2.708   2.623   2.440   2.167   1.834
   1.482   1.153   0.877   0.667   0.525   0.440   0.397   0.379   0.374   0.379
   0.397   0.440   0.525   0.667   0.877   1.153   1.482   1.834   2.167   2.440
   2.623   2.708   2.706   2.648   2.570   2.506   2.482   2.506   2.570   2.648
   2.706   2.708   2.623   2.440   2.167   1.834   1.482   1.153   0.877   0.667
   0.525   0.440   0.397   0.379   0.374   0.379   0.397   0.440   0.525   0.667
   0.877   1.153   1.482   1.834   2.167   2.440   2.623   2.708   2.706   2.648
   2.570   2.506
   0.675   0.731   0.891   1.132   1.417   1.696   1.916   2.028   2.010   1.870
   1.644   1.378   1.117   0.886   0.702   0.571   0.489   0.447   0.435   0.447
   0.489   0.571   0.702   0.886   1.117   1.378   1.644   1.870   2.010   2.028
   1.916   1.696   1.417   1.132   0.891   0.731   0.675   0.731   0.891   1.132
   1.417   1.696   1.916   2.028   2.010   1.870   1.644   1.378   1.117   0.886
   0.702   0.571   0.489   0.447   0.435   0.447   0.489   0.571   0.702   0.886
   1.117   1.378   1.644   1.870   2.010   2.028   1.916   1.696   1.417   1.132
   0.891   0.731
  -0.115  -0.083   0.014   0.183   0.425   0.726   1.046   1.327   1.520   1.606
   1.595   1.513   1.381   1.211   1.020   0.834   0.684   0.589   0.557   0.589
   0.684   0.834   1.020   1.211   1.381   1.513   1.595   1.606   1.520   1.327
   1.046   0.726   0.425   0.183   0.014  -0.083  -0.115  -0.083   0.014   0.183
   0.425   0.726   1.046   1.327   1.520   1.606   1.595   1.513   1.381   1.211
   1.020   0.834   0.684   0.589   0.557   0.589   0.684   0.834   1.020   1.211
   1.381   1.513   1.595   1.606   1.520   1.327   1.046   0.726   0.425   0.183
   0.014  -0.083
   0.033   0.020  -0.009  -0.022   0.024   0.165   0.394   0.668   0.930   1.151
   1.330   1.465   1.535   1.507   1.376   1.179   0.981   0.841   0.791   0.841
   0.981   1.179   1.376   1.507   1.535   1.465   1.330   1.151   0.930   0.668
   0.394   0.165   0.024  -0.022  -0.009   0.020   0.033   0.020  -0.009  -0.022
   0.024   0.165   0.394   0.668   0.930   1.151   1.330   1.465   1.535   1.507
   1.376   1.179   0.981   0.841   0.791   0.841   0.981   1.179   1.376   1.507
   1.535   1.465   1.330   1.151   0.930   0.668   0.394   0.165   0.024  -0.022
  -0.009   0.020
   0.283   0.258   0.187   0.094   0.028   0.043   0.154   0.329   0.521   0.720
   0.944   1.196   1.426   1.556   1.543   1.414   1.246   1.116   1.068   1.116
   1.246   1.414   1.543   1.556   1.426   1.196   0.944   0.720   0.521   0.329
   0.154   0.043   0.028   0.094   0.187   0.258   0.283   0.258   0.187   0.094
   0.028   0.043   0.154   0.329   0.521   0.720   0.944   1.196   1.426   1.556
   1.543   1.414   1.246   1.116   1.068   1.116   1.246   1.414   1.543   1.556
   1.426   1.196   0.944   0.720   0.521   0.329   0.154   0.043   0.028   0.094
   0.187   0.258
   0.157   0.154   0.136   0.104   0.082   0.110   0.198   0.308   0.402   0.490
   0.627   0.845   1.107   1.324   1.429   1.422   1.358   1.297   1.274   1.297
   1.358   1.422   1.429   1.324   1.107   0.845   0.627   0.490   0.402   0.308
   0.198   0.110   0.082   0.104   0.136   0.154   0.157   0.154   0.136   0.104
   0.082   0.110   0.198   0.308   0.402   0.490   0.627   0.845   1.107   1.324
   1.429   1.422   1.358   1.297   1.274   1.297   1.358   1.422   1.429   1.324
   1.107   0.845   0.627   0.490   0.402   0.308   0.198   0.110   0.082   0.104
   0.136   0.154
  -0.018  -0.011   0.003   0.019   0.059   0.146   0.274   0.395   0.464   0.489
   0.530   0.639   0.817   1.016   1.181   1.286   1.337   1.356   1.360   1.356
   1.337   1.286   1.181   1.016   0.817   0.639   0.530   0.489   0.464   0.395
   0.274   0.146   0.059   0.019   0.003  -0.011  -0.018  -0.011   0.003   0.019
   0.059   0.146   0.274   0.395   0.464   0.489   0.530   0.639   0.817   1.016
   1.181   1.286   1.337   1.356   1.360   1.356   1.337   1.286   1.181   1.016
   0.817   0.639   0.530   0.489   0.464   0.395   0.274   0.146   0.059   0.019
   0.003  -0.011
   0.336   0.312   0.255   0.200   0.192   0.251   0.362   0.481   0.571   0.620
   0.641   0.662   0.720   0.836   1.001   1.166   1.283   1.337   1.350   1.337
   1.283   1.166   1.001   0.836   0.720   0.662   0.641   0.620   0.571   0.481
   0.362   0.251   0.192   0.200   0.255   0.312   0.336   0.312   0.255   0.200
   0.192   0.251   0.362   0.481   0.571   0.620   0.641   0.662   0.720   0.836
   1.001   1.166   1.283   1.337   1.350   1.337   1.283   1.166   1.001   0.836
   0.720   0.662   0.641   0.620   0.571   0.481   0.362   0.251   0.192   0.200
   0.255   0.312
   1.311   1.241   1.072   0.895   0.773   0.709   0.678   0.676   0.715   0.780
   0.818   0.793   0.751   0.787   0.937   1.127   1.251   1.284   1.281   1.284
   1.251   1.127   0.937   0.787   0.751   0.793   0.818   0.780   0.715   0.676
   0.678   0.709   0.773   0.895   1.072   1.241   1.311   1.241   1.072   0.895
   0.773   0.709   0.678   0.676   0.715   0.780   0.818   0.793   0.751   0.787
   0.937   1.127   1.251   1.284   1.281   1.284   1.251   1.127   0.937   0.787
   0.751   0.793   0.818   0.780   0.715   0.676   0.678   0.709   0.773   0.895
   1.072   1.241
   2.447   2.351   2.127   1.895   1.707   1.516   1.278   1.043   0.914   0.912
   0.932   0.871   0.766   0.759   0.914   1.124   1.233   1.217   1.187   1.217
   1.233   1.124   0.914   0.759   0.766   0.871   0.932   0.912   0.914   1.043
   1.278   1.516   1.707   1.895   2.127   2.351   2.447   2.351   2.127   1.895
   1.707   1.516   1.278   1.043   0.914   0.912   0.932   0.871   0.766   0.759
   0.914   1.124   1.233   1.217   1.187   1.217   1.233   1.124   0.914   0.759
   0.766   0.871   0.932   0.912   0.914   1.043   1.278   1.516   1.707   1.895
   2.127   2.351
   3.175   3.077   2.855   2.637   2.445   2.187   1.798   1.371   1.081   0.987
   0.966   0.876   0.740   0.721   0.893   1.121   1.218   1.166   1.117   1.166
   1.218   1.121   0.893   0.721   0.740   0.876   0.966   0.987   1.081   1.371
   1.798   2.187   2.445   2.637   2.855   3.077   3.175   3.077   2.855   2.637
   2.445   2.187   1.798   1.371   1.081   0.987   0.966   0.876   0.740   0.721
   0.893   1.121   1.218   1.166   1.117   1.166   1.218   1.121   0.893   0.721
   0.740   0.876   0.966   0.987   1.081   1.371   1.798   2.187   2.445   2.637
   2.855   3.077
TEXTURE_INDEX=   3.2396
ERR_CF 220         1080     494   33.40   23.25
ERR_CF 200         1080     368   20.68    8.68
ERR_CF 111         1080     298   53.21   10.36
