TEXEVAL                                                                         
Analysis started on 31-Aug-18 12:06:33                                          
 LMAX=16LFMAX=03 CUBIC ORTHO   
 220      5.00 5.00
 200      5.00 5.00
 111      5.00 5.00
 220       5.00   72    0 5.00   15    0
   5.426   5.426   5.426   5.426   5.426   5.426   5.426   5.426   5.426   5.426
   5.426   5.426   5.426   5.426   5.426   5.426   5.426   5.426   5.426   5.426
   5.426   5.426   5.426   5.426   5.426   5.426   5.426   5.426   5.426   5.426
   5.426   5.426   5.426   5.426   5.426   5.426   5.426   5.426   5.426   5.426
   5.426   5.426   5.426   5.426   5.426   5.426   5.426   5.426   5.426   5.426
   5.426   5.426   5.426   5.426   5.426   5.426   5.426   5.426   5.426   5.426
   5.426   5.426   5.426   5.426   5.426   5.426   5.426   5.426   5.426   5.426
   5.426   5.426
   1.872   1.847   1.904   1.982   2.057   2.182   2.318   2.555   2.726   3.122
   3.307   3.679   4.054   4.547   4.928   5.354   5.769   5.950   6.006   5.950
   5.769   5.354   4.928   4.547   4.054   3.679   3.307   3.122   2.726   2.555
   2.318   2.182   2.057   1.982   1.904   1.847   1.872   1.847   1.904   1.982
   2.057   2.182   2.318   2.555   2.726   3.122   3.307   3.679   4.054   4.547
   4.928   5.354   5.769   5.950   6.006   5.950   5.769   5.354   4.928   4.547
   4.054   3.679   3.307   3.122   2.726   2.555   2.318   2.182   2.057   1.982
   1.904   1.847
   0.531   0.558   0.543   0.590   0.632   0.688   0.799   0.942   1.112   1.322
   1.584   1.985   2.430   3.034   3.638   4.311   4.845   5.210   5.331   5.210
   4.845   4.311   3.638   3.034   2.430   1.985   1.584   1.322   1.112   0.942
   0.799   0.688   0.632   0.590   0.543   0.558   0.531   0.558   0.543   0.590
   0.632   0.688   0.799   0.942   1.112   1.322   1.584   1.985   2.430   3.034
   3.638   4.311   4.845   5.210   5.331   5.210   4.845   4.311   3.638   3.034
   2.430   1.985   1.584   1.322   1.112   0.942   0.799   0.688   0.632   0.590
   0.543   0.558
   0.295   0.337   0.326   0.322   0.368   0.369   0.422   0.489   0.548   0.650
   0.842   1.163   1.557   2.090   2.762   3.574   4.202   4.602   4.856   4.602
   4.202   3.574   2.762   2.090   1.557   1.163   0.842   0.650   0.548   0.489
   0.422   0.369   0.368   0.322   0.326   0.337   0.295   0.337   0.326   0.322
   0.368   0.369   0.422   0.489   0.548   0.650   0.842   1.163   1.557   2.090
   2.762   3.574   4.202   4.602   4.856   4.602   4.202   3.574   2.762   2.090
   1.557   1.163   0.842   0.650   0.548   0.489   0.422   0.369   0.368   0.322
   0.326   0.337
   0.272   0.286   0.300   0.309   0.331   0.340   0.351   0.372   0.390   0.495
   0.610   0.855   1.132   1.577   2.179   2.934   3.607   4.105   4.299   4.105
   3.607   2.934   2.179   1.577   1.132   0.855   0.610   0.495   0.390   0.372
   0.351   0.340   0.331   0.309   0.300   0.286   0.272   0.286   0.300   0.309
   0.331   0.340   0.351   0.372   0.390   0.495   0.610   0.855   1.132   1.577
   2.179   2.934   3.607   4.105   4.299   4.105   3.607   2.934   2.179   1.577
   1.132   0.855   0.610   0.495   0.390   0.372   0.351   0.340   0.331   0.309
   0.300   0.286
   0.264   0.279   0.286   0.333   0.338   0.365   0.366   0.415   0.448   0.507
   0.588   0.793   1.042   1.411   1.886   2.542   3.043   3.461   3.678   3.461
   3.043   2.542   1.886   1.411   1.042   0.793   0.588   0.507   0.448   0.415
   0.366   0.365   0.338   0.333   0.286   0.279   0.264   0.279   0.286   0.333
   0.338   0.365   0.366   0.415   0.448   0.507   0.588   0.793   1.042   1.411
   1.886   2.542   3.043   3.461   3.678   3.461   3.043   2.542   1.886   1.411
   1.042   0.793   0.588   0.507   0.448   0.415   0.366   0.365   0.338   0.333
   0.286   0.279
   0.246   0.252   0.263   0.310   0.320   0.373   0.423   0.425   0.465   0.558
   0.635   0.783   1.003   1.352   1.757   2.315   2.538   2.677   2.673   2.677
   2.538   2.315   1.757   1.352   1.003   0.783   0.635   0.558   0.465   0.425
   0.423   0.373   0.320   0.310   0.263   0.252   0.246   0.252   0.263   0.310
   0.320   0.373   0.423   0.425   0.465   0.558   0.635   0.783   1.003   1.352
   1.757   2.315   2.538   2.677   2.673   2.677   2.538   2.315   1.757   1.352
   1.003   0.783   0.635   0.558   0.465   0.425   0.423   0.373   0.320   0.310
   0.263   0.252
   0.296   0.253   0.246   0.281   0.247   0.363   0.408   0.412   0.423   0.537
   0.669   0.786   0.937   1.305   1.672   1.997   2.027   1.959   1.693   1.959
   2.027   1.997   1.672   1.305   0.937   0.786   0.669   0.537   0.423   0.412
   0.408   0.363   0.247   0.281   0.246   0.253   0.296   0.253   0.246   0.281
   0.247   0.363   0.408   0.412   0.423   0.537   0.669   0.786   0.937   1.305
   1.672   1.997   2.027   1.959   1.693   1.959   2.027   1.997   1.672   1.305
   0.937   0.786   0.669   0.537   0.423   0.412   0.408   0.363   0.247   0.281
   0.246   0.253
   0.362   0.248   0.279   0.350   0.287   0.340   0.373   0.404   0.471   0.473
   0.644   0.771   0.909   1.255   1.568   1.617   1.602   1.440   1.243   1.440
   1.602   1.617   1.568   1.255   0.909   0.771   0.644   0.473   0.471   0.404
   0.373   0.340   0.287   0.350   0.279   0.248   0.362   0.248   0.279   0.350
   0.287   0.340   0.373   0.404   0.471   0.473   0.644   0.771   0.909   1.255
   1.568   1.617   1.602   1.440   1.243   1.440   1.602   1.617   1.568   1.255
   0.909   0.771   0.644   0.473   0.471   0.404   0.373   0.340   0.287   0.350
   0.279   0.248
   0.607   0.460   0.509   0.530   0.548   0.438   0.501   0.519   0.608   0.463
   0.596   0.692   0.888   1.218   1.418   1.356   1.191   1.074   0.848   1.074
   1.191   1.356   1.418   1.218   0.888   0.692   0.596   0.463   0.608   0.519
   0.501   0.438   0.548   0.530   0.509   0.460   0.607   0.460   0.509   0.530
   0.548   0.438   0.501   0.519   0.608   0.463   0.596   0.692   0.888   1.218
   1.418   1.356   1.191   1.074   0.848   1.074   1.191   1.356   1.418   1.218
   0.888   0.692   0.596   0.463   0.608   0.519   0.501   0.438   0.548   0.530
   0.509   0.460
   1.841   1.603   1.333   1.156   0.979   0.742   0.773   0.717   0.734   0.558
   0.519   0.634   0.806   1.209   1.384   1.238   0.884   0.692   0.634   0.692
   0.884   1.238   1.384   1.209   0.806   0.634   0.519   0.558   0.734   0.717
   0.773   0.742   0.979   1.156   1.333   1.603   1.841   1.603   1.333   1.156
   0.979   0.742   0.773   0.717   0.734   0.558   0.519   0.634   0.806   1.209
   1.384   1.238   0.884   0.692   0.634   0.692   0.884   1.238   1.384   1.209
   0.806   0.634   0.519   0.558   0.734   0.717   0.773   0.742   0.979   1.156
   1.333   1.603
   4.738   4.170   3.388   2.511   1.876   1.448   1.218   0.965   0.860   0.778
   0.588   0.645   0.721   0.992   1.230   1.059   0.763   0.474   0.562   0.474
   0.763   1.059   1.230   0.992   0.721   0.645   0.588   0.778   0.860   0.965
   1.218   1.448   1.876   2.511   3.388   4.170   4.738   4.170   3.388   2.511
   1.876   1.448   1.218   0.965   0.860   0.778   0.588   0.645   0.721   0.992
   1.230   1.059   0.763   0.474   0.562   0.474   0.763   1.059   1.230   0.992
   0.721   0.645   0.588   0.778   0.860   0.965   1.218   1.448   1.876   2.511
   3.388   4.170
   5.124   4.763   4.070   2.965   2.081   1.927   1.592   1.357   1.012   0.814
   0.814   0.718   0.675   0.784   1.048   0.914   0.634   0.397   0.499   0.397
   0.634   0.914   1.048   0.784   0.675   0.718   0.814   0.814   1.012   1.357
   1.592   1.927   2.081   2.965   4.070   4.763   5.124   4.763   4.070   2.965
   2.081   1.927   1.592   1.357   1.012   0.814   0.814   0.718   0.675   0.784
   1.048   0.914   0.634   0.397   0.499   0.397   0.634   0.914   1.048   0.784
   0.675   0.718   0.814   0.814   1.012   1.357   1.592   1.927   2.081   2.965
   4.070   4.763
   2.267   2.253   2.044   1.659   1.151   1.503   1.474   1.500   1.168   0.999
   0.894   0.736   0.579   0.842   0.778   0.950   0.626   0.552   0.421   0.552
   0.626   0.950   0.778   0.842   0.579   0.736   0.894   0.999   1.168   1.500
   1.474   1.503   1.151   1.659   2.044   2.253   2.267   2.253   2.044   1.659
   1.151   1.503   1.474   1.500   1.168   0.999   0.894   0.736   0.579   0.842
   0.778   0.950   0.626   0.552   0.421   0.552   0.626   0.950   0.778   0.842
   0.579   0.736   0.894   0.999   1.168   1.500   1.474   1.503   1.151   1.659
   2.044   2.253
   0.526   0.510   0.470   0.457   0.512   0.681   0.859   1.028   1.144   1.230
   0.851   0.856   0.541   0.842   0.703   1.000   0.715   0.728   0.536   0.728
   0.715   1.000   0.703   0.842   0.541   0.856   0.851   1.230   1.144   1.028
   0.859   0.681   0.512   0.457   0.470   0.510   0.526   0.510   0.470   0.457
   0.512   0.681   0.859   1.028   1.144   1.230   0.851   0.856   0.541   0.842
   0.703   1.000   0.715   0.728   0.536   0.728   0.715   1.000   0.703   0.842
   0.541   0.856   0.851   1.230   1.144   1.028   0.859   0.681   0.512   0.457
   0.470   0.510
 200       5.00   72    0 5.00   15    0
   0.330   0.330   0.330   0.330   0.330   0.330   0.330   0.330   0.330   0.330
   0.330   0.330   0.330   0.330   0.330   0.330   0.330   0.330   0.330   0.330
   0.330   0.330   0.330   0.330   0.330   0.330   0.330   0.330   0.330   0.330
   0.330   0.330   0.330   0.330   0.330   0.330   0.330   0.330   0.330   0.330
   0.330   0.330   0.330   0.330   0.330   0.330   0.330   0.330   0.330   0.330
   0.330   0.330   0.330   0.330   0.330   0.330   0.330   0.330   0.330   0.330
   0.330   0.330   0.330   0.330   0.330   0.330   0.330   0.330   0.330   0.330
   0.330   0.330
   0.476   0.460   0.478   0.473   0.474   0.445   0.455   0.441   0.427   0.425
   0.410   0.404   0.414   0.409   0.403   0.401   0.378   0.385   0.404   0.385
   0.378   0.401   0.403   0.409   0.414   0.404   0.410   0.425   0.427   0.441
   0.455   0.445   0.474   0.473   0.478   0.460   0.476   0.460   0.478   0.473
   0.474   0.445   0.455   0.441   0.427   0.425   0.410   0.404   0.414   0.409
   0.403   0.401   0.378   0.385   0.404   0.385   0.378   0.401   0.403   0.409
   0.414   0.404   0.410   0.425   0.427   0.441   0.455   0.445   0.474   0.473
   0.478   0.460
   0.729   0.656   0.676   0.653   0.639   0.599   0.588   0.576   0.536   0.490
   0.497   0.464   0.468   0.461   0.438   0.446   0.413   0.419   0.416   0.419
   0.413   0.446   0.438   0.461   0.468   0.464   0.497   0.490   0.536   0.576
   0.588   0.599   0.639   0.653   0.676   0.656   0.729   0.656   0.676   0.653
   0.639   0.599   0.588   0.576   0.536   0.490   0.497   0.464   0.468   0.461
   0.438   0.446   0.413   0.419   0.416   0.419   0.413   0.446   0.438   0.461
   0.468   0.464   0.497   0.490   0.536   0.576   0.588   0.599   0.639   0.653
   0.676   0.656
   1.159   1.130   1.076   1.045   1.013   0.931   0.875   0.799   0.728   0.632
   0.595   0.582   0.540   0.516   0.479   0.486   0.455   0.466   0.448   0.466
   0.455   0.486   0.479   0.516   0.540   0.582   0.595   0.632   0.728   0.799
   0.875   0.931   1.013   1.045   1.076   1.130   1.159   1.130   1.076   1.045
   1.013   0.931   0.875   0.799   0.728   0.632   0.595   0.582   0.540   0.516
   0.479   0.486   0.455   0.466   0.448   0.466   0.455   0.486   0.479   0.516
   0.540   0.582   0.595   0.632   0.728   0.799   0.875   0.931   1.013   1.045
   1.076   1.130
   2.005   2.063   2.017   1.861   1.763   1.559   1.413   1.217   1.109   0.936
   0.773   0.741   0.623   0.583   0.554   0.539   0.512   0.539   0.484   0.539
   0.512   0.539   0.554   0.583   0.623   0.741   0.773   0.936   1.109   1.217
   1.413   1.559   1.763   1.861   2.017   2.063   2.005   2.063   2.017   1.861
   1.763   1.559   1.413   1.217   1.109   0.936   0.773   0.741   0.623   0.583
   0.554   0.539   0.512   0.539   0.484   0.539   0.512   0.539   0.554   0.583
   0.623   0.741   0.773   0.936   1.109   1.217   1.413   1.559   1.763   1.861
   2.017   2.063
   2.741   2.877   2.907   2.751   2.683   2.515   2.224   2.047   1.733   1.466
   1.139   0.980   0.783   0.752   0.643   0.635   0.577   0.592   0.598   0.592
   0.577   0.635   0.643   0.752   0.783   0.980   1.139   1.466   1.733   2.047
   2.224   2.515   2.683   2.751   2.907   2.877   2.741   2.877   2.907   2.751
   2.683   2.515   2.224   2.047   1.733   1.466   1.139   0.980   0.783   0.752
   0.643   0.635   0.577   0.592   0.598   0.592   0.577   0.635   0.643   0.752
   0.783   0.980   1.139   1.466   1.733   2.047   2.224   2.515   2.683   2.751
   2.907   2.877
   2.129   2.243   2.251   2.364   2.433   2.593   2.493   2.576   2.413   2.174
   1.709   1.441   1.139   1.019   0.865   0.780   0.720   0.726   0.748   0.726
   0.720   0.780   0.865   1.019   1.139   1.441   1.709   2.174   2.413   2.576
   2.493   2.593   2.433   2.364   2.251   2.243   2.129   2.243   2.251   2.364
   2.433   2.593   2.493   2.576   2.413   2.174   1.709   1.441   1.139   1.019
   0.865   0.780   0.720   0.726   0.748   0.726   0.720   0.780   0.865   1.019
   1.139   1.441   1.709   2.174   2.413   2.576   2.493   2.593   2.433   2.364
   2.251   2.243
   0.905   0.924   0.952   1.069   1.190   1.466   1.689   2.067   2.419   2.448
   2.282   1.945   1.603   1.337   1.143   0.969   0.884   0.828   0.855   0.828
   0.884   0.969   1.143   1.337   1.603   1.945   2.282   2.448   2.419   2.067
   1.689   1.466   1.190   1.069   0.952   0.924   0.905   0.924   0.952   1.069
   1.190   1.466   1.689   2.067   2.419   2.448   2.282   1.945   1.603   1.337
   1.143   0.969   0.884   0.828   0.855   0.828   0.884   0.969   1.143   1.337
   1.603   1.945   2.282   2.448   2.419   2.067   1.689   1.466   1.190   1.069
   0.952   0.924
   0.357   0.366   0.380   0.413   0.502   0.581   0.783   1.155   1.571   1.928
   2.236   2.070   1.913   1.545   1.377   1.097   0.957   0.925   0.954   0.925
   0.957   1.097   1.377   1.545   1.913   2.070   2.236   1.928   1.571   1.155
   0.783   0.581   0.502   0.413   0.380   0.366   0.357   0.366   0.380   0.413
   0.502   0.581   0.783   1.155   1.571   1.928   2.236   2.070   1.913   1.545
   1.377   1.097   0.957   0.925   0.954   0.925   0.957   1.097   1.377   1.545
   1.913   2.070   2.236   1.928   1.571   1.155   0.783   0.581   0.502   0.413
   0.380   0.366
   0.240   0.220   0.173   0.245   0.280   0.292   0.373   0.566   0.845   1.231
   1.766   1.882   1.836   1.530   1.328   1.053   0.996   1.012   0.998   1.012
   0.996   1.053   1.328   1.530   1.836   1.882   1.766   1.231   0.845   0.566
   0.373   0.292   0.280   0.245   0.173   0.220   0.240   0.220   0.173   0.245
   0.280   0.292   0.373   0.566   0.845   1.231   1.766   1.882   1.836   1.530
   1.328   1.053   0.996   1.012   0.998   1.012   0.996   1.053   1.328   1.530
   1.836   1.882   1.766   1.231   0.845   0.566   0.373   0.292   0.280   0.245
   0.173   0.220
   0.190   0.145   0.144   0.171   0.155   0.244   0.282   0.359   0.584   0.922
   1.381   1.717   1.657   1.327   1.109   0.967   0.917   0.895   0.948   0.895
   0.917   0.967   1.109   1.327   1.657   1.717   1.381   0.922   0.584   0.359
   0.282   0.244   0.155   0.171   0.144   0.145   0.190   0.145   0.144   0.171
   0.155   0.244   0.282   0.359   0.584   0.922   1.381   1.717   1.657   1.327
   1.109   0.967   0.917   0.895   0.948   0.895   0.917   0.967   1.109   1.327
   1.657   1.717   1.381   0.922   0.584   0.359   0.282   0.244   0.155   0.171
   0.144   0.145
   0.130   0.132   0.135   0.165   0.164   0.226   0.254   0.264   0.547   0.835
   1.224   1.597   1.527   1.103   0.999   0.902   0.772   0.760   0.728   0.760
   0.772   0.902   0.999   1.103   1.527   1.597   1.224   0.835   0.547   0.264
   0.254   0.226   0.164   0.165   0.135   0.132   0.130   0.132   0.135   0.165
   0.164   0.226   0.254   0.264   0.547   0.835   1.224   1.597   1.527   1.103
   0.999   0.902   0.772   0.760   0.728   0.760   0.772   0.902   0.999   1.103
   1.527   1.597   1.224   0.835   0.547   0.264   0.254   0.226   0.164   0.165
   0.135   0.132
   0.089   0.117   0.112   0.201   0.199   0.187   0.292   0.342   0.670   0.850
   1.324   1.440   1.219   0.809   0.780   0.726   0.655   0.652   0.599   0.652
   0.655   0.726   0.780   0.809   1.219   1.440   1.324   0.850   0.670   0.342
   0.292   0.187   0.199   0.201   0.112   0.117   0.089   0.117   0.112   0.201
   0.199   0.187   0.292   0.342   0.670   0.850   1.324   1.440   1.219   0.809
   0.780   0.726   0.655   0.652   0.599   0.652   0.655   0.726   0.780   0.809
   1.219   1.440   1.324   0.850   0.670   0.342   0.292   0.187   0.199   0.201
   0.112   0.117
   0.168   0.205   0.175   0.230   0.210   0.323   0.387   0.536   0.781   1.071
   1.463   1.182   0.894   0.533   0.562   0.548   0.501   0.524   0.636   0.524
   0.501   0.548   0.562   0.533   0.894   1.182   1.463   1.071   0.781   0.536
   0.387   0.323   0.210   0.230   0.175   0.205   0.168   0.205   0.175   0.230
   0.210   0.323   0.387   0.536   0.781   1.071   1.463   1.182   0.894   0.533
   0.562   0.548   0.501   0.524   0.636   0.524   0.501   0.548   0.562   0.533
   0.894   1.182   1.463   1.071   0.781   0.536   0.387   0.323   0.210   0.230
   0.175   0.205
   0.196   0.319   0.263   0.338   0.394   0.502   0.432   0.648   0.933   1.351
   1.319   0.934   0.552   0.470   0.420   0.400   0.362   0.411   0.551   0.411
   0.362   0.400   0.420   0.470   0.552   0.934   1.319   1.351   0.933   0.648
   0.432   0.502   0.394   0.338   0.263   0.319   0.196   0.319   0.263   0.338
   0.394   0.502   0.432   0.648   0.933   1.351   1.319   0.934   0.552   0.470
   0.420   0.400   0.362   0.411   0.551   0.411   0.362   0.400   0.420   0.470
   0.552   0.934   1.319   1.351   0.933   0.648   0.432   0.502   0.394   0.338
   0.263   0.319
 111       5.00   72    0 5.00   15    0
   0.068   0.068   0.068   0.068   0.068   0.068   0.068   0.068   0.068   0.068
   0.068   0.068   0.068   0.068   0.068   0.068   0.068   0.068   0.068   0.068
   0.068   0.068   0.068   0.068   0.068   0.068   0.068   0.068   0.068   0.068
   0.068   0.068   0.068   0.068   0.068   0.068   0.068   0.068   0.068   0.068
   0.068   0.068   0.068   0.068   0.068   0.068   0.068   0.068   0.068   0.068
   0.068   0.068   0.068   0.068   0.068   0.068   0.068   0.068   0.068   0.068
   0.068   0.068   0.068   0.068   0.068   0.068   0.068   0.068   0.068   0.068
   0.068   0.068
   0.122   0.114   0.115   0.109   0.114   0.107   0.104   0.098   0.093   0.093
   0.102   0.087   0.093   0.087   0.089   0.085   0.078   0.083   0.085   0.083
   0.078   0.085   0.089   0.087   0.093   0.087   0.102   0.093   0.093   0.098
   0.104   0.107   0.114   0.109   0.115   0.114   0.122   0.114   0.115   0.109
   0.114   0.107   0.104   0.098   0.093   0.093   0.102   0.087   0.093   0.087
   0.089   0.085   0.078   0.083   0.085   0.083   0.078   0.085   0.089   0.087
   0.093   0.087   0.102   0.093   0.093   0.098   0.104   0.107   0.114   0.109
   0.115   0.114
   0.263   0.264   0.253   0.234   0.224   0.212   0.179   0.172   0.141   0.130
   0.135   0.112   0.116   0.104   0.095   0.093   0.089   0.086   0.096   0.086
   0.089   0.093   0.095   0.104   0.116   0.112   0.135   0.130   0.141   0.172
   0.179   0.212   0.224   0.234   0.253   0.264   0.263   0.264   0.253   0.234
   0.224   0.212   0.179   0.172   0.141   0.130   0.135   0.112   0.116   0.104
   0.095   0.093   0.089   0.086   0.096   0.086   0.089   0.093   0.095   0.104
   0.116   0.112   0.135   0.130   0.141   0.172   0.179   0.212   0.224   0.234
   0.253   0.264
   1.071   1.032   0.950   0.815   0.658   0.532   0.427   0.345   0.267   0.217
   0.198   0.160   0.141   0.136   0.112   0.113   0.097   0.097   0.101   0.097
   0.097   0.113   0.112   0.136   0.141   0.160   0.198   0.217   0.267   0.345
   0.427   0.532   0.658   0.815   0.950   1.032   1.071   1.032   0.950   0.815
   0.658   0.532   0.427   0.345   0.267   0.217   0.198   0.160   0.141   0.136
   0.112   0.113   0.097   0.097   0.101   0.097   0.097   0.113   0.112   0.136
   0.141   0.160   0.198   0.217   0.267   0.345   0.427   0.532   0.658   0.815
   0.950   1.032
   3.589   3.406   3.101   2.591   2.111   1.531   1.218   0.829   0.582   0.414
   0.313   0.230   0.197   0.155   0.127   0.114   0.095   0.096   0.082   0.096
   0.095   0.114   0.127   0.155   0.197   0.230   0.313   0.414   0.582   0.829
   1.218   1.531   2.111   2.591   3.101   3.406   3.589   3.406   3.101   2.591
   2.111   1.531   1.218   0.829   0.582   0.414   0.313   0.230   0.197   0.155
   0.127   0.114   0.095   0.096   0.082   0.096   0.095   0.114   0.127   0.155
   0.197   0.230   0.313   0.414   0.582   0.829   1.218   1.531   2.111   2.591
   3.101   3.406
   5.516   5.326   5.051   4.416   3.904   3.145   2.571   1.800   1.247   0.812
   0.577   0.402   0.296   0.215   0.165   0.130   0.113   0.113   0.092   0.113
   0.113   0.130   0.165   0.215   0.296   0.402   0.577   0.812   1.247   1.800
   2.571   3.145   3.904   4.416   5.051   5.326   5.516   5.326   5.051   4.416
   3.904   3.145   2.571   1.800   1.247   0.812   0.577   0.402   0.296   0.215
   0.165   0.130   0.113   0.113   0.092   0.113   0.113   0.130   0.165   0.215
   0.296   0.402   0.577   0.812   1.247   1.800   2.571   3.145   3.904   4.416
   5.051   5.326
   4.471   4.432   4.400   4.197   4.070   3.751   3.318   2.686   2.038   1.487
   1.063   0.752   0.500   0.373   0.269   0.206   0.203   0.185   0.163   0.185
   0.203   0.206   0.269   0.373   0.500   0.752   1.063   1.487   2.038   2.686
   3.318   3.751   4.070   4.197   4.400   4.432   4.471   4.432   4.400   4.197
   4.070   3.751   3.318   2.686   2.038   1.487   1.063   0.752   0.500   0.373
   0.269   0.206   0.203   0.185   0.163   0.185   0.203   0.206   0.269   0.373
   0.500   0.752   1.063   1.487   2.038   2.686   3.318   3.751   4.070   4.197
   4.400   4.432
   2.261   2.291   2.348   2.520   2.728   2.823   2.840   2.709   2.359   2.057
   1.519   1.117   0.779   0.582   0.412   0.315   0.310   0.268   0.243   0.268
   0.310   0.315   0.412   0.582   0.779   1.117   1.519   2.057   2.359   2.709
   2.840   2.823   2.728   2.520   2.348   2.291   2.261   2.291   2.348   2.520
   2.728   2.823   2.840   2.709   2.359   2.057   1.519   1.117   0.779   0.582
   0.412   0.315   0.310   0.268   0.243   0.268   0.310   0.315   0.412   0.582
   0.779   1.117   1.519   2.057   2.359   2.709   2.840   2.823   2.728   2.520
   2.348   2.291
   0.775   0.831   0.894   1.049   1.304   1.584   1.886   2.076   2.067   2.034
   1.672   1.372   1.071   0.803   0.602   0.488   0.396   0.321   0.334   0.321
   0.396   0.488   0.602   0.803   1.071   1.372   1.672   2.034   2.067   2.076
   1.886   1.584   1.304   1.049   0.894   0.831   0.775   0.831   0.894   1.049
   1.304   1.584   1.886   2.076   2.067   2.034   1.672   1.372   1.071   0.803
   0.602   0.488   0.396   0.321   0.334   0.321   0.396   0.488   0.602   0.803
   1.071   1.372   1.672   2.034   2.067   2.076   1.886   1.584   1.304   1.049
   0.894   0.831
   0.296   0.329   0.325   0.360   0.516   0.721   1.052   1.336   1.527   1.608
   1.536   1.527   1.349   0.995   0.847   0.663   0.516   0.438   0.391   0.438
   0.516   0.663   0.847   0.995   1.349   1.527   1.536   1.608   1.527   1.336
   1.052   0.721   0.516   0.360   0.325   0.329   0.296   0.329   0.325   0.360
   0.516   0.721   1.052   1.336   1.527   1.608   1.536   1.527   1.349   0.995
   0.847   0.663   0.516   0.438   0.391   0.438   0.516   0.663   0.847   0.995
   1.349   1.527   1.536   1.608   1.527   1.336   1.052   0.721   0.516   0.360
   0.325   0.329
   0.198   0.200   0.176   0.197   0.236   0.317   0.510   0.773   1.033   1.188
   1.257   1.356   1.350   1.218   1.089   0.833   0.660   0.613   0.493   0.613
   0.660   0.833   1.089   1.218   1.350   1.356   1.257   1.188   1.033   0.773
   0.510   0.317   0.236   0.197   0.176   0.200   0.198   0.200   0.176   0.197
   0.236   0.317   0.510   0.773   1.033   1.188   1.257   1.356   1.350   1.218
   1.089   0.833   0.660   0.613   0.493   0.613   0.660   0.833   1.089   1.218
   1.350   1.356   1.257   1.188   1.033   0.773   0.510   0.317   0.236   0.197
   0.176   0.200
   0.142   0.191   0.163   0.173   0.141   0.202   0.301   0.505   0.718   0.791
   0.925   0.956   1.126   1.297   1.310   1.095   0.822   0.747   0.685   0.747
   0.822   1.095   1.310   1.297   1.126   0.956   0.925   0.791   0.718   0.505
   0.301   0.202   0.141   0.173   0.163   0.191   0.142   0.191   0.163   0.173
   0.141   0.202   0.301   0.505   0.718   0.791   0.925   0.956   1.126   1.297
   1.310   1.095   0.822   0.747   0.685   0.747   0.822   1.095   1.310   1.297
   1.126   0.956   0.925   0.791   0.718   0.505   0.301   0.202   0.141   0.173
   0.163   0.191
   0.151   0.207   0.170   0.167   0.126   0.189   0.256   0.407   0.519   0.540
   0.618   0.608   0.840   1.120   1.253   1.276   1.064   0.912   0.831   0.912
   1.064   1.276   1.253   1.120   0.840   0.608   0.618   0.540   0.519   0.407
   0.256   0.189   0.126   0.167   0.170   0.207   0.151   0.207   0.170   0.167
   0.126   0.189   0.256   0.407   0.519   0.540   0.618   0.608   0.840   1.120
   1.253   1.276   1.064   0.912   0.831   0.912   1.064   1.276   1.253   1.120
   0.840   0.608   0.618   0.540   0.519   0.407   0.256   0.189   0.126   0.167
   0.170   0.207
   0.280   0.229   0.239   0.207   0.177   0.197   0.271   0.365   0.423   0.518
   0.496   0.488   0.564   0.895   1.013   1.273   1.255   1.064   0.933   1.064
   1.255   1.273   1.013   0.895   0.564   0.488   0.496   0.518   0.423   0.365
   0.271   0.197   0.177   0.207   0.239   0.229   0.280   0.229   0.239   0.207
   0.177   0.197   0.271   0.365   0.423   0.518   0.496   0.488   0.564   0.895
   1.013   1.273   1.255   1.064   0.933   1.064   1.255   1.273   1.013   0.895
   0.564   0.488   0.496   0.518   0.423   0.365   0.271   0.197   0.177   0.207
   0.239   0.229
   0.460   0.379   0.365   0.289   0.321   0.317   0.335   0.382   0.375   0.456
   0.496   0.506   0.522   0.662   0.886   1.118   1.253   1.191   1.236   1.191
   1.253   1.118   0.886   0.662   0.522   0.506   0.496   0.456   0.375   0.382
   0.335   0.317   0.321   0.289   0.365   0.379   0.460   0.379   0.365   0.289
   0.321   0.317   0.335   0.382   0.375   0.456   0.496   0.506   0.522   0.662
   0.886   1.118   1.253   1.191   1.236   1.191   1.253   1.118   0.886   0.662
   0.522   0.506   0.496   0.456   0.375   0.382   0.335   0.317   0.321   0.289
   0.365   0.379
  4  1      1.1411875E-01
  4  2     -6.0301051E-01
  4  3     -7.3313083E-01
  6  1      2.6533393E+00
  6  2     -3.4616784E+00
  6  3      1.2437794E+00
  6  4      2.9027499E-01
  8  1      1.2706285E-01
  8  2      2.7119295E-01
  8  3     -1.2207717E-01
  8  4      8.5973329E-01
  8  5      5.7184548E-01
 10  1     -5.6556521E-02
 10  2     -2.1078147E-01
 10  3      7.7709000E-01
 10  4     -2.0710237E-01
 10  5     -2.3843609E-02
 10  6     -2.6247213E-01
 12  1     -5.8313425E-02  2.0084751E+00
 12  2     -3.0779077E-02 -2.6241516E+00
 12  3     -5.9563083E-03  2.1412414E+00
 12  4      5.6977249E-02 -8.9079437E-01
 12  5      1.3597499E-01 -8.3998841E-02
 12  6     -7.9203274E-01  5.3874819E-01
 12  7     -9.5100051E-02 -1.2132484E-01
 14  1     -2.1592573E-01
 14  2      3.0063949E-01
 14  3     -2.8280757E-01
 14  4      1.8932636E-01
 14  5     -3.7438073E-01
 14  6      1.7884345E-01
 14  7      1.0744582E-01
 14  8     -3.6340901E-02
 16  1     -7.9767474E-03 -6.9004368E-02
 16  2     -3.1736012E-01  1.3562926E-01
 16  3      3.3237867E-01  1.5108638E-01
 16  4     -1.3683667E-01 -4.7055352E-01
 16  5      9.6863733E-02  2.7145089E-01
 16  6     -6.7615322E-02 -4.8932184E-02
 16  7      1.8083998E-01  5.8821066E-03
 16  8      2.4474146E-01  1.7178822E-03
 16  9      1.0233752E-01  5.0600014E-02
 220       5.00   72    0 5.00   18    0
   3.328   3.330   3.334   3.341   3.350   3.361   3.374   3.389   3.404   3.421
   3.437   3.452   3.467   3.481   3.492   3.502   3.509   3.513   3.514   3.513
   3.509   3.502   3.492   3.481   3.467   3.452   3.437   3.421   3.404   3.389
   3.374   3.361   3.350   3.341   3.334   3.330   3.328   3.330   3.334   3.341
   3.350   3.361   3.374   3.389   3.404   3.421   3.437   3.452   3.467   3.481
   3.492   3.502   3.509   3.513   3.514   3.513   3.509   3.502   3.492   3.481
   3.467   3.452   3.437   3.421   3.404   3.389   3.374   3.361   3.350   3.341
   3.334   3.330
   2.031   2.040   2.068   2.112   2.174   2.252   2.344   2.448   2.562   2.684
   2.808   2.932   3.052   3.162   3.259   3.339   3.399   3.436   3.449   3.436
   3.399   3.339   3.259   3.162   3.052   2.932   2.808   2.684   2.562   2.448
   2.344   2.252   2.174   2.112   2.068   2.040   2.031   2.040   2.068   2.112
   2.174   2.252   2.344   2.448   2.562   2.684   2.808   2.932   3.052   3.162
   3.259   3.339   3.399   3.436   3.449   3.436   3.399   3.339   3.259   3.162
   3.052   2.932   2.808   2.684   2.562   2.448   2.344   2.252   2.174   2.112
   2.068   2.040
   0.475   0.487   0.523   0.584   0.672   0.789   0.935   1.111   1.315   1.545
   1.796   2.058   2.323   2.578   2.810   3.007   3.156   3.250   3.282   3.250
   3.156   3.007   2.810   2.578   2.323   2.058   1.796   1.545   1.315   1.111
   0.935   0.789   0.672   0.584   0.523   0.487   0.475   0.487   0.523   0.584
   0.672   0.789   0.935   1.111   1.315   1.545   1.796   2.058   2.323   2.578
   2.810   3.007   3.156   3.250   3.282   3.250   3.156   3.007   2.810   2.578
   2.323   2.058   1.796   1.545   1.315   1.111   0.935   0.789   0.672   0.584
   0.523   0.487
  -0.281  -0.278  -0.269  -0.249  -0.212  -0.150  -0.054   0.084   0.273   0.514
   0.807   1.143   1.507   1.880   2.237   2.551   2.797   2.953   3.007   2.953
   2.797   2.551   2.237   1.880   1.507   1.143   0.807   0.514   0.273   0.084
  -0.054  -0.150  -0.212  -0.249  -0.269  -0.278  -0.281  -0.278  -0.269  -0.249
  -0.212  -0.150  -0.054   0.084   0.273   0.514   0.807   1.143   1.507   1.880
   2.237   2.551   2.797   2.953   3.007   2.953   2.797   2.551   2.237   1.880
   1.507   1.143   0.807   0.514   0.273   0.084  -0.054  -0.150  -0.212  -0.249
  -0.269  -0.278
  -0.094  -0.103  -0.129  -0.167  -0.210  -0.247  -0.264  -0.243  -0.166  -0.019
   0.208   0.512   0.882   1.291   1.706   2.088   2.395   2.594   2.663   2.594
   2.395   2.088   1.706   1.291   0.882   0.512   0.208  -0.019  -0.166  -0.243
  -0.264  -0.247  -0.210  -0.167  -0.129  -0.103  -0.094  -0.103  -0.129  -0.167
  -0.210  -0.247  -0.264  -0.243  -0.166  -0.019   0.208   0.512   0.882   1.291
   1.706   2.088   2.395   2.594   2.663   2.594   2.395   2.088   1.706   1.291
   0.882   0.512   0.208  -0.019  -0.166  -0.243  -0.264  -0.247  -0.210  -0.167
  -0.129  -0.103
   0.321   0.314   0.292   0.252   0.194   0.121   0.042  -0.023  -0.052  -0.018
   0.099   0.309   0.605   0.964   1.351   1.719   2.022   2.222   2.292   2.222
   2.022   1.719   1.351   0.964   0.605   0.309   0.099  -0.018  -0.052  -0.023
   0.042   0.121   0.194   0.252   0.292   0.314   0.321   0.314   0.292   0.252
   0.194   0.121   0.042  -0.023  -0.052  -0.018   0.099   0.309   0.605   0.964
   1.351   1.719   2.022   2.222   2.292   2.222   2.022   1.719   1.351   0.964
   0.605   0.309   0.099  -0.018  -0.052  -0.023   0.042   0.121   0.194   0.252
   0.292   0.314
   0.272   0.282   0.308   0.340   0.363   0.364   0.335   0.287   0.241   0.229
   0.280   0.411   0.621   0.889   1.182   1.462   1.692   1.842   1.894   1.842
   1.692   1.462   1.182   0.889   0.621   0.411   0.280   0.229   0.241   0.287
   0.335   0.364   0.363   0.340   0.308   0.282   0.272   0.282   0.308   0.340
   0.363   0.364   0.335   0.287   0.241   0.229   0.280   0.411   0.621   0.889
   1.182   1.462   1.692   1.842   1.894   1.842   1.692   1.462   1.182   0.889
   0.621   0.411   0.280   0.229   0.241   0.287   0.335   0.364   0.363   0.340
   0.308   0.282
  -0.175  -0.151  -0.081   0.027   0.152   0.267   0.346   0.382   0.391   0.407
   0.465   0.582   0.750   0.943   1.128   1.281   1.387   1.448   1.467   1.448
   1.387   1.281   1.128   0.943   0.750   0.582   0.465   0.407   0.391   0.382
   0.346   0.267   0.152   0.027  -0.081  -0.151  -0.175  -0.151  -0.081   0.027
   0.152   0.267   0.346   0.382   0.391   0.407   0.465   0.582   0.750   0.943
   1.128   1.281   1.387   1.448   1.467   1.448   1.387   1.281   1.128   0.943
   0.750   0.582   0.465   0.407   0.391   0.382   0.346   0.267   0.152   0.027
  -0.081  -0.151
  -0.254  -0.248  -0.216  -0.139  -0.013   0.136   0.264   0.346   0.391   0.440
   0.530   0.676   0.854   1.018   1.123   1.154   1.126   1.082   1.062   1.082
   1.126   1.154   1.123   1.018   0.854   0.676   0.530   0.440   0.391   0.346
   0.264   0.136  -0.013  -0.139  -0.216  -0.248  -0.254  -0.248  -0.216  -0.139
  -0.013   0.136   0.264   0.346   0.391   0.440   0.530   0.676   0.854   1.018
   1.123   1.154   1.126   1.082   1.062   1.082   1.126   1.154   1.123   1.018
   0.854   0.676   0.530   0.440   0.391   0.346   0.264   0.136  -0.013  -0.139
  -0.216  -0.248
   0.750   0.690   0.550   0.423   0.374   0.401   0.449   0.468   0.457   0.464
   0.539   0.698   0.898   1.068   1.140   1.089   0.955   0.818   0.762   0.818
   0.955   1.089   1.140   1.068   0.898   0.698   0.539   0.464   0.457   0.468
   0.449   0.401   0.374   0.423   0.550   0.690   0.750   0.690   0.550   0.423
   0.374   0.401   0.449   0.468   0.457   0.464   0.539   0.698   0.898   1.068
   1.140   1.089   0.955   0.818   0.762   0.818   0.955   1.089   1.140   1.068
   0.898   0.698   0.539   0.464   0.457   0.468   0.449   0.401   0.374   0.423
   0.550   0.690
   2.695   2.531   2.127   1.671   1.324   1.121   0.996   0.869   0.724   0.610
   0.594   0.703   0.894   1.077   1.153   1.074   0.880   0.681   0.598   0.681
   0.880   1.074   1.153   1.077   0.894   0.703   0.594   0.610   0.724   0.869
   0.996   1.121   1.324   1.671   2.127   2.531   2.695   2.531   2.127   1.671
   1.324   1.121   0.996   0.869   0.724   0.610   0.594   0.703   0.894   1.077
   1.153   1.074   0.880   0.681   0.598   0.681   0.880   1.074   1.153   1.077
   0.894   0.703   0.594   0.610   0.724   0.869   0.996   1.121   1.324   1.671
   2.127   2.531
   4.447   4.196   3.568   2.841   2.253   1.870   1.611   1.369   1.105   0.863
   0.720   0.724   0.856   1.032   1.129   1.064   0.857   0.631   0.533   0.631
   0.857   1.064   1.129   1.032   0.856   0.724   0.720   0.863   1.105   1.369
   1.611   1.870   2.253   2.841   3.568   4.196   4.447   4.196   3.568   2.841
   2.253   1.870   1.611   1.369   1.105   0.863   0.720   0.724   0.856   1.032
   1.129   1.064   0.857   0.631   0.533   0.631   0.857   1.064   1.129   1.032
   0.856   0.724   0.720   0.863   1.105   1.369   1.611   1.870   2.253   2.841
   3.568   4.196
   4.693   4.431   3.779   3.040   2.466   2.114   1.889   1.671   1.406   1.122
   0.890   0.781   0.822   0.959   1.069   1.036   0.849   0.626   0.527   0.626
   0.849   1.036   1.069   0.959   0.822   0.781   0.890   1.122   1.406   1.671
   1.889   2.114   2.466   3.040   3.779   4.431   4.693   4.431   3.779   3.040
   2.466   2.114   1.889   1.671   1.406   1.122   0.890   0.781   0.822   0.959
   1.069   1.036   0.849   0.626   0.527   0.626   0.849   1.036   1.069   0.959
   0.822   0.781   0.890   1.122   1.406   1.671   1.889   2.114   2.466   3.040
   3.779   4.431
   3.132   2.951   2.519   2.074   1.793   1.692   1.671   1.625   1.501   1.300
   1.069   0.894   0.847   0.921   1.015   1.008   0.866   0.681   0.598   0.681
   0.866   1.008   1.015   0.921   0.847   0.894   1.069   1.300   1.501   1.625
   1.671   1.692   1.793   2.074   2.519   2.951   3.132   2.951   2.519   2.074
   1.793   1.692   1.671   1.625   1.501   1.300   1.069   0.894   0.847   0.921
   1.015   1.008   0.866   0.681   0.598   0.681   0.866   1.008   1.015   0.921
   0.847   0.894   1.069   1.300   1.501   1.625   1.671   1.692   1.793   2.074
   2.519   2.951
   0.893   0.837   0.728   0.683   0.763   0.937   1.135   1.296   1.378   1.346
   1.209   1.043   0.945   0.950   1.001   1.008   0.939   0.841   0.795   0.841
   0.939   1.008   1.001   0.950   0.945   1.043   1.209   1.346   1.378   1.296
   1.135   0.937   0.763   0.683   0.728   0.837   0.893   0.837   0.728   0.683
   0.763   0.937   1.135   1.296   1.378   1.346   1.209   1.043   0.945   0.950
   1.001   1.008   0.939   0.841   0.795   0.841   0.939   1.008   1.001   0.950
   0.945   1.043   1.209   1.346   1.378   1.296   1.135   0.937   0.763   0.683
   0.728   0.837
  -0.431  -0.400  -0.298  -0.120   0.105   0.345   0.592   0.853   1.093   1.239
   1.245   1.155   1.058   1.010   1.007   1.027   1.061   1.096   1.112   1.096
   1.061   1.027   1.007   1.010   1.058   1.155   1.245   1.239   1.093   0.853
   0.592   0.345   0.105  -0.120  -0.298  -0.400  -0.431  -0.400  -0.298  -0.120
   0.105   0.345   0.592   0.853   1.093   1.239   1.245   1.155   1.058   1.010
   1.007   1.027   1.061   1.096   1.112   1.096   1.061   1.027   1.007   1.010
   1.058   1.155   1.245   1.239   1.093   0.853   0.592   0.345   0.105  -0.120
  -0.298  -0.400
  -0.299  -0.252  -0.136  -0.007   0.080   0.135   0.238   0.457   0.760   1.029
   1.170   1.181   1.121   1.044   0.998   1.037   1.183   1.365   1.449   1.365
   1.183   1.037   0.998   1.044   1.121   1.181   1.170   1.029   0.760   0.457
   0.238   0.135   0.080  -0.007  -0.136  -0.252  -0.299  -0.252  -0.136  -0.007
   0.080   0.135   0.238   0.457   0.760   1.029   1.170   1.181   1.121   1.044
   0.998   1.037   1.183   1.365   1.449   1.365   1.183   1.037   0.998   1.044
   1.121   1.181   1.170   1.029   0.760   0.457   0.238   0.135   0.080  -0.007
  -0.136  -0.252
   0.364   0.391   0.437   0.426   0.313   0.153   0.089   0.226   0.531   0.857
   1.077   1.159   1.133   1.048   0.979   1.033   1.256   1.536   1.665   1.536
   1.256   1.033   0.979   1.048   1.133   1.159   1.077   0.857   0.531   0.226
   0.089   0.153   0.313   0.426   0.437   0.391   0.364   0.391   0.437   0.426
   0.313   0.153   0.089   0.226   0.531   0.857   1.077   1.159   1.133   1.048
   0.979   1.033   1.256   1.536   1.665   1.536   1.256   1.033   0.979   1.048
   1.133   1.159   1.077   0.857   0.531   0.226   0.089   0.153   0.313   0.426
   0.437   0.391
 200       5.00   72    0 5.00   18    0
   0.706   0.707   0.708   0.711   0.714   0.718   0.722   0.727   0.733   0.739
   0.744   0.750   0.755   0.760   0.764   0.768   0.770   0.772   0.772   0.772
   0.770   0.768   0.764   0.760   0.755   0.750   0.744   0.739   0.733   0.727
   0.722   0.718   0.714   0.711   0.708   0.707   0.706   0.707   0.708   0.711
   0.714   0.718   0.722   0.727   0.733   0.739   0.744   0.750   0.755   0.760
   0.764   0.768   0.770   0.772   0.772   0.772   0.770   0.768   0.764   0.760
   0.755   0.750   0.744   0.739   0.733   0.727   0.722   0.718   0.714   0.711
   0.708   0.707
   0.416   0.418   0.423   0.431   0.443   0.459   0.479   0.504   0.533   0.566
   0.603   0.641   0.680   0.717   0.751   0.780   0.802   0.816   0.821   0.816
   0.802   0.780   0.751   0.717   0.680   0.641   0.603   0.566   0.533   0.504
   0.479   0.459   0.443   0.431   0.423   0.418   0.416   0.418   0.423   0.431
   0.443   0.459   0.479   0.504   0.533   0.566   0.603   0.641   0.680   0.717
   0.751   0.780   0.802   0.816   0.821   0.816   0.802   0.780   0.751   0.717
   0.680   0.641   0.603   0.566   0.533   0.504   0.479   0.459   0.443   0.431
   0.423   0.418
   0.431   0.426   0.415   0.397   0.376   0.355   0.338   0.330   0.333   0.351
   0.386   0.436   0.499   0.571   0.645   0.713   0.768   0.804   0.817   0.804
   0.768   0.713   0.645   0.571   0.499   0.436   0.386   0.351   0.333   0.330
   0.338   0.355   0.376   0.397   0.415   0.426   0.431   0.426   0.415   0.397
   0.376   0.355   0.338   0.330   0.333   0.351   0.386   0.436   0.499   0.571
   0.645   0.713   0.768   0.804   0.817   0.804   0.768   0.713   0.645   0.571
   0.499   0.436   0.386   0.351   0.333   0.330   0.338   0.355   0.376   0.397
   0.415   0.426
   1.076   1.061   1.020   0.953   0.864   0.759   0.645   0.531   0.428   0.345
   0.294   0.280   0.305   0.365   0.449   0.542   0.626   0.684   0.705   0.684
   0.626   0.542   0.449   0.365   0.305   0.280   0.294   0.345   0.428   0.531
   0.645   0.759   0.864   0.953   1.020   1.061   1.076   1.061   1.020   0.953
   0.864   0.759   0.645   0.531   0.428   0.345   0.294   0.280   0.305   0.365
   0.449   0.542   0.626   0.684   0.705   0.684   0.626   0.542   0.449   0.365
   0.305   0.280   0.294   0.345   0.428   0.531   0.645   0.759   0.864   0.953
   1.020   1.061
   1.907   1.892   1.847   1.771   1.664   1.526   1.358   1.165   0.956   0.748
   0.558   0.409   0.317   0.289   0.321   0.393   0.476   0.542   0.567   0.542
   0.476   0.393   0.321   0.289   0.317   0.409   0.558   0.748   0.956   1.165
   1.358   1.526   1.664   1.771   1.847   1.892   1.907   1.892   1.847   1.771
   1.664   1.526   1.358   1.165   0.956   0.748   0.558   0.409   0.317   0.289
   0.321   0.393   0.476   0.542   0.567   0.542   0.476   0.393   0.321   0.289
   0.317   0.409   0.558   0.748   0.956   1.165   1.358   1.526   1.664   1.771
   1.847   1.892
   2.231   2.226   2.212   2.188   2.151   2.094   2.005   1.870   1.682   1.443
   1.171   0.897   0.660   0.493   0.412   0.410   0.455   0.506   0.527   0.506
   0.455   0.410   0.412   0.493   0.660   0.897   1.171   1.443   1.682   1.870
   2.005   2.094   2.151   2.188   2.212   2.226   2.231   2.226   2.212   2.188
   2.151   2.094   2.005   1.870   1.682   1.443   1.171   0.897   0.660   0.493
   0.412   0.410   0.455   0.506   0.527   0.506   0.455   0.410   0.412   0.493
   0.660   0.897   1.171   1.443   1.682   1.870   2.005   2.094   2.151   2.188
   2.212   2.226
   1.869   1.870   1.877   1.900   1.947   2.015   2.088   2.134   2.118   2.010
   1.801   1.512   1.193   0.906   0.703   0.604   0.588   0.611   0.624   0.611
   0.588   0.604   0.703   0.906   1.193   1.512   1.801   2.010   2.118   2.134
   2.088   2.015   1.947   1.900   1.877   1.870   1.869   1.870   1.877   1.900
   1.947   2.015   2.088   2.134   2.118   2.010   1.801   1.512   1.193   0.906
   0.703   0.604   0.588   0.611   0.624   0.611   0.588   0.604   0.703   0.906
   1.193   1.512   1.801   2.010   2.118   2.134   2.088   2.015   1.947   1.900
   1.877   1.870
   1.192   1.185   1.175   1.187   1.246   1.371   1.556   1.775   1.977   2.098
   2.085   1.918   1.632   1.306   1.028   0.856   0.791   0.790   0.798   0.790
   0.791   0.856   1.028   1.306   1.632   1.918   2.085   2.098   1.977   1.775
   1.556   1.371   1.246   1.187   1.175   1.185   1.192   1.185   1.175   1.187
   1.246   1.371   1.556   1.775   1.977   2.098   2.085   1.918   1.632   1.306
   1.028   0.856   0.791   0.790   0.798   0.790   0.791   0.856   1.028   1.306
   1.632   1.918   2.085   2.098   1.977   1.775   1.556   1.371   1.246   1.187
   1.175   1.185
   0.597   0.583   0.553   0.535   0.560   0.654   0.835   1.105   1.436   1.756
   1.968   1.993   1.826   1.539   1.249   1.051   0.969   0.962   0.969   0.962
   0.969   1.051   1.249   1.539   1.826   1.993   1.968   1.756   1.436   1.105
   0.835   0.654   0.560   0.535   0.553   0.583   0.597   0.583   0.553   0.535
   0.560   0.654   0.835   1.105   1.436   1.756   1.968   1.993   1.826   1.539
   1.249   1.051   0.969   0.962   0.969   0.962   0.969   1.051   1.249   1.539
   1.826   1.993   1.968   1.756   1.436   1.105   0.835   0.654   0.560   0.535
   0.553   0.583
   0.229   0.222   0.208   0.207   0.225   0.270   0.371   0.577   0.913   1.327
   1.694   1.879   1.827   1.601   1.336   1.147   1.073   1.074   1.084   1.074
   1.073   1.147   1.336   1.601   1.827   1.879   1.694   1.327   0.913   0.577
   0.371   0.270   0.225   0.207   0.208   0.222   0.229   0.222   0.208   0.207
   0.225   0.270   0.371   0.577   0.913   1.327   1.694   1.879   1.827   1.601
   1.336   1.147   1.073   1.074   1.084   1.074   1.073   1.147   1.336   1.601
   1.827   1.879   1.694   1.327   0.913   0.577   0.371   0.270   0.225   0.207
   0.208   0.222
   0.106   0.108   0.123   0.161   0.202   0.221   0.242   0.357   0.644   1.077
   1.504   1.750   1.739   1.541   1.301   1.137   1.079   1.085   1.096   1.085
   1.079   1.137   1.301   1.541   1.739   1.750   1.504   1.077   0.644   0.357
   0.242   0.221   0.202   0.161   0.123   0.108   0.106   0.108   0.123   0.161
   0.202   0.221   0.242   0.357   0.644   1.077   1.504   1.750   1.739   1.541
   1.301   1.137   1.079   1.085   1.096   1.085   1.079   1.137   1.301   1.541
   1.739   1.750   1.504   1.077   0.644   0.357   0.242   0.221   0.202   0.161
   0.123   0.108
   0.180   0.176   0.182   0.222   0.266   0.265   0.243   0.316   0.592   1.033
   1.451   1.654   1.591   1.373   1.156   1.027   0.983   0.977   0.979   0.977
   0.983   1.027   1.156   1.373   1.591   1.654   1.451   1.033   0.592   0.316
   0.243   0.265   0.266   0.222   0.182   0.176   0.180   0.176   0.182   0.222
   0.266   0.265   0.243   0.316   0.592   1.033   1.451   1.654   1.591   1.373
   1.156   1.027   0.983   0.977   0.979   0.977   0.983   1.027   1.156   1.373
   1.591   1.654   1.451   1.033   0.592   0.316   0.243   0.265   0.266   0.222
   0.182   0.176
   0.256   0.240   0.222   0.244   0.282   0.279   0.264   0.369   0.687   1.135
   1.483   1.557   1.380   1.125   0.945   0.865   0.829   0.799   0.784   0.799
   0.829   0.865   0.945   1.125   1.380   1.557   1.483   1.135   0.687   0.369
   0.264   0.279   0.282   0.244   0.222   0.240   0.256   0.240   0.222   0.244
   0.282   0.279   0.264   0.369   0.687   1.135   1.483   1.557   1.380   1.125
   0.945   0.865   0.829   0.799   0.784   0.799   0.829   0.865   0.945   1.125
   1.380   1.557   1.483   1.135   0.687   0.369   0.264   0.279   0.282   0.244
   0.222   0.240
   0.166   0.154   0.157   0.220   0.311   0.370   0.427   0.605   0.962   1.358
   1.556   1.445   1.145   0.877   0.755   0.733   0.710   0.660   0.632   0.660
   0.710   0.733   0.755   0.877   1.145   1.445   1.556   1.358   0.962   0.605
   0.427   0.370   0.311   0.220   0.157   0.154   0.166   0.154   0.157   0.220
   0.311   0.370   0.427   0.605   0.962   1.358   1.556   1.445   1.145   0.877
   0.755   0.733   0.710   0.660   0.632   0.660   0.710   0.733   0.755   0.877
   1.145   1.445   1.556   1.358   0.962   0.605   0.427   0.370   0.311   0.220
   0.157   0.154
   0.117   0.122   0.175   0.316   0.506   0.674   0.835   1.075   1.397   1.636
   1.606   1.307   0.936   0.703   0.652   0.679   0.678   0.637   0.613   0.637
   0.678   0.679   0.652   0.703   0.936   1.307   1.606   1.636   1.397   1.075
   0.835   0.674   0.506   0.316   0.175   0.122   0.117   0.122   0.175   0.316
   0.506   0.674   0.835   1.075   1.397   1.636   1.606   1.307   0.936   0.703
   0.652   0.679   0.678   0.637   0.613   0.637   0.678   0.679   0.652   0.703
   0.936   1.307   1.606   1.636   1.397   1.075   0.835   0.674   0.506   0.316
   0.175   0.122
   0.589   0.582   0.606   0.725   0.925   1.144   1.367   1.609   1.806   1.805
   1.529   1.101   0.751   0.606   0.617   0.667   0.695   0.703   0.704   0.703
   0.695   0.667   0.617   0.606   0.751   1.101   1.529   1.805   1.806   1.609
   1.367   1.144   0.925   0.725   0.606   0.582   0.589   0.582   0.606   0.725
   0.925   1.144   1.367   1.609   1.806   1.805   1.529   1.101   0.751   0.606
   0.617   0.667   0.695   0.703   0.704   0.703   0.695   0.667   0.617   0.606
   0.751   1.101   1.529   1.805   1.806   1.609   1.367   1.144   0.925   0.725
   0.606   0.582
   1.645   1.579   1.452   1.388   1.442   1.591   1.791   1.976   2.011   1.774
   1.305   0.834   0.576   0.542   0.594   0.641   0.699   0.777   0.817   0.777
   0.699   0.641   0.594   0.542   0.576   0.834   1.305   1.774   2.011   1.976
   1.791   1.591   1.442   1.388   1.452   1.579   1.645   1.579   1.452   1.388
   1.442   1.591   1.791   1.976   2.011   1.774   1.305   0.834   0.576   0.542
   0.594   0.641   0.699   0.777   0.817   0.777   0.699   0.641   0.594   0.542
   0.576   0.834   1.305   1.774   2.011   1.976   1.791   1.591   1.442   1.388
   1.452   1.579
   2.583   2.458   2.175   1.916   1.803   1.849   1.996   2.120   2.044   1.662
   1.095   0.629   0.455   0.498   0.569   0.607   0.684   0.813   0.883   0.813
   0.684   0.607   0.569   0.498   0.455   0.629   1.095   1.662   2.044   2.120
   1.996   1.849   1.803   1.916   2.175   2.458   2.583   2.458   2.175   1.916
   1.803   1.849   1.996   2.120   2.044   1.662   1.095   0.629   0.455   0.498
   0.569   0.607   0.684   0.813   0.883   0.813   0.684   0.607   0.569   0.498
   0.455   0.629   1.095   1.662   2.044   2.120   1.996   1.849   1.803   1.916
   2.175   2.458
 111       5.00   72    0 5.00   18    0
   0.144   0.144   0.146   0.149   0.154   0.159   0.165   0.172   0.179   0.187
   0.194   0.202   0.209   0.215   0.220   0.225   0.228   0.230   0.231   0.230
   0.228   0.225   0.220   0.215   0.209   0.202   0.194   0.187   0.179   0.172
   0.165   0.159   0.154   0.149   0.146   0.144   0.144   0.144   0.146   0.149
   0.154   0.159   0.165   0.172   0.179   0.187   0.194   0.202   0.209   0.215
   0.220   0.225   0.228   0.230   0.231   0.230   0.228   0.225   0.220   0.215
   0.209   0.202   0.194   0.187   0.179   0.172   0.165   0.159   0.154   0.149
   0.146   0.144
  -0.291  -0.288  -0.280  -0.266  -0.247  -0.222  -0.192  -0.155  -0.114  -0.068
  -0.020   0.030   0.078   0.124   0.166   0.200   0.226   0.242   0.247   0.242
   0.226   0.200   0.166   0.124   0.078   0.030  -0.020  -0.068  -0.114  -0.155
  -0.192  -0.222  -0.247  -0.266  -0.280  -0.288  -0.291  -0.288  -0.280  -0.266
  -0.247  -0.222  -0.192  -0.155  -0.114  -0.068  -0.020   0.030   0.078   0.124
   0.166   0.200   0.226   0.242   0.247   0.242   0.226   0.200   0.166   0.124
   0.078   0.030  -0.020  -0.068  -0.114  -0.155  -0.192  -0.222  -0.247  -0.266
  -0.280  -0.288
  -0.231  -0.237  -0.253  -0.277  -0.304  -0.328  -0.342  -0.343  -0.326  -0.291
  -0.239  -0.171  -0.094  -0.013   0.064   0.133   0.186   0.220   0.231   0.220
   0.186   0.133   0.064  -0.013  -0.094  -0.171  -0.239  -0.291  -0.326  -0.343
  -0.342  -0.328  -0.304  -0.277  -0.253  -0.237  -0.231  -0.237  -0.253  -0.277
  -0.304  -0.328  -0.342  -0.343  -0.326  -0.291  -0.239  -0.171  -0.094  -0.013
   0.064   0.133   0.186   0.220   0.231   0.220   0.186   0.133   0.064  -0.013
  -0.094  -0.171  -0.239  -0.291  -0.326  -0.343  -0.342  -0.328  -0.304  -0.277
  -0.253  -0.237
   1.047   1.014   0.920   0.773   0.591   0.393   0.200   0.030  -0.102  -0.188
  -0.224  -0.216  -0.171  -0.102  -0.023   0.053   0.116   0.157   0.171   0.157
   0.116   0.053  -0.023  -0.102  -0.171  -0.216  -0.224  -0.188  -0.102   0.030
   0.200   0.393   0.591   0.773   0.920   1.014   1.047   1.014   0.920   0.773
   0.591   0.393   0.200   0.030  -0.102  -0.188  -0.224  -0.216  -0.171  -0.102
  -0.023   0.053   0.116   0.157   0.171   0.157   0.116   0.053  -0.023  -0.102
  -0.171  -0.216  -0.224  -0.188  -0.102   0.030   0.200   0.393   0.591   0.773
   0.920   1.014
   3.066   3.003   2.820   2.532   2.165   1.750   1.325   0.923   0.573   0.297
   0.103  -0.010  -0.054  -0.047  -0.010   0.039   0.085   0.116   0.127   0.116
   0.085   0.039  -0.010  -0.047  -0.054  -0.010   0.103   0.297   0.573   0.923
   1.325   1.750   2.165   2.532   2.820   3.003   3.066   3.003   2.820   2.532
   2.165   1.750   1.325   0.923   0.573   0.297   0.103  -0.010  -0.054  -0.047
  -0.010   0.039   0.085   0.116   0.127   0.116   0.085   0.039  -0.010  -0.047
  -0.054  -0.010   0.103   0.297   0.573   0.923   1.325   1.750   2.165   2.532
   2.820   3.003
   4.427   4.363   4.174   3.867   3.460   2.977   2.449   1.916   1.416   0.983
   0.639   0.392   0.237   0.157   0.130   0.132   0.146   0.159   0.165   0.159
   0.146   0.132   0.130   0.157   0.237   0.392   0.639   0.983   1.416   1.916
   2.449   2.977   3.460   3.867   4.174   4.363   4.427   4.363   4.174   3.867
   3.460   2.977   2.449   1.916   1.416   0.983   0.639   0.392   0.237   0.157
   0.130   0.132   0.146   0.159   0.165   0.159   0.146   0.132   0.130   0.157
   0.237   0.392   0.639   0.983   1.416   1.916   2.449   2.977   3.460   3.867
   4.174   4.363
   4.111   4.090   4.022   3.892   3.686   3.394   3.017   2.573   2.095   1.623
   1.198   0.849   0.592   0.424   0.328   0.285   0.270   0.269   0.269   0.269
   0.270   0.285   0.328   0.424   0.592   0.849   1.198   1.623   2.095   2.573
   3.017   3.394   3.686   3.892   4.022   4.090   4.111   4.090   4.022   3.892
   3.686   3.394   3.017   2.573   2.095   1.623   1.198   0.849   0.592   0.424
   0.328   0.285   0.270   0.269   0.269   0.269   0.270   0.285   0.328   0.424
   0.592   0.849   1.198   1.623   2.095   2.573   3.017   3.394   3.686   3.892
   4.022   4.090
   2.436   2.472   2.571   2.700   2.816   2.871   2.826   2.662   2.384   2.023
   1.627   1.247   0.925   0.683   0.525   0.435   0.392   0.375   0.371   0.375
   0.392   0.435   0.525   0.683   0.925   1.247   1.627   2.023   2.384   2.662
   2.826   2.871   2.816   2.700   2.571   2.472   2.436   2.472   2.571   2.700
   2.816   2.871   2.826   2.662   2.384   2.023   1.627   1.247   0.925   0.683
   0.525   0.435   0.392   0.375   0.371   0.375   0.392   0.435   0.525   0.683
   0.925   1.247   1.627   2.023   2.384   2.662   2.826   2.871   2.816   2.700
   2.571   2.472
   0.684   0.743   0.912   1.171   1.482   1.793   2.048   2.195   2.202   2.069
   1.825   1.522   1.216   0.949   0.742   0.598   0.505   0.454   0.438   0.454
   0.505   0.598   0.742   0.949   1.216   1.522   1.825   2.069   2.202   2.195
   2.048   1.793   1.482   1.171   0.912   0.743   0.684   0.743   0.912   1.171
   1.482   1.793   2.048   2.195   2.202   2.069   1.825   1.522   1.216   0.949
   0.742   0.598   0.505   0.454   0.438   0.454   0.505   0.598   0.742   0.949
   1.216   1.522   1.825   2.069   2.202   2.195   2.048   1.793   1.482   1.171
   0.912   0.743
  -0.137  -0.106  -0.009   0.166   0.423   0.746   1.096   1.415   1.649   1.758
   1.740   1.618   1.435   1.226   1.018   0.826   0.664   0.553   0.513   0.553
   0.664   0.826   1.018   1.226   1.435   1.618   1.740   1.758   1.649   1.415
   1.096   0.746   0.423   0.166  -0.009  -0.106  -0.137  -0.106  -0.009   0.166
   0.423   0.746   1.096   1.415   1.649   1.758   1.740   1.618   1.435   1.226
   1.018   0.826   0.664   0.553   0.513   0.553   0.664   0.826   1.018   1.226
   1.435   1.618   1.740   1.758   1.649   1.415   1.096   0.746   0.423   0.166
  -0.009  -0.106
  -0.073  -0.083  -0.099  -0.086  -0.006   0.165   0.418   0.716   1.006   1.242
   1.400   1.477   1.481   1.419   1.290   1.101   0.890   0.720   0.655   0.720
   0.890   1.101   1.290   1.419   1.481   1.477   1.400   1.242   1.006   0.716
   0.418   0.165  -0.006  -0.086  -0.099  -0.083  -0.073  -0.083  -0.099  -0.086
  -0.006   0.165   0.418   0.716   1.006   1.242   1.400   1.477   1.481   1.419
   1.290   1.101   0.890   0.720   0.655   0.720   0.890   1.101   1.290   1.419
   1.481   1.477   1.400   1.242   1.006   0.716   0.418   0.165  -0.006  -0.086
  -0.099  -0.083
   0.159   0.138   0.087   0.036   0.025   0.080   0.204   0.378   0.572   0.764
   0.947   1.123   1.285   1.399   1.419   1.318   1.130   0.946   0.870   0.946
   1.130   1.318   1.419   1.399   1.285   1.123   0.947   0.764   0.572   0.378
   0.204   0.080   0.025   0.036   0.087   0.138   0.159   0.138   0.087   0.036
   0.025   0.080   0.204   0.378   0.572   0.764   0.947   1.123   1.285   1.399
   1.419   1.318   1.130   0.946   0.870   0.946   1.130   1.318   1.419   1.399
   1.285   1.123   0.947   0.764   0.572   0.378   0.204   0.080   0.025   0.036
   0.087   0.138
   0.101   0.094   0.078   0.073   0.098   0.165   0.261   0.360   0.440   0.506
   0.591   0.732   0.938   1.169   1.344   1.391   1.308   1.178   1.117   1.178
   1.308   1.391   1.344   1.169   0.938   0.732   0.591   0.506   0.440   0.360
   0.261   0.165   0.098   0.073   0.078   0.094   0.101   0.094   0.078   0.073
   0.098   0.165   0.261   0.360   0.440   0.506   0.591   0.732   0.938   1.169
   1.344   1.391   1.308   1.178   1.117   1.178   1.308   1.391   1.344   1.169
   0.938   0.732   0.591   0.506   0.440   0.360   0.261   0.165   0.098   0.073
   0.078   0.094
  -0.030  -0.034  -0.039  -0.026   0.033   0.147   0.293   0.419   0.484   0.487
   0.475   0.514   0.654   0.890   1.150   1.336   1.397   1.372   1.348   1.372
   1.397   1.336   1.150   0.890   0.654   0.514   0.475   0.487   0.484   0.419
   0.293   0.147   0.033  -0.026  -0.039  -0.034  -0.030  -0.034  -0.039  -0.026
   0.033   0.147   0.293   0.419   0.484   0.487   0.475   0.514   0.654   0.890
   1.150   1.336   1.397   1.372   1.348   1.372   1.397   1.336   1.150   0.890
   0.654   0.514   0.475   0.487   0.484   0.419   0.293   0.147   0.033  -0.026
  -0.039  -0.034
   0.252   0.234   0.186   0.132   0.120   0.184   0.317   0.466   0.572   0.603
   0.575   0.540   0.569   0.715   0.961   1.225   1.419   1.512   1.535   1.512
   1.419   1.225   0.961   0.715   0.569   0.540   0.575   0.603   0.572   0.466
   0.317   0.184   0.120   0.132   0.186   0.234   0.252   0.234   0.186   0.132
   0.120   0.184   0.317   0.466   0.572   0.603   0.575   0.540   0.569   0.715
   0.961   1.225   1.419   1.512   1.535   1.512   1.419   1.225   0.961   0.715
   0.569   0.540   0.575   0.603   0.572   0.466   0.317   0.184   0.120   0.132
   0.186   0.234
   1.086   1.071   1.016   0.910   0.777   0.672   0.633   0.654   0.706   0.748
   0.744   0.688   0.627   0.653   0.825   1.108   1.396   1.593   1.661   1.593
   1.396   1.108   0.825   0.653   0.627   0.688   0.744   0.748   0.706   0.654
   0.633   0.672   0.777   0.910   1.016   1.071   1.086   1.071   1.016   0.910
   0.777   0.672   0.633   0.654   0.706   0.748   0.744   0.688   0.627   0.653
   0.825   1.108   1.396   1.593   1.661   1.593   1.396   1.108   0.825   0.653
   0.627   0.688   0.744   0.748   0.706   0.654   0.633   0.672   0.777   0.910
   1.016   1.071
   2.117   2.145   2.181   2.127   1.933   1.634   1.314   1.056   0.910   0.868
   0.859   0.803   0.693   0.628   0.726   1.002   1.349   1.624   1.725   1.624
   1.349   1.002   0.726   0.628   0.693   0.803   0.859   0.868   0.910   1.056
   1.314   1.634   1.933   2.127   2.181   2.145   2.117   2.145   2.181   2.127
   1.933   1.634   1.314   1.056   0.910   0.868   0.859   0.803   0.693   0.628
   0.726   1.002   1.349   1.624   1.725   1.624   1.349   1.002   0.726   0.628
   0.693   0.803   0.859   0.868   0.910   1.056   1.314   1.634   1.933   2.127
   2.181   2.145
   2.809   2.885   3.030   3.069   2.876   2.457   1.922   1.423   1.084   0.936
   0.899   0.842   0.713   0.605   0.662   0.931   1.310   1.626   1.747   1.626
   1.310   0.931   0.662   0.605   0.713   0.842   0.899   0.936   1.084   1.423
   1.922   2.457   2.876   3.069   3.030   2.885   2.809   2.885   3.030   3.069
   2.876   2.457   1.922   1.423   1.084   0.936   0.899   0.842   0.713   0.605
   0.662   0.931   1.310   1.626   1.747   1.626   1.310   0.931   0.662   0.605
   0.713   0.842   0.899   0.936   1.084   1.423   1.922   2.457   2.876   3.069
   3.030   2.885
TEXTURE_INDEX=   3.5227
ERR_CF 220         1080     506   37.46   24.70
ERR_CF 200         1080     332   31.21   10.03
ERR_CF 111         1080     312   65.08    9.42
