TEXEVAL                                                                         
Analysis started on 24-Oct-19 10:39:22                                          
 LMAX=14LFMAX=03 CUBIC ORTHO   
 220      5.00 5.00
 200      5.00 5.00
 111      5.00 5.00
 220       5.00   72    0 5.00   15    0
   2.464   2.464   2.464   2.464   2.464   2.464   2.464   2.464   2.464   2.464
   2.464   2.464   2.464   2.464   2.464   2.464   2.464   2.464   2.464   2.464
   2.464   2.464   2.464   2.464   2.464   2.464   2.464   2.464   2.464   2.464
   2.464   2.464   2.464   2.464   2.464   2.464   2.464   2.464   2.464   2.464
   2.464   2.464   2.464   2.464   2.464   2.464   2.464   2.464   2.464   2.464
   2.464   2.464   2.464   2.464   2.464   2.464   2.464   2.464   2.464   2.464
   2.464   2.464   2.464   2.464   2.464   2.464   2.464   2.464   2.464   2.464
   2.464   2.464
   1.016   1.054   1.045   1.081   1.123   1.135   1.226   1.376   1.442   1.571
   1.722   1.866   2.084   2.353   2.559   2.780   2.994   3.062   3.062   3.062
   2.994   2.780   2.559   2.353   2.084   1.866   1.722   1.571   1.442   1.376
   1.226   1.135   1.123   1.081   1.045   1.054   1.016   1.054   1.045   1.081
   1.123   1.135   1.226   1.376   1.442   1.571   1.722   1.866   2.084   2.353
   2.559   2.780   2.994   3.062   3.062   3.062   2.994   2.780   2.559   2.353
   2.084   1.866   1.722   1.571   1.442   1.376   1.226   1.135   1.123   1.081
   1.045   1.054
   0.459   0.449   0.426   0.464   0.463   0.497   0.576   0.655   0.714   0.857
   1.013   1.268   1.560   1.917   2.273   2.675   2.987   3.155   3.186   3.155
   2.987   2.675   2.273   1.917   1.560   1.268   1.013   0.857   0.714   0.655
   0.576   0.497   0.463   0.464   0.426   0.449   0.459   0.449   0.426   0.464
   0.463   0.497   0.576   0.655   0.714   0.857   1.013   1.268   1.560   1.917
   2.273   2.675   2.987   3.155   3.186   3.155   2.987   2.675   2.273   1.917
   1.560   1.268   1.013   0.857   0.714   0.655   0.576   0.497   0.463   0.464
   0.426   0.449
   0.344   0.318   0.308   0.330   0.334   0.368   0.395   0.428   0.442   0.527
   0.665   0.899   1.159   1.467   1.903   2.414   2.816   3.078   3.183   3.078
   2.816   2.414   1.903   1.467   1.159   0.899   0.665   0.527   0.442   0.428
   0.395   0.368   0.334   0.330   0.308   0.318   0.344   0.318   0.308   0.330
   0.334   0.368   0.395   0.428   0.442   0.527   0.665   0.899   1.159   1.467
   1.903   2.414   2.816   3.078   3.183   3.078   2.816   2.414   1.903   1.467
   1.159   0.899   0.665   0.527   0.442   0.428   0.395   0.368   0.334   0.330
   0.308   0.318
   0.286   0.330   0.340   0.339   0.338   0.335   0.333   0.380   0.400   0.447
   0.551   0.766   0.924   1.185   1.503   2.032   2.550   2.898   3.012   2.898
   2.550   2.032   1.503   1.185   0.924   0.766   0.551   0.447   0.400   0.380
   0.333   0.335   0.338   0.339   0.340   0.330   0.286   0.330   0.340   0.339
   0.338   0.335   0.333   0.380   0.400   0.447   0.551   0.766   0.924   1.185
   1.503   2.032   2.550   2.898   3.012   2.898   2.550   2.032   1.503   1.185
   0.924   0.766   0.551   0.447   0.400   0.380   0.333   0.335   0.338   0.339
   0.340   0.330
   0.308   0.308   0.307   0.309   0.314   0.319   0.316   0.410   0.459   0.453
   0.547   0.708   0.841   1.042   1.314   1.764   2.226   2.531   2.585   2.531
   2.226   1.764   1.314   1.042   0.841   0.708   0.547   0.453   0.459   0.410
   0.316   0.319   0.314   0.309   0.307   0.308   0.308   0.308   0.307   0.309
   0.314   0.319   0.316   0.410   0.459   0.453   0.547   0.708   0.841   1.042
   1.314   1.764   2.226   2.531   2.585   2.531   2.226   1.764   1.314   1.042
   0.841   0.708   0.547   0.453   0.459   0.410   0.316   0.319   0.314   0.309
   0.307   0.308
   0.262   0.230   0.264   0.272   0.289   0.318   0.366   0.473   0.465   0.461
   0.582   0.671   0.800   1.023   1.282   1.593   1.800   1.945   2.047   1.945
   1.800   1.593   1.282   1.023   0.800   0.671   0.582   0.461   0.465   0.473
   0.366   0.318   0.289   0.272   0.264   0.230   0.262   0.230   0.264   0.272
   0.289   0.318   0.366   0.473   0.465   0.461   0.582   0.671   0.800   1.023
   1.282   1.593   1.800   1.945   2.047   1.945   1.800   1.593   1.282   1.023
   0.800   0.671   0.582   0.461   0.465   0.473   0.366   0.318   0.289   0.272
   0.264   0.230
   0.205   0.223   0.265   0.286   0.290   0.326   0.432   0.481   0.432   0.485
   0.588   0.666   0.802   0.986   1.254   1.391   1.461   1.486   1.544   1.486
   1.461   1.391   1.254   0.986   0.802   0.666   0.588   0.485   0.432   0.481
   0.432   0.326   0.290   0.286   0.265   0.223   0.205   0.223   0.265   0.286
   0.290   0.326   0.432   0.481   0.432   0.485   0.588   0.666   0.802   0.986
   1.254   1.391   1.461   1.486   1.544   1.486   1.461   1.391   1.254   0.986
   0.802   0.666   0.588   0.485   0.432   0.481   0.432   0.326   0.290   0.286
   0.265   0.223
   0.228   0.261   0.300   0.337   0.316   0.344   0.466   0.422   0.477   0.511
   0.642   0.678   0.817   0.967   1.258   1.281   1.257   1.198   1.196   1.198
   1.257   1.281   1.258   0.967   0.817   0.678   0.642   0.511   0.477   0.422
   0.466   0.344   0.316   0.337   0.300   0.261   0.228   0.261   0.300   0.337
   0.316   0.344   0.466   0.422   0.477   0.511   0.642   0.678   0.817   0.967
   1.258   1.281   1.257   1.198   1.196   1.198   1.257   1.281   1.258   0.967
   0.817   0.678   0.642   0.511   0.477   0.422   0.466   0.344   0.316   0.337
   0.300   0.261
   0.516   0.533   0.469   0.462   0.477   0.476   0.529   0.560   0.611   0.558
   0.650   0.657   0.799   1.029   1.249   1.250   1.092   0.909   0.843   0.909
   1.092   1.250   1.249   1.029   0.799   0.657   0.650   0.558   0.611   0.560
   0.529   0.476   0.477   0.462   0.469   0.533   0.516   0.533   0.469   0.462
   0.477   0.476   0.529   0.560   0.611   0.558   0.650   0.657   0.799   1.029
   1.249   1.250   1.092   0.909   0.843   0.909   1.092   1.250   1.249   1.029
   0.799   0.657   0.650   0.558   0.611   0.560   0.529   0.476   0.477   0.462
   0.469   0.533
   1.449   1.343   1.126   0.967   0.927   0.820   0.685   0.705   0.665   0.592
   0.606   0.598   0.759   0.975   1.162   1.152   0.949   0.792   0.815   0.792
   0.949   1.152   1.162   0.975   0.759   0.598   0.606   0.592   0.665   0.705
   0.685   0.820   0.927   0.967   1.126   1.343   1.449   1.343   1.126   0.967
   0.927   0.820   0.685   0.705   0.665   0.592   0.606   0.598   0.759   0.975
   1.162   1.152   0.949   0.792   0.815   0.792   0.949   1.152   1.162   0.975
   0.759   0.598   0.606   0.592   0.665   0.705   0.685   0.820   0.927   0.967
   1.126   1.343
   3.702   3.393   2.869   2.188   1.859   1.430   1.133   0.912   0.781   0.707
   0.707   0.705   0.756   0.878   1.028   0.885   0.720   0.696   0.883   0.696
   0.720   0.885   1.028   0.878   0.756   0.705   0.707   0.707   0.781   0.912
   1.133   1.430   1.859   2.188   2.869   3.393   3.702   3.393   2.869   2.188
   1.859   1.430   1.133   0.912   0.781   0.707   0.707   0.705   0.756   0.878
   1.028   0.885   0.720   0.696   0.883   0.696   0.720   0.885   1.028   0.878
   0.756   0.705   0.707   0.707   0.781   0.912   1.133   1.430   1.859   2.188
   2.869   3.393
   4.591   4.209   3.519   2.938   2.380   2.072   1.714   1.386   1.100   0.973
   0.917   0.819   0.683   0.686   0.755   0.731   0.689   0.694   0.889   0.694
   0.689   0.731   0.755   0.686   0.683   0.819   0.917   0.973   1.100   1.386
   1.714   2.072   2.380   2.938   3.519   4.209   4.591   4.209   3.519   2.938
   2.380   2.072   1.714   1.386   1.100   0.973   0.917   0.819   0.683   0.686
   0.755   0.731   0.689   0.694   0.889   0.694   0.689   0.731   0.755   0.686
   0.683   0.819   0.917   0.973   1.100   1.386   1.714   2.072   2.380   2.938
   3.519   4.209
   2.538   2.311   1.889   1.938   1.824   1.798   1.883   1.863   1.459   1.293
   1.207   0.986   0.801   0.724   0.827   0.930   0.916   0.899   0.969   0.899
   0.916   0.930   0.827   0.724   0.801   0.986   1.207   1.293   1.459   1.863
   1.883   1.798   1.824   1.938   1.889   2.311   2.538   2.311   1.889   1.938
   1.824   1.798   1.883   1.863   1.459   1.293   1.207   0.986   0.801   0.724
   0.827   0.930   0.916   0.899   0.969   0.899   0.916   0.930   0.827   0.724
   0.801   0.986   1.207   1.293   1.459   1.863   1.883   1.798   1.824   1.938
   1.889   2.311
   0.697   0.680   0.568   0.627   0.911   1.078   1.357   1.771   1.483   1.276
   1.166   0.841   0.704   0.706   0.865   0.879   0.878   1.066   0.945   1.066
   0.878   0.879   0.865   0.706   0.704   0.841   1.166   1.276   1.483   1.771
   1.357   1.078   0.911   0.627   0.568   0.680   0.697   0.680   0.568   0.627
   0.911   1.078   1.357   1.771   1.483   1.276   1.166   0.841   0.704   0.706
   0.865   0.879   0.878   1.066   0.945   1.066   0.878   0.879   0.865   0.706
   0.704   0.841   1.166   1.276   1.483   1.771   1.357   1.078   0.911   0.627
   0.568   0.680
 200       5.00   72    0 5.00   15    0
   0.521   0.521   0.521   0.521   0.521   0.521   0.521   0.521   0.521   0.521
   0.521   0.521   0.521   0.521   0.521   0.521   0.521   0.521   0.521   0.521
   0.521   0.521   0.521   0.521   0.521   0.521   0.521   0.521   0.521   0.521
   0.521   0.521   0.521   0.521   0.521   0.521   0.521   0.521   0.521   0.521
   0.521   0.521   0.521   0.521   0.521   0.521   0.521   0.521   0.521   0.521
   0.521   0.521   0.521   0.521   0.521   0.521   0.521   0.521   0.521   0.521
   0.521   0.521   0.521   0.521   0.521   0.521   0.521   0.521   0.521   0.521
   0.521   0.521
   0.684   0.691   0.683   0.661   0.653   0.660   0.650   0.621   0.624   0.614
   0.594   0.547   0.576   0.621   0.587   0.554   0.538   0.511   0.497   0.511
   0.538   0.554   0.587   0.621   0.576   0.547   0.594   0.614   0.624   0.621
   0.650   0.660   0.653   0.661   0.683   0.691   0.684   0.691   0.683   0.661
   0.653   0.660   0.650   0.621   0.624   0.614   0.594   0.547   0.576   0.621
   0.587   0.554   0.538   0.511   0.497   0.511   0.538   0.554   0.587   0.621
   0.576   0.547   0.594   0.614   0.624   0.621   0.650   0.660   0.653   0.661
   0.683   0.691
   0.879   0.903   0.901   0.882   0.826   0.828   0.765   0.716   0.666   0.651
   0.649   0.595   0.570   0.585   0.575   0.559   0.569   0.549   0.509   0.549
   0.569   0.559   0.575   0.585   0.570   0.595   0.649   0.651   0.666   0.716
   0.765   0.828   0.826   0.882   0.901   0.903   0.879   0.903   0.901   0.882
   0.826   0.828   0.765   0.716   0.666   0.651   0.649   0.595   0.570   0.585
   0.575   0.559   0.569   0.549   0.509   0.549   0.569   0.559   0.575   0.585
   0.570   0.595   0.649   0.651   0.666   0.716   0.765   0.828   0.826   0.882
   0.901   0.903
   1.177   1.234   1.215   1.163   1.083   1.089   0.972   0.875   0.811   0.793
   0.752   0.688   0.621   0.594   0.598   0.587   0.579   0.567   0.494   0.567
   0.579   0.587   0.598   0.594   0.621   0.688   0.752   0.793   0.811   0.875
   0.972   1.089   1.083   1.163   1.215   1.234   1.177   1.234   1.215   1.163
   1.083   1.089   0.972   0.875   0.811   0.793   0.752   0.688   0.621   0.594
   0.598   0.587   0.579   0.567   0.494   0.567   0.579   0.587   0.598   0.594
   0.621   0.688   0.752   0.793   0.811   0.875   0.972   1.089   1.083   1.163
   1.215   1.234
   1.923   1.918   1.798   1.723   1.656   1.542   1.367   1.236   1.112   1.000
   0.868   0.778   0.742   0.721   0.651   0.587   0.581   0.592   0.541   0.592
   0.581   0.587   0.651   0.721   0.742   0.778   0.868   1.000   1.112   1.236
   1.367   1.542   1.656   1.723   1.798   1.918   1.923   1.918   1.798   1.723
   1.656   1.542   1.367   1.236   1.112   1.000   0.868   0.778   0.742   0.721
   0.651   0.587   0.581   0.592   0.541   0.592   0.581   0.587   0.651   0.721
   0.742   0.778   0.868   1.000   1.112   1.236   1.367   1.542   1.656   1.723
   1.798   1.918
   2.460   2.429   2.359   2.401   2.421   2.214   1.994   1.800   1.500   1.308
   1.122   0.928   0.858   0.820   0.718   0.603   0.620   0.624   0.607   0.624
   0.620   0.603   0.718   0.820   0.858   0.928   1.122   1.308   1.500   1.800
   1.994   2.214   2.421   2.401   2.359   2.429   2.460   2.429   2.359   2.401
   2.421   2.214   1.994   1.800   1.500   1.308   1.122   0.928   0.858   0.820
   0.718   0.603   0.620   0.624   0.607   0.624   0.620   0.603   0.718   0.820
   0.858   0.928   1.122   1.308   1.500   1.800   1.994   2.214   2.421   2.401
   2.359   2.429
   1.789   1.770   1.928   2.103   2.197   2.221   2.211   2.056   1.858   1.656
   1.442   1.179   0.984   0.908   0.810   0.691   0.700   0.619   0.579   0.619
   0.700   0.691   0.810   0.908   0.984   1.179   1.442   1.656   1.858   2.056
   2.211   2.221   2.197   2.103   1.928   1.770   1.789   1.770   1.928   2.103
   2.197   2.221   2.211   2.056   1.858   1.656   1.442   1.179   0.984   0.908
   0.810   0.691   0.700   0.619   0.579   0.619   0.700   0.691   0.810   0.908
   0.984   1.179   1.442   1.656   1.858   2.056   2.211   2.221   2.197   2.103
   1.928   1.770
   0.757   0.710   0.854   1.037   1.188   1.331   1.541   1.577   1.721   1.764
   1.653   1.392   1.129   0.973   0.864   0.791   0.781   0.724   0.736   0.724
   0.781   0.791   0.864   0.973   1.129   1.392   1.653   1.764   1.721   1.577
   1.541   1.331   1.188   1.037   0.854   0.710   0.757   0.710   0.854   1.037
   1.188   1.331   1.541   1.577   1.721   1.764   1.653   1.392   1.129   0.973
   0.864   0.791   0.781   0.724   0.736   0.724   0.781   0.791   0.864   0.973
   1.129   1.392   1.653   1.764   1.721   1.577   1.541   1.331   1.188   1.037
   0.854   0.710
   0.253   0.244   0.296   0.385   0.507   0.599   0.703   0.823   1.137   1.503
   1.660   1.479   1.244   1.017   0.945   0.883   0.789   0.777   0.802   0.777
   0.789   0.883   0.945   1.017   1.244   1.479   1.660   1.503   1.137   0.823
   0.703   0.599   0.507   0.385   0.296   0.244   0.253   0.244   0.296   0.385
   0.507   0.599   0.703   0.823   1.137   1.503   1.660   1.479   1.244   1.017
   0.945   0.883   0.789   0.777   0.802   0.777   0.789   0.883   0.945   1.017
   1.244   1.479   1.660   1.503   1.137   0.823   0.703   0.599   0.507   0.385
   0.296   0.244
   0.144   0.189   0.131   0.176   0.291   0.352   0.410   0.562   0.835   1.228
   1.565   1.596   1.398   1.107   1.147   1.101   0.879   0.798   0.806   0.798
   0.879   1.101   1.147   1.107   1.398   1.596   1.565   1.228   0.835   0.562
   0.410   0.352   0.291   0.176   0.131   0.189   0.144   0.189   0.131   0.176
   0.291   0.352   0.410   0.562   0.835   1.228   1.565   1.596   1.398   1.107
   1.147   1.101   0.879   0.798   0.806   0.798   0.879   1.101   1.147   1.107
   1.398   1.596   1.565   1.228   0.835   0.562   0.410   0.352   0.291   0.176
   0.131   0.189
   0.184   0.290   0.204   0.158   0.300   0.264   0.368   0.603   0.763   1.007
   1.484   1.739   1.569   1.256   1.284   1.211   1.059   0.985   1.046   0.985
   1.059   1.211   1.284   1.256   1.569   1.739   1.484   1.007   0.763   0.603
   0.368   0.264   0.300   0.158   0.204   0.290   0.184   0.290   0.204   0.158
   0.300   0.264   0.368   0.603   0.763   1.007   1.484   1.739   1.569   1.256
   1.284   1.211   1.059   0.985   1.046   0.985   1.059   1.211   1.284   1.256
   1.569   1.739   1.484   1.007   0.763   0.603   0.368   0.264   0.300   0.158
   0.204   0.290
   0.189   0.343   0.359   0.205   0.193   0.220   0.364   0.520   0.758   0.943
   1.356   1.742   1.502   1.360   1.256   1.146   1.064   1.058   1.124   1.058
   1.064   1.146   1.256   1.360   1.502   1.742   1.356   0.943   0.758   0.520
   0.364   0.220   0.193   0.205   0.359   0.343   0.189   0.343   0.359   0.205
   0.193   0.220   0.364   0.520   0.758   0.943   1.356   1.742   1.502   1.360
   1.256   1.146   1.064   1.058   1.124   1.058   1.064   1.146   1.256   1.360
   1.502   1.742   1.356   0.943   0.758   0.520   0.364   0.220   0.193   0.205
   0.359   0.343
   0.338   0.460   0.412   0.328   0.219   0.400   0.575   0.707   1.036   1.329
   1.388   1.690   1.495   1.214   1.096   1.177   1.138   1.168   1.106   1.168
   1.138   1.177   1.096   1.214   1.495   1.690   1.388   1.329   1.036   0.707
   0.575   0.400   0.219   0.328   0.412   0.460   0.338   0.460   0.412   0.328
   0.219   0.400   0.575   0.707   1.036   1.329   1.388   1.690   1.495   1.214
   1.096   1.177   1.138   1.168   1.106   1.168   1.138   1.177   1.096   1.214
   1.495   1.690   1.388   1.329   1.036   0.707   0.575   0.400   0.219   0.328
   0.412   0.460
   0.531   0.587   0.511   0.328   0.291   0.542   0.731   1.035   1.260   1.619
   1.534   1.551   1.346   0.929   0.795   1.084   0.991   1.045   1.135   1.045
   0.991   1.084   0.795   0.929   1.346   1.551   1.534   1.619   1.260   1.035
   0.731   0.542   0.291   0.328   0.511   0.587   0.531   0.587   0.511   0.328
   0.291   0.542   0.731   1.035   1.260   1.619   1.534   1.551   1.346   0.929
   0.795   1.084   0.991   1.045   1.135   1.045   0.991   1.084   0.795   0.929
   1.346   1.551   1.534   1.619   1.260   1.035   0.731   0.542   0.291   0.328
   0.511   0.587
   0.522   0.586   0.599   0.417   0.404   0.715   0.760   0.840   1.371   1.806
   1.850   1.412   1.009   0.708   0.535   0.773   0.694   0.644   0.798   0.644
   0.694   0.773   0.535   0.708   1.009   1.412   1.850   1.806   1.371   0.840
   0.760   0.715   0.404   0.417   0.599   0.586   0.522   0.586   0.599   0.417
   0.404   0.715   0.760   0.840   1.371   1.806   1.850   1.412   1.009   0.708
   0.535   0.773   0.694   0.644   0.798   0.644   0.694   0.773   0.535   0.708
   1.009   1.412   1.850   1.806   1.371   0.840   0.760   0.715   0.404   0.417
   0.599   0.586
 111       5.00   72    0 5.00   15    0
   0.098   0.098   0.098   0.098   0.098   0.098   0.098   0.098   0.098   0.098
   0.098   0.098   0.098   0.098   0.098   0.098   0.098   0.098   0.098   0.098
   0.098   0.098   0.098   0.098   0.098   0.098   0.098   0.098   0.098   0.098
   0.098   0.098   0.098   0.098   0.098   0.098   0.098   0.098   0.098   0.098
   0.098   0.098   0.098   0.098   0.098   0.098   0.098   0.098   0.098   0.098
   0.098   0.098   0.098   0.098   0.098   0.098   0.098   0.098   0.098   0.098
   0.098   0.098   0.098   0.098   0.098   0.098   0.098   0.098   0.098   0.098
   0.098   0.098
   0.134   0.128   0.134   0.139   0.138   0.136   0.122   0.121   0.135   0.120
   0.111   0.119   0.114   0.109   0.111   0.107   0.113   0.107   0.111   0.107
   0.113   0.107   0.111   0.109   0.114   0.119   0.111   0.120   0.135   0.121
   0.122   0.136   0.138   0.139   0.134   0.128   0.134   0.128   0.134   0.139
   0.138   0.136   0.122   0.121   0.135   0.120   0.111   0.119   0.114   0.109
   0.111   0.107   0.113   0.107   0.111   0.107   0.113   0.107   0.111   0.109
   0.114   0.119   0.111   0.120   0.135   0.121   0.122   0.136   0.138   0.139
   0.134   0.128
   0.229   0.210   0.199   0.207   0.197   0.192   0.165   0.153   0.154   0.143
   0.155   0.142   0.132   0.121   0.121   0.110   0.121   0.119   0.112   0.119
   0.121   0.110   0.121   0.121   0.132   0.142   0.155   0.143   0.154   0.153
   0.165   0.192   0.197   0.207   0.199   0.210   0.229   0.210   0.199   0.207
   0.197   0.192   0.165   0.153   0.154   0.143   0.155   0.142   0.132   0.121
   0.121   0.110   0.121   0.119   0.112   0.119   0.121   0.110   0.121   0.121
   0.132   0.142   0.155   0.143   0.154   0.153   0.165   0.192   0.197   0.207
   0.199   0.210
   0.591   0.569   0.530   0.475   0.422   0.393   0.312   0.274   0.240   0.203
   0.205   0.176   0.168   0.145   0.134   0.118   0.134   0.136   0.130   0.136
   0.134   0.118   0.134   0.145   0.168   0.176   0.205   0.203   0.240   0.274
   0.312   0.393   0.422   0.475   0.530   0.569   0.591   0.569   0.530   0.475
   0.422   0.393   0.312   0.274   0.240   0.203   0.205   0.176   0.168   0.145
   0.134   0.118   0.134   0.136   0.130   0.136   0.134   0.118   0.134   0.145
   0.168   0.176   0.205   0.203   0.240   0.274   0.312   0.393   0.422   0.475
   0.530   0.569
   2.144   2.060   1.892   1.646   1.370   1.115   0.833   0.644   0.474   0.360
   0.293   0.245   0.213   0.163   0.155   0.133   0.116   0.130   0.128   0.130
   0.116   0.133   0.155   0.163   0.213   0.245   0.293   0.360   0.474   0.644
   0.833   1.115   1.370   1.646   1.892   2.060   2.144   2.060   1.892   1.646
   1.370   1.115   0.833   0.644   0.474   0.360   0.293   0.245   0.213   0.163
   0.155   0.133   0.116   0.130   0.128   0.130   0.116   0.133   0.155   0.163
   0.213   0.245   0.293   0.360   0.474   0.644   0.833   1.115   1.370   1.646
   1.892   2.060
   3.897   3.763   3.585   3.254   2.899   2.425   1.896   1.434   1.037   0.742
   0.521   0.406   0.310   0.211   0.195   0.166   0.116   0.137   0.118   0.137
   0.116   0.166   0.195   0.211   0.310   0.406   0.521   0.742   1.037   1.434
   1.896   2.425   2.899   3.254   3.585   3.763   3.897   3.763   3.585   3.254
   2.899   2.425   1.896   1.434   1.037   0.742   0.521   0.406   0.310   0.211
   0.195   0.166   0.116   0.137   0.118   0.137   0.116   0.166   0.195   0.211
   0.310   0.406   0.521   0.742   1.037   1.434   1.896   2.425   2.899   3.254
   3.585   3.763
   3.465   3.433   3.431   3.314   3.210   2.986   2.654   2.227   1.816   1.329
   0.900   0.648   0.501   0.354   0.253   0.240   0.194   0.201   0.192   0.201
   0.194   0.240   0.253   0.354   0.501   0.648   0.900   1.329   1.816   2.227
   2.654   2.986   3.210   3.314   3.431   3.433   3.465   3.433   3.431   3.314
   3.210   2.986   2.654   2.227   1.816   1.329   0.900   0.648   0.501   0.354
   0.253   0.240   0.194   0.201   0.192   0.201   0.194   0.240   0.253   0.354
   0.501   0.648   0.900   1.329   1.816   2.227   2.654   2.986   3.210   3.314
   3.431   3.433
   1.764   1.895   1.956   2.067   2.203   2.349   2.370   2.292   2.165   1.795
   1.365   1.005   0.793   0.595   0.399   0.370   0.308   0.298   0.289   0.298
   0.308   0.370   0.399   0.595   0.793   1.005   1.365   1.795   2.165   2.292
   2.370   2.349   2.203   2.067   1.956   1.895   1.764   1.895   1.956   2.067
   2.203   2.349   2.370   2.292   2.165   1.795   1.365   1.005   0.793   0.595
   0.399   0.370   0.308   0.298   0.289   0.298   0.308   0.370   0.399   0.595
   0.793   1.005   1.365   1.795   2.165   2.292   2.370   2.349   2.203   2.067
   1.956   1.895
   0.736   0.844   0.904   1.034   1.264   1.523   1.674   1.826   1.924   1.852
   1.655   1.399   1.089   0.854   0.624   0.543   0.446   0.430   0.453   0.430
   0.446   0.543   0.624   0.854   1.089   1.399   1.655   1.852   1.924   1.826
   1.674   1.523   1.264   1.034   0.904   0.844   0.736   0.844   0.904   1.034
   1.264   1.523   1.674   1.826   1.924   1.852   1.655   1.399   1.089   0.854
   0.624   0.543   0.446   0.430   0.453   0.430   0.446   0.543   0.624   0.854
   1.089   1.399   1.655   1.852   1.924   1.826   1.674   1.523   1.264   1.034
   0.904   0.844
   0.455   0.457   0.442   0.473   0.639   0.849   1.056   1.309   1.499   1.563
   1.531   1.525   1.326   1.063   0.882   0.785   0.672   0.633   0.658   0.633
   0.672   0.785   0.882   1.063   1.326   1.525   1.531   1.563   1.499   1.309
   1.056   0.849   0.639   0.473   0.442   0.457   0.455   0.457   0.442   0.473
   0.639   0.849   1.056   1.309   1.499   1.563   1.531   1.525   1.326   1.063
   0.882   0.785   0.672   0.633   0.658   0.633   0.672   0.785   0.882   1.063
   1.326   1.525   1.531   1.563   1.499   1.309   1.056   0.849   0.639   0.473
   0.442   0.457
   0.365   0.327   0.289   0.287   0.312   0.439   0.616   0.890   1.115   1.207
   1.306   1.441   1.443   1.278   1.112   0.984   0.889   0.787   0.747   0.787
   0.889   0.984   1.112   1.278   1.443   1.441   1.306   1.207   1.115   0.890
   0.616   0.439   0.312   0.287   0.289   0.327   0.365   0.327   0.289   0.287
   0.312   0.439   0.616   0.890   1.115   1.207   1.306   1.441   1.443   1.278
   1.112   0.984   0.889   0.787   0.747   0.787   0.889   0.984   1.112   1.278
   1.443   1.441   1.306   1.207   1.115   0.890   0.616   0.439   0.312   0.287
   0.289   0.327
   0.378   0.337   0.308   0.288   0.235   0.322   0.446   0.669   0.873   0.962
   1.068   1.273   1.377   1.359   1.218   1.212   1.070   0.902   0.812   0.902
   1.070   1.212   1.218   1.359   1.377   1.273   1.068   0.962   0.873   0.669
   0.446   0.322   0.235   0.288   0.308   0.337   0.378   0.337   0.308   0.288
   0.235   0.322   0.446   0.669   0.873   0.962   1.068   1.273   1.377   1.359
   1.218   1.212   1.070   0.902   0.812   0.902   1.070   1.212   1.218   1.359
   1.377   1.273   1.068   0.962   0.873   0.669   0.446   0.322   0.235   0.288
   0.308   0.337
   0.454   0.473   0.388   0.273   0.228   0.319   0.411   0.567   0.731   0.849
   0.878   1.066   1.227   1.343   1.385   1.442   1.224   1.062   0.960   1.062
   1.224   1.442   1.385   1.343   1.227   1.066   0.878   0.849   0.731   0.567
   0.411   0.319   0.228   0.273   0.388   0.473   0.454   0.473   0.388   0.273
   0.228   0.319   0.411   0.567   0.731   0.849   0.878   1.066   1.227   1.343
   1.385   1.442   1.224   1.062   0.960   1.062   1.224   1.442   1.385   1.343
   1.227   1.066   0.878   0.849   0.731   0.567   0.411   0.319   0.228   0.273
   0.388   0.473
   0.472   0.563   0.494   0.339   0.269   0.313   0.390   0.581   0.714   0.802
   0.858   0.927   0.991   1.213   1.418   1.493   1.302   1.194   1.077   1.194
   1.302   1.493   1.418   1.213   0.991   0.927   0.858   0.802   0.714   0.581
   0.390   0.313   0.269   0.339   0.494   0.563   0.472   0.563   0.494   0.339
   0.269   0.313   0.390   0.581   0.714   0.802   0.858   0.927   0.991   1.213
   1.418   1.493   1.302   1.194   1.077   1.194   1.302   1.493   1.418   1.213
   0.991   0.927   0.858   0.802   0.714   0.581   0.390   0.313   0.269   0.339
   0.494   0.563
   0.792   0.771   0.726   0.553   0.467   0.367   0.444   0.714   0.806   0.887
   0.898   0.867   0.945   1.088   1.351   1.464   1.389   1.379   1.383   1.379
   1.389   1.464   1.351   1.088   0.945   0.867   0.898   0.887   0.806   0.714
   0.444   0.367   0.467   0.553   0.726   0.771   0.792   0.771   0.726   0.553
   0.467   0.367   0.444   0.714   0.806   0.887   0.898   0.867   0.945   1.088
   1.351   1.464   1.389   1.379   1.383   1.379   1.389   1.464   1.351   1.088
   0.945   0.867   0.898   0.887   0.806   0.714   0.444   0.367   0.467   0.553
   0.726   0.771
  4  1      2.0010688E-01
  4  2     -4.5022770E-01
  4  3     -6.0501648E-01
  6  1      1.6178593E+00
  6  2     -2.8502205E+00
  6  3      1.0975975E+00
  6  4     -3.2614957E-01
  8  1     -4.8757298E-01
  8  2      3.5370959E-01
  8  3     -5.3781855E-02
  8  4      5.1351031E-01
  8  5      8.9865871E-01
 10  1      2.0944275E-01
 10  2     -1.6487689E-01
 10  3      4.7195610E-01
 10  4     -1.2074362E-01
 10  5     -4.4434568E-02
 10  6      1.3741684E-01
 12  1      1.2128675E-01  1.2490573E+00
 12  2      1.8646688E-01 -1.8720427E+00
 12  3     -3.3672038E-02  1.6558350E+00
 12  4     -1.8606650E-02 -8.6844239E-01
 12  5      4.5479481E-04 -8.6185621E-03
 12  6     -3.4324065E-01  3.3390699E-01
 12  7     -1.2213155E-01  1.6868824E-02
 14  1     -3.5128169E-01
 14  2      4.4913011E-01
 14  3     -2.1245060E-01
 14  4      1.6029884E-01
 14  5     -2.2913793E-01
 14  6      1.5453682E-01
 14  7      1.2132128E-01
 14  8     -1.2060735E-01
 220       5.00   72    0 5.00   18    0
   2.082   2.083   2.086   2.090   2.096   2.103   2.112   2.122   2.132   2.142
   2.153   2.163   2.173   2.182   2.189   2.195   2.200   2.203   2.204   2.203
   2.200   2.195   2.189   2.182   2.173   2.163   2.153   2.142   2.132   2.122
   2.112   2.103   2.096   2.090   2.086   2.083   2.082   2.083   2.086   2.090
   2.096   2.103   2.112   2.122   2.132   2.142   2.153   2.163   2.173   2.182
   2.189   2.195   2.200   2.203   2.204   2.203   2.200   2.195   2.189   2.182
   2.173   2.163   2.153   2.142   2.132   2.122   2.112   2.103   2.096   2.090
   2.086   2.083
   1.367   1.373   1.391   1.422   1.464   1.517   1.579   1.650   1.727   1.808
   1.892   1.974   2.054   2.127   2.192   2.245   2.284   2.309   2.317   2.309
   2.284   2.245   2.192   2.127   2.054   1.974   1.892   1.808   1.727   1.650
   1.579   1.517   1.464   1.422   1.391   1.373   1.367   1.373   1.391   1.422
   1.464   1.517   1.579   1.650   1.727   1.808   1.892   1.974   2.054   2.127
   2.192   2.245   2.284   2.309   2.317   2.309   2.284   2.245   2.192   2.127
   2.054   1.974   1.892   1.808   1.727   1.650   1.579   1.517   1.464   1.422
   1.391   1.373
   0.485   0.494   0.521   0.567   0.633   0.719   0.826   0.953   1.100   1.264
   1.441   1.625   1.808   1.984   2.143   2.277   2.379   2.443   2.464   2.443
   2.379   2.277   2.143   1.984   1.808   1.625   1.441   1.264   1.100   0.953
   0.826   0.719   0.633   0.567   0.521   0.494   0.485   0.494   0.521   0.567
   0.633   0.719   0.826   0.953   1.100   1.264   1.441   1.625   1.808   1.984
   2.143   2.277   2.379   2.443   2.464   2.443   2.379   2.277   2.143   1.984
   1.808   1.625   1.441   1.264   1.100   0.953   0.826   0.719   0.633   0.567
   0.521   0.494
   0.052   0.056   0.066   0.088   0.124   0.180   0.263   0.378   0.529   0.718
   0.941   1.193   1.462   1.733   1.990   2.213   2.387   2.498   2.535   2.498
   2.387   2.213   1.990   1.733   1.462   1.193   0.941   0.718   0.529   0.378
   0.263   0.180   0.124   0.088   0.066   0.056   0.052   0.056   0.066   0.088
   0.124   0.180   0.263   0.378   0.529   0.718   0.941   1.193   1.462   1.733
   1.990   2.213   2.387   2.498   2.535   2.498   2.387   2.213   1.990   1.733
   1.462   1.193   0.941   0.718   0.529   0.378   0.263   0.180   0.124   0.088
   0.066   0.056
   0.211   0.205   0.188   0.165   0.139   0.122   0.123   0.156   0.233   0.366
   0.559   0.808   1.103   1.422   1.740   2.029   2.258   2.406   2.457   2.406
   2.258   2.029   1.740   1.422   1.103   0.808   0.559   0.366   0.233   0.156
   0.123   0.122   0.139   0.165   0.188   0.205   0.211   0.205   0.188   0.165
   0.139   0.122   0.123   0.156   0.233   0.366   0.559   0.808   1.103   1.422
   1.740   2.029   2.258   2.406   2.457   2.406   2.258   2.029   1.740   1.422
   1.103   0.808   0.559   0.366   0.233   0.156   0.123   0.122   0.139   0.165
   0.188   0.205
   0.538   0.532   0.513   0.481   0.434   0.376   0.315   0.268   0.254   0.294
   0.405   0.591   0.846   1.150   1.470   1.771   2.016   2.176   2.232   2.176
   2.016   1.771   1.470   1.150   0.846   0.591   0.405   0.294   0.254   0.268
   0.315   0.376   0.434   0.481   0.513   0.532   0.538   0.532   0.513   0.481
   0.434   0.376   0.315   0.268   0.254   0.294   0.405   0.591   0.846   1.150
   1.470   1.771   2.016   2.176   2.232   2.176   2.016   1.771   1.470   1.150
   0.846   0.591   0.405   0.294   0.254   0.268   0.315   0.376   0.434   0.481
   0.513   0.532
   0.517   0.526   0.548   0.573   0.589   0.582   0.548   0.497   0.446   0.425
   0.461   0.571   0.757   0.999   1.267   1.523   1.734   1.870   1.918   1.870
   1.734   1.523   1.267   0.999   0.757   0.571   0.461   0.425   0.446   0.497
   0.548   0.582   0.589   0.573   0.548   0.526   0.517   0.526   0.548   0.573
   0.589   0.582   0.548   0.497   0.446   0.425   0.461   0.571   0.757   0.999
   1.267   1.523   1.734   1.870   1.918   1.870   1.734   1.523   1.267   0.999
   0.757   0.571   0.461   0.425   0.446   0.497   0.548   0.582   0.589   0.573
   0.548   0.526
   0.141   0.165   0.233   0.332   0.443   0.540   0.601   0.619   0.604   0.585
   0.596   0.664   0.794   0.971   1.163   1.339   1.474   1.558   1.586   1.558
   1.474   1.339   1.163   0.971   0.794   0.664   0.596   0.585   0.604   0.619
   0.601   0.540   0.443   0.332   0.233   0.165   0.141   0.165   0.233   0.332
   0.443   0.540   0.601   0.619   0.604   0.585   0.596   0.664   0.794   0.971
   1.163   1.339   1.474   1.558   1.586   1.558   1.474   1.339   1.163   0.971
   0.794   0.664   0.596   0.585   0.604   0.619   0.601   0.540   0.443   0.332
   0.233   0.165
   0.011   0.024   0.068   0.150   0.268   0.402   0.521   0.600   0.634   0.645
   0.670   0.736   0.849   0.986   1.115   1.208   1.258   1.276   1.280   1.276
   1.258   1.208   1.115   0.986   0.849   0.736   0.670   0.645   0.634   0.600
   0.521   0.402   0.268   0.150   0.068   0.024   0.011   0.024   0.068   0.150
   0.268   0.402   0.521   0.600   0.634   0.645   0.670   0.736   0.849   0.986
   1.115   1.208   1.258   1.276   1.280   1.276   1.258   1.208   1.115   0.986
   0.849   0.736   0.670   0.645   0.634   0.600   0.521   0.402   0.268   0.150
   0.068   0.024
   0.748   0.710   0.620   0.529   0.486   0.502   0.553   0.597   0.614   0.617
   0.640   0.712   0.830   0.959   1.054   1.088   1.069   1.031   1.014   1.031
   1.069   1.088   1.054   0.959   0.830   0.712   0.640   0.617   0.614   0.597
   0.553   0.502   0.486   0.529   0.620   0.710   0.748   0.710   0.620   0.529
   0.486   0.502   0.553   0.597   0.614   0.617   0.640   0.712   0.830   0.959
   1.054   1.088   1.069   1.031   1.014   1.031   1.069   1.088   1.054   0.959
   0.830   0.712   0.640   0.617   0.614   0.597   0.553   0.502   0.486   0.529
   0.620   0.710
   2.246   2.135   1.848   1.495   1.189   0.985   0.867   0.784   0.699   0.620
   0.586   0.628   0.738   0.865   0.949   0.958   0.905   0.839   0.810   0.839
   0.905   0.958   0.949   0.865   0.738   0.628   0.586   0.620   0.699   0.784
   0.867   0.985   1.189   1.495   1.848   2.135   2.246   2.135   1.848   1.495
   1.189   0.985   0.867   0.784   0.699   0.620   0.586   0.628   0.738   0.865
   0.949   0.958   0.905   0.839   0.810   0.839   0.905   0.958   0.949   0.865
   0.738   0.628   0.586   0.620   0.699   0.784   0.867   0.985   1.189   1.495
   1.848   2.135
   3.565   3.402   2.978   2.446   1.961   1.603   1.357   1.156   0.952   0.755
   0.618   0.585   0.651   0.758   0.836   0.847   0.798   0.737   0.710   0.737
   0.798   0.847   0.836   0.758   0.651   0.585   0.618   0.755   0.952   1.156
   1.357   1.603   1.961   2.446   2.978   3.402   3.565   3.402   2.978   2.446
   1.961   1.603   1.357   1.156   0.952   0.755   0.618   0.585   0.651   0.758
   0.836   0.847   0.798   0.737   0.710   0.737   0.798   0.847   0.836   0.758
   0.651   0.585   0.618   0.755   0.952   1.156   1.357   1.603   1.961   2.446
   2.978   3.402
   3.689   3.534   3.134   2.644   2.216   1.918   1.715   1.520   1.278   1.006
   0.777   0.656   0.650   0.710   0.774   0.800   0.790   0.768   0.757   0.768
   0.790   0.800   0.774   0.710   0.650   0.656   0.777   1.006   1.278   1.520
   1.715   1.918   2.216   2.644   3.134   3.534   3.689   3.534   3.134   2.644
   2.216   1.918   1.715   1.520   1.278   1.006   0.777   0.656   0.650   0.710
   0.774   0.800   0.790   0.768   0.757   0.768   0.790   0.800   0.774   0.710
   0.650   0.656   0.777   1.006   1.278   1.520   1.715   1.918   2.216   2.644
   3.134   3.534
   2.479   2.387   2.159   1.911   1.749   1.701   1.703   1.655   1.496   1.247
   0.993   0.815   0.740   0.743   0.783   0.835   0.888   0.930   0.947   0.930
   0.888   0.835   0.783   0.743   0.740   0.815   0.993   1.247   1.496   1.655
   1.703   1.701   1.749   1.911   2.159   2.387   2.479   2.387   2.159   1.911
   1.749   1.701   1.703   1.655   1.496   1.247   0.993   0.815   0.740   0.743
   0.783   0.835   0.888   0.930   0.947   0.930   0.888   0.835   0.783   0.743
   0.740   0.815   0.993   1.247   1.496   1.655   1.703   1.701   1.749   1.911
   2.159   2.387
   0.841   0.823   0.794   0.812   0.927   1.131   1.354   1.495   1.489   1.350
   1.151   0.972   0.856   0.809   0.830   0.915   1.046   1.168   1.219   1.168
   1.046   0.915   0.830   0.809   0.856   0.972   1.151   1.350   1.489   1.495
   1.354   1.131   0.927   0.812   0.794   0.823   0.841   0.823   0.794   0.812
   0.927   1.131   1.354   1.495   1.489   1.350   1.151   0.972   0.856   0.809
   0.830   0.915   1.046   1.168   1.219   1.168   1.046   0.915   0.830   0.809
   0.856   0.972   1.151   1.350   1.489   1.495   1.354   1.131   0.927   0.812
   0.794   0.823
  -0.104  -0.083  -0.014   0.117   0.325   0.604   0.906   1.155   1.284   1.281
   1.183   1.049   0.924   0.847   0.858   0.983   1.194   1.398   1.483   1.398
   1.194   0.983   0.858   0.847   0.924   1.049   1.183   1.281   1.284   1.155
   0.906   0.604   0.325   0.117  -0.014  -0.083  -0.104  -0.083  -0.014   0.117
   0.325   0.604   0.906   1.155   1.284   1.281   1.183   1.049   0.924   0.847
   0.858   0.983   1.194   1.398   1.483   1.398   1.194   0.983   0.858   0.847
   0.924   1.049   1.183   1.281   1.284   1.155   0.906   0.604   0.325   0.117
  -0.014  -0.083
  -0.038  -0.021   0.023   0.090   0.191   0.353   0.578   0.822   1.018   1.119
   1.117   1.039   0.925   0.836   0.847   1.008   1.287   1.559   1.671   1.559
   1.287   1.008   0.847   0.836   0.925   1.039   1.117   1.119   1.018   0.822
   0.578   0.353   0.191   0.090   0.023  -0.021  -0.038  -0.021   0.023   0.090
   0.191   0.353   0.578   0.822   1.018   1.119   1.117   1.039   0.925   0.836
   0.847   1.008   1.287   1.559   1.671   1.559   1.287   1.008   0.847   0.836
   0.925   1.039   1.117   1.119   1.018   0.822   0.578   0.353   0.191   0.090
   0.023  -0.021
   0.387   0.386   0.370   0.331   0.293   0.313   0.431   0.629   0.840   0.992
   1.046   1.004   0.901   0.810   0.824   1.007   1.326   1.635   1.764   1.635
   1.326   1.007   0.824   0.810   0.901   1.004   1.046   0.992   0.840   0.629
   0.431   0.313   0.293   0.331   0.370   0.386   0.387   0.386   0.370   0.331
   0.293   0.313   0.431   0.629   0.840   0.992   1.046   1.004   0.901   0.810
   0.824   1.007   1.326   1.635   1.764   1.635   1.326   1.007   0.824   0.810
   0.901   1.004   1.046   0.992   0.840   0.629   0.431   0.313   0.293   0.331
   0.370   0.386
 200       5.00   72    0 5.00   18    0
   0.645   0.645   0.645   0.646   0.647   0.648   0.649   0.651   0.652   0.654
   0.655   0.657   0.659   0.660   0.661   0.662   0.663   0.663   0.663   0.663
   0.663   0.662   0.661   0.660   0.659   0.657   0.655   0.654   0.652   0.651
   0.649   0.648   0.647   0.646   0.645   0.645   0.645   0.645   0.645   0.646
   0.647   0.648   0.649   0.651   0.652   0.654   0.655   0.657   0.659   0.660
   0.661   0.662   0.663   0.663   0.663   0.663   0.663   0.662   0.661   0.660
   0.659   0.657   0.655   0.654   0.652   0.651   0.649   0.648   0.647   0.646
   0.645   0.645
   0.538   0.538   0.538   0.539   0.541   0.543   0.546   0.550   0.556   0.563
   0.571   0.579   0.588   0.597   0.605   0.612   0.617   0.621   0.622   0.621
   0.617   0.612   0.605   0.597   0.588   0.579   0.571   0.563   0.556   0.550
   0.546   0.543   0.541   0.539   0.538   0.538   0.538   0.538   0.538   0.539
   0.541   0.543   0.546   0.550   0.556   0.563   0.571   0.579   0.588   0.597
   0.605   0.612   0.617   0.621   0.622   0.621   0.617   0.612   0.605   0.597
   0.588   0.579   0.571   0.563   0.556   0.550   0.546   0.543   0.541   0.539
   0.538   0.538
   0.677   0.673   0.664   0.648   0.629   0.607   0.584   0.563   0.545   0.532
   0.525   0.524   0.528   0.536   0.548   0.559   0.570   0.577   0.579   0.577
   0.570   0.559   0.548   0.536   0.528   0.524   0.525   0.532   0.545   0.563
   0.584   0.607   0.629   0.648   0.664   0.673   0.677   0.673   0.664   0.648
   0.629   0.607   0.584   0.563   0.545   0.532   0.525   0.524   0.528   0.536
   0.548   0.559   0.570   0.577   0.579   0.577   0.570   0.559   0.548   0.536
   0.528   0.524   0.525   0.532   0.545   0.563   0.584   0.607   0.629   0.648
   0.664   0.673
   1.268   1.258   1.228   1.179   1.115   1.038   0.954   0.867   0.783   0.708
   0.644   0.597   0.567   0.552   0.551   0.558   0.568   0.576   0.580   0.576
   0.568   0.558   0.551   0.552   0.567   0.597   0.644   0.708   0.783   0.867
   0.954   1.038   1.115   1.179   1.228   1.258   1.268   1.258   1.228   1.179
   1.115   1.038   0.954   0.867   0.783   0.708   0.644   0.597   0.567   0.552
   0.551   0.558   0.568   0.576   0.580   0.576   0.568   0.558   0.551   0.552
   0.567   0.597   0.644   0.708   0.783   0.867   0.954   1.038   1.115   1.179
   1.228   1.258
   1.995   1.982   1.941   1.873   1.780   1.664   1.529   1.380   1.225   1.073
   0.934   0.815   0.725   0.664   0.632   0.621   0.624   0.630   0.633   0.630
   0.624   0.621   0.632   0.664   0.725   0.815   0.934   1.073   1.225   1.380
   1.529   1.664   1.780   1.873   1.941   1.982   1.995   1.982   1.941   1.873
   1.780   1.664   1.529   1.380   1.225   1.073   0.934   0.815   0.725   0.664
   0.632   0.621   0.624   0.630   0.633   0.630   0.624   0.621   0.632   0.664
   0.725   0.815   0.934   1.073   1.225   1.380   1.529   1.664   1.780   1.873
   1.941   1.982
   2.256   2.250   2.229   2.190   2.131   2.048   1.937   1.798   1.634   1.453
   1.267   1.091   0.940   0.825   0.751   0.714   0.703   0.704   0.706   0.704
   0.703   0.714   0.751   0.825   0.940   1.091   1.267   1.453   1.634   1.798
   1.937   2.048   2.131   2.190   2.229   2.250   2.256   2.250   2.229   2.190
   2.131   2.048   1.937   1.798   1.634   1.453   1.267   1.091   0.940   0.825
   0.751   0.714   0.703   0.704   0.706   0.704   0.703   0.714   0.751   0.825
   0.940   1.091   1.267   1.453   1.634   1.798   1.937   2.048   2.131   2.190
   2.229   2.250
   1.776   1.784   1.806   1.836   1.866   1.886   1.885   1.851   1.775   1.654
   1.494   1.312   1.129   0.972   0.857   0.789   0.759   0.751   0.751   0.751
   0.759   0.789   0.857   0.972   1.129   1.312   1.494   1.654   1.775   1.851
   1.885   1.886   1.866   1.836   1.806   1.784   1.776   1.784   1.806   1.836
   1.866   1.886   1.885   1.851   1.775   1.654   1.494   1.312   1.129   0.972
   0.857   0.789   0.759   0.751   0.751   0.751   0.759   0.789   0.857   0.972
   1.129   1.312   1.494   1.654   1.775   1.851   1.885   1.886   1.866   1.836
   1.806   1.784
   0.898   0.917   0.972   1.057   1.164   1.285   1.410   1.521   1.596   1.610
   1.552   1.425   1.255   1.079   0.931   0.831   0.780   0.760   0.756   0.760
   0.780   0.831   0.931   1.079   1.255   1.425   1.552   1.610   1.596   1.521
   1.410   1.285   1.164   1.057   0.972   0.917   0.898   0.917   0.972   1.057
   1.164   1.285   1.410   1.521   1.596   1.610   1.552   1.425   1.255   1.079
   0.931   0.831   0.780   0.760   0.756   0.760   0.780   0.831   0.931   1.079
   1.255   1.425   1.552   1.610   1.596   1.521   1.410   1.285   1.164   1.057
   0.972   0.917
   0.240   0.258   0.309   0.388   0.495   0.636   0.816   1.027   1.240   1.408
   1.488   1.459   1.337   1.167   1.000   0.874   0.800   0.767   0.759   0.767
   0.800   0.874   1.000   1.167   1.337   1.459   1.488   1.408   1.240   1.027
   0.816   0.636   0.495   0.388   0.309   0.258   0.240   0.258   0.309   0.388
   0.495   0.636   0.816   1.027   1.240   1.408   1.488   1.459   1.337   1.167
   1.000   0.874   0.800   0.767   0.759   0.767   0.800   0.874   1.000   1.167
   1.337   1.459   1.488   1.408   1.240   1.027   0.816   0.636   0.495   0.388
   0.309   0.258
   0.110   0.118   0.138   0.161   0.193   0.261   0.401   0.628   0.917   1.201
   1.403   1.473   1.411   1.262   1.091   0.950   0.861   0.817   0.805   0.817
   0.861   0.950   1.091   1.262   1.411   1.473   1.403   1.201   0.917   0.628
   0.401   0.261   0.193   0.161   0.138   0.118   0.110   0.118   0.138   0.161
   0.193   0.261   0.401   0.628   0.917   1.201   1.403   1.473   1.411   1.262
   1.091   0.950   0.861   0.817   0.805   0.817   0.861   0.950   1.091   1.262
   1.411   1.473   1.403   1.201   0.917   0.628   0.401   0.261   0.193   0.161
   0.138   0.118
   0.306   0.308   0.303   0.273   0.223   0.197   0.261   0.457   0.766   1.108
   1.378   1.503   1.475   1.344   1.182   1.045   0.957   0.912   0.900   0.912
   0.957   1.045   1.182   1.344   1.475   1.503   1.378   1.108   0.766   0.457
   0.261   0.197   0.223   0.273   0.303   0.308   0.306   0.308   0.303   0.273
   0.223   0.197   0.261   0.457   0.766   1.108   1.378   1.503   1.475   1.344
   1.182   1.045   0.957   0.912   0.900   0.912   0.957   1.045   1.182   1.344
   1.475   1.503   1.378   1.108   0.766   0.457   0.261   0.197   0.223   0.273
   0.303   0.308
   0.453   0.457   0.452   0.413   0.339   0.281   0.319   0.507   0.822   1.171
   1.435   1.540   1.491   1.353   1.204   1.092   1.026   0.995   0.987   0.995
   1.026   1.092   1.204   1.353   1.491   1.540   1.435   1.171   0.822   0.507
   0.319   0.281   0.339   0.413   0.452   0.457   0.453   0.457   0.452   0.413
   0.339   0.281   0.319   0.507   0.822   1.171   1.435   1.540   1.491   1.353
   1.204   1.092   1.026   0.995   0.987   0.995   1.026   1.092   1.204   1.353
   1.491   1.540   1.435   1.171   0.822   0.507   0.319   0.281   0.339   0.413
   0.452   0.457
   0.428   0.435   0.441   0.424   0.386   0.377   0.470   0.703   1.035   1.356
   1.544   1.551   1.417   1.239   1.099   1.026   1.004   1.002   1.003   1.002
   1.004   1.026   1.099   1.239   1.417   1.551   1.544   1.356   1.035   0.703
   0.470   0.377   0.386   0.424   0.441   0.435   0.428   0.435   0.441   0.424
   0.386   0.377   0.470   0.703   1.035   1.356   1.544   1.551   1.417   1.239
   1.099   1.026   1.004   1.002   1.003   1.002   1.004   1.026   1.099   1.239
   1.417   1.551   1.544   1.356   1.035   0.703   0.470   0.377   0.386   0.424
   0.441   0.435
   0.429   0.428   0.421   0.410   0.414   0.481   0.662   0.963   1.311   1.576
   1.647   1.509   1.253   1.014   0.881   0.857   0.890   0.926   0.939   0.926
   0.890   0.857   0.881   1.014   1.253   1.509   1.647   1.576   1.311   0.963
   0.662   0.481   0.414   0.410   0.421   0.428   0.429   0.428   0.421   0.410
   0.414   0.481   0.662   0.963   1.311   1.576   1.647   1.509   1.253   1.014
   0.881   0.857   0.890   0.926   0.939   0.926   0.890   0.857   0.881   1.014
   1.253   1.509   1.647   1.576   1.311   0.963   0.662   0.481   0.414   0.410
   0.421   0.428
   0.687   0.663   0.604   0.550   0.549   0.651   0.881   1.210   1.541   1.732
   1.683   1.410   1.046   0.758   0.639   0.667   0.756   0.830   0.856   0.830
   0.756   0.667   0.639   0.758   1.046   1.410   1.683   1.732   1.541   1.210
   0.881   0.651   0.549   0.550   0.604   0.663   0.687   0.663   0.604   0.550
   0.549   0.651   0.881   1.210   1.541   1.732   1.683   1.410   1.046   0.758
   0.639   0.667   0.756   0.830   0.856   0.830   0.756   0.667   0.639   0.758
   1.046   1.410   1.683   1.732   1.541   1.210   0.881   0.651   0.549   0.550
   0.604   0.663
   1.207   1.151   1.017   0.881   0.823   0.893   1.095   1.383   1.650   1.762
   1.627   1.275   0.860   0.561   0.470   0.548   0.685   0.791   0.827   0.791
   0.685   0.548   0.470   0.561   0.860   1.275   1.627   1.762   1.650   1.383
   1.095   0.893   0.823   0.881   1.017   1.151   1.207   1.151   1.017   0.881
   0.823   0.893   1.095   1.383   1.650   1.762   1.627   1.275   0.860   0.561
   0.470   0.548   0.685   0.791   0.827   0.791   0.685   0.548   0.470   0.561
   0.860   1.275   1.627   1.762   1.650   1.383   1.095   0.893   0.823   0.881
   1.017   1.151
   1.772   1.689   1.485   1.268   1.135   1.134   1.259   1.461   1.646   1.692
   1.515   1.146   0.733   0.457   0.403   0.524   0.696   0.822   0.866   0.822
   0.696   0.524   0.403   0.457   0.733   1.146   1.515   1.692   1.646   1.461
   1.259   1.134   1.135   1.268   1.485   1.689   1.772   1.689   1.485   1.268
   1.135   1.134   1.259   1.461   1.646   1.692   1.515   1.146   0.733   0.457
   0.403   0.524   0.696   0.822   0.866   0.822   0.696   0.524   0.403   0.457
   0.733   1.146   1.515   1.692   1.646   1.461   1.259   1.134   1.135   1.268
   1.485   1.689
   2.128   2.029   1.787   1.521   1.338   1.282   1.345   1.480   1.605   1.614
   1.426   1.066   0.673   0.423   0.397   0.543   0.733   0.869   0.916   0.869
   0.733   0.543   0.397   0.423   0.673   1.066   1.426   1.614   1.605   1.480
   1.345   1.282   1.338   1.521   1.787   2.029   2.128   2.029   1.787   1.521
   1.338   1.282   1.345   1.480   1.605   1.614   1.426   1.066   0.673   0.423
   0.397   0.543   0.733   0.869   0.916   0.869   0.733   0.543   0.397   0.423
   0.673   1.066   1.426   1.614   1.605   1.480   1.345   1.282   1.338   1.521
   1.787   2.029
 111       5.00   72    0 5.00   18    0
   0.510   0.510   0.511   0.513   0.516   0.520   0.524   0.529   0.534   0.539
   0.544   0.549   0.554   0.558   0.562   0.565   0.567   0.569   0.569   0.569
   0.567   0.565   0.562   0.558   0.554   0.549   0.544   0.539   0.534   0.529
   0.524   0.520   0.516   0.513   0.511   0.510   0.510   0.510   0.511   0.513
   0.516   0.520   0.524   0.529   0.534   0.539   0.544   0.549   0.554   0.558
   0.562   0.565   0.567   0.569   0.569   0.569   0.567   0.565   0.562   0.558
   0.554   0.549   0.544   0.539   0.534   0.529   0.524   0.520   0.516   0.513
   0.511   0.510
   0.172   0.174   0.178   0.186   0.198   0.213   0.232   0.255   0.281   0.311
   0.344   0.378   0.412   0.444   0.474   0.499   0.518   0.529   0.533   0.529
   0.518   0.499   0.474   0.444   0.412   0.378   0.344   0.311   0.281   0.255
   0.232   0.213   0.198   0.186   0.178   0.174   0.172   0.174   0.178   0.186
   0.198   0.213   0.232   0.255   0.281   0.311   0.344   0.378   0.412   0.444
   0.474   0.499   0.518   0.529   0.533   0.529   0.518   0.499   0.474   0.444
   0.412   0.378   0.344   0.311   0.281   0.255   0.232   0.213   0.198   0.186
   0.178   0.174
   0.190   0.185   0.171   0.149   0.124   0.098   0.077   0.064   0.063   0.077
   0.105   0.147   0.201   0.261   0.322   0.378   0.423   0.452   0.462   0.452
   0.423   0.378   0.322   0.261   0.201   0.147   0.105   0.077   0.063   0.064
   0.077   0.098   0.124   0.149   0.171   0.185   0.190   0.185   0.171   0.149
   0.124   0.098   0.077   0.064   0.063   0.077   0.105   0.147   0.201   0.261
   0.322   0.378   0.423   0.452   0.462   0.452   0.423   0.378   0.322   0.261
   0.201   0.147   0.105   0.077   0.063   0.064   0.077   0.098   0.124   0.149
   0.171   0.185
   1.098   1.076   1.011   0.908   0.776   0.625   0.469   0.319   0.190   0.091
   0.031   0.013   0.034   0.086   0.159   0.238   0.308   0.355   0.372   0.355
   0.308   0.238   0.159   0.086   0.034   0.013   0.031   0.091   0.190   0.319
   0.469   0.625   0.776   0.908   1.011   1.076   1.098   1.076   1.011   0.908
   0.776   0.625   0.469   0.319   0.190   0.091   0.031   0.013   0.034   0.086
   0.159   0.238   0.308   0.355   0.372   0.355   0.308   0.238   0.159   0.086
   0.034   0.013   0.031   0.091   0.190   0.319   0.469   0.625   0.776   0.908
   1.011   1.076
   2.547   2.508   2.394   2.210   1.966   1.676   1.357   1.031   0.720   0.446
   0.229   0.083   0.011   0.007   0.056   0.135   0.217   0.277   0.300   0.277
   0.217   0.135   0.056   0.007   0.011   0.083   0.229   0.446   0.720   1.031
   1.357   1.676   1.966   2.210   2.394   2.508   2.547   2.508   2.394   2.210
   1.966   1.676   1.357   1.031   0.720   0.446   0.229   0.083   0.011   0.007
   0.056   0.135   0.217   0.277   0.300   0.277   0.217   0.135   0.056   0.007
   0.011   0.083   0.229   0.446   0.720   1.031   1.357   1.676   1.966   2.210
   2.394   2.508
   3.520   3.483   3.373   3.190   2.937   2.618   2.246   1.837   1.415   1.010
   0.652   0.368   0.177   0.083   0.074   0.123   0.196   0.257   0.281   0.257
   0.196   0.123   0.074   0.083   0.177   0.368   0.652   1.010   1.415   1.837
   2.246   2.618   2.937   3.190   3.373   3.483   3.520   3.483   3.373   3.190
   2.937   2.618   2.246   1.837   1.415   1.010   0.652   0.368   0.177   0.083
   0.074   0.123   0.196   0.257   0.281   0.257   0.196   0.123   0.074   0.083
   0.177   0.368   0.652   1.010   1.415   1.837   2.246   2.618   2.937   3.190
   3.373   3.483
   3.284   3.272   3.234   3.160   3.040   2.862   2.617   2.306   1.939   1.540
   1.142   0.785   0.503   0.317   0.231   0.223   0.260   0.303   0.321   0.303
   0.260   0.223   0.231   0.317   0.503   0.785   1.142   1.540   1.939   2.306
   2.617   2.862   3.040   3.160   3.234   3.272   3.284   3.272   3.234   3.160
   3.040   2.862   2.617   2.306   1.939   1.540   1.142   0.785   0.503   0.317
   0.231   0.223   0.260   0.303   0.321   0.303   0.260   0.223   0.231   0.317
   0.503   0.785   1.142   1.540   1.939   2.306   2.617   2.862   3.040   3.160
   3.234   3.272
   2.062   2.082   2.138   2.215   2.291   2.339   2.333   2.252   2.085   1.835
   1.527   1.199   0.894   0.652   0.492   0.412   0.389   0.393   0.397   0.393
   0.389   0.412   0.492   0.652   0.894   1.199   1.527   1.835   2.085   2.252
   2.333   2.339   2.291   2.215   2.138   2.082   2.062   2.082   2.138   2.215
   2.291   2.339   2.333   2.252   2.085   1.835   1.527   1.199   0.894   0.652
   0.492   0.412   0.389   0.393   0.397   0.393   0.389   0.412   0.492   0.652
   0.894   1.199   1.527   1.835   2.085   2.252   2.333   2.339   2.291   2.215
   2.138   2.082
   0.760   0.797   0.904   1.067   1.267   1.478   1.669   1.809   1.868   1.828
   1.690   1.478   1.231   0.992   0.791   0.644   0.549   0.499   0.484   0.499
   0.549   0.644   0.791   0.992   1.231   1.478   1.690   1.828   1.868   1.809
   1.669   1.478   1.267   1.067   0.904   0.797   0.760   0.797   0.904   1.067
   1.267   1.478   1.669   1.809   1.868   1.828   1.690   1.478   1.231   0.992
   0.791   0.644   0.549   0.499   0.484   0.499   0.549   0.644   0.791   0.992
   1.231   1.478   1.690   1.828   1.868   1.809   1.669   1.478   1.267   1.067
   0.904   0.797
   0.114   0.143   0.227   0.364   0.548   0.770   1.015   1.254   1.452   1.576
   1.608   1.549   1.422   1.252   1.065   0.883   0.728   0.622   0.584   0.622
   0.728   0.883   1.065   1.252   1.422   1.549   1.608   1.576   1.452   1.254
   1.015   0.770   0.548   0.364   0.227   0.143   0.114   0.143   0.227   0.364
   0.548   0.770   1.015   1.254   1.452   1.576   1.608   1.549   1.422   1.252
   1.065   0.883   0.728   0.622   0.584   0.622   0.728   0.883   1.065   1.252
   1.422   1.549   1.608   1.576   1.452   1.254   1.015   0.770   0.548   0.364
   0.227   0.143
   0.145   0.148   0.162   0.199   0.274   0.402   0.584   0.803   1.027   1.220
   1.357   1.429   1.439   1.387   1.274   1.109   0.926   0.779   0.723   0.779
   0.926   1.109   1.274   1.387   1.439   1.429   1.357   1.220   1.027   0.803
   0.584   0.402   0.274   0.199   0.162   0.148   0.145   0.148   0.162   0.199
   0.274   0.402   0.584   0.803   1.027   1.220   1.357   1.429   1.439   1.387
   1.274   1.109   0.926   0.779   0.723   0.779   0.926   1.109   1.274   1.387
   1.439   1.429   1.357   1.220   1.027   0.803   0.584   0.402   0.274   0.199
   0.162   0.148
   0.380   0.357   0.301   0.242   0.220   0.262   0.375   0.543   0.733   0.915
   1.075   1.212   1.327   1.401   1.398   1.299   1.133   0.975   0.910   0.975
   1.133   1.299   1.398   1.401   1.327   1.212   1.075   0.915   0.733   0.543
   0.375   0.262   0.220   0.242   0.301   0.357   0.380   0.357   0.301   0.242
   0.220   0.262   0.375   0.543   0.733   0.915   1.075   1.212   1.327   1.401
   1.398   1.299   1.133   0.975   0.910   0.975   1.133   1.299   1.398   1.401
   1.327   1.212   1.075   0.915   0.733   0.543   0.375   0.262   0.220   0.242
   0.301   0.357
   0.465   0.423   0.321   0.215   0.163   0.197   0.311   0.470   0.630   0.767
   0.886   1.013   1.166   1.324   1.427   1.419   1.309   1.173   1.112   1.173
   1.309   1.419   1.427   1.324   1.166   1.013   0.886   0.767   0.630   0.470
   0.311   0.197   0.163   0.215   0.321   0.423   0.465   0.423   0.321   0.215
   0.163   0.197   0.311   0.470   0.630   0.767   0.886   1.013   1.166   1.324
   1.427   1.419   1.309   1.173   1.112   1.173   1.309   1.419   1.427   1.324
   1.166   1.013   0.886   0.767   0.630   0.470   0.311   0.197   0.163   0.215
   0.321   0.423
   0.491   0.434   0.301   0.176   0.135   0.206   0.359   0.537   0.685   0.776
   0.829   0.896   1.019   1.195   1.359   1.434   1.397   1.310   1.266   1.310
   1.397   1.434   1.359   1.195   1.019   0.896   0.829   0.776   0.685   0.537
   0.359   0.206   0.135   0.176   0.301   0.434   0.491   0.434   0.301   0.176
   0.135   0.206   0.359   0.537   0.685   0.776   0.829   0.896   1.019   1.195
   1.359   1.434   1.397   1.310   1.266   1.310   1.397   1.434   1.359   1.195
   1.019   0.896   0.829   0.776   0.685   0.537   0.359   0.206   0.135   0.176
   0.301   0.434
   0.780   0.708   0.539   0.380   0.320   0.382   0.522   0.675   0.790   0.843
   0.847   0.850   0.908   1.041   1.209   1.333   1.369   1.343   1.323   1.343
   1.369   1.333   1.209   1.041   0.908   0.850   0.847   0.843   0.790   0.675
   0.522   0.382   0.320   0.380   0.539   0.708   0.780   0.708   0.539   0.380
   0.320   0.382   0.522   0.675   0.790   0.843   0.847   0.850   0.908   1.041
   1.209   1.333   1.369   1.343   1.323   1.343   1.369   1.333   1.209   1.041
   0.908   0.850   0.847   0.843   0.790   0.675   0.522   0.382   0.320   0.380
   0.539   0.708
   1.473   1.383   1.166   0.940   0.798   0.753   0.770   0.807   0.842   0.859
   0.850   0.824   0.823   0.889   1.016   1.153   1.244   1.278   1.283   1.278
   1.244   1.153   1.016   0.889   0.823   0.824   0.850   0.859   0.842   0.807
   0.770   0.753   0.798   0.940   1.166   1.383   1.473   1.383   1.166   0.940
   0.798   0.753   0.770   0.807   0.842   0.859   0.850   0.824   0.823   0.889
   1.016   1.153   1.244   1.278   1.283   1.278   1.244   1.153   1.016   0.889
   0.823   0.824   0.850   0.859   0.842   0.807   0.770   0.753   0.798   0.940
   1.166   1.383
   2.338   2.231   1.968   1.664   1.402   1.195   1.021   0.885   0.811   0.797
   0.804   0.788   0.758   0.763   0.840   0.967   1.092   1.171   1.197   1.171
   1.092   0.967   0.840   0.763   0.758   0.788   0.804   0.797   0.811   0.885
   1.021   1.195   1.402   1.664   1.968   2.231   2.338   2.231   1.968   1.664
   1.402   1.195   1.021   0.885   0.811   0.797   0.804   0.788   0.758   0.763
   0.840   0.967   1.092   1.171   1.197   1.171   1.092   0.967   0.840   0.763
   0.758   0.788   0.804   0.797   0.811   0.885   1.021   1.195   1.402   1.664
   1.968   2.231
   2.935   2.820   2.528   2.171   1.823   1.494   1.178   0.914   0.759   0.726
   0.752   0.756   0.719   0.692   0.734   0.851   0.990   1.094   1.131   1.094
   0.990   0.851   0.734   0.692   0.719   0.756   0.752   0.726   0.759   0.914
   1.178   1.494   1.823   2.171   2.528   2.820   2.935   2.820   2.528   2.171
   1.823   1.494   1.178   0.914   0.759   0.726   0.752   0.756   0.719   0.692
   0.734   0.851   0.990   1.094   1.131   1.094   0.990   0.851   0.734   0.692
   0.719   0.756   0.752   0.726   0.759   0.914   1.178   1.494   1.823   2.171
   2.528   2.820
TEXTURE_INDEX=   2.4665
ERR_CF 220         1080     474   20.99   13.23
ERR_CF 200         1080     404   13.16    7.20
ERR_CF 111         1080     340   66.93    8.05
