TEXEVAL                                                                         
Analysis started on 24-Oct-19 10:36:24                                          
 LMAX=14LFMAX=03 CUBIC ORTHO   
 220      5.00 5.00
 200      5.00 5.00
 111      5.00 5.00
 220       5.00   72    0 5.00   15    0
   1.711   1.711   1.711   1.711   1.711   1.711   1.711   1.711   1.711   1.711
   1.711   1.711   1.711   1.711   1.711   1.711   1.711   1.711   1.711   1.711
   1.711   1.711   1.711   1.711   1.711   1.711   1.711   1.711   1.711   1.711
   1.711   1.711   1.711   1.711   1.711   1.711   1.711   1.711   1.711   1.711
   1.711   1.711   1.711   1.711   1.711   1.711   1.711   1.711   1.711   1.711
   1.711   1.711   1.711   1.711   1.711   1.711   1.711   1.711   1.711   1.711
   1.711   1.711   1.711   1.711   1.711   1.711   1.711   1.711   1.711   1.711
   1.711   1.711
   0.997   1.174   1.000   0.848   0.908   1.059   1.273   1.358   1.398   1.247
   1.411   1.408   1.295   1.748   1.905   2.135   2.160   1.858   1.802   1.858
   2.160   2.135   1.905   1.748   1.295   1.408   1.411   1.247   1.398   1.358
   1.273   1.059   0.908   0.848   1.000   1.174   0.997   1.174   1.000   0.848
   0.908   1.059   1.273   1.358   1.398   1.247   1.411   1.408   1.295   1.748
   1.905   2.135   2.160   1.858   1.802   1.858   2.160   2.135   1.905   1.748
   1.295   1.408   1.411   1.247   1.398   1.358   1.273   1.059   0.908   0.848
   1.000   1.174
   0.827   0.769   0.699   0.764   0.937   0.874   0.804   1.061   1.027   0.983
   1.096   1.115   1.104   1.496   1.672   1.814   1.840   1.988   2.107   1.988
   1.840   1.814   1.672   1.496   1.104   1.115   1.096   0.983   1.027   1.061
   0.804   0.874   0.937   0.764   0.699   0.769   0.827   0.769   0.699   0.764
   0.937   0.874   0.804   1.061   1.027   0.983   1.096   1.115   1.104   1.496
   1.672   1.814   1.840   1.988   2.107   1.988   1.840   1.814   1.672   1.496
   1.104   1.115   1.096   0.983   1.027   1.061   0.804   0.874   0.937   0.764
   0.699   0.769
   0.810   0.738   0.686   0.737   0.864   0.707   0.670   0.829   0.940   0.844
   0.854   0.910   1.106   1.418   1.706   1.812   1.820   1.969   1.883   1.969
   1.820   1.812   1.706   1.418   1.106   0.910   0.854   0.844   0.940   0.829
   0.670   0.707   0.864   0.737   0.686   0.738   0.810   0.738   0.686   0.737
   0.864   0.707   0.670   0.829   0.940   0.844   0.854   0.910   1.106   1.418
   1.706   1.812   1.820   1.969   1.883   1.969   1.820   1.812   1.706   1.418
   1.106   0.910   0.854   0.844   0.940   0.829   0.670   0.707   0.864   0.737
   0.686   0.738
   0.708   0.636   0.573   0.572   0.632   0.648   0.747   0.651   0.768   0.782
   0.767   0.789   0.985   1.131   1.408   1.593   1.512   1.751   1.738   1.751
   1.512   1.593   1.408   1.131   0.985   0.789   0.767   0.782   0.768   0.651
   0.747   0.648   0.632   0.572   0.573   0.636   0.708   0.636   0.573   0.572
   0.632   0.648   0.747   0.651   0.768   0.782   0.767   0.789   0.985   1.131
   1.408   1.593   1.512   1.751   1.738   1.751   1.512   1.593   1.408   1.131
   0.985   0.789   0.767   0.782   0.768   0.651   0.747   0.648   0.632   0.572
   0.573   0.636
   0.561   0.565   0.529   0.481   0.551   0.581   0.646   0.679   0.674   0.747
   0.729   0.802   0.945   1.074   1.152   1.617   1.564   1.737   1.765   1.737
   1.564   1.617   1.152   1.074   0.945   0.802   0.729   0.747   0.674   0.679
   0.646   0.581   0.551   0.481   0.529   0.565   0.561   0.565   0.529   0.481
   0.551   0.581   0.646   0.679   0.674   0.747   0.729   0.802   0.945   1.074
   1.152   1.617   1.564   1.737   1.765   1.737   1.564   1.617   1.152   1.074
   0.945   0.802   0.729   0.747   0.674   0.679   0.646   0.581   0.551   0.481
   0.529   0.565
   0.563   0.567   0.545   0.518   0.604   0.540   0.498   0.558   0.684   0.680
   0.642   0.759   1.064   1.073   1.263   1.562   1.422   1.495   1.540   1.495
   1.422   1.562   1.263   1.073   1.064   0.759   0.642   0.680   0.684   0.558
   0.498   0.540   0.604   0.518   0.545   0.567   0.563   0.567   0.545   0.518
   0.604   0.540   0.498   0.558   0.684   0.680   0.642   0.759   1.064   1.073
   1.263   1.562   1.422   1.495   1.540   1.495   1.422   1.562   1.263   1.073
   1.064   0.759   0.642   0.680   0.684   0.558   0.498   0.540   0.604   0.518
   0.545   0.567
   0.601   0.590   0.678   0.600   0.605   0.623   0.732   0.619   0.636   0.573
   0.662   0.769   0.948   1.043   1.332   1.339   1.178   1.294   1.406   1.294
   1.178   1.339   1.332   1.043   0.948   0.769   0.662   0.573   0.636   0.619
   0.732   0.623   0.605   0.600   0.678   0.590   0.601   0.590   0.678   0.600
   0.605   0.623   0.732   0.619   0.636   0.573   0.662   0.769   0.948   1.043
   1.332   1.339   1.178   1.294   1.406   1.294   1.178   1.339   1.332   1.043
   0.948   0.769   0.662   0.573   0.636   0.619   0.732   0.623   0.605   0.600
   0.678   0.590
   0.829   0.871   0.865   0.732   0.767   0.831   1.012   0.746   0.671   0.809
   0.796   0.799   0.909   1.000   1.250   1.181   1.148   1.173   1.299   1.173
   1.148   1.181   1.250   1.000   0.909   0.799   0.796   0.809   0.671   0.746
   1.012   0.831   0.767   0.732   0.865   0.871   0.829   0.871   0.865   0.732
   0.767   0.831   1.012   0.746   0.671   0.809   0.796   0.799   0.909   1.000
   1.250   1.181   1.148   1.173   1.299   1.173   1.148   1.181   1.250   1.000
   0.909   0.799   0.796   0.809   0.671   0.746   1.012   0.831   0.767   0.732
   0.865   0.871
   1.483   1.147   0.881   0.859   0.881   0.973   1.040   0.815   0.665   0.928
   0.731   0.775   0.993   0.920   1.067   1.085   1.177   0.977   1.227   0.977
   1.177   1.085   1.067   0.920   0.993   0.775   0.731   0.928   0.665   0.815
   1.040   0.973   0.881   0.859   0.881   1.147   1.483   1.147   0.881   0.859
   0.881   0.973   1.040   0.815   0.665   0.928   0.731   0.775   0.993   0.920
   1.067   1.085   1.177   0.977   1.227   0.977   1.177   1.085   1.067   0.920
   0.993   0.775   0.731   0.928   0.665   0.815   1.040   0.973   0.881   0.859
   0.881   1.147
   1.841   1.446   1.099   1.384   1.245   0.976   0.990   1.016   0.897   0.820
   0.718   0.820   0.998   0.880   0.908   1.096   1.170   0.881   0.928   0.881
   1.170   1.096   0.908   0.880   0.998   0.820   0.718   0.820   0.897   1.016
   0.990   0.976   1.245   1.384   1.099   1.446   1.841   1.446   1.099   1.384
   1.245   0.976   0.990   1.016   0.897   0.820   0.718   0.820   0.998   0.880
   0.908   1.096   1.170   0.881   0.928   0.881   1.170   1.096   0.908   0.880
   0.998   0.820   0.718   0.820   0.897   1.016   0.990   0.976   1.245   1.384
   1.099   1.446
   2.117   1.693   1.466   1.737   1.529   1.228   1.172   1.153   1.277   0.978
   0.737   0.634   0.806   0.720   0.693   0.880   0.935   0.656   0.478   0.656
   0.935   0.880   0.693   0.720   0.806   0.634   0.737   0.978   1.277   1.153
   1.172   1.228   1.529   1.737   1.466   1.693   2.117   1.693   1.466   1.737
   1.529   1.228   1.172   1.153   1.277   0.978   0.737   0.634   0.806   0.720
   0.693   0.880   0.935   0.656   0.478   0.656   0.935   0.880   0.693   0.720
   0.806   0.634   0.737   0.978   1.277   1.153   1.172   1.228   1.529   1.737
   1.466   1.693
   1.789   1.549   1.676   1.766   1.509   1.582   1.570   1.289   1.378   1.188
   0.923   0.841   0.835   0.740   0.697   0.853   0.851   0.660   0.476   0.660
   0.851   0.853   0.697   0.740   0.835   0.841   0.923   1.188   1.378   1.289
   1.570   1.582   1.509   1.766   1.676   1.549   1.789   1.549   1.676   1.766
   1.509   1.582   1.570   1.289   1.378   1.188   0.923   0.841   0.835   0.740
   0.697   0.853   0.851   0.660   0.476   0.660   0.851   0.853   0.697   0.740
   0.835   0.841   0.923   1.188   1.378   1.289   1.570   1.582   1.509   1.766
   1.676   1.549
   1.069   1.158   1.409   1.675   1.423   1.520   1.669   1.422   1.483   1.363
   1.282   1.167   0.947   0.892   0.829   1.110   1.051   0.990   0.868   0.990
   1.051   1.110   0.829   0.892   0.947   1.167   1.282   1.363   1.483   1.422
   1.669   1.520   1.423   1.675   1.409   1.158   1.069   1.158   1.409   1.675
   1.423   1.520   1.669   1.422   1.483   1.363   1.282   1.167   0.947   0.892
   0.829   1.110   1.051   0.990   0.868   0.990   1.051   1.110   0.829   0.892
   0.947   1.167   1.282   1.363   1.483   1.422   1.669   1.520   1.423   1.675
   1.409   1.158
   1.002   0.805   0.869   1.160   1.142   1.121   1.241   1.414   1.401   1.427
   1.392   0.993   0.846   0.823   0.901   1.407   1.235   0.984   0.982   0.984
   1.235   1.407   0.901   0.823   0.846   0.993   1.392   1.427   1.401   1.414
   1.241   1.121   1.142   1.160   0.869   0.805   1.002   0.805   0.869   1.160
   1.142   1.121   1.241   1.414   1.401   1.427   1.392   0.993   0.846   0.823
   0.901   1.407   1.235   0.984   0.982   0.984   1.235   1.407   0.901   0.823
   0.846   0.993   1.392   1.427   1.401   1.414   1.241   1.121   1.142   1.160
   0.869   0.805
 200       5.00   72    0 5.00   15    0
   1.537   1.537   1.537   1.537   1.537   1.537   1.537   1.537   1.537   1.537
   1.537   1.537   1.537   1.537   1.537   1.537   1.537   1.537   1.537   1.537
   1.537   1.537   1.537   1.537   1.537   1.537   1.537   1.537   1.537   1.537
   1.537   1.537   1.537   1.537   1.537   1.537   1.537   1.537   1.537   1.537
   1.537   1.537   1.537   1.537   1.537   1.537   1.537   1.537   1.537   1.537
   1.537   1.537   1.537   1.537   1.537   1.537   1.537   1.537   1.537   1.537
   1.537   1.537   1.537   1.537   1.537   1.537   1.537   1.537   1.537   1.537
   1.537   1.537
   1.345   1.373   1.368   1.377   1.496   1.604   1.636   1.414   1.301   1.464
   1.644   1.583   1.610   1.404   1.159   1.124   1.164   1.272   1.187   1.272
   1.164   1.124   1.159   1.404   1.610   1.583   1.644   1.464   1.301   1.414
   1.636   1.604   1.496   1.377   1.368   1.373   1.345   1.373   1.368   1.377
   1.496   1.604   1.636   1.414   1.301   1.464   1.644   1.583   1.610   1.404
   1.159   1.124   1.164   1.272   1.187   1.272   1.164   1.124   1.159   1.404
   1.610   1.583   1.644   1.464   1.301   1.414   1.636   1.604   1.496   1.377
   1.368   1.373
   1.543   1.471   1.554   1.665   1.627   1.592   1.557   1.369   1.293   1.153
   1.197   1.315   1.281   1.213   1.213   1.117   1.179   1.222   1.364   1.222
   1.179   1.117   1.213   1.213   1.281   1.315   1.197   1.153   1.293   1.369
   1.557   1.592   1.627   1.665   1.554   1.471   1.543   1.471   1.554   1.665
   1.627   1.592   1.557   1.369   1.293   1.153   1.197   1.315   1.281   1.213
   1.213   1.117   1.179   1.222   1.364   1.222   1.179   1.117   1.213   1.213
   1.281   1.315   1.197   1.153   1.293   1.369   1.557   1.592   1.627   1.665
   1.554   1.471
   1.878   1.757   1.655   1.695   1.623   1.677   1.642   1.318   1.219   1.047
   0.994   1.006   1.160   0.957   0.999   0.949   1.013   1.154   1.211   1.154
   1.013   0.949   0.999   0.957   1.160   1.006   0.994   1.047   1.219   1.318
   1.642   1.677   1.623   1.695   1.655   1.757   1.878   1.757   1.655   1.695
   1.623   1.677   1.642   1.318   1.219   1.047   0.994   1.006   1.160   0.957
   0.999   0.949   1.013   1.154   1.211   1.154   1.013   0.949   0.999   0.957
   1.160   1.006   0.994   1.047   1.219   1.318   1.642   1.677   1.623   1.695
   1.655   1.757
   2.321   1.993   1.637   1.782   1.690   1.632   1.542   1.406   1.131   1.011
   0.930   1.056   1.264   0.882   0.850   0.873   0.870   0.988   0.874   0.988
   0.870   0.873   0.850   0.882   1.264   1.056   0.930   1.011   1.131   1.406
   1.542   1.632   1.690   1.782   1.637   1.993   2.321   1.993   1.637   1.782
   1.690   1.632   1.542   1.406   1.131   1.011   0.930   1.056   1.264   0.882
   0.850   0.873   0.870   0.988   0.874   0.988   0.870   0.873   0.850   0.882
   1.264   1.056   0.930   1.011   1.131   1.406   1.542   1.632   1.690   1.782
   1.637   1.993
   2.292   2.137   1.753   1.848   1.633   1.366   1.437   1.372   1.289   0.994
   0.811   1.037   1.123   1.172   0.873   1.119   1.106   0.898   0.813   0.898
   1.106   1.119   0.873   1.172   1.123   1.037   0.811   0.994   1.289   1.372
   1.437   1.366   1.633   1.848   1.753   2.137   2.292   2.137   1.753   1.848
   1.633   1.366   1.437   1.372   1.289   0.994   0.811   1.037   1.123   1.172
   0.873   1.119   1.106   0.898   0.813   0.898   1.106   1.119   0.873   1.172
   1.123   1.037   0.811   0.994   1.289   1.372   1.437   1.366   1.633   1.848
   1.753   2.137
   2.049   1.897   1.507   1.313   1.468   1.393   1.199   1.096   1.168   0.873
   0.735   0.723   0.805   1.104   0.838   1.309   1.147   0.729   0.594   0.729
   1.147   1.309   0.838   1.104   0.805   0.723   0.735   0.873   1.168   1.096
   1.199   1.393   1.468   1.313   1.507   1.897   2.049   1.897   1.507   1.313
   1.468   1.393   1.199   1.096   1.168   0.873   0.735   0.723   0.805   1.104
   0.838   1.309   1.147   0.729   0.594   0.729   1.147   1.309   0.838   1.104
   0.805   0.723   0.735   0.873   1.168   1.096   1.199   1.393   1.468   1.313
   1.507   1.897
   1.265   1.087   1.219   1.286   1.304   1.173   0.845   0.785   0.807   0.750
   0.745   0.660   0.707   0.763   0.846   1.159   1.033   0.741   0.728   0.741
   1.033   1.159   0.846   0.763   0.707   0.660   0.745   0.750   0.807   0.785
   0.845   1.173   1.304   1.286   1.219   1.087   1.265   1.087   1.219   1.286
   1.304   1.173   0.845   0.785   0.807   0.750   0.745   0.660   0.707   0.763
   0.846   1.159   1.033   0.741   0.728   0.741   1.033   1.159   0.846   0.763
   0.707   0.660   0.745   0.750   0.807   0.785   0.845   1.173   1.304   1.286
   1.219   1.087
   0.819   0.758   0.884   0.997   0.977   0.610   0.527   0.642   0.665   0.672
   0.819   0.766   0.756   0.735   0.792   0.880   0.894   0.932   0.977   0.932
   0.894   0.880   0.792   0.735   0.756   0.766   0.819   0.672   0.665   0.642
   0.527   0.610   0.977   0.997   0.884   0.758   0.819   0.758   0.884   0.997
   0.977   0.610   0.527   0.642   0.665   0.672   0.819   0.766   0.756   0.735
   0.792   0.880   0.894   0.932   0.977   0.932   0.894   0.880   0.792   0.735
   0.756   0.766   0.819   0.672   0.665   0.642   0.527   0.610   0.977   0.997
   0.884   0.758
   0.560   0.617   0.573   0.423   0.683   0.457   0.401   0.546   0.543   0.624
   0.807   0.841   0.784   0.958   0.830   0.744   1.015   1.215   1.222   1.215
   1.015   0.744   0.830   0.958   0.784   0.841   0.807   0.624   0.543   0.546
   0.401   0.457   0.683   0.423   0.573   0.617   0.560   0.617   0.573   0.423
   0.683   0.457   0.401   0.546   0.543   0.624   0.807   0.841   0.784   0.958
   0.830   0.744   1.015   1.215   1.222   1.215   1.015   0.744   0.830   0.958
   0.784   0.841   0.807   0.624   0.543   0.546   0.401   0.457   0.683   0.423
   0.573   0.617
   0.361   0.419   0.511   0.451   0.551   0.503   0.525   0.563   0.513   0.687
   0.724   0.773   0.737   0.944   0.938   0.799   1.100   1.294   1.424   1.294
   1.100   0.799   0.938   0.944   0.737   0.773   0.724   0.687   0.513   0.563
   0.525   0.503   0.551   0.451   0.511   0.419   0.361   0.419   0.511   0.451
   0.551   0.503   0.525   0.563   0.513   0.687   0.724   0.773   0.737   0.944
   0.938   0.799   1.100   1.294   1.424   1.294   1.100   0.799   0.938   0.944
   0.737   0.773   0.724   0.687   0.513   0.563   0.525   0.503   0.551   0.451
   0.511   0.419
   0.577   0.459   0.610   0.608   0.701   0.717   0.614   0.696   0.630   0.892
   0.933   0.689   0.722   0.671   0.846   0.974   0.928   1.264   1.268   1.264
   0.928   0.974   0.846   0.671   0.722   0.689   0.933   0.892   0.630   0.696
   0.614   0.717   0.701   0.608   0.610   0.459   0.577   0.459   0.610   0.608
   0.701   0.717   0.614   0.696   0.630   0.892   0.933   0.689   0.722   0.671
   0.846   0.974   0.928   1.264   1.268   1.264   0.928   0.974   0.846   0.671
   0.722   0.689   0.933   0.892   0.630   0.696   0.614   0.717   0.701   0.608
   0.610   0.459
   0.917   0.815   0.896   0.710   0.691   0.843   0.836   0.959   0.730   1.031
   1.026   0.835   1.032   0.901   1.010   1.176   1.141   1.290   1.027   1.290
   1.141   1.176   1.010   0.901   1.032   0.835   1.026   1.031   0.730   0.959
   0.836   0.843   0.691   0.710   0.896   0.815   0.917   0.815   0.896   0.710
   0.691   0.843   0.836   0.959   0.730   1.031   1.026   0.835   1.032   0.901
   1.010   1.176   1.141   1.290   1.027   1.290   1.141   1.176   1.010   0.901
   1.032   0.835   1.026   1.031   0.730   0.959   0.836   0.843   0.691   0.710
   0.896   0.815
   0.841   0.793   0.899   0.888   0.704   0.882   1.047   1.076   0.776   0.906
   0.973   0.761   0.868   0.954   1.046   0.949   1.126   0.899   0.767   0.899
   1.126   0.949   1.046   0.954   0.868   0.761   0.973   0.906   0.776   1.076
   1.047   0.882   0.704   0.888   0.899   0.793   0.841   0.793   0.899   0.888
   0.704   0.882   1.047   1.076   0.776   0.906   0.973   0.761   0.868   0.954
   1.046   0.949   1.126   0.899   0.767   0.899   1.126   0.949   1.046   0.954
   0.868   0.761   0.973   0.906   0.776   1.076   1.047   0.882   0.704   0.888
   0.899   0.793
   0.853   0.827   0.907   1.185   0.952   1.149   1.169   1.151   1.020   0.867
   1.111   0.763   0.770   0.698   0.674   0.800   0.910   0.682   0.894   0.682
   0.910   0.800   0.674   0.698   0.770   0.763   1.111   0.867   1.020   1.151
   1.169   1.149   0.952   1.185   0.907   0.827   0.853   0.827   0.907   1.185
   0.952   1.149   1.169   1.151   1.020   0.867   1.111   0.763   0.770   0.698
   0.674   0.800   0.910   0.682   0.894   0.682   0.910   0.800   0.674   0.698
   0.770   0.763   1.111   0.867   1.020   1.151   1.169   1.149   0.952   1.185
   0.907   0.827
 111       5.00   72    0 5.00   15    0
   0.205   0.205   0.205   0.205   0.205   0.205   0.205   0.205   0.205   0.205
   0.205   0.205   0.205   0.205   0.205   0.205   0.205   0.205   0.205   0.205
   0.205   0.205   0.205   0.205   0.205   0.205   0.205   0.205   0.205   0.205
   0.205   0.205   0.205   0.205   0.205   0.205   0.205   0.205   0.205   0.205
   0.205   0.205   0.205   0.205   0.205   0.205   0.205   0.205   0.205   0.205
   0.205   0.205   0.205   0.205   0.205   0.205   0.205   0.205   0.205   0.205
   0.205   0.205   0.205   0.205   0.205   0.205   0.205   0.205   0.205   0.205
   0.205   0.205
   0.270   0.283   0.343   0.310   0.323   0.339   0.348   0.313   0.291   0.269
   0.254   0.235   0.214   0.196   0.257   0.309   0.208   0.211   0.247   0.211
   0.208   0.309   0.257   0.196   0.214   0.235   0.254   0.269   0.291   0.313
   0.348   0.339   0.323   0.310   0.343   0.283   0.270   0.283   0.343   0.310
   0.323   0.339   0.348   0.313   0.291   0.269   0.254   0.235   0.214   0.196
   0.257   0.309   0.208   0.211   0.247   0.211   0.208   0.309   0.257   0.196
   0.214   0.235   0.254   0.269   0.291   0.313   0.348   0.339   0.323   0.310
   0.343   0.283
   0.407   0.437   0.460   0.417   0.416   0.693   0.571   0.427   0.491   0.413
   0.357   0.349   0.449   0.345   0.343   0.391   0.283   0.315   0.361   0.315
   0.283   0.391   0.343   0.345   0.449   0.349   0.357   0.413   0.491   0.427
   0.571   0.693   0.416   0.417   0.460   0.437   0.407   0.437   0.460   0.417
   0.416   0.693   0.571   0.427   0.491   0.413   0.357   0.349   0.449   0.345
   0.343   0.391   0.283   0.315   0.361   0.315   0.283   0.391   0.343   0.345
   0.449   0.349   0.357   0.413   0.491   0.427   0.571   0.693   0.416   0.417
   0.460   0.437
   0.649   0.661   0.641   0.685   0.793   1.061   0.965   0.662   0.635   0.446
   0.417   0.502   0.540   0.468   0.423   0.441   0.400   0.385   0.381   0.385
   0.400   0.441   0.423   0.468   0.540   0.502   0.417   0.446   0.635   0.662
   0.965   1.061   0.793   0.685   0.641   0.661   0.649   0.661   0.641   0.685
   0.793   1.061   0.965   0.662   0.635   0.446   0.417   0.502   0.540   0.468
   0.423   0.441   0.400   0.385   0.381   0.385   0.400   0.441   0.423   0.468
   0.540   0.502   0.417   0.446   0.635   0.662   0.965   1.061   0.793   0.685
   0.641   0.661
   1.309   1.235   1.275   1.128   1.213   1.133   1.158   0.973   0.789   0.576
   0.729   0.712   0.566   0.524   0.540   0.526   0.422   0.431   0.517   0.431
   0.422   0.526   0.540   0.524   0.566   0.712   0.729   0.576   0.789   0.973
   1.158   1.133   1.213   1.128   1.275   1.235   1.309   1.235   1.275   1.128
   1.213   1.133   1.158   0.973   0.789   0.576   0.729   0.712   0.566   0.524
   0.540   0.526   0.422   0.431   0.517   0.431   0.422   0.526   0.540   0.524
   0.566   0.712   0.729   0.576   0.789   0.973   1.158   1.133   1.213   1.128
   1.275   1.235
   2.210   2.000   2.093   1.812   1.468   1.365   1.442   1.094   0.993   0.961
   1.087   0.800   0.716   0.632   0.558   0.570   0.475   0.501   0.584   0.501
   0.475   0.570   0.558   0.632   0.716   0.800   1.087   0.961   0.993   1.094
   1.442   1.365   1.468   1.812   2.093   2.000   2.210   2.000   2.093   1.812
   1.468   1.365   1.442   1.094   0.993   0.961   1.087   0.800   0.716   0.632
   0.558   0.570   0.475   0.501   0.584   0.501   0.475   0.570   0.558   0.632
   0.716   0.800   1.087   0.961   0.993   1.094   1.442   1.365   1.468   1.812
   2.093   2.000
   2.729   2.639   2.619   2.423   1.829   1.747   1.710   1.349   1.175   1.313
   1.111   0.796   0.833   0.744   0.612   0.644   0.582   0.518   0.514   0.518
   0.582   0.644   0.612   0.744   0.833   0.796   1.111   1.313   1.175   1.349
   1.710   1.747   1.829   2.423   2.619   2.639   2.729   2.639   2.619   2.423
   1.829   1.747   1.710   1.349   1.175   1.313   1.111   0.796   0.833   0.744
   0.612   0.644   0.582   0.518   0.514   0.518   0.582   0.644   0.612   0.744
   0.833   0.796   1.111   1.313   1.175   1.349   1.710   1.747   1.829   2.423
   2.619   2.639
   2.016   2.314   2.162   2.029   2.101   2.308   1.701   1.666   1.408   1.284
   1.057   1.132   0.952   0.754   0.798   0.922   0.770   0.646   0.735   0.646
   0.770   0.922   0.798   0.754   0.952   1.132   1.057   1.284   1.408   1.666
   1.701   2.308   2.101   2.029   2.162   2.314   2.016   2.314   2.162   2.029
   2.101   2.308   1.701   1.666   1.408   1.284   1.057   1.132   0.952   0.754
   0.798   0.922   0.770   0.646   0.735   0.646   0.770   0.922   0.798   0.754
   0.952   1.132   1.057   1.284   1.408   1.666   1.701   2.308   2.101   2.029
   2.162   2.314
   0.819   1.078   0.978   1.160   1.731   2.172   1.710   1.632   1.585   1.274
   1.085   1.142   0.905   0.814   0.975   1.122   0.998   0.830   0.841   0.830
   0.998   1.122   0.975   0.814   0.905   1.142   1.085   1.274   1.585   1.632
   1.710   2.172   1.731   1.160   0.978   1.078   0.819   1.078   0.978   1.160
   1.731   2.172   1.710   1.632   1.585   1.274   1.085   1.142   0.905   0.814
   0.975   1.122   0.998   0.830   0.841   0.830   0.998   1.122   0.975   0.814
   0.905   1.142   1.085   1.274   1.585   1.632   1.710   2.172   1.731   1.160
   0.978   1.078
   0.571   0.523   0.459   0.698   0.991   1.235   1.335   1.487   1.406   1.354
   1.347   1.036   0.985   1.118   1.137   1.052   0.988   0.984   0.947   0.984
   0.988   1.052   1.137   1.118   0.985   1.036   1.347   1.354   1.406   1.487
   1.335   1.235   0.991   0.698   0.459   0.523   0.571   0.523   0.459   0.698
   0.991   1.235   1.335   1.487   1.406   1.354   1.347   1.036   0.985   1.118
   1.137   1.052   0.988   0.984   0.947   0.984   0.988   1.052   1.137   1.118
   0.985   1.036   1.347   1.354   1.406   1.487   1.335   1.235   0.991   0.698
   0.459   0.523
   0.485   0.428   0.396   0.467   0.701   0.961   0.980   1.315   1.339   1.279
   1.454   1.319   1.187   1.301   1.230   1.055   1.071   1.109   1.254   1.109
   1.071   1.055   1.230   1.301   1.187   1.319   1.454   1.279   1.339   1.315
   0.980   0.961   0.701   0.467   0.396   0.428   0.485   0.428   0.396   0.467
   0.701   0.961   0.980   1.315   1.339   1.279   1.454   1.319   1.187   1.301
   1.230   1.055   1.071   1.109   1.254   1.109   1.071   1.055   1.230   1.301
   1.187   1.319   1.454   1.279   1.339   1.315   0.980   0.961   0.701   0.467
   0.396   0.428
   0.213   0.228   0.299   0.493   0.567   0.821   0.935   1.102   1.246   1.157
   1.333   1.352   1.271   1.239   1.180   1.092   1.145   1.162   1.250   1.162
   1.145   1.092   1.180   1.239   1.271   1.352   1.333   1.157   1.246   1.102
   0.935   0.821   0.567   0.493   0.299   0.228   0.213   0.228   0.299   0.493
   0.567   0.821   0.935   1.102   1.246   1.157   1.333   1.352   1.271   1.239
   1.180   1.092   1.145   1.162   1.250   1.162   1.145   1.092   1.180   1.239
   1.271   1.352   1.333   1.157   1.246   1.102   0.935   0.821   0.567   0.493
   0.299   0.228
   0.192   0.200   0.297   0.493   0.459   0.645   0.940   1.043   1.088   1.023
   1.209   1.209   1.139   1.122   1.047   1.133   1.030   1.291   1.292   1.291
   1.030   1.133   1.047   1.122   1.139   1.209   1.209   1.023   1.088   1.043
   0.940   0.645   0.459   0.493   0.297   0.200   0.192   0.200   0.297   0.493
   0.459   0.645   0.940   1.043   1.088   1.023   1.209   1.209   1.139   1.122
   1.047   1.133   1.030   1.291   1.292   1.291   1.030   1.133   1.047   1.122
   1.139   1.209   1.209   1.023   1.088   1.043   0.940   0.645   0.459   0.493
   0.297   0.200
   0.435   0.462   0.504   0.421   0.504   0.620   0.972   1.139   1.341   1.033
   1.062   0.997   0.996   1.079   1.081   1.105   1.022   1.198   1.237   1.198
   1.022   1.105   1.081   1.079   0.996   0.997   1.062   1.033   1.341   1.139
   0.972   0.620   0.504   0.421   0.504   0.462   0.435   0.462   0.504   0.421
   0.504   0.620   0.972   1.139   1.341   1.033   1.062   0.997   0.996   1.079
   1.081   1.105   1.022   1.198   1.237   1.198   1.022   1.105   1.081   1.079
   0.996   0.997   1.062   1.033   1.341   1.139   0.972   0.620   0.504   0.421
   0.504   0.462
   0.648   0.684   0.819   0.739   0.780   0.795   1.031   1.055   1.248   1.011
   1.032   0.841   0.991   1.088   1.170   1.173   1.148   1.018   1.086   1.018
   1.148   1.173   1.170   1.088   0.991   0.841   1.032   1.011   1.248   1.055
   1.031   0.795   0.780   0.739   0.819   0.684   0.648   0.684   0.819   0.739
   0.780   0.795   1.031   1.055   1.248   1.011   1.032   0.841   0.991   1.088
   1.170   1.173   1.148   1.018   1.086   1.018   1.148   1.173   1.170   1.088
   0.991   0.841   1.032   1.011   1.248   1.055   1.031   0.795   0.780   0.739
   0.819   0.684
  4  1      6.8522272E-01
  4  2     -1.7515162E-01
  4  3      4.5133932E-01
  6  1      8.2421890E-01
  6  2     -1.5579045E+00
  6  3      4.4381655E-01
  6  4      6.1116683E-02
  8  1     -1.6844557E-01
  8  2      2.4216051E-01
  8  3      5.8213090E-01
  8  4     -2.1550916E-01
  8  5      1.3043084E-01
 10  1      2.5612755E-01
 10  2     -2.6759087E-01
 10  3      3.4811329E-01
 10  4     -1.6994015E-01
 10  5      3.7675504E-02
 10  6      1.1425983E-01
 12  1      2.9654877E-01  2.9490856E-01
 12  2      6.2269024E-02 -5.5039668E-01
 12  3      2.3952561E-01  4.9175867E-01
 12  4      5.3635146E-02 -2.1218299E-01
 12  5      1.3580790E-01 -5.8209907E-02
 12  6     -4.3209667E-02  1.5443615E-01
 12  7     -9.7017545E-02 -5.5078365E-01
 14  1      1.5364987E-02
 14  2     -1.4191048E-01
 14  3      2.5941691E-01
 14  4     -2.5086771E-01
 14  5      1.8681647E-01
 14  6      2.2015864E-01
 14  7     -2.1902518E-01
 14  8      2.0260383E-01
 220       5.00   72    0 5.00   18    0
   1.300   1.301   1.302   1.304   1.307   1.310   1.314   1.318   1.323   1.328
   1.333   1.338   1.342   1.346   1.350   1.353   1.355   1.356   1.356   1.356
   1.355   1.353   1.350   1.346   1.342   1.338   1.333   1.328   1.323   1.318
   1.314   1.310   1.307   1.304   1.302   1.301   1.300   1.301   1.302   1.304
   1.307   1.310   1.314   1.318   1.323   1.328   1.333   1.338   1.342   1.346
   1.350   1.353   1.355   1.356   1.356   1.356   1.355   1.353   1.350   1.346
   1.342   1.338   1.333   1.328   1.323   1.318   1.314   1.310   1.307   1.304
   1.302   1.301
   1.042   1.045   1.053   1.067   1.086   1.110   1.138   1.171   1.206   1.243
   1.281   1.319   1.356   1.389   1.419   1.444   1.462   1.473   1.477   1.473
   1.462   1.444   1.419   1.389   1.356   1.319   1.281   1.243   1.206   1.171
   1.138   1.110   1.086   1.067   1.053   1.045   1.042   1.045   1.053   1.067
   1.086   1.110   1.138   1.171   1.206   1.243   1.281   1.319   1.356   1.389
   1.419   1.444   1.462   1.473   1.477   1.473   1.462   1.444   1.419   1.389
   1.356   1.319   1.281   1.243   1.206   1.171   1.138   1.110   1.086   1.067
   1.053   1.045
   0.733   0.737   0.750   0.770   0.800   0.839   0.886   0.943   1.009   1.082
   1.161   1.244   1.328   1.408   1.481   1.544   1.591   1.621   1.631   1.621
   1.591   1.544   1.481   1.408   1.328   1.244   1.161   1.082   1.009   0.943
   0.886   0.839   0.800   0.770   0.750   0.737   0.733   0.737   0.750   0.770
   0.800   0.839   0.886   0.943   1.009   1.082   1.161   1.244   1.328   1.408
   1.481   1.544   1.591   1.621   1.631   1.621   1.591   1.544   1.481   1.408
   1.328   1.244   1.161   1.082   1.009   0.943   0.886   0.839   0.800   0.770
   0.750   0.737
   0.577   0.580   0.586   0.599   0.618   0.646   0.684   0.735   0.801   0.883
   0.981   1.092   1.214   1.338   1.458   1.564   1.647   1.700   1.719   1.700
   1.647   1.564   1.458   1.338   1.214   1.092   0.981   0.883   0.801   0.735
   0.684   0.646   0.618   0.599   0.586   0.580   0.577   0.580   0.586   0.599
   0.618   0.646   0.684   0.735   0.801   0.883   0.981   1.092   1.214   1.338
   1.458   1.564   1.647   1.700   1.719   1.700   1.647   1.564   1.458   1.338
   1.214   1.092   0.981   0.883   0.801   0.735   0.684   0.646   0.618   0.599
   0.586   0.580
   0.584   0.584   0.584   0.584   0.585   0.589   0.599   0.619   0.655   0.713
   0.795   0.905   1.039   1.189   1.344   1.488   1.605   1.682   1.709   1.682
   1.605   1.488   1.344   1.189   1.039   0.905   0.795   0.713   0.655   0.619
   0.599   0.589   0.585   0.584   0.584   0.584   0.584   0.584   0.584   0.584
   0.585   0.589   0.599   0.619   0.655   0.713   0.795   0.905   1.039   1.189
   1.344   1.488   1.605   1.682   1.709   1.682   1.605   1.488   1.344   1.189
   1.039   0.905   0.795   0.713   0.655   0.619   0.599   0.589   0.585   0.584
   0.584   0.584
   0.613   0.614   0.615   0.617   0.617   0.614   0.609   0.604   0.608   0.629
   0.679   0.764   0.887   1.041   1.212   1.379   1.519   1.612   1.645   1.612
   1.519   1.379   1.212   1.041   0.887   0.764   0.679   0.629   0.608   0.604
   0.609   0.614   0.617   0.617   0.615   0.614   0.613   0.614   0.615   0.617
   0.617   0.614   0.609   0.604   0.608   0.629   0.679   0.764   0.887   1.041
   1.212   1.379   1.519   1.612   1.645   1.612   1.519   1.379   1.212   1.041
   0.887   0.764   0.679   0.629   0.608   0.604   0.609   0.614   0.617   0.617
   0.615   0.614
   0.577   0.581   0.591   0.607   0.625   0.639   0.646   0.644   0.637   0.638
   0.662   0.723   0.828   0.972   1.140   1.308   1.451   1.546   1.579   1.546
   1.451   1.308   1.140   0.972   0.828   0.723   0.662   0.638   0.637   0.644
   0.646   0.639   0.625   0.607   0.591   0.581   0.577   0.581   0.591   0.607
   0.625   0.639   0.646   0.644   0.637   0.638   0.662   0.723   0.828   0.972
   1.140   1.308   1.451   1.546   1.579   1.546   1.451   1.308   1.140   0.972
   0.828   0.723   0.662   0.638   0.637   0.644   0.646   0.639   0.625   0.607
   0.591   0.581
   0.565   0.568   0.578   0.597   0.624   0.654   0.680   0.694   0.695   0.695
   0.710   0.760   0.855   0.988   1.142   1.289   1.408   1.483   1.509   1.483
   1.408   1.289   1.142   0.988   0.855   0.760   0.710   0.695   0.695   0.694
   0.680   0.654   0.624   0.597   0.578   0.568   0.565   0.568   0.578   0.597
   0.624   0.654   0.680   0.694   0.695   0.695   0.710   0.760   0.855   0.988
   1.142   1.289   1.408   1.483   1.509   1.483   1.408   1.289   1.142   0.988
   0.855   0.760   0.710   0.695   0.695   0.694   0.680   0.654   0.624   0.597
   0.578   0.568
   0.740   0.735   0.724   0.716   0.718   0.731   0.749   0.760   0.758   0.753
   0.762   0.809   0.901   1.028   1.160   1.269   1.338   1.371   1.380   1.371
   1.338   1.269   1.160   1.028   0.901   0.809   0.762   0.753   0.758   0.760
   0.749   0.731   0.718   0.716   0.724   0.735   0.740   0.735   0.724   0.716
   0.718   0.731   0.749   0.760   0.758   0.753   0.762   0.809   0.901   1.028
   1.160   1.269   1.338   1.371   1.380   1.371   1.338   1.269   1.160   1.028
   0.901   0.809   0.762   0.753   0.758   0.760   0.749   0.731   0.718   0.716
   0.724   0.735
   1.134   1.118   1.077   1.023   0.973   0.937   0.912   0.887   0.853   0.816
   0.796   0.822   0.904   1.020   1.128   1.189   1.194   1.170   1.156   1.170
   1.194   1.189   1.128   1.020   0.904   0.822   0.796   0.816   0.853   0.887
   0.912   0.937   0.973   1.023   1.077   1.118   1.134   1.118   1.077   1.023
   0.973   0.937   0.912   0.887   0.853   0.816   0.796   0.822   0.904   1.020
   1.128   1.189   1.194   1.170   1.156   1.170   1.194   1.189   1.128   1.020
   0.904   0.822   0.796   0.816   0.853   0.887   0.912   0.937   0.973   1.023
   1.077   1.118
   1.572   1.553   1.497   1.415   1.323   1.236   1.162   1.093   1.014   0.923
   0.845   0.816   0.857   0.948   1.030   1.048   0.994   0.915   0.879   0.915
   0.994   1.048   1.030   0.948   0.857   0.816   0.845   0.923   1.014   1.093
   1.162   1.236   1.323   1.415   1.497   1.553   1.572   1.553   1.497   1.415
   1.323   1.236   1.162   1.093   1.014   0.923   0.845   0.816   0.857   0.948
   1.030   1.048   0.994   0.915   0.879   0.915   0.994   1.048   1.030   0.948
   0.857   0.816   0.845   0.923   1.014   1.093   1.162   1.236   1.323   1.415
   1.497   1.553
   1.807   1.796   1.758   1.688   1.591   1.489   1.398   1.316   1.220   1.092
   0.949   0.840   0.811   0.857   0.915   0.909   0.821   0.708   0.656   0.708
   0.821   0.909   0.915   0.857   0.811   0.840   0.949   1.092   1.220   1.316
   1.398   1.489   1.591   1.688   1.758   1.796   1.807   1.796   1.758   1.688
   1.591   1.489   1.398   1.316   1.220   1.092   0.949   0.840   0.811   0.857
   0.915   0.909   0.821   0.708   0.656   0.708   0.821   0.909   0.915   0.857
   0.811   0.840   0.949   1.092   1.220   1.316   1.398   1.489   1.591   1.688
   1.758   1.796
   1.713   1.719   1.722   1.696   1.630   1.547   1.482   1.441   1.390   1.279
   1.103   0.920   0.812   0.806   0.848   0.846   0.757   0.636   0.579   0.636
   0.757   0.846   0.848   0.806   0.812   0.920   1.103   1.279   1.390   1.441
   1.482   1.547   1.630   1.696   1.722   1.719   1.713   1.719   1.722   1.696
   1.630   1.547   1.482   1.441   1.390   1.279   1.103   0.920   0.812   0.806
   0.848   0.846   0.757   0.636   0.579   0.636   0.757   0.846   0.848   0.806
   0.812   0.920   1.103   1.279   1.390   1.441   1.482   1.547   1.630   1.696
   1.722   1.719
   1.365   1.388   1.434   1.454   1.424   1.372   1.354   1.389   1.432   1.397
   1.244   1.029   0.865   0.823   0.865   0.885   0.818   0.705   0.650   0.705
   0.818   0.885   0.865   0.823   0.865   1.029   1.244   1.397   1.432   1.389
   1.354   1.372   1.424   1.454   1.434   1.388   1.365   1.388   1.434   1.454
   1.424   1.372   1.354   1.389   1.432   1.397   1.244   1.029   0.865   0.823
   0.865   0.885   0.818   0.705   0.650   0.705   0.818   0.885   0.865   0.823
   0.865   1.029   1.244   1.397   1.432   1.389   1.354   1.372   1.424   1.454
   1.434   1.388
   0.948   0.983   1.056   1.105   1.097   1.062   1.075   1.178   1.319   1.386
   1.301   1.106   0.933   0.887   0.946   0.993   0.946   0.838   0.783   0.838
   0.946   0.993   0.946   0.887   0.933   1.106   1.301   1.386   1.319   1.178
   1.075   1.062   1.097   1.105   1.056   0.983   0.948   0.983   1.056   1.105
   1.097   1.062   1.075   1.178   1.319   1.386   1.301   1.106   0.933   0.887
   0.946   0.993   0.946   0.838   0.783   0.838   0.946   0.993   0.946   0.887
   0.933   1.106   1.301   1.386   1.319   1.178   1.075   1.062   1.097   1.105
   1.056   0.983
   0.616   0.655   0.740   0.803   0.801   0.763   0.778   0.906   1.108   1.259
   1.253   1.115   0.977   0.959   1.045   1.110   1.061   0.941   0.878   0.941
   1.061   1.110   1.045   0.959   0.977   1.115   1.253   1.259   1.108   0.906
   0.778   0.763   0.801   0.803   0.740   0.655   0.616   0.655   0.740   0.803
   0.801   0.763   0.778   0.906   1.108   1.259   1.253   1.115   0.977   0.959
   1.045   1.110   1.061   0.941   0.878   0.941   1.061   1.110   1.045   0.959
   0.977   1.115   1.253   1.259   1.108   0.906   0.778   0.763   0.801   0.803
   0.740   0.655
   0.419   0.460   0.551   0.621   0.620   0.572   0.566   0.682   0.897   1.091
   1.147   1.070   0.986   1.010   1.122   1.191   1.124   0.976   0.901   0.976
   1.124   1.191   1.122   1.010   0.986   1.070   1.147   1.091   0.897   0.682
   0.566   0.572   0.620   0.621   0.551   0.460   0.419   0.460   0.551   0.621
   0.620   0.572   0.566   0.682   0.897   1.091   1.147   1.070   0.986   1.010
   1.122   1.191   1.124   0.976   0.901   0.976   1.124   1.191   1.122   1.010
   0.986   1.070   1.147   1.091   0.897   0.682   0.566   0.572   0.620   0.621
   0.551   0.460
   0.336   0.378   0.472   0.547   0.548   0.492   0.467   0.562   0.770   0.976
   1.063   1.025   0.980   1.034   1.162   1.228   1.142   0.973   0.887   0.973
   1.142   1.228   1.162   1.034   0.980   1.025   1.063   0.976   0.770   0.562
   0.467   0.492   0.548   0.547   0.472   0.378   0.336   0.378   0.472   0.547
   0.548   0.492   0.467   0.562   0.770   0.976   1.063   1.025   0.980   1.034
   1.162   1.228   1.142   0.973   0.887   0.973   1.142   1.228   1.162   1.034
   0.980   1.025   1.063   0.976   0.770   0.562   0.467   0.492   0.548   0.547
   0.472   0.378
 200       5.00   72    0 5.00   18    0
   1.268   1.268   1.267   1.266   1.265   1.263   1.261   1.259   1.256   1.254
   1.251   1.249   1.246   1.244   1.243   1.241   1.240   1.239   1.239   1.239
   1.240   1.241   1.243   1.244   1.246   1.249   1.251   1.254   1.256   1.259
   1.261   1.263   1.265   1.266   1.267   1.268   1.268   1.268   1.267   1.266
   1.265   1.263   1.261   1.259   1.256   1.254   1.251   1.249   1.246   1.244
   1.243   1.241   1.240   1.239   1.239   1.239   1.240   1.241   1.243   1.244
   1.246   1.249   1.251   1.254   1.256   1.259   1.261   1.263   1.265   1.266
   1.267   1.268
   1.323   1.321   1.316   1.306   1.294   1.279   1.261   1.242   1.222   1.201
   1.181   1.161   1.143   1.127   1.113   1.102   1.093   1.088   1.086   1.088
   1.093   1.102   1.113   1.127   1.143   1.161   1.181   1.201   1.222   1.242
   1.261   1.279   1.294   1.306   1.316   1.321   1.323   1.321   1.316   1.306
   1.294   1.279   1.261   1.242   1.222   1.201   1.181   1.161   1.143   1.127
   1.113   1.102   1.093   1.088   1.086   1.088   1.093   1.102   1.113   1.127
   1.143   1.161   1.181   1.201   1.222   1.242   1.261   1.279   1.294   1.306
   1.316   1.321
   1.444   1.439   1.424   1.400   1.367   1.329   1.286   1.240   1.193   1.147
   1.102   1.060   1.022   0.988   0.959   0.935   0.918   0.908   0.904   0.908
   0.918   0.935   0.959   0.988   1.022   1.060   1.102   1.147   1.193   1.240
   1.286   1.329   1.367   1.400   1.424   1.439   1.444   1.439   1.424   1.400
   1.367   1.329   1.286   1.240   1.193   1.147   1.102   1.060   1.022   0.988
   0.959   0.935   0.918   0.908   0.904   0.908   0.918   0.935   0.959   0.988
   1.022   1.060   1.102   1.147   1.193   1.240   1.286   1.329   1.367   1.400
   1.424   1.439
   1.631   1.621   1.591   1.544   1.483   1.414   1.340   1.266   1.195   1.129
   1.069   1.016   0.969   0.928   0.893   0.864   0.843   0.829   0.825   0.829
   0.843   0.864   0.893   0.928   0.969   1.016   1.069   1.129   1.195   1.266
   1.340   1.414   1.483   1.544   1.591   1.621   1.631   1.621   1.591   1.544
   1.483   1.414   1.340   1.266   1.195   1.129   1.069   1.016   0.969   0.928
   0.893   0.864   0.843   0.829   0.825   0.829   0.843   0.864   0.893   0.928
   0.969   1.016   1.069   1.129   1.195   1.266   1.340   1.414   1.483   1.544
   1.591   1.621
   1.826   1.809   1.761   1.685   1.589   1.484   1.378   1.280   1.195   1.125
   1.070   1.027   0.992   0.962   0.936   0.912   0.893   0.881   0.876   0.881
   0.893   0.912   0.936   0.962   0.992   1.027   1.070   1.125   1.195   1.280
   1.378   1.484   1.589   1.685   1.761   1.809   1.826   1.809   1.761   1.685
   1.589   1.484   1.378   1.280   1.195   1.125   1.070   1.027   0.992   0.962
   0.936   0.912   0.893   0.881   0.876   0.881   0.893   0.912   0.936   0.962
   0.992   1.027   1.070   1.125   1.195   1.280   1.378   1.484   1.589   1.685
   1.761   1.809
   1.897   1.875   1.812   1.715   1.593   1.460   1.331   1.219   1.133   1.075
   1.042   1.027   1.020   1.016   1.008   0.998   0.987   0.978   0.975   0.978
   0.987   0.998   1.008   1.016   1.020   1.027   1.042   1.075   1.133   1.219
   1.331   1.460   1.593   1.715   1.812   1.875   1.897   1.875   1.812   1.715
   1.593   1.460   1.331   1.219   1.133   1.075   1.042   1.027   1.020   1.016
   1.008   0.998   0.987   0.978   0.975   0.978   0.987   0.998   1.008   1.016
   1.020   1.027   1.042   1.075   1.133   1.219   1.331   1.460   1.593   1.715
   1.812   1.875
   1.704   1.686   1.630   1.541   1.426   1.296   1.169   1.063   0.988   0.951
   0.946   0.961   0.983   1.003   1.017   1.023   1.025   1.026   1.026   1.026
   1.025   1.023   1.017   1.003   0.983   0.961   0.946   0.951   0.988   1.063
   1.169   1.296   1.426   1.541   1.630   1.686   1.704   1.686   1.630   1.541
   1.426   1.296   1.169   1.063   0.988   0.951   0.946   0.961   0.983   1.003
   1.017   1.023   1.025   1.026   1.026   1.026   1.025   1.023   1.017   1.003
   0.983   0.961   0.946   0.951   0.988   1.063   1.169   1.296   1.426   1.541
   1.630   1.686
   1.246   1.240   1.219   1.178   1.112   1.026   0.935   0.857   0.808   0.794
   0.809   0.842   0.877   0.910   0.939   0.967   0.993   1.013   1.021   1.013
   0.993   0.967   0.939   0.910   0.877   0.842   0.809   0.794   0.808   0.857
   0.935   1.026   1.112   1.178   1.219   1.240   1.246   1.240   1.219   1.178
   1.112   1.026   0.935   0.857   0.808   0.794   0.809   0.842   0.877   0.910
   0.939   0.967   0.993   1.013   1.021   1.013   0.993   0.967   0.939   0.910
   0.877   0.842   0.809   0.794   0.808   0.857   0.935   1.026   1.112   1.178
   1.219   1.240
   0.722   0.731   0.754   0.774   0.776   0.754   0.716   0.681   0.665   0.674
   0.703   0.737   0.768   0.797   0.836   0.892   0.958   1.013   1.035   1.013
   0.958   0.892   0.836   0.797   0.768   0.737   0.703   0.674   0.665   0.681
   0.716   0.754   0.776   0.774   0.754   0.731   0.722   0.731   0.754   0.774
   0.776   0.754   0.716   0.681   0.665   0.674   0.703   0.737   0.768   0.797
   0.836   0.892   0.958   1.013   1.035   1.013   0.958   0.892   0.836   0.797
   0.768   0.737   0.703   0.674   0.665   0.681   0.716   0.754   0.776   0.774
   0.754   0.731
   0.407   0.424   0.468   0.522   0.565   0.587   0.591   0.592   0.606   0.636
   0.674   0.705   0.723   0.742   0.787   0.873   0.987   1.087   1.127   1.087
   0.987   0.873   0.787   0.742   0.723   0.705   0.674   0.636   0.606   0.592
   0.591   0.587   0.565   0.522   0.468   0.424   0.407   0.424   0.468   0.522
   0.565   0.587   0.591   0.592   0.606   0.636   0.674   0.705   0.723   0.742
   0.787   0.873   0.987   1.087   1.127   1.087   0.987   0.873   0.787   0.742
   0.723   0.705   0.674   0.636   0.606   0.592   0.591   0.587   0.565   0.522
   0.468   0.424
   0.415   0.427   0.458   0.498   0.537   0.566   0.586   0.605   0.633   0.674
   0.717   0.747   0.759   0.770   0.816   0.920   1.068   1.201   1.255   1.201
   1.068   0.920   0.816   0.770   0.759   0.747   0.717   0.674   0.633   0.605
   0.586   0.566   0.537   0.498   0.458   0.427   0.415   0.427   0.458   0.498
   0.537   0.566   0.586   0.605   0.633   0.674   0.717   0.747   0.759   0.770
   0.816   0.920   1.068   1.201   1.255   1.201   1.068   0.920   0.816   0.770
   0.759   0.747   0.717   0.674   0.633   0.605   0.586   0.566   0.537   0.498
   0.458   0.427
   0.593   0.594   0.600   0.611   0.629   0.653   0.678   0.702   0.727   0.758
   0.793   0.822   0.837   0.848   0.887   0.982   1.123   1.255   1.309   1.255
   1.123   0.982   0.887   0.848   0.837   0.822   0.793   0.758   0.727   0.702
   0.678   0.653   0.629   0.611   0.600   0.594   0.593   0.594   0.600   0.611
   0.629   0.653   0.678   0.702   0.727   0.758   0.793   0.822   0.837   0.848
   0.887   0.982   1.123   1.255   1.309   1.255   1.123   0.982   0.887   0.848
   0.837   0.822   0.793   0.758   0.727   0.702   0.678   0.653   0.629   0.611
   0.600   0.594
   0.688   0.691   0.699   0.713   0.738   0.776   0.819   0.851   0.862   0.861
   0.865   0.883   0.904   0.923   0.948   1.005   1.096   1.188   1.226   1.188
   1.096   1.005   0.948   0.923   0.904   0.883   0.865   0.861   0.862   0.851
   0.819   0.776   0.738   0.713   0.699   0.691   0.688   0.691   0.699   0.713
   0.738   0.776   0.819   0.851   0.862   0.861   0.865   0.883   0.904   0.923
   0.948   1.005   1.096   1.188   1.226   1.188   1.096   1.005   0.948   0.923
   0.904   0.883   0.865   0.861   0.862   0.851   0.819   0.776   0.738   0.713
   0.699   0.691
   0.649   0.669   0.718   0.771   0.822   0.880   0.946   0.995   0.999   0.961
   0.918   0.907   0.930   0.961   0.982   0.998   1.026   1.058   1.074   1.058
   1.026   0.998   0.982   0.961   0.930   0.907   0.918   0.961   0.999   0.995
   0.946   0.880   0.822   0.771   0.718   0.669   0.649   0.669   0.718   0.771
   0.822   0.880   0.946   0.995   0.999   0.961   0.918   0.907   0.930   0.961
   0.982   0.998   1.026   1.058   1.074   1.058   1.026   0.998   0.982   0.961
   0.930   0.907   0.918   0.961   0.999   0.995   0.946   0.880   0.822   0.771
   0.718   0.669
   0.700   0.743   0.836   0.910   0.939   0.957   1.003   1.061   1.078   1.025
   0.942   0.895   0.913   0.967   1.009   1.020   1.014   1.010   1.009   1.010
   1.014   1.020   1.009   0.967   0.913   0.895   0.942   1.025   1.078   1.061
   1.003   0.957   0.939   0.910   0.836   0.743   0.700   0.743   0.836   0.910
   0.939   0.957   1.003   1.061   1.078   1.025   0.942   0.895   0.913   0.967
   1.009   1.020   1.014   1.010   1.009   1.010   1.014   1.020   1.009   0.967
   0.913   0.895   0.942   1.025   1.078   1.061   1.003   0.957   0.939   0.910
   0.836   0.743
   1.087   1.141   1.239   1.257   1.156   1.022   0.968   1.010   1.058   1.029
   0.934   0.861   0.874   0.959   1.054   1.113   1.133   1.136   1.136   1.136
   1.133   1.113   1.054   0.959   0.874   0.861   0.934   1.029   1.058   1.010
   0.968   1.022   1.156   1.257   1.239   1.141   1.087   1.141   1.239   1.257
   1.156   1.022   0.968   1.010   1.058   1.029   0.934   0.861   0.874   0.959
   1.054   1.113   1.133   1.136   1.136   1.136   1.133   1.113   1.054   0.959
   0.874   0.861   0.934   1.029   1.058   1.010   0.968   1.022   1.156   1.257
   1.239   1.141
   1.744   1.793   1.849   1.744   1.437   1.081   0.875   0.875   0.962   0.982
   0.904   0.820   0.832   0.952   1.115   1.253   1.340   1.385   1.399   1.385
   1.340   1.253   1.115   0.952   0.832   0.820   0.904   0.982   0.962   0.875
   0.875   1.081   1.437   1.744   1.849   1.793   1.744   1.793   1.849   1.744
   1.437   1.081   0.875   0.875   0.962   0.982   0.904   0.820   0.832   0.952
   1.115   1.253   1.340   1.385   1.399   1.385   1.340   1.253   1.115   0.952
   0.832   0.820   0.904   0.982   0.962   0.875   0.875   1.081   1.437   1.744
   1.849   1.793
   2.267   2.307   2.318   2.109   1.643   1.119   0.797   0.762   0.874   0.935
   0.877   0.793   0.806   0.950   1.161   1.359   1.502   1.585   1.612   1.585
   1.502   1.359   1.161   0.950   0.806   0.793   0.877   0.935   0.874   0.762
   0.797   1.119   1.643   2.109   2.318   2.307   2.267   2.307   2.318   2.109
   1.643   1.119   0.797   0.762   0.874   0.935   0.877   0.793   0.806   0.950
   1.161   1.359   1.502   1.585   1.612   1.585   1.502   1.359   1.161   0.950
   0.806   0.793   0.877   0.935   0.874   0.762   0.797   1.119   1.643   2.109
   2.318   2.307
 111       5.00   72    0 5.00   18    0
   0.353   0.353   0.353   0.352   0.352   0.352   0.352   0.351   0.351   0.351
   0.351   0.350   0.350   0.350   0.350   0.349   0.349   0.349   0.349   0.349
   0.349   0.349   0.350   0.350   0.350   0.350   0.351   0.351   0.351   0.351
   0.352   0.352   0.352   0.352   0.353   0.353   0.353   0.353   0.353   0.352
   0.352   0.352   0.352   0.351   0.351   0.351   0.351   0.350   0.350   0.350
   0.350   0.349   0.349   0.349   0.349   0.349   0.349   0.349   0.350   0.350
   0.350   0.350   0.351   0.351   0.351   0.351   0.352   0.352   0.352   0.352
   0.353   0.353
   0.389   0.389   0.387   0.385   0.382   0.378   0.373   0.369   0.364   0.360
   0.355   0.352   0.348   0.345   0.342   0.340   0.339   0.338   0.338   0.338
   0.339   0.340   0.342   0.345   0.348   0.352   0.355   0.360   0.364   0.369
   0.373   0.378   0.382   0.385   0.387   0.389   0.389   0.389   0.387   0.385
   0.382   0.378   0.373   0.369   0.364   0.360   0.355   0.352   0.348   0.345
   0.342   0.340   0.339   0.338   0.338   0.338   0.339   0.340   0.342   0.345
   0.348   0.352   0.355   0.360   0.364   0.369   0.373   0.378   0.382   0.385
   0.387   0.389
   0.557   0.554   0.546   0.533   0.516   0.497   0.475   0.453   0.432   0.412
   0.393   0.377   0.363   0.352   0.342   0.335   0.330   0.327   0.326   0.327
   0.330   0.335   0.342   0.352   0.363   0.377   0.393   0.412   0.432   0.453
   0.475   0.497   0.516   0.533   0.546   0.554   0.557   0.554   0.546   0.533
   0.516   0.497   0.475   0.453   0.432   0.412   0.393   0.377   0.363   0.352
   0.342   0.335   0.330   0.327   0.326   0.327   0.330   0.335   0.342   0.352
   0.363   0.377   0.393   0.412   0.432   0.453   0.475   0.497   0.516   0.533
   0.546   0.554
   0.954   0.945   0.921   0.882   0.831   0.772   0.710   0.647   0.588   0.534
   0.487   0.447   0.415   0.388   0.368   0.352   0.341   0.335   0.332   0.335
   0.341   0.352   0.368   0.388   0.415   0.447   0.487   0.534   0.588   0.647
   0.710   0.772   0.831   0.882   0.921   0.945   0.954   0.945   0.921   0.882
   0.831   0.772   0.710   0.647   0.588   0.534   0.487   0.447   0.415   0.388
   0.368   0.352   0.341   0.335   0.332   0.335   0.341   0.352   0.368   0.388
   0.415   0.447   0.487   0.534   0.588   0.647   0.710   0.772   0.831   0.882
   0.921   0.945
   1.542   1.525   1.477   1.400   1.299   1.182   1.057   0.933   0.817   0.715
   0.629   0.560   0.507   0.465   0.433   0.409   0.391   0.380   0.377   0.380
   0.391   0.409   0.433   0.465   0.507   0.560   0.629   0.715   0.817   0.933
   1.057   1.182   1.299   1.400   1.477   1.525   1.542   1.525   1.477   1.400
   1.299   1.182   1.057   0.933   0.817   0.715   0.629   0.560   0.507   0.465
   0.433   0.409   0.391   0.380   0.377   0.380   0.391   0.409   0.433   0.465
   0.507   0.560   0.629   0.715   0.817   0.933   1.057   1.182   1.299   1.400
   1.477   1.525
   2.083   2.062   2.001   1.901   1.765   1.600   1.419   1.236   1.065   0.916
   0.796   0.703   0.634   0.582   0.543   0.513   0.491   0.478   0.473   0.478
   0.491   0.513   0.543   0.582   0.634   0.703   0.796   0.916   1.065   1.236
   1.419   1.600   1.765   1.901   2.001   2.062   2.083   2.062   2.001   1.901
   1.765   1.600   1.419   1.236   1.065   0.916   0.796   0.703   0.634   0.582
   0.543   0.513   0.491   0.478   0.473   0.478   0.491   0.513   0.543   0.582
   0.634   0.703   0.796   0.916   1.065   1.236   1.419   1.600   1.765   1.901
   2.001   2.062
   2.250   2.239   2.202   2.130   2.017   1.863   1.676   1.474   1.279   1.107
   0.970   0.866   0.791   0.736   0.694   0.662   0.639   0.625   0.620   0.625
   0.639   0.662   0.694   0.736   0.791   0.866   0.970   1.107   1.279   1.474
   1.676   1.863   2.017   2.130   2.202   2.239   2.250   2.239   2.202   2.130
   2.017   1.863   1.676   1.474   1.279   1.107   0.970   0.866   0.791   0.736
   0.694   0.662   0.639   0.625   0.620   0.625   0.639   0.662   0.694   0.736
   0.791   0.866   0.970   1.107   1.279   1.474   1.676   1.863   2.017   2.130
   2.202   2.239
   1.880   1.893   1.922   1.943   1.930   1.863   1.744   1.589   1.423   1.271
   1.146   1.048   0.972   0.912   0.865   0.831   0.810   0.799   0.796   0.799
   0.810   0.831   0.865   0.912   0.972   1.048   1.146   1.271   1.423   1.589
   1.744   1.863   1.930   1.943   1.922   1.893   1.880   1.893   1.922   1.943
   1.930   1.863   1.744   1.589   1.423   1.271   1.146   1.048   0.972   0.912
   0.865   0.831   0.810   0.799   0.796   0.799   0.810   0.831   0.865   0.912
   0.972   1.048   1.146   1.271   1.423   1.589   1.744   1.863   1.930   1.943
   1.922   1.893
   1.151   1.191   1.298   1.433   1.550   1.615   1.615   1.561   1.476   1.386
   1.303   1.226   1.153   1.082   1.023   0.984   0.967   0.964   0.965   0.964
   0.967   0.984   1.023   1.082   1.153   1.226   1.303   1.386   1.476   1.561
   1.615   1.615   1.550   1.433   1.298   1.191   1.151   1.191   1.298   1.433
   1.550   1.615   1.615   1.561   1.476   1.386   1.303   1.226   1.153   1.082
   1.023   0.984   0.967   0.964   0.965   0.964   0.967   0.984   1.023   1.082
   1.153   1.226   1.303   1.386   1.476   1.561   1.615   1.615   1.550   1.433
   1.298   1.191
   0.483   0.535   0.676   0.870   1.071   1.239   1.350   1.407   1.424   1.418
   1.396   1.355   1.289   1.207   1.132   1.086   1.074   1.083   1.089   1.083
   1.074   1.086   1.132   1.207   1.289   1.355   1.396   1.418   1.424   1.407
   1.350   1.239   1.071   0.870   0.676   0.535   0.483   0.535   0.676   0.870
   1.071   1.239   1.350   1.407   1.424   1.418   1.396   1.355   1.289   1.207
   1.132   1.086   1.074   1.083   1.089   1.083   1.074   1.086   1.132   1.207
   1.289   1.355   1.396   1.418   1.424   1.407   1.350   1.239   1.071   0.870
   0.676   0.535
   0.209   0.245   0.349   0.506   0.695   0.887   1.056   1.190   1.287   1.353
   1.389   1.387   1.341   1.262   1.180   1.129   1.121   1.138   1.148   1.138
   1.121   1.129   1.180   1.262   1.341   1.387   1.389   1.353   1.287   1.190
   1.056   0.887   0.695   0.506   0.349   0.245   0.209   0.245   0.349   0.506
   0.695   0.887   1.056   1.190   1.287   1.353   1.389   1.387   1.341   1.262
   1.180   1.129   1.121   1.138   1.148   1.138   1.121   1.129   1.180   1.262
   1.341   1.387   1.389   1.353   1.287   1.190   1.056   0.887   0.695   0.506
   0.349   0.245
   0.318   0.322   0.344   0.403   0.514   0.671   0.848   1.011   1.139   1.230
   1.290   1.318   1.305   1.253   1.185   1.134   1.121   1.134   1.143   1.134
   1.121   1.134   1.185   1.253   1.305   1.318   1.290   1.230   1.139   1.011
   0.848   0.671   0.514   0.403   0.344   0.322   0.318   0.322   0.344   0.403
   0.514   0.671   0.848   1.011   1.139   1.230   1.290   1.318   1.305   1.253
   1.185   1.134   1.121   1.134   1.143   1.134   1.121   1.134   1.185   1.253
   1.305   1.318   1.290   1.230   1.139   1.011   0.848   0.671   0.514   0.403
   0.344   0.322
   0.529   0.511   0.475   0.458   0.502   0.621   0.791   0.955   1.070   1.130
   1.163   1.192   1.214   1.209   1.174   1.129   1.098   1.089   1.089   1.089
   1.098   1.129   1.174   1.209   1.214   1.192   1.163   1.130   1.070   0.955
   0.791   0.621   0.502   0.458   0.475   0.511   0.529   0.511   0.475   0.458
   0.502   0.621   0.791   0.955   1.070   1.130   1.163   1.192   1.214   1.209
   1.174   1.129   1.098   1.089   1.089   1.089   1.098   1.129   1.174   1.209
   1.214   1.192   1.163   1.130   1.070   0.955   0.791   0.621   0.502   0.458
   0.475   0.511
   0.615   0.604   0.579   0.562   0.592   0.699   0.865   1.025   1.109   1.107
   1.071   1.065   1.103   1.147   1.154   1.116   1.059   1.015   0.999   1.015
   1.059   1.116   1.154   1.147   1.103   1.065   1.071   1.107   1.109   1.025
   0.865   0.699   0.592   0.562   0.579   0.604   0.615   0.604   0.579   0.562
   0.592   0.699   0.865   1.025   1.109   1.107   1.071   1.065   1.103   1.147
   1.154   1.116   1.059   1.015   0.999   1.015   1.059   1.116   1.154   1.147
   1.103   1.065   1.071   1.107   1.109   1.025   0.865   0.699   0.592   0.562
   0.579   0.604
   0.613   0.635   0.681   0.716   0.750   0.832   0.978   1.131   1.198   1.144
   1.031   0.963   0.986   1.059   1.101   1.071   0.991   0.912   0.881   0.912
   0.991   1.071   1.101   1.059   0.986   0.963   1.031   1.144   1.198   1.131
   0.978   0.832   0.750   0.716   0.681   0.635   0.613   0.635   0.681   0.716
   0.750   0.832   0.978   1.131   1.198   1.144   1.031   0.963   0.986   1.059
   1.101   1.071   0.991   0.912   0.881   0.912   0.991   1.071   1.101   1.059
   0.986   0.963   1.031   1.144   1.198   1.131   0.978   0.832   0.750   0.716
   0.681   0.635
   0.714   0.776   0.900   0.975   0.967   0.959   1.034   1.169   1.246   1.180
   1.015   0.881   0.865   0.937   0.998   0.978   0.887   0.789   0.748   0.789
   0.887   0.978   0.998   0.937   0.865   0.881   1.015   1.180   1.246   1.169
   1.034   0.959   0.967   0.975   0.900   0.776   0.714   0.776   0.900   0.975
   0.967   0.959   1.034   1.169   1.246   1.180   1.015   0.881   0.865   0.937
   0.998   0.978   0.887   0.789   0.748   0.789   0.887   0.978   0.998   0.937
   0.865   0.881   1.015   1.180   1.246   1.169   1.034   0.959   0.967   0.975
   0.900   0.776
   0.974   1.065   1.238   1.305   1.200   1.047   1.012   1.117   1.220   1.178
   0.997   0.813   0.750   0.801   0.867   0.858   0.770   0.669   0.625   0.669
   0.770   0.858   0.867   0.801   0.750   0.813   0.997   1.178   1.220   1.117
   1.012   1.047   1.200   1.305   1.238   1.065   0.974   1.065   1.238   1.305
   1.200   1.047   1.012   1.117   1.220   1.178   0.997   0.813   0.750   0.801
   0.867   0.858   0.770   0.669   0.625   0.669   0.770   0.858   0.867   0.801
   0.750   0.813   0.997   1.178   1.220   1.117   1.012   1.047   1.200   1.305
   1.238   1.065
   1.214   1.318   1.507   1.547   1.356   1.090   0.969   1.048   1.173   1.159
   0.979   0.771   0.676   0.709   0.773   0.771   0.691   0.593   0.550   0.593
   0.691   0.771   0.773   0.709   0.676   0.771   0.979   1.159   1.173   1.048
   0.969   1.090   1.356   1.547   1.507   1.318   1.214   1.318   1.507   1.547
   1.356   1.090   0.969   1.048   1.173   1.159   0.979   0.771   0.676   0.709
   0.773   0.771   0.691   0.593   0.550   0.593   0.691   0.771   0.773   0.709
   0.676   0.771   0.979   1.159   1.173   1.048   0.969   1.090   1.356   1.547
   1.507   1.318
TEXTURE_INDEX=   1.4345
ERR_CF 220         1080     538   11.74   12.12
ERR_CF 200         1080     544   13.11   12.14
ERR_CF 111         1080     454   18.29    8.54
