TEXEVAL                                                                         
Analysis started on 24-Oct-19 10:42:03                                          
 LMAX=14LFMAX=03 CUBIC ORTHO   
 220      5.00 5.00
 200      5.00 5.00
 111      5.00 5.00
 220       5.00   72    0 5.00   15    0
   1.844   1.844   1.844   1.844   1.844   1.844   1.844   1.844   1.844   1.844
   1.844   1.844   1.844   1.844   1.844   1.844   1.844   1.844   1.844   1.844
   1.844   1.844   1.844   1.844   1.844   1.844   1.844   1.844   1.844   1.844
   1.844   1.844   1.844   1.844   1.844   1.844   1.844   1.844   1.844   1.844
   1.844   1.844   1.844   1.844   1.844   1.844   1.844   1.844   1.844   1.844
   1.844   1.844   1.844   1.844   1.844   1.844   1.844   1.844   1.844   1.844
   1.844   1.844   1.844   1.844   1.844   1.844   1.844   1.844   1.844   1.844
   1.844   1.844
   1.292   1.182   1.147   1.346   1.259   1.283   1.318   1.296   1.565   1.611
   1.679   1.604   1.633   1.940   1.907   2.179   2.312   2.108   2.100   2.108
   2.312   2.179   1.907   1.940   1.633   1.604   1.679   1.611   1.565   1.296
   1.318   1.283   1.259   1.346   1.147   1.182   1.292   1.182   1.147   1.346
   1.259   1.283   1.318   1.296   1.565   1.611   1.679   1.604   1.633   1.940
   1.907   2.179   2.312   2.108   2.100   2.108   2.312   2.179   1.907   1.940
   1.633   1.604   1.679   1.611   1.565   1.296   1.318   1.283   1.259   1.346
   1.147   1.182
   0.753   0.831   0.812   0.787   0.941   1.088   0.998   0.878   0.969   1.131
   1.404   1.402   1.396   1.704   1.861   2.094   2.329   2.406   2.369   2.406
   2.329   2.094   1.861   1.704   1.396   1.402   1.404   1.131   0.969   0.878
   0.998   1.088   0.941   0.787   0.812   0.831   0.753   0.831   0.812   0.787
   0.941   1.088   0.998   0.878   0.969   1.131   1.404   1.402   1.396   1.704
   1.861   2.094   2.329   2.406   2.369   2.406   2.329   2.094   1.861   1.704
   1.396   1.402   1.404   1.131   0.969   0.878   0.998   1.088   0.941   0.787
   0.812   0.831
   0.801   0.748   0.741   0.637   0.667   0.897   0.985   0.870   0.786   0.838
   1.046   1.237   1.298   1.673   1.945   1.822   1.909   2.219   2.311   2.219
   1.909   1.822   1.945   1.673   1.298   1.237   1.046   0.838   0.786   0.870
   0.985   0.897   0.667   0.637   0.741   0.748   0.801   0.748   0.741   0.637
   0.667   0.897   0.985   0.870   0.786   0.838   1.046   1.237   1.298   1.673
   1.945   1.822   1.909   2.219   2.311   2.219   1.909   1.822   1.945   1.673
   1.298   1.237   1.046   0.838   0.786   0.870   0.985   0.897   0.667   0.637
   0.741   0.748
   0.813   0.703   0.755   0.683   0.630   0.750   0.820   0.761   0.788   0.920
   0.989   1.202   1.280   1.384   1.523   1.564   1.771   2.115   2.389   2.115
   1.771   1.564   1.523   1.384   1.280   1.202   0.989   0.920   0.788   0.761
   0.820   0.750   0.630   0.683   0.755   0.703   0.813   0.703   0.755   0.683
   0.630   0.750   0.820   0.761   0.788   0.920   0.989   1.202   1.280   1.384
   1.523   1.564   1.771   2.115   2.389   2.115   1.771   1.564   1.523   1.384
   1.280   1.202   0.989   0.920   0.788   0.761   0.820   0.750   0.630   0.683
   0.755   0.703
   0.668   0.722   0.670   0.635   0.625   0.640   0.630   0.671   0.779   0.874
   0.905   1.005   1.124   1.338   1.409   1.476   1.719   1.974   2.186   1.974
   1.719   1.476   1.409   1.338   1.124   1.005   0.905   0.874   0.779   0.671
   0.630   0.640   0.625   0.635   0.670   0.722   0.668   0.722   0.670   0.635
   0.625   0.640   0.630   0.671   0.779   0.874   0.905   1.005   1.124   1.338
   1.409   1.476   1.719   1.974   2.186   1.974   1.719   1.476   1.409   1.338
   1.124   1.005   0.905   0.874   0.779   0.671   0.630   0.640   0.625   0.635
   0.670   0.722
   0.776   0.728   0.565   0.658   0.750   0.732   0.667   0.740   0.745   0.736
   0.738   0.957   1.189   1.432   1.504   1.598   1.677   1.800   1.956   1.800
   1.677   1.598   1.504   1.432   1.189   0.957   0.738   0.736   0.745   0.740
   0.667   0.732   0.750   0.658   0.565   0.728   0.776   0.728   0.565   0.658
   0.750   0.732   0.667   0.740   0.745   0.736   0.738   0.957   1.189   1.432
   1.504   1.598   1.677   1.800   1.956   1.800   1.677   1.598   1.504   1.432
   1.189   0.957   0.738   0.736   0.745   0.740   0.667   0.732   0.750   0.658
   0.565   0.728
   0.820   0.782   0.749   0.761   0.828   1.035   0.866   0.608   0.610   0.650
   0.630   0.917   1.207   1.302   1.304   1.474   1.674   1.709   1.770   1.709
   1.674   1.474   1.304   1.302   1.207   0.917   0.630   0.650   0.610   0.608
   0.866   1.035   0.828   0.761   0.749   0.782   0.820   0.782   0.749   0.761
   0.828   1.035   0.866   0.608   0.610   0.650   0.630   0.917   1.207   1.302
   1.304   1.474   1.674   1.709   1.770   1.709   1.674   1.474   1.304   1.302
   1.207   0.917   0.630   0.650   0.610   0.608   0.866   1.035   0.828   0.761
   0.749   0.782
   0.770   0.813   0.851   0.790   0.858   1.011   0.807   0.458   0.497   0.613
   0.629   0.762   0.991   1.174   1.335   1.292   1.301   1.479   1.561   1.479
   1.301   1.292   1.335   1.174   0.991   0.762   0.629   0.613   0.497   0.458
   0.807   1.011   0.858   0.790   0.851   0.813   0.770   0.813   0.851   0.790
   0.858   1.011   0.807   0.458   0.497   0.613   0.629   0.762   0.991   1.174
   1.335   1.292   1.301   1.479   1.561   1.479   1.301   1.292   1.335   1.174
   0.991   0.762   0.629   0.613   0.497   0.458   0.807   1.011   0.858   0.790
   0.851   0.813
   1.094   0.963   1.042   1.096   1.093   1.048   0.821   0.617   0.635   0.626
   0.619   0.644   0.799   0.988   1.169   1.031   0.950   1.215   1.255   1.215
   0.950   1.031   1.169   0.988   0.799   0.644   0.619   0.626   0.635   0.617
   0.821   1.048   1.093   1.096   1.042   0.963   1.094   0.963   1.042   1.096
   1.093   1.048   0.821   0.617   0.635   0.626   0.619   0.644   0.799   0.988
   1.169   1.031   0.950   1.215   1.255   1.215   0.950   1.031   1.169   0.988
   0.799   0.644   0.619   0.626   0.635   0.617   0.821   1.048   1.093   1.096
   1.042   0.963
   1.497   1.579   1.605   1.572   1.483   1.365   1.364   0.942   0.935   0.841
   0.641   0.765   0.817   0.849   0.937   1.010   1.033   0.968   0.876   0.968
   1.033   1.010   0.937   0.849   0.817   0.765   0.641   0.841   0.935   0.942
   1.364   1.365   1.483   1.572   1.605   1.579   1.497   1.579   1.605   1.572
   1.483   1.365   1.364   0.942   0.935   0.841   0.641   0.765   0.817   0.849
   0.937   1.010   1.033   0.968   0.876   0.968   1.033   1.010   0.937   0.849
   0.817   0.765   0.641   0.841   0.935   0.942   1.364   1.365   1.483   1.572
   1.605   1.579
   1.906   2.124   2.006   1.929   1.877   1.406   1.446   1.088   1.053   0.948
   0.741   0.881   0.840   0.962   0.971   1.038   0.965   0.727   0.666   0.727
   0.965   1.038   0.971   0.962   0.840   0.881   0.741   0.948   1.053   1.088
   1.446   1.406   1.877   1.929   2.006   2.124   1.906   2.124   2.006   1.929
   1.877   1.406   1.446   1.088   1.053   0.948   0.741   0.881   0.840   0.962
   0.971   1.038   0.965   0.727   0.666   0.727   0.965   1.038   0.971   0.962
   0.840   0.881   0.741   0.948   1.053   1.088   1.446   1.406   1.877   1.929
   2.006   2.124
   2.081   1.926   1.846   1.900   1.857   1.652   1.526   1.492   1.032   0.862
   0.896   0.916   0.715   0.877   1.038   0.945   0.740   0.558   0.434   0.558
   0.740   0.945   1.038   0.877   0.715   0.916   0.896   0.862   1.032   1.492
   1.526   1.652   1.857   1.900   1.846   1.926   2.081   1.926   1.846   1.900
   1.857   1.652   1.526   1.492   1.032   0.862   0.896   0.916   0.715   0.877
   1.038   0.945   0.740   0.558   0.434   0.558   0.740   0.945   1.038   0.877
   0.715   0.916   0.896   0.862   1.032   1.492   1.526   1.652   1.857   1.900
   1.846   1.926
   1.326   1.359   1.366   1.281   1.221   1.369   1.620   1.686   1.345   1.302
   1.164   0.903   0.841   0.917   1.051   0.868   0.766   0.587   0.452   0.587
   0.766   0.868   1.051   0.917   0.841   0.903   1.164   1.302   1.345   1.686
   1.620   1.369   1.221   1.281   1.366   1.359   1.326   1.359   1.366   1.281
   1.221   1.369   1.620   1.686   1.345   1.302   1.164   0.903   0.841   0.917
   1.051   0.868   0.766   0.587   0.452   0.587   0.766   0.868   1.051   0.917
   0.841   0.903   1.164   1.302   1.345   1.686   1.620   1.369   1.221   1.281
   1.366   1.359
   0.578   0.786   0.917   0.892   0.680   0.609   1.040   1.070   1.162   1.169
   0.963   0.684   0.675   0.673   0.713   0.671   0.779   0.659   0.596   0.659
   0.779   0.671   0.713   0.673   0.675   0.684   0.963   1.169   1.162   1.070
   1.040   0.609   0.680   0.892   0.917   0.786   0.578   0.786   0.917   0.892
   0.680   0.609   1.040   1.070   1.162   1.169   0.963   0.684   0.675   0.673
   0.713   0.671   0.779   0.659   0.596   0.659   0.779   0.671   0.713   0.673
   0.675   0.684   0.963   1.169   1.162   1.070   1.040   0.609   0.680   0.892
   0.917   0.786
 200       5.00   72    0 5.00   15    0
   1.699   1.699   1.699   1.699   1.699   1.699   1.699   1.699   1.699   1.699
   1.699   1.699   1.699   1.699   1.699   1.699   1.699   1.699   1.699   1.699
   1.699   1.699   1.699   1.699   1.699   1.699   1.699   1.699   1.699   1.699
   1.699   1.699   1.699   1.699   1.699   1.699   1.699   1.699   1.699   1.699
   1.699   1.699   1.699   1.699   1.699   1.699   1.699   1.699   1.699   1.699
   1.699   1.699   1.699   1.699   1.699   1.699   1.699   1.699   1.699   1.699
   1.699   1.699   1.699   1.699   1.699   1.699   1.699   1.699   1.699   1.699
   1.699   1.699
   1.528   1.542   1.627   1.531   1.770   1.897   1.881   1.687   1.493   1.517
   1.855   1.720   1.346   1.524   1.755   1.995   1.863   1.629   1.701   1.629
   1.863   1.995   1.755   1.524   1.346   1.720   1.855   1.517   1.493   1.687
   1.881   1.897   1.770   1.531   1.627   1.542   1.528   1.542   1.627   1.531
   1.770   1.897   1.881   1.687   1.493   1.517   1.855   1.720   1.346   1.524
   1.755   1.995   1.863   1.629   1.701   1.629   1.863   1.995   1.755   1.524
   1.346   1.720   1.855   1.517   1.493   1.687   1.881   1.897   1.770   1.531
   1.627   1.542
   1.920   1.678   1.779   1.616   1.558   1.627   1.707   1.437   1.196   1.246
   1.492   1.572   1.429   1.531   1.532   1.647   1.500   1.333   1.567   1.333
   1.500   1.647   1.532   1.531   1.429   1.572   1.492   1.246   1.196   1.437
   1.707   1.627   1.558   1.616   1.779   1.678   1.920   1.678   1.779   1.616
   1.558   1.627   1.707   1.437   1.196   1.246   1.492   1.572   1.429   1.531
   1.532   1.647   1.500   1.333   1.567   1.333   1.500   1.647   1.532   1.531
   1.429   1.572   1.492   1.246   1.196   1.437   1.707   1.627   1.558   1.616
   1.779   1.678
   1.850   1.815   1.835   1.560   1.562   1.488   1.664   1.705   1.305   1.198
   1.272   1.274   1.235   1.176   1.018   0.988   1.063   1.212   1.400   1.212
   1.063   0.988   1.018   1.176   1.235   1.274   1.272   1.198   1.305   1.705
   1.664   1.488   1.562   1.560   1.835   1.815   1.850   1.815   1.835   1.560
   1.562   1.488   1.664   1.705   1.305   1.198   1.272   1.274   1.235   1.176
   1.018   0.988   1.063   1.212   1.400   1.212   1.063   0.988   1.018   1.176
   1.235   1.274   1.272   1.198   1.305   1.705   1.664   1.488   1.562   1.560
   1.835   1.815
   2.389   2.266   1.883   1.717   1.852   1.696   1.818   1.588   1.324   1.118
   1.089   1.095   1.002   0.858   0.787   0.821   0.856   1.011   1.171   1.011
   0.856   0.821   0.787   0.858   1.002   1.095   1.089   1.118   1.324   1.588
   1.818   1.696   1.852   1.717   1.883   2.266   2.389   2.266   1.883   1.717
   1.852   1.696   1.818   1.588   1.324   1.118   1.089   1.095   1.002   0.858
   0.787   0.821   0.856   1.011   1.171   1.011   0.856   0.821   0.787   0.858
   1.002   1.095   1.089   1.118   1.324   1.588   1.818   1.696   1.852   1.717
   1.883   2.266
   2.460   2.249   1.877   1.958   2.048   1.879   1.717   1.266   1.138   1.161
   1.057   0.910   0.917   0.881   0.839   0.805   0.791   0.810   0.889   0.810
   0.791   0.805   0.839   0.881   0.917   0.910   1.057   1.161   1.138   1.266
   1.717   1.879   2.048   1.958   1.877   2.249   2.460   2.249   1.877   1.958
   2.048   1.879   1.717   1.266   1.138   1.161   1.057   0.910   0.917   0.881
   0.839   0.805   0.791   0.810   0.889   0.810   0.791   0.805   0.839   0.881
   0.917   0.910   1.057   1.161   1.138   1.266   1.717   1.879   2.048   1.958
   1.877   2.249
   1.624   1.675   1.679   1.830   1.780   1.588   1.496   1.356   1.037   1.165
   1.064   0.809   0.837   0.830   0.880   0.795   0.841   0.876   1.012   0.876
   0.841   0.795   0.880   0.830   0.837   0.809   1.064   1.165   1.037   1.356
   1.496   1.588   1.780   1.830   1.679   1.675   1.624   1.675   1.679   1.830
   1.780   1.588   1.496   1.356   1.037   1.165   1.064   0.809   0.837   0.830
   0.880   0.795   0.841   0.876   1.012   0.876   0.841   0.795   0.880   0.830
   0.837   0.809   1.064   1.165   1.037   1.356   1.496   1.588   1.780   1.830
   1.679   1.675
   1.141   1.145   1.234   1.280   1.285   1.120   1.262   1.259   0.895   0.876
   0.885   0.884   0.843   0.769   0.887   0.886   0.904   0.860   0.910   0.860
   0.904   0.886   0.887   0.769   0.843   0.884   0.885   0.876   0.895   1.259
   1.262   1.120   1.285   1.280   1.234   1.145   1.141   1.145   1.234   1.280
   1.285   1.120   1.262   1.259   0.895   0.876   0.885   0.884   0.843   0.769
   0.887   0.886   0.904   0.860   0.910   0.860   0.904   0.886   0.887   0.769
   0.843   0.884   0.885   0.876   0.895   1.259   1.262   1.120   1.285   1.280
   1.234   1.145
   0.869   0.873   0.819   0.716   0.806   0.844   0.881   0.788   0.691   0.628
   0.722   0.821   0.854   0.804   0.846   0.949   0.859   0.778   0.726   0.778
   0.859   0.949   0.846   0.804   0.854   0.821   0.722   0.628   0.691   0.788
   0.881   0.844   0.806   0.716   0.819   0.873   0.869   0.873   0.819   0.716
   0.806   0.844   0.881   0.788   0.691   0.628   0.722   0.821   0.854   0.804
   0.846   0.949   0.859   0.778   0.726   0.778   0.859   0.949   0.846   0.804
   0.854   0.821   0.722   0.628   0.691   0.788   0.881   0.844   0.806   0.716
   0.819   0.873
   0.644   0.719   0.628   0.596   0.649   0.512   0.566   0.541   0.597   0.614
   0.575   0.721   0.902   0.853   0.769   0.923   0.835   0.823   0.643   0.823
   0.835   0.923   0.769   0.853   0.902   0.721   0.575   0.614   0.597   0.541
   0.566   0.512   0.649   0.596   0.628   0.719   0.644   0.719   0.628   0.596
   0.649   0.512   0.566   0.541   0.597   0.614   0.575   0.721   0.902   0.853
   0.769   0.923   0.835   0.823   0.643   0.823   0.835   0.923   0.769   0.853
   0.902   0.721   0.575   0.614   0.597   0.541   0.566   0.512   0.649   0.596
   0.628   0.719
   0.369   0.442   0.429   0.492   0.489   0.433   0.581   0.498   0.633   0.685
   0.582   0.763   0.894   0.861   0.775   0.993   0.996   0.832   0.645   0.832
   0.996   0.993   0.775   0.861   0.894   0.763   0.582   0.685   0.633   0.498
   0.581   0.433   0.489   0.492   0.429   0.442   0.369   0.442   0.429   0.492
   0.489   0.433   0.581   0.498   0.633   0.685   0.582   0.763   0.894   0.861
   0.775   0.993   0.996   0.832   0.645   0.832   0.996   0.993   0.775   0.861
   0.894   0.763   0.582   0.685   0.633   0.498   0.581   0.433   0.489   0.492
   0.429   0.442
   0.384   0.480   0.477   0.487   0.422   0.546   0.817   0.843   0.820   0.713
   0.646   0.885   0.865   0.807   0.787   0.945   1.038   0.890   0.758   0.890
   1.038   0.945   0.787   0.807   0.865   0.885   0.646   0.713   0.820   0.843
   0.817   0.546   0.422   0.487   0.477   0.480   0.384   0.480   0.477   0.487
   0.422   0.546   0.817   0.843   0.820   0.713   0.646   0.885   0.865   0.807
   0.787   0.945   1.038   0.890   0.758   0.890   1.038   0.945   0.787   0.807
   0.865   0.885   0.646   0.713   0.820   0.843   0.817   0.546   0.422   0.487
   0.477   0.480
   0.452   0.503   0.503   0.520   0.524   0.560   0.772   1.181   1.040   0.686
   0.629   0.763   0.766   0.743   0.654   0.769   1.051   0.997   0.830   0.997
   1.051   0.769   0.654   0.743   0.766   0.763   0.629   0.686   1.040   1.181
   0.772   0.560   0.524   0.520   0.503   0.503   0.452   0.503   0.503   0.520
   0.524   0.560   0.772   1.181   1.040   0.686   0.629   0.763   0.766   0.743
   0.654   0.769   1.051   0.997   0.830   0.997   1.051   0.769   0.654   0.743
   0.766   0.763   0.629   0.686   1.040   1.181   0.772   0.560   0.524   0.520
   0.503   0.503
   0.564   0.519   0.568   0.587   0.561   0.703   0.754   1.007   1.028   0.788
   0.755   0.631   0.551   0.626   0.645   0.773   1.150   1.307   1.043   1.307
   1.150   0.773   0.645   0.626   0.551   0.631   0.755   0.788   1.028   1.007
   0.754   0.703   0.561   0.587   0.568   0.519   0.564   0.519   0.568   0.587
   0.561   0.703   0.754   1.007   1.028   0.788   0.755   0.631   0.551   0.626
   0.645   0.773   1.150   1.307   1.043   1.307   1.150   0.773   0.645   0.626
   0.551   0.631   0.755   0.788   1.028   1.007   0.754   0.703   0.561   0.587
   0.568   0.519
   0.544   0.577   0.723   0.779   0.647   0.817   0.844   0.746   0.789   0.739
   0.738   0.766   0.582   0.758   0.732   0.713   0.930   1.153   1.119   1.153
   0.930   0.713   0.732   0.758   0.582   0.766   0.738   0.739   0.789   0.746
   0.844   0.817   0.647   0.779   0.723   0.577   0.544   0.577   0.723   0.779
   0.647   0.817   0.844   0.746   0.789   0.739   0.738   0.766   0.582   0.758
   0.732   0.713   0.930   1.153   1.119   1.153   0.930   0.713   0.732   0.758
   0.582   0.766   0.738   0.739   0.789   0.746   0.844   0.817   0.647   0.779
   0.723   0.577
 111       5.00   72    0 5.00   15    0
   0.282   0.282   0.282   0.282   0.282   0.282   0.282   0.282   0.282   0.282
   0.282   0.282   0.282   0.282   0.282   0.282   0.282   0.282   0.282   0.282
   0.282   0.282   0.282   0.282   0.282   0.282   0.282   0.282   0.282   0.282
   0.282   0.282   0.282   0.282   0.282   0.282   0.282   0.282   0.282   0.282
   0.282   0.282   0.282   0.282   0.282   0.282   0.282   0.282   0.282   0.282
   0.282   0.282   0.282   0.282   0.282   0.282   0.282   0.282   0.282   0.282
   0.282   0.282   0.282   0.282   0.282   0.282   0.282   0.282   0.282   0.282
   0.282   0.282
   0.401   0.400   0.470   0.462   0.427   0.435   0.376   0.299   0.307   0.294
   0.330   0.376   0.363   0.342   0.334   0.327   0.313   0.320   0.328   0.320
   0.313   0.327   0.334   0.342   0.363   0.376   0.330   0.294   0.307   0.299
   0.376   0.435   0.427   0.462   0.470   0.400   0.401   0.400   0.470   0.462
   0.427   0.435   0.376   0.299   0.307   0.294   0.330   0.376   0.363   0.342
   0.334   0.327   0.313   0.320   0.328   0.320   0.313   0.327   0.334   0.342
   0.363   0.376   0.330   0.294   0.307   0.299   0.376   0.435   0.427   0.462
   0.470   0.400
   0.525   0.596   0.642   0.622   0.546   0.506   0.411   0.367   0.382   0.379
   0.435   0.475   0.401   0.392   0.350   0.364   0.399   0.329   0.323   0.329
   0.399   0.364   0.350   0.392   0.401   0.475   0.435   0.379   0.382   0.367
   0.411   0.506   0.546   0.622   0.642   0.596   0.525   0.596   0.642   0.622
   0.546   0.506   0.411   0.367   0.382   0.379   0.435   0.475   0.401   0.392
   0.350   0.364   0.399   0.329   0.323   0.329   0.399   0.364   0.350   0.392
   0.401   0.475   0.435   0.379   0.382   0.367   0.411   0.506   0.546   0.622
   0.642   0.596
   0.907   0.911   0.849   0.907   0.826   0.705   0.713   0.670   0.581   0.537
   0.522   0.502   0.458   0.477   0.399   0.415   0.440   0.381   0.358   0.381
   0.440   0.415   0.399   0.477   0.458   0.502   0.522   0.537   0.581   0.670
   0.713   0.705   0.826   0.907   0.849   0.911   0.907   0.911   0.849   0.907
   0.826   0.705   0.713   0.670   0.581   0.537   0.522   0.502   0.458   0.477
   0.399   0.415   0.440   0.381   0.358   0.381   0.440   0.415   0.399   0.477
   0.458   0.502   0.522   0.537   0.581   0.670   0.713   0.705   0.826   0.907
   0.849   0.911
   1.409   1.545   1.423   1.416   1.375   1.170   1.143   1.057   0.892   0.801
   0.725   0.657   0.548   0.504   0.439   0.453   0.494   0.446   0.396   0.446
   0.494   0.453   0.439   0.504   0.548   0.657   0.725   0.801   0.892   1.057
   1.143   1.170   1.375   1.416   1.423   1.545   1.409   1.545   1.423   1.416
   1.375   1.170   1.143   1.057   0.892   0.801   0.725   0.657   0.548   0.504
   0.439   0.453   0.494   0.446   0.396   0.446   0.494   0.453   0.439   0.504
   0.548   0.657   0.725   0.801   0.892   1.057   1.143   1.170   1.375   1.416
   1.423   1.545
   2.149   2.131   1.894   1.791   1.883   1.711   1.582   1.299   1.197   1.146
   1.034   0.861   0.692   0.635   0.545   0.491   0.519   0.525   0.539   0.525
   0.519   0.491   0.545   0.635   0.692   0.861   1.034   1.146   1.197   1.299
   1.582   1.711   1.883   1.791   1.894   2.131   2.149   2.131   1.894   1.791
   1.883   1.711   1.582   1.299   1.197   1.146   1.034   0.861   0.692   0.635
   0.545   0.491   0.519   0.525   0.539   0.525   0.519   0.491   0.545   0.635
   0.692   0.861   1.034   1.146   1.197   1.299   1.582   1.711   1.883   1.791
   1.894   2.131
   2.515   2.416   2.198   2.328   2.328   2.096   1.955   1.503   1.512   1.425
   1.155   0.967   0.851   0.780   0.646   0.556   0.571   0.628   0.634   0.628
   0.571   0.556   0.646   0.780   0.851   0.967   1.155   1.425   1.512   1.503
   1.955   2.096   2.328   2.328   2.198   2.416   2.515   2.416   2.198   2.328
   2.328   2.096   1.955   1.503   1.512   1.425   1.155   0.967   0.851   0.780
   0.646   0.556   0.571   0.628   0.634   0.628   0.571   0.556   0.646   0.780
   0.851   0.967   1.155   1.425   1.512   1.503   1.955   2.096   2.328   2.328
   2.198   2.416
   1.629   1.794   1.962   2.342   2.448   2.367   2.170   1.884   1.711   1.501
   1.299   1.150   1.130   1.026   0.768   0.693   0.693   0.714   0.688   0.714
   0.693   0.693   0.768   1.026   1.130   1.150   1.299   1.501   1.711   1.884
   2.170   2.367   2.448   2.342   1.962   1.794   1.629   1.794   1.962   2.342
   2.448   2.367   2.170   1.884   1.711   1.501   1.299   1.150   1.130   1.026
   0.768   0.693   0.693   0.714   0.688   0.714   0.693   0.693   0.768   1.026
   1.130   1.150   1.299   1.501   1.711   1.884   2.170   2.367   2.448   2.342
   1.962   1.794
   0.681   0.747   0.980   1.280   1.658   1.852   1.981   1.956   1.725   1.575
   1.376   1.187   1.207   1.162   1.013   0.932   0.864   0.875   0.881   0.875
   0.864   0.932   1.013   1.162   1.207   1.187   1.376   1.575   1.725   1.956
   1.981   1.852   1.658   1.280   0.980   0.747   0.681   0.747   0.980   1.280
   1.658   1.852   1.981   1.956   1.725   1.575   1.376   1.187   1.207   1.162
   1.013   0.932   0.864   0.875   0.881   0.875   0.864   0.932   1.013   1.162
   1.207   1.187   1.376   1.575   1.725   1.956   1.981   1.852   1.658   1.280
   0.980   0.747
   0.453   0.464   0.539   0.645   0.850   1.048   1.433   1.622   1.616   1.551
   1.261   1.354   1.278   1.087   1.106   1.155   1.180   1.069   0.994   1.069
   1.180   1.155   1.106   1.087   1.278   1.354   1.261   1.551   1.616   1.622
   1.433   1.048   0.850   0.645   0.539   0.464   0.453   0.464   0.539   0.645
   0.850   1.048   1.433   1.622   1.616   1.551   1.261   1.354   1.278   1.087
   1.106   1.155   1.180   1.069   0.994   1.069   1.180   1.155   1.106   1.087
   1.278   1.354   1.261   1.551   1.616   1.622   1.433   1.048   0.850   0.645
   0.539   0.464
   0.428   0.375   0.413   0.456   0.589   0.788   1.015   1.369   1.436   1.362
   1.279   1.555   1.410   1.267   1.211   1.167   1.240   1.300   1.114   1.300
   1.240   1.167   1.211   1.267   1.410   1.555   1.279   1.362   1.436   1.369
   1.015   0.788   0.589   0.456   0.413   0.375   0.428   0.375   0.413   0.456
   0.589   0.788   1.015   1.369   1.436   1.362   1.279   1.555   1.410   1.267
   1.211   1.167   1.240   1.300   1.114   1.300   1.240   1.167   1.211   1.267
   1.410   1.555   1.279   1.362   1.436   1.369   1.015   0.788   0.589   0.456
   0.413   0.375
   0.421   0.340   0.371   0.406   0.565   0.696   0.811   1.196   1.354   1.460
   1.459   1.402   1.237   1.257   1.128   1.010   1.019   1.187   1.167   1.187
   1.019   1.010   1.128   1.257   1.237   1.402   1.459   1.460   1.354   1.196
   0.811   0.696   0.565   0.406   0.371   0.340   0.421   0.340   0.371   0.406
   0.565   0.696   0.811   1.196   1.354   1.460   1.459   1.402   1.237   1.257
   1.128   1.010   1.019   1.187   1.167   1.187   1.019   1.010   1.128   1.257
   1.237   1.402   1.459   1.460   1.354   1.196   0.811   0.696   0.565   0.406
   0.371   0.340
   0.406   0.296   0.319   0.428   0.524   0.599   0.780   0.955   1.235   1.409
   1.370   1.220   1.069   1.106   1.033   0.897   0.765   0.917   1.162   0.917
   0.765   0.897   1.033   1.106   1.069   1.220   1.370   1.409   1.235   0.955
   0.780   0.599   0.524   0.428   0.319   0.296   0.406   0.296   0.319   0.428
   0.524   0.599   0.780   0.955   1.235   1.409   1.370   1.220   1.069   1.106
   1.033   0.897   0.765   0.917   1.162   0.917   0.765   0.897   1.033   1.106
   1.069   1.220   1.370   1.409   1.235   0.955   0.780   0.599   0.524   0.428
   0.319   0.296
   0.450   0.391   0.389   0.480   0.457   0.660   0.875   0.830   1.058   1.196
   1.254   1.329   1.102   1.162   1.225   1.026   0.771   0.940   1.091   0.940
   0.771   1.026   1.225   1.162   1.102   1.329   1.254   1.196   1.058   0.830
   0.875   0.660   0.457   0.480   0.389   0.391   0.450   0.391   0.389   0.480
   0.457   0.660   0.875   0.830   1.058   1.196   1.254   1.329   1.102   1.162
   1.225   1.026   0.771   0.940   1.091   0.940   0.771   1.026   1.225   1.162
   1.102   1.329   1.254   1.196   1.058   0.830   0.875   0.660   0.457   0.480
   0.389   0.391
   0.602   0.588   0.505   0.568   0.661   0.760   0.888   1.011   0.954   1.082
   1.172   1.203   1.059   1.107   1.213   1.033   0.796   0.935   0.903   0.935
   0.796   1.033   1.213   1.107   1.059   1.203   1.172   1.082   0.954   1.011
   0.888   0.760   0.661   0.568   0.505   0.588   0.602   0.588   0.505   0.568
   0.661   0.760   0.888   1.011   0.954   1.082   1.172   1.203   1.059   1.107
   1.213   1.033   0.796   0.935   0.903   0.935   0.796   1.033   1.213   1.107
   1.059   1.203   1.172   1.082   0.954   1.011   0.888   0.760   0.661   0.568
   0.505   0.588
  4  1      9.0887671E-01
  4  2     -4.3925962E-02
  4  3      4.9282519E-01
  6  1      9.1640091E-01
  6  2     -1.7324658E+00
  6  3      7.7969343E-01
  6  4      5.6385185E-02
  8  1      1.0368681E-01
  8  2      1.4902682E-01
  8  3      5.2671323E-01
  8  4     -2.3001484E-01
  8  5      1.5433130E-01
 10  1      2.4948602E-01
 10  2     -2.4964816E-01
 10  3      1.4320868E-01
 10  4     -4.5484298E-01
 10  5      1.2544847E-01
 10  6     -7.0331021E-02
 12  1      1.7418536E-01  6.6206268E-01
 12  2     -8.1622772E-02 -8.1318477E-01
 12  3      5.4632299E-02  4.9436022E-01
 12  4     -1.3799595E-01 -3.1495517E-01
 12  5     -1.4841036E-03 -2.5350159E-01
 12  6     -1.6347935E-02  2.3814338E-01
 12  7      4.3713242E-02 -1.9067011E-01
 14  1     -2.9976334E-02
 14  2     -1.4114022E-01
 14  3     -1.1220987E-02
 14  4      4.3184182E-02
 14  5      2.6620884E-01
 14  6     -1.2433719E-01
 14  7     -1.2655105E-01
 14  8      5.5599291E-02
 220       5.00   72    0 5.00   18    0
   1.606   1.606   1.608   1.610   1.614   1.618   1.623   1.629   1.635   1.641
   1.647   1.653   1.658   1.663   1.667   1.671   1.674   1.675   1.676   1.675
   1.674   1.671   1.667   1.663   1.658   1.653   1.647   1.641   1.635   1.629
   1.623   1.618   1.614   1.610   1.608   1.606   1.606   1.606   1.608   1.610
   1.614   1.618   1.623   1.629   1.635   1.641   1.647   1.653   1.658   1.663
   1.667   1.671   1.674   1.675   1.676   1.675   1.674   1.671   1.667   1.663
   1.658   1.653   1.647   1.641   1.635   1.629   1.623   1.618   1.614   1.610
   1.608   1.606
   1.164   1.168   1.179   1.197   1.222   1.254   1.290   1.331   1.376   1.422
   1.470   1.516   1.561   1.602   1.637   1.667   1.688   1.702   1.706   1.702
   1.688   1.667   1.637   1.602   1.561   1.516   1.470   1.422   1.376   1.331
   1.290   1.254   1.222   1.197   1.179   1.168   1.164   1.168   1.179   1.197
   1.222   1.254   1.290   1.331   1.376   1.422   1.470   1.516   1.561   1.602
   1.637   1.667   1.688   1.702   1.706   1.702   1.688   1.667   1.637   1.602
   1.561   1.516   1.470   1.422   1.376   1.331   1.290   1.254   1.222   1.197
   1.179   1.168
   0.618   0.624   0.642   0.672   0.714   0.768   0.834   0.911   0.997   1.090
   1.189   1.289   1.388   1.481   1.564   1.633   1.685   1.718   1.729   1.718
   1.685   1.633   1.564   1.481   1.388   1.289   1.189   1.090   0.997   0.911
   0.834   0.768   0.714   0.672   0.642   0.624   0.618   0.624   0.642   0.672
   0.714   0.768   0.834   0.911   0.997   1.090   1.189   1.289   1.388   1.481
   1.564   1.633   1.685   1.718   1.729   1.718   1.685   1.633   1.564   1.481
   1.388   1.289   1.189   1.090   0.997   0.911   0.834   0.768   0.714   0.672
   0.642   0.624
   0.331   0.334   0.346   0.368   0.400   0.446   0.506   0.583   0.677   0.787
   0.912   1.046   1.185   1.323   1.450   1.560   1.645   1.698   1.716   1.698
   1.645   1.560   1.450   1.323   1.185   1.046   0.912   0.787   0.677   0.583
   0.506   0.446   0.400   0.368   0.346   0.334   0.331   0.334   0.346   0.368
   0.400   0.446   0.506   0.583   0.677   0.787   0.912   1.046   1.185   1.323
   1.450   1.560   1.645   1.698   1.716   1.698   1.645   1.560   1.450   1.323
   1.185   1.046   0.912   0.787   0.677   0.583   0.506   0.446   0.400   0.368
   0.346   0.334
   0.389   0.387   0.383   0.379   0.380   0.389   0.412   0.455   0.519   0.609
   0.724   0.861   1.014   1.176   1.334   1.475   1.588   1.660   1.685   1.660
   1.588   1.475   1.334   1.176   1.014   0.861   0.724   0.609   0.519   0.455
   0.412   0.389   0.380   0.379   0.383   0.387   0.389   0.387   0.383   0.379
   0.380   0.389   0.412   0.455   0.519   0.609   0.724   0.861   1.014   1.176
   1.334   1.475   1.588   1.660   1.685   1.660   1.588   1.475   1.334   1.176
   1.014   0.861   0.724   0.609   0.519   0.455   0.412   0.389   0.380   0.379
   0.383   0.387
   0.580   0.574   0.559   0.536   0.511   0.489   0.476   0.480   0.507   0.563
   0.650   0.769   0.917   1.084   1.258   1.421   1.555   1.642   1.673   1.642
   1.555   1.421   1.258   1.084   0.917   0.769   0.650   0.563   0.507   0.480
   0.476   0.489   0.511   0.536   0.559   0.574   0.580   0.574   0.559   0.536
   0.511   0.489   0.476   0.480   0.507   0.563   0.650   0.769   0.917   1.084
   1.258   1.421   1.555   1.642   1.673   1.642   1.555   1.421   1.258   1.084
   0.917   0.769   0.650   0.563   0.507   0.480   0.476   0.489   0.511   0.536
   0.559   0.574
   0.663   0.659   0.647   0.628   0.605   0.580   0.560   0.550   0.557   0.590
   0.654   0.754   0.889   1.053   1.231   1.405   1.550   1.647   1.681   1.647
   1.550   1.405   1.231   1.053   0.889   0.754   0.654   0.590   0.557   0.550
   0.560   0.580   0.605   0.628   0.647   0.659   0.663   0.659   0.647   0.628
   0.605   0.580   0.560   0.550   0.557   0.590   0.654   0.754   0.889   1.053
   1.231   1.405   1.550   1.647   1.681   1.647   1.550   1.405   1.231   1.053
   0.889   0.754   0.654   0.590   0.557   0.550   0.560   0.580   0.605   0.628
   0.647   0.659
   0.634   0.635   0.637   0.637   0.632   0.622   0.610   0.602   0.605   0.629
   0.681   0.769   0.893   1.048   1.220   1.387   1.528   1.622   1.655   1.622
   1.528   1.387   1.220   1.048   0.893   0.769   0.681   0.629   0.605   0.602
   0.610   0.622   0.632   0.637   0.637   0.635   0.634   0.635   0.637   0.637
   0.632   0.622   0.610   0.602   0.605   0.629   0.681   0.769   0.893   1.048
   1.220   1.387   1.528   1.622   1.655   1.622   1.528   1.387   1.220   1.048
   0.893   0.769   0.681   0.629   0.605   0.602   0.610   0.622   0.632   0.637
   0.637   0.635
   0.713   0.718   0.727   0.735   0.732   0.717   0.693   0.669   0.654   0.660
   0.699   0.775   0.889   1.030   1.182   1.323   1.435   1.506   1.530   1.506
   1.435   1.323   1.182   1.030   0.889   0.775   0.699   0.660   0.654   0.669
   0.693   0.717   0.732   0.735   0.727   0.718   0.713   0.718   0.727   0.735
   0.732   0.717   0.693   0.669   0.654   0.660   0.699   0.775   0.889   1.030
   1.182   1.323   1.435   1.506   1.530   1.506   1.435   1.323   1.182   1.030
   0.889   0.775   0.699   0.660   0.654   0.669   0.693   0.717   0.732   0.735
   0.727   0.718
   1.079   1.081   1.080   1.066   1.029   0.969   0.892   0.814   0.749   0.714
   0.719   0.772   0.868   0.990   1.111   1.206   1.265   1.292   1.299   1.292
   1.265   1.206   1.111   0.990   0.868   0.772   0.719   0.714   0.749   0.814
   0.892   0.969   1.029   1.066   1.080   1.081   1.079   1.081   1.080   1.066
   1.029   0.969   0.892   0.814   0.749   0.714   0.719   0.772   0.868   0.990
   1.111   1.206   1.265   1.292   1.299   1.292   1.265   1.206   1.111   0.990
   0.868   0.772   0.719   0.714   0.749   0.814   0.892   0.969   1.029   1.066
   1.080   1.081
   1.636   1.629   1.602   1.545   1.452   1.328   1.187   1.047   0.921   0.825
   0.775   0.783   0.846   0.941   1.027   1.071   1.068   1.043   1.029   1.043
   1.068   1.071   1.027   0.941   0.846   0.783   0.775   0.825   0.921   1.047
   1.187   1.328   1.452   1.545   1.602   1.629   1.636   1.629   1.602   1.545
   1.452   1.328   1.187   1.047   0.921   0.825   0.775   0.783   0.846   0.941
   1.027   1.071   1.068   1.043   1.029   1.043   1.068   1.071   1.027   0.941
   0.846   0.783   0.775   0.825   0.921   1.047   1.187   1.328   1.452   1.545
   1.602   1.629
   2.049   2.032   1.978   1.883   1.753   1.602   1.445   1.291   1.140   0.997
   0.883   0.824   0.835   0.895   0.952   0.961   0.912   0.845   0.814   0.845
   0.912   0.961   0.952   0.895   0.835   0.824   0.883   0.997   1.140   1.291
   1.445   1.602   1.753   1.883   1.978   2.032   2.049   2.032   1.978   1.883
   1.753   1.602   1.445   1.291   1.140   0.997   0.883   0.824   0.835   0.895
   0.952   0.961   0.912   0.845   0.814   0.845   0.912   0.961   0.952   0.895
   0.835   0.824   0.883   0.997   1.140   1.291   1.445   1.602   1.753   1.883
   1.978   2.032
   2.025   2.003   1.938   1.838   1.721   1.611   1.519   1.434   1.328   1.184
   1.022   0.891   0.836   0.854   0.894   0.893   0.831   0.748   0.710   0.748
   0.831   0.893   0.894   0.854   0.836   0.891   1.022   1.184   1.328   1.434
   1.519   1.611   1.721   1.838   1.938   2.003   2.025   2.003   1.938   1.838
   1.721   1.611   1.519   1.434   1.328   1.184   1.022   0.891   0.836   0.854
   0.894   0.893   0.831   0.748   0.710   0.748   0.831   0.893   0.894   0.854
   0.836   0.891   1.022   1.184   1.328   1.434   1.519   1.611   1.721   1.838
   1.938   2.003
   1.561   1.543   1.493   1.426   1.367   1.346   1.370   1.408   1.404   1.313
   1.144   0.964   0.850   0.829   0.860   0.869   0.821   0.747   0.711   0.747
   0.821   0.869   0.860   0.829   0.850   0.964   1.144   1.313   1.404   1.408
   1.370   1.346   1.367   1.426   1.493   1.543   1.561   1.543   1.493   1.426
   1.367   1.346   1.370   1.408   1.404   1.313   1.144   0.964   0.850   0.829
   0.860   0.869   0.821   0.747   0.711   0.747   0.821   0.869   0.860   0.829
   0.850   0.964   1.144   1.313   1.404   1.408   1.370   1.346   1.367   1.426
   1.493   1.543
   0.942   0.938   0.926   0.913   0.920   0.975   1.089   1.231   1.334   1.330
   1.210   1.034   0.897   0.850   0.871   0.889   0.860   0.803   0.774   0.803
   0.860   0.889   0.871   0.850   0.897   1.034   1.210   1.330   1.334   1.231
   1.089   0.975   0.920   0.913   0.926   0.938   0.942   0.938   0.926   0.913
   0.920   0.975   1.089   1.231   1.334   1.330   1.210   1.034   0.897   0.850
   0.871   0.889   0.860   0.803   0.774   0.803   0.860   0.889   0.871   0.850
   0.897   1.034   1.210   1.330   1.334   1.231   1.089   0.975   0.920   0.913
   0.926   0.938
   0.490   0.506   0.543   0.584   0.627   0.696   0.817   0.986   1.151   1.239
   1.211   1.101   0.988   0.937   0.944   0.955   0.928   0.877   0.851   0.877
   0.928   0.955   0.944   0.937   0.988   1.101   1.211   1.239   1.151   0.986
   0.817   0.696   0.627   0.584   0.543   0.506   0.490   0.506   0.543   0.584
   0.627   0.696   0.817   0.986   1.151   1.239   1.211   1.101   0.988   0.937
   0.944   0.955   0.928   0.877   0.851   0.877   0.928   0.955   0.944   0.937
   0.988   1.101   1.211   1.239   1.151   0.986   0.817   0.696   0.627   0.584
   0.543   0.506
   0.320   0.355   0.436   0.516   0.561   0.586   0.642   0.767   0.942   1.100
   1.176   1.160   1.103   1.065   1.055   1.044   1.001   0.943   0.916   0.943
   1.001   1.044   1.055   1.065   1.103   1.160   1.176   1.100   0.942   0.767
   0.642   0.586   0.561   0.516   0.436   0.355   0.320   0.355   0.436   0.516
   0.561   0.586   0.642   0.767   0.942   1.100   1.176   1.160   1.103   1.065
   1.055   1.044   1.001   0.943   0.916   0.943   1.001   1.044   1.055   1.065
   1.103   1.160   1.176   1.100   0.942   0.767   0.642   0.586   0.561   0.516
   0.436   0.355
   0.314   0.361   0.469   0.566   0.600   0.579   0.570   0.642   0.806   1.001
   1.144   1.197   1.186   1.160   1.141   1.109   1.049   0.982   0.951   0.982
   1.049   1.109   1.141   1.160   1.186   1.197   1.144   1.001   0.806   0.642
   0.570   0.579   0.600   0.566   0.469   0.361   0.314   0.361   0.469   0.566
   0.600   0.579   0.570   0.642   0.806   1.001   1.144   1.197   1.186   1.160
   1.141   1.109   1.049   0.982   0.951   0.982   1.049   1.109   1.141   1.160
   1.186   1.197   1.144   1.001   0.806   0.642   0.570   0.579   0.600   0.566
   0.469   0.361
 200       5.00   72    0 5.00   18    0
   1.612   1.612   1.611   1.611   1.610   1.609   1.609   1.608   1.606   1.605
   1.604   1.603   1.602   1.601   1.601   1.600   1.600   1.599   1.599   1.599
   1.600   1.600   1.601   1.601   1.602   1.603   1.604   1.605   1.606   1.608
   1.609   1.609   1.610   1.611   1.611   1.612   1.612   1.612   1.611   1.611
   1.610   1.609   1.609   1.608   1.606   1.605   1.604   1.603   1.602   1.601
   1.601   1.600   1.600   1.599   1.599   1.599   1.600   1.600   1.601   1.601
   1.602   1.603   1.604   1.605   1.606   1.608   1.609   1.609   1.610   1.611
   1.611   1.612
   1.543   1.542   1.539   1.534   1.527   1.518   1.508   1.498   1.488   1.478
   1.468   1.459   1.451   1.444   1.438   1.434   1.431   1.429   1.428   1.429
   1.431   1.434   1.438   1.444   1.451   1.459   1.468   1.478   1.488   1.498
   1.508   1.518   1.527   1.534   1.539   1.542   1.543   1.542   1.539   1.534
   1.527   1.518   1.508   1.498   1.488   1.478   1.468   1.459   1.451   1.444
   1.438   1.434   1.431   1.429   1.428   1.429   1.431   1.434   1.438   1.444
   1.451   1.459   1.468   1.478   1.488   1.498   1.508   1.518   1.527   1.534
   1.539   1.542
   1.516   1.512   1.501   1.482   1.458   1.429   1.398   1.365   1.332   1.302
   1.274   1.251   1.233   1.218   1.208   1.201   1.196   1.194   1.193   1.194
   1.196   1.201   1.208   1.218   1.233   1.251   1.274   1.302   1.332   1.365
   1.398   1.429   1.458   1.482   1.501   1.512   1.516   1.512   1.501   1.482
   1.458   1.429   1.398   1.365   1.332   1.302   1.274   1.251   1.233   1.218
   1.208   1.201   1.196   1.194   1.193   1.194   1.196   1.201   1.208   1.218
   1.233   1.251   1.274   1.302   1.332   1.365   1.398   1.429   1.458   1.482
   1.501   1.512
   1.619   1.611   1.587   1.549   1.498   1.436   1.368   1.298   1.229   1.167
   1.115   1.073   1.044   1.025   1.015   1.011   1.010   1.011   1.012   1.011
   1.010   1.011   1.015   1.025   1.044   1.073   1.115   1.167   1.229   1.298
   1.368   1.436   1.498   1.549   1.587   1.611   1.619   1.611   1.587   1.549
   1.498   1.436   1.368   1.298   1.229   1.167   1.115   1.073   1.044   1.025
   1.015   1.011   1.010   1.011   1.012   1.011   1.010   1.011   1.015   1.025
   1.044   1.073   1.115   1.167   1.229   1.298   1.368   1.436   1.498   1.549
   1.587   1.611
   1.795   1.784   1.752   1.698   1.623   1.529   1.422   1.308   1.198   1.098
   1.018   0.959   0.922   0.905   0.901   0.905   0.912   0.918   0.920   0.918
   0.912   0.905   0.901   0.905   0.922   0.959   1.018   1.098   1.198   1.308
   1.422   1.529   1.623   1.698   1.752   1.784   1.795   1.784   1.752   1.698
   1.623   1.529   1.422   1.308   1.198   1.098   1.018   0.959   0.922   0.905
   0.901   0.905   0.912   0.918   0.920   0.918   0.912   0.905   0.901   0.905
   0.922   0.959   1.018   1.098   1.198   1.308   1.422   1.529   1.623   1.698
   1.752   1.784
   1.855   1.847   1.820   1.771   1.694   1.588   1.457   1.313   1.170   1.043
   0.945   0.881   0.849   0.840   0.846   0.857   0.867   0.874   0.876   0.874
   0.867   0.857   0.846   0.840   0.849   0.881   0.945   1.043   1.170   1.313
   1.457   1.588   1.694   1.771   1.820   1.847   1.855   1.847   1.820   1.771
   1.694   1.588   1.457   1.313   1.170   1.043   0.945   0.881   0.849   0.840
   0.846   0.857   0.867   0.874   0.876   0.874   0.867   0.857   0.846   0.840
   0.849   0.881   0.945   1.043   1.170   1.313   1.457   1.588   1.694   1.771
   1.820   1.847
   1.642   1.642   1.637   1.616   1.567   1.480   1.358   1.212   1.064   0.938
   0.850   0.805   0.797   0.810   0.826   0.835   0.834   0.829   0.827   0.829
   0.834   0.835   0.826   0.810   0.797   0.805   0.850   0.938   1.064   1.212
   1.358   1.480   1.567   1.616   1.637   1.642   1.642   1.642   1.637   1.616
   1.567   1.480   1.358   1.212   1.064   0.938   0.850   0.805   0.797   0.810
   0.826   0.835   0.834   0.829   0.827   0.829   0.834   0.835   0.826   0.810
   0.797   0.805   0.850   0.938   1.064   1.212   1.358   1.480   1.567   1.616
   1.637   1.642
   1.191   1.199   1.219   1.235   1.229   1.185   1.100   0.987   0.869   0.777
   0.732   0.735   0.772   0.816   0.841   0.838   0.813   0.785   0.773   0.785
   0.813   0.838   0.841   0.816   0.772   0.735   0.732   0.777   0.869   0.987
   1.100   1.185   1.229   1.235   1.219   1.199   1.191   1.199   1.219   1.235
   1.229   1.185   1.100   0.987   0.869   0.777   0.732   0.735   0.772   0.816
   0.841   0.838   0.813   0.785   0.773   0.785   0.813   0.838   0.841   0.816
   0.772   0.735   0.732   0.777   0.869   0.987   1.100   1.185   1.229   1.235
   1.219   1.199
   0.728   0.738   0.764   0.797   0.823   0.825   0.793   0.734   0.670   0.631
   0.641   0.700   0.785   0.859   0.891   0.874   0.823   0.772   0.751   0.772
   0.823   0.874   0.891   0.859   0.785   0.700   0.641   0.631   0.670   0.734
   0.793   0.825   0.823   0.797   0.764   0.738   0.728   0.738   0.764   0.797
   0.823   0.825   0.793   0.734   0.670   0.631   0.641   0.700   0.785   0.859
   0.891   0.874   0.823   0.772   0.751   0.772   0.823   0.874   0.891   0.859
   0.785   0.700   0.641   0.631   0.670   0.734   0.793   0.825   0.823   0.797
   0.764   0.738
   0.481   0.481   0.487   0.506   0.539   0.574   0.594   0.592   0.579   0.583
   0.627   0.714   0.820   0.906   0.942   0.921   0.864   0.807   0.784   0.807
   0.864   0.921   0.942   0.906   0.820   0.714   0.627   0.583   0.579   0.592
   0.594   0.574   0.539   0.506   0.487   0.481   0.481   0.481   0.487   0.506
   0.539   0.574   0.594   0.592   0.579   0.583   0.627   0.714   0.820   0.906
   0.942   0.921   0.864   0.807   0.784   0.807   0.864   0.921   0.942   0.906
   0.820   0.714   0.627   0.583   0.579   0.592   0.594   0.574   0.539   0.506
   0.487   0.481
   0.479   0.467   0.442   0.434   0.463   0.523   0.585   0.625   0.640   0.651
   0.685   0.753   0.838   0.909   0.944   0.936   0.904   0.871   0.858   0.871
   0.904   0.936   0.944   0.909   0.838   0.753   0.685   0.651   0.640   0.625
   0.585   0.523   0.463   0.434   0.442   0.467   0.479   0.467   0.442   0.434
   0.463   0.523   0.585   0.625   0.640   0.651   0.685   0.753   0.838   0.909
   0.944   0.936   0.904   0.871   0.858   0.871   0.904   0.936   0.944   0.909
   0.838   0.753   0.685   0.651   0.640   0.625   0.585   0.523   0.463   0.434
   0.442   0.467
   0.556   0.538   0.503   0.491   0.534   0.622   0.717   0.777   0.790   0.774
   0.763   0.779   0.816   0.857   0.889   0.911   0.929   0.943   0.948   0.943
   0.929   0.911   0.889   0.857   0.816   0.779   0.763   0.774   0.790   0.777
   0.717   0.622   0.534   0.491   0.503   0.538   0.556   0.538   0.503   0.491
   0.534   0.622   0.717   0.777   0.790   0.774   0.763   0.779   0.816   0.857
   0.889   0.911   0.929   0.943   0.948   0.943   0.929   0.911   0.889   0.857
   0.816   0.779   0.763   0.774   0.790   0.777   0.717   0.622   0.534   0.491
   0.503   0.538
   0.549   0.540   0.530   0.553   0.633   0.752   0.864   0.924   0.916   0.864
   0.810   0.780   0.778   0.796   0.832   0.889   0.961   1.025   1.051   1.025
   0.961   0.889   0.832   0.796   0.778   0.780   0.810   0.864   0.916   0.924
   0.864   0.752   0.633   0.553   0.530   0.540   0.549   0.540   0.530   0.553
   0.633   0.752   0.864   0.924   0.916   0.864   0.810   0.780   0.778   0.796
   0.832   0.889   0.961   1.025   1.051   1.025   0.961   0.889   0.832   0.796
   0.778   0.780   0.810   0.864   0.916   0.924   0.864   0.752   0.633   0.553
   0.530   0.540
   0.517   0.523   0.550   0.613   0.716   0.839   0.940   0.981   0.954   0.885
   0.817   0.777   0.771   0.793   0.844   0.931   1.041   1.138   1.177   1.138
   1.041   0.931   0.844   0.793   0.771   0.777   0.817   0.885   0.954   0.981
   0.940   0.839   0.716   0.613   0.550   0.523   0.517   0.523   0.550   0.613
   0.716   0.839   0.940   0.981   0.954   0.885   0.817   0.777   0.771   0.793
   0.844   0.931   1.041   1.138   1.177   1.138   1.041   0.931   0.844   0.793
   0.771   0.777   0.817   0.885   0.954   0.981   0.940   0.839   0.716   0.613
   0.550   0.523
   0.706   0.715   0.744   0.788   0.846   0.908   0.954   0.963   0.929   0.869
   0.818   0.800   0.820   0.870   0.947   1.053   1.176   1.280   1.321   1.280
   1.176   1.053   0.947   0.870   0.820   0.800   0.818   0.869   0.929   0.963
   0.954   0.908   0.846   0.788   0.744   0.715   0.706   0.715   0.744   0.788
   0.846   0.908   0.954   0.963   0.929   0.869   0.818   0.800   0.820   0.870
   0.947   1.053   1.176   1.280   1.321   1.280   1.176   1.053   0.947   0.870
   0.820   0.800   0.818   0.869   0.929   0.963   0.954   0.908   0.846   0.788
   0.744   0.715
   1.281   1.271   1.237   1.173   1.092   1.019   0.969   0.939   0.908   0.873
   0.848   0.857   0.907   0.991   1.096   1.213   1.330   1.421   1.456   1.421
   1.330   1.213   1.096   0.991   0.907   0.857   0.848   0.873   0.908   0.939
   0.969   1.019   1.092   1.173   1.237   1.271   1.281   1.271   1.237   1.173
   1.092   1.019   0.969   0.939   0.908   0.873   0.848   0.857   0.907   0.991
   1.096   1.213   1.330   1.421   1.456   1.421   1.330   1.213   1.096   0.991
   0.907   0.857   0.848   0.873   0.908   0.939   0.969   1.019   1.092   1.173
   1.237   1.271
   2.082   2.037   1.900   1.677   1.411   1.172   1.017   0.948   0.927   0.914
   0.906   0.926   0.993   1.100   1.226   1.349   1.454   1.527   1.554   1.527
   1.454   1.349   1.226   1.100   0.993   0.926   0.906   0.914   0.927   0.948
   1.017   1.172   1.411   1.677   1.900   2.037   2.082   2.037   1.900   1.677
   1.411   1.172   1.017   0.948   0.927   0.914   0.906   0.926   0.993   1.100
   1.226   1.349   1.454   1.527   1.554   1.527   1.454   1.349   1.226   1.100
   0.993   0.926   0.906   0.914   0.927   0.948   1.017   1.172   1.411   1.677
   1.900   2.037
   2.672   2.600   2.383   2.041   1.642   1.290   1.064   0.973   0.958   0.957
   0.953   0.972   1.042   1.159   1.296   1.422   1.519   1.580   1.601   1.580
   1.519   1.422   1.296   1.159   1.042   0.972   0.953   0.957   0.958   0.973
   1.064   1.290   1.642   2.041   2.383   2.600   2.672   2.600   2.383   2.041
   1.642   1.290   1.064   0.973   0.958   0.957   0.953   0.972   1.042   1.159
   1.296   1.422   1.519   1.580   1.601   1.580   1.519   1.422   1.296   1.159
   1.042   0.972   0.953   0.957   0.958   0.973   1.064   1.290   1.642   2.041
   2.383   2.600
 111       5.00   72    0 5.00   18    0
   0.398   0.398   0.398   0.398   0.399   0.399   0.399   0.399   0.400   0.400
   0.400   0.401   0.401   0.401   0.402   0.402   0.402   0.402   0.402   0.402
   0.402   0.402   0.402   0.401   0.401   0.401   0.400   0.400   0.400   0.399
   0.399   0.399   0.399   0.398   0.398   0.398   0.398   0.398   0.398   0.398
   0.399   0.399   0.399   0.399   0.400   0.400   0.400   0.401   0.401   0.401
   0.402   0.402   0.402   0.402   0.402   0.402   0.402   0.402   0.402   0.401
   0.401   0.401   0.400   0.400   0.400   0.399   0.399   0.399   0.399   0.398
   0.398   0.398
   0.327   0.327   0.326   0.325   0.324   0.322   0.320   0.319   0.319   0.318
   0.319   0.320   0.322   0.324   0.326   0.327   0.329   0.330   0.330   0.330
   0.329   0.327   0.326   0.324   0.322   0.320   0.319   0.318   0.319   0.319
   0.320   0.322   0.324   0.325   0.326   0.327   0.327   0.327   0.326   0.325
   0.324   0.322   0.320   0.319   0.319   0.318   0.319   0.320   0.322   0.324
   0.326   0.327   0.329   0.330   0.330   0.330   0.329   0.327   0.326   0.324
   0.322   0.320   0.319   0.318   0.319   0.319   0.320   0.322   0.324   0.325
   0.326   0.327
   0.393   0.390   0.382   0.370   0.354   0.335   0.314   0.294   0.276   0.261
   0.249   0.242   0.239   0.239   0.242   0.247   0.251   0.254   0.255   0.254
   0.251   0.247   0.242   0.239   0.239   0.242   0.249   0.261   0.276   0.294
   0.314   0.335   0.354   0.370   0.382   0.390   0.393   0.390   0.382   0.370
   0.354   0.335   0.314   0.294   0.276   0.261   0.249   0.242   0.239   0.239
   0.242   0.247   0.251   0.254   0.255   0.254   0.251   0.247   0.242   0.239
   0.239   0.242   0.249   0.261   0.276   0.294   0.314   0.335   0.354   0.370
   0.382   0.390
   0.783   0.776   0.754   0.718   0.670   0.611   0.545   0.476   0.410   0.349
   0.299   0.263   0.239   0.228   0.227   0.232   0.238   0.244   0.246   0.244
   0.238   0.232   0.227   0.228   0.239   0.263   0.299   0.349   0.410   0.476
   0.545   0.611   0.670   0.718   0.754   0.776   0.783   0.776   0.754   0.718
   0.670   0.611   0.545   0.476   0.410   0.349   0.299   0.263   0.239   0.228
   0.227   0.232   0.238   0.244   0.246   0.244   0.238   0.232   0.227   0.228
   0.239   0.263   0.299   0.349   0.410   0.476   0.545   0.611   0.670   0.718
   0.754   0.776
   1.427   1.417   1.387   1.335   1.258   1.156   1.033   0.895   0.754   0.621
   0.506   0.416   0.354   0.318   0.304   0.303   0.309   0.315   0.318   0.315
   0.309   0.303   0.304   0.318   0.354   0.416   0.506   0.621   0.754   0.895
   1.033   1.156   1.258   1.335   1.387   1.417   1.427   1.417   1.387   1.335
   1.258   1.156   1.033   0.895   0.754   0.621   0.506   0.416   0.354   0.318
   0.304   0.303   0.309   0.315   0.318   0.315   0.309   0.303   0.304   0.318
   0.354   0.416   0.506   0.621   0.754   0.895   1.033   1.156   1.258   1.335
   1.387   1.417
   1.981   1.978   1.966   1.933   1.867   1.758   1.604   1.412   1.201   0.992
   0.806   0.657   0.552   0.487   0.452   0.439   0.436   0.436   0.437   0.436
   0.436   0.439   0.452   0.487   0.552   0.657   0.806   0.992   1.201   1.412
   1.604   1.758   1.867   1.933   1.966   1.978   1.981   1.978   1.966   1.933
   1.867   1.758   1.604   1.412   1.201   0.992   0.806   0.657   0.552   0.487
   0.452   0.439   0.436   0.436   0.437   0.436   0.436   0.439   0.452   0.487
   0.552   0.657   0.806   0.992   1.201   1.412   1.604   1.758   1.867   1.933
   1.966   1.978
   2.079   2.095   2.134   2.173   2.180   2.128   2.002   1.808   1.570   1.320
   1.093   0.911   0.782   0.699   0.648   0.616   0.594   0.580   0.575   0.580
   0.594   0.616   0.648   0.699   0.782   0.911   1.093   1.320   1.570   1.808
   2.002   2.128   2.180   2.173   2.134   2.095   2.079   2.095   2.134   2.173
   2.180   2.128   2.002   1.808   1.570   1.320   1.093   0.911   0.782   0.699
   0.648   0.616   0.594   0.580   0.575   0.580   0.594   0.616   0.648   0.699
   0.782   0.911   1.093   1.320   1.570   1.808   2.002   2.128   2.180   2.173
   2.134   2.095
   1.634   1.674   1.780   1.919   2.041   2.100   2.066   1.935   1.733   1.503
   1.289   1.121   1.005   0.931   0.876   0.827   0.781   0.746   0.732   0.746
   0.781   0.827   0.876   0.931   1.005   1.121   1.289   1.503   1.733   1.935
   2.066   2.100   2.041   1.919   1.780   1.674   1.634   1.674   1.780   1.919
   2.041   2.100   2.066   1.935   1.733   1.503   1.289   1.121   1.005   0.931
   0.876   0.827   0.781   0.746   0.732   0.746   0.781   0.827   0.876   0.931
   1.005   1.121   1.289   1.503   1.733   1.935   2.066   2.100   2.041   1.919
   1.780   1.674
   0.924   0.977   1.126   1.337   1.560   1.738   1.826   1.806   1.694   1.536
   1.382   1.267   1.195   1.151   1.107   1.050   0.985   0.931   0.910   0.931
   0.985   1.050   1.107   1.151   1.195   1.267   1.382   1.536   1.694   1.806
   1.826   1.738   1.560   1.337   1.126   0.977   0.924   0.977   1.126   1.337
   1.560   1.738   1.826   1.806   1.694   1.536   1.382   1.267   1.195   1.151
   1.107   1.050   0.985   0.931   0.910   0.931   0.985   1.050   1.107   1.151
   1.195   1.267   1.382   1.536   1.694   1.806   1.826   1.738   1.560   1.337
   1.126   0.977
   0.368   0.413   0.546   0.755   1.011   1.264   1.459   1.556   1.556   1.491
   1.411   1.353   1.325   1.308   1.279   1.224   1.155   1.096   1.072   1.096
   1.155   1.224   1.279   1.308   1.325   1.353   1.411   1.491   1.556   1.556
   1.459   1.264   1.011   0.755   0.546   0.413   0.368   0.413   0.546   0.755
   1.011   1.264   1.459   1.556   1.556   1.491   1.411   1.353   1.325   1.308
   1.279   1.224   1.155   1.096   1.072   1.096   1.155   1.224   1.279   1.308
   1.325   1.353   1.411   1.491   1.556   1.556   1.459   1.264   1.011   0.755
   0.546   0.413
   0.196   0.212   0.276   0.410   0.622   0.885   1.140   1.328   1.422   1.437
   1.414   1.390   1.376   1.364   1.337   1.288   1.229   1.181   1.162   1.181
   1.229   1.288   1.337   1.364   1.376   1.390   1.414   1.437   1.422   1.328
   1.140   0.885   0.622   0.410   0.276   0.212   0.196   0.212   0.276   0.410
   0.622   0.885   1.140   1.328   1.422   1.437   1.414   1.390   1.376   1.364
   1.337   1.288   1.229   1.181   1.162   1.181   1.229   1.288   1.337   1.364
   1.376   1.390   1.414   1.437   1.422   1.328   1.140   0.885   0.622   0.410
   0.276   0.212
   0.308   0.295   0.280   0.317   0.451   0.677   0.942   1.175   1.327   1.394
   1.403   1.386   1.360   1.326   1.282   1.233   1.189   1.160   1.150   1.160
   1.189   1.233   1.282   1.326   1.360   1.386   1.403   1.394   1.327   1.175
   0.942   0.677   0.451   0.317   0.280   0.295   0.308   0.295   0.280   0.317
   0.451   0.677   0.942   1.175   1.327   1.394   1.403   1.386   1.360   1.326
   1.282   1.233   1.189   1.160   1.150   1.160   1.189   1.233   1.282   1.326
   1.360   1.386   1.403   1.394   1.327   1.175   0.942   0.677   0.451   0.317
   0.280   0.295
   0.450   0.424   0.373   0.356   0.430   0.604   0.840   1.071   1.243   1.337
   1.365   1.348   1.305   1.243   1.175   1.117   1.081   1.066   1.062   1.066
   1.081   1.117   1.175   1.243   1.305   1.348   1.365   1.337   1.243   1.071
   0.840   0.604   0.430   0.356   0.373   0.424   0.450   0.424   0.373   0.356
   0.430   0.604   0.840   1.071   1.243   1.337   1.365   1.348   1.305   1.243
   1.175   1.117   1.081   1.066   1.062   1.066   1.081   1.117   1.175   1.243
   1.305   1.348   1.365   1.337   1.243   1.071   0.840   0.604   0.430   0.356
   0.373   0.424
   0.492   0.479   0.452   0.445   0.495   0.618   0.796   0.987   1.145   1.244
   1.284   1.274   1.226   1.152   1.071   1.005   0.968   0.957   0.955   0.957
   0.968   1.005   1.071   1.152   1.226   1.274   1.284   1.244   1.145   0.987
   0.796   0.618   0.495   0.445   0.452   0.479   0.492   0.479   0.452   0.445
   0.495   0.618   0.796   0.987   1.145   1.244   1.284   1.274   1.226   1.152
   1.071   1.005   0.968   0.957   0.955   0.957   0.968   1.005   1.071   1.152
   1.226   1.274   1.284   1.244   1.145   0.987   0.796   0.618   0.495   0.445
   0.452   0.479
   0.537   0.551   0.584   0.622   0.662   0.722   0.817   0.937   1.052   1.131
   1.162   1.150   1.107   1.044   0.975   0.916   0.881   0.867   0.865   0.867
   0.881   0.916   0.975   1.044   1.107   1.150   1.162   1.131   1.052   0.937
   0.817   0.722   0.662   0.622   0.584   0.551   0.537   0.551   0.584   0.622
   0.662   0.722   0.817   0.937   1.052   1.131   1.162   1.150   1.107   1.044
   0.975   0.916   0.881   0.867   0.865   0.867   0.881   0.916   0.975   1.044
   1.107   1.150   1.162   1.131   1.052   0.937   0.817   0.722   0.662   0.622
   0.584   0.551
   0.751   0.791   0.877   0.944   0.954   0.930   0.921   0.952   1.003   1.033
   1.022   0.981   0.933   0.891   0.856   0.828   0.808   0.796   0.793   0.796
   0.808   0.828   0.856   0.891   0.933   0.981   1.022   1.033   1.003   0.952
   0.921   0.930   0.954   0.944   0.877   0.791   0.751   0.791   0.877   0.944
   0.954   0.930   0.921   0.952   1.003   1.033   1.022   0.981   0.933   0.891
   0.856   0.828   0.808   0.796   0.793   0.796   0.808   0.828   0.856   0.891
   0.933   0.981   1.022   1.033   1.003   0.952   0.921   0.930   0.954   0.944
   0.877   0.791
   1.123   1.177   1.287   1.350   1.306   1.188   1.078   1.026   1.009   0.975
   0.899   0.804   0.735   0.710   0.718   0.732   0.737   0.734   0.732   0.734
   0.737   0.732   0.718   0.710   0.735   0.804   0.899   0.975   1.009   1.026
   1.078   1.188   1.306   1.350   1.287   1.177   1.123   1.177   1.287   1.350
   1.306   1.188   1.078   1.026   1.009   0.975   0.899   0.804   0.735   0.710
   0.718   0.732   0.737   0.734   0.732   0.734   0.737   0.732   0.718   0.710
   0.735   0.804   0.899   0.975   1.009   1.026   1.078   1.188   1.306   1.350
   1.287   1.177
   1.425   1.483   1.597   1.643   1.553   1.371   1.198   1.094   1.034   0.954
   0.827   0.689   0.598   0.582   0.618   0.662   0.688   0.693   0.693   0.693
   0.688   0.662   0.618   0.582   0.598   0.689   0.827   0.954   1.034   1.094
   1.198   1.371   1.553   1.643   1.597   1.483   1.425   1.483   1.597   1.643
   1.553   1.371   1.198   1.094   1.034   0.954   0.827   0.689   0.598   0.582
   0.618   0.662   0.688   0.693   0.693   0.693   0.688   0.662   0.618   0.582
   0.598   0.689   0.827   0.954   1.034   1.094   1.198   1.371   1.553   1.643
   1.597   1.483
TEXTURE_INDEX=   1.5729
ERR_CF 220         1080     566   15.78   11.51
ERR_CF 200         1080     496   11.17   10.56
ERR_CF 111         1080     460   16.00    6.94
