TEXEVAL                                                                         
Analysis started on 31-Aug-18 11:34:03                                          
 LMAX=16LFMAX=03 CUBIC ORTHO   
 220      5.00 5.00
 200      5.00 5.00
 111      5.00 5.00
 220       5.00   72    0 5.00   15    0
   5.458   5.458   5.458   5.458   5.458   5.458   5.458   5.458   5.458   5.458
   5.458   5.458   5.458   5.458   5.458   5.458   5.458   5.458   5.458   5.458
   5.458   5.458   5.458   5.458   5.458   5.458   5.458   5.458   5.458   5.458
   5.458   5.458   5.458   5.458   5.458   5.458   5.458   5.458   5.458   5.458
   5.458   5.458   5.458   5.458   5.458   5.458   5.458   5.458   5.458   5.458
   5.458   5.458   5.458   5.458   5.458   5.458   5.458   5.458   5.458   5.458
   5.458   5.458   5.458   5.458   5.458   5.458   5.458   5.458   5.458   5.458
   5.458   5.458
   1.277   1.237   1.364   1.367   1.469   1.547   1.703   1.899   2.132   2.480
   2.845   3.198   3.816   4.395   5.069   5.693   6.225   6.486   6.740   6.486
   6.225   5.693   5.069   4.395   3.816   3.198   2.845   2.480   2.132   1.899
   1.703   1.547   1.469   1.367   1.364   1.237   1.277   1.237   1.364   1.367
   1.469   1.547   1.703   1.899   2.132   2.480   2.845   3.198   3.816   4.395
   5.069   5.693   6.225   6.486   6.740   6.486   6.225   5.693   5.069   4.395
   3.816   3.198   2.845   2.480   2.132   1.899   1.703   1.547   1.469   1.367
   1.364   1.237
   0.176   0.160   0.173   0.190   0.222   0.243   0.307   0.392   0.499   0.717
   1.008   1.352   1.998   2.796   3.762   4.875   6.169   6.894   7.329   6.894
   6.169   4.875   3.762   2.796   1.998   1.352   1.008   0.717   0.499   0.392
   0.307   0.243   0.222   0.190   0.173   0.160   0.176   0.160   0.173   0.190
   0.222   0.243   0.307   0.392   0.499   0.717   1.008   1.352   1.998   2.796
   3.762   4.875   6.169   6.894   7.329   6.894   6.169   4.875   3.762   2.796
   1.998   1.352   1.008   0.717   0.499   0.392   0.307   0.243   0.222   0.190
   0.173   0.160
   0.129   0.108   0.095   0.104   0.103   0.118   0.132   0.138   0.149   0.218
   0.328   0.540   0.918   1.610   2.675   4.216   6.158   7.740   8.379   7.740
   6.158   4.216   2.675   1.610   0.918   0.540   0.328   0.218   0.149   0.138
   0.132   0.118   0.103   0.104   0.095   0.108   0.129   0.108   0.095   0.104
   0.103   0.118   0.132   0.138   0.149   0.218   0.328   0.540   0.918   1.610
   2.675   4.216   6.158   7.740   8.379   7.740   6.158   4.216   2.675   1.610
   0.918   0.540   0.328   0.218   0.149   0.138   0.132   0.118   0.103   0.104
   0.095   0.108
   0.112   0.110   0.097   0.097   0.069   0.116   0.123   0.101   0.112   0.139
   0.150   0.247   0.440   0.876   1.794   3.458   5.633   8.003   8.687   8.003
   5.633   3.458   1.794   0.876   0.440   0.247   0.150   0.139   0.112   0.101
   0.123   0.116   0.069   0.097   0.097   0.110   0.112   0.110   0.097   0.097
   0.069   0.116   0.123   0.101   0.112   0.139   0.150   0.247   0.440   0.876
   1.794   3.458   5.633   8.003   8.687   8.003   5.633   3.458   1.794   0.876
   0.440   0.247   0.150   0.139   0.112   0.101   0.123   0.116   0.069   0.097
   0.097   0.110
   0.060   0.068   0.074   0.061   0.050   0.082   0.086   0.094   0.118   0.133
   0.131   0.203   0.339   0.690   1.603   3.089   4.956   6.704   6.704   6.704
   4.956   3.089   1.603   0.690   0.339   0.203   0.131   0.133   0.118   0.094
   0.086   0.082   0.050   0.061   0.074   0.068   0.060   0.068   0.074   0.061
   0.050   0.082   0.086   0.094   0.118   0.133   0.131   0.203   0.339   0.690
   1.603   3.089   4.956   6.704   6.704   6.704   4.956   3.089   1.603   0.690
   0.339   0.203   0.131   0.133   0.118   0.094   0.086   0.082   0.050   0.061
   0.074   0.068
   0.077   0.029   0.046   0.056   0.052   0.069   0.064   0.072   0.094   0.148
   0.159   0.281   0.405   0.917   2.191   3.530   4.287   4.026   3.427   4.026
   4.287   3.530   2.191   0.917   0.405   0.281   0.159   0.148   0.094   0.072
   0.064   0.069   0.052   0.056   0.046   0.029   0.077   0.029   0.046   0.056
   0.052   0.069   0.064   0.072   0.094   0.148   0.159   0.281   0.405   0.917
   2.191   3.530   4.287   4.026   3.427   4.026   4.287   3.530   2.191   0.917
   0.405   0.281   0.159   0.148   0.094   0.072   0.064   0.069   0.052   0.056
   0.046   0.029
   0.068   0.040   0.060   0.063   0.046   0.086   0.085   0.059   0.080   0.119
   0.154   0.263   0.509   1.353   2.962   3.750   3.010   1.736   1.184   1.736
   3.010   3.750   2.962   1.353   0.509   0.263   0.154   0.119   0.080   0.059
   0.085   0.086   0.046   0.063   0.060   0.040   0.068   0.040   0.060   0.063
   0.046   0.086   0.085   0.059   0.080   0.119   0.154   0.263   0.509   1.353
   2.962   3.750   3.010   1.736   1.184   1.736   3.010   3.750   2.962   1.353
   0.509   0.263   0.154   0.119   0.080   0.059   0.085   0.086   0.046   0.063
   0.060   0.040
   0.061   0.071   0.114   0.049   0.057   0.054   0.073   0.108   0.093   0.074
   0.152   0.242   0.601   1.517   3.178   3.059   1.524   0.666   0.342   0.666
   1.524   3.059   3.178   1.517   0.601   0.242   0.152   0.074   0.093   0.108
   0.073   0.054   0.057   0.049   0.114   0.071   0.061   0.071   0.114   0.049
   0.057   0.054   0.073   0.108   0.093   0.074   0.152   0.242   0.601   1.517
   3.178   3.059   1.524   0.666   0.342   0.666   1.524   3.059   3.178   1.517
   0.601   0.242   0.152   0.074   0.093   0.108   0.073   0.054   0.057   0.049
   0.114   0.071
   0.297   0.237   0.170   0.082   0.116   0.063   0.068   0.125   0.118   0.137
   0.147   0.272   0.527   1.407   2.857   2.251   0.787   0.298   0.194   0.298
   0.787   2.251   2.857   1.407   0.527   0.272   0.147   0.137   0.118   0.125
   0.068   0.063   0.116   0.082   0.170   0.237   0.297   0.237   0.170   0.082
   0.116   0.063   0.068   0.125   0.118   0.137   0.147   0.272   0.527   1.407
   2.857   2.251   0.787   0.298   0.194   0.298   0.787   2.251   2.857   1.407
   0.527   0.272   0.147   0.137   0.118   0.125   0.068   0.063   0.116   0.082
   0.170   0.237
   2.185   1.932   1.059   0.425   0.214   0.068   0.082   0.117   0.104   0.149
   0.076   0.244   0.425   1.161   2.142   1.656   0.476   0.133   0.096   0.133
   0.476   1.656   2.142   1.161   0.425   0.244   0.076   0.149   0.104   0.117
   0.082   0.068   0.214   0.425   1.059   1.932   2.185   1.932   1.059   0.425
   0.214   0.068   0.082   0.117   0.104   0.149   0.076   0.244   0.425   1.161
   2.142   1.656   0.476   0.133   0.096   0.133   0.476   1.656   2.142   1.161
   0.425   0.244   0.076   0.149   0.104   0.117   0.082   0.068   0.214   0.425
   1.059   1.932
   9.350   7.830   4.258   1.728   0.844   0.269   0.257   0.115   0.089   0.056
   0.057   0.182   0.300   0.762   1.434   1.239   0.331   0.046   0.012   0.046
   0.331   1.239   1.434   0.762   0.300   0.182   0.057   0.056   0.089   0.115
   0.257   0.269   0.844   1.728   4.258   7.830   9.350   7.830   4.258   1.728
   0.844   0.269   0.257   0.115   0.089   0.056   0.057   0.182   0.300   0.762
   1.434   1.239   0.331   0.046   0.012   0.046   0.331   1.239   1.434   0.762
   0.300   0.182   0.057   0.056   0.089   0.115   0.257   0.269   0.844   1.728
   4.258   7.830
   9.977   8.259   5.067   3.059   2.223   1.351   1.087   0.547   0.347   0.172
   0.168   0.150   0.291   0.693   1.091   1.281   0.284   0.113   0.109   0.113
   0.284   1.281   1.091   0.693   0.291   0.150   0.168   0.172   0.347   0.547
   1.087   1.351   2.223   3.059   5.067   8.259   9.977   8.259   5.067   3.059
   2.223   1.351   1.087   0.547   0.347   0.172   0.168   0.150   0.291   0.693
   1.091   1.281   0.284   0.113   0.109   0.113   0.284   1.281   1.091   0.693
   0.291   0.150   0.168   0.172   0.347   0.547   1.087   1.351   2.223   3.059
   5.067   8.259
   2.784   2.494   2.179   2.097   2.016   1.822   1.884   1.669   1.246   0.679
   0.320   0.202   0.324   0.695   0.984   1.404   0.402   0.255   0.210   0.255
   0.402   1.404   0.984   0.695   0.324   0.202   0.320   0.679   1.246   1.669
   1.884   1.822   2.016   2.097   2.179   2.494   2.784   2.494   2.179   2.097
   2.016   1.822   1.884   1.669   1.246   0.679   0.320   0.202   0.324   0.695
   0.984   1.404   0.402   0.255   0.210   0.255   0.402   1.404   0.984   0.695
   0.324   0.202   0.320   0.679   1.246   1.669   1.884   1.822   2.016   2.097
   2.179   2.494
   0.281   0.426   0.511   0.447   0.561   0.863   1.286   1.734   1.899   1.563
   0.715   0.265   0.301   0.481   0.833   1.387   0.788   0.406   0.311   0.406
   0.788   1.387   0.833   0.481   0.301   0.265   0.715   1.563   1.899   1.734
   1.286   0.863   0.561   0.447   0.511   0.426   0.281   0.426   0.511   0.447
   0.561   0.863   1.286   1.734   1.899   1.563   0.715   0.265   0.301   0.481
   0.833   1.387   0.788   0.406   0.311   0.406   0.788   1.387   0.833   0.481
   0.301   0.265   0.715   1.563   1.899   1.734   1.286   0.863   0.561   0.447
   0.511   0.426
 200       5.00   72    0 5.00   15    0
   0.106   0.106   0.106   0.106   0.106   0.106   0.106   0.106   0.106   0.106
   0.106   0.106   0.106   0.106   0.106   0.106   0.106   0.106   0.106   0.106
   0.106   0.106   0.106   0.106   0.106   0.106   0.106   0.106   0.106   0.106
   0.106   0.106   0.106   0.106   0.106   0.106   0.106   0.106   0.106   0.106
   0.106   0.106   0.106   0.106   0.106   0.106   0.106   0.106   0.106   0.106
   0.106   0.106   0.106   0.106   0.106   0.106   0.106   0.106   0.106   0.106
   0.106   0.106   0.106   0.106   0.106   0.106   0.106   0.106   0.106   0.106
   0.106   0.106
   0.109   0.114   0.110   0.116   0.107   0.104   0.111   0.114   0.113   0.106
   0.114   0.115   0.112   0.121   0.110   0.114   0.123   0.132   0.120   0.132
   0.123   0.114   0.110   0.121   0.112   0.115   0.114   0.106   0.113   0.114
   0.111   0.104   0.107   0.116   0.110   0.114   0.109   0.114   0.110   0.116
   0.107   0.104   0.111   0.114   0.113   0.106   0.114   0.115   0.112   0.121
   0.110   0.114   0.123   0.132   0.120   0.132   0.123   0.114   0.110   0.121
   0.112   0.115   0.114   0.106   0.113   0.114   0.111   0.104   0.107   0.116
   0.110   0.114
   0.140   0.141   0.126   0.145   0.131   0.127   0.140   0.123   0.134   0.119
   0.132   0.124   0.119   0.119   0.118   0.114   0.121   0.131   0.145   0.131
   0.121   0.114   0.118   0.119   0.119   0.124   0.132   0.119   0.134   0.123
   0.140   0.127   0.131   0.145   0.126   0.141   0.140   0.141   0.126   0.145
   0.131   0.127   0.140   0.123   0.134   0.119   0.132   0.124   0.119   0.119
   0.118   0.114   0.121   0.131   0.145   0.131   0.121   0.114   0.118   0.119
   0.119   0.124   0.132   0.119   0.134   0.123   0.140   0.127   0.131   0.145
   0.126   0.141
   0.283   0.287   0.254   0.258   0.215   0.203   0.196   0.157   0.144   0.129
   0.137   0.121   0.111   0.110   0.110   0.100   0.119   0.113   0.151   0.113
   0.119   0.100   0.110   0.110   0.111   0.121   0.137   0.129   0.144   0.157
   0.196   0.203   0.215   0.258   0.254   0.287   0.283   0.287   0.254   0.258
   0.215   0.203   0.196   0.157   0.144   0.129   0.137   0.121   0.111   0.110
   0.110   0.100   0.119   0.113   0.151   0.113   0.119   0.100   0.110   0.110
   0.111   0.121   0.137   0.129   0.144   0.157   0.196   0.203   0.215   0.258
   0.254   0.287
   1.193   1.127   1.075   0.945   0.809   0.686   0.537   0.376   0.286   0.201
   0.157   0.106   0.096   0.087   0.083   0.074   0.111   0.087   0.102   0.087
   0.111   0.074   0.083   0.087   0.096   0.106   0.157   0.201   0.286   0.376
   0.537   0.686   0.809   0.945   1.075   1.127   1.193   1.127   1.075   0.945
   0.809   0.686   0.537   0.376   0.286   0.201   0.157   0.106   0.096   0.087
   0.083   0.074   0.111   0.087   0.102   0.087   0.111   0.074   0.083   0.087
   0.096   0.106   0.157   0.201   0.286   0.376   0.537   0.686   0.809   0.945
   1.075   1.127
   3.971   3.750   3.724   3.476   3.212   2.965   2.335   1.656   1.124   0.622
   0.368   0.162   0.125   0.082   0.071   0.063   0.084   0.057   0.052   0.057
   0.084   0.063   0.071   0.082   0.125   0.162   0.368   0.622   1.124   1.656
   2.335   2.965   3.212   3.476   3.724   3.750   3.971   3.750   3.724   3.476
   3.212   2.965   2.335   1.656   1.124   0.622   0.368   0.162   0.125   0.082
   0.071   0.063   0.084   0.057   0.052   0.057   0.084   0.063   0.071   0.082
   0.125   0.162   0.368   0.622   1.124   1.656   2.335   2.965   3.212   3.476
   3.724   3.750
   4.166   4.050   4.217   4.266   4.527   4.709   4.624   4.410   3.574   2.351
   1.309   0.548   0.298   0.176   0.113   0.104   0.116   0.081   0.041   0.081
   0.116   0.104   0.113   0.176   0.298   0.548   1.309   2.351   3.574   4.410
   4.624   4.709   4.527   4.266   4.217   4.050   4.166   4.050   4.217   4.266
   4.527   4.709   4.624   4.410   3.574   2.351   1.309   0.548   0.298   0.176
   0.113   0.104   0.116   0.081   0.041   0.081   0.116   0.104   0.113   0.176
   0.298   0.548   1.309   2.351   3.574   4.410   4.624   4.709   4.527   4.266
   4.217   4.050
   1.329   1.384   1.543   1.741   2.230   2.680   3.381   4.181   4.516   4.219
   3.210   1.772   0.879   0.464   0.285   0.244   0.207   0.220   0.159   0.220
   0.207   0.244   0.285   0.464   0.879   1.772   3.210   4.219   4.516   4.181
   3.381   2.680   2.230   1.741   1.543   1.384   1.329   1.384   1.543   1.741
   2.230   2.680   3.381   4.181   4.516   4.219   3.210   1.772   0.879   0.464
   0.285   0.244   0.207   0.220   0.159   0.220   0.207   0.244   0.285   0.464
   0.879   1.772   3.210   4.219   4.516   4.181   3.381   2.680   2.230   1.741
   1.543   1.384
   0.171   0.179   0.183   0.190   0.298   0.432   0.771   1.305   2.232   3.312
   3.836   3.215   1.834   0.915   0.477   0.355   0.234   0.304   0.253   0.304
   0.234   0.355   0.477   0.915   1.834   3.215   3.836   3.312   2.232   1.305
   0.771   0.432   0.298   0.190   0.183   0.179   0.171   0.179   0.183   0.190
   0.298   0.432   0.771   1.305   2.232   3.312   3.836   3.215   1.834   0.915
   0.477   0.355   0.234   0.304   0.253   0.304   0.234   0.355   0.477   0.915
   1.834   3.215   3.836   3.312   2.232   1.305   0.771   0.432   0.298   0.190
   0.183   0.179
   0.037   0.052   0.039   0.042   0.062   0.084   0.132   0.234   0.507   1.329
   2.661   3.905   2.931   1.583   0.680   0.411   0.251   0.288   0.273   0.288
   0.251   0.411   0.680   1.583   2.931   3.905   2.661   1.329   0.507   0.234
   0.132   0.084   0.062   0.042   0.039   0.052   0.037   0.052   0.039   0.042
   0.062   0.084   0.132   0.234   0.507   1.329   2.661   3.905   2.931   1.583
   0.680   0.411   0.251   0.288   0.273   0.288   0.251   0.411   0.680   1.583
   2.931   3.905   2.661   1.329   0.507   0.234   0.132   0.084   0.062   0.042
   0.039   0.052
   0.034   0.053   0.052   0.061   0.055   0.074   0.089   0.153   0.208   0.695
   1.838   4.243   4.122   2.218   0.821   0.431   0.257   0.230   0.240   0.230
   0.257   0.431   0.821   2.218   4.122   4.243   1.838   0.695   0.208   0.153
   0.089   0.074   0.055   0.061   0.052   0.053   0.034   0.053   0.052   0.061
   0.055   0.074   0.089   0.153   0.208   0.695   1.838   4.243   4.122   2.218
   0.821   0.431   0.257   0.230   0.240   0.230   0.257   0.431   0.821   2.218
   4.122   4.243   1.838   0.695   0.208   0.153   0.089   0.074   0.055   0.061
   0.052   0.053
   0.051   0.030   0.053   0.026   0.048   0.055   0.057   0.097   0.124   0.563
   1.842   4.727   4.904   2.171   0.702   0.376   0.203   0.111   0.138   0.111
   0.203   0.376   0.702   2.171   4.904   4.727   1.842   0.563   0.124   0.097
   0.057   0.055   0.048   0.026   0.053   0.030   0.051   0.030   0.053   0.026
   0.048   0.055   0.057   0.097   0.124   0.563   1.842   4.727   4.904   2.171
   0.702   0.376   0.203   0.111   0.138   0.111   0.203   0.376   0.702   2.171
   4.904   4.727   1.842   0.563   0.124   0.097   0.057   0.055   0.048   0.026
   0.053   0.030
   0.033   0.059   0.059   0.039   0.066   0.088   0.012   0.109   0.321   1.019
   2.814   4.747   3.809   1.423   0.456   0.277   0.147   0.069   0.152   0.069
   0.147   0.277   0.456   1.423   3.809   4.747   2.814   1.019   0.321   0.109
   0.012   0.088   0.066   0.039   0.059   0.059   0.033   0.059   0.059   0.039
   0.066   0.088   0.012   0.109   0.321   1.019   2.814   4.747   3.809   1.423
   0.456   0.277   0.147   0.069   0.152   0.069   0.147   0.277   0.456   1.423
   3.809   4.747   2.814   1.019   0.321   0.109   0.012   0.088   0.066   0.039
   0.059   0.059
   0.046   0.106   0.089   0.094   0.138   0.188   0.110   0.450   1.178   2.838
   3.976   3.429   1.593   0.695   0.280   0.169   0.120   0.096   0.231   0.096
   0.120   0.169   0.280   0.695   1.593   3.429   3.976   2.838   1.178   0.450
   0.110   0.188   0.138   0.094   0.089   0.106   0.046   0.106   0.089   0.094
   0.138   0.188   0.110   0.450   1.178   2.838   3.976   3.429   1.593   0.695
   0.280   0.169   0.120   0.096   0.231   0.096   0.120   0.169   0.280   0.695
   1.593   3.429   3.976   2.838   1.178   0.450   0.110   0.188   0.138   0.094
   0.089   0.106
   0.163   0.119   0.108   0.084   0.107   0.209   0.376   1.112   2.842   4.207
   3.433   1.572   0.433   0.306   0.142   0.085   0.166   0.139   0.240   0.139
   0.166   0.085   0.142   0.306   0.433   1.572   3.433   4.207   2.842   1.112
   0.376   0.209   0.107   0.084   0.108   0.119   0.163   0.119   0.108   0.084
   0.107   0.209   0.376   1.112   2.842   4.207   3.433   1.572   0.433   0.306
   0.142   0.085   0.166   0.139   0.240   0.139   0.166   0.085   0.142   0.306
   0.433   1.572   3.433   4.207   2.842   1.112   0.376   0.209   0.107   0.084
   0.108   0.119
 111       5.00   72    0 5.00   15    0
   0.027   0.027   0.027   0.027   0.027   0.027   0.027   0.027   0.027   0.027
   0.027   0.027   0.027   0.027   0.027   0.027   0.027   0.027   0.027   0.027
   0.027   0.027   0.027   0.027   0.027   0.027   0.027   0.027   0.027   0.027
   0.027   0.027   0.027   0.027   0.027   0.027   0.027   0.027   0.027   0.027
   0.027   0.027   0.027   0.027   0.027   0.027   0.027   0.027   0.027   0.027
   0.027   0.027   0.027   0.027   0.027   0.027   0.027   0.027   0.027   0.027
   0.027   0.027   0.027   0.027   0.027   0.027   0.027   0.027   0.027   0.027
   0.027   0.027
   0.047   0.050   0.046   0.047   0.042   0.039   0.037   0.037   0.033   0.037
   0.027   0.032   0.036   0.030   0.031   0.034   0.030   0.028   0.032   0.028
   0.030   0.034   0.031   0.030   0.036   0.032   0.027   0.037   0.033   0.037
   0.037   0.039   0.042   0.047   0.046   0.050   0.047   0.050   0.046   0.047
   0.042   0.039   0.037   0.037   0.033   0.037   0.027   0.032   0.036   0.030
   0.031   0.034   0.030   0.028   0.032   0.028   0.030   0.034   0.031   0.030
   0.036   0.032   0.027   0.037   0.033   0.037   0.037   0.039   0.042   0.047
   0.046   0.050
   0.204   0.212   0.170   0.142   0.112   0.086   0.076   0.057   0.044   0.045
   0.035   0.031   0.029   0.029   0.032   0.029   0.031   0.030   0.042   0.030
   0.031   0.029   0.032   0.029   0.029   0.031   0.035   0.045   0.044   0.057
   0.076   0.086   0.112   0.142   0.170   0.212   0.204   0.212   0.170   0.142
   0.112   0.086   0.076   0.057   0.044   0.045   0.035   0.031   0.029   0.029
   0.032   0.029   0.031   0.030   0.042   0.030   0.031   0.029   0.032   0.029
   0.029   0.031   0.035   0.045   0.044   0.057   0.076   0.086   0.112   0.142
   0.170   0.212
   2.184   2.017   1.545   1.053   0.633   0.351   0.200   0.115   0.063   0.036
   0.023   0.013   0.012   0.014   0.016   0.013   0.016   0.017   0.026   0.017
   0.016   0.013   0.016   0.014   0.012   0.013   0.023   0.036   0.063   0.115
   0.200   0.351   0.633   1.053   1.545   2.017   2.184   2.017   1.545   1.053
   0.633   0.351   0.200   0.115   0.063   0.036   0.023   0.013   0.012   0.014
   0.016   0.013   0.016   0.017   0.026   0.017   0.016   0.013   0.016   0.014
   0.012   0.013   0.023   0.036   0.063   0.115   0.200   0.351   0.633   1.053
   1.545   2.017
   9.033   8.368   6.755   4.985   3.271   1.877   0.889   0.399   0.151   0.041
   0.002   0.000   0.001   0.000   0.001   0.003   0.000   0.002   0.000   0.002
   0.000   0.003   0.001   0.000   0.001   0.000   0.002   0.041   0.151   0.399
   0.889   1.877   3.271   4.985   6.755   8.368   9.033   8.368   6.755   4.985
   3.271   1.877   0.889   0.399   0.151   0.041   0.002   0.000   0.001   0.000
   0.001   0.003   0.000   0.002   0.000   0.002   0.000   0.003   0.001   0.000
   0.001   0.000   0.002   0.041   0.151   0.399   0.889   1.877   3.271   4.985
   6.755   8.368
   9.679   9.222   7.986   6.718   5.455   4.146   2.616   1.469   0.656   0.258
   0.118   0.055   0.022   0.012   0.019   0.008   0.005   0.010   0.006   0.010
   0.005   0.008   0.019   0.012   0.022   0.055   0.118   0.258   0.656   1.469
   2.616   4.146   5.455   6.718   7.986   9.222   9.679   9.222   7.986   6.718
   5.455   4.146   2.616   1.469   0.656   0.258   0.118   0.055   0.022   0.012
   0.019   0.008   0.005   0.010   0.006   0.010   0.005   0.008   0.019   0.012
   0.022   0.055   0.118   0.258   0.656   1.469   2.616   4.146   5.455   6.718
   7.986   9.222
   3.218   3.228   3.218   3.343   3.582   3.759   3.367   2.697   1.762   0.942
   0.453   0.221   0.112   0.060   0.060   0.037   0.027   0.026   0.024   0.026
   0.027   0.037   0.060   0.060   0.112   0.221   0.453   0.942   1.762   2.697
   3.367   3.759   3.582   3.343   3.218   3.228   3.218   3.228   3.218   3.343
   3.582   3.759   3.367   2.697   1.762   0.942   0.453   0.221   0.112   0.060
   0.060   0.037   0.027   0.026   0.024   0.026   0.027   0.037   0.060   0.060
   0.112   0.221   0.453   0.942   1.762   2.697   3.367   3.759   3.582   3.343
   3.218   3.228
   0.714   0.706   0.742   0.850   1.106   1.601   2.115   2.553   2.659   2.071
   1.214   0.575   0.261   0.132   0.096   0.071   0.063   0.046   0.052   0.046
   0.063   0.071   0.096   0.132   0.261   0.575   1.214   2.071   2.659   2.553
   2.115   1.601   1.106   0.850   0.742   0.706   0.714   0.706   0.742   0.850
   1.106   1.601   2.115   2.553   2.659   2.071   1.214   0.575   0.261   0.132
   0.096   0.071   0.063   0.046   0.052   0.046   0.063   0.071   0.096   0.132
   0.261   0.575   1.214   2.071   2.659   2.553   2.115   1.601   1.106   0.850
   0.742   0.706
   0.227   0.252   0.221   0.250   0.336   0.550   0.834   1.446   2.347   2.685
   2.364   1.461   0.629   0.265   0.153   0.112   0.089   0.083   0.070   0.083
   0.089   0.112   0.153   0.265   0.629   1.461   2.364   2.685   2.347   1.446
   0.834   0.550   0.336   0.250   0.221   0.252   0.227   0.252   0.221   0.250
   0.336   0.550   0.834   1.446   2.347   2.685   2.364   1.461   0.629   0.265
   0.153   0.112   0.089   0.083   0.070   0.083   0.089   0.112   0.153   0.265
   0.629   1.461   2.364   2.685   2.347   1.446   0.834   0.550   0.336   0.250
   0.221   0.252
   0.141   0.158   0.112   0.125   0.110   0.222   0.324   0.622   1.267   2.101
   2.910   2.730   1.718   0.794   0.330   0.186   0.131   0.134   0.127   0.134
   0.131   0.186   0.330   0.794   1.718   2.730   2.910   2.101   1.267   0.622
   0.324   0.222   0.110   0.125   0.112   0.158   0.141   0.158   0.112   0.125
   0.110   0.222   0.324   0.622   1.267   2.101   2.910   2.730   1.718   0.794
   0.330   0.186   0.131   0.134   0.127   0.134   0.131   0.186   0.330   0.794
   1.718   2.730   2.910   2.101   1.267   0.622   0.324   0.222   0.110   0.125
   0.112   0.158
   0.121   0.144   0.092   0.097   0.057   0.091   0.140   0.266   0.496   1.035
   1.948   2.727   2.864   2.078   1.060   0.468   0.264   0.181   0.150   0.181
   0.264   0.468   1.060   2.078   2.864   2.727   1.948   1.035   0.496   0.266
   0.140   0.091   0.057   0.097   0.092   0.144   0.121   0.144   0.092   0.097
   0.057   0.091   0.140   0.266   0.496   1.035   1.948   2.727   2.864   2.078
   1.060   0.468   0.264   0.181   0.150   0.181   0.264   0.468   1.060   2.078
   2.864   2.727   1.948   1.035   0.496   0.266   0.140   0.091   0.057   0.097
   0.092   0.144
   0.135   0.134   0.081   0.086   0.047   0.037   0.056   0.148   0.215   0.328
   0.633   1.320   2.261   2.627   2.289   1.381   0.698   0.358   0.263   0.358
   0.698   1.381   2.289   2.627   2.261   1.320   0.633   0.328   0.215   0.148
   0.056   0.037   0.047   0.086   0.081   0.134   0.135   0.134   0.081   0.086
   0.047   0.037   0.056   0.148   0.215   0.328   0.633   1.320   2.261   2.627
   2.289   1.381   0.698   0.358   0.263   0.358   0.698   1.381   2.289   2.627
   2.261   1.320   0.633   0.328   0.215   0.148   0.056   0.037   0.047   0.086
   0.081   0.134
   0.198   0.126   0.087   0.067   0.054   0.051   0.047   0.120   0.150   0.126
   0.181   0.340   0.819   1.509   2.262   2.343   1.762   0.926   0.627   0.926
   1.762   2.343   2.262   1.509   0.819   0.340   0.181   0.126   0.150   0.120
   0.047   0.051   0.054   0.067   0.087   0.126   0.198   0.126   0.087   0.067
   0.054   0.051   0.047   0.120   0.150   0.126   0.181   0.340   0.819   1.509
   2.262   2.343   1.762   0.926   0.627   0.926   1.762   2.343   2.262   1.509
   0.819   0.340   0.181   0.126   0.150   0.120   0.047   0.051   0.054   0.067
   0.087   0.126
   0.206   0.157   0.142   0.073   0.079   0.065   0.051   0.109   0.145   0.137
   0.117   0.133   0.222   0.446   1.123   2.029   2.500   1.969   1.326   1.969
   2.500   2.029   1.123   0.446   0.222   0.133   0.117   0.137   0.145   0.109
   0.051   0.065   0.079   0.073   0.142   0.157   0.206   0.157   0.142   0.073
   0.079   0.065   0.051   0.109   0.145   0.137   0.117   0.133   0.222   0.446
   1.123   2.029   2.500   1.969   1.326   1.969   2.500   2.029   1.123   0.446
   0.222   0.133   0.117   0.137   0.145   0.109   0.051   0.065   0.079   0.073
   0.142   0.157
   0.213   0.250   0.154   0.193   0.079   0.076   0.082   0.135   0.171   0.130
   0.089   0.093   0.085   0.140   0.525   1.088   2.121   2.730   2.460   2.730
   2.121   1.088   0.525   0.140   0.085   0.093   0.089   0.130   0.171   0.135
   0.082   0.076   0.079   0.193   0.154   0.250   0.213   0.250   0.154   0.193
   0.079   0.076   0.082   0.135   0.171   0.130   0.089   0.093   0.085   0.140
   0.525   1.088   2.121   2.730   2.460   2.730   2.121   1.088   0.525   0.140
   0.085   0.093   0.089   0.130   0.171   0.135   0.082   0.076   0.079   0.193
   0.154   0.250
  4  1     -7.5539388E-01
  4  2      1.2630570E-01
  4  3     -2.5322560E+00
  6  1      2.4502614E+00
  6  2     -5.0755986E+00
  6  3      2.4293530E+00
  6  4      3.6169802E-01
  8  1     -6.2374062E-01
  8  2      3.9172876E-01
  8  3     -1.6844835E-03
  8  4      2.7315759E+00
  8  5      1.3188442E+00
 10  1     -1.6604833E+00
 10  2      1.6122861E+00
 10  3      1.2264008E+00
 10  4      6.2303342E-01
 10  5     -2.7754135E-01
 10  6     -1.2454951E+00
 12  1      2.9297085E-01  2.3582708E+00
 12  2     -1.6874321E-01 -3.7074743E+00
 12  3     -1.0568502E-01  4.6815075E+00
 12  4     -5.4243395E-01 -2.7794120E+00
 12  5     -4.0414551E-01 -4.6231981E-01
 12  6     -2.8836395E+00  1.0501865E+00
 12  7     -1.6986144E-01 -1.0308823E-01
 14  1     -6.6460809E-01
 14  2      8.7943375E-01
 14  3     -7.7275441E-01
 14  4      7.3793885E-02
 14  5     -2.3567535E+00
 14  6      1.2083607E+00
 14  7     -5.5057415E-02
 14  8      2.5180829E-01
 16  1     -1.3960095E-01 -1.3176504E+00
 16  2     -2.7424045E-01  1.8076418E+00
 16  3      6.6376857E-01 -7.8388006E-01
 16  4     -1.1785915E-01 -1.3067149E+00
 16  5      3.0736984E-03  5.4938979E-01
 16  6      2.2047334E-01  3.4431132E-01
 16  7      1.6638722E+00  5.1457712E-02
 16  8      1.0411617E+00 -2.6356459E-01
 16  9      1.1225506E-01  2.1279712E-01
 220       5.00   72    0 5.00   18    0
   2.879   2.881   2.886   2.893   2.904   2.917   2.932   2.949   2.966   2.985
   3.004   3.022   3.039   3.055   3.068   3.079   3.087   3.092   3.094   3.092
   3.087   3.079   3.068   3.055   3.039   3.022   3.004   2.985   2.966   2.949
   2.932   2.917   2.904   2.893   2.886   2.881   2.879   2.881   2.886   2.893
   2.904   2.917   2.932   2.949   2.966   2.985   3.004   3.022   3.039   3.055
   3.068   3.079   3.087   3.092   3.094   3.092   3.087   3.079   3.068   3.055
   3.039   3.022   3.004   2.985   2.966   2.949   2.932   2.917   2.904   2.893
   2.886   2.881
   1.719   1.729   1.758   1.806   1.873   1.959   2.062   2.181   2.314   2.457
   2.607   2.759   2.907   3.046   3.169   3.272   3.350   3.398   3.414   3.398
   3.350   3.272   3.169   3.046   2.907   2.759   2.607   2.457   2.314   2.181
   2.062   1.959   1.873   1.806   1.758   1.729   1.719   1.729   1.758   1.806
   1.873   1.959   2.062   2.181   2.314   2.457   2.607   2.759   2.907   3.046
   3.169   3.272   3.350   3.398   3.414   3.398   3.350   3.272   3.169   3.046
   2.907   2.759   2.607   2.457   2.314   2.181   2.062   1.959   1.873   1.806
   1.758   1.729
   0.288   0.297   0.325   0.376   0.454   0.565   0.715   0.908   1.147   1.432
   1.757   2.111   2.481   2.847   3.187   3.480   3.707   3.849   3.898   3.849
   3.707   3.480   3.187   2.847   2.481   2.111   1.757   1.432   1.147   0.908
   0.715   0.565   0.454   0.376   0.325   0.297   0.288   0.297   0.325   0.376
   0.454   0.565   0.715   0.908   1.147   1.432   1.757   2.111   2.481   2.847
   3.187   3.480   3.707   3.849   3.898   3.849   3.707   3.480   3.187   2.847
   2.481   2.111   1.757   1.432   1.147   0.908   0.715   0.565   0.454   0.376
   0.325   0.297
  -0.411  -0.418  -0.437  -0.460  -0.476  -0.469  -0.418  -0.300  -0.095   0.212
   0.627   1.139   1.725   2.347   2.956   3.502   3.933   4.210   4.305   4.210
   3.933   3.502   2.956   2.347   1.725   1.139   0.627   0.212  -0.095  -0.300
  -0.418  -0.469  -0.476  -0.460  -0.437  -0.418  -0.411  -0.418  -0.437  -0.460
  -0.476  -0.469  -0.418  -0.300  -0.095   0.212   0.627   1.139   1.725   2.347
   2.956   3.502   3.933   4.210   4.305   4.210   3.933   3.502   2.956   2.347
   1.725   1.139   0.627   0.212  -0.095  -0.300  -0.418  -0.469  -0.476  -0.460
  -0.437  -0.418
  -0.153  -0.172  -0.229  -0.324  -0.453  -0.600  -0.739  -0.826  -0.811  -0.648
  -0.305   0.224   0.912   1.701   2.515   3.265   3.869   4.260   4.396   4.260
   3.869   3.265   2.515   1.701   0.912   0.224  -0.305  -0.648  -0.811  -0.826
  -0.739  -0.600  -0.453  -0.324  -0.229  -0.172  -0.153  -0.172  -0.229  -0.324
  -0.453  -0.600  -0.739  -0.826  -0.811  -0.648  -0.305   0.224   0.912   1.701
   2.515   3.265   3.869   4.260   4.396   4.260   3.869   3.265   2.515   1.701
   0.912   0.224  -0.305  -0.648  -0.811  -0.826  -0.739  -0.600  -0.453  -0.324
  -0.229  -0.172
   0.316   0.316   0.308   0.268   0.168  -0.010  -0.255  -0.523  -0.732  -0.793
  -0.630  -0.214   0.430   1.226   2.068   2.848   3.471   3.871   4.009   3.871
   3.471   2.848   2.068   1.226   0.430  -0.214  -0.630  -0.793  -0.732  -0.523
  -0.255  -0.010   0.168   0.268   0.308   0.316   0.316   0.316   0.308   0.268
   0.168  -0.010  -0.255  -0.523  -0.732  -0.793  -0.630  -0.214   0.430   1.226
   2.068   2.848   3.471   3.871   4.009   3.871   3.471   2.848   2.068   1.226
   0.430  -0.214  -0.630  -0.793  -0.732  -0.523  -0.255  -0.010   0.168   0.268
   0.308   0.316
   0.102   0.146   0.267   0.420   0.536   0.543   0.394   0.114  -0.201  -0.410
  -0.392  -0.093   0.449   1.124   1.805   2.385   2.805   3.053   3.133   3.053
   2.805   2.385   1.805   1.124   0.449  -0.093  -0.392  -0.410  -0.201   0.114
   0.394   0.543   0.536   0.420   0.267   0.146   0.102   0.146   0.267   0.420
   0.536   0.543   0.394   0.114  -0.201  -0.410  -0.392  -0.093   0.449   1.124
   1.805   2.385   2.805   3.053   3.133   3.053   2.805   2.385   1.805   1.124
   0.449  -0.093  -0.392  -0.410  -0.201   0.114   0.394   0.543   0.536   0.420
   0.267   0.146
  -0.707  -0.650  -0.471  -0.173   0.184   0.478   0.580   0.453   0.190  -0.022
  -0.009   0.288   0.791   1.332   1.752   1.974   2.024   1.991   1.967   1.991
   2.024   1.974   1.752   1.332   0.791   0.288  -0.009  -0.022   0.190   0.453
   0.580   0.478   0.184  -0.173  -0.471  -0.650  -0.707  -0.650  -0.471  -0.173
   0.184   0.478   0.580   0.453   0.190  -0.022  -0.009   0.288   0.791   1.332
   1.752   1.974   2.024   1.991   1.967   1.991   2.024   1.974   1.752   1.332
   0.791   0.288  -0.009  -0.022   0.190   0.453   0.580   0.478   0.184  -0.173
  -0.471  -0.650
  -0.820  -0.861  -0.903  -0.785  -0.445  -0.005   0.307   0.349   0.185   0.045
   0.149   0.553   1.114   1.586   1.777   1.649   1.323   1.004   0.873   1.004
   1.323   1.649   1.777   1.586   1.114   0.553   0.149   0.045   0.185   0.349
   0.307  -0.005  -0.445  -0.785  -0.903  -0.861  -0.820  -0.861  -0.903  -0.785
  -0.445  -0.005   0.307   0.349   0.185   0.045   0.149   0.553   1.114   1.586
   1.777   1.649   1.323   1.004   0.873   1.004   1.323   1.649   1.777   1.586
   1.114   0.553   0.149   0.045   0.185   0.349   0.307  -0.005  -0.445  -0.785
  -0.903  -0.861
   1.045   0.767   0.144  -0.371  -0.465  -0.199   0.104   0.169   0.008  -0.123
   0.036   0.532   1.165   1.634   1.719   1.404   0.866   0.381   0.188   0.381
   0.866   1.404   1.719   1.634   1.165   0.532   0.036  -0.123   0.008   0.169
   0.104  -0.199  -0.465  -0.371   0.144   0.767   1.045   0.767   0.144  -0.371
  -0.465  -0.199   0.104   0.169   0.008  -0.123   0.036   0.532   1.165   1.634
   1.719   1.404   0.866   0.381   0.188   0.381   0.866   1.404   1.719   1.634
   1.165   0.532   0.036  -0.123   0.008   0.169   0.104  -0.199  -0.465  -0.371
   0.144   0.767
   4.550   3.975   2.608   1.232   0.448   0.293   0.367   0.287   0.005  -0.228
  -0.145   0.301   0.913   1.394   1.517   1.233   0.696   0.189  -0.017   0.189
   0.696   1.233   1.517   1.394   0.913   0.301  -0.145  -0.228   0.005   0.287
   0.367   0.293   0.448   1.232   2.608   3.975   4.550   3.975   2.608   1.232
   0.448   0.293   0.367   0.287   0.005  -0.228  -0.145   0.301   0.913   1.394
   1.517   1.233   0.696   0.189  -0.017   0.189   0.696   1.233   1.517   1.394
   0.913   0.301  -0.145  -0.228   0.005   0.287   0.367   0.293   0.448   1.232
   2.608   3.975
   7.490   6.727   4.885   2.941   1.661   1.141   0.967   0.722   0.320  -0.043
  -0.144   0.081   0.533   1.004   1.263   1.155   0.724   0.237   0.025   0.237
   0.724   1.155   1.263   1.004   0.533   0.081  -0.144  -0.043   0.320   0.722
   0.967   1.141   1.661   2.941   4.885   6.727   7.490   6.727   4.885   2.941
   1.661   1.141   0.967   0.722   0.320  -0.043  -0.144   0.081   0.533   1.004
   1.263   1.155   0.724   0.237   0.025   0.237   0.724   1.155   1.263   1.004
   0.533   0.081  -0.144  -0.043   0.320   0.722   0.967   1.141   1.661   2.941
   4.885   6.727
   7.543   6.843   5.158   3.388   2.214   1.701   1.491   1.244   0.876   0.483
   0.189   0.100   0.289   0.710   1.115   1.187   0.819   0.286   0.035   0.286
   0.819   1.187   1.115   0.710   0.289   0.100   0.189   0.483   0.876   1.244
   1.491   1.701   2.214   3.388   5.158   6.843   7.543   6.843   5.158   3.388
   2.214   1.701   1.491   1.244   0.876   0.483   0.189   0.100   0.289   0.710
   1.115   1.187   0.819   0.286   0.035   0.286   0.819   1.187   1.115   0.710
   0.289   0.100   0.189   0.483   0.876   1.244   1.491   1.701   2.214   3.388
   5.158   6.843
   4.495   4.091   3.155   2.256   1.765   1.648   1.655   1.611   1.465   1.193
   0.803   0.437   0.352   0.664   1.128   1.287   0.920   0.313   0.018   0.313
   0.920   1.287   1.128   0.664   0.352   0.437   0.803   1.193   1.465   1.611
   1.655   1.648   1.765   2.256   3.155   4.091   4.495   4.091   3.155   2.256
   1.765   1.648   1.655   1.611   1.465   1.193   0.803   0.437   0.352   0.664
   1.128   1.287   0.920   0.313   0.018   0.313   0.920   1.287   1.128   0.664
   0.352   0.437   0.803   1.193   1.465   1.611   1.655   1.648   1.765   2.256
   3.155   4.091
   0.639   0.576   0.491   0.565   0.827   1.151   1.421   1.631   1.771   1.727
   1.403   0.933   0.660   0.799   1.171   1.338   1.054   0.545   0.293   0.545
   1.054   1.338   1.171   0.799   0.660   0.933   1.403   1.727   1.771   1.631
   1.421   1.151   0.827   0.565   0.491   0.576   0.639   0.576   0.491   0.565
   0.827   1.151   1.421   1.631   1.771   1.727   1.403   0.933   0.660   0.799
   1.171   1.338   1.054   0.545   0.293   0.545   1.054   1.338   1.171   0.799
   0.660   0.933   1.403   1.727   1.771   1.631   1.421   1.151   0.827   0.565
   0.491   0.576
  -1.293  -1.181  -0.851  -0.358   0.157   0.566   0.877   1.193   1.529   1.732
   1.638   1.302   0.983   0.907   1.057   1.229   1.260   1.176   1.122   1.176
   1.260   1.229   1.057   0.907   0.983   1.302   1.638   1.732   1.529   1.193
   0.877   0.566   0.157  -0.358  -0.851  -1.181  -1.293  -1.181  -0.851  -0.358
   0.157   0.566   0.877   1.193   1.529   1.732   1.638   1.302   0.983   0.907
   1.057   1.229   1.260   1.176   1.122   1.176   1.260   1.229   1.057   0.907
   0.983   1.302   1.638   1.732   1.529   1.193   0.877   0.566   0.157  -0.358
  -0.851  -1.181
  -0.657  -0.584  -0.387  -0.145   0.038   0.127   0.217   0.446   0.833   1.231
   1.445   1.395   1.147   0.871   0.766   0.984   1.502   2.059   2.300   2.059
   1.502   0.984   0.766   0.871   1.147   1.395   1.445   1.231   0.833   0.446
   0.217   0.127   0.038  -0.145  -0.387  -0.584  -0.657  -0.584  -0.387  -0.145
   0.038   0.127   0.217   0.446   0.833   1.231   1.445   1.395   1.147   0.871
   0.766   0.984   1.502   2.059   2.300   2.059   1.502   0.984   0.766   0.871
   1.147   1.395   1.445   1.231   0.833   0.446   0.217   0.127   0.038  -0.145
  -0.387  -0.584
   0.717   0.687   0.595   0.426   0.176  -0.095  -0.248  -0.150   0.216   0.719
   1.155   1.338   1.175   0.778   0.506   0.776   1.671   2.715   3.180   2.715
   1.671   0.776   0.506   0.778   1.175   1.338   1.155   0.719   0.216  -0.150
  -0.248  -0.095   0.176   0.426   0.595   0.687   0.717   0.687   0.595   0.426
   0.176  -0.095  -0.248  -0.150   0.216   0.719   1.155   1.338   1.175   0.778
   0.506   0.776   1.671   2.715   3.180   2.715   1.671   0.776   0.506   0.778
   1.175   1.338   1.155   0.719   0.216  -0.150  -0.248  -0.095   0.176   0.426
   0.595   0.687
 200       5.00   72    0 5.00   18    0
   0.289   0.290   0.291   0.294   0.297   0.301   0.306   0.311   0.317   0.323
   0.329   0.335   0.341   0.346   0.351   0.354   0.357   0.359   0.359   0.359
   0.357   0.354   0.351   0.346   0.341   0.335   0.329   0.323   0.317   0.311
   0.306   0.301   0.297   0.294   0.291   0.290   0.289   0.290   0.291   0.294
   0.297   0.301   0.306   0.311   0.317   0.323   0.329   0.335   0.341   0.346
   0.351   0.354   0.357   0.359   0.359   0.359   0.357   0.354   0.351   0.346
   0.341   0.335   0.329   0.323   0.317   0.311   0.306   0.301   0.297   0.294
   0.291   0.290
  -0.045  -0.044  -0.038  -0.029  -0.015   0.004   0.028   0.058   0.093   0.134
   0.180   0.229   0.279   0.329   0.374   0.413   0.442   0.461   0.467   0.461
   0.442   0.413   0.374   0.329   0.279   0.229   0.180   0.134   0.093   0.058
   0.028   0.004  -0.015  -0.029  -0.038  -0.044  -0.045  -0.044  -0.038  -0.029
  -0.015   0.004   0.028   0.058   0.093   0.134   0.180   0.229   0.279   0.329
   0.374   0.413   0.442   0.461   0.467   0.461   0.442   0.413   0.374   0.329
   0.279   0.229   0.180   0.134   0.093   0.058   0.028   0.004  -0.015  -0.029
  -0.038  -0.044
  -0.258  -0.261  -0.271  -0.285  -0.302  -0.316  -0.324  -0.320  -0.298  -0.253
  -0.184  -0.091   0.024   0.152   0.284   0.405   0.503   0.567   0.590   0.567
   0.503   0.405   0.284   0.152   0.024  -0.091  -0.184  -0.253  -0.298  -0.320
  -0.324  -0.316  -0.302  -0.285  -0.271  -0.261  -0.258  -0.261  -0.271  -0.285
  -0.302  -0.316  -0.324  -0.320  -0.298  -0.253  -0.184  -0.091   0.024   0.152
   0.284   0.405   0.503   0.567   0.590   0.567   0.503   0.405   0.284   0.152
   0.024  -0.091  -0.184  -0.253  -0.298  -0.320  -0.324  -0.316  -0.302  -0.285
  -0.271  -0.261
   0.250   0.238   0.201   0.139   0.053  -0.053  -0.173  -0.296  -0.407  -0.486
  -0.515  -0.478  -0.372  -0.202   0.011   0.235   0.432   0.567   0.615   0.567
   0.432   0.235   0.011  -0.202  -0.372  -0.478  -0.515  -0.486  -0.407  -0.296
  -0.173  -0.053   0.053   0.139   0.201   0.238   0.250   0.238   0.201   0.139
   0.053  -0.053  -0.173  -0.296  -0.407  -0.486  -0.515  -0.478  -0.372  -0.202
   0.011   0.235   0.432   0.567   0.615   0.567   0.432   0.235   0.011  -0.202
  -0.372  -0.478  -0.515  -0.486  -0.407  -0.296  -0.173  -0.053   0.053   0.139
   0.201   0.238
   1.590   1.577   1.537   1.464   1.352   1.191   0.971   0.692   0.371   0.038
  -0.260  -0.471  -0.556  -0.496  -0.309  -0.043   0.228   0.430   0.505   0.430
   0.228  -0.043  -0.309  -0.496  -0.556  -0.471  -0.260   0.038   0.371   0.692
   0.971   1.191   1.352   1.464   1.537   1.577   1.590   1.577   1.537   1.464
   1.352   1.191   0.971   0.692   0.371   0.038  -0.260  -0.471  -0.556  -0.496
  -0.309  -0.043   0.228   0.430   0.505   0.430   0.228  -0.043  -0.309  -0.496
  -0.556  -0.471  -0.260   0.038   0.371   0.692   0.971   1.191   1.352   1.464
   1.537   1.577
   2.992   2.984   2.962   2.933   2.891   2.811   2.650   2.367   1.942   1.398
   0.794   0.224  -0.213  -0.443  -0.444  -0.260   0.010   0.241   0.331   0.241
   0.010  -0.260  -0.444  -0.443  -0.213   0.224   0.794   1.398   1.942   2.367
   2.650   2.811   2.891   2.933   2.962   2.984   2.992   2.984   2.962   2.933
   2.891   2.811   2.650   2.367   1.942   1.398   0.794   0.224  -0.213  -0.443
  -0.444  -0.260   0.010   0.241   0.331   0.241   0.010  -0.260  -0.444  -0.443
  -0.213   0.224   0.794   1.398   1.942   2.367   2.650   2.811   2.891   2.933
   2.962   2.984
   3.339   3.318   3.281   3.281   3.352   3.473   3.563   3.523   3.275   2.790
   2.108   1.324   0.575   0.005  -0.284  -0.283  -0.088   0.135   0.231   0.135
  -0.088  -0.283  -0.284   0.005   0.575   1.324   2.108   2.790   3.275   3.523
   3.563   3.473   3.352   3.281   3.281   3.318   3.339   3.318   3.281   3.281
   3.352   3.473   3.563   3.523   3.275   2.790   2.108   1.324   0.575   0.005
  -0.284  -0.283  -0.088   0.135   0.231   0.135  -0.088  -0.283  -0.284   0.005
   0.575   1.324   2.108   2.790   3.275   3.523   3.563   3.473   3.352   3.281
   3.281   3.318
   2.316   2.257   2.142   2.107   2.249   2.559   2.930   3.230   3.355   3.247
   2.873   2.243   1.444   0.656   0.092  -0.119  -0.019   0.196   0.301   0.196
  -0.019  -0.119   0.092   0.656   1.444   2.243   2.873   3.247   3.355   3.230
   2.930   2.559   2.249   2.107   2.142   2.257   2.316   2.257   2.142   2.107
   2.249   2.559   2.930   3.230   3.355   3.247   2.873   2.243   1.444   0.656
   0.092  -0.119  -0.019   0.196   0.301   0.196  -0.019  -0.119   0.092   0.656
   1.444   2.243   2.873   3.247   3.355   3.230   2.930   2.559   2.249   2.107
   2.142   2.257
   0.829   0.732   0.540   0.462   0.626   0.990   1.420   1.834   2.234   2.613
   2.847   2.737   2.181   1.327   0.526   0.105   0.132   0.376   0.508   0.376
   0.132   0.105   0.526   1.327   2.181   2.737   2.847   2.613   2.234   1.834
   1.420   0.990   0.626   0.462   0.540   0.732   0.829   0.732   0.540   0.462
   0.626   0.990   1.420   1.834   2.234   2.613   2.847   2.737   2.181   1.327
   0.526   0.105   0.132   0.376   0.508   0.376   0.132   0.105   0.526   1.327
   2.181   2.737   2.847   2.613   2.234   1.834   1.420   0.990   0.626   0.462
   0.540   0.732
   0.046  -0.060  -0.250  -0.291  -0.108   0.145   0.306   0.445   0.827   1.598
   2.522   3.078   2.868   1.968   0.904   0.254   0.218   0.518   0.691   0.518
   0.218   0.254   0.904   1.968   2.868   3.078   2.522   1.598   0.827   0.445
   0.306   0.145  -0.108  -0.291  -0.250  -0.060   0.046  -0.060  -0.250  -0.291
  -0.108   0.145   0.306   0.445   0.827   1.598   2.522   3.078   2.868   1.968
   0.904   0.254   0.218   0.518   0.691   0.518   0.218   0.254   0.904   1.968
   2.868   3.078   2.522   1.598   0.827   0.445   0.306   0.145  -0.108  -0.291
  -0.250  -0.060
   0.158   0.073  -0.045   0.017   0.221   0.269  -0.005  -0.310  -0.073   0.995
   2.496   3.564   3.542   2.499   1.151   0.280   0.169   0.489   0.684   0.489
   0.169   0.280   1.151   2.499   3.542   3.564   2.496   0.995  -0.073  -0.310
  -0.005   0.269   0.221   0.017  -0.045   0.073   0.158   0.073  -0.045   0.017
   0.221   0.269  -0.005  -0.310  -0.073   0.995   2.496   3.564   3.542   2.499
   1.151   0.280   0.169   0.489   0.684   0.489   0.169   0.280   1.151   2.499
   3.542   3.564   2.496   0.995  -0.073  -0.310  -0.005   0.269   0.221   0.017
  -0.045   0.073
   0.404   0.342   0.290   0.425   0.615   0.490  -0.057  -0.540  -0.225   1.131
   2.909   4.050   3.893   2.656   1.179   0.243   0.065   0.304   0.459   0.304
   0.065   0.243   1.179   2.656   3.893   4.050   2.909   1.131  -0.225  -0.540
  -0.057   0.490   0.615   0.425   0.290   0.342   0.404   0.342   0.290   0.425
   0.615   0.490  -0.057  -0.540  -0.225   1.131   2.909   4.050   3.893   2.656
   1.179   0.243   0.065   0.304   0.459   0.304   0.065   0.243   1.179   2.656
   3.893   4.050   2.909   1.131  -0.225  -0.540  -0.057   0.490   0.615   0.425
   0.290   0.342
   0.190   0.142   0.117   0.254   0.405   0.259  -0.163  -0.316   0.398   1.931
   3.471   4.085   3.483   2.173   0.939   0.246   0.064   0.116   0.161   0.116
   0.064   0.246   0.939   2.173   3.483   4.085   3.471   1.931   0.398  -0.316
  -0.163   0.259   0.405   0.254   0.117   0.142   0.190   0.142   0.117   0.254
   0.405   0.259  -0.163  -0.316   0.398   1.931   3.471   4.085   3.483   2.173
   0.939   0.246   0.064   0.116   0.161   0.116   0.064   0.246   0.939   2.173
   3.483   4.085   3.471   1.931   0.398  -0.316  -0.163   0.259   0.405   0.254
   0.117   0.142
  -0.231  -0.264  -0.273  -0.152   0.004   0.043   0.099   0.590   1.721   3.058
   3.781   3.421   2.294   1.162   0.530   0.329   0.223   0.066  -0.021   0.066
   0.223   0.329   0.530   1.162   2.294   3.421   3.781   3.058   1.721   0.590
   0.099   0.043   0.004  -0.152  -0.273  -0.264  -0.231  -0.264  -0.273  -0.152
   0.004   0.043   0.099   0.590   1.721   3.058   3.781   3.421   2.294   1.162
   0.530   0.329   0.223   0.066  -0.021   0.066   0.223   0.329   0.530   1.162
   2.294   3.421   3.781   3.058   1.721   0.590   0.099   0.043   0.004  -0.152
  -0.273  -0.264
  -0.277  -0.301  -0.305  -0.190   0.044   0.395   1.006   2.012   3.182   3.865
   3.514   2.266   0.908   0.184   0.186   0.417   0.403   0.147  -0.006   0.147
   0.403   0.417   0.186   0.184   0.908   2.266   3.514   3.865   3.182   2.012
   1.006   0.395   0.044  -0.190  -0.305  -0.301  -0.277  -0.301  -0.305  -0.190
   0.044   0.395   1.006   2.012   3.182   3.865   3.514   2.266   0.908   0.184
   0.186   0.417   0.403   0.147  -0.006   0.147   0.403   0.417   0.186   0.184
   0.908   2.266   3.514   3.865   3.182   2.012   1.006   0.395   0.044  -0.190
  -0.305  -0.301
   0.155   0.106   0.035   0.096   0.406   1.040   2.008   3.112   3.847   3.679
   2.553   1.071   0.040  -0.184   0.111   0.397   0.402   0.228   0.130   0.228
   0.402   0.397   0.111  -0.184   0.040   1.071   2.553   3.679   3.847   3.112
   2.008   1.040   0.406   0.096   0.035   0.106   0.155   0.106   0.035   0.096
   0.406   1.040   2.008   3.112   3.847   3.679   2.553   1.071   0.040  -0.184
   0.111   0.397   0.402   0.228   0.130   0.228   0.402   0.397   0.111  -0.184
   0.040   1.071   2.553   3.679   3.847   3.112   2.008   1.040   0.406   0.096
   0.035   0.106
   0.686   0.570   0.340   0.260   0.572   1.353   2.415   3.276   3.377   2.533
   1.205   0.185  -0.101   0.103   0.286   0.256   0.188   0.223   0.266   0.223
   0.188   0.256   0.286   0.103  -0.101   0.185   1.205   2.533   3.377   3.276
   2.415   1.353   0.572   0.260   0.340   0.570   0.686   0.570   0.340   0.260
   0.572   1.353   2.415   3.276   3.377   2.533   1.205   0.185  -0.101   0.103
   0.286   0.256   0.188   0.223   0.266   0.223   0.188   0.256   0.286   0.103
  -0.101   0.185   1.205   2.533   3.377   3.276   2.415   1.353   0.572   0.260
   0.340   0.570
   0.986   0.809   0.433   0.217   0.488   1.306   2.334   2.937   2.597   1.423
   0.202  -0.261   0.077   0.522   0.485   0.118  -0.033   0.174   0.337   0.174
  -0.033   0.118   0.485   0.522   0.077  -0.261   0.202   1.423   2.597   2.937
   2.334   1.306   0.488   0.217   0.433   0.809   0.986   0.809   0.433   0.217
   0.488   1.306   2.334   2.937   2.597   1.423   0.202  -0.261   0.077   0.522
   0.485   0.118  -0.033   0.174   0.337   0.174  -0.033   0.118   0.485   0.522
   0.077  -0.261   0.202   1.423   2.597   2.937   2.334   1.306   0.488   0.217
   0.433   0.809
 111       5.00   72    0 5.00   18    0
   0.441   0.442   0.448   0.456   0.467   0.481   0.497   0.516   0.535   0.555
   0.576   0.596   0.615   0.632   0.647   0.659   0.668   0.673   0.675   0.673
   0.668   0.659   0.647   0.632   0.615   0.596   0.576   0.555   0.535   0.516
   0.497   0.481   0.467   0.456   0.448   0.442   0.441   0.442   0.448   0.456
   0.467   0.481   0.497   0.516   0.535   0.555   0.576   0.596   0.615   0.632
   0.647   0.659   0.668   0.673   0.675   0.673   0.668   0.659   0.647   0.632
   0.615   0.596   0.576   0.555   0.535   0.516   0.497   0.481   0.467   0.456
   0.448   0.442
  -0.623  -0.618  -0.605  -0.581  -0.544  -0.494  -0.429  -0.348  -0.250  -0.139
  -0.016   0.113   0.244   0.369   0.484   0.580   0.653   0.699   0.714   0.699
   0.653   0.580   0.484   0.369   0.244   0.113  -0.016  -0.139  -0.250  -0.348
  -0.429  -0.494  -0.544  -0.581  -0.605  -0.618  -0.623  -0.618  -0.605  -0.581
  -0.544  -0.494  -0.429  -0.348  -0.250  -0.139  -0.016   0.113   0.244   0.369
   0.484   0.580   0.653   0.699   0.714   0.699   0.653   0.580   0.484   0.369
   0.244   0.113  -0.016  -0.139  -0.250  -0.348  -0.429  -0.494  -0.544  -0.581
  -0.605  -0.618
  -0.082  -0.110  -0.191  -0.311  -0.452  -0.591  -0.707  -0.779  -0.793  -0.743
  -0.631  -0.464  -0.258  -0.033   0.191   0.391   0.549   0.650   0.685   0.650
   0.549   0.391   0.191  -0.033  -0.258  -0.464  -0.631  -0.743  -0.793  -0.779
  -0.707  -0.591  -0.452  -0.311  -0.191  -0.110  -0.082  -0.110  -0.191  -0.311
  -0.452  -0.591  -0.707  -0.779  -0.793  -0.743  -0.631  -0.464  -0.258  -0.033
   0.191   0.391   0.549   0.650   0.685   0.650   0.549   0.391   0.191  -0.033
  -0.258  -0.464  -0.631  -0.743  -0.793  -0.779  -0.707  -0.591  -0.452  -0.311
  -0.191  -0.110
   3.192   3.085   2.780   2.312   1.737   1.120   0.527   0.015  -0.374  -0.617
  -0.712  -0.674  -0.531  -0.321  -0.082   0.149   0.338   0.462   0.505   0.462
   0.338   0.149  -0.082  -0.321  -0.531  -0.674  -0.712  -0.617  -0.374   0.015
   0.527   1.120   1.737   2.312   2.780   3.085   3.192   3.085   2.780   2.312
   1.737   1.120   0.527   0.015  -0.374  -0.617  -0.712  -0.674  -0.531  -0.321
  -0.082   0.149   0.338   0.462   0.505   0.462   0.338   0.149  -0.082  -0.321
  -0.531  -0.674  -0.712  -0.617  -0.374   0.015   0.527   1.120   1.737   2.312
   2.780   3.085
   6.592   6.421   5.927   5.168   4.232   3.218   2.228   1.345   0.629   0.108
  -0.218  -0.370  -0.385  -0.302  -0.164  -0.009   0.129   0.224   0.258   0.224
   0.129  -0.009  -0.164  -0.302  -0.385  -0.370  -0.218   0.108   0.629   1.345
   2.228   3.218   4.232   5.168   5.927   6.421   6.592   6.421   5.927   5.168
   4.232   3.218   2.228   1.345   0.629   0.108  -0.218  -0.370  -0.385  -0.302
  -0.164  -0.009   0.129   0.224   0.258   0.224   0.129  -0.009  -0.164  -0.302
  -0.385  -0.370  -0.218   0.108   0.629   1.345   2.228   3.218   4.232   5.168
   5.927   6.421
   6.827   6.676   6.242   5.573   4.742   3.837   2.945   2.135   1.448   0.901
   0.486   0.191   0.001  -0.091  -0.097  -0.040   0.047   0.121   0.150   0.121
   0.047  -0.040  -0.097  -0.091   0.001   0.191   0.486   0.901   1.448   2.135
   2.945   3.837   4.742   5.573   6.242   6.676   6.827   6.676   6.242   5.573
   4.742   3.837   2.945   2.135   1.448   0.901   0.486   0.191   0.001  -0.091
  -0.097  -0.040   0.047   0.121   0.150   0.121   0.047  -0.040  -0.097  -0.091
   0.001   0.191   0.486   0.901   1.448   2.135   2.945   3.837   4.742   5.573
   6.242   6.676
   3.900   3.857   3.729   3.521   3.244   2.923   2.583   2.242   1.895   1.528
   1.126   0.705   0.317   0.031  -0.096  -0.060   0.079   0.224   0.285   0.224
   0.079  -0.060  -0.096   0.031   0.317   0.705   1.126   1.528   1.895   2.242
   2.583   2.923   3.244   3.521   3.729   3.857   3.900   3.857   3.729   3.521
   3.244   2.923   2.583   2.242   1.895   1.528   1.126   0.705   0.317   0.031
  -0.096  -0.060   0.079   0.224   0.285   0.224   0.079  -0.060  -0.096   0.031
   0.317   0.705   1.126   1.528   1.895   2.242   2.583   2.923   3.244   3.521
   3.729   3.857
   0.717   0.782   0.961   1.210   1.484   1.747   1.977   2.145   2.200   2.075
   1.729   1.191   0.580   0.072  -0.184  -0.144   0.100   0.366   0.478   0.366
   0.100  -0.144  -0.184   0.072   0.580   1.191   1.729   2.075   2.200   2.145
   1.977   1.747   1.484   1.210   0.961   0.782   0.717   0.782   0.961   1.210
   1.484   1.747   1.977   2.145   2.200   2.075   1.729   1.191   0.580   0.072
  -0.184  -0.144   0.100   0.366   0.478   0.366   0.100  -0.144  -0.184   0.072
   0.580   1.191   1.729   2.075   2.200   2.145   1.977   1.747   1.484   1.210
   0.961   0.782
  -0.568  -0.480  -0.235   0.119   0.529   0.968   1.426   1.882   2.264   2.449
   2.315   1.834   1.126   0.427  -0.025  -0.122   0.062   0.316   0.431   0.316
   0.062  -0.122  -0.025   0.427   1.126   1.834   2.315   2.449   2.264   1.882
   1.426   0.968   0.529   0.119  -0.235  -0.480  -0.568  -0.480  -0.235   0.119
   0.529   0.968   1.426   1.882   2.264   2.449   2.315   1.834   1.126   0.427
  -0.025  -0.122   0.062   0.316   0.431   0.316   0.062  -0.122  -0.025   0.427
   1.126   1.834   2.315   2.449   2.264   1.882   1.426   0.968   0.529   0.119
  -0.235  -0.480
  -0.350  -0.319  -0.229  -0.095   0.077   0.306   0.641   1.123   1.715   2.270
   2.576   2.481   1.998   1.315   0.684   0.277   0.115   0.101   0.114   0.101
   0.115   0.277   0.684   1.315   1.998   2.481   2.576   2.270   1.715   1.123
   0.641   0.306   0.077  -0.095  -0.229  -0.319  -0.350  -0.319  -0.229  -0.095
   0.077   0.306   0.641   1.123   1.715   2.270   2.576   2.481   1.998   1.315
   0.684   0.277   0.115   0.101   0.114   0.101   0.115   0.277   0.684   1.315
   1.998   2.481   2.576   2.270   1.715   1.123   0.641   0.306   0.077  -0.095
  -0.229  -0.319
   0.037   0.006  -0.068  -0.154  -0.224  -0.253  -0.177   0.106   0.657   1.402
   2.122   2.568   2.607   2.269   1.701   1.060   0.479   0.070  -0.079   0.070
   0.479   1.060   1.701   2.269   2.607   2.568   2.122   1.402   0.657   0.106
  -0.177  -0.253  -0.224  -0.154  -0.068   0.006   0.037   0.006  -0.068  -0.154
  -0.224  -0.253  -0.177   0.106   0.657   1.402   2.122   2.568   2.607   2.269
   1.701   1.060   0.479   0.070  -0.079   0.070   0.479   1.060   1.701   2.269
   2.607   2.568   2.122   1.402   0.657   0.106  -0.177  -0.253  -0.224  -0.154
  -0.068   0.006
   0.129   0.078  -0.032  -0.126  -0.185  -0.254  -0.347  -0.374  -0.175   0.330
   1.052   1.779   2.305   2.510   2.355   1.863   1.175   0.559   0.310   0.559
   1.175   1.863   2.355   2.510   2.305   1.779   1.052   0.330  -0.175  -0.374
  -0.347  -0.254  -0.185  -0.126  -0.032   0.078   0.129   0.078  -0.032  -0.126
  -0.185  -0.254  -0.347  -0.374  -0.175   0.330   1.052   1.779   2.305   2.510
   2.355   1.863   1.175   0.559   0.310   0.559   1.175   1.863   2.355   2.510
   2.305   1.779   1.052   0.330  -0.175  -0.374  -0.347  -0.254  -0.185  -0.126
  -0.032   0.078
   0.091   0.038  -0.053  -0.058   0.052   0.161   0.124  -0.068  -0.251  -0.231
   0.072   0.597   1.223   1.816   2.212   2.253   1.934   1.499   1.297   1.499
   1.934   2.253   2.212   1.816   1.223   0.597   0.072  -0.231  -0.251  -0.068
   0.124   0.161   0.052  -0.058  -0.053   0.038   0.091   0.038  -0.053  -0.058
   0.052   0.161   0.124  -0.068  -0.251  -0.231   0.072   0.597   1.223   1.816
   2.212   2.253   1.934   1.499   1.297   1.499   1.934   2.253   2.212   1.816
   1.223   0.597   0.072  -0.231  -0.251  -0.068   0.124   0.161   0.052  -0.058
  -0.053   0.038
  -0.042  -0.114  -0.249  -0.281  -0.116   0.163   0.361   0.343   0.150  -0.066
  -0.171  -0.095   0.213   0.774   1.480   2.087   2.392   2.424   2.395   2.424
   2.392   2.087   1.480   0.774   0.213  -0.095  -0.171  -0.066   0.150   0.343
   0.361   0.163  -0.116  -0.281  -0.249  -0.114  -0.042  -0.114  -0.249  -0.281
  -0.116   0.163   0.361   0.343   0.150  -0.066  -0.171  -0.095   0.213   0.774
   1.480   2.087   2.392   2.424   2.395   2.424   2.392   2.087   1.480   0.774
   0.213  -0.095  -0.171  -0.066   0.150   0.343   0.361   0.163  -0.116  -0.281
  -0.249  -0.114
  -0.013  -0.083  -0.261  -0.439  -0.475  -0.299   0.006   0.275   0.398   0.369
   0.225   0.023  -0.089   0.102   0.705   1.568   2.374   2.888   3.054   2.888
   2.374   1.568   0.705   0.102  -0.089   0.023   0.225   0.369   0.398   0.275
   0.006  -0.299  -0.475  -0.439  -0.261  -0.083  -0.013  -0.083  -0.261  -0.439
  -0.475  -0.299   0.006   0.275   0.398   0.369   0.225   0.023  -0.089   0.102
   0.705   1.568   2.374   2.888   3.054   2.888   2.374   1.568   0.705   0.102
  -0.089   0.023   0.225   0.369   0.398   0.275   0.006  -0.299  -0.475  -0.439
  -0.261  -0.083
   0.950   0.973   0.940   0.701   0.308  -0.010  -0.086   0.055   0.285   0.493
   0.574   0.438   0.139  -0.042   0.222   0.999   2.005   2.817   3.123   2.817
   2.005   0.999   0.222  -0.042   0.139   0.438   0.574   0.493   0.285   0.055
  -0.086  -0.010   0.308   0.701   0.940   0.973   0.950   0.973   0.940   0.701
   0.308  -0.010  -0.086   0.055   0.285   0.493   0.574   0.438   0.139  -0.042
   0.222   0.999   2.005   2.817   3.123   2.817   2.005   0.999   0.222  -0.042
   0.139   0.438   0.574   0.493   0.285   0.055  -0.086  -0.010   0.308   0.701
   0.940   0.973
   3.042   3.249   3.574   3.473   2.753   1.720   0.812   0.254   0.067   0.186
   0.442   0.559   0.365   0.039   0.014   0.575   1.563   2.485   2.856   2.485
   1.563   0.575   0.014   0.039   0.365   0.559   0.442   0.186   0.067   0.254
   0.812   1.720   2.753   3.473   3.574   3.249   3.042   3.249   3.574   3.473
   2.753   1.720   0.812   0.254   0.067   0.186   0.442   0.559   0.365   0.039
   0.014   0.575   1.563   2.485   2.856   2.485   1.563   0.575   0.014   0.039
   0.365   0.559   0.442   0.186   0.067   0.254   0.812   1.720   2.753   3.473
   3.574   3.249
   4.931   5.294   5.941   6.021   5.124   3.560   1.933   0.672  -0.041  -0.173
   0.115   0.427   0.405   0.093  -0.057   0.360   1.287   2.224   2.614   2.224
   1.287   0.360  -0.057   0.093   0.405   0.427   0.115  -0.173  -0.041   0.672
   1.933   3.560   5.124   6.021   5.941   5.294   4.931   5.294   5.941   6.021
   5.124   3.560   1.933   0.672  -0.041  -0.173   0.115   0.427   0.405   0.093
  -0.057   0.360   1.287   2.224   2.614   2.224   1.287   0.360  -0.057   0.093
   0.405   0.427   0.115  -0.173  -0.041   0.672   1.933   3.560   5.124   6.021
   5.941   5.294
TEXTURE_INDEX=   8.7296
ERR_CF 220         1080     440  173.10   31.17
ERR_CF 200         1080     268  174.51   25.13
ERR_CF 111         1032     260  495.80   21.78
