TEXEVAL                                                                         
Analysis started on 31-Aug-18 11:37:16                                          
 LMAX=16LFMAX=03 CUBIC ORTHO   
 220      5.00 5.00
 200      5.00 5.00
 111      5.00 5.00
 220       5.00   72    0 5.00   15    0
   5.221   5.221   5.221   5.221   5.221   5.221   5.221   5.221   5.221   5.221
   5.221   5.221   5.221   5.221   5.221   5.221   5.221   5.221   5.221   5.221
   5.221   5.221   5.221   5.221   5.221   5.221   5.221   5.221   5.221   5.221
   5.221   5.221   5.221   5.221   5.221   5.221   5.221   5.221   5.221   5.221
   5.221   5.221   5.221   5.221   5.221   5.221   5.221   5.221   5.221   5.221
   5.221   5.221   5.221   5.221   5.221   5.221   5.221   5.221   5.221   5.221
   5.221   5.221   5.221   5.221   5.221   5.221   5.221   5.221   5.221   5.221
   5.221   5.221
   1.141   1.155   1.231   1.329   1.312   1.412   1.640   1.772   2.012   2.285
   2.696   2.985   3.587   4.058   4.639   5.129   5.453   5.927   5.915   5.927
   5.453   5.129   4.639   4.058   3.587   2.985   2.696   2.285   2.012   1.772
   1.640   1.412   1.312   1.329   1.231   1.155   1.141   1.155   1.231   1.329
   1.312   1.412   1.640   1.772   2.012   2.285   2.696   2.985   3.587   4.058
   4.639   5.129   5.453   5.927   5.915   5.927   5.453   5.129   4.639   4.058
   3.587   2.985   2.696   2.285   2.012   1.772   1.640   1.412   1.312   1.329
   1.231   1.155
   0.153   0.152   0.215   0.175   0.194   0.244   0.245   0.352   0.493   0.651
   0.922   1.185   1.855   2.534   3.289   4.443   5.140   5.911   6.041   5.911
   5.140   4.443   3.289   2.534   1.855   1.185   0.922   0.651   0.493   0.352
   0.245   0.244   0.194   0.175   0.215   0.152   0.153   0.152   0.215   0.175
   0.194   0.244   0.245   0.352   0.493   0.651   0.922   1.185   1.855   2.534
   3.289   4.443   5.140   5.911   6.041   5.911   5.140   4.443   3.289   2.534
   1.855   1.185   0.922   0.651   0.493   0.352   0.245   0.244   0.194   0.175
   0.215   0.152
   0.082   0.098   0.129   0.074   0.083   0.110   0.140   0.160   0.220   0.229
   0.360   0.474   0.984   1.620   2.533   3.896   5.402   6.785   7.090   6.785
   5.402   3.896   2.533   1.620   0.984   0.474   0.360   0.229   0.220   0.160
   0.140   0.110   0.083   0.074   0.129   0.098   0.082   0.098   0.129   0.074
   0.083   0.110   0.140   0.160   0.220   0.229   0.360   0.474   0.984   1.620
   2.533   3.896   5.402   6.785   7.090   6.785   5.402   3.896   2.533   1.620
   0.984   0.474   0.360   0.229   0.220   0.160   0.140   0.110   0.083   0.074
   0.129   0.098
   0.087   0.067   0.061   0.068   0.063   0.093   0.121   0.103   0.148   0.160
   0.230   0.308   0.608   0.970   1.821   3.287   5.373   7.416   7.845   7.416
   5.373   3.287   1.821   0.970   0.608   0.308   0.230   0.160   0.148   0.103
   0.121   0.093   0.063   0.068   0.061   0.067   0.087   0.067   0.061   0.068
   0.063   0.093   0.121   0.103   0.148   0.160   0.230   0.308   0.608   0.970
   1.821   3.287   5.373   7.416   7.845   7.416   5.373   3.287   1.821   0.970
   0.608   0.308   0.230   0.160   0.148   0.103   0.121   0.093   0.063   0.068
   0.061   0.067
   0.092   0.044   0.047   0.088   0.063   0.067   0.077   0.099   0.147   0.190
   0.255   0.336   0.478   0.773   1.599   3.101   4.886   6.521   6.811   6.521
   4.886   3.101   1.599   0.773   0.478   0.336   0.255   0.190   0.147   0.099
   0.077   0.067   0.063   0.088   0.047   0.044   0.092   0.044   0.047   0.088
   0.063   0.067   0.077   0.099   0.147   0.190   0.255   0.336   0.478   0.773
   1.599   3.101   4.886   6.521   6.811   6.521   4.886   3.101   1.599   0.773
   0.478   0.336   0.255   0.190   0.147   0.099   0.077   0.067   0.063   0.088
   0.047   0.044
   0.105   0.058   0.055   0.076   0.086   0.060   0.106   0.099   0.151   0.165
   0.244   0.315   0.448   0.964   2.168   3.596   4.258   4.194   3.911   4.194
   4.258   3.596   2.168   0.964   0.448   0.315   0.244   0.165   0.151   0.099
   0.106   0.060   0.086   0.076   0.055   0.058   0.105   0.058   0.055   0.076
   0.086   0.060   0.106   0.099   0.151   0.165   0.244   0.315   0.448   0.964
   2.168   3.596   4.258   4.194   3.911   4.194   4.258   3.596   2.168   0.964
   0.448   0.315   0.244   0.165   0.151   0.099   0.106   0.060   0.086   0.076
   0.055   0.058
   0.158   0.106   0.131   0.061   0.084   0.070   0.109   0.123   0.135   0.106
   0.169   0.325   0.514   1.360   2.776   3.684   2.977   1.987   1.524   1.987
   2.977   3.684   2.776   1.360   0.514   0.325   0.169   0.106   0.135   0.123
   0.109   0.070   0.084   0.061   0.131   0.106   0.158   0.106   0.131   0.061
   0.084   0.070   0.109   0.123   0.135   0.106   0.169   0.325   0.514   1.360
   2.776   3.684   2.977   1.987   1.524   1.987   2.977   3.684   2.776   1.360
   0.514   0.325   0.169   0.106   0.135   0.123   0.109   0.070   0.084   0.061
   0.131   0.106
   0.255   0.255   0.353   0.133   0.095   0.094   0.112   0.127   0.108   0.083
   0.146   0.308   0.577   1.475   2.794   2.739   1.579   0.892   0.723   0.892
   1.579   2.739   2.794   1.475   0.577   0.308   0.146   0.083   0.108   0.127
   0.112   0.094   0.095   0.133   0.353   0.255   0.255   0.255   0.353   0.133
   0.095   0.094   0.112   0.127   0.108   0.083   0.146   0.308   0.577   1.475
   2.794   2.739   1.579   0.892   0.723   0.892   1.579   2.739   2.794   1.475
   0.577   0.308   0.146   0.083   0.108   0.127   0.112   0.094   0.095   0.133
   0.353   0.255
   0.387   0.491   0.422   0.146   0.123   0.098   0.097   0.116   0.079   0.045
   0.138   0.250   0.440   1.354   2.287   1.793   0.841   0.405   0.384   0.405
   0.841   1.793   2.287   1.354   0.440   0.250   0.138   0.045   0.079   0.116
   0.097   0.098   0.123   0.146   0.422   0.491   0.387   0.491   0.422   0.146
   0.123   0.098   0.097   0.116   0.079   0.045   0.138   0.250   0.440   1.354
   2.287   1.793   0.841   0.405   0.384   0.405   0.841   1.793   2.287   1.354
   0.440   0.250   0.138   0.045   0.079   0.116   0.097   0.098   0.123   0.146
   0.422   0.491
   2.345   2.137   1.295   0.406   0.242   0.198   0.158   0.178   0.096   0.063
   0.151   0.201   0.368   1.161   1.630   1.293   0.454   0.242   0.280   0.242
   0.454   1.293   1.630   1.161   0.368   0.201   0.151   0.063   0.096   0.178
   0.158   0.198   0.242   0.406   1.295   2.137   2.345   2.137   1.295   0.406
   0.242   0.198   0.158   0.178   0.096   0.063   0.151   0.201   0.368   1.161
   1.630   1.293   0.454   0.242   0.280   0.242   0.454   1.293   1.630   1.161
   0.368   0.201   0.151   0.063   0.096   0.178   0.158   0.198   0.242   0.406
   1.295   2.137
   9.299   7.647   4.095   1.633   0.786   0.515   0.254   0.247   0.168   0.108
   0.167   0.162   0.327   0.844   1.210   0.905   0.326   0.259   0.332   0.259
   0.326   0.905   1.210   0.844   0.327   0.162   0.167   0.108   0.168   0.247
   0.254   0.515   0.786   1.633   4.095   7.647   9.299   7.647   4.095   1.633
   0.786   0.515   0.254   0.247   0.168   0.108   0.167   0.162   0.327   0.844
   1.210   0.905   0.326   0.259   0.332   0.259   0.326   0.905   1.210   0.844
   0.327   0.162   0.167   0.108   0.168   0.247   0.254   0.515   0.786   1.633
   4.095   7.647
   9.530   7.908   4.564   2.647   1.832   1.449   0.946   0.594   0.491   0.243
   0.121   0.222   0.190   0.619   1.004   0.761   0.390   0.190   0.293   0.190
   0.390   0.761   1.004   0.619   0.190   0.222   0.121   0.243   0.491   0.594
   0.946   1.449   1.832   2.647   4.564   7.908   9.530   7.908   4.564   2.647
   1.832   1.449   0.946   0.594   0.491   0.243   0.121   0.222   0.190   0.619
   1.004   0.761   0.390   0.190   0.293   0.190   0.390   0.761   1.004   0.619
   0.190   0.222   0.121   0.243   0.491   0.594   0.946   1.449   1.832   2.647
   4.564   7.908
   2.630   2.499   1.967   1.786   1.795   2.080   1.859   1.679   1.370   0.802
   0.342   0.383   0.309   0.508   1.016   1.127   0.586   0.268   0.231   0.268
   0.586   1.127   1.016   0.508   0.309   0.383   0.342   0.802   1.370   1.679
   1.859   2.080   1.795   1.786   1.967   2.499   2.630   2.499   1.967   1.786
   1.795   2.080   1.859   1.679   1.370   0.802   0.342   0.383   0.309   0.508
   1.016   1.127   0.586   0.268   0.231   0.268   0.586   1.127   1.016   0.508
   0.309   0.383   0.342   0.802   1.370   1.679   1.859   2.080   1.795   1.786
   1.967   2.499
   0.465   0.572   0.510   0.585   0.782   1.137   1.403   1.816   1.992   1.585
   1.052   0.628   0.519   0.521   0.926   1.572   1.025   0.426   0.439   0.426
   1.025   1.572   0.926   0.521   0.519   0.628   1.052   1.585   1.992   1.816
   1.403   1.137   0.782   0.585   0.510   0.572   0.465   0.572   0.510   0.585
   0.782   1.137   1.403   1.816   1.992   1.585   1.052   0.628   0.519   0.521
   0.926   1.572   1.025   0.426   0.439   0.426   1.025   1.572   0.926   0.521
   0.519   0.628   1.052   1.585   1.992   1.816   1.403   1.137   0.782   0.585
   0.510   0.572
 200       5.00   72    0 5.00   15    0
   0.599   0.599   0.599   0.599   0.599   0.599   0.599   0.599   0.599   0.599
   0.599   0.599   0.599   0.599   0.599   0.599   0.599   0.599   0.599   0.599
   0.599   0.599   0.599   0.599   0.599   0.599   0.599   0.599   0.599   0.599
   0.599   0.599   0.599   0.599   0.599   0.599   0.599   0.599   0.599   0.599
   0.599   0.599   0.599   0.599   0.599   0.599   0.599   0.599   0.599   0.599
   0.599   0.599   0.599   0.599   0.599   0.599   0.599   0.599   0.599   0.599
   0.599   0.599   0.599   0.599   0.599   0.599   0.599   0.599   0.599   0.599
   0.599   0.599
   0.446   0.476   0.404   0.415   0.356   0.440   0.419   0.449   0.421   0.411
   0.418   0.354   0.749   0.530   0.424   0.376   0.665   0.433   0.341   0.433
   0.665   0.376   0.424   0.530   0.749   0.354   0.418   0.411   0.421   0.449
   0.419   0.440   0.356   0.415   0.404   0.476   0.446   0.476   0.404   0.415
   0.356   0.440   0.419   0.449   0.421   0.411   0.418   0.354   0.749   0.530
   0.424   0.376   0.665   0.433   0.341   0.433   0.665   0.376   0.424   0.530
   0.749   0.354   0.418   0.411   0.421   0.449   0.419   0.440   0.356   0.415
   0.404   0.476
   0.235   0.265   0.197   0.179   0.201   0.203   0.274   0.232   0.205   0.276
   0.236   0.285   0.333   0.293   0.270   0.237   0.366   0.329   0.302   0.329
   0.366   0.237   0.270   0.293   0.333   0.285   0.236   0.276   0.205   0.232
   0.274   0.203   0.201   0.179   0.197   0.265   0.235   0.265   0.197   0.179
   0.201   0.203   0.274   0.232   0.205   0.276   0.236   0.285   0.333   0.293
   0.270   0.237   0.366   0.329   0.302   0.329   0.366   0.237   0.270   0.293
   0.333   0.285   0.236   0.276   0.205   0.232   0.274   0.203   0.201   0.179
   0.197   0.265
   0.248   0.320   0.266   0.237   0.308   0.224   0.258   0.209   0.207   0.241
   0.144   0.228   0.159   0.153   0.219   0.172   0.123   0.252   0.187   0.252
   0.123   0.172   0.219   0.153   0.159   0.228   0.144   0.241   0.207   0.209
   0.258   0.224   0.308   0.237   0.266   0.320   0.248   0.320   0.266   0.237
   0.308   0.224   0.258   0.209   0.207   0.241   0.144   0.228   0.159   0.153
   0.219   0.172   0.123   0.252   0.187   0.252   0.123   0.172   0.219   0.153
   0.159   0.228   0.144   0.241   0.207   0.209   0.258   0.224   0.308   0.237
   0.266   0.320
   0.983   0.995   0.881   0.840   0.766   0.601   0.520   0.369   0.323   0.231
   0.135   0.159   0.112   0.091   0.105   0.168   0.132   0.170   0.099   0.170
   0.132   0.168   0.105   0.091   0.112   0.159   0.135   0.231   0.323   0.369
   0.520   0.601   0.766   0.840   0.881   0.995   0.983   0.995   0.881   0.840
   0.766   0.601   0.520   0.369   0.323   0.231   0.135   0.159   0.112   0.091
   0.105   0.168   0.132   0.170   0.099   0.170   0.132   0.168   0.105   0.091
   0.112   0.159   0.135   0.231   0.323   0.369   0.520   0.601   0.766   0.840
   0.881   0.995
   3.600   3.699   3.508   3.398   3.119   2.612   2.059   1.481   1.027   0.542
   0.313   0.172   0.106   0.124   0.083   0.196   0.147   0.135   0.084   0.135
   0.147   0.196   0.083   0.124   0.106   0.172   0.313   0.542   1.027   1.481
   2.059   2.612   3.119   3.398   3.508   3.699   3.600   3.699   3.508   3.398
   3.119   2.612   2.059   1.481   1.027   0.542   0.313   0.172   0.106   0.124
   0.083   0.196   0.147   0.135   0.084   0.135   0.147   0.196   0.083   0.124
   0.106   0.172   0.313   0.542   1.027   1.481   2.059   2.612   3.119   3.398
   3.508   3.699
   4.132   4.134   4.241   4.429   4.714   4.535   4.405   4.015   3.169   2.130
   1.105   0.519   0.284   0.172   0.147   0.190   0.140   0.208   0.104   0.208
   0.140   0.190   0.147   0.172   0.284   0.519   1.105   2.130   3.169   4.015
   4.405   4.535   4.714   4.429   4.241   4.134   4.132   4.134   4.241   4.429
   4.714   4.535   4.405   4.015   3.169   2.130   1.105   0.519   0.284   0.172
   0.147   0.190   0.140   0.208   0.104   0.208   0.140   0.190   0.147   0.172
   0.284   0.519   1.105   2.130   3.169   4.015   4.405   4.535   4.714   4.429
   4.241   4.134
   1.459   1.372   1.608   1.891   2.460   2.825   3.339   3.845   4.085   3.820
   2.768   1.708   0.777   0.363   0.271   0.211   0.208   0.260   0.168   0.260
   0.208   0.211   0.271   0.363   0.777   1.708   2.768   3.820   4.085   3.845
   3.339   2.825   2.460   1.891   1.608   1.372   1.459   1.372   1.608   1.891
   2.460   2.825   3.339   3.845   4.085   3.820   2.768   1.708   0.777   0.363
   0.271   0.211   0.208   0.260   0.168   0.260   0.208   0.211   0.271   0.363
   0.777   1.708   2.768   3.820   4.085   3.845   3.339   2.825   2.460   1.891
   1.608   1.372
   0.182   0.181   0.195   0.240   0.367   0.542   0.747   1.213   2.128   3.027
   3.490   2.947   1.640   0.726   0.441   0.331   0.260   0.258   0.215   0.258
   0.260   0.331   0.441   0.726   1.640   2.947   3.490   3.027   2.128   1.213
   0.747   0.542   0.367   0.240   0.195   0.181   0.182   0.181   0.195   0.240
   0.367   0.542   0.747   1.213   2.128   3.027   3.490   2.947   1.640   0.726
   0.441   0.331   0.260   0.258   0.215   0.258   0.260   0.331   0.441   0.726
   1.640   2.947   3.490   3.027   2.128   1.213   0.747   0.542   0.367   0.240
   0.195   0.181
   0.074   0.061   0.082   0.133   0.118   0.163   0.184   0.210   0.569   1.255
   2.384   3.323   2.758   1.424   0.695   0.428   0.301   0.340   0.274   0.340
   0.301   0.428   0.695   1.424   2.758   3.323   2.384   1.255   0.569   0.210
   0.184   0.163   0.118   0.133   0.082   0.061   0.074   0.061   0.082   0.133
   0.118   0.163   0.184   0.210   0.569   1.255   2.384   3.323   2.758   1.424
   0.695   0.428   0.301   0.340   0.274   0.340   0.301   0.428   0.695   1.424
   2.758   3.323   2.384   1.255   0.569   0.210   0.184   0.163   0.118   0.133
   0.082   0.061
   0.057   0.019   0.070   0.075   0.066   0.109   0.084   0.119   0.283   0.561
   1.496   3.135   3.691   2.182   0.891   0.398   0.318   0.387   0.375   0.387
   0.318   0.398   0.891   2.182   3.691   3.135   1.496   0.561   0.283   0.119
   0.084   0.109   0.066   0.075   0.070   0.019   0.057   0.019   0.070   0.075
   0.066   0.109   0.084   0.119   0.283   0.561   1.496   3.135   3.691   2.182
   0.891   0.398   0.318   0.387   0.375   0.387   0.318   0.398   0.891   2.182
   3.691   3.135   1.496   0.561   0.283   0.119   0.084   0.109   0.066   0.075
   0.070   0.019
   0.056   0.050   0.043   0.033   0.035   0.110   0.052   0.124   0.195   0.549
   1.556   3.731   4.222   2.229   0.855   0.330   0.225   0.357   0.318   0.357
   0.225   0.330   0.855   2.229   4.222   3.731   1.556   0.549   0.195   0.124
   0.052   0.110   0.035   0.033   0.043   0.050   0.056   0.050   0.043   0.033
   0.035   0.110   0.052   0.124   0.195   0.549   1.556   3.731   4.222   2.229
   0.855   0.330   0.225   0.357   0.318   0.357   0.225   0.330   0.855   2.229
   4.222   3.731   1.556   0.549   0.195   0.124   0.052   0.110   0.035   0.033
   0.043   0.050
   0.105   0.050   0.043   0.046   0.093   0.111   0.087   0.154   0.313   1.063
   2.584   4.681   3.589   1.548   0.587   0.351   0.211   0.301   0.332   0.301
   0.211   0.351   0.587   1.548   3.589   4.681   2.584   1.063   0.313   0.154
   0.087   0.111   0.093   0.046   0.043   0.050   0.105   0.050   0.043   0.046
   0.093   0.111   0.087   0.154   0.313   1.063   2.584   4.681   3.589   1.548
   0.587   0.351   0.211   0.301   0.332   0.301   0.211   0.351   0.587   1.548
   3.589   4.681   2.584   1.063   0.313   0.154   0.087   0.111   0.093   0.046
   0.043   0.050
   0.148   0.177   0.131   0.115   0.228   0.123   0.226   0.335   1.204   2.992
   4.122   3.837   1.891   0.764   0.357   0.326   0.347   0.268   0.555   0.268
   0.347   0.326   0.357   0.764   1.891   3.837   4.122   2.992   1.204   0.335
   0.226   0.123   0.228   0.115   0.131   0.177   0.148   0.177   0.131   0.115
   0.228   0.123   0.226   0.335   1.204   2.992   4.122   3.837   1.891   0.764
   0.357   0.326   0.347   0.268   0.555   0.268   0.347   0.326   0.357   0.764
   1.891   3.837   4.122   2.992   1.204   0.335   0.226   0.123   0.228   0.115
   0.131   0.177
   0.180   0.206   0.175   0.111   0.275   0.199   0.474   1.083   2.893   4.501
   3.744   1.882   0.658   0.287   0.207   0.202   0.410   0.264   0.381   0.264
   0.410   0.202   0.207   0.287   0.658   1.882   3.744   4.501   2.893   1.083
   0.474   0.199   0.275   0.111   0.175   0.206   0.180   0.206   0.175   0.111
   0.275   0.199   0.474   1.083   2.893   4.501   3.744   1.882   0.658   0.287
   0.207   0.202   0.410   0.264   0.381   0.264   0.410   0.202   0.207   0.287
   0.658   1.882   3.744   4.501   2.893   1.083   0.474   0.199   0.275   0.111
   0.175   0.206
 111       5.00   72    0 5.00   15    0
   0.040   0.040   0.040   0.040   0.040   0.040   0.040   0.040   0.040   0.040
   0.040   0.040   0.040   0.040   0.040   0.040   0.040   0.040   0.040   0.040
   0.040   0.040   0.040   0.040   0.040   0.040   0.040   0.040   0.040   0.040
   0.040   0.040   0.040   0.040   0.040   0.040   0.040   0.040   0.040   0.040
   0.040   0.040   0.040   0.040   0.040   0.040   0.040   0.040   0.040   0.040
   0.040   0.040   0.040   0.040   0.040   0.040   0.040   0.040   0.040   0.040
   0.040   0.040   0.040   0.040   0.040   0.040   0.040   0.040   0.040   0.040
   0.040   0.040
   0.051   0.032   0.044   0.034   0.034   0.041   0.042   0.029   0.031   0.026
   0.030   0.027   0.028   0.034   0.024   0.031   0.025   0.021   0.027   0.021
   0.025   0.031   0.024   0.034   0.028   0.027   0.030   0.026   0.031   0.029
   0.042   0.041   0.034   0.034   0.044   0.032   0.051   0.032   0.044   0.034
   0.034   0.041   0.042   0.029   0.031   0.026   0.030   0.027   0.028   0.034
   0.024   0.031   0.025   0.021   0.027   0.021   0.025   0.031   0.024   0.034
   0.028   0.027   0.030   0.026   0.031   0.029   0.042   0.041   0.034   0.034
   0.044   0.032
   0.181   0.182   0.186   0.144   0.104   0.104   0.091   0.059   0.057   0.027
   0.039   0.030   0.029   0.026   0.026   0.023   0.029   0.022   0.014   0.022
   0.029   0.023   0.026   0.026   0.029   0.030   0.039   0.027   0.057   0.059
   0.091   0.104   0.104   0.144   0.186   0.182   0.181   0.182   0.186   0.144
   0.104   0.104   0.091   0.059   0.057   0.027   0.039   0.030   0.029   0.026
   0.026   0.023   0.029   0.022   0.014   0.022   0.029   0.023   0.026   0.026
   0.029   0.030   0.039   0.027   0.057   0.059   0.091   0.104   0.104   0.144
   0.186   0.182
   2.147   1.977   1.583   1.102   0.695   0.387   0.239   0.123   0.088   0.041
   0.021   0.020   0.014   0.013   0.015   0.016   0.014   0.012   0.004   0.012
   0.014   0.016   0.015   0.013   0.014   0.020   0.021   0.041   0.088   0.123
   0.239   0.387   0.695   1.102   1.583   1.977   2.147   1.977   1.583   1.102
   0.695   0.387   0.239   0.123   0.088   0.041   0.021   0.020   0.014   0.013
   0.015   0.016   0.014   0.012   0.004   0.012   0.014   0.016   0.015   0.013
   0.014   0.020   0.021   0.041   0.088   0.123   0.239   0.387   0.695   1.102
   1.583   1.977
   8.725   8.045   6.627   4.722   3.101   1.740   0.888   0.437   0.243   0.073
   0.013   0.004   0.000   0.004   0.000   0.007   0.000   0.000   0.000   0.000
   0.000   0.007   0.000   0.004   0.000   0.004   0.013   0.073   0.243   0.437
   0.888   1.740   3.101   4.722   6.627   8.045   8.725   8.045   6.627   4.722
   3.101   1.740   0.888   0.437   0.243   0.073   0.013   0.004   0.000   0.004
   0.000   0.007   0.000   0.000   0.000   0.000   0.000   0.007   0.000   0.004
   0.000   0.004   0.013   0.073   0.243   0.437   0.888   1.740   3.101   4.722
   6.627   8.045
   9.142   8.708   7.546   6.174   4.928   3.690   2.565   1.502   0.763   0.288
   0.120   0.086   0.023   0.011   0.008   0.001   0.013   0.009   0.000   0.009
   0.013   0.001   0.008   0.011   0.023   0.086   0.120   0.288   0.763   1.502
   2.565   3.690   4.928   6.174   7.546   8.708   9.142   8.708   7.546   6.174
   4.928   3.690   2.565   1.502   0.763   0.288   0.120   0.086   0.023   0.011
   0.008   0.001   0.013   0.009   0.000   0.009   0.013   0.001   0.008   0.011
   0.023   0.086   0.120   0.288   0.763   1.502   2.565   3.690   4.928   6.174
   7.546   8.708
   2.966   3.023   2.888   3.072   3.287   3.350   3.328   2.809   1.861   1.003
   0.433   0.209   0.111   0.062   0.043   0.028   0.025   0.021   0.024   0.021
   0.025   0.028   0.043   0.062   0.111   0.209   0.433   1.003   1.861   2.809
   3.328   3.350   3.287   3.072   2.888   3.023   2.966   3.023   2.888   3.072
   3.287   3.350   3.328   2.809   1.861   1.003   0.433   0.209   0.111   0.062
   0.043   0.028   0.025   0.021   0.024   0.021   0.025   0.028   0.043   0.062
   0.111   0.209   0.433   1.003   1.861   2.809   3.328   3.350   3.287   3.072
   2.888   3.023
   0.673   0.699   0.706   0.865   1.158   1.469   2.113   2.801   2.664   2.040
   1.104   0.484   0.272   0.145   0.089   0.069   0.059   0.033   0.067   0.033
   0.059   0.069   0.089   0.145   0.272   0.484   1.104   2.040   2.664   2.801
   2.113   1.469   1.158   0.865   0.706   0.699   0.673   0.699   0.706   0.865
   1.158   1.469   2.113   2.801   2.664   2.040   1.104   0.484   0.272   0.145
   0.089   0.069   0.059   0.033   0.067   0.033   0.059   0.069   0.089   0.145
   0.272   0.484   1.104   2.040   2.664   2.801   2.113   1.469   1.158   0.865
   0.706   0.699
   0.194   0.237   0.238   0.299   0.414   0.518   0.912   1.577   2.186   2.609
   2.198   1.333   0.576   0.261   0.160   0.127   0.092   0.110   0.127   0.110
   0.092   0.127   0.160   0.261   0.576   1.333   2.198   2.609   2.186   1.577
   0.912   0.518   0.414   0.299   0.238   0.237   0.194   0.237   0.238   0.299
   0.414   0.518   0.912   1.577   2.186   2.609   2.198   1.333   0.576   0.261
   0.160   0.127   0.092   0.110   0.127   0.110   0.092   0.127   0.160   0.261
   0.576   1.333   2.198   2.609   2.186   1.577   0.912   0.518   0.414   0.299
   0.238   0.237
   0.132   0.143   0.124   0.127   0.157   0.201   0.397   0.643   1.269   2.196
   2.669   2.555   1.531   0.768   0.342   0.226   0.164   0.150   0.140   0.150
   0.164   0.226   0.342   0.768   1.531   2.555   2.669   2.196   1.269   0.643
   0.397   0.201   0.157   0.127   0.124   0.143   0.132   0.143   0.124   0.127
   0.157   0.201   0.397   0.643   1.269   2.196   2.669   2.555   1.531   0.768
   0.342   0.226   0.164   0.150   0.140   0.150   0.164   0.226   0.342   0.768
   1.531   2.555   2.669   2.196   1.269   0.643   0.397   0.201   0.157   0.127
   0.124   0.143
   0.082   0.121   0.093   0.072   0.070   0.094   0.170   0.305   0.692   1.256
   1.888   2.767   2.702   2.089   1.044   0.503   0.278   0.165   0.185   0.165
   0.278   0.503   1.044   2.089   2.702   2.767   1.888   1.256   0.692   0.305
   0.170   0.094   0.070   0.072   0.093   0.121   0.082   0.121   0.093   0.072
   0.070   0.094   0.170   0.305   0.692   1.256   1.888   2.767   2.702   2.089
   1.044   0.503   0.278   0.165   0.185   0.165   0.278   0.503   1.044   2.089
   2.702   2.767   1.888   1.256   0.692   0.305   0.170   0.094   0.070   0.072
   0.093   0.121
   0.135   0.129   0.095   0.043   0.048   0.058   0.103   0.201   0.417   0.610
   0.830   1.514   2.181   2.939   2.473   1.523   0.720   0.354   0.357   0.354
   0.720   1.523   2.473   2.939   2.181   1.514   0.830   0.610   0.417   0.201
   0.103   0.058   0.048   0.043   0.095   0.129   0.135   0.129   0.095   0.043
   0.048   0.058   0.103   0.201   0.417   0.610   0.830   1.514   2.181   2.939
   2.473   1.523   0.720   0.354   0.357   0.354   0.720   1.523   2.473   2.939
   2.181   1.514   0.830   0.610   0.417   0.201   0.103   0.058   0.048   0.043
   0.095   0.129
   0.205   0.144   0.116   0.045   0.048   0.046   0.086   0.184   0.291   0.382
   0.310   0.439   0.774   1.889   2.690   2.643   1.873   0.875   0.613   0.875
   1.873   2.643   2.690   1.889   0.774   0.439   0.310   0.382   0.291   0.184
   0.086   0.046   0.048   0.045   0.116   0.144   0.205   0.144   0.116   0.045
   0.048   0.046   0.086   0.184   0.291   0.382   0.310   0.439   0.774   1.889
   2.690   2.643   1.873   0.875   0.613   0.875   1.873   2.643   2.690   1.889
   0.774   0.439   0.310   0.382   0.291   0.184   0.086   0.046   0.048   0.045
   0.116   0.144
   0.227   0.201   0.178   0.079   0.101   0.077   0.130   0.162   0.203   0.268
   0.271   0.215   0.295   0.612   1.391   2.417   2.686   1.923   1.151   1.923
   2.686   2.417   1.391   0.612   0.295   0.215   0.271   0.268   0.203   0.162
   0.130   0.077   0.101   0.079   0.178   0.201   0.227   0.201   0.178   0.079
   0.101   0.077   0.130   0.162   0.203   0.268   0.271   0.215   0.295   0.612
   1.391   2.417   2.686   1.923   1.151   1.923   2.686   2.417   1.391   0.612
   0.295   0.215   0.271   0.268   0.203   0.162   0.130   0.077   0.101   0.079
   0.178   0.201
   0.276   0.320   0.229   0.118   0.168   0.120   0.171   0.154   0.190   0.192
   0.264   0.198   0.294   0.279   0.626   1.401   2.310   2.525   2.177   2.525
   2.310   1.401   0.626   0.279   0.294   0.198   0.264   0.192   0.190   0.154
   0.171   0.120   0.168   0.118   0.229   0.320   0.276   0.320   0.229   0.118
   0.168   0.120   0.171   0.154   0.190   0.192   0.264   0.198   0.294   0.279
   0.626   1.401   2.310   2.525   2.177   2.525   2.310   1.401   0.626   0.279
   0.294   0.198   0.264   0.192   0.190   0.154   0.171   0.120   0.168   0.118
   0.229   0.320
  4  1     -5.7908822E-01
  4  2      1.5923906E-01
  4  3     -2.2414795E+00
  6  1      2.1354652E+00
  6  2     -4.9843064E+00
  6  3      2.3758988E+00
  6  4      1.9380346E-01
  8  1     -6.9786703E-01
  8  2      2.1322483E-01
  8  3      2.4579929E-01
  8  4      2.4179320E+00
  8  5      1.4041349E+00
 10  1     -1.7262281E+00
 10  2      1.5714456E+00
 10  3      1.2325964E+00
 10  4      5.9722293E-01
 10  5     -3.4787917E-01
 10  6     -8.0996964E-01
 12  1      3.7832705E-01  2.3375975E+00
 12  2     -2.9200305E-01 -3.2755911E+00
 12  3      6.8804207E-02  4.4129135E+00
 12  4     -3.8687127E-01 -2.6726863E+00
 12  5     -6.1711823E-01 -2.9970052E-01
 12  6     -2.6538054E+00  1.0301008E+00
 12  7      3.0873355E-02  1.0090370E-01
 14  1     -4.4261216E-01
 14  2      8.6935456E-01
 14  3     -7.2955965E-01
 14  4     -5.4592199E-03
 14  5     -2.2371501E+00
 14  6      8.7094799E-01
 14  7      3.3494600E-01
 14  8      1.8171931E-01
 16  1      6.4157371E-02 -1.2748976E+00
 16  2     -1.3133550E-01  1.7012748E+00
 16  3      4.2474560E-01 -9.2121255E-01
 16  4     -1.4874570E-01 -1.2947677E+00
 16  5     -5.1118739E-02  4.8326833E-01
 16  6      3.8606628E-02  3.8907298E-01
 16  7      1.7404248E+00  1.5775304E-03
 16  8      1.0920194E+00 -3.6849233E-01
 16  9      2.0042207E-01  3.2212299E-01
 220       5.00   72    0 5.00   18    0
   2.738   2.739   2.743   2.750   2.759   2.770   2.783   2.797   2.813   2.829
   2.845   2.860   2.875   2.888   2.900   2.909   2.916   2.921   2.922   2.921
   2.916   2.909   2.900   2.888   2.875   2.860   2.845   2.829   2.813   2.797
   2.783   2.770   2.759   2.750   2.743   2.739   2.738   2.739   2.743   2.750
   2.759   2.770   2.783   2.797   2.813   2.829   2.845   2.860   2.875   2.888
   2.900   2.909   2.916   2.921   2.922   2.921   2.916   2.909   2.900   2.888
   2.875   2.860   2.845   2.829   2.813   2.797   2.783   2.770   2.759   2.750
   2.743   2.739
   1.627   1.636   1.662   1.704   1.763   1.839   1.929   2.033   2.149   2.275
   2.405   2.538   2.667   2.787   2.895   2.984   3.052   3.093   3.107   3.093
   3.052   2.984   2.895   2.787   2.667   2.538   2.405   2.275   2.149   2.033
   1.929   1.839   1.763   1.704   1.662   1.636   1.627   1.636   1.662   1.704
   1.763   1.839   1.929   2.033   2.149   2.275   2.405   2.538   2.667   2.787
   2.895   2.984   3.052   3.093   3.107   3.093   3.052   2.984   2.895   2.787
   2.667   2.538   2.405   2.275   2.149   2.033   1.929   1.839   1.763   1.704
   1.662   1.636
   0.241   0.250   0.278   0.329   0.404   0.510   0.649   0.826   1.043   1.299
   1.590   1.907   2.237   2.563   2.866   3.128   3.329   3.457   3.500   3.457
   3.329   3.128   2.866   2.563   2.237   1.907   1.590   1.299   1.043   0.826
   0.649   0.510   0.404   0.329   0.278   0.250   0.241   0.250   0.278   0.329
   0.404   0.510   0.649   0.826   1.043   1.299   1.590   1.907   2.237   2.563
   2.866   3.128   3.329   3.457   3.500   3.457   3.329   3.128   2.866   2.563
   2.237   1.907   1.590   1.299   1.043   0.826   0.649   0.510   0.404   0.329
   0.278   0.250
  -0.462  -0.464  -0.470  -0.474  -0.470  -0.443  -0.378  -0.255  -0.056   0.233
   0.617   1.089   1.628   2.200   2.761   3.264   3.662   3.918   4.006   3.918
   3.662   3.264   2.761   2.200   1.628   1.089   0.617   0.233  -0.056  -0.255
  -0.378  -0.443  -0.470  -0.474  -0.470  -0.464  -0.462  -0.464  -0.470  -0.474
  -0.470  -0.443  -0.378  -0.255  -0.056   0.233   0.617   1.089   1.628   2.200
   2.761   3.264   3.662   3.918   4.006   3.918   3.662   3.264   2.761   2.200
   1.628   1.089   0.617   0.233  -0.056  -0.255  -0.378  -0.443  -0.470  -0.474
  -0.470  -0.464
  -0.237  -0.248  -0.281  -0.341  -0.427  -0.532  -0.631  -0.689  -0.658  -0.493
  -0.161   0.343   0.998   1.752   2.530   3.250   3.832   4.210   4.341   4.210
   3.832   3.250   2.530   1.752   0.998   0.343  -0.161  -0.493  -0.658  -0.689
  -0.631  -0.532  -0.427  -0.341  -0.281  -0.248  -0.237  -0.248  -0.281  -0.341
  -0.427  -0.532  -0.631  -0.689  -0.658  -0.493  -0.161   0.343   0.998   1.752
   2.530   3.250   3.832   4.210   4.341   4.210   3.832   3.250   2.530   1.752
   0.998   0.343  -0.161  -0.493  -0.658  -0.689  -0.631  -0.532  -0.427  -0.341
  -0.281  -0.248
   0.231   0.239   0.253   0.244   0.181   0.041  -0.169  -0.406  -0.591  -0.636
  -0.469  -0.057   0.577   1.363   2.202   2.986   3.619   4.029   4.171   4.029
   3.619   2.986   2.202   1.363   0.577  -0.057  -0.469  -0.636  -0.591  -0.406
  -0.169   0.041   0.181   0.244   0.253   0.239   0.231   0.239   0.253   0.244
   0.181   0.041  -0.169  -0.406  -0.591  -0.636  -0.469  -0.057   0.577   1.363
   2.202   2.986   3.619   4.029   4.171   4.029   3.619   2.986   2.202   1.363
   0.577  -0.057  -0.469  -0.636  -0.591  -0.406  -0.169   0.041   0.181   0.244
   0.253   0.239
   0.093   0.140   0.268   0.430   0.553   0.562   0.419   0.149  -0.151  -0.346
  -0.318  -0.019   0.517   1.195   1.894   2.514   2.986   3.277   3.374   3.277
   2.986   2.514   1.894   1.195   0.517  -0.019  -0.318  -0.346  -0.151   0.149
   0.419   0.562   0.553   0.430   0.268   0.140   0.093   0.140   0.268   0.430
   0.553   0.562   0.419   0.149  -0.151  -0.346  -0.318  -0.019   0.517   1.195
   1.894   2.514   2.986   3.277   3.374   3.277   2.986   2.514   1.894   1.195
   0.517  -0.019  -0.318  -0.346  -0.151   0.149   0.419   0.562   0.553   0.430
   0.268   0.140
  -0.585  -0.529  -0.357  -0.075   0.254   0.513   0.585   0.445   0.187  -0.012
   0.005   0.286   0.756   1.274   1.706   1.989   2.131   2.181   2.190   2.181
   2.131   1.989   1.706   1.274   0.756   0.286   0.005  -0.012   0.187   0.445
   0.585   0.513   0.254  -0.075  -0.357  -0.529  -0.585  -0.529  -0.357  -0.075
   0.254   0.513   0.585   0.445   0.187  -0.012   0.005   0.286   0.756   1.274
   1.706   1.989   2.131   2.181   2.190   2.181   2.131   1.989   1.706   1.274
   0.756   0.286   0.005  -0.012   0.187   0.445   0.585   0.513   0.254  -0.075
  -0.357  -0.529
  -0.604  -0.648  -0.700  -0.606  -0.307   0.080   0.345   0.362   0.202   0.079
   0.185   0.550   1.035   1.435   1.610   1.549   1.352   1.158   1.080   1.158
   1.352   1.549   1.610   1.435   1.035   0.550   0.185   0.079   0.202   0.362
   0.345   0.080  -0.307  -0.606  -0.700  -0.648  -0.604  -0.648  -0.700  -0.606
  -0.307   0.080   0.345   0.362   0.202   0.079   0.185   0.550   1.035   1.435
   1.610   1.549   1.352   1.158   1.080   1.158   1.352   1.549   1.610   1.435
   1.035   0.550   0.185   0.079   0.202   0.362   0.345   0.080  -0.307  -0.606
  -0.700  -0.648
   1.210   0.932   0.307  -0.215  -0.328  -0.094   0.170   0.211   0.054  -0.054
   0.111   0.561   1.092   1.450   1.489   1.239   0.857   0.533   0.407   0.533
   0.857   1.239   1.489   1.450   1.092   0.561   0.111  -0.054   0.054   0.211
   0.170  -0.094  -0.328  -0.215   0.307   0.932   1.210   0.932   0.307  -0.215
  -0.328  -0.094   0.170   0.211   0.054  -0.054   0.111   0.561   1.092   1.450
   1.489   1.239   0.857   0.533   0.407   0.533   0.857   1.239   1.489   1.450
   1.092   0.561   0.111  -0.054   0.054   0.211   0.170  -0.094  -0.328  -0.215
   0.307   0.932
   4.496   3.925   2.574   1.232   0.488   0.357   0.429   0.332   0.044  -0.172
  -0.073   0.345   0.868   1.233   1.291   1.058   0.674   0.334   0.200   0.334
   0.674   1.058   1.291   1.233   0.868   0.345  -0.073  -0.172   0.044   0.332
   0.429   0.357   0.488   1.232   2.574   3.925   4.496   3.925   2.574   1.232
   0.488   0.357   0.429   0.332   0.044  -0.172  -0.073   0.345   0.868   1.233
   1.291   1.058   0.674   0.334   0.200   0.334   0.674   1.058   1.291   1.233
   0.868   0.345  -0.073  -0.172   0.044   0.332   0.429   0.357   0.488   1.232
   2.574   3.925
   7.171   6.415   4.607   2.743   1.577   1.158   1.029   0.772   0.342  -0.024
  -0.102   0.131   0.536   0.916   1.101   1.008   0.690   0.341   0.190   0.341
   0.690   1.008   1.101   0.916   0.536   0.131  -0.102  -0.024   0.342   0.772
   1.029   1.158   1.577   2.743   4.607   6.415   7.171   6.415   4.607   2.743
   1.577   1.158   1.029   0.772   0.342  -0.024  -0.102   0.131   0.536   0.916
   1.101   1.008   0.690   0.341   0.190   0.341   0.690   1.008   1.101   0.916
   0.536   0.131  -0.102  -0.024   0.342   0.772   1.029   1.158   1.577   2.743
   4.607   6.415
   7.117   6.422   4.774   3.106   2.089   1.725   1.588   1.324   0.899   0.475
   0.200   0.149   0.341   0.705   1.038   1.085   0.774   0.331   0.124   0.331
   0.774   1.085   1.038   0.705   0.341   0.149   0.200   0.475   0.899   1.324
   1.588   1.725   2.089   3.106   4.774   6.422   7.117   6.422   4.774   3.106
   2.089   1.725   1.588   1.324   0.899   0.475   0.200   0.149   0.341   0.705
   1.038   1.085   0.774   0.331   0.124   0.331   0.774   1.085   1.038   0.705
   0.341   0.149   0.200   0.475   0.899   1.324   1.588   1.725   2.089   3.106
   4.774   6.422
   4.217   3.809   2.888   2.067   1.715   1.729   1.792   1.711   1.485   1.158
   0.771   0.449   0.397   0.689   1.094   1.214   0.869   0.321   0.058   0.321
   0.869   1.214   1.094   0.689   0.397   0.449   0.771   1.158   1.485   1.711
   1.792   1.729   1.715   2.067   2.888   3.809   4.217   3.809   2.888   2.067
   1.715   1.729   1.792   1.711   1.485   1.158   0.771   0.449   0.397   0.689
   1.094   1.214   0.869   0.321   0.058   0.321   0.869   1.214   1.094   0.689
   0.397   0.449   0.771   1.158   1.485   1.711   1.792   1.729   1.715   2.067
   2.888   3.809
   0.634   0.556   0.454   0.552   0.884   1.272   1.551   1.711   1.773   1.666
   1.320   0.874   0.637   0.783   1.125   1.266   1.003   0.549   0.327   0.549
   1.003   1.266   1.125   0.783   0.637   0.874   1.320   1.666   1.773   1.711
   1.551   1.272   0.884   0.552   0.454   0.556   0.634   0.556   0.454   0.552
   0.884   1.272   1.551   1.711   1.773   1.666   1.320   0.874   0.637   0.783
   1.125   1.266   1.003   0.549   0.327   0.549   1.003   1.266   1.125   0.783
   0.637   0.874   1.320   1.666   1.773   1.711   1.551   1.272   0.884   0.552
   0.454   0.556
  -1.138  -1.046  -0.753  -0.277   0.247   0.662   0.958   1.244   1.542   1.697
   1.559   1.207   0.906   0.850   0.996   1.161   1.220   1.194   1.171   1.194
   1.220   1.161   0.996   0.850   0.906   1.207   1.559   1.697   1.542   1.244
   0.958   0.662   0.247  -0.277  -0.753  -1.046  -1.138  -1.046  -0.753  -0.277
   0.247   0.662   0.958   1.244   1.542   1.697   1.559   1.207   0.906   0.850
   0.996   1.161   1.220   1.194   1.171   1.194   1.220   1.161   0.996   0.850
   0.906   1.207   1.559   1.697   1.542   1.244   0.958   0.662   0.247  -0.277
  -0.753  -1.046
  -0.553  -0.496  -0.331  -0.110   0.065   0.151   0.248   0.505   0.920   1.302
   1.455   1.349   1.093   0.836   0.735   0.947   1.485   2.090   2.359   2.090
   1.485   0.947   0.735   0.836   1.093   1.349   1.455   1.302   0.920   0.505
   0.248   0.151   0.065  -0.110  -0.331  -0.496  -0.553  -0.496  -0.331  -0.110
   0.065   0.151   0.248   0.505   0.920   1.302   1.455   1.349   1.093   0.836
   0.735   0.947   1.485   2.090   2.359   2.090   1.485   0.947   0.735   0.836
   1.093   1.349   1.455   1.302   0.920   0.505   0.248   0.151   0.065  -0.110
  -0.331  -0.496
   0.699   0.659   0.548   0.372   0.127  -0.131  -0.242  -0.061   0.384   0.898
   1.265   1.367   1.177   0.793   0.521   0.775   1.674   2.753   3.240   2.753
   1.674   0.775   0.521   0.793   1.177   1.367   1.265   0.898   0.384  -0.061
  -0.242  -0.131   0.127   0.372   0.548   0.659   0.699   0.659   0.548   0.372
   0.127  -0.131  -0.242  -0.061   0.384   0.898   1.265   1.367   1.177   0.793
   0.521   0.775   1.674   2.753   3.240   2.753   1.674   0.775   0.521   0.793
   1.177   1.367   1.265   0.898   0.384  -0.061  -0.242  -0.131   0.127   0.372
   0.548   0.659
 200       5.00   72    0 5.00   18    0
   0.589   0.589   0.591   0.593   0.596   0.600   0.604   0.609   0.614   0.620
   0.625   0.630   0.635   0.640   0.644   0.647   0.650   0.651   0.652   0.651
   0.650   0.647   0.644   0.640   0.635   0.630   0.625   0.620   0.614   0.609
   0.604   0.600   0.596   0.593   0.591   0.589   0.589   0.589   0.591   0.593
   0.596   0.600   0.604   0.609   0.614   0.620   0.625   0.630   0.635   0.640
   0.644   0.647   0.650   0.651   0.652   0.651   0.650   0.647   0.644   0.640
   0.635   0.630   0.625   0.620   0.614   0.609   0.604   0.600   0.596   0.593
   0.591   0.589
   0.168   0.170   0.176   0.187   0.202   0.222   0.247   0.277   0.312   0.351
   0.393   0.437   0.482   0.525   0.565   0.599   0.624   0.640   0.646   0.640
   0.624   0.599   0.565   0.525   0.482   0.437   0.393   0.351   0.312   0.277
   0.247   0.222   0.202   0.187   0.176   0.170   0.168   0.170   0.176   0.187
   0.202   0.222   0.247   0.277   0.312   0.351   0.393   0.437   0.482   0.525
   0.565   0.599   0.624   0.640   0.646   0.640   0.624   0.599   0.565   0.525
   0.482   0.437   0.393   0.351   0.312   0.277   0.247   0.222   0.202   0.187
   0.176   0.170
  -0.187  -0.187  -0.189  -0.191  -0.192  -0.190  -0.182  -0.164  -0.133  -0.085
  -0.018   0.068   0.171   0.283   0.398   0.503   0.588   0.643   0.663   0.643
   0.588   0.503   0.398   0.283   0.171   0.068  -0.018  -0.085  -0.133  -0.164
  -0.182  -0.190  -0.192  -0.191  -0.189  -0.187  -0.187  -0.187  -0.189  -0.191
  -0.192  -0.190  -0.182  -0.164  -0.133  -0.085  -0.018   0.068   0.171   0.283
   0.398   0.503   0.588   0.643   0.663   0.643   0.588   0.503   0.398   0.283
   0.171   0.068  -0.018  -0.085  -0.133  -0.164  -0.182  -0.190  -0.192  -0.191
  -0.189  -0.187
   0.205   0.198   0.175   0.136   0.080   0.006  -0.082  -0.176  -0.261  -0.322
  -0.340  -0.303  -0.205  -0.050   0.142   0.344   0.522   0.644   0.687   0.644
   0.522   0.344   0.142  -0.050  -0.205  -0.303  -0.340  -0.322  -0.261  -0.176
  -0.082   0.006   0.080   0.136   0.175   0.198   0.205   0.198   0.175   0.136
   0.080   0.006  -0.082  -0.176  -0.261  -0.322  -0.340  -0.303  -0.205  -0.050
   0.142   0.344   0.522   0.644   0.687   0.644   0.522   0.344   0.142  -0.050
  -0.205  -0.303  -0.340  -0.322  -0.261  -0.176  -0.082   0.006   0.080   0.136
   0.175   0.198
   1.539   1.529   1.495   1.432   1.331   1.181   0.975   0.715   0.417   0.112
  -0.155  -0.338  -0.400  -0.329  -0.140   0.118   0.379   0.572   0.643   0.572
   0.379   0.118  -0.140  -0.329  -0.400  -0.338  -0.155   0.112   0.417   0.715
   0.975   1.181   1.331   1.432   1.495   1.529   1.539   1.529   1.495   1.432
   1.331   1.181   0.975   0.715   0.417   0.112  -0.155  -0.338  -0.400  -0.329
  -0.140   0.118   0.379   0.572   0.643   0.572   0.379   0.118  -0.140  -0.329
  -0.400  -0.338  -0.155   0.112   0.417   0.715   0.975   1.181   1.331   1.432
   1.495   1.529
   3.034   3.022   2.986   2.932   2.853   2.727   2.522   2.208   1.779   1.258
   0.706   0.202  -0.167  -0.341  -0.305  -0.104   0.169   0.397   0.485   0.397
   0.169  -0.104  -0.305  -0.341  -0.167   0.202   0.706   1.258   1.779   2.208
   2.522   2.727   2.853   2.932   2.986   3.022   3.034   3.022   2.986   2.932
   2.853   2.727   2.522   2.208   1.779   1.258   0.706   0.202  -0.167  -0.341
  -0.305  -0.104   0.169   0.397   0.485   0.397   0.169  -0.104  -0.305  -0.341
  -0.167   0.202   0.706   1.258   1.779   2.208   2.522   2.727   2.853   2.932
   2.986   3.022
   3.454   3.428   3.372   3.331   3.334   3.365   3.359   3.240   2.951   2.478
   1.855   1.161   0.508   0.019  -0.219  -0.198  -0.005   0.209   0.300   0.209
  -0.005  -0.198  -0.219   0.019   0.508   1.161   1.855   2.478   2.951   3.240
   3.359   3.365   3.334   3.331   3.372   3.428   3.454   3.428   3.372   3.331
   3.334   3.365   3.359   3.240   2.951   2.478   1.855   1.161   0.508   0.019
  -0.219  -0.198  -0.005   0.209   0.300   0.209  -0.005  -0.198  -0.219   0.019
   0.508   1.161   1.855   2.478   2.951   3.240   3.359   3.365   3.334   3.331
   3.372   3.428
   2.396   2.340   2.228   2.180   2.280   2.515   2.791   3.000   3.066   2.949
   2.618   2.066   1.353   0.634   0.104  -0.109  -0.032   0.156   0.249   0.156
  -0.032  -0.109   0.104   0.634   1.353   2.066   2.618   2.949   3.066   3.000
   2.791   2.515   2.280   2.180   2.228   2.340   2.396   2.340   2.228   2.180
   2.280   2.515   2.791   3.000   3.066   2.949   2.618   2.066   1.353   0.634
   0.104  -0.109  -0.032   0.156   0.249   0.156  -0.032  -0.109   0.104   0.634
   1.353   2.066   2.618   2.949   3.066   3.000   2.791   2.515   2.280   2.180
   2.228   2.340
   0.818   0.731   0.566   0.515   0.689   1.034   1.416   1.761   2.094   2.428
   2.655   2.575   2.073   1.272   0.500   0.075   0.071   0.281   0.398   0.281
   0.071   0.075   0.500   1.272   2.073   2.575   2.655   2.428   2.094   1.761
   1.416   1.034   0.689   0.515   0.566   0.731   0.818   0.731   0.566   0.515
   0.689   1.034   1.416   1.761   2.094   2.428   2.655   2.575   2.073   1.272
   0.500   0.075   0.071   0.281   0.398   0.281   0.071   0.075   0.500   1.272
   2.073   2.575   2.655   2.428   2.094   1.761   1.416   1.034   0.689   0.515
   0.566   0.731
   0.003  -0.097  -0.272  -0.285  -0.067   0.214   0.377   0.476   0.776   1.443
   2.281   2.806   2.631   1.810   0.826   0.218   0.178   0.453   0.613   0.453
   0.178   0.218   0.826   1.810   2.631   2.806   2.281   1.443   0.776   0.476
   0.377   0.214  -0.067  -0.285  -0.272  -0.097   0.003  -0.097  -0.272  -0.285
  -0.067   0.214   0.377   0.476   0.776   1.443   2.281   2.806   2.631   1.810
   0.826   0.218   0.178   0.453   0.613   0.453   0.178   0.218   0.826   1.810
   2.631   2.806   2.281   1.443   0.776   0.476   0.377   0.214  -0.067  -0.285
  -0.272  -0.097
   0.172   0.075  -0.066  -0.014   0.210   0.303   0.066  -0.253  -0.107   0.805
   2.145   3.128   3.142   2.235   1.047   0.284   0.200   0.501   0.681   0.501
   0.200   0.284   1.047   2.235   3.142   3.128   2.145   0.805  -0.107  -0.253
   0.066   0.303   0.210  -0.014  -0.066   0.075   0.172   0.075  -0.066  -0.014
   0.210   0.303   0.066  -0.253  -0.107   0.805   2.145   3.128   3.142   2.235
   1.047   0.284   0.200   0.501   0.681   0.501   0.200   0.284   1.047   2.235
   3.142   3.128   2.145   0.805  -0.107  -0.253   0.066   0.303   0.210  -0.014
  -0.066   0.075
   0.471   0.389   0.292   0.391   0.584   0.502   0.014  -0.444  -0.189   1.014
   2.605   3.628   3.499   2.423   1.144   0.339   0.187   0.392   0.525   0.392
   0.187   0.339   1.144   2.423   3.499   3.628   2.605   1.014  -0.189  -0.444
   0.014   0.502   0.584   0.391   0.292   0.389   0.471   0.389   0.292   0.391
   0.584   0.502   0.014  -0.444  -0.189   1.014   2.605   3.628   3.499   2.423
   1.144   0.339   0.187   0.392   0.525   0.392   0.187   0.339   1.144   2.423
   3.499   3.628   2.605   1.014  -0.189  -0.444   0.014   0.502   0.584   0.391
   0.292   0.389
   0.240   0.181   0.132   0.252   0.405   0.287  -0.082  -0.176   0.554   2.016
   3.414   3.907   3.296   2.098   1.018   0.422   0.249   0.263   0.285   0.263
   0.249   0.422   1.018   2.098   3.296   3.907   3.414   2.016   0.554  -0.176
  -0.082   0.287   0.405   0.252   0.132   0.181   0.240   0.181   0.132   0.252
   0.405   0.287  -0.082  -0.176   0.554   2.016   3.414   3.907   3.296   2.098
   1.018   0.422   0.249   0.263   0.285   0.263   0.249   0.422   1.018   2.098
   3.296   3.907   3.414   2.016   0.554  -0.176  -0.082   0.287   0.405   0.252
   0.132   0.181
  -0.216  -0.247  -0.245  -0.109   0.047   0.063   0.109   0.648   1.867   3.256
   3.942   3.493   2.310   1.195   0.621   0.472   0.396   0.254   0.173   0.254
   0.396   0.472   0.621   1.195   2.310   3.493   3.942   3.256   1.867   0.648
   0.109   0.063   0.047  -0.109  -0.245  -0.247  -0.216  -0.247  -0.245  -0.109
   0.047   0.063   0.109   0.648   1.867   3.256   3.942   3.493   2.310   1.195
   0.621   0.472   0.396   0.254   0.173   0.254   0.396   0.472   0.621   1.195
   2.310   3.493   3.942   3.256   1.867   0.648   0.109   0.063   0.047  -0.109
  -0.245  -0.247
  -0.214  -0.243  -0.245  -0.117   0.099   0.361   0.860   1.840   3.108   3.935
   3.663   2.398   0.973   0.186   0.156   0.413   0.496   0.363   0.268   0.363
   0.496   0.413   0.156   0.186   0.973   2.398   3.663   3.935   3.108   1.840
   0.860   0.361   0.099  -0.117  -0.245  -0.243  -0.214  -0.243  -0.245  -0.117
   0.099   0.361   0.860   1.840   3.108   3.935   3.663   2.398   0.973   0.186
   0.156   0.413   0.496   0.363   0.268   0.363   0.496   0.413   0.156   0.186
   0.973   2.398   3.663   3.935   3.108   1.840   0.860   0.361   0.099  -0.117
  -0.245  -0.243
   0.372   0.281   0.138   0.168   0.453   0.979   1.765   2.745   3.518   3.512
   2.548   1.142   0.092  -0.223  -0.026   0.256   0.414   0.465   0.476   0.465
   0.414   0.256  -0.026  -0.223   0.092   1.142   2.548   3.512   3.518   2.745
   1.765   0.979   0.453   0.168   0.138   0.281   0.372   0.281   0.138   0.168
   0.453   0.979   1.765   2.745   3.518   3.512   2.548   1.142   0.092  -0.223
  -0.026   0.256   0.414   0.465   0.476   0.465   0.414   0.256  -0.026  -0.223
   0.092   1.142   2.548   3.512   3.518   2.745   1.765   0.979   0.453   0.168
   0.138   0.281
   1.083   0.874   0.471   0.307   0.624   1.353   2.237   2.908   2.962   2.240
   1.110   0.255   0.027   0.152   0.184   0.093   0.175   0.478   0.656   0.478
   0.175   0.093   0.184   0.152   0.027   0.255   1.110   2.240   2.962   2.908
   2.237   1.353   0.624   0.307   0.471   0.874   1.083   0.874   0.471   0.307
   0.624   1.353   2.237   2.908   2.962   2.240   1.110   0.255   0.027   0.152
   0.184   0.093   0.175   0.478   0.656   0.478   0.175   0.093   0.184   0.152
   0.027   0.255   1.110   2.240   2.962   2.908   2.237   1.353   0.624   0.307
   0.471   0.874
   1.498   1.191   0.571   0.240   0.555   1.392   2.280   2.670   2.224   1.129
   0.113  -0.132   0.322   0.705   0.481  -0.001  -0.033   0.441   0.744   0.441
  -0.033  -0.001   0.481   0.705   0.322  -0.132   0.113   1.129   2.224   2.670
   2.280   1.392   0.555   0.240   0.571   1.191   1.498   1.191   0.571   0.240
   0.555   1.392   2.280   2.670   2.224   1.129   0.113  -0.132   0.322   0.705
   0.481  -0.001  -0.033   0.441   0.744   0.441  -0.033  -0.001   0.481   0.705
   0.322  -0.132   0.113   1.129   2.224   2.670   2.280   1.392   0.555   0.240
   0.571   1.191
 111       5.00   72    0 5.00   18    0
   0.379   0.381   0.385   0.393   0.403   0.415   0.429   0.445   0.463   0.481
   0.499   0.517   0.533   0.549   0.562   0.573   0.581   0.586   0.587   0.586
   0.581   0.573   0.562   0.549   0.533   0.517   0.499   0.481   0.463   0.445
   0.429   0.415   0.403   0.393   0.385   0.381   0.379   0.381   0.385   0.393
   0.403   0.415   0.429   0.445   0.463   0.481   0.499   0.517   0.533   0.549
   0.562   0.573   0.581   0.586   0.587   0.586   0.581   0.573   0.562   0.549
   0.533   0.517   0.499   0.481   0.463   0.445   0.429   0.415   0.403   0.393
   0.385   0.381
  -0.527  -0.524  -0.515  -0.497  -0.470  -0.432  -0.379  -0.312  -0.229  -0.133
  -0.026   0.089   0.206   0.320   0.424   0.512   0.579   0.621   0.635   0.621
   0.579   0.512   0.424   0.320   0.206   0.089  -0.026  -0.133  -0.229  -0.312
  -0.379  -0.432  -0.470  -0.497  -0.515  -0.524  -0.527  -0.524  -0.515  -0.497
  -0.470  -0.432  -0.379  -0.312  -0.229  -0.133  -0.026   0.089   0.206   0.320
   0.424   0.512   0.579   0.621   0.635   0.621   0.579   0.512   0.424   0.320
   0.206   0.089  -0.026  -0.133  -0.229  -0.312  -0.379  -0.432  -0.470  -0.497
  -0.515  -0.524
   0.118   0.087   0.001  -0.130  -0.284  -0.440  -0.574  -0.666  -0.701  -0.672
  -0.580  -0.432  -0.244  -0.035   0.175   0.365   0.515   0.611   0.644   0.611
   0.515   0.365   0.175  -0.035  -0.244  -0.432  -0.580  -0.672  -0.701  -0.666
  -0.574  -0.440  -0.284  -0.130   0.001   0.087   0.118   0.087   0.001  -0.130
  -0.284  -0.440  -0.574  -0.666  -0.701  -0.672  -0.580  -0.432  -0.244  -0.035
   0.175   0.365   0.515   0.611   0.644   0.611   0.515   0.365   0.175  -0.035
  -0.244  -0.432  -0.580  -0.672  -0.701  -0.666  -0.574  -0.440  -0.284  -0.130
   0.001   0.087
   3.282   3.175   2.867   2.396   1.817   1.195   0.598   0.082  -0.311  -0.558
  -0.659  -0.627  -0.492  -0.289  -0.057   0.167   0.351   0.472   0.514   0.472
   0.351   0.167  -0.057  -0.289  -0.492  -0.627  -0.659  -0.558  -0.311   0.082
   0.598   1.195   1.817   2.396   2.867   3.175   3.282   3.175   2.867   2.396
   1.817   1.195   0.598   0.082  -0.311  -0.558  -0.659  -0.627  -0.492  -0.289
  -0.057   0.167   0.351   0.472   0.514   0.472   0.351   0.167  -0.057  -0.289
  -0.492  -0.627  -0.659  -0.558  -0.311   0.082   0.598   1.195   1.817   2.396
   2.867   3.175
   6.446   6.277   5.788   5.038   4.116   3.122   2.155   1.299   0.609   0.111
  -0.197  -0.338  -0.348  -0.265  -0.131   0.019   0.153   0.244   0.276   0.244
   0.153   0.019  -0.131  -0.265  -0.348  -0.338  -0.197   0.111   0.609   1.299
   2.155   3.122   4.116   5.038   5.788   6.277   6.446   6.277   5.788   5.038
   4.116   3.122   2.155   1.299   0.609   0.111  -0.197  -0.338  -0.348  -0.265
  -0.131   0.019   0.153   0.244   0.276   0.244   0.153   0.019  -0.131  -0.265
  -0.348  -0.338  -0.197   0.111   0.609   1.299   2.155   3.122   4.116   5.038
   5.788   6.277
   6.549   6.401   5.972   5.315   4.506   3.633   2.781   2.016   1.375   0.866
   0.481   0.203   0.022  -0.072  -0.085  -0.036   0.042   0.110   0.137   0.110
   0.042  -0.036  -0.085  -0.072   0.022   0.203   0.481   0.866   1.375   2.016
   2.781   3.633   4.506   5.315   5.972   6.401   6.549   6.401   5.972   5.315
   4.506   3.633   2.781   2.016   1.375   0.866   0.481   0.203   0.022  -0.072
  -0.085  -0.036   0.042   0.110   0.137   0.110   0.042  -0.036  -0.085  -0.072
   0.022   0.203   0.481   0.866   1.375   2.016   2.781   3.633   4.506   5.315
   5.972   6.401
   3.712   3.667   3.532   3.319   3.046   2.742   2.430   2.123   1.812   1.473
   1.093   0.686   0.305   0.022  -0.106  -0.074   0.060   0.202   0.261   0.202
   0.060  -0.074  -0.106   0.022   0.305   0.686   1.093   1.473   1.812   2.123
   2.430   2.742   3.046   3.319   3.532   3.667   3.712   3.667   3.532   3.319
   3.046   2.742   2.430   2.123   1.812   1.473   1.093   0.686   0.305   0.022
  -0.106  -0.074   0.060   0.202   0.261   0.202   0.060  -0.074  -0.106   0.022
   0.305   0.686   1.093   1.473   1.812   2.123   2.430   2.742   3.046   3.319
   3.532   3.667
   0.735   0.789   0.941   1.159   1.409   1.661   1.890   2.062   2.118   1.992
   1.645   1.113   0.518   0.033  -0.199  -0.140   0.113   0.381   0.493   0.381
   0.113  -0.140  -0.199   0.033   0.518   1.113   1.645   1.992   2.118   2.062
   1.890   1.661   1.409   1.159   0.941   0.789   0.735   0.789   0.941   1.159
   1.409   1.661   1.890   2.062   2.118   1.992   1.645   1.113   0.518   0.033
  -0.199  -0.140   0.113   0.381   0.493   0.381   0.113  -0.140  -0.199   0.033
   0.518   1.113   1.645   1.992   2.118   2.062   1.890   1.661   1.409   1.159
   0.941   0.789
  -0.417  -0.345  -0.140   0.169   0.546   0.968   1.417   1.857   2.211   2.357
   2.190   1.700   1.015   0.367  -0.030  -0.087   0.109   0.360   0.471   0.360
   0.109  -0.087  -0.030   0.367   1.015   1.700   2.190   2.357   2.211   1.857
   1.417   0.968   0.546   0.169  -0.140  -0.345  -0.417  -0.345  -0.140   0.169
   0.546   0.968   1.417   1.857   2.211   2.357   2.190   1.700   1.015   0.367
  -0.030  -0.087   0.109   0.360   0.471   0.360   0.109  -0.087  -0.030   0.367
   1.015   1.700   2.190   2.357   2.211   1.857   1.417   0.968   0.546   0.169
  -0.140  -0.345
  -0.208  -0.194  -0.146  -0.048   0.114   0.360   0.718   1.201   1.760   2.252
   2.490   2.354   1.883   1.260   0.700   0.332   0.161   0.112   0.106   0.112
   0.161   0.332   0.700   1.260   1.883   2.354   2.490   2.252   1.760   1.201
   0.718   0.360   0.114  -0.048  -0.146  -0.194  -0.208  -0.194  -0.146  -0.048
   0.114   0.360   0.718   1.201   1.760   2.252   2.490   2.354   1.883   1.260
   0.700   0.332   0.161   0.112   0.106   0.112   0.161   0.332   0.700   1.260
   1.883   2.354   2.490   2.252   1.760   1.201   0.718   0.360   0.114  -0.048
  -0.146  -0.194
   0.100   0.053  -0.056  -0.159  -0.208  -0.177  -0.031   0.300   0.849   1.536
   2.165   2.535   2.554   2.267   1.770   1.154   0.521   0.026  -0.164   0.026
   0.521   1.154   1.770   2.267   2.554   2.535   2.165   1.536   0.849   0.300
  -0.031  -0.177  -0.208  -0.159  -0.056   0.053   0.100   0.053  -0.056  -0.159
  -0.208  -0.177  -0.031   0.300   0.849   1.536   2.165   2.535   2.554   2.267
   1.770   1.154   0.521   0.026  -0.164   0.026   0.521   1.154   1.770   2.267
   2.554   2.535   2.165   1.536   0.849   0.300  -0.031  -0.177  -0.208  -0.159
  -0.056   0.053
   0.136   0.074  -0.056  -0.155  -0.183  -0.184  -0.192  -0.139   0.103   0.591
   1.235   1.864   2.342   2.586   2.508   2.038   1.262   0.509   0.195   0.509
   1.262   2.038   2.508   2.586   2.342   1.864   1.235   0.591   0.103  -0.139
  -0.192  -0.184  -0.183  -0.155  -0.056   0.074   0.136   0.074  -0.056  -0.155
  -0.183  -0.184  -0.192  -0.139   0.103   0.591   1.235   1.864   2.342   2.586
   2.508   2.038   1.262   0.509   0.195   0.509   1.262   2.038   2.508   2.586
   2.342   1.864   1.235   0.591   0.103  -0.139  -0.192  -0.184  -0.183  -0.155
  -0.056   0.074
   0.082   0.030  -0.056  -0.051   0.077   0.214   0.222   0.097  -0.017   0.038
   0.304   0.743   1.310   1.937   2.422   2.494   2.072   1.465   1.180   1.465
   2.072   2.494   2.422   1.937   1.310   0.743   0.304   0.038  -0.017   0.097
   0.222   0.214   0.077  -0.051  -0.056   0.030   0.082   0.030  -0.056  -0.051
   0.077   0.214   0.222   0.097  -0.017   0.038   0.304   0.743   1.310   1.937
   2.422   2.494   2.072   1.465   1.180   1.465   2.072   2.494   2.422   1.937
   1.310   0.743   0.304   0.038  -0.017   0.097   0.222   0.214   0.077  -0.051
  -0.056   0.030
  -0.055  -0.111  -0.212  -0.219  -0.052   0.212   0.400   0.402   0.262   0.103
   0.005   0.027   0.283   0.866   1.656   2.291   2.483   2.326   2.202   2.326
   2.483   2.291   1.656   0.866   0.283   0.027   0.005   0.103   0.262   0.402
   0.400   0.212  -0.052  -0.219  -0.212  -0.111  -0.055  -0.111  -0.212  -0.219
  -0.052   0.212   0.400   0.402   0.262   0.103   0.005   0.027   0.283   0.866
   1.656   2.291   2.483   2.326   2.202   2.326   2.483   2.291   1.656   0.866
   0.283   0.027   0.005   0.103   0.262   0.402   0.400   0.212  -0.052  -0.219
  -0.212  -0.111
  -0.017  -0.075  -0.228  -0.393  -0.429  -0.259   0.037   0.297   0.426   0.423
   0.298   0.080  -0.067   0.127   0.775   1.637   2.316   2.637   2.709   2.637
   2.316   1.637   0.775   0.127  -0.067   0.080   0.298   0.423   0.426   0.297
   0.037  -0.259  -0.429  -0.393  -0.228  -0.075  -0.017  -0.075  -0.228  -0.393
  -0.429  -0.259   0.037   0.297   0.426   0.423   0.298   0.080  -0.067   0.127
   0.775   1.637   2.316   2.637   2.709   2.637   2.316   1.637   0.775   0.127
  -0.067   0.080   0.298   0.423   0.426   0.297   0.037  -0.259  -0.429  -0.393
  -0.228  -0.075
   0.997   0.996   0.900   0.598   0.199  -0.045  -0.028   0.139   0.324   0.483
   0.561   0.444   0.147  -0.041   0.219   0.951   1.823   2.459   2.681   2.459
   1.823   0.951   0.219  -0.041   0.147   0.444   0.561   0.483   0.324   0.139
  -0.028  -0.045   0.199   0.598   0.900   0.996   0.997   0.996   0.900   0.598
   0.199  -0.045  -0.028   0.139   0.324   0.483   0.561   0.444   0.147  -0.041
   0.219   0.951   1.823   2.459   2.681   2.459   1.823   0.951   0.219  -0.041
   0.147   0.444   0.561   0.483   0.324   0.139  -0.028  -0.045   0.199   0.598
   0.900   0.996
   3.182   3.304   3.421   3.125   2.381   1.534   0.877   0.435   0.174   0.163
   0.379   0.549   0.412   0.090   0.029   0.517   1.381   2.160   2.466   2.160
   1.381   0.517   0.029   0.090   0.412   0.549   0.379   0.163   0.174   0.435
   0.877   1.534   2.381   3.125   3.421   3.304   3.182   3.304   3.421   3.125
   2.381   1.534   0.877   0.435   0.174   0.163   0.379   0.549   0.412   0.090
   0.029   0.517   1.381   2.160   2.466   2.160   1.381   0.517   0.029   0.090
   0.412   0.549   0.379   0.163   0.174   0.435   0.877   1.534   2.381   3.125
   3.421   3.304
   5.149   5.378   5.703   5.483   4.540   3.241   1.987   0.917   0.122  -0.191
   0.030   0.420   0.497   0.210   0.015   0.350   1.167   1.991   2.331   1.991
   1.167   0.350   0.015   0.210   0.497   0.420   0.030  -0.191   0.122   0.917
   1.987   3.241   4.540   5.483   5.703   5.378   5.149   5.378   5.703   5.483
   4.540   3.241   1.987   0.917   0.122  -0.191   0.030   0.420   0.497   0.210
   0.015   0.350   1.167   1.991   2.331   1.991   1.167   0.350   0.015   0.210
   0.497   0.420   0.030  -0.191   0.122   0.917   1.987   3.241   4.540   5.483
   5.703   5.378
TEXTURE_INDEX=   7.8724
ERR_CF 220         1080     440  124.28   28.79
ERR_CF 200         1080     258  107.09   23.47
ERR_CF 111         1034     264  418.26   21.48
