TEXEVAL                                                                         
Analysis started on 21-Sep-20 10:34:26                                          
 LMAX=14LFMAX=03 CUBIC ORTHO   
 220      5.00 5.00
 200      5.00 5.00
 111      5.00 5.00
 220       5.00   72    0 5.00   15    0
   1.685   1.685   1.685   1.685   1.685   1.685   1.685   1.685   1.685   1.685
   1.685   1.685   1.685   1.685   1.685   1.685   1.685   1.685   1.685   1.685
   1.685   1.685   1.685   1.685   1.685   1.685   1.685   1.685   1.685   1.685
   1.685   1.685   1.685   1.685   1.685   1.685   1.685   1.685   1.685   1.685
   1.685   1.685   1.685   1.685   1.685   1.685   1.685   1.685   1.685   1.685
   1.685   1.685   1.685   1.685   1.685   1.685   1.685   1.685   1.685   1.685
   1.685   1.685   1.685   1.685   1.685   1.685   1.685   1.685   1.685   1.685
   1.685   1.685
   1.127   1.159   1.187   1.149   1.246   1.226   1.300   1.337   1.359   1.443
   1.517   1.539   1.591   1.670   1.749   1.727   1.769   1.833   1.913   1.833
   1.769   1.727   1.749   1.670   1.591   1.539   1.517   1.443   1.359   1.337
   1.300   1.226   1.246   1.149   1.187   1.159   1.127   1.159   1.187   1.149
   1.246   1.226   1.300   1.337   1.359   1.443   1.517   1.539   1.591   1.670
   1.749   1.727   1.769   1.833   1.913   1.833   1.769   1.727   1.749   1.670
   1.591   1.539   1.517   1.443   1.359   1.337   1.300   1.226   1.246   1.149
   1.187   1.159
   0.784   0.780   0.808   0.848   0.951   0.823   0.953   0.974   0.988   1.091
   1.204   1.317   1.425   1.573   1.753   1.826   1.911   2.067   2.184   2.067
   1.911   1.826   1.753   1.573   1.425   1.317   1.204   1.091   0.988   0.974
   0.953   0.823   0.951   0.848   0.808   0.780   0.784   0.780   0.808   0.848
   0.951   0.823   0.953   0.974   0.988   1.091   1.204   1.317   1.425   1.573
   1.753   1.826   1.911   2.067   2.184   2.067   1.911   1.826   1.753   1.573
   1.425   1.317   1.204   1.091   0.988   0.974   0.953   0.823   0.951   0.848
   0.808   0.780
   0.686   0.583   0.613   0.701   0.788   0.598   0.716   0.751   0.729   0.847
   0.894   1.115   1.225   1.525   1.679   1.898   2.010   2.334   2.327   2.334
   2.010   1.898   1.679   1.525   1.225   1.115   0.894   0.847   0.729   0.751
   0.716   0.598   0.788   0.701   0.613   0.583   0.686   0.583   0.613   0.701
   0.788   0.598   0.716   0.751   0.729   0.847   0.894   1.115   1.225   1.525
   1.679   1.898   2.010   2.334   2.327   2.334   2.010   1.898   1.679   1.525
   1.225   1.115   0.894   0.847   0.729   0.751   0.716   0.598   0.788   0.701
   0.613   0.583
   0.607   0.599   0.539   0.611   0.611   0.608   0.643   0.670   0.741   0.826
   0.912   1.072   1.268   1.509   1.562   1.936   2.108   2.535   2.379   2.535
   2.108   1.936   1.562   1.509   1.268   1.072   0.912   0.826   0.741   0.670
   0.643   0.608   0.611   0.611   0.539   0.599   0.607   0.599   0.539   0.611
   0.611   0.608   0.643   0.670   0.741   0.826   0.912   1.072   1.268   1.509
   1.562   1.936   2.108   2.535   2.379   2.535   2.108   1.936   1.562   1.509
   1.268   1.072   0.912   0.826   0.741   0.670   0.643   0.608   0.611   0.611
   0.539   0.599
   0.595   0.649   0.468   0.510   0.574   0.662   0.684   0.710   0.772   0.922
   1.031   1.141   1.432   1.754   1.793   2.068   1.993   2.570   2.298   2.570
   1.993   2.068   1.793   1.754   1.432   1.141   1.031   0.922   0.772   0.710
   0.684   0.662   0.574   0.510   0.468   0.649   0.595   0.649   0.468   0.510
   0.574   0.662   0.684   0.710   0.772   0.922   1.031   1.141   1.432   1.754
   1.793   2.068   1.993   2.570   2.298   2.570   1.993   2.068   1.793   1.754
   1.432   1.141   1.031   0.922   0.772   0.710   0.684   0.662   0.574   0.510
   0.468   0.649
   0.526   0.636   0.485   0.543   0.573   0.618   0.668   0.857   0.916   1.004
   1.040   1.214   1.533   1.832   1.797   1.925   1.681   2.074   1.947   2.074
   1.681   1.925   1.797   1.832   1.533   1.214   1.040   1.004   0.916   0.857
   0.668   0.618   0.573   0.543   0.485   0.636   0.526   0.636   0.485   0.543
   0.573   0.618   0.668   0.857   0.916   1.004   1.040   1.214   1.533   1.832
   1.797   1.925   1.681   2.074   1.947   2.074   1.681   1.925   1.797   1.832
   1.533   1.214   1.040   1.004   0.916   0.857   0.668   0.618   0.573   0.543
   0.485   0.636
   0.455   0.735   0.681   0.567   0.568   0.599   0.714   0.809   1.041   1.004
   1.072   1.109   1.547   1.536   1.451   1.464   1.385   1.377   1.457   1.377
   1.385   1.464   1.451   1.536   1.547   1.109   1.072   1.004   1.041   0.809
   0.714   0.599   0.568   0.567   0.681   0.735   0.455   0.735   0.681   0.567
   0.568   0.599   0.714   0.809   1.041   1.004   1.072   1.109   1.547   1.536
   1.451   1.464   1.385   1.377   1.457   1.377   1.385   1.464   1.451   1.536
   1.547   1.109   1.072   1.004   1.041   0.809   0.714   0.599   0.568   0.567
   0.681   0.735
   0.661   0.797   0.809   0.663   0.835   0.675   0.816   0.734   0.819   0.943
   1.052   1.019   1.345   1.383   1.411   1.154   1.007   1.098   0.966   1.098
   1.007   1.154   1.411   1.383   1.345   1.019   1.052   0.943   0.819   0.734
   0.816   0.675   0.835   0.663   0.809   0.797   0.661   0.797   0.809   0.663
   0.835   0.675   0.816   0.734   0.819   0.943   1.052   1.019   1.345   1.383
   1.411   1.154   1.007   1.098   0.966   1.098   1.007   1.154   1.411   1.383
   1.345   1.019   1.052   0.943   0.819   0.734   0.816   0.675   0.835   0.663
   0.809   0.797
   1.128   0.897   0.832   0.956   0.925   0.831   0.765   0.851   0.728   0.974
   0.973   0.961   0.990   1.252   1.167   1.038   0.777   0.898   0.646   0.898
   0.777   1.038   1.167   1.252   0.990   0.961   0.973   0.974   0.728   0.851
   0.765   0.831   0.925   0.956   0.832   0.897   1.128   0.897   0.832   0.956
   0.925   0.831   0.765   0.851   0.728   0.974   0.973   0.961   0.990   1.252
   1.167   1.038   0.777   0.898   0.646   0.898   0.777   1.038   1.167   1.252
   0.990   0.961   0.973   0.974   0.728   0.851   0.765   0.831   0.925   0.956
   0.832   0.897
   1.613   1.225   1.156   1.483   1.051   1.122   0.831   0.952   0.807   1.036
   0.864   0.825   0.896   1.058   1.082   0.951   0.705   0.743   0.492   0.743
   0.705   0.951   1.082   1.058   0.896   0.825   0.864   1.036   0.807   0.952
   0.831   1.122   1.051   1.483   1.156   1.225   1.613   1.225   1.156   1.483
   1.051   1.122   0.831   0.952   0.807   1.036   0.864   0.825   0.896   1.058
   1.082   0.951   0.705   0.743   0.492   0.743   0.705   0.951   1.082   1.058
   0.896   0.825   0.864   1.036   0.807   0.952   0.831   1.122   1.051   1.483
   1.156   1.225
   2.337   1.759   1.982   1.847   1.492   1.363   1.076   1.337   0.974   1.031
   0.792   0.778   1.054   0.940   1.284   0.996   0.644   0.711   0.609   0.711
   0.644   0.996   1.284   0.940   1.054   0.778   0.792   1.031   0.974   1.337
   1.076   1.363   1.492   1.847   1.982   1.759   2.337   1.759   1.982   1.847
   1.492   1.363   1.076   1.337   0.974   1.031   0.792   0.778   1.054   0.940
   1.284   0.996   0.644   0.711   0.609   0.711   0.644   0.996   1.284   0.940
   1.054   0.778   0.792   1.031   0.974   1.337   1.076   1.363   1.492   1.847
   1.982   1.759
   2.649   2.280   2.380   1.884   1.677   1.367   1.174   1.371   1.238   0.951
   0.767   0.864   1.124   0.937   0.930   0.872   0.746   0.652   0.592   0.652
   0.746   0.872   0.930   0.937   1.124   0.864   0.767   0.951   1.238   1.371
   1.174   1.367   1.677   1.884   2.380   2.280   2.649   2.280   2.380   1.884
   1.677   1.367   1.174   1.371   1.238   0.951   0.767   0.864   1.124   0.937
   0.930   0.872   0.746   0.652   0.592   0.652   0.746   0.872   0.930   0.937
   1.124   0.864   0.767   0.951   1.238   1.371   1.174   1.367   1.677   1.884
   2.380   2.280
   1.734   1.952   1.689   1.567   1.570   0.937   0.877   1.124   1.028   0.933
   0.871   1.084   1.036   0.821   0.595   0.804   0.836   0.541   0.849   0.541
   0.836   0.804   0.595   0.821   1.036   1.084   0.871   0.933   1.028   1.124
   0.877   0.937   1.570   1.567   1.689   1.952   1.734   1.952   1.689   1.567
   1.570   0.937   0.877   1.124   1.028   0.933   0.871   1.084   1.036   0.821
   0.595   0.804   0.836   0.541   0.849   0.541   0.836   0.804   0.595   0.821
   1.036   1.084   0.871   0.933   1.028   1.124   0.877   0.937   1.570   1.567
   1.689   1.952
   0.700   1.375   1.115   0.919   0.986   0.594   0.672   0.904   0.712   0.855
   0.933   0.894   0.721   0.702   0.904   1.076   0.688   0.477   0.922   0.477
   0.688   1.076   0.904   0.702   0.721   0.894   0.933   0.855   0.712   0.904
   0.672   0.594   0.986   0.919   1.115   1.375   0.700   1.375   1.115   0.919
   0.986   0.594   0.672   0.904   0.712   0.855   0.933   0.894   0.721   0.702
   0.904   1.076   0.688   0.477   0.922   0.477   0.688   1.076   0.904   0.702
   0.721   0.894   0.933   0.855   0.712   0.904   0.672   0.594   0.986   0.919
   1.115   1.375
 200       5.00   72    0 5.00   15    0
   1.866   1.866   1.866   1.866   1.866   1.866   1.866   1.866   1.866   1.866
   1.866   1.866   1.866   1.866   1.866   1.866   1.866   1.866   1.866   1.866
   1.866   1.866   1.866   1.866   1.866   1.866   1.866   1.866   1.866   1.866
   1.866   1.866   1.866   1.866   1.866   1.866   1.866   1.866   1.866   1.866
   1.866   1.866   1.866   1.866   1.866   1.866   1.866   1.866   1.866   1.866
   1.866   1.866   1.866   1.866   1.866   1.866   1.866   1.866   1.866   1.866
   1.866   1.866   1.866   1.866   1.866   1.866   1.866   1.866   1.866   1.866
   1.866   1.866
   1.997   2.127   1.939   1.988   2.025   1.931   1.941   1.790   1.858   1.702
   1.686   1.661   1.648   1.649   1.528   1.506   1.602   1.527   1.606   1.527
   1.602   1.506   1.528   1.649   1.648   1.661   1.686   1.702   1.858   1.790
   1.941   1.931   2.025   1.988   1.939   2.127   1.997   2.127   1.939   1.988
   2.025   1.931   1.941   1.790   1.858   1.702   1.686   1.661   1.648   1.649
   1.528   1.506   1.602   1.527   1.606   1.527   1.602   1.506   1.528   1.649
   1.648   1.661   1.686   1.702   1.858   1.790   1.941   1.931   2.025   1.988
   1.939   2.127
   2.109   2.168   2.040   1.978   1.968   1.874   1.772   1.658   1.569   1.498
   1.388   1.340   1.305   1.249   1.214   1.218   1.266   1.241   1.214   1.241
   1.266   1.218   1.214   1.249   1.305   1.340   1.388   1.498   1.569   1.658
   1.772   1.874   1.968   1.978   2.040   2.168   2.109   2.168   2.040   1.978
   1.968   1.874   1.772   1.658   1.569   1.498   1.388   1.340   1.305   1.249
   1.214   1.218   1.266   1.241   1.214   1.241   1.266   1.218   1.214   1.249
   1.305   1.340   1.388   1.498   1.569   1.658   1.772   1.874   1.968   1.978
   2.040   2.168
   2.348   2.392   2.381   2.241   2.065   1.942   1.781   1.636   1.470   1.386
   1.254   1.258   1.171   1.137   1.040   1.067   1.033   0.966   0.909   0.966
   1.033   1.067   1.040   1.137   1.171   1.258   1.254   1.386   1.470   1.636
   1.781   1.942   2.065   2.241   2.381   2.392   2.348   2.392   2.381   2.241
   2.065   1.942   1.781   1.636   1.470   1.386   1.254   1.258   1.171   1.137
   1.040   1.067   1.033   0.966   0.909   0.966   1.033   1.067   1.040   1.137
   1.171   1.258   1.254   1.386   1.470   1.636   1.781   1.942   2.065   2.241
   2.381   2.392
   2.479   2.688   2.704   2.523   2.208   2.095   1.820   1.609   1.466   1.277
   1.264   1.232   1.070   1.067   0.936   0.897   0.897   0.858   0.808   0.858
   0.897   0.897   0.936   1.067   1.070   1.232   1.264   1.277   1.466   1.609
   1.820   2.095   2.208   2.523   2.704   2.688   2.479   2.688   2.704   2.523
   2.208   2.095   1.820   1.609   1.466   1.277   1.264   1.232   1.070   1.067
   0.936   0.897   0.897   0.858   0.808   0.858   0.897   0.897   0.936   1.067
   1.070   1.232   1.264   1.277   1.466   1.609   1.820   2.095   2.208   2.523
   2.704   2.688
   2.086   2.312   2.367   2.203   1.953   1.840   1.833   1.580   1.461   1.330
   1.272   1.151   0.972   0.933   0.855   0.792   0.801   0.854   0.676   0.854
   0.801   0.792   0.855   0.933   0.972   1.151   1.272   1.330   1.461   1.580
   1.833   1.840   1.953   2.203   2.367   2.312   2.086   2.312   2.367   2.203
   1.953   1.840   1.833   1.580   1.461   1.330   1.272   1.151   0.972   0.933
   0.855   0.792   0.801   0.854   0.676   0.854   0.801   0.792   0.855   0.933
   0.972   1.151   1.272   1.330   1.461   1.580   1.833   1.840   1.953   2.203
   2.367   2.312
   1.341   1.499   1.496   1.549   1.369   1.354   1.626   1.456   1.436   1.393
   1.277   1.136   1.052   0.934   0.852   0.824   0.731   0.665   0.572   0.665
   0.731   0.824   0.852   0.934   1.052   1.136   1.277   1.393   1.436   1.456
   1.626   1.354   1.369   1.549   1.496   1.499   1.341   1.499   1.496   1.549
   1.369   1.354   1.626   1.456   1.436   1.393   1.277   1.136   1.052   0.934
   0.852   0.824   0.731   0.665   0.572   0.665   0.731   0.824   0.852   0.934
   1.052   1.136   1.277   1.393   1.436   1.456   1.626   1.354   1.369   1.549
   1.496   1.499
   0.684   0.856   0.693   0.811   0.808   0.934   1.110   1.131   1.297   1.335
   1.254   1.166   1.014   0.880   0.818   0.788   0.659   0.490   0.573   0.490
   0.659   0.788   0.818   0.880   1.014   1.166   1.254   1.335   1.297   1.131
   1.110   0.934   0.808   0.811   0.693   0.856   0.684   0.856   0.693   0.811
   0.808   0.934   1.110   1.131   1.297   1.335   1.254   1.166   1.014   0.880
   0.818   0.788   0.659   0.490   0.573   0.490   0.659   0.788   0.818   0.880
   1.014   1.166   1.254   1.335   1.297   1.131   1.110   0.934   0.808   0.811
   0.693   0.856
   0.332   0.600   0.358   0.363   0.564   0.585   0.621   0.782   0.979   1.180
   1.199   1.201   0.847   0.759   0.666   0.602   0.625   0.448   0.471   0.448
   0.625   0.602   0.666   0.759   0.847   1.201   1.199   1.180   0.979   0.782
   0.621   0.585   0.564   0.363   0.358   0.600   0.332   0.600   0.358   0.363
   0.564   0.585   0.621   0.782   0.979   1.180   1.199   1.201   0.847   0.759
   0.666   0.602   0.625   0.448   0.471   0.448   0.625   0.602   0.666   0.759
   0.847   1.201   1.199   1.180   0.979   0.782   0.621   0.585   0.564   0.363
   0.358   0.600
   0.207   0.446   0.350   0.440   0.407   0.401   0.377   0.631   0.707   0.980
   1.211   1.189   1.058   0.810   0.714   0.569   0.558   0.441   0.549   0.441
   0.558   0.569   0.714   0.810   1.058   1.189   1.211   0.980   0.707   0.631
   0.377   0.401   0.407   0.440   0.350   0.446   0.207   0.446   0.350   0.440
   0.407   0.401   0.377   0.631   0.707   0.980   1.211   1.189   1.058   0.810
   0.714   0.569   0.558   0.441   0.549   0.441   0.558   0.569   0.714   0.810
   1.058   1.189   1.211   0.980   0.707   0.631   0.377   0.401   0.407   0.440
   0.350   0.446
   0.274   0.315   0.320   0.374   0.326   0.315   0.388   0.602   0.628   0.856
   0.998   1.147   1.228   0.994   0.746   0.658   0.569   0.543   0.590   0.543
   0.569   0.658   0.746   0.994   1.228   1.147   0.998   0.856   0.628   0.602
   0.388   0.315   0.326   0.374   0.320   0.315   0.274   0.315   0.320   0.374
   0.326   0.315   0.388   0.602   0.628   0.856   0.998   1.147   1.228   0.994
   0.746   0.658   0.569   0.543   0.590   0.543   0.569   0.658   0.746   0.994
   1.228   1.147   0.998   0.856   0.628   0.602   0.388   0.315   0.326   0.374
   0.320   0.315
   0.416   0.328   0.239   0.271   0.395   0.318   0.434   0.557   0.698   0.836
   1.076   1.010   1.222   1.164   0.849   0.684   0.678   0.614   0.615   0.614
   0.678   0.684   0.849   1.164   1.222   1.010   1.076   0.836   0.698   0.557
   0.434   0.318   0.395   0.271   0.239   0.328   0.416   0.328   0.239   0.271
   0.395   0.318   0.434   0.557   0.698   0.836   1.076   1.010   1.222   1.164
   0.849   0.684   0.678   0.614   0.615   0.614   0.678   0.684   0.849   1.164
   1.222   1.010   1.076   0.836   0.698   0.557   0.434   0.318   0.395   0.271
   0.239   0.328
   0.457   0.450   0.411   0.418   0.389   0.420   0.583   0.636   0.729   0.824
   1.300   1.223   1.402   1.201   0.910   0.613   0.652   0.561   0.835   0.561
   0.652   0.613   0.910   1.201   1.402   1.223   1.300   0.824   0.729   0.636
   0.583   0.420   0.389   0.418   0.411   0.450   0.457   0.450   0.411   0.418
   0.389   0.420   0.583   0.636   0.729   0.824   1.300   1.223   1.402   1.201
   0.910   0.613   0.652   0.561   0.835   0.561   0.652   0.613   0.910   1.201
   1.402   1.223   1.300   0.824   0.729   0.636   0.583   0.420   0.389   0.418
   0.411   0.450
   0.515   0.532   0.499   0.514   0.595   0.534   0.948   0.876   0.881   1.137
   1.257   1.571   1.245   1.019   0.738   0.590   0.588   0.521   0.899   0.521
   0.588   0.590   0.738   1.019   1.245   1.571   1.257   1.137   0.881   0.876
   0.948   0.534   0.595   0.514   0.499   0.532   0.515   0.532   0.499   0.514
   0.595   0.534   0.948   0.876   0.881   1.137   1.257   1.571   1.245   1.019
   0.738   0.590   0.588   0.521   0.899   0.521   0.588   0.590   0.738   1.019
   1.245   1.571   1.257   1.137   0.881   0.876   0.948   0.534   0.595   0.514
   0.499   0.532
   0.495   0.415   0.323   0.415   0.607   0.529   0.908   1.339   1.024   1.341
   1.101   1.399   0.823   1.048   0.516   0.616   0.484   0.434   0.709   0.434
   0.484   0.616   0.516   1.048   0.823   1.399   1.101   1.341   1.024   1.339
   0.908   0.529   0.607   0.415   0.323   0.415   0.495   0.415   0.323   0.415
   0.607   0.529   0.908   1.339   1.024   1.341   1.101   1.399   0.823   1.048
   0.516   0.616   0.484   0.434   0.709   0.434   0.484   0.616   0.516   1.048
   0.823   1.399   1.101   1.341   1.024   1.339   0.908   0.529   0.607   0.415
   0.323   0.415
 111       5.00   72    0 5.00   15    0
   0.339   0.339   0.339   0.339   0.339   0.339   0.339   0.339   0.339   0.339
   0.339   0.339   0.339   0.339   0.339   0.339   0.339   0.339   0.339   0.339
   0.339   0.339   0.339   0.339   0.339   0.339   0.339   0.339   0.339   0.339
   0.339   0.339   0.339   0.339   0.339   0.339   0.339   0.339   0.339   0.339
   0.339   0.339   0.339   0.339   0.339   0.339   0.339   0.339   0.339   0.339
   0.339   0.339   0.339   0.339   0.339   0.339   0.339   0.339   0.339   0.339
   0.339   0.339   0.339   0.339   0.339   0.339   0.339   0.339   0.339   0.339
   0.339   0.339
   0.399   0.396   0.405   0.427   0.409   0.411   0.465   0.406   0.405   0.411
   0.355   0.414   0.392   0.400   0.350   0.365   0.362   0.393   0.347   0.393
   0.362   0.365   0.350   0.400   0.392   0.414   0.355   0.411   0.405   0.406
   0.465   0.411   0.409   0.427   0.405   0.396   0.399   0.396   0.405   0.427
   0.409   0.411   0.465   0.406   0.405   0.411   0.355   0.414   0.392   0.400
   0.350   0.365   0.362   0.393   0.347   0.393   0.362   0.365   0.350   0.400
   0.392   0.414   0.355   0.411   0.405   0.406   0.465   0.411   0.409   0.427
   0.405   0.396
   0.624   0.542   0.513   0.518   0.483   0.512   0.587   0.448   0.506   0.441
   0.385   0.434   0.387   0.425   0.380   0.391   0.341   0.380   0.340   0.380
   0.341   0.391   0.380   0.425   0.387   0.434   0.385   0.441   0.506   0.448
   0.587   0.512   0.483   0.518   0.513   0.542   0.624   0.542   0.513   0.518
   0.483   0.512   0.587   0.448   0.506   0.441   0.385   0.434   0.387   0.425
   0.380   0.391   0.341   0.380   0.340   0.380   0.341   0.391   0.380   0.425
   0.387   0.434   0.385   0.441   0.506   0.448   0.587   0.512   0.483   0.518
   0.513   0.542
   1.013   0.901   0.885   0.827   0.764   0.659   0.675   0.651   0.599   0.493
   0.449   0.428   0.397   0.449   0.523   0.434   0.343   0.369   0.314   0.369
   0.343   0.434   0.523   0.449   0.397   0.428   0.449   0.493   0.599   0.651
   0.675   0.659   0.764   0.827   0.885   0.901   1.013   0.901   0.885   0.827
   0.764   0.659   0.675   0.651   0.599   0.493   0.449   0.428   0.397   0.449
   0.523   0.434   0.343   0.369   0.314   0.369   0.343   0.434   0.523   0.449
   0.397   0.428   0.449   0.493   0.599   0.651   0.675   0.659   0.764   0.827
   0.885   0.901
   1.848   1.880   1.760   1.551   1.318   1.039   1.000   0.876   0.753   0.612
   0.539   0.551   0.566   0.482   0.541   0.442   0.348   0.385   0.343   0.385
   0.348   0.442   0.541   0.482   0.566   0.551   0.539   0.612   0.753   0.876
   1.000   1.039   1.318   1.551   1.760   1.880   1.848   1.880   1.760   1.551
   1.318   1.039   1.000   0.876   0.753   0.612   0.539   0.551   0.566   0.482
   0.541   0.442   0.348   0.385   0.343   0.385   0.348   0.442   0.541   0.482
   0.566   0.551   0.539   0.612   0.753   0.876   1.000   1.039   1.318   1.551
   1.760   1.880
   3.138   3.126   2.844   2.459   2.040   1.711   1.410   1.113   0.979   0.843
   0.724   0.659   0.627   0.508   0.449   0.392   0.373   0.381   0.387   0.381
   0.373   0.392   0.449   0.508   0.627   0.659   0.724   0.843   0.979   1.113
   1.410   1.711   2.040   2.459   2.844   3.126   3.138   3.126   2.844   2.459
   2.040   1.711   1.410   1.113   0.979   0.843   0.724   0.659   0.627   0.508
   0.449   0.392   0.373   0.381   0.387   0.381   0.373   0.392   0.449   0.508
   0.627   0.659   0.724   0.843   0.979   1.113   1.410   1.711   2.040   2.459
   2.844   3.126
   3.307   3.175   3.000   2.804   2.318   2.109   1.812   1.608   1.392   1.261
   1.025   0.852   0.594   0.597   0.512   0.438   0.432   0.426   0.431   0.426
   0.432   0.438   0.512   0.597   0.594   0.852   1.025   1.261   1.392   1.608
   1.812   2.109   2.318   2.804   3.000   3.175   3.307   3.175   3.000   2.804
   2.318   2.109   1.812   1.608   1.392   1.261   1.025   0.852   0.594   0.597
   0.512   0.438   0.432   0.426   0.431   0.426   0.432   0.438   0.512   0.597
   0.594   0.852   1.025   1.261   1.392   1.608   1.812   2.109   2.318   2.804
   3.000   3.175
   2.148   2.196   2.197   2.299   2.024   1.807   1.905   1.782   1.673   1.611
   1.265   1.147   0.806   0.785   0.632   0.596   0.547   0.557   0.560   0.557
   0.547   0.596   0.632   0.785   0.806   1.147   1.265   1.611   1.673   1.782
   1.905   1.807   2.024   2.299   2.197   2.196   2.148   2.196   2.197   2.299
   2.024   1.807   1.905   1.782   1.673   1.611   1.265   1.147   0.806   0.785
   0.632   0.596   0.547   0.557   0.560   0.557   0.547   0.596   0.632   0.785
   0.806   1.147   1.265   1.611   1.673   1.782   1.905   1.807   2.024   2.299
   2.197   2.196
   1.195   1.369   1.474   1.462   1.465   1.294   1.451   1.436   1.404   1.567
   1.419   1.339   1.079   0.991   0.705   0.704   0.708   0.851   0.735   0.851
   0.708   0.704   0.705   0.991   1.079   1.339   1.419   1.567   1.404   1.436
   1.451   1.294   1.465   1.462   1.474   1.369   1.195   1.369   1.474   1.462
   1.465   1.294   1.451   1.436   1.404   1.567   1.419   1.339   1.079   0.991
   0.705   0.704   0.708   0.851   0.735   0.851   0.708   0.704   0.705   0.991
   1.079   1.339   1.419   1.567   1.404   1.436   1.451   1.294   1.465   1.462
   1.474   1.369
   0.884   0.963   1.077   0.967   1.016   0.959   0.988   1.038   1.170   1.439
   1.516   1.505   1.269   1.092   0.898   0.927   0.965   1.045   1.030   1.045
   0.965   0.927   0.898   1.092   1.269   1.505   1.516   1.439   1.170   1.038
   0.988   0.959   1.016   0.967   1.077   0.963   0.884   0.963   1.077   0.967
   1.016   0.959   0.988   1.038   1.170   1.439   1.516   1.505   1.269   1.092
   0.898   0.927   0.965   1.045   1.030   1.045   0.965   0.927   0.898   1.092
   1.269   1.505   1.516   1.439   1.170   1.038   0.988   0.959   1.016   0.967
   1.077   0.963
   0.754   0.849   0.898   0.735   0.817   0.769   0.734   0.808   0.988   1.243
   1.366   1.409   1.397   1.380   1.307   1.272   1.199   1.171   1.354   1.171
   1.199   1.272   1.307   1.380   1.397   1.409   1.366   1.243   0.988   0.807
   0.734   0.769   0.817   0.735   0.898   0.849   0.754   0.849   0.898   0.735
   0.817   0.769   0.734   0.808   0.988   1.243   1.366   1.409   1.397   1.380
   1.307   1.272   1.199   1.171   1.354   1.171   1.199   1.272   1.307   1.380
   1.397   1.409   1.366   1.243   0.988   0.808   0.734   0.769   0.817   0.735
   0.898   0.849
   0.666   0.823   0.662   0.571   0.753   0.626   0.697   0.714   0.699   0.909
   1.039   1.182   1.393   1.662   1.688   1.423   1.466   1.429   1.577   1.429
   1.466   1.423   1.688   1.662   1.393   1.182   1.039   0.909   0.699   0.714
   0.697   0.626   0.753   0.571   0.662   0.823   0.666   0.823   0.662   0.571
   0.753   0.626   0.697   0.714   0.699   0.909   1.039   1.182   1.393   1.662
   1.688   1.423   1.466   1.429   1.577   1.429   1.466   1.423   1.688   1.662
   1.393   1.182   1.039   0.909   0.699   0.714   0.697   0.626   0.753   0.571
   0.662   0.823
   0.688   0.804   0.508   0.540   0.746   0.581   0.662   0.692   0.600   0.657
   0.778   1.055   1.102   1.590   1.750   1.381   1.649   1.605   1.685   1.605
   1.649   1.381   1.750   1.590   1.102   1.055   0.778   0.657   0.600   0.692
   0.662   0.581   0.746   0.540   0.508   0.804   0.688   0.804   0.508   0.540
   0.746   0.581   0.662   0.692   0.600   0.657   0.778   1.055   1.102   1.590
   1.750   1.381   1.649   1.605   1.685   1.605   1.649   1.381   1.750   1.590
   1.102   1.055   0.778   0.657   0.600   0.692   0.662   0.581   0.746   0.540
   0.508   0.804
   0.779   0.856   0.614   0.736   0.803   0.657   0.741   0.637   0.717   0.558
   0.647   0.770   0.868   1.156   1.308   1.215   1.552   1.690   1.810   1.690
   1.552   1.215   1.308   1.156   0.868   0.770   0.647   0.558   0.717   0.637
   0.741   0.657   0.803   0.736   0.614   0.856   0.779   0.856   0.614   0.736
   0.803   0.657   0.741   0.637   0.717   0.558   0.647   0.770   0.868   1.156
   1.308   1.215   1.552   1.690   1.810   1.690   1.552   1.215   1.308   1.156
   0.868   0.770   0.647   0.558   0.717   0.637   0.741   0.657   0.803   0.736
   0.614   0.856
   0.918   1.217   0.841   0.908   1.050   0.719   0.660   0.703   0.857   0.606
   0.727   0.695   0.726   0.855   0.780   0.928   1.143   1.662   1.888   1.662
   1.143   0.928   0.780   0.855   0.726   0.695   0.727   0.606   0.857   0.703
   0.660   0.719   1.050   0.908   0.841   1.217   0.918   1.217   0.841   0.908
   1.050   0.719   0.660   0.703   0.857   0.606   0.727   0.695   0.726   0.855
   0.780   0.928   1.143   1.662   1.888   1.662   1.143   0.928   0.780   0.855
   0.726   0.695   0.727   0.606   0.857   0.703   0.660   0.719   1.050   0.908
   0.841   1.217
  4  1      1.0371457E+00
  4  2     -1.8595274E-01
  4  3     -8.3131066E-01
  6  1      6.8396807E-01
  6  2     -2.0588349E+00
  6  3      2.8318677E-01
  6  4      2.3712580E-01
  8  1     -1.2870470E-01
  8  2      3.3744760E-01
  8  3     -1.0610550E-01
  8  4      6.3933951E-01
  8  5      2.0510679E-01
 10  1      2.3584722E-01
 10  2     -5.3760003E-01
 10  3      3.9652280E-01
 10  4      1.5205396E-01
 10  5     -9.2597922E-03
 10  6     -2.6771442E-01
 12  1      3.2232285E-02  7.6609443E-01
 12  2      1.4561956E-01 -4.2358252E-01
 12  3      1.5585183E-01  8.7099700E-01
 12  4     -4.4852116E-02 -5.8218426E-02
 12  5      8.2160002E-02 -8.4440458E-02
 12  6     -3.0979552E-01  4.7530931E-02
 12  7      1.9617747E-01  2.3537857E-02
 14  1     -1.6781889E-01
 14  2      2.7292246E-01
 14  3     -5.9636504E-02
 14  4     -1.2195806E-01
 14  5     -3.4043777E-01
 14  6      1.4226485E-01
 14  7     -2.4172128E-01
 14  8      1.5902839E-01
 220       5.00   72    0 5.00   18    0
   1.427   1.427   1.428   1.430   1.432   1.434   1.437   1.440   1.444   1.447
   1.451   1.455   1.458   1.461   1.463   1.465   1.467   1.468   1.468   1.468
   1.467   1.465   1.463   1.461   1.458   1.455   1.451   1.447   1.444   1.440
   1.437   1.434   1.432   1.430   1.428   1.427   1.427   1.427   1.428   1.430
   1.432   1.434   1.437   1.440   1.444   1.447   1.451   1.455   1.458   1.461
   1.463   1.465   1.467   1.468   1.468   1.468   1.467   1.465   1.463   1.461
   1.458   1.455   1.451   1.447   1.444   1.440   1.437   1.434   1.432   1.430
   1.428   1.427
   1.096   1.098   1.104   1.115   1.129   1.148   1.170   1.195   1.222   1.251
   1.282   1.312   1.341   1.368   1.392   1.412   1.426   1.436   1.439   1.436
   1.426   1.412   1.392   1.368   1.341   1.312   1.282   1.251   1.222   1.195
   1.170   1.148   1.129   1.115   1.104   1.098   1.096   1.098   1.104   1.115
   1.129   1.148   1.170   1.195   1.222   1.251   1.282   1.312   1.341   1.368
   1.392   1.412   1.426   1.436   1.439   1.436   1.426   1.412   1.392   1.368
   1.341   1.312   1.282   1.251   1.222   1.195   1.170   1.148   1.129   1.115
   1.104   1.098
   0.653   0.656   0.666   0.683   0.708   0.741   0.782   0.832   0.891   0.958
   1.031   1.107   1.183   1.257   1.324   1.380   1.423   1.450   1.459   1.450
   1.423   1.380   1.324   1.257   1.183   1.107   1.031   0.958   0.891   0.832
   0.782   0.741   0.708   0.683   0.666   0.656   0.653   0.656   0.666   0.683
   0.708   0.741   0.782   0.832   0.891   0.958   1.031   1.107   1.183   1.257
   1.324   1.380   1.423   1.450   1.459   1.450   1.423   1.380   1.324   1.257
   1.183   1.107   1.031   0.958   0.891   0.832   0.782   0.741   0.708   0.683
   0.666   0.656
   0.363   0.365   0.371   0.383   0.403   0.433   0.477   0.537   0.615   0.711
   0.823   0.947   1.079   1.209   1.331   1.436   1.517   1.567   1.585   1.567
   1.517   1.436   1.331   1.209   1.079   0.947   0.823   0.711   0.615   0.537
   0.477   0.433   0.403   0.383   0.371   0.365   0.363   0.365   0.371   0.383
   0.403   0.433   0.477   0.537   0.615   0.711   0.823   0.947   1.079   1.209
   1.331   1.436   1.517   1.567   1.585   1.567   1.517   1.436   1.331   1.209
   1.079   0.947   0.823   0.711   0.615   0.537   0.477   0.433   0.403   0.383
   0.371   0.365
   0.327   0.327   0.328   0.330   0.337   0.353   0.383   0.434   0.510   0.614
   0.747   0.904   1.075   1.249   1.413   1.555   1.664   1.732   1.756   1.732
   1.664   1.555   1.413   1.249   1.075   0.904   0.747   0.614   0.510   0.434
   0.383   0.353   0.337   0.330   0.328   0.327   0.327   0.327   0.328   0.330
   0.337   0.353   0.383   0.434   0.510   0.614   0.747   0.904   1.075   1.249
   1.413   1.555   1.664   1.732   1.756   1.732   1.664   1.555   1.413   1.249
   1.075   0.904   0.747   0.614   0.510   0.434   0.383   0.353   0.337   0.330
   0.328   0.327
   0.428   0.430   0.434   0.441   0.448   0.459   0.478   0.515   0.578   0.675
   0.807   0.969   1.149   1.330   1.497   1.635   1.738   1.800   1.820   1.800
   1.738   1.635   1.497   1.330   1.149   0.969   0.807   0.675   0.578   0.515
   0.478   0.459   0.448   0.441   0.434   0.430   0.428   0.430   0.434   0.441
   0.448   0.459   0.478   0.515   0.578   0.675   0.807   0.969   1.149   1.330
   1.497   1.635   1.738   1.800   1.820   1.800   1.738   1.635   1.497   1.330
   1.149   0.969   0.807   0.675   0.578   0.515   0.478   0.459   0.448   0.441
   0.434   0.430
   0.480   0.489   0.511   0.541   0.572   0.599   0.627   0.662   0.718   0.805
   0.925   1.074   1.234   1.384   1.506   1.590   1.639   1.661   1.667   1.661
   1.639   1.590   1.506   1.384   1.234   1.074   0.925   0.805   0.718   0.662
   0.627   0.599   0.572   0.541   0.511   0.489   0.480   0.489   0.511   0.541
   0.572   0.599   0.627   0.662   0.718   0.805   0.925   1.074   1.234   1.384
   1.506   1.590   1.639   1.661   1.667   1.661   1.639   1.590   1.506   1.384
   1.234   1.074   0.925   0.805   0.718   0.662   0.627   0.599   0.572   0.541
   0.511   0.489
   0.461   0.474   0.512   0.564   0.619   0.670   0.714   0.759   0.817   0.898
   1.008   1.138   1.267   1.369   1.422   1.423   1.388   1.347   1.330   1.347
   1.388   1.423   1.422   1.369   1.267   1.138   1.008   0.898   0.817   0.759
   0.714   0.670   0.619   0.564   0.512   0.474   0.461   0.474   0.512   0.564
   0.619   0.670   0.714   0.759   0.817   0.898   1.008   1.138   1.267   1.369
   1.422   1.423   1.388   1.347   1.330   1.347   1.388   1.423   1.422   1.369
   1.267   1.138   1.008   0.898   0.817   0.759   0.714   0.670   0.619   0.564
   0.512   0.474
   0.567   0.575   0.596   0.628   0.666   0.706   0.747   0.791   0.845   0.916
   1.010   1.119   1.222   1.286   1.286   1.217   1.108   1.010   0.971   1.010
   1.108   1.217   1.286   1.286   1.222   1.119   1.010   0.916   0.845   0.791
   0.747   0.706   0.666   0.628   0.596   0.575   0.567   0.575   0.596   0.628
   0.666   0.706   0.747   0.791   0.845   0.916   1.010   1.119   1.222   1.286
   1.286   1.217   1.108   1.010   0.971   1.010   1.108   1.217   1.286   1.286
   1.222   1.119   1.010   0.916   0.845   0.791   0.747   0.706   0.666   0.628
   0.596   0.575
   1.017   1.002   0.962   0.910   0.863   0.833   0.826   0.838   0.865   0.904
   0.959   1.033   1.110   1.160   1.147   1.058   0.919   0.794   0.743   0.794
   0.919   1.058   1.147   1.160   1.110   1.033   0.959   0.904   0.865   0.838
   0.826   0.833   0.863   0.910   0.962   1.002   1.017   1.002   0.962   0.910
   0.863   0.833   0.826   0.838   0.865   0.904   0.959   1.033   1.110   1.160
   1.147   1.058   0.919   0.794   0.743   0.794   0.919   1.058   1.147   1.160
   1.110   1.033   0.959   0.904   0.865   0.838   0.826   0.833   0.863   0.910
   0.962   1.002
   1.758   1.711   1.585   1.411   1.236   1.096   1.009   0.967   0.946   0.931
   0.922   0.935   0.977   1.023   1.030   0.966   0.843   0.721   0.670   0.721
   0.843   0.966   1.030   1.023   0.977   0.935   0.922   0.931   0.946   0.967
   1.009   1.096   1.236   1.411   1.585   1.711   1.758   1.711   1.585   1.411
   1.236   1.096   1.009   0.967   0.946   0.931   0.922   0.935   0.977   1.023
   1.030   0.966   0.843   0.721   0.670   0.721   0.843   0.966   1.030   1.023
   0.977   0.935   0.922   0.931   0.946   0.967   1.009   1.096   1.236   1.411
   1.585   1.711
   2.401   2.332   2.142   1.878   1.602   1.373   1.221   1.136   1.078   1.014
   0.939   0.883   0.876   0.911   0.940   0.911   0.816   0.708   0.661   0.708
   0.816   0.911   0.940   0.911   0.876   0.883   0.939   1.014   1.078   1.136
   1.221   1.373   1.602   1.878   2.142   2.332   2.401   2.332   2.142   1.878
   1.602   1.373   1.221   1.136   1.078   1.014   0.939   0.883   0.876   0.911
   0.940   0.911   0.816   0.708   0.661   0.708   0.816   0.911   0.940   0.911
   0.876   0.883   0.939   1.014   1.078   1.136   1.221   1.373   1.602   1.878
   2.142   2.332
   2.514   2.447   2.258   1.991   1.705   1.463   1.304   1.221   1.171   1.101
   0.999   0.897   0.845   0.855   0.883   0.867   0.783   0.678   0.631   0.678
   0.783   0.867   0.883   0.855   0.845   0.897   0.999   1.101   1.171   1.221
   1.304   1.463   1.705   1.991   2.258   2.447   2.514   2.447   2.258   1.991
   1.705   1.463   1.304   1.221   1.171   1.101   0.999   0.897   0.845   0.855
   0.883   0.867   0.783   0.678   0.631   0.678   0.783   0.867   0.883   0.855
   0.845   0.897   0.999   1.101   1.171   1.221   1.304   1.463   1.705   1.991
   2.258   2.447
   2.008   1.963   1.837   1.653   1.451   1.279   1.174   1.141   1.143   1.123
   1.052   0.953   0.881   0.866   0.877   0.851   0.762   0.653   0.603   0.653
   0.762   0.851   0.877   0.866   0.881   0.953   1.052   1.123   1.143   1.141
   1.174   1.279   1.451   1.653   1.837   1.963   2.008   1.963   1.837   1.653
   1.451   1.279   1.174   1.141   1.143   1.123   1.052   0.953   0.881   0.866
   0.877   0.851   0.762   0.653   0.603   0.653   0.762   0.851   0.877   0.866
   0.881   0.953   1.052   1.123   1.143   1.141   1.174   1.279   1.451   1.653
   1.837   1.963
   1.230   1.212   1.163   1.091   1.009   0.939   0.910   0.938   1.005   1.060
   1.059   1.006   0.947   0.924   0.928   0.906   0.830   0.734   0.690   0.734
   0.830   0.906   0.928   0.924   0.947   1.006   1.059   1.060   1.005   0.938
   0.910   0.939   1.009   1.091   1.163   1.212   1.230   1.212   1.163   1.091
   1.009   0.939   0.910   0.938   1.005   1.060   1.059   1.006   0.947   0.924
   0.928   0.906   0.830   0.734   0.690   0.734   0.830   0.906   0.928   0.924
   0.947   1.006   1.059   1.060   1.005   0.938   0.910   0.939   1.009   1.091
   1.163   1.212
   0.658   0.655   0.650   0.650   0.653   0.658   0.677   0.735   0.838   0.951
   1.019   1.022   0.996   0.991   1.020   1.045   1.029   0.984   0.961   0.984
   1.029   1.045   1.020   0.991   0.996   1.022   1.019   0.951   0.838   0.735
   0.677   0.658   0.653   0.650   0.650   0.655   0.658   0.655   0.650   0.650
   0.653   0.658   0.677   0.735   0.838   0.951   1.019   1.022   0.996   0.991
   1.020   1.045   1.029   0.984   0.961   0.984   1.029   1.045   1.020   0.991
   0.996   1.022   1.019   0.951   0.838   0.735   0.677   0.658   0.653   0.650
   0.650   0.655
   0.489   0.483   0.476   0.489   0.518   0.545   0.569   0.619   0.720   0.852
   0.959   1.004   1.009   1.036   1.115   1.218   1.295   1.327   1.333   1.327
   1.295   1.218   1.115   1.036   1.009   1.004   0.959   0.852   0.720   0.619
   0.569   0.545   0.518   0.489   0.476   0.483   0.489   0.483   0.476   0.489
   0.518   0.545   0.569   0.619   0.720   0.852   0.959   1.004   1.009   1.036
   1.115   1.218   1.295   1.327   1.333   1.327   1.295   1.218   1.115   1.036
   1.009   1.004   0.959   0.852   0.720   0.619   0.569   0.545   0.518   0.489
   0.476   0.483
   0.538   0.523   0.499   0.497   0.520   0.542   0.554   0.584   0.669   0.799
   0.918   0.980   1.004   1.055   1.175   1.339   1.486   1.576   1.604   1.576
   1.486   1.339   1.175   1.055   1.004   0.980   0.918   0.799   0.669   0.584
   0.554   0.542   0.520   0.497   0.499   0.523   0.538   0.523   0.499   0.497
   0.520   0.542   0.554   0.584   0.669   0.799   0.918   0.980   1.004   1.055
   1.175   1.339   1.486   1.576   1.604   1.576   1.486   1.339   1.175   1.055
   1.004   0.980   0.918   0.799   0.669   0.584   0.554   0.542   0.520   0.497
   0.499   0.523
 200       5.00   72    0 5.00   18    0
   1.633   1.632   1.632   1.631   1.629   1.627   1.625   1.623   1.621   1.618
   1.616   1.613   1.611   1.609   1.607   1.606   1.605   1.604   1.604   1.604
   1.605   1.606   1.607   1.609   1.611   1.613   1.616   1.618   1.621   1.623
   1.625   1.627   1.629   1.631   1.632   1.632   1.633   1.632   1.632   1.631
   1.629   1.627   1.625   1.623   1.621   1.618   1.616   1.613   1.611   1.609
   1.607   1.606   1.605   1.604   1.604   1.604   1.605   1.606   1.607   1.609
   1.611   1.613   1.616   1.618   1.621   1.623   1.625   1.627   1.629   1.631
   1.632   1.632
   1.646   1.644   1.637   1.626   1.611   1.593   1.573   1.551   1.528   1.506
   1.483   1.462   1.443   1.427   1.412   1.401   1.393   1.388   1.386   1.388
   1.393   1.401   1.412   1.427   1.443   1.462   1.483   1.506   1.528   1.551
   1.573   1.593   1.611   1.626   1.637   1.644   1.646   1.644   1.637   1.626
   1.611   1.593   1.573   1.551   1.528   1.506   1.483   1.462   1.443   1.427
   1.412   1.401   1.393   1.388   1.386   1.388   1.393   1.401   1.412   1.427
   1.443   1.462   1.483   1.506   1.528   1.551   1.573   1.593   1.611   1.626
   1.637   1.644
   1.766   1.759   1.738   1.704   1.659   1.606   1.547   1.485   1.422   1.361
   1.304   1.251   1.204   1.165   1.132   1.107   1.089   1.079   1.075   1.079
   1.089   1.107   1.132   1.165   1.204   1.251   1.304   1.361   1.422   1.485
   1.547   1.606   1.659   1.704   1.738   1.759   1.766   1.759   1.738   1.704
   1.659   1.606   1.547   1.485   1.422   1.361   1.304   1.251   1.204   1.165
   1.132   1.107   1.089   1.079   1.075   1.079   1.089   1.107   1.132   1.165
   1.204   1.251   1.304   1.361   1.422   1.485   1.547   1.606   1.659   1.704
   1.738   1.759
   1.997   1.983   1.943   1.879   1.796   1.699   1.593   1.484   1.377   1.274
   1.178   1.093   1.018   0.956   0.906   0.869   0.843   0.827   0.822   0.827
   0.843   0.869   0.906   0.956   1.018   1.093   1.178   1.274   1.377   1.484
   1.593   1.699   1.796   1.879   1.943   1.983   1.997   1.983   1.943   1.879
   1.796   1.699   1.593   1.484   1.377   1.274   1.178   1.093   1.018   0.956
   0.906   0.869   0.843   0.827   0.822   0.827   0.843   0.869   0.906   0.956
   1.018   1.093   1.178   1.274   1.377   1.484   1.593   1.699   1.796   1.879
   1.943   1.983
   2.146   2.127   2.073   1.990   1.884   1.765   1.639   1.512   1.388   1.268
   1.153   1.048   0.953   0.872   0.807   0.758   0.725   0.706   0.700   0.706
   0.725   0.758   0.807   0.872   0.953   1.048   1.153   1.268   1.388   1.512
   1.639   1.765   1.884   1.990   2.073   2.127   2.146   2.127   2.073   1.990
   1.884   1.765   1.639   1.512   1.388   1.268   1.153   1.048   0.953   0.872
   0.807   0.758   0.725   0.706   0.700   0.706   0.725   0.758   0.807   0.872
   0.953   1.048   1.153   1.268   1.388   1.512   1.639   1.765   1.884   1.990
   2.073   2.127
   1.966   1.948   1.897   1.823   1.735   1.645   1.557   1.473   1.388   1.297
   1.196   1.089   0.980   0.880   0.797   0.736   0.697   0.677   0.671   0.677
   0.697   0.736   0.797   0.880   0.980   1.089   1.196   1.297   1.388   1.473
   1.557   1.645   1.735   1.823   1.897   1.948   1.966   1.948   1.897   1.823
   1.735   1.645   1.557   1.473   1.388   1.297   1.196   1.089   0.980   0.880
   0.797   0.736   0.697   0.677   0.671   0.677   0.697   0.736   0.797   0.880
   0.980   1.089   1.196   1.297   1.388   1.473   1.557   1.645   1.735   1.823
   1.897   1.948
   1.423   1.411   1.379   1.340   1.307   1.292   1.295   1.308   1.313   1.292
   1.233   1.137   1.015   0.891   0.785   0.712   0.671   0.654   0.649   0.654
   0.671   0.712   0.785   0.891   1.015   1.137   1.233   1.292   1.313   1.308
   1.295   1.292   1.307   1.340   1.379   1.411   1.423   1.411   1.379   1.340
   1.307   1.292   1.295   1.308   1.313   1.292   1.233   1.137   1.015   0.891
   0.785   0.712   0.671   0.654   0.649   0.654   0.671   0.712   0.785   0.891
   1.015   1.137   1.233   1.292   1.313   1.308   1.295   1.292   1.307   1.340
   1.379   1.411
   0.773   0.768   0.758   0.757   0.781   0.841   0.936   1.049   1.153   1.215
   1.210   1.134   1.002   0.852   0.723   0.640   0.604   0.597   0.598   0.597
   0.604   0.640   0.723   0.852   1.002   1.134   1.210   1.215   1.153   1.049
   0.936   0.841   0.781   0.757   0.758   0.768   0.773   0.768   0.758   0.757
   0.781   0.841   0.936   1.049   1.153   1.215   1.210   1.134   1.002   0.852
   0.723   0.640   0.604   0.597   0.598   0.597   0.604   0.640   0.723   0.852
   1.002   1.134   1.210   1.215   1.153   1.049   0.936   0.841   0.781   0.757
   0.758   0.768
   0.348   0.347   0.349   0.365   0.408   0.492   0.618   0.777   0.941   1.071
   1.127   1.089   0.968   0.805   0.658   0.567   0.539   0.547   0.555   0.547
   0.539   0.567   0.658   0.805   0.968   1.089   1.127   1.071   0.941   0.777
   0.618   0.492   0.408   0.365   0.349   0.347   0.348   0.347   0.349   0.365
   0.408   0.492   0.618   0.777   0.941   1.071   1.127   1.089   0.968   0.805
   0.658   0.567   0.539   0.547   0.555   0.547   0.539   0.567   0.658   0.805
   0.968   1.089   1.127   1.071   0.941   0.777   0.618   0.492   0.408   0.365
   0.349   0.347
   0.271   0.270   0.270   0.276   0.295   0.341   0.425   0.556   0.726   0.903
   1.032   1.067   0.990   0.838   0.678   0.575   0.547   0.564   0.577   0.564
   0.547   0.575   0.678   0.838   0.990   1.067   1.032   0.903   0.726   0.556
   0.425   0.341   0.295   0.276   0.270   0.270   0.271   0.270   0.270   0.276
   0.295   0.341   0.425   0.556   0.726   0.903   1.032   1.067   0.990   0.838
   0.678   0.575   0.547   0.564   0.577   0.564   0.547   0.575   0.678   0.838
   0.990   1.067   1.032   0.903   0.726   0.556   0.425   0.341   0.295   0.276
   0.270   0.270
   0.388   0.386   0.378   0.365   0.349   0.338   0.353   0.424   0.572   0.781
   0.992   1.121   1.114   0.985   0.810   0.681   0.638   0.653   0.668   0.653
   0.638   0.681   0.810   0.985   1.114   1.121   0.992   0.781   0.572   0.424
   0.353   0.338   0.349   0.365   0.378   0.386   0.388   0.386   0.378   0.365
   0.349   0.338   0.353   0.424   0.572   0.781   0.992   1.121   1.114   0.985
   0.810   0.681   0.638   0.653   0.668   0.653   0.638   0.681   0.810   0.985
   1.114   1.121   0.992   0.781   0.572   0.424   0.353   0.338   0.349   0.365
   0.378   0.386
   0.476   0.470   0.454   0.435   0.415   0.394   0.386   0.428   0.558   0.784
   1.049   1.250   1.294   1.172   0.968   0.801   0.735   0.747   0.763   0.747
   0.735   0.801   0.968   1.172   1.294   1.250   1.049   0.784   0.558   0.428
   0.386   0.394   0.415   0.435   0.454   0.470   0.476   0.470   0.454   0.435
   0.415   0.394   0.386   0.428   0.558   0.784   1.049   1.250   1.294   1.172
   0.968   0.801   0.735   0.747   0.763   0.747   0.735   0.801   0.968   1.172
   1.294   1.250   1.049   0.784   0.558   0.428   0.386   0.394   0.415   0.435
   0.454   0.470
   0.462   0.450   0.428   0.420   0.442   0.487   0.542   0.616   0.744   0.949
   1.198   1.390   1.423   1.273   1.030   0.829   0.752   0.770   0.791   0.770
   0.752   0.829   1.030   1.273   1.423   1.390   1.198   0.949   0.744   0.616
   0.542   0.487   0.442   0.420   0.428   0.450   0.462   0.450   0.428   0.420
   0.442   0.487   0.542   0.616   0.744   0.949   1.198   1.390   1.423   1.273
   1.030   0.829   0.752   0.770   0.791   0.770   0.752   0.829   1.030   1.273
   1.423   1.390   1.198   0.949   0.744   0.616   0.542   0.487   0.442   0.420
   0.428   0.450
   0.453   0.435   0.406   0.419   0.509   0.665   0.837   0.984   1.106   1.235
   1.376   1.468   1.428   1.231   0.959   0.750   0.684   0.720   0.751   0.720
   0.684   0.750   0.959   1.231   1.428   1.468   1.376   1.235   1.106   0.984
   0.837   0.665   0.509   0.419   0.406   0.435   0.453   0.435   0.406   0.419
   0.509   0.665   0.837   0.984   1.106   1.235   1.376   1.468   1.428   1.231
   0.959   0.750   0.684   0.720   0.751   0.720   0.684   0.750   0.959   1.231
   1.428   1.468   1.376   1.235   1.106   0.984   0.837   0.665   0.509   0.419
   0.406   0.435
   0.580   0.559   0.528   0.557   0.703   0.954   1.229   1.431   1.518   1.523
   1.499   1.450   1.328   1.107   0.846   0.662   0.623   0.680   0.718   0.680
   0.623   0.662   0.846   1.107   1.328   1.450   1.499   1.523   1.518   1.431
   1.229   0.954   0.703   0.557   0.528   0.559   0.580   0.559   0.528   0.557
   0.703   0.954   1.229   1.431   1.518   1.523   1.499   1.450   1.328   1.107
   0.846   0.662   0.623   0.680   0.718   0.680   0.623   0.662   0.846   1.107
   1.328   1.450   1.499   1.523   1.518   1.431   1.229   0.954   0.703   0.557
   0.528   0.559
   0.851   0.833   0.809   0.848   1.014   1.300   1.612   1.815   1.833   1.701
   1.520   1.357   1.202   1.015   0.815   0.680   0.665   0.727   0.766   0.727
   0.665   0.680   0.815   1.015   1.202   1.357   1.520   1.701   1.833   1.815
   1.612   1.300   1.014   0.848   0.809   0.833   0.851   0.833   0.809   0.848
   1.014   1.300   1.612   1.815   1.833   1.701   1.520   1.357   1.202   1.015
   0.815   0.680   0.665   0.727   0.766   0.727   0.665   0.680   0.815   1.015
   1.202   1.357   1.520   1.701   1.833   1.815   1.612   1.300   1.014   0.848
   0.809   0.833
   1.152   1.143   1.135   1.180   1.334   1.601   1.887   2.047   1.987   1.745
   1.460   1.247   1.116   1.007   0.892   0.809   0.805   0.856   0.887   0.856
   0.805   0.809   0.892   1.007   1.116   1.247   1.460   1.745   1.987   2.047
   1.887   1.601   1.334   1.180   1.135   1.143   1.152   1.143   1.135   1.180
   1.334   1.601   1.887   2.047   1.987   1.745   1.460   1.247   1.116   1.007
   0.892   0.809   0.805   0.856   0.887   0.856   0.805   0.809   0.892   1.007
   1.116   1.247   1.460   1.745   1.987   2.047   1.887   1.601   1.334   1.180
   1.135   1.143
   1.345   1.343   1.348   1.396   1.535   1.771   2.021   2.139   2.026   1.726
   1.396   1.175   1.082   1.038   0.984   0.934   0.930   0.968   0.992   0.968
   0.930   0.934   0.984   1.038   1.082   1.175   1.396   1.726   2.026   2.139
   2.021   1.771   1.535   1.396   1.348   1.343   1.345   1.343   1.348   1.396
   1.535   1.771   2.021   2.139   2.026   1.726   1.396   1.175   1.082   1.038
   0.984   0.934   0.930   0.968   0.992   0.968   0.930   0.934   0.984   1.038
   1.082   1.175   1.396   1.726   2.026   2.139   2.021   1.771   1.535   1.396
   1.348   1.343
 111       5.00   72    0 5.00   18    0
   0.520   0.520   0.521   0.522   0.523   0.524   0.525   0.527   0.529   0.531
   0.532   0.534   0.536   0.538   0.539   0.540   0.541   0.541   0.541   0.541
   0.541   0.540   0.539   0.538   0.536   0.534   0.532   0.531   0.529   0.527
   0.525   0.524   0.523   0.522   0.521   0.520   0.520   0.520   0.521   0.522
   0.523   0.524   0.525   0.527   0.529   0.531   0.532   0.534   0.536   0.538
   0.539   0.540   0.541   0.541   0.541   0.541   0.541   0.540   0.539   0.538
   0.536   0.534   0.532   0.531   0.529   0.527   0.525   0.524   0.523   0.522
   0.521   0.520
   0.342   0.342   0.342   0.343   0.345   0.348   0.353   0.359   0.366   0.375
   0.385   0.397   0.408   0.420   0.431   0.440   0.447   0.451   0.453   0.451
   0.447   0.440   0.431   0.420   0.408   0.397   0.385   0.375   0.366   0.359
   0.353   0.348   0.345   0.343   0.342   0.342   0.342   0.342   0.342   0.343
   0.345   0.348   0.353   0.359   0.366   0.375   0.385   0.397   0.408   0.420
   0.431   0.440   0.447   0.451   0.453   0.451   0.447   0.440   0.431   0.420
   0.408   0.397   0.385   0.375   0.366   0.359   0.353   0.348   0.345   0.343
   0.342   0.342
   0.359   0.355   0.342   0.323   0.299   0.274   0.250   0.231   0.217   0.212
   0.215   0.225   0.241   0.261   0.282   0.303   0.319   0.330   0.334   0.330
   0.319   0.303   0.282   0.261   0.241   0.225   0.215   0.212   0.217   0.231
   0.250   0.274   0.299   0.323   0.342   0.355   0.359   0.355   0.342   0.323
   0.299   0.274   0.250   0.231   0.217   0.212   0.215   0.225   0.241   0.261
   0.282   0.303   0.319   0.330   0.334   0.330   0.319   0.303   0.282   0.261
   0.241   0.225   0.215   0.212   0.217   0.231   0.250   0.274   0.299   0.323
   0.342   0.355
   0.892   0.875   0.827   0.752   0.658   0.555   0.451   0.356   0.275   0.214
   0.174   0.155   0.153   0.166   0.188   0.212   0.235   0.250   0.256   0.250
   0.235   0.212   0.188   0.166   0.153   0.155   0.174   0.214   0.275   0.356
   0.451   0.555   0.658   0.752   0.827   0.875   0.892   0.875   0.827   0.752
   0.658   0.555   0.451   0.356   0.275   0.214   0.174   0.155   0.153   0.166
   0.188   0.212   0.235   0.250   0.256   0.250   0.235   0.212   0.188   0.166
   0.153   0.155   0.174   0.214   0.275   0.356   0.451   0.555   0.658   0.752
   0.827   0.875
   1.806   1.773   1.677   1.530   1.346   1.144   0.941   0.750   0.584   0.446
   0.342   0.269   0.225   0.207   0.207   0.219   0.235   0.247   0.252   0.247
   0.235   0.219   0.207   0.207   0.225   0.269   0.342   0.446   0.584   0.750
   0.941   1.144   1.346   1.530   1.677   1.773   1.806   1.773   1.677   1.530
   1.346   1.144   0.941   0.750   0.584   0.446   0.342   0.269   0.225   0.207
   0.207   0.219   0.235   0.247   0.252   0.247   0.235   0.219   0.207   0.207
   0.225   0.269   0.342   0.446   0.584   0.750   0.941   1.144   1.346   1.530
   1.677   1.773
   2.577   2.532   2.404   2.209   1.970   1.714   1.459   1.223   1.012   0.829
   0.674   0.548   0.449   0.378   0.335   0.314   0.309   0.310   0.312   0.310
   0.309   0.314   0.335   0.378   0.449   0.548   0.674   0.829   1.012   1.223
   1.459   1.714   1.970   2.209   2.404   2.532   2.577   2.532   2.404   2.209
   1.970   1.714   1.459   1.223   1.012   0.829   0.674   0.548   0.449   0.378
   0.335   0.314   0.309   0.310   0.312   0.310   0.309   0.314   0.335   0.378
   0.449   0.548   0.674   0.829   1.012   1.223   1.459   1.714   1.970   2.209
   2.404   2.532
   2.737   2.693   2.567   2.382   2.165   1.942   1.732   1.542   1.369   1.208
   1.049   0.893   0.746   0.619   0.522   0.459   0.427   0.414   0.411   0.414
   0.427   0.459   0.522   0.619   0.746   0.893   1.049   1.208   1.369   1.542
   1.732   1.942   2.165   2.382   2.567   2.693   2.737   2.693   2.567   2.382
   2.165   1.942   1.732   1.542   1.369   1.208   1.049   0.893   0.746   0.619
   0.522   0.459   0.427   0.414   0.411   0.414   0.427   0.459   0.522   0.619
   0.746   0.893   1.049   1.208   1.369   1.542   1.732   1.942   2.165   2.382
   2.567   2.693
   2.255   2.224   2.137   2.016   1.886   1.768   1.674   1.600   1.531   1.449
   1.338   1.195   1.031   0.868   0.731   0.636   0.585   0.564   0.560   0.564
   0.585   0.636   0.731   0.868   1.031   1.195   1.338   1.449   1.531   1.600
   1.674   1.768   1.886   2.016   2.137   2.224   2.255   2.224   2.137   2.016
   1.886   1.768   1.674   1.600   1.531   1.449   1.338   1.195   1.031   0.868
   0.731   0.636   0.585   0.564   0.560   0.564   0.585   0.636   0.731   0.868
   1.031   1.195   1.338   1.449   1.531   1.600   1.674   1.768   1.886   2.016
   2.137   2.224
   1.498   1.485   1.452   1.414   1.387   1.382   1.403   1.440   1.477   1.493
   1.466   1.385   1.256   1.105   0.965   0.865   0.812   0.795   0.792   0.795
   0.812   0.865   0.965   1.105   1.256   1.385   1.466   1.493   1.477   1.440
   1.403   1.382   1.387   1.414   1.452   1.485   1.498   1.485   1.452   1.414
   1.387   1.382   1.403   1.440   1.477   1.493   1.466   1.385   1.256   1.105
   0.965   0.865   0.812   0.795   0.792   0.795   0.812   0.865   0.965   1.105
   1.256   1.385   1.466   1.493   1.477   1.440   1.403   1.382   1.387   1.414
   1.452   1.485
   0.885   0.887   0.896   0.920   0.961   1.020   1.092   1.175   1.265   1.356
   1.426   1.451   1.417   1.333   1.235   1.158   1.122   1.116   1.118   1.116
   1.122   1.158   1.235   1.333   1.417   1.451   1.426   1.356   1.265   1.175
   1.092   1.020   0.961   0.920   0.896   0.887   0.885   0.887   0.896   0.920
   0.961   1.020   1.092   1.175   1.265   1.356   1.426   1.451   1.417   1.333
   1.235   1.158   1.122   1.116   1.118   1.116   1.122   1.158   1.235   1.333
   1.417   1.451   1.426   1.356   1.265   1.175   1.092   1.020   0.961   0.920
   0.896   0.887
   0.596   0.603   0.627   0.670   0.730   0.793   0.850   0.909   0.990   1.113
   1.266   1.410   1.501   1.519   1.491   1.459   1.454   1.469   1.479   1.469
   1.454   1.459   1.491   1.519   1.501   1.410   1.266   1.113   0.990   0.909
   0.850   0.793   0.730   0.670   0.627   0.603   0.596   0.603   0.627   0.670
   0.730   0.793   0.850   0.909   0.990   1.113   1.266   1.410   1.501   1.519
   1.491   1.459   1.454   1.469   1.479   1.469   1.454   1.459   1.491   1.519
   1.501   1.410   1.266   1.113   0.990   0.909   0.850   0.793   0.730   0.670
   0.627   0.603
   0.572   0.572   0.579   0.603   0.644   0.684   0.707   0.719   0.759   0.869
   1.059   1.282   1.470   1.577   1.617   1.640   1.682   1.733   1.758   1.733
   1.682   1.640   1.617   1.577   1.470   1.282   1.059   0.869   0.759   0.719
   0.707   0.684   0.644   0.603   0.579   0.572   0.572   0.572   0.579   0.603
   0.644   0.684   0.707   0.719   0.759   0.869   1.059   1.282   1.470   1.577
   1.617   1.640   1.682   1.733   1.758   1.733   1.682   1.640   1.617   1.577
   1.470   1.282   1.059   0.869   0.759   0.719   0.707   0.684   0.644   0.603
   0.579   0.572
   0.679   0.666   0.639   0.623   0.633   0.656   0.664   0.651   0.650   0.715
   0.873   1.090   1.295   1.434   1.515   1.592   1.698   1.804   1.850   1.804
   1.698   1.592   1.515   1.434   1.295   1.090   0.873   0.715   0.650   0.651
   0.664   0.656   0.633   0.623   0.639   0.666   0.679   0.666   0.639   0.623
   0.633   0.656   0.664   0.651   0.650   0.715   0.873   1.090   1.295   1.434
   1.515   1.592   1.698   1.804   1.850   1.804   1.698   1.592   1.515   1.434
   1.295   1.090   0.873   0.715   0.650   0.651   0.664   0.656   0.633   0.623
   0.639   0.666
   0.839   0.817   0.767   0.717   0.695   0.701   0.709   0.696   0.669   0.671
   0.742   0.872   1.011   1.119   1.208   1.331   1.504   1.673   1.745   1.673
   1.504   1.331   1.208   1.119   1.011   0.872   0.742   0.671   0.669   0.696
   0.709   0.701   0.695   0.717   0.767   0.817   0.839   0.817   0.767   0.717
   0.695   0.701   0.709   0.696   0.669   0.671   0.742   0.872   1.011   1.119
   1.208   1.331   1.504   1.673   1.745   1.673   1.504   1.331   1.208   1.119
   1.011   0.872   0.742   0.671   0.669   0.696   0.709   0.701   0.695   0.717
   0.767   0.817
   1.019   1.008   0.973   0.917   0.860   0.822   0.803   0.780   0.735   0.683
   0.660   0.681   0.725   0.774   0.851   1.000   1.223   1.439   1.529   1.439
   1.223   1.000   0.851   0.774   0.725   0.681   0.660   0.683   0.735   0.780
   0.803   0.822   0.860   0.917   0.973   1.008   1.019   1.008   0.973   0.917
   0.860   0.822   0.803   0.780   0.735   0.683   0.660   0.681   0.725   0.774
   0.851   1.000   1.223   1.439   1.529   1.439   1.223   1.000   0.851   0.774
   0.725   0.681   0.660   0.683   0.735   0.780   0.803   0.822   0.860   0.917
   0.973   1.008
   1.189   1.209   1.236   1.211   1.114   0.988   0.885   0.815   0.750   0.674
   0.602   0.558   0.543   0.554   0.616   0.766   1.000   1.228   1.324   1.228
   1.000   0.766   0.616   0.554   0.543   0.558   0.602   0.674   0.750   0.815
   0.885   0.988   1.114   1.211   1.236   1.209   1.189   1.209   1.236   1.211
   1.114   0.988   0.885   0.815   0.750   0.674   0.602   0.558   0.543   0.554
   0.616   0.766   1.000   1.228   1.324   1.228   1.000   0.766   0.616   0.554
   0.543   0.558   0.602   0.674   0.750   0.815   0.885   0.988   1.114   1.211
   1.236   1.209
   1.312   1.373   1.485   1.509   1.375   1.141   0.921   0.777   0.690   0.619
   0.553   0.507   0.489   0.499   0.554   0.689   0.901   1.109   1.197   1.109
   0.901   0.689   0.554   0.499   0.489   0.507   0.553   0.619   0.690   0.777
   0.921   1.141   1.375   1.509   1.485   1.373   1.312   1.373   1.485   1.509
   1.375   1.141   0.921   0.777   0.690   0.619   0.553   0.507   0.489   0.499
   0.554   0.689   0.901   1.109   1.197   1.109   0.901   0.689   0.554   0.499
   0.489   0.507   0.553   0.619   0.690   0.777   0.921   1.141   1.375   1.509
   1.485   1.373
   1.373   1.463   1.636   1.697   1.539   1.229   0.923   0.723   0.621   0.563
   0.521   0.498   0.500   0.522   0.577   0.697   0.885   1.070   1.149   1.070
   0.885   0.697   0.577   0.522   0.500   0.498   0.521   0.563   0.621   0.723
   0.923   1.229   1.539   1.697   1.636   1.463   1.373   1.463   1.636   1.697
   1.539   1.229   0.923   0.723   0.621   0.563   0.521   0.498   0.500   0.522
   0.577   0.697   0.885   1.070   1.149   1.070   0.885   0.697   0.577   0.522
   0.500   0.498   0.521   0.563   0.621   0.723   0.923   1.229   1.539   1.697
   1.636   1.463
 311       5.00   72    0 5.00   18    0
   1.361   1.362   1.362   1.363   1.364   1.365   1.367   1.369   1.371   1.373
   1.375   1.377   1.379   1.381   1.382   1.383   1.384   1.385   1.385   1.385
   1.384   1.383   1.382   1.381   1.379   1.377   1.375   1.373   1.371   1.369
   1.367   1.365   1.364   1.363   1.362   1.362   1.361   1.362   1.362   1.363
   1.364   1.365   1.367   1.369   1.371   1.373   1.375   1.377   1.379   1.381
   1.382   1.383   1.384   1.385   1.385   1.385   1.384   1.383   1.382   1.381
   1.379   1.377   1.375   1.373   1.371   1.369   1.367   1.365   1.364   1.363
   1.362   1.362
   1.162   1.163   1.167   1.172   1.179   1.188   1.198   1.210   1.224   1.238
   1.253   1.268   1.282   1.295   1.307   1.317   1.324   1.329   1.330   1.329
   1.324   1.317   1.307   1.295   1.282   1.268   1.253   1.238   1.224   1.210
   1.198   1.188   1.179   1.172   1.167   1.163   1.162   1.163   1.167   1.172
   1.179   1.188   1.198   1.210   1.224   1.238   1.253   1.268   1.282   1.295
   1.307   1.317   1.324   1.329   1.330   1.329   1.324   1.317   1.307   1.295
   1.282   1.268   1.253   1.238   1.224   1.210   1.198   1.188   1.179   1.172
   1.167   1.163
   0.969   0.970   0.971   0.975   0.981   0.989   1.001   1.017   1.036   1.059
   1.085   1.113   1.141   1.169   1.195   1.217   1.233   1.244   1.247   1.244
   1.233   1.217   1.195   1.169   1.141   1.113   1.085   1.059   1.036   1.017
   1.001   0.989   0.981   0.975   0.971   0.970   0.969   0.970   0.971   0.975
   0.981   0.989   1.001   1.017   1.036   1.059   1.085   1.113   1.141   1.169
   1.195   1.217   1.233   1.244   1.247   1.244   1.233   1.217   1.195   1.169
   1.141   1.113   1.085   1.059   1.036   1.017   1.001   0.989   0.981   0.975
   0.971   0.970
   0.965   0.962   0.955   0.945   0.934   0.925   0.920   0.920   0.928   0.943
   0.966   0.995   1.027   1.062   1.096   1.126   1.150   1.165   1.171   1.165
   1.150   1.126   1.096   1.062   1.027   0.995   0.966   0.943   0.928   0.920
   0.920   0.925   0.934   0.945   0.955   0.962   0.965   0.962   0.955   0.945
   0.934   0.925   0.920   0.920   0.928   0.943   0.966   0.995   1.027   1.062
   1.096   1.126   1.150   1.165   1.171   1.165   1.150   1.126   1.096   1.062
   1.027   0.995   0.966   0.943   0.928   0.920   0.920   0.925   0.934   0.945
   0.955   0.962
   1.117   1.110   1.092   1.064   1.032   1.000   0.971   0.950   0.937   0.934
   0.941   0.956   0.979   1.007   1.039   1.069   1.094   1.111   1.117   1.111
   1.094   1.069   1.039   1.007   0.979   0.956   0.941   0.934   0.937   0.950
   0.971   1.000   1.032   1.064   1.092   1.110   1.117   1.110   1.092   1.064
   1.032   1.000   0.971   0.950   0.937   0.934   0.941   0.956   0.979   1.007
   1.039   1.069   1.094   1.111   1.117   1.111   1.094   1.069   1.039   1.007
   0.979   0.956   0.941   0.934   0.937   0.950   0.971   1.000   1.032   1.064
   1.092   1.110
   1.219   1.211   1.189   1.158   1.122   1.087   1.055   1.030   1.010   0.994
   0.983   0.978   0.980   0.991   1.010   1.034   1.057   1.075   1.081   1.075
   1.057   1.034   1.010   0.991   0.980   0.978   0.983   0.994   1.010   1.030
   1.055   1.087   1.122   1.158   1.189   1.211   1.219   1.211   1.189   1.158
   1.122   1.087   1.055   1.030   1.010   0.994   0.983   0.978   0.980   0.991
   1.010   1.034   1.057   1.075   1.081   1.075   1.057   1.034   1.010   0.991
   0.980   0.978   0.983   0.994   1.010   1.030   1.055   1.087   1.122   1.158
   1.189   1.211
   1.122   1.118   1.109   1.097   1.087   1.081   1.078   1.075   1.067   1.050
   1.027   1.000   0.978   0.968   0.973   0.992   1.017   1.038   1.047   1.038
   1.017   0.992   0.973   0.968   0.978   1.000   1.027   1.050   1.067   1.075
   1.078   1.081   1.087   1.097   1.109   1.118   1.122   1.118   1.109   1.097
   1.087   1.081   1.078   1.075   1.067   1.050   1.027   1.000   0.978   0.968
   0.973   0.992   1.017   1.038   1.047   1.038   1.017   0.992   0.973   0.968
   0.978   1.000   1.027   1.050   1.067   1.075   1.078   1.081   1.087   1.097
   1.109   1.118
   0.889   0.893   0.907   0.932   0.966   1.006   1.044   1.069   1.074   1.056
   1.020   0.974   0.933   0.909   0.909   0.932   0.967   0.998   1.010   0.998
   0.967   0.932   0.909   0.909   0.933   0.974   1.020   1.056   1.074   1.069
   1.044   1.006   0.966   0.932   0.907   0.893   0.889   0.893   0.907   0.932
   0.966   1.006   1.044   1.069   1.074   1.056   1.020   0.974   0.933   0.909
   0.909   0.932   0.967   0.998   1.010   0.998   0.967   0.932   0.909   0.909
   0.933   0.974   1.020   1.056   1.074   1.069   1.044   1.006   0.966   0.932
   0.907   0.893
   0.713   0.726   0.764   0.824   0.898   0.970   1.027   1.053   1.046   1.010
   0.956   0.899   0.854   0.833   0.842   0.878   0.927   0.968   0.985   0.968
   0.927   0.878   0.842   0.833   0.854   0.899   0.956   1.010   1.046   1.053
   1.027   0.970   0.898   0.824   0.764   0.726   0.713   0.726   0.764   0.824
   0.898   0.970   1.027   1.053   1.046   1.010   0.956   0.899   0.854   0.833
   0.842   0.878   0.927   0.968   0.985   0.968   0.927   0.878   0.842   0.833
   0.854   0.899   0.956   1.010   1.046   1.053   1.027   0.970   0.898   0.824
   0.764   0.726
   0.711   0.729   0.781   0.861   0.952   1.031   1.073   1.066   1.015   0.942
   0.871   0.818   0.793   0.796   0.824   0.871   0.927   0.972   0.989   0.972
   0.927   0.871   0.824   0.796   0.793   0.818   0.871   0.942   1.015   1.066
   1.073   1.031   0.952   0.861   0.781   0.729   0.711   0.729   0.781   0.861
   0.952   1.031   1.073   1.066   1.015   0.942   0.871   0.818   0.793   0.796
   0.824   0.871   0.927   0.972   0.989   0.972   0.927   0.871   0.824   0.796
   0.793   0.818   0.871   0.942   1.015   1.066   1.073   1.031   0.952   0.861
   0.781   0.729
   0.814   0.831   0.883   0.964   1.057   1.130   1.150   1.102   1.003   0.893
   0.813   0.781   0.793   0.830   0.877   0.926   0.972   1.007   1.020   1.007
   0.972   0.926   0.877   0.830   0.793   0.781   0.813   0.893   1.003   1.102
   1.150   1.130   1.057   0.964   0.883   0.831   0.814   0.831   0.883   0.964
   1.057   1.130   1.150   1.102   1.003   0.893   0.813   0.781   0.793   0.830
   0.877   0.926   0.972   1.007   1.020   1.007   0.972   0.926   0.877   0.830
   0.793   0.781   0.813   0.893   1.003   1.102   1.150   1.130   1.057   0.964
   0.883   0.831
   0.869   0.879   0.916   0.986   1.079   1.161   1.189   1.136   1.020   0.895
   0.816   0.807   0.853   0.917   0.970   1.005   1.029   1.044   1.050   1.044
   1.029   1.005   0.970   0.917   0.853   0.807   0.816   0.895   1.020   1.136
   1.189   1.161   1.079   0.986   0.916   0.879   0.869   0.879   0.916   0.986
   1.079   1.161   1.189   1.136   1.020   0.895   0.816   0.807   0.853   0.917
   0.970   1.005   1.029   1.044   1.050   1.044   1.029   1.005   0.970   0.917
   0.853   0.807   0.816   0.895   1.020   1.136   1.189   1.161   1.079   0.986
   0.916   0.879
   0.803   0.804   0.819   0.872   0.970   1.083   1.158   1.152   1.067   0.955
   0.881   0.879   0.934   0.999   1.040   1.052   1.049   1.045   1.044   1.045
   1.049   1.052   1.040   0.999   0.934   0.879   0.881   0.955   1.067   1.152
   1.158   1.083   0.970   0.872   0.819   0.804   0.803   0.804   0.819   0.872
   0.970   1.083   1.158   1.152   1.067   0.955   0.881   0.879   0.934   0.999
   1.040   1.052   1.049   1.045   1.044   1.045   1.049   1.052   1.040   0.999
   0.934   0.879   0.881   0.955   1.067   1.152   1.158   1.083   0.970   0.872
   0.819   0.804
   0.695   0.690   0.691   0.727   0.822   0.961   1.092   1.156   1.130   1.050
   0.979   0.964   0.998   1.040   1.056   1.040   1.014   0.995   0.988   0.995
   1.014   1.040   1.056   1.040   0.998   0.964   0.979   1.050   1.130   1.156
   1.092   0.961   0.822   0.727   0.691   0.690   0.695   0.690   0.691   0.727
   0.822   0.961   1.092   1.156   1.130   1.050   0.979   0.964   0.998   1.040
   1.056   1.040   1.014   0.995   0.988   0.995   1.014   1.040   1.056   1.040
   0.998   0.964   0.979   1.050   1.130   1.156   1.092   0.961   0.822   0.727
   0.691   0.690
   0.680   0.680   0.685   0.712   0.782   0.902   1.042   1.146   1.173   1.129
   1.066   1.035   1.042   1.056   1.043   1.000   0.950   0.915   0.903   0.915
   0.950   1.000   1.043   1.056   1.042   1.035   1.066   1.129   1.173   1.146
   1.042   0.902   0.782   0.712   0.685   0.680   0.680   0.680   0.685   0.712
   0.782   0.902   1.042   1.146   1.173   1.129   1.066   1.035   1.042   1.056
   1.043   1.000   0.950   0.915   0.903   0.915   0.950   1.000   1.043   1.056
   1.042   1.035   1.066   1.129   1.173   1.146   1.042   0.902   0.782   0.712
   0.685   0.680
   0.817   0.834   0.868   0.895   0.916   0.957   1.033   1.118   1.164   1.153
   1.112   1.085   1.086   1.087   1.054   0.984   0.903   0.844   0.823   0.844
   0.903   0.984   1.054   1.087   1.086   1.085   1.112   1.153   1.164   1.118
   1.033   0.957   0.916   0.895   0.868   0.834   0.817   0.834   0.868   0.895
   0.916   0.957   1.033   1.118   1.164   1.153   1.112   1.085   1.086   1.087
   1.054   0.984   0.903   0.844   0.823   0.844   0.903   0.984   1.054   1.087
   1.086   1.085   1.112   1.153   1.164   1.118   1.033   0.957   0.916   0.895
   0.868   0.834
   1.037   1.076   1.151   1.186   1.149   1.083   1.052   1.074   1.110   1.124
   1.116   1.118   1.137   1.144   1.102   1.007   0.892   0.803   0.770   0.803
   0.892   1.007   1.102   1.144   1.137   1.118   1.116   1.124   1.110   1.074
   1.052   1.083   1.149   1.186   1.151   1.076   1.037   1.076   1.151   1.186
   1.149   1.083   1.052   1.074   1.110   1.124   1.116   1.118   1.137   1.144
   1.102   1.007   0.892   0.803   0.770   0.803   0.892   1.007   1.102   1.144
   1.137   1.118   1.116   1.124   1.110   1.074   1.052   1.083   1.149   1.186
   1.151   1.076
   1.199   1.254   1.360   1.403   1.326   1.183   1.071   1.039   1.060   1.087
   1.106   1.134   1.175   1.193   1.150   1.038   0.900   0.789   0.748   0.789
   0.900   1.038   1.150   1.193   1.175   1.134   1.106   1.087   1.060   1.039
   1.071   1.183   1.326   1.403   1.360   1.254   1.199   1.254   1.360   1.403
   1.326   1.183   1.071   1.039   1.060   1.087   1.106   1.134   1.175   1.193
   1.150   1.038   0.900   0.789   0.748   0.789   0.900   1.038   1.150   1.193
   1.175   1.134   1.106   1.087   1.060   1.039   1.071   1.183   1.326   1.403
   1.360   1.254
TEXTURE_INDEX=   1.7168
ERR_CF 220         1080     562   15.94   13.59
ERR_CF 200         1080     568   14.23   11.69
ERR_CF 111         1080     380   18.52    8.61
