TEXEVAL                                                                         
Analysis started on 21-Sep-20 10:44:30                                          
 LMAX=14LFMAX=03 CUBIC ORTHO   
 220      5.00 5.00
 200      5.00 5.00
 111      5.00 5.00
 220       5.00   72    0 5.00   15    0
   3.167   3.167   3.167   3.167   3.167   3.167   3.167   3.167   3.167   3.167
   3.167   3.167   3.167   3.167   3.167   3.167   3.167   3.167   3.167   3.167
   3.167   3.167   3.167   3.167   3.167   3.167   3.167   3.167   3.167   3.167
   3.167   3.167   3.167   3.167   3.167   3.167   3.167   3.167   3.167   3.167
   3.167   3.167   3.167   3.167   3.167   3.167   3.167   3.167   3.167   3.167
   3.167   3.167   3.167   3.167   3.167   3.167   3.167   3.167   3.167   3.167
   3.167   3.167   3.167   3.167   3.167   3.167   3.167   3.167   3.167   3.167
   3.167   3.167
   1.290   1.218   1.267   1.299   1.318   1.432   1.576   1.710   1.669   1.802
   1.988   2.133   2.379   2.678   2.870   3.085   3.368   3.576   3.594   3.576
   3.368   3.085   2.870   2.678   2.379   2.133   1.988   1.802   1.669   1.710
   1.576   1.432   1.318   1.299   1.267   1.218   1.290   1.218   1.267   1.299
   1.318   1.432   1.576   1.710   1.669   1.802   1.988   2.133   2.379   2.678
   2.870   3.085   3.368   3.576   3.594   3.576   3.368   3.085   2.870   2.678
   2.379   2.133   1.988   1.802   1.669   1.710   1.576   1.432   1.318   1.299
   1.267   1.218
   0.539   0.522   0.596   0.606   0.632   0.693   0.720   0.797   0.893   0.973
   1.210   1.369   1.717   2.125   2.443   2.830   3.524   3.932   3.955   3.932
   3.524   2.830   2.443   2.125   1.717   1.369   1.210   0.973   0.893   0.797
   0.720   0.693   0.632   0.606   0.596   0.522   0.539   0.522   0.596   0.606
   0.632   0.693   0.720   0.797   0.893   0.973   1.210   1.369   1.717   2.125
   2.443   2.830   3.524   3.932   3.955   3.932   3.524   2.830   2.443   2.125
   1.717   1.369   1.210   0.973   0.893   0.797   0.720   0.693   0.632   0.606
   0.596   0.522
   0.441   0.366   0.395   0.379   0.406   0.384   0.414   0.499   0.529   0.677
   0.793   1.049   1.276   1.682   2.202   2.769   3.547   4.183   4.498   4.183
   3.547   2.769   2.202   1.682   1.276   1.049   0.793   0.677   0.529   0.499
   0.414   0.384   0.406   0.379   0.395   0.366   0.441   0.366   0.395   0.379
   0.406   0.384   0.414   0.499   0.529   0.677   0.793   1.049   1.276   1.682
   2.202   2.769   3.547   4.183   4.498   4.183   3.547   2.769   2.202   1.682
   1.276   1.049   0.793   0.677   0.529   0.499   0.414   0.384   0.406   0.379
   0.395   0.366
   0.440   0.267   0.358   0.343   0.334   0.367   0.389   0.484   0.461   0.559
   0.630   0.887   0.975   1.455   2.088   2.754   3.486   4.130   4.457   4.130
   3.486   2.754   2.088   1.455   0.975   0.887   0.630   0.559   0.461   0.484
   0.389   0.367   0.334   0.343   0.358   0.267   0.440   0.267   0.358   0.343
   0.334   0.367   0.389   0.484   0.461   0.559   0.630   0.887   0.975   1.455
   2.088   2.754   3.486   4.130   4.457   4.130   3.486   2.754   2.088   1.455
   0.975   0.887   0.630   0.559   0.461   0.484   0.389   0.367   0.334   0.343
   0.358   0.267
   0.327   0.255   0.301   0.332   0.352   0.377   0.501   0.474   0.491   0.557
   0.642   0.941   1.056   1.562   2.143   2.749   3.188   3.467   3.604   3.467
   3.188   2.749   2.143   1.562   1.056   0.941   0.642   0.557   0.491   0.474
   0.501   0.377   0.352   0.332   0.301   0.255   0.327   0.255   0.301   0.332
   0.352   0.377   0.501   0.474   0.491   0.557   0.642   0.941   1.056   1.562
   2.143   2.749   3.188   3.467   3.604   3.467   3.188   2.749   2.143   1.562
   1.056   0.941   0.642   0.557   0.491   0.474   0.501   0.377   0.352   0.332
   0.301   0.255
   0.336   0.263   0.231   0.310   0.354   0.403   0.440   0.536   0.606   0.574
   0.744   0.989   1.248   1.655   2.217   2.633   2.605   2.574   2.395   2.574
   2.605   2.633   2.217   1.655   1.248   0.989   0.744   0.574   0.606   0.536
   0.440   0.403   0.354   0.310   0.231   0.263   0.336   0.263   0.231   0.310
   0.354   0.403   0.440   0.536   0.606   0.574   0.744   0.989   1.248   1.655
   2.217   2.633   2.605   2.574   2.395   2.574   2.605   2.633   2.217   1.655
   1.248   0.989   0.744   0.574   0.606   0.536   0.440   0.403   0.354   0.310
   0.231   0.263
   0.424   0.353   0.287   0.429   0.346   0.503   0.405   0.496   0.632   0.602
   0.700   0.997   1.190   1.733   2.146   2.534   1.845   1.791   1.372   1.791
   1.845   2.534   2.146   1.733   1.190   0.997   0.700   0.602   0.632   0.496
   0.405   0.503   0.346   0.429   0.287   0.353   0.424   0.353   0.287   0.429
   0.346   0.503   0.405   0.496   0.632   0.602   0.700   0.997   1.190   1.733
   2.146   2.534   1.845   1.791   1.372   1.791   1.845   2.534   2.146   1.733
   1.190   0.997   0.700   0.602   0.632   0.496   0.405   0.503   0.346   0.429
   0.287   0.353
   0.525   0.492   0.430   0.539   0.437   0.485   0.403   0.504   0.531   0.622
   0.640   0.785   0.944   1.625   1.975   2.004   1.102   1.053   0.784   1.053
   1.102   2.004   1.975   1.625   0.944   0.785   0.640   0.622   0.531   0.504
   0.403   0.485   0.437   0.539   0.430   0.492   0.525   0.492   0.430   0.539
   0.437   0.485   0.403   0.504   0.531   0.622   0.640   0.785   0.944   1.625
   1.975   2.004   1.102   1.053   0.784   1.053   1.102   2.004   1.975   1.625
   0.944   0.785   0.640   0.622   0.531   0.504   0.403   0.485   0.437   0.539
   0.430   0.492
   0.871   0.672   0.716   0.636   0.594   0.453   0.415   0.512   0.441   0.567
   0.624   0.586   0.800   1.245   1.673   1.501   0.799   0.824   0.484   0.824
   0.799   1.501   1.673   1.245   0.800   0.586   0.624   0.567   0.441   0.512
   0.415   0.453   0.594   0.636   0.716   0.672   0.871   0.672   0.716   0.636
   0.594   0.453   0.415   0.512   0.441   0.567   0.624   0.586   0.800   1.245
   1.673   1.501   0.799   0.824   0.484   0.824   0.799   1.501   1.673   1.245
   0.800   0.586   0.624   0.567   0.441   0.512   0.415   0.453   0.594   0.636
   0.716   0.672
   1.626   1.591   1.174   1.042   0.855   0.758   0.636   0.570   0.498   0.447
   0.609   0.721   0.850   0.973   1.233   1.362   0.936   0.721   0.452   0.721
   0.936   1.362   1.233   0.973   0.850   0.721   0.609   0.447   0.498   0.570
   0.636   0.758   0.855   1.042   1.174   1.591   1.626   1.591   1.174   1.042
   0.855   0.758   0.636   0.570   0.498   0.447   0.609   0.721   0.850   0.973
   1.233   1.362   0.936   0.721   0.452   0.721   0.936   1.362   1.233   0.973
   0.850   0.721   0.609   0.447   0.498   0.570   0.636   0.758   0.855   1.042
   1.174   1.591
   4.072   3.649   2.871   2.058   1.459   1.354   0.878   0.802   0.778   0.370
   0.546   0.824   0.747   0.620   0.998   0.967   1.004   0.531   0.368   0.531
   1.004   0.967   0.998   0.620   0.747   0.824   0.546   0.370   0.778   0.802
   0.878   1.354   1.459   2.058   2.871   3.649   4.072   3.649   2.871   2.058
   1.459   1.354   0.878   0.802   0.778   0.370   0.546   0.824   0.747   0.620
   0.998   0.967   1.004   0.531   0.368   0.531   1.004   0.967   0.998   0.620
   0.747   0.824   0.546   0.370   0.778   0.802   0.878   1.354   1.459   2.058
   2.871   3.649
   4.804   4.863   3.986   2.609   1.830   1.888   1.282   1.227   1.183   0.808
   0.802   0.768   0.797   0.753   1.051   0.680   0.580   0.620   0.608   0.620
   0.580   0.680   1.051   0.753   0.797   0.768   0.802   0.808   1.183   1.227
   1.282   1.888   1.830   2.609   3.986   4.863   4.804   4.863   3.986   2.609
   1.830   1.888   1.282   1.227   1.183   0.808   0.802   0.768   0.797   0.753
   1.051   0.680   0.580   0.620   0.608   0.620   0.580   0.680   1.051   0.753
   0.797   0.768   0.802   0.808   1.183   1.227   1.282   1.888   1.830   2.609
   3.986   4.863
   2.380   3.086   2.289   1.691   1.295   1.545   1.373   1.152   1.357   1.182
   0.896   0.558   0.793   0.782   1.193   0.948   0.595   0.680   0.804   0.680
   0.595   0.948   1.193   0.782   0.793   0.558   0.896   1.182   1.357   1.152
   1.373   1.545   1.295   1.691   2.289   3.086   2.380   3.086   2.289   1.691
   1.295   1.545   1.373   1.152   1.357   1.182   0.896   0.558   0.793   0.782
   1.193   0.948   0.595   0.680   0.804   0.680   0.595   0.948   1.193   0.782
   0.793   0.558   0.896   1.182   1.357   1.152   1.373   1.545   1.295   1.691
   2.289   3.086
   0.956   0.952   0.535   0.682   0.702   0.719   0.891   0.835   0.881   0.850
   0.528   0.679   0.513   0.590   0.796   1.223   0.667   0.652   0.416   0.652
   0.667   1.223   0.796   0.590   0.513   0.679   0.528   0.850   0.881   0.835
   0.891   0.719   0.702   0.682   0.535   0.952   0.956   0.952   0.535   0.682
   0.702   0.719   0.891   0.835   0.881   0.850   0.528   0.679   0.513   0.590
   0.796   1.223   0.667   0.652   0.416   0.652   0.667   1.223   0.796   0.590
   0.513   0.679   0.528   0.850   0.881   0.835   0.891   0.719   0.702   0.682
   0.535   0.952
 200       5.00   72    0 5.00   15    0
   0.907   0.907   0.907   0.907   0.907   0.907   0.907   0.907   0.907   0.907
   0.907   0.907   0.907   0.907   0.907   0.907   0.907   0.907   0.907   0.907
   0.907   0.907   0.907   0.907   0.907   0.907   0.907   0.907   0.907   0.907
   0.907   0.907   0.907   0.907   0.907   0.907   0.907   0.907   0.907   0.907
   0.907   0.907   0.907   0.907   0.907   0.907   0.907   0.907   0.907   0.907
   0.907   0.907   0.907   0.907   0.907   0.907   0.907   0.907   0.907   0.907
   0.907   0.907   0.907   0.907   0.907   0.907   0.907   0.907   0.907   0.907
   0.907   0.907
   1.013   0.972   1.008   0.942   0.969   0.945   0.945   0.908   0.951   0.941
   0.865   0.859   0.848   0.845   0.827   0.796   0.831   0.805   0.813   0.805
   0.831   0.796   0.827   0.845   0.848   0.859   0.865   0.941   0.951   0.908
   0.945   0.945   0.969   0.942   1.008   0.972   1.013   0.972   1.008   0.942
   0.969   0.945   0.945   0.908   0.951   0.941   0.865   0.859   0.848   0.845
   0.827   0.796   0.831   0.805   0.813   0.805   0.831   0.796   0.827   0.845
   0.848   0.859   0.865   0.941   0.951   0.908   0.945   0.945   0.969   0.942
   1.008   0.972
   1.157   1.081   1.084   1.110   1.048   1.021   0.937   0.948   0.940   0.931
   0.815   0.833   0.750   0.721   0.786   0.749   0.734   0.707   0.728   0.707
   0.734   0.749   0.786   0.721   0.750   0.833   0.815   0.931   0.940   0.948
   0.937   1.021   1.048   1.110   1.084   1.081   1.157   1.081   1.084   1.110
   1.048   1.021   0.937   0.948   0.940   0.931   0.815   0.833   0.750   0.721
   0.786   0.749   0.734   0.707   0.728   0.707   0.734   0.749   0.786   0.721
   0.750   0.833   0.815   0.931   0.940   0.948   0.937   1.021   1.048   1.110
   1.084   1.081
   1.549   1.500   1.413   1.531   1.352   1.271   1.185   1.108   1.063   0.951
   0.863   0.810   0.788   0.685   0.717   0.708   0.634   0.638   0.660   0.638
   0.634   0.708   0.717   0.685   0.788   0.810   0.863   0.951   1.063   1.108
   1.185   1.271   1.352   1.531   1.413   1.500   1.549   1.500   1.413   1.531
   1.352   1.271   1.185   1.108   1.063   0.951   0.863   0.810   0.788   0.685
   0.717   0.708   0.634   0.638   0.660   0.638   0.634   0.708   0.717   0.685
   0.788   0.810   0.863   0.951   1.063   1.108   1.185   1.271   1.352   1.531
   1.413   1.500
   2.674   2.545   2.389   2.367   2.204   1.975   1.807   1.557   1.369   1.101
   0.979   0.810   0.841   0.627   0.619   0.637   0.585   0.566   0.624   0.566
   0.585   0.637   0.619   0.627   0.841   0.810   0.979   1.101   1.369   1.557
   1.807   1.975   2.204   2.367   2.389   2.545   2.674   2.545   2.389   2.367
   2.204   1.975   1.807   1.557   1.369   1.101   0.979   0.810   0.841   0.627
   0.619   0.637   0.585   0.566   0.624   0.566   0.585   0.637   0.619   0.627
   0.841   0.810   0.979   1.101   1.369   1.557   1.807   1.975   2.204   2.367
   2.389   2.545
   3.356   3.184   3.153   3.034   3.160   3.023   2.885   2.434   1.991   1.550
   1.162   1.012   0.792   0.594   0.498   0.556   0.565   0.442   0.486   0.442
   0.565   0.556   0.498   0.594   0.792   1.012   1.162   1.550   1.991   2.434
   2.885   3.023   3.160   3.034   3.153   3.184   3.356   3.184   3.153   3.034
   3.160   3.023   2.885   2.434   1.991   1.550   1.162   1.012   0.792   0.594
   0.498   0.556   0.565   0.442   0.486   0.442   0.565   0.556   0.498   0.594
   0.792   1.012   1.162   1.550   1.991   2.434   2.885   3.023   3.160   3.034
   3.153   3.184
   2.051   2.074   2.188   2.149   2.448   2.584   2.808   2.748   2.580   2.044
   1.507   1.096   0.796   0.573   0.438   0.480   0.465   0.413   0.316   0.413
   0.465   0.480   0.438   0.573   0.796   1.096   1.507   2.044   2.580   2.748
   2.808   2.584   2.448   2.149   2.188   2.074   2.051   2.074   2.188   2.149
   2.448   2.584   2.808   2.748   2.580   2.044   1.507   1.096   0.796   0.573
   0.438   0.480   0.465   0.413   0.316   0.413   0.465   0.480   0.438   0.573
   0.796   1.096   1.507   2.044   2.580   2.748   2.808   2.584   2.448   2.149
   2.188   2.074
   0.653   0.675   0.923   0.863   1.002   1.125   1.464   1.868   2.246   2.086
   1.683   1.029   0.932   0.662   0.524   0.441   0.377   0.432   0.254   0.432
   0.377   0.441   0.524   0.662   0.932   1.029   1.683   2.086   2.246   1.868
   1.464   1.125   1.002   0.863   0.923   0.675   0.653   0.675   0.923   0.863
   1.002   1.125   1.464   1.868   2.246   2.086   1.683   1.029   0.932   0.662
   0.524   0.441   0.377   0.432   0.254   0.432   0.377   0.441   0.524   0.662
   0.932   1.029   1.683   2.086   2.246   1.868   1.464   1.125   1.002   0.863
   0.923   0.675
   0.256   0.297   0.427   0.404   0.404   0.442   0.601   0.898   1.230   1.487
   1.468   1.095   1.148   0.853   0.582   0.477   0.352   0.330   0.236   0.330
   0.352   0.477   0.582   0.853   1.148   1.095   1.468   1.487   1.230   0.898
   0.601   0.442   0.404   0.404   0.427   0.297   0.256   0.297   0.427   0.404
   0.404   0.442   0.601   0.898   1.230   1.487   1.468   1.095   1.148   0.853
   0.582   0.477   0.352   0.330   0.236   0.330   0.352   0.477   0.582   0.853
   1.148   1.095   1.468   1.487   1.230   0.898   0.601   0.442   0.404   0.404
   0.427   0.297
   0.106   0.178   0.210   0.238   0.159   0.276   0.328   0.540   0.596   0.941
   1.304   1.323   1.267   1.035   0.669   0.540   0.358   0.327   0.246   0.327
   0.358   0.540   0.669   1.035   1.267   1.323   1.304   0.941   0.596   0.540
   0.328   0.276   0.159   0.238   0.210   0.178   0.106   0.178   0.210   0.238
   0.159   0.276   0.328   0.540   0.596   0.941   1.304   1.323   1.267   1.035
   0.669   0.540   0.358   0.327   0.246   0.327   0.358   0.540   0.669   1.035
   1.267   1.323   1.304   0.941   0.596   0.540   0.328   0.276   0.159   0.238
   0.210   0.178
   0.157   0.094   0.186   0.206   0.181   0.281   0.359   0.390   0.525   0.852
   1.290   1.625   1.396   1.221   0.707   0.487   0.314   0.470   0.363   0.470
   0.314   0.487   0.707   1.221   1.396   1.625   1.290   0.852   0.525   0.390
   0.359   0.281   0.181   0.206   0.186   0.094   0.157   0.094   0.186   0.206
   0.181   0.281   0.359   0.390   0.525   0.852   1.290   1.625   1.396   1.221
   0.707   0.487   0.314   0.470   0.363   0.470   0.314   0.487   0.707   1.221
   1.396   1.625   1.290   0.852   0.525   0.390   0.359   0.281   0.181   0.206
   0.186   0.094
   0.098   0.217   0.147   0.208   0.197   0.209   0.334   0.294   0.438   0.670
   1.310   1.882   1.466   1.301   0.687   0.455   0.273   0.571   0.559   0.571
   0.273   0.455   0.687   1.301   1.466   1.882   1.310   0.670   0.438   0.294
   0.334   0.209   0.197   0.208   0.147   0.217   0.098   0.217   0.147   0.208
   0.197   0.209   0.334   0.294   0.438   0.670   1.310   1.882   1.466   1.301
   0.687   0.455   0.273   0.571   0.559   0.571   0.273   0.455   0.687   1.301
   1.466   1.882   1.310   0.670   0.438   0.294   0.334   0.209   0.197   0.208
   0.147   0.217
   0.223   0.264   0.202   0.257   0.240   0.275   0.402   0.450   0.624   0.703
   1.872   2.246   1.583   1.143   0.737   0.552   0.398   0.540   0.630   0.540
   0.398   0.552   0.737   1.143   1.583   2.246   1.872   0.703   0.624   0.450
   0.402   0.275   0.240   0.257   0.202   0.264   0.223   0.264   0.202   0.257
   0.240   0.275   0.402   0.450   0.624   0.703   1.872   2.246   1.583   1.143
   0.737   0.552   0.398   0.540   0.630   0.540   0.398   0.552   0.737   1.143
   1.583   2.246   1.872   0.703   0.624   0.450   0.402   0.275   0.240   0.257
   0.202   0.264
   0.299   0.309   0.445   0.412   0.359   0.490   0.567   0.844   1.358   1.515
   2.283   2.169   1.483   0.816   0.638   0.474   0.357   0.404   0.476   0.404
   0.357   0.474   0.638   0.816   1.483   2.169   2.283   1.515   1.358   0.844
   0.567   0.490   0.359   0.412   0.445   0.309   0.299   0.309   0.445   0.412
   0.359   0.490   0.567   0.844   1.358   1.515   2.283   2.169   1.483   0.816
   0.638   0.474   0.357   0.404   0.476   0.404   0.357   0.474   0.638   0.816
   1.483   2.169   2.283   1.515   1.358   0.844   0.567   0.490   0.359   0.412
   0.445   0.309
   0.594   0.600   0.503   0.484   0.508   0.594   0.830   1.189   1.947   2.382
   1.695   1.523   1.001   0.782   0.408   0.438   0.351   0.570   0.449   0.570
   0.351   0.438   0.408   0.782   1.001   1.523   1.695   2.382   1.947   1.189
   0.830   0.594   0.508   0.484   0.503   0.600   0.594   0.600   0.503   0.484
   0.508   0.594   0.830   1.189   1.947   2.382   1.695   1.523   1.001   0.782
   0.408   0.438   0.351   0.570   0.449   0.570   0.351   0.438   0.408   0.782
   1.001   1.523   1.695   2.382   1.947   1.189   0.830   0.594   0.508   0.484
   0.503   0.600
 111       5.00   72    0 5.00   15    0
   0.165   0.165   0.165   0.165   0.165   0.165   0.165   0.165   0.165   0.165
   0.165   0.165   0.165   0.165   0.165   0.165   0.165   0.165   0.165   0.165
   0.165   0.165   0.165   0.165   0.165   0.165   0.165   0.165   0.165   0.165
   0.165   0.165   0.165   0.165   0.165   0.165   0.165   0.165   0.165   0.165
   0.165   0.165   0.165   0.165   0.165   0.165   0.165   0.165   0.165   0.165
   0.165   0.165   0.165   0.165   0.165   0.165   0.165   0.165   0.165   0.165
   0.165   0.165   0.165   0.165   0.165   0.165   0.165   0.165   0.165   0.165
   0.165   0.165
   0.203   0.203   0.231   0.230   0.196   0.215   0.203   0.197   0.179   0.182
   0.194   0.175   0.172   0.169   0.165   0.161   0.174   0.159   0.146   0.159
   0.174   0.161   0.165   0.169   0.172   0.175   0.194   0.182   0.179   0.197
   0.203   0.215   0.196   0.230   0.231   0.203   0.203   0.203   0.231   0.230
   0.196   0.215   0.203   0.197   0.179   0.182   0.194   0.175   0.172   0.169
   0.165   0.161   0.174   0.159   0.146   0.159   0.174   0.161   0.165   0.169
   0.172   0.175   0.194   0.182   0.179   0.197   0.203   0.215   0.196   0.230
   0.231   0.203
   0.316   0.318   0.332   0.338   0.278   0.272   0.266   0.218   0.215   0.215
   0.204   0.179   0.184   0.172   0.174   0.147   0.164   0.153   0.126   0.153
   0.164   0.147   0.174   0.172   0.184   0.179   0.204   0.215   0.215   0.218
   0.266   0.272   0.278   0.338   0.332   0.318   0.316   0.318   0.332   0.338
   0.278   0.272   0.266   0.218   0.215   0.215   0.204   0.179   0.184   0.172
   0.174   0.147   0.164   0.153   0.126   0.153   0.164   0.147   0.174   0.172
   0.184   0.179   0.204   0.215   0.215   0.218   0.266   0.272   0.278   0.338
   0.332   0.318
   0.749   0.732   0.707   0.633   0.550   0.466   0.437   0.377   0.300   0.264
   0.240   0.210   0.205   0.194   0.173   0.162   0.151   0.171   0.148   0.171
   0.151   0.162   0.173   0.194   0.205   0.210   0.240   0.264   0.300   0.377
   0.437   0.466   0.550   0.633   0.707   0.732   0.749   0.732   0.707   0.633
   0.550   0.466   0.437   0.377   0.300   0.264   0.240   0.210   0.205   0.194
   0.173   0.162   0.151   0.171   0.148   0.171   0.151   0.162   0.173   0.194
   0.205   0.210   0.240   0.264   0.300   0.377   0.437   0.466   0.550   0.633
   0.707   0.732
   2.493   2.356   2.180   1.831   1.397   1.102   0.809   0.645   0.490   0.331
   0.316   0.252   0.208   0.177   0.162   0.175   0.140   0.164   0.156   0.164
   0.140   0.175   0.162   0.177   0.208   0.252   0.316   0.331   0.490   0.645
   0.809   1.102   1.397   1.831   2.180   2.356   2.493   2.356   2.180   1.831
   1.397   1.102   0.809   0.645   0.490   0.331   0.316   0.252   0.208   0.177
   0.162   0.175   0.140   0.164   0.156   0.164   0.140   0.175   0.162   0.177
   0.208   0.252   0.316   0.331   0.490   0.645   0.809   1.102   1.397   1.831
   2.180   2.356
   4.899   4.945   4.615   3.825   3.164   2.330   1.615   1.193   0.816   0.539
   0.449   0.315   0.245   0.193   0.180   0.160   0.142   0.125   0.203   0.125
   0.142   0.160   0.180   0.193   0.245   0.315   0.449   0.539   0.816   1.193
   1.615   2.330   3.164   3.825   4.615   4.945   4.899   4.945   4.615   3.825
   3.164   2.330   1.615   1.193   0.816   0.539   0.449   0.315   0.245   0.193
   0.180   0.160   0.142   0.125   0.203   0.125   0.142   0.160   0.180   0.193
   0.245   0.315   0.449   0.539   0.816   1.193   1.615   2.330   3.164   3.825
   4.615   4.945
   4.487   4.602   4.427   3.892   3.704   2.902   2.317   1.819   1.374   0.988
   0.801   0.569   0.425   0.337   0.268   0.208   0.195   0.151   0.233   0.151
   0.195   0.208   0.268   0.337   0.425   0.569   0.801   0.988   1.374   1.819
   2.317   2.902   3.704   3.892   4.427   4.602   4.487   4.602   4.427   3.892
   3.704   2.902   2.317   1.819   1.374   0.988   0.801   0.569   0.425   0.337
   0.268   0.208   0.195   0.151   0.233   0.151   0.195   0.208   0.268   0.337
   0.425   0.569   0.801   0.988   1.374   1.819   2.317   2.902   3.704   3.892
   4.427   4.602
   2.159   2.121   2.111   2.182   2.430   2.203   2.241   1.932   1.821   1.605
   1.401   1.030   0.772   0.556   0.498   0.419   0.313   0.326   0.280   0.326
   0.313   0.419   0.498   0.556   0.772   1.030   1.401   1.605   1.821   1.932
   2.241   2.203   2.430   2.182   2.111   2.121   2.159   2.121   2.111   2.182
   2.430   2.203   2.241   1.932   1.821   1.605   1.401   1.030   0.772   0.556
   0.498   0.419   0.313   0.326   0.280   0.326   0.313   0.419   0.498   0.556
   0.772   1.030   1.401   1.605   1.821   1.932   2.241   2.203   2.430   2.182
   2.111   2.121
   0.933   0.934   0.985   1.040   1.273   1.375   1.644   1.626   1.814   2.029
   1.971   1.664   1.220   0.940   0.727   0.596   0.480   0.414   0.430   0.414
   0.480   0.596   0.727   0.940   1.220   1.664   1.971   2.029   1.814   1.626
   1.644   1.375   1.273   1.040   0.985   0.934   0.933   0.934   0.985   1.040
   1.273   1.375   1.644   1.626   1.814   2.029   1.971   1.664   1.220   0.940
   0.727   0.596   0.480   0.414   0.430   0.414   0.480   0.596   0.727   0.940
   1.220   1.664   1.971   2.029   1.814   1.626   1.644   1.375   1.273   1.040
   0.985   0.934
   0.482   0.526   0.549   0.508   0.685   0.798   0.963   1.279   1.471   1.901
   2.062   2.078   1.752   1.388   0.986   0.791   0.622   0.510   0.592   0.510
   0.622   0.791   0.986   1.388   1.752   2.078   2.062   1.901   1.471   1.279
   0.963   0.798   0.685   0.508   0.549   0.526   0.482   0.526   0.549   0.508
   0.685   0.798   0.963   1.279   1.471   1.901   2.062   2.078   1.752   1.388
   0.986   0.791   0.622   0.510   0.592   0.510   0.622   0.791   0.986   1.388
   1.752   2.078   2.062   1.901   1.471   1.279   0.963   0.798   0.685   0.508
   0.549   0.526
   0.390   0.429   0.344   0.357   0.480   0.444   0.594   0.878   1.087   1.479
   1.813   1.906   2.026   1.831   1.456   1.107   0.856   0.841   0.909   0.841
   0.856   1.107   1.456   1.831   2.026   1.906   1.813   1.479   1.087   0.878
   0.594   0.444   0.480   0.357   0.344   0.429   0.390   0.429   0.344   0.357
   0.480   0.444   0.594   0.878   1.087   1.479   1.813   1.906   2.026   1.831
   1.456   1.107   0.856   0.841   0.909   0.841   0.856   1.107   1.456   1.831
   2.026   1.906   1.813   1.479   1.087   0.878   0.594   0.444   0.480   0.357
   0.344   0.429
   0.435   0.343   0.269   0.295   0.364   0.363   0.474   0.473   0.807   0.986
   1.349   1.343   1.640   1.867   1.688   1.606   1.381   1.216   1.237   1.216
   1.381   1.606   1.688   1.867   1.640   1.343   1.349   0.986   0.807   0.473
   0.474   0.363   0.364   0.295   0.269   0.343   0.435   0.343   0.269   0.295
   0.364   0.363   0.474   0.473   0.807   0.986   1.349   1.343   1.640   1.867
   1.688   1.606   1.381   1.216   1.237   1.216   1.381   1.606   1.688   1.867
   1.640   1.343   1.349   0.986   0.807   0.473   0.474   0.363   0.364   0.295
   0.269   0.343
   0.366   0.311   0.308   0.333   0.375   0.343   0.451   0.402   0.574   0.650
   0.812   0.869   0.994   1.254   1.384   1.835   1.833   1.728   1.550   1.728
   1.833   1.835   1.384   1.254   0.994   0.869   0.812   0.650   0.574   0.402
   0.451   0.343   0.375   0.333   0.308   0.311   0.366   0.311   0.308   0.333
   0.375   0.343   0.451   0.402   0.574   0.650   0.812   0.869   0.994   1.254
   1.384   1.835   1.833   1.728   1.550   1.728   1.833   1.835   1.384   1.254
   0.994   0.869   0.812   0.650   0.574   0.402   0.451   0.343   0.375   0.333
   0.308   0.311
   0.340   0.434   0.459   0.491   0.485   0.359   0.392   0.479   0.471   0.617
   0.464   0.622   0.745   0.780   1.138   1.537   1.692   1.839   1.703   1.839
   1.692   1.537   1.138   0.780   0.745   0.622   0.464   0.617   0.471   0.479
   0.392   0.359   0.485   0.491   0.459   0.434   0.340   0.434   0.459   0.491
   0.485   0.359   0.392   0.479   0.471   0.617   0.464   0.622   0.745   0.780
   1.138   1.537   1.692   1.839   1.703   1.839   1.692   1.537   1.138   0.780
   0.745   0.622   0.464   0.617   0.471   0.479   0.392   0.359   0.485   0.491
   0.459   0.434
   0.590   0.799   0.773   0.767   0.745   0.566   0.319   0.452   0.466   0.595
   0.439   0.524   0.749   0.649   1.037   1.102   1.367   1.673   2.180   1.673
   1.367   1.102   1.037   0.649   0.749   0.524   0.439   0.595   0.466   0.452
   0.319   0.566   0.745   0.767   0.773   0.799   0.590   0.799   0.773   0.767
   0.745   0.566   0.319   0.452   0.466   0.595   0.439   0.524   0.749   0.649
   1.037   1.102   1.367   1.673   2.180   1.673   1.367   1.102   1.037   0.649
   0.749   0.524   0.439   0.595   0.466   0.452   0.319   0.566   0.745   0.767
   0.773   0.799
  4  1      7.4996668E-01
  4  2     -5.0424131E-02
  4  3     -1.2230663E+00
  6  1      1.5105361E+00
  6  2     -3.3330108E+00
  6  3      1.1594058E+00
  6  4      2.5370833E-01
  8  1     -6.0925993E-01
  8  2      4.0225359E-01
  8  3     -6.7969564E-02
  8  4      1.1081073E+00
  8  5      7.6410146E-01
 10  1      4.0347522E-02
 10  2     -3.3364320E-01
 10  3      1.0510589E+00
 10  4      4.7710257E-01
 10  5      1.8124531E-03
 10  6     -6.6797561E-01
 12  1     -1.6941073E-02  1.4584211E+00
 12  2     -1.2982749E-04 -1.8023985E+00
 12  3     -2.5995930E-02  1.9757581E+00
 12  4     -1.3922559E-01 -7.3383916E-01
 12  5     -2.1008894E-02 -2.8705326E-01
 12  6     -1.0846366E+00  3.2585676E-01
 12  7     -1.4333637E-01 -1.6282991E-01
 14  1     -6.7731662E-01
 14  2      6.9850475E-01
 14  3     -7.8507831E-02
 14  4      1.3232406E-01
 14  5     -7.0682055E-01
 14  6      2.0507380E-01
 14  7     -8.1470970E-02
 14  8      1.4613628E-01
 220       5.00   72    0 5.00   18    0
   1.924   1.924   1.927   1.931   1.936   1.943   1.951   1.959   1.968   1.978
   1.987   1.996   2.005   2.013   2.020   2.026   2.030   2.032   2.033   2.032
   2.030   2.026   2.020   2.013   2.005   1.996   1.987   1.978   1.968   1.959
   1.951   1.943   1.936   1.931   1.927   1.924   1.924   1.924   1.927   1.931
   1.936   1.943   1.951   1.959   1.968   1.978   1.987   1.996   2.005   2.013
   2.020   2.026   2.030   2.032   2.033   2.032   2.030   2.026   2.020   2.013
   2.005   1.996   1.987   1.978   1.968   1.959   1.951   1.943   1.936   1.931
   1.927   1.924
   1.263   1.268   1.284   1.310   1.347   1.393   1.449   1.512   1.582   1.657
   1.734   1.811   1.886   1.956   2.018   2.069   2.107   2.131   2.139   2.131
   2.107   2.069   2.018   1.956   1.886   1.811   1.734   1.657   1.582   1.512
   1.449   1.393   1.347   1.310   1.284   1.268   1.263   1.268   1.284   1.310
   1.347   1.393   1.449   1.512   1.582   1.657   1.734   1.811   1.886   1.956
   2.018   2.069   2.107   2.131   2.139   2.131   2.107   2.069   2.018   1.956
   1.886   1.811   1.734   1.657   1.582   1.512   1.449   1.393   1.347   1.310
   1.284   1.268
   0.424   0.430   0.451   0.486   0.538   0.609   0.702   0.816   0.953   1.110
   1.284   1.468   1.655   1.836   2.002   2.143   2.250   2.317   2.340   2.317
   2.250   2.143   2.002   1.836   1.655   1.468   1.284   1.110   0.953   0.816
   0.702   0.609   0.538   0.486   0.451   0.430   0.424   0.430   0.451   0.486
   0.538   0.609   0.702   0.816   0.953   1.110   1.284   1.468   1.655   1.836
   2.002   2.143   2.250   2.317   2.340   2.317   2.250   2.143   2.002   1.836
   1.655   1.468   1.284   1.110   0.953   0.816   0.702   0.609   0.538   0.486
   0.451   0.430
  -0.026  -0.027  -0.028  -0.025  -0.010   0.025   0.091   0.194   0.344   0.541
   0.783   1.061   1.363   1.669   1.958   2.210   2.406   2.530   2.572   2.530
   2.406   2.210   1.958   1.669   1.363   1.061   0.783   0.541   0.344   0.194
   0.091   0.025  -0.010  -0.025  -0.028  -0.027  -0.026  -0.027  -0.028  -0.025
  -0.010   0.025   0.091   0.194   0.344   0.541   0.783   1.061   1.363   1.669
   1.958   2.210   2.406   2.530   2.572   2.530   2.406   2.210   1.958   1.669
   1.363   1.061   0.783   0.541   0.344   0.194   0.091   0.025  -0.010  -0.025
  -0.028  -0.027
   0.083   0.072   0.042  -0.002  -0.050  -0.090  -0.104  -0.073   0.021   0.189
   0.435   0.751   1.116   1.504   1.881   2.215   2.476   2.642   2.699   2.642
   2.476   2.215   1.881   1.504   1.116   0.751   0.435   0.189   0.021  -0.073
  -0.104  -0.090  -0.050  -0.002   0.042   0.072   0.083   0.072   0.042  -0.002
  -0.050  -0.090  -0.104  -0.073   0.021   0.189   0.435   0.751   1.116   1.504
   1.881   2.215   2.476   2.642   2.699   2.642   2.476   2.215   1.881   1.504
   1.116   0.751   0.435   0.189   0.021  -0.073  -0.104  -0.090  -0.050  -0.002
   0.042   0.072
   0.391   0.383   0.357   0.312   0.249   0.173   0.102   0.060   0.077   0.177
   0.372   0.658   1.013   1.400   1.778   2.110   2.365   2.524   2.578   2.524
   2.365   2.110   1.778   1.400   1.013   0.658   0.372   0.177   0.077   0.060
   0.102   0.173   0.249   0.312   0.357   0.383   0.391   0.383   0.357   0.312
   0.249   0.173   0.102   0.060   0.077   0.177   0.372   0.658   1.013   1.400
   1.778   2.110   2.365   2.524   2.578   2.524   2.365   2.110   1.778   1.400
   1.013   0.658   0.372   0.177   0.077   0.060   0.102   0.173   0.249   0.312
   0.357   0.383
   0.399   0.411   0.441   0.472   0.484   0.466   0.421   0.370   0.349   0.395
   0.531   0.760   1.054   1.370   1.662   1.895   2.054   2.144   2.172   2.144
   2.054   1.895   1.662   1.370   1.054   0.760   0.531   0.395   0.349   0.370
   0.421   0.466   0.484   0.472   0.441   0.411   0.399   0.411   0.441   0.472
   0.484   0.466   0.421   0.370   0.349   0.395   0.531   0.760   1.054   1.370
   1.662   1.895   2.054   2.144   2.172   2.144   2.054   1.895   1.662   1.370
   1.054   0.760   0.531   0.395   0.349   0.370   0.421   0.466   0.484   0.472
   0.441   0.411
   0.066   0.098   0.186   0.307   0.426   0.514   0.555   0.557   0.554   0.591
   0.703   0.894   1.134   1.368   1.541   1.626   1.636   1.612   1.599   1.612
   1.636   1.626   1.541   1.368   1.134   0.894   0.703   0.591   0.554   0.557
   0.555   0.514   0.426   0.307   0.186   0.098   0.066   0.098   0.186   0.307
   0.426   0.514   0.555   0.557   0.554   0.591   0.703   0.894   1.134   1.368
   1.541   1.626   1.636   1.612   1.599   1.612   1.636   1.626   1.541   1.368
   1.134   0.894   0.703   0.591   0.554   0.557   0.555   0.514   0.426   0.307
   0.186   0.098
  -0.020  -0.001   0.058   0.154   0.273   0.391   0.479   0.528   0.555   0.602
   0.713   0.899   1.125   1.319   1.412   1.377   1.250   1.117   1.061   1.117
   1.250   1.377   1.412   1.319   1.125   0.899   0.713   0.602   0.555   0.528
   0.479   0.391   0.273   0.154   0.058  -0.001  -0.020  -0.001   0.058   0.154
   0.273   0.391   0.479   0.528   0.555   0.602   0.713   0.899   1.125   1.319
   1.412   1.377   1.250   1.117   1.061   1.117   1.250   1.377   1.412   1.319
   1.125   0.899   0.713   0.602   0.555   0.528   0.479   0.391   0.273   0.154
   0.058  -0.001
   0.811   0.765   0.650   0.528   0.450   0.434   0.454   0.474   0.480   0.500
   0.583   0.755   0.987   1.191   1.274   1.193   0.994   0.792   0.708   0.792
   0.994   1.193   1.274   1.191   0.987   0.755   0.583   0.500   0.480   0.474
   0.454   0.434   0.450   0.528   0.650   0.765   0.811   0.765   0.650   0.528
   0.450   0.434   0.454   0.474   0.480   0.500   0.583   0.755   0.987   1.191
   1.274   1.193   0.994   0.792   0.708   0.792   0.994   1.193   1.274   1.191
   0.987   0.755   0.583   0.500   0.480   0.474   0.454   0.434   0.450   0.528
   0.650   0.765
   2.497   2.352   1.976   1.514   1.114   0.855   0.722   0.646   0.569   0.497
   0.487   0.590   0.798   1.021   1.137   1.074   0.868   0.646   0.552   0.646
   0.868   1.074   1.137   1.021   0.798   0.590   0.487   0.497   0.569   0.646
   0.722   0.855   1.114   1.514   1.976   2.352   2.497   2.352   1.976   1.514
   1.114   0.855   0.722   0.646   0.569   0.497   0.487   0.590   0.798   1.021
   1.137   1.074   0.868   0.646   0.552   0.646   0.868   1.074   1.137   1.021
   0.798   0.590   0.487   0.497   0.569   0.646   0.722   0.855   1.114   1.514
   1.976   2.352
   4.042   3.821   3.244   2.525   1.887   1.455   1.214   1.061   0.900   0.713
   0.566   0.547   0.678   0.883   1.023   0.995   0.812   0.597   0.504   0.597
   0.812   0.995   1.023   0.883   0.678   0.547   0.566   0.713   0.900   1.061
   1.214   1.455   1.887   2.525   3.244   3.821   4.042   3.821   3.244   2.525
   1.887   1.455   1.214   1.061   0.900   0.713   0.566   0.547   0.678   0.883
   1.023   0.995   0.812   0.597   0.504   0.597   0.812   0.995   1.023   0.883
   0.678   0.547   0.566   0.713   0.900   1.061   1.214   1.455   1.887   2.525
   3.244   3.821
   4.294   4.068   3.485   2.770   2.158   1.770   1.578   1.457   1.290   1.047
   0.800   0.661   0.689   0.831   0.954   0.941   0.781   0.584   0.496   0.584
   0.781   0.941   0.954   0.831   0.689   0.661   0.800   1.047   1.290   1.457
   1.578   1.770   2.158   2.770   3.485   4.068   4.294   4.068   3.485   2.770
   2.158   1.770   1.578   1.457   1.290   1.047   0.800   0.661   0.689   0.831
   0.954   0.941   0.781   0.584   0.496   0.584   0.781   0.941   0.954   0.831
   0.689   0.661   0.800   1.047   1.290   1.457   1.578   1.770   2.158   2.770
   3.485   4.068
   3.016   2.861   2.468   2.017   1.679   1.531   1.526   1.543   1.473   1.286
   1.043   0.854   0.796   0.856   0.933   0.921   0.792   0.629   0.555   0.629
   0.792   0.921   0.933   0.856   0.796   0.854   1.043   1.286   1.473   1.543
   1.526   1.531   1.679   2.017   2.468   2.861   3.016   2.861   2.468   2.017
   1.679   1.531   1.526   1.543   1.473   1.286   1.043   0.854   0.796   0.856
   0.933   0.921   0.792   0.629   0.555   0.629   0.792   0.921   0.933   0.856
   0.796   0.854   1.043   1.286   1.473   1.543   1.526   1.531   1.679   2.017
   2.468   2.861
   1.166   1.106   0.968   0.849   0.831   0.932   1.105   1.269   1.348   1.310
   1.177   1.019   0.917   0.904   0.939   0.948   0.890   0.803   0.761   0.803
   0.890   0.948   0.939   0.904   0.917   1.019   1.177   1.310   1.348   1.269
   1.105   0.932   0.831   0.849   0.968   1.106   1.166   1.106   0.968   0.849
   0.831   0.932   1.105   1.269   1.348   1.310   1.177   1.019   0.917   0.904
   0.939   0.948   0.890   0.803   0.761   0.803   0.890   0.948   0.939   0.904
   0.917   1.019   1.177   1.310   1.348   1.269   1.105   0.932   0.831   0.849
   0.968   1.106
   0.012   0.016   0.041   0.114   0.243   0.419   0.623   0.838   1.036   1.168
   1.191   1.110   0.993   0.925   0.944   1.018   1.089   1.128   1.138   1.128
   1.089   1.018   0.944   0.925   0.993   1.110   1.191   1.168   1.036   0.838
   0.623   0.419   0.243   0.114   0.041   0.016   0.012   0.016   0.041   0.114
   0.243   0.419   0.623   0.838   1.036   1.168   1.191   1.110   0.993   0.925
   0.944   1.018   1.089   1.128   1.138   1.128   1.089   1.018   0.944   0.925
   0.993   1.110   1.191   1.168   1.036   0.838   0.623   0.419   0.243   0.114
   0.041   0.016
  -0.025  -0.008   0.041   0.111   0.179   0.242   0.329   0.491   0.737   0.995
   1.151   1.140   1.016   0.911   0.936   1.101   1.325   1.507   1.575   1.507
   1.325   1.101   0.936   0.911   1.016   1.140   1.151   0.995   0.737   0.491
   0.329   0.242   0.179   0.111   0.041  -0.008  -0.025  -0.008   0.041   0.111
   0.179   0.242   0.329   0.491   0.737   0.995   1.151   1.140   1.016   0.911
   0.936   1.101   1.325   1.507   1.575   1.507   1.325   1.101   0.936   0.911
   1.016   1.140   1.151   0.995   0.737   0.491   0.329   0.242   0.179   0.111
   0.041  -0.008
   0.382   0.389   0.402   0.397   0.351   0.273   0.233   0.323   0.572   0.892
   1.118   1.145   1.014   0.889   0.925   1.156   1.487   1.765   1.873   1.765
   1.487   1.156   0.925   0.889   1.014   1.145   1.118   0.892   0.572   0.323
   0.233   0.273   0.351   0.397   0.402   0.389   0.382   0.389   0.402   0.397
   0.351   0.273   0.233   0.323   0.572   0.892   1.118   1.145   1.014   0.889
   0.925   1.156   1.487   1.765   1.873   1.765   1.487   1.156   0.925   0.889
   1.014   1.145   1.118   0.892   0.572   0.323   0.233   0.273   0.351   0.397
   0.402   0.389
 200       5.00   72    0 5.00   18    0
   1.165   1.165   1.166   1.167   1.168   1.170   1.172   1.174   1.177   1.179
   1.182   1.184   1.187   1.189   1.191   1.192   1.193   1.194   1.194   1.194
   1.193   1.192   1.191   1.189   1.187   1.184   1.182   1.179   1.177   1.174
   1.172   1.170   1.168   1.167   1.166   1.165   1.165   1.165   1.166   1.167
   1.168   1.170   1.172   1.174   1.177   1.179   1.182   1.184   1.187   1.189
   1.191   1.192   1.193   1.194   1.194   1.194   1.193   1.192   1.191   1.189
   1.187   1.184   1.182   1.179   1.177   1.174   1.172   1.170   1.168   1.167
   1.166   1.165
   0.924   0.924   0.927   0.930   0.936   0.943   0.951   0.960   0.971   0.983
   0.995   1.007   1.020   1.031   1.042   1.051   1.057   1.061   1.063   1.061
   1.057   1.051   1.042   1.031   1.020   1.007   0.995   0.983   0.971   0.960
   0.951   0.943   0.936   0.930   0.927   0.924   0.924   0.924   0.927   0.930
   0.936   0.943   0.951   0.960   0.971   0.983   0.995   1.007   1.020   1.031
   1.042   1.051   1.057   1.061   1.063   1.061   1.057   1.051   1.042   1.031
   1.020   1.007   0.995   0.983   0.971   0.960   0.951   0.943   0.936   0.930
   0.927   0.924
   0.947   0.944   0.938   0.928   0.915   0.900   0.883   0.867   0.851   0.838
   0.829   0.823   0.821   0.822   0.826   0.831   0.836   0.839   0.840   0.839
   0.836   0.831   0.826   0.822   0.821   0.823   0.829   0.838   0.851   0.867
   0.883   0.900   0.915   0.928   0.938   0.944   0.947   0.944   0.938   0.928
   0.915   0.900   0.883   0.867   0.851   0.838   0.829   0.823   0.821   0.822
   0.826   0.831   0.836   0.839   0.840   0.839   0.836   0.831   0.826   0.822
   0.821   0.823   0.829   0.838   0.851   0.867   0.883   0.900   0.915   0.928
   0.938   0.944
   1.555   1.546   1.520   1.477   1.418   1.345   1.261   1.168   1.070   0.973
   0.881   0.799   0.730   0.678   0.642   0.619   0.607   0.601   0.600   0.601
   0.607   0.619   0.642   0.678   0.730   0.799   0.881   0.973   1.070   1.168
   1.261   1.345   1.418   1.477   1.520   1.546   1.555   1.546   1.520   1.477
   1.418   1.345   1.261   1.168   1.070   0.973   0.881   0.799   0.730   0.678
   0.642   0.619   0.607   0.601   0.600   0.601   0.607   0.619   0.642   0.678
   0.730   0.799   0.881   0.973   1.070   1.168   1.261   1.345   1.418   1.477
   1.520   1.546
   2.367   2.355   2.317   2.255   2.166   2.051   1.909   1.742   1.553   1.350
   1.144   0.948   0.776   0.638   0.538   0.474   0.439   0.424   0.420   0.424
   0.439   0.474   0.538   0.638   0.776   0.948   1.144   1.350   1.553   1.742
   1.909   2.051   2.166   2.255   2.317   2.355   2.367   2.355   2.317   2.255
   2.166   2.051   1.909   1.742   1.553   1.350   1.144   0.948   0.776   0.638
   0.538   0.474   0.439   0.424   0.420   0.424   0.439   0.474   0.538   0.638
   0.776   0.948   1.144   1.350   1.553   1.742   1.909   2.051   2.166   2.255
   2.317   2.355
   2.617   2.610   2.592   2.558   2.506   2.428   2.317   2.162   1.960   1.712
   1.432   1.144   0.876   0.654   0.496   0.402   0.359   0.345   0.343   0.345
   0.359   0.402   0.496   0.654   0.876   1.144   1.432   1.712   1.960   2.162
   2.317   2.428   2.506   2.558   2.592   2.610   2.617   2.610   2.592   2.558
   2.506   2.428   2.317   2.162   1.960   1.712   1.432   1.144   0.876   0.654
   0.496   0.402   0.359   0.345   0.343   0.345   0.359   0.402   0.496   0.654
   0.876   1.144   1.432   1.712   1.960   2.162   2.317   2.428   2.506   2.558
   2.592   2.610
   1.963   1.971   1.994   2.031   2.074   2.113   2.131   2.104   2.009   1.831
   1.574   1.265   0.948   0.673   0.479   0.375   0.344   0.349   0.355   0.349
   0.344   0.375   0.479   0.673   0.948   1.265   1.574   1.831   2.009   2.104
   2.131   2.113   2.074   2.031   1.994   1.971   1.963   1.971   1.994   2.031
   2.074   2.113   2.131   2.104   2.009   1.831   1.574   1.265   0.948   0.673
   0.479   0.375   0.344   0.349   0.355   0.349   0.344   0.375   0.479   0.673
   0.948   1.265   1.574   1.831   2.009   2.104   2.131   2.113   2.074   2.031
   1.994   1.971
   0.861   0.882   0.942   1.038   1.162   1.309   1.466   1.605   1.689   1.678
   1.545   1.302   0.997   0.702   0.484   0.375   0.359   0.384   0.400   0.384
   0.359   0.375   0.484   0.702   0.997   1.302   1.545   1.678   1.689   1.605
   1.466   1.309   1.162   1.038   0.942   0.882   0.861   0.882   0.942   1.038
   1.162   1.309   1.466   1.605   1.689   1.678   1.545   1.302   0.997   0.702
   0.484   0.375   0.359   0.384   0.400   0.384   0.359   0.375   0.484   0.702
   0.997   1.302   1.545   1.678   1.689   1.605   1.466   1.309   1.162   1.038
   0.942   0.882
   0.081   0.108   0.182   0.284   0.404   0.549   0.734   0.962   1.199   1.381
   1.437   1.332   1.091   0.797   0.549   0.410   0.383   0.412   0.431   0.412
   0.383   0.410   0.549   0.797   1.091   1.332   1.437   1.381   1.199   0.962
   0.734   0.549   0.404   0.284   0.182   0.108   0.081   0.108   0.182   0.284
   0.404   0.549   0.734   0.962   1.199   1.381   1.437   1.332   1.091   0.797
   0.549   0.410   0.383   0.412   0.431   0.412   0.383   0.410   0.549   0.797
   1.091   1.332   1.437   1.381   1.199   0.962   0.734   0.549   0.404   0.284
   0.182   0.108
  -0.048  -0.015   0.061   0.131   0.164   0.183   0.254   0.440   0.744   1.090
   1.350   1.419   1.273   0.988   0.692   0.493   0.422   0.431   0.445   0.431
   0.422   0.493   0.692   0.988   1.273   1.419   1.350   1.090   0.744   0.440
   0.254   0.183   0.164   0.131   0.061  -0.015  -0.048  -0.015   0.061   0.131
   0.164   0.183   0.254   0.440   0.744   1.090   1.350   1.419   1.273   0.988
   0.692   0.493   0.422   0.431   0.445   0.431   0.422   0.493   0.692   0.988
   1.273   1.419   1.350   1.090   0.744   0.440   0.254   0.183   0.164   0.131
   0.061  -0.015
   0.163   0.208   0.302   0.350   0.291   0.156   0.064   0.149   0.461   0.920
   1.350   1.573   1.510   1.223   0.869   0.601   0.479   0.463   0.472   0.463
   0.479   0.601   0.869   1.223   1.510   1.573   1.350   0.920   0.461   0.149
   0.064   0.156   0.291   0.350   0.302   0.208   0.163   0.208   0.302   0.350
   0.291   0.156   0.064   0.149   0.461   0.920   1.350   1.573   1.510   1.223
   0.869   0.601   0.479   0.463   0.472   0.463   0.479   0.601   0.869   1.223
   1.510   1.573   1.350   0.920   0.461   0.149   0.064   0.156   0.291   0.350
   0.302   0.208
   0.246   0.307   0.433   0.497   0.414   0.220   0.065   0.118   0.451   0.977
   1.486   1.764   1.710   1.390   0.984   0.674   0.535   0.522   0.533   0.522
   0.535   0.674   0.984   1.390   1.710   1.764   1.486   0.977   0.451   0.118
   0.065   0.220   0.414   0.497   0.433   0.307   0.246   0.307   0.433   0.497
   0.414   0.220   0.065   0.118   0.451   0.977   1.486   1.764   1.710   1.390
   0.984   0.674   0.535   0.522   0.533   0.522   0.535   0.674   0.984   1.390
   1.710   1.764   1.486   0.977   0.451   0.118   0.065   0.220   0.414   0.497
   0.433   0.307
   0.110   0.175   0.312   0.404   0.373   0.266   0.224   0.387   0.788   1.315
   1.761   1.940   1.788   1.398   0.965   0.667   0.567   0.591   0.618   0.591
   0.567   0.667   0.965   1.398   1.788   1.940   1.761   1.315   0.788   0.387
   0.224   0.266   0.373   0.404   0.312   0.175   0.110   0.175   0.312   0.404
   0.373   0.266   0.224   0.387   0.788   1.315   1.761   1.940   1.788   1.398
   0.965   0.667   0.567   0.591   0.618   0.591   0.567   0.667   0.965   1.398
   1.788   1.940   1.761   1.315   0.788   0.387   0.224   0.266   0.373   0.404
   0.312   0.175
   0.040   0.085   0.183   0.265   0.311   0.381   0.573   0.934   1.404   1.833
   2.065   2.009   1.691   1.242   0.837   0.609   0.578   0.649   0.692   0.649
   0.578   0.609   0.837   1.242   1.691   2.009   2.065   1.833   1.404   0.934
   0.573   0.381   0.311   0.265   0.183   0.085   0.040   0.085   0.183   0.265
   0.311   0.381   0.573   0.934   1.404   1.833   2.065   2.009   1.691   1.242
   0.837   0.609   0.578   0.649   0.692   0.649   0.578   0.609   0.837   1.242
   1.691   2.009   2.065   1.833   1.404   0.934   0.573   0.381   0.311   0.265
   0.183   0.085
   0.291   0.298   0.313   0.338   0.425   0.658   1.072   1.589   2.041   2.260
   2.181   1.857   1.417   0.999   0.708   0.587   0.611   0.691   0.731   0.691
   0.611   0.587   0.708   0.999   1.417   1.857   2.181   2.260   2.041   1.589
   1.072   0.658   0.425   0.338   0.313   0.298   0.291   0.298   0.313   0.338
   0.425   0.658   1.072   1.589   2.041   2.260   2.181   1.857   1.417   0.999
   0.708   0.587   0.611   0.691   0.731   0.691   0.611   0.587   0.708   0.999
   1.417   1.857   2.181   2.260   2.041   1.589   1.072   0.658   0.425   0.338
   0.313   0.298
   0.805   0.775   0.703   0.652   0.734   1.046   1.563   2.102   2.412   2.346
   1.956   1.445   1.017   0.767   0.676   0.674   0.702   0.729   0.739   0.729
   0.702   0.674   0.676   0.767   1.017   1.445   1.956   2.346   2.412   2.102
   1.563   1.046   0.734   0.652   0.703   0.775   0.805   0.775   0.703   0.652
   0.734   1.046   1.563   2.102   2.412   2.346   1.956   1.445   1.017   0.767
   0.676   0.674   0.702   0.729   0.739   0.729   0.702   0.674   0.676   0.767
   1.017   1.445   1.956   2.346   2.412   2.102   1.563   1.046   0.734   0.652
   0.703   0.775
   1.316   1.264   1.138   1.031   1.084   1.395   1.899   2.345   2.449   2.107
   1.488   0.910   0.610   0.608   0.744   0.842   0.834   0.768   0.732   0.768
   0.834   0.842   0.744   0.608   0.610   0.910   1.488   2.107   2.449   2.345
   1.899   1.395   1.084   1.031   1.138   1.264   1.316   1.264   1.138   1.031
   1.084   1.395   1.899   2.345   2.449   2.107   1.488   0.910   0.610   0.608
   0.744   0.842   0.834   0.768   0.732   0.768   0.834   0.842   0.744   0.608
   0.610   0.910   1.488   2.107   2.449   2.345   1.899   1.395   1.084   1.031
   1.138   1.264
   1.611   1.551   1.405   1.272   1.303   1.590   2.047   2.397   2.350   1.839
   1.106   0.528   0.352   0.533   0.823   0.979   0.934   0.796   0.726   0.796
   0.934   0.979   0.823   0.533   0.352   0.528   1.106   1.839   2.350   2.397
   2.047   1.590   1.303   1.272   1.405   1.551   1.611   1.551   1.405   1.272
   1.303   1.590   2.047   2.397   2.350   1.839   1.106   0.528   0.352   0.533
   0.823   0.979   0.934   0.796   0.726   0.796   0.934   0.979   0.823   0.533
   0.352   0.528   1.106   1.839   2.350   2.397   2.047   1.590   1.303   1.272
   1.405   1.551
 111       5.00   72    0 5.00   18    0
   0.389   0.390   0.391   0.394   0.397   0.402   0.407   0.412   0.418   0.425
   0.431   0.437   0.443   0.448   0.453   0.457   0.459   0.461   0.462   0.461
   0.459   0.457   0.453   0.448   0.443   0.437   0.431   0.425   0.418   0.412
   0.407   0.402   0.397   0.394   0.391   0.390   0.389   0.390   0.391   0.394
   0.397   0.402   0.407   0.412   0.418   0.425   0.431   0.437   0.443   0.448
   0.453   0.457   0.459   0.461   0.462   0.461   0.459   0.457   0.453   0.448
   0.443   0.437   0.431   0.425   0.418   0.412   0.407   0.402   0.397   0.394
   0.391   0.390
  -0.063  -0.061  -0.055  -0.046  -0.032  -0.013   0.011   0.039   0.072   0.109
   0.149   0.191   0.232   0.272   0.309   0.339   0.362   0.377   0.382   0.377
   0.362   0.339   0.309   0.272   0.232   0.191   0.149   0.109   0.072   0.039
   0.011  -0.013  -0.032  -0.046  -0.055  -0.061  -0.063  -0.061  -0.055  -0.046
  -0.032  -0.013   0.011   0.039   0.072   0.109   0.149   0.191   0.232   0.272
   0.309   0.339   0.362   0.377   0.382   0.377   0.362   0.339   0.309   0.272
   0.232   0.191   0.149   0.109   0.072   0.039   0.011  -0.013  -0.032  -0.046
  -0.055  -0.061
  -0.084  -0.090  -0.108  -0.135  -0.167  -0.197  -0.222  -0.234  -0.231  -0.210
  -0.170  -0.114  -0.044   0.033   0.111   0.181   0.237   0.273   0.286   0.273
   0.237   0.181   0.111   0.033  -0.044  -0.114  -0.170  -0.210  -0.231  -0.234
  -0.222  -0.197  -0.167  -0.135  -0.108  -0.090  -0.084  -0.090  -0.108  -0.135
  -0.167  -0.197  -0.222  -0.234  -0.231  -0.210  -0.170  -0.114  -0.044   0.033
   0.111   0.181   0.237   0.273   0.286   0.273   0.237   0.181   0.111   0.033
  -0.044  -0.114  -0.170  -0.210  -0.231  -0.234  -0.222  -0.197  -0.167  -0.135
  -0.108  -0.090
   1.016   0.986   0.899   0.763   0.593   0.404   0.213   0.040  -0.103  -0.203
  -0.254  -0.254  -0.209  -0.128  -0.027   0.077   0.167   0.227   0.249   0.227
   0.167   0.077  -0.027  -0.128  -0.209  -0.254  -0.254  -0.203  -0.103   0.040
   0.213   0.404   0.593   0.763   0.899   0.986   1.016   0.986   0.899   0.763
   0.593   0.404   0.213   0.040  -0.103  -0.203  -0.254  -0.254  -0.209  -0.128
  -0.027   0.077   0.167   0.227   0.249   0.227   0.167   0.077  -0.027  -0.128
  -0.209  -0.254  -0.254  -0.203  -0.103   0.040   0.213   0.404   0.593   0.763
   0.899   0.986
   2.816   2.757   2.587   2.321   1.983   1.600   1.204   0.822   0.480   0.199
  -0.006  -0.127  -0.165  -0.130  -0.041   0.075   0.186   0.266   0.295   0.266
   0.186   0.075  -0.041  -0.130  -0.165  -0.127  -0.006   0.199   0.480   0.822
   1.204   1.600   1.983   2.321   2.587   2.757   2.816   2.757   2.587   2.321
   1.983   1.600   1.204   0.822   0.480   0.199  -0.006  -0.127  -0.165  -0.130
  -0.041   0.075   0.186   0.266   0.295   0.266   0.186   0.075  -0.041  -0.130
  -0.165  -0.127  -0.006   0.199   0.480   0.822   1.204   1.600   1.983   2.321
   2.587   2.757
   4.067   3.995   3.786   3.461   3.053   2.593   2.113   1.641   1.197   0.802
   0.475   0.232   0.085   0.035   0.067   0.156   0.261   0.344   0.375   0.344
   0.261   0.156   0.067   0.035   0.085   0.232   0.475   0.802   1.197   1.641
   2.113   2.593   3.053   3.461   3.786   3.995   4.067   3.995   3.786   3.461
   3.053   2.593   2.113   1.641   1.197   0.802   0.475   0.232   0.085   0.035
   0.067   0.156   0.261   0.344   0.375   0.344   0.261   0.156   0.067   0.035
   0.085   0.232   0.475   0.802   1.197   1.641   2.113   2.593   3.053   3.461
   3.786   3.995
   3.873   3.812   3.638   3.377   3.063   2.726   2.384   2.045   1.705   1.366
   1.036   0.735   0.493   0.334   0.267   0.278   0.333   0.390   0.414   0.390
   0.333   0.278   0.267   0.334   0.493   0.735   1.036   1.366   1.705   2.045
   2.384   2.726   3.063   3.377   3.638   3.812   3.873   3.812   3.638   3.377
   3.063   2.726   2.384   2.045   1.705   1.366   1.036   0.735   0.493   0.334
   0.267   0.278   0.333   0.390   0.414   0.390   0.333   0.278   0.267   0.334
   0.493   0.735   1.036   1.366   1.705   2.045   2.384   2.726   3.063   3.377
   3.638   3.812
   2.490   2.456   2.366   2.248   2.137   2.054   2.000   1.956   1.884   1.753
   1.548   1.284   0.998   0.739   0.547   0.436   0.394   0.390   0.393   0.390
   0.394   0.436   0.547   0.739   0.998   1.284   1.548   1.753   1.884   1.956
   2.000   2.054   2.137   2.248   2.366   2.456   2.490   2.456   2.366   2.248
   2.137   2.054   2.000   1.956   1.884   1.753   1.548   1.284   0.998   0.739
   0.547   0.436   0.394   0.390   0.393   0.390   0.394   0.436   0.547   0.739
   0.998   1.284   1.548   1.753   1.884   1.956   2.000   2.054   2.137   2.248
   2.366   2.456
   0.969   0.962   0.953   0.969   1.037   1.176   1.375   1.600   1.797   1.908
   1.896   1.752   1.503   1.203   0.911   0.672   0.508   0.418   0.390   0.418
   0.508   0.672   0.911   1.203   1.503   1.752   1.896   1.908   1.797   1.600
   1.375   1.176   1.037   0.969   0.953   0.962   0.969   0.962   0.953   0.969
   1.037   1.176   1.375   1.600   1.797   1.908   1.896   1.752   1.503   1.203
   0.911   0.672   0.508   0.418   0.390   0.418   0.508   0.672   0.911   1.203
   1.503   1.752   1.896   1.908   1.797   1.600   1.375   1.176   1.037   0.969
   0.953   0.962
   0.144   0.153   0.188   0.266   0.405   0.616   0.894   1.212   1.528   1.792
   1.953   1.978   1.861   1.625   1.322   1.014   0.758   0.591   0.534   0.591
   0.758   1.014   1.322   1.625   1.861   1.978   1.953   1.792   1.528   1.212
   0.894   0.616   0.405   0.266   0.188   0.153   0.144   0.153   0.188   0.266
   0.405   0.616   0.894   1.212   1.528   1.792   1.953   1.978   1.861   1.625
   1.322   1.014   0.758   0.591   0.534   0.591   0.758   1.014   1.322   1.625
   1.861   1.978   1.953   1.792   1.528   1.212   0.894   0.616   0.405   0.266
   0.188   0.153
   0.041   0.054   0.096   0.170   0.283   0.437   0.634   0.870   1.137   1.416
   1.673   1.859   1.928   1.859   1.666   1.404   1.146   0.960   0.893   0.960
   1.146   1.404   1.666   1.859   1.928   1.859   1.673   1.416   1.137   0.870
   0.634   0.437   0.283   0.170   0.096   0.054   0.041   0.054   0.096   0.170
   0.283   0.437   0.634   0.870   1.137   1.416   1.673   1.859   1.928   1.859
   1.666   1.404   1.146   0.960   0.893   0.960   1.146   1.404   1.666   1.859
   1.928   1.859   1.673   1.416   1.137   0.870   0.634   0.437   0.283   0.170
   0.096   0.054
   0.186   0.194   0.219   0.261   0.318   0.391   0.479   0.588   0.735   0.934
   1.183   1.449   1.673   1.796   1.795   1.695   1.556   1.442   1.399   1.442
   1.556   1.695   1.795   1.796   1.673   1.449   1.183   0.934   0.735   0.588
   0.479   0.391   0.318   0.261   0.219   0.194   0.186   0.194   0.219   0.261
   0.318   0.391   0.479   0.588   0.735   0.934   1.183   1.449   1.673   1.796
   1.795   1.695   1.556   1.442   1.399   1.442   1.556   1.695   1.795   1.796
   1.673   1.449   1.183   0.934   0.735   0.588   0.479   0.391   0.318   0.261
   0.219   0.194
   0.260   0.259   0.257   0.261   0.279   0.317   0.369   0.425   0.490   0.587
   0.743   0.964   1.216   1.450   1.628   1.744   1.815   1.855   1.869   1.855
   1.815   1.744   1.628   1.450   1.216   0.964   0.743   0.587   0.490   0.425
   0.369   0.317   0.279   0.261   0.257   0.259   0.260   0.259   0.257   0.261
   0.279   0.317   0.369   0.425   0.490   0.587   0.743   0.964   1.216   1.450
   1.628   1.744   1.815   1.855   1.869   1.855   1.815   1.744   1.628   1.450
   1.216   0.964   0.743   0.587   0.490   0.425   0.369   0.317   0.279   0.261
   0.257   0.259
   0.356   0.348   0.327   0.297   0.281   0.302   0.363   0.436   0.488   0.514
   0.544   0.620   0.762   0.969   1.229   1.524   1.816   2.039   2.124   2.039
   1.816   1.524   1.229   0.969   0.762   0.620   0.544   0.514   0.488   0.436
   0.363   0.302   0.281   0.297   0.327   0.348   0.356   0.348   0.327   0.297
   0.281   0.302   0.363   0.436   0.488   0.514   0.544   0.620   0.762   0.969
   1.229   1.524   1.816   2.039   2.124   2.039   1.816   1.524   1.229   0.969
   0.762   0.620   0.544   0.514   0.488   0.436   0.363   0.302   0.281   0.297
   0.327   0.348
   0.703   0.706   0.699   0.651   0.571   0.508   0.507   0.559   0.610   0.610
   0.556   0.490   0.471   0.555   0.781   1.150   1.589   1.955   2.099   1.955
   1.589   1.150   0.781   0.555   0.471   0.490   0.556   0.610   0.610   0.559
   0.507   0.508   0.571   0.651   0.699   0.706   0.703   0.706   0.699   0.651
   0.571   0.508   0.507   0.559   0.610   0.610   0.556   0.490   0.471   0.555
   0.781   1.150   1.589   1.955   2.099   1.955   1.589   1.150   0.781   0.555
   0.471   0.490   0.556   0.610   0.610   0.559   0.507   0.508   0.571   0.651
   0.699   0.706
   1.319   1.359   1.418   1.382   1.200   0.943   0.734   0.643   0.641   0.648
   0.601   0.494   0.376   0.333   0.459   0.794   1.269   1.696   1.869   1.696
   1.269   0.794   0.459   0.333   0.376   0.494   0.601   0.648   0.641   0.643
   0.734   0.943   1.200   1.382   1.418   1.359   1.319   1.359   1.418   1.382
   1.200   0.943   0.734   0.643   0.641   0.648   0.601   0.494   0.376   0.333
   0.459   0.794   1.269   1.696   1.869   1.696   1.269   0.794   0.459   0.333
   0.376   0.494   0.601   0.648   0.641   0.643   0.734   0.943   1.200   1.382
   1.418   1.359
   1.972   2.062   2.222   2.224   1.935   1.431   0.927   0.605   0.502   0.530
   0.563   0.521   0.404   0.293   0.317   0.567   0.997   1.416   1.590   1.416
   0.997   0.567   0.317   0.293   0.404   0.521   0.563   0.530   0.502   0.605
   0.927   1.431   1.935   2.224   2.222   2.062   1.972   2.062   2.222   2.224
   1.935   1.431   0.927   0.605   0.502   0.530   0.563   0.521   0.404   0.293
   0.317   0.567   0.997   1.416   1.590   1.416   0.997   0.567   0.317   0.293
   0.404   0.521   0.563   0.530   0.502   0.605   0.927   1.431   1.935   2.224
   2.222   2.062
   2.380   2.507   2.744   2.781   2.422   1.745   1.024   0.525   0.338   0.381
   0.490   0.529   0.450   0.322   0.289   0.471   0.851   1.242   1.409   1.242
   0.851   0.471   0.289   0.322   0.450   0.529   0.490   0.381   0.338   0.525
   1.024   1.745   2.422   2.781   2.744   2.507   2.380   2.507   2.744   2.781
   2.422   1.745   1.024   0.525   0.338   0.381   0.490   0.529   0.450   0.322
   0.289   0.471   0.851   1.242   1.409   1.242   0.851   0.471   0.289   0.322
   0.450   0.529   0.490   0.381   0.338   0.525   1.024   1.745   2.422   2.781
   2.744   2.507
 311       5.00   72    0 5.00   18    0
   1.783   1.784   1.786   1.788   1.792   1.797   1.802   1.808   1.814   1.820
   1.827   1.833   1.839   1.844   1.849   1.853   1.856   1.857   1.858   1.857
   1.856   1.853   1.849   1.844   1.839   1.833   1.827   1.820   1.814   1.808
   1.802   1.797   1.792   1.788   1.786   1.784   1.783   1.784   1.786   1.788
   1.792   1.797   1.802   1.808   1.814   1.820   1.827   1.833   1.839   1.844
   1.849   1.853   1.856   1.857   1.858   1.857   1.856   1.853   1.849   1.844
   1.839   1.833   1.827   1.820   1.814   1.808   1.802   1.797   1.792   1.788
   1.786   1.784
   1.197   1.201   1.211   1.228   1.251   1.280   1.315   1.354   1.397   1.443
   1.490   1.537   1.582   1.623   1.660   1.690   1.712   1.726   1.731   1.726
   1.712   1.690   1.660   1.623   1.582   1.537   1.490   1.443   1.397   1.354
   1.315   1.280   1.251   1.228   1.211   1.201   1.197   1.201   1.211   1.228
   1.251   1.280   1.315   1.354   1.397   1.443   1.490   1.537   1.582   1.623
   1.660   1.690   1.712   1.726   1.731   1.726   1.712   1.690   1.660   1.623
   1.582   1.537   1.490   1.443   1.397   1.354   1.315   1.280   1.251   1.228
   1.211   1.201
   0.625   0.629   0.639   0.657   0.683   0.717   0.761   0.816   0.880   0.953
   1.033   1.119   1.206   1.291   1.369   1.435   1.486   1.518   1.529   1.518
   1.486   1.435   1.369   1.291   1.206   1.119   1.033   0.953   0.880   0.816
   0.761   0.717   0.683   0.657   0.639   0.629   0.625   0.629   0.639   0.657
   0.683   0.717   0.761   0.816   0.880   0.953   1.033   1.119   1.206   1.291
   1.369   1.435   1.486   1.518   1.529   1.518   1.486   1.435   1.369   1.291
   1.206   1.119   1.033   0.953   0.880   0.816   0.761   0.717   0.683   0.657
   0.639   0.629
   0.614   0.612   0.604   0.593   0.583   0.575   0.575   0.586   0.612   0.655
   0.717   0.796   0.889   0.990   1.092   1.185   1.260   1.308   1.325   1.308
   1.260   1.185   1.092   0.990   0.889   0.796   0.717   0.655   0.612   0.586
   0.575   0.575   0.583   0.593   0.604   0.612   0.614   0.612   0.604   0.593
   0.583   0.575   0.575   0.586   0.612   0.655   0.717   0.796   0.889   0.990
   1.092   1.185   1.260   1.308   1.325   1.308   1.260   1.185   1.092   0.990
   0.889   0.796   0.717   0.655   0.612   0.586   0.575   0.575   0.583   0.593
   0.604   0.612
   1.079   1.069   1.042   1.000   0.945   0.883   0.818   0.756   0.704   0.670
   0.659   0.679   0.729   0.807   0.904   1.004   1.093   1.154   1.175   1.154
   1.093   1.004   0.904   0.807   0.729   0.679   0.659   0.670   0.704   0.756
   0.818   0.883   0.945   1.000   1.042   1.069   1.079   1.069   1.042   1.000
   0.945   0.883   0.818   0.756   0.704   0.670   0.659   0.679   0.729   0.807
   0.904   1.004   1.093   1.154   1.175   1.154   1.093   1.004   0.904   0.807
   0.729   0.679   0.659   0.670   0.704   0.756   0.818   0.883   0.945   1.000
   1.042   1.069
   1.437   1.429   1.408   1.373   1.326   1.264   1.188   1.097   0.995   0.891
   0.800   0.737   0.715   0.741   0.809   0.902   0.996   1.066   1.091   1.066
   0.996   0.902   0.809   0.741   0.715   0.737   0.800   0.891   0.995   1.097
   1.188   1.264   1.326   1.373   1.408   1.429   1.437   1.429   1.408   1.373
   1.326   1.264   1.188   1.097   0.995   0.891   0.800   0.737   0.715   0.741
   0.809   0.902   0.996   1.066   1.091   1.066   0.996   0.902   0.809   0.741
   0.715   0.737   0.800   0.891   0.995   1.097   1.188   1.264   1.326   1.373
   1.408   1.429
   1.267   1.273   1.290   1.317   1.347   1.370   1.371   1.334   1.252   1.131
   0.991   0.861   0.771   0.741   0.774   0.854   0.950   1.025   1.054   1.025
   0.950   0.854   0.774   0.741   0.771   0.861   0.991   1.131   1.252   1.334
   1.371   1.370   1.347   1.317   1.290   1.273   1.267   1.273   1.290   1.317
   1.347   1.370   1.371   1.334   1.252   1.131   0.991   0.861   0.771   0.741
   0.774   0.854   0.950   1.025   1.054   1.025   0.950   0.854   0.774   0.741
   0.771   0.861   0.991   1.131   1.252   1.334   1.371   1.370   1.347   1.317
   1.290   1.273
   0.745   0.766   0.830   0.934   1.067   1.206   1.321   1.378   1.357   1.260
   1.111   0.952   0.826   0.765   0.776   0.844   0.935   1.010   1.039   1.010
   0.935   0.844   0.776   0.765   0.826   0.952   1.111   1.260   1.357   1.378
   1.321   1.206   1.067   0.934   0.830   0.766   0.745   0.766   0.830   0.934
   1.067   1.206   1.321   1.378   1.357   1.260   1.111   0.952   0.826   0.765
   0.776   0.844   0.935   1.010   1.039   1.010   0.935   0.844   0.776   0.765
   0.826   0.952   1.111   1.260   1.357   1.378   1.321   1.206   1.067   0.934
   0.830   0.766
   0.398   0.426   0.512   0.655   0.844   1.048   1.222   1.322   1.326   1.239
   1.097   0.950   0.843   0.800   0.820   0.882   0.956   1.014   1.036   1.014
   0.956   0.882   0.820   0.800   0.843   0.950   1.097   1.239   1.326   1.322
   1.222   1.048   0.844   0.655   0.512   0.426   0.398   0.426   0.512   0.655
   0.844   1.048   1.222   1.322   1.326   1.239   1.097   0.950   0.843   0.800
   0.820   0.882   0.956   1.014   1.036   1.014   0.956   0.882   0.820   0.800
   0.843   0.950   1.097   1.239   1.326   1.322   1.222   1.048   0.844   0.655
   0.512   0.426
   0.519   0.541   0.611   0.737   0.908   1.090   1.229   1.279   1.224   1.095
   0.950   0.847   0.816   0.850   0.916   0.978   1.018   1.035   1.040   1.035
   1.018   0.978   0.916   0.850   0.816   0.847   0.950   1.095   1.224   1.279
   1.229   1.090   0.908   0.737   0.611   0.541   0.519   0.541   0.611   0.737
   0.908   1.090   1.229   1.279   1.224   1.095   0.950   0.847   0.816   0.850
   0.916   0.978   1.018   1.035   1.040   1.035   1.018   0.978   0.916   0.850
   0.816   0.847   0.950   1.095   1.224   1.279   1.229   1.090   0.908   0.737
   0.611   0.541
   0.887   0.894   0.926   1.003   1.125   1.253   1.319   1.273   1.113   0.902
   0.735   0.686   0.763   0.909   1.044   1.108   1.097   1.054   1.032   1.054
   1.097   1.108   1.044   0.909   0.763   0.686   0.735   0.902   1.113   1.273
   1.319   1.253   1.125   1.003   0.926   0.894   0.887   0.894   0.926   1.003
   1.125   1.253   1.319   1.273   1.113   0.902   0.735   0.686   0.763   0.909
   1.044   1.108   1.097   1.054   1.032   1.054   1.097   1.108   1.044   0.909
   0.763   0.686   0.735   0.902   1.113   1.273   1.319   1.253   1.125   1.003
   0.926   0.894
   1.061   1.052   1.046   1.086   1.189   1.312   1.368   1.283   1.055   0.776
   0.579   0.562   0.722   0.962   1.150   1.205   1.137   1.031   0.982   1.031
   1.137   1.205   1.150   0.962   0.722   0.562   0.579   0.776   1.055   1.283
   1.368   1.312   1.189   1.086   1.046   1.052   1.061   1.052   1.046   1.086
   1.189   1.312   1.368   1.283   1.055   0.776   0.579   0.562   0.722   0.962
   1.150   1.205   1.137   1.031   0.982   1.031   1.137   1.205   1.150   0.962
   0.722   0.562   0.579   0.776   1.055   1.283   1.368   1.312   1.189   1.086
   1.046   1.052
   0.857   0.836   0.808   0.841   0.975   1.170   1.316   1.302   1.103   0.814
   0.595   0.571   0.745   1.003   1.190   1.213   1.092   0.938   0.869   0.938
   1.092   1.213   1.190   1.003   0.745   0.571   0.595   0.814   1.103   1.302
   1.316   1.170   0.975   0.841   0.808   0.836   0.857   0.836   0.808   0.841
   0.975   1.170   1.316   1.302   1.103   0.814   0.595   0.571   0.745   1.003
   1.190   1.213   1.092   0.938   0.869   0.938   1.092   1.213   1.190   1.003
   0.745   0.571   0.595   0.814   1.103   1.302   1.316   1.170   0.975   0.841
   0.808   0.836
   0.498   0.476   0.448   0.495   0.673   0.953   1.216   1.327   1.230   0.997
   0.787   0.734   0.856   1.049   1.169   1.135   0.973   0.797   0.722   0.797
   0.973   1.135   1.169   1.049   0.856   0.734   0.787   0.997   1.230   1.327
   1.216   0.953   0.673   0.495   0.448   0.476   0.498   0.476   0.448   0.495
   0.673   0.953   1.216   1.327   1.230   0.997   0.787   0.734   0.856   1.049
   1.169   1.135   0.973   0.797   0.722   0.797   0.973   1.135   1.169   1.049
   0.856   0.734   0.787   0.997   1.230   1.327   1.216   0.953   0.673   0.495
   0.448   0.476
   0.349   0.340   0.341   0.407   0.586   0.862   1.144   1.315   1.310   1.170
   1.020   0.968   1.030   1.123   1.142   1.037   0.850   0.676   0.606   0.676
   0.850   1.037   1.142   1.123   1.030   0.968   1.020   1.170   1.310   1.315
   1.144   0.862   0.586   0.407   0.341   0.340   0.349   0.340   0.341   0.407
   0.586   0.862   1.144   1.315   1.310   1.170   1.020   0.968   1.030   1.123
   1.142   1.037   0.850   0.676   0.606   0.676   0.850   1.037   1.142   1.123
   1.030   0.968   1.020   1.170   1.310   1.315   1.144   0.862   0.586   0.407
   0.341   0.340
   0.563   0.584   0.642   0.729   0.843   0.982   1.119   1.208   1.218   1.172
   1.133   1.151   1.208   1.232   1.160   0.994   0.792   0.633   0.574   0.633
   0.792   0.994   1.160   1.232   1.208   1.151   1.133   1.172   1.218   1.208
   1.119   0.982   0.843   0.729   0.642   0.584   0.563   0.584   0.642   0.729
   0.843   0.982   1.119   1.208   1.218   1.172   1.133   1.151   1.208   1.232
   1.160   0.994   0.792   0.633   0.574   0.633   0.792   0.994   1.160   1.232
   1.208   1.151   1.133   1.172   1.218   1.208   1.119   0.982   0.843   0.729
   0.642   0.584
   0.984   1.042   1.170   1.275   1.291   1.220   1.114   1.022   0.976   0.996
   1.090   1.227   1.339   1.347   1.225   1.018   0.809   0.666   0.617   0.666
   0.809   1.018   1.225   1.347   1.339   1.227   1.090   0.996   0.976   1.022
   1.114   1.220   1.291   1.275   1.170   1.042   0.984   1.042   1.170   1.275
   1.291   1.220   1.114   1.022   0.976   0.996   1.090   1.227   1.339   1.347
   1.225   1.018   0.809   0.666   0.617   0.666   0.809   1.018   1.225   1.347
   1.339   1.227   1.090   0.996   0.976   1.022   1.114   1.220   1.291   1.275
   1.170   1.042
   1.306   1.389   1.567   1.684   1.628   1.403   1.110   0.870   0.765   0.819
   1.002   1.233   1.403   1.422   1.283   1.058   0.847   0.713   0.670   0.713
   0.847   1.058   1.283   1.422   1.403   1.233   1.002   0.819   0.765   0.870
   1.110   1.403   1.628   1.684   1.567   1.389   1.306   1.389   1.567   1.684
   1.628   1.403   1.110   0.870   0.765   0.819   1.002   1.233   1.403   1.422
   1.283   1.058   0.847   0.713   0.670   0.713   0.847   1.058   1.283   1.422
   1.403   1.233   1.002   0.819   0.765   0.870   1.110   1.403   1.628   1.684
   1.567   1.389
TEXTURE_INDEX=   3.0988
ERR_CF 220         1080     472   29.30   21.35
ERR_CF 200         1080     352   23.84   11.69
ERR_CF 111         1080     324   49.45   12.07
