TEXEVAL                                                                         
Analysis started on 21-Sep-20 10:49:05                                          
 LMAX=14LFMAX=03 CUBIC ORTHO   
 220      5.00 5.00
 200      5.00 5.00
 111      5.00 5.00
 220       5.00   72    0 5.00   15    0
   3.112   3.112   3.112   3.112   3.112   3.112   3.112   3.112   3.112   3.112
   3.112   3.112   3.112   3.112   3.112   3.112   3.112   3.112   3.112   3.112
   3.112   3.112   3.112   3.112   3.112   3.112   3.112   3.112   3.112   3.112
   3.112   3.112   3.112   3.112   3.112   3.112   3.112   3.112   3.112   3.112
   3.112   3.112   3.112   3.112   3.112   3.112   3.112   3.112   3.112   3.112
   3.112   3.112   3.112   3.112   3.112   3.112   3.112   3.112   3.112   3.112
   3.112   3.112   3.112   3.112   3.112   3.112   3.112   3.112   3.112   3.112
   3.112   3.112
   1.385   1.408   1.429   1.506   1.384   1.516   1.680   1.752   1.755   1.925
   2.116   2.240   2.489   2.667   2.950   3.114   3.283   3.536   3.565   3.536
   3.283   3.114   2.950   2.667   2.489   2.240   2.116   1.925   1.755   1.752
   1.680   1.516   1.384   1.506   1.429   1.408   1.385   1.408   1.429   1.506
   1.384   1.516   1.680   1.752   1.755   1.925   2.116   2.240   2.489   2.667
   2.950   3.114   3.283   3.536   3.565   3.536   3.283   3.114   2.950   2.667
   2.489   2.240   2.116   1.925   1.755   1.752   1.680   1.516   1.384   1.506
   1.429   1.408
   0.679   0.610   0.651   0.709   0.650   0.747   0.899   0.867   0.887   1.099
   1.253   1.632   1.801   2.187   2.642   2.981   3.392   3.756   3.742   3.756
   3.392   2.981   2.642   2.187   1.801   1.632   1.253   1.099   0.887   0.867
   0.899   0.747   0.650   0.709   0.651   0.610   0.679   0.610   0.651   0.709
   0.650   0.747   0.899   0.867   0.887   1.099   1.253   1.632   1.801   2.187
   2.642   2.981   3.392   3.756   3.742   3.756   3.392   2.981   2.642   2.187
   1.801   1.632   1.253   1.099   0.887   0.867   0.899   0.747   0.650   0.709
   0.651   0.610
   0.321   0.419   0.416   0.461   0.435   0.459   0.494   0.571   0.634   0.727
   0.868   1.112   1.296   1.617   2.152   2.791   3.353   3.867   3.928   3.867
   3.353   2.791   2.152   1.617   1.296   1.112   0.868   0.727   0.634   0.571
   0.494   0.459   0.435   0.461   0.416   0.419   0.321   0.419   0.416   0.461
   0.435   0.459   0.494   0.571   0.634   0.727   0.868   1.112   1.296   1.617
   2.152   2.791   3.353   3.867   3.928   3.867   3.353   2.791   2.152   1.617
   1.296   1.112   0.868   0.727   0.634   0.571   0.494   0.459   0.435   0.461
   0.416   0.419
   0.249   0.305   0.310   0.449   0.391   0.468   0.476   0.444   0.523   0.596
   0.786   0.802   1.045   1.361   1.903   2.585   3.310   3.737   3.824   3.737
   3.310   2.585   1.903   1.361   1.045   0.802   0.786   0.596   0.523   0.444
   0.476   0.468   0.391   0.449   0.310   0.305   0.249   0.305   0.310   0.449
   0.391   0.468   0.476   0.444   0.523   0.596   0.786   0.802   1.045   1.361
   1.903   2.585   3.310   3.737   3.824   3.737   3.310   2.585   1.903   1.361
   1.045   0.802   0.786   0.596   0.523   0.444   0.476   0.468   0.391   0.449
   0.310   0.305
   0.368   0.296   0.378   0.456   0.466   0.494   0.607   0.452   0.624   0.578
   0.907   0.944   1.125   1.603   2.106   2.632   3.124   3.529   3.335   3.529
   3.124   2.632   2.106   1.603   1.125   0.944   0.907   0.578   0.624   0.452
   0.607   0.494   0.466   0.456   0.378   0.296   0.368   0.296   0.378   0.456
   0.466   0.494   0.607   0.452   0.624   0.578   0.907   0.944   1.125   1.603
   2.106   2.632   3.124   3.529   3.335   3.529   3.124   2.632   2.106   1.603
   1.125   0.944   0.907   0.578   0.624   0.452   0.607   0.494   0.466   0.456
   0.378   0.296
   0.345   0.474   0.482   0.428   0.549   0.470   0.531   0.557   0.652   0.602
   0.948   1.063   1.378   1.852   2.398   2.745   2.801   3.072   2.470   3.072
   2.801   2.745   2.398   1.852   1.378   1.063   0.948   0.602   0.652   0.557
   0.531   0.470   0.549   0.428   0.482   0.474   0.345   0.474   0.482   0.428
   0.549   0.470   0.531   0.557   0.652   0.602   0.948   1.063   1.378   1.852
   2.398   2.745   2.801   3.072   2.470   3.072   2.801   2.745   2.398   1.852
   1.378   1.063   0.948   0.602   0.652   0.557   0.531   0.470   0.549   0.428
   0.482   0.474
   0.506   0.684   0.438   0.446   0.500   0.532   0.466   0.586   0.530   0.556
   0.902   1.045   1.223   1.691   2.293   2.429   2.135   2.022   1.500   2.022
   2.135   2.429   2.293   1.691   1.223   1.045   0.902   0.556   0.530   0.586
   0.466   0.532   0.500   0.446   0.438   0.684   0.506   0.684   0.438   0.446
   0.500   0.532   0.466   0.586   0.530   0.556   0.902   1.045   1.223   1.691
   2.293   2.429   2.135   2.022   1.500   2.022   2.135   2.429   2.293   1.691
   1.223   1.045   0.902   0.556   0.530   0.586   0.466   0.532   0.500   0.446
   0.438   0.684
   0.670   0.659   0.445   0.562   0.417   0.543   0.433   0.486   0.468   0.484
   0.714   0.942   0.912   1.294   1.742   1.876   1.517   1.111   0.983   1.111
   1.517   1.876   1.742   1.294   0.912   0.942   0.714   0.484   0.468   0.486
   0.433   0.543   0.417   0.562   0.445   0.659   0.670   0.659   0.445   0.562
   0.417   0.543   0.433   0.486   0.468   0.484   0.714   0.942   0.912   1.294
   1.742   1.876   1.517   1.111   0.983   1.111   1.517   1.876   1.742   1.294
   0.912   0.942   0.714   0.484   0.468   0.486   0.433   0.543   0.417   0.562
   0.445   0.659
   0.771   0.731   0.688   0.680   0.565   0.534   0.410   0.364   0.384   0.560
   0.617   0.784   0.978   1.089   1.353   1.267   0.992   0.680   0.915   0.680
   0.992   1.267   1.353   1.089   0.978   0.784   0.617   0.560   0.384   0.364
   0.410   0.534   0.565   0.680   0.688   0.731   0.771   0.731   0.688   0.680
   0.565   0.534   0.410   0.364   0.384   0.560   0.617   0.784   0.978   1.089
   1.353   1.267   0.992   0.680   0.915   0.680   0.992   1.267   1.353   1.089
   0.978   0.784   0.617   0.560   0.384   0.364   0.410   0.534   0.565   0.680
   0.688   0.731
   1.318   1.318   1.292   0.954   0.861   0.709   0.615   0.511   0.438   0.525
   0.813   0.599   0.959   0.994   0.959   0.878   0.754   0.570   0.772   0.570
   0.754   0.878   0.959   0.994   0.959   0.599   0.813   0.525   0.438   0.511
   0.615   0.709   0.861   0.954   1.292   1.318   1.318   1.318   1.292   0.954
   0.861   0.709   0.615   0.511   0.438   0.525   0.813   0.599   0.959   0.994
   0.959   0.878   0.754   0.570   0.772   0.570   0.754   0.878   0.959   0.994
   0.959   0.599   0.813   0.525   0.438   0.511   0.615   0.709   0.861   0.954
   1.292   1.318
   3.014   3.094   2.484   2.264   1.949   1.354   0.884   0.983   0.759   0.645
   0.811   0.578   0.787   0.870   0.793   0.802   0.897   0.681   0.494   0.681
   0.897   0.802   0.793   0.870   0.787   0.578   0.811   0.645   0.759   0.983
   0.884   1.354   1.949   2.264   2.484   3.094   3.014   3.094   2.484   2.264
   1.949   1.354   0.884   0.983   0.759   0.645   0.811   0.578   0.787   0.870
   0.793   0.802   0.897   0.681   0.494   0.681   0.897   0.802   0.793   0.870
   0.787   0.578   0.811   0.645   0.759   0.983   0.884   1.354   1.949   2.264
   2.484   3.094
   4.269   4.091   3.121   2.972   2.236   1.637   1.577   1.403   0.986   0.762
   0.597   0.982   0.686   0.723   0.848   0.727   0.610   0.425   0.665   0.425
   0.610   0.727   0.848   0.723   0.686   0.982   0.597   0.762   0.986   1.403
   1.577   1.637   2.236   2.972   3.121   4.091   4.269   4.091   3.121   2.972
   2.236   1.637   1.577   1.403   0.986   0.762   0.597   0.982   0.686   0.723
   0.848   0.727   0.610   0.425   0.665   0.425   0.610   0.727   0.848   0.723
   0.686   0.982   0.597   0.762   0.986   1.403   1.577   1.637   2.236   2.972
   3.121   4.091
   2.712   2.520   2.509   1.492   1.322   0.862   1.369   1.488   1.057   1.103
   0.800   1.167   0.750   0.834   0.993   0.568   0.563   0.367   0.544   0.367
   0.563   0.568   0.993   0.834   0.750   1.167   0.800   1.103   1.057   1.488
   1.369   0.862   1.322   1.492   2.509   2.520   2.712   2.520   2.509   1.492
   1.322   0.862   1.369   1.488   1.057   1.103   0.800   1.167   0.750   0.834
   0.993   0.568   0.563   0.367   0.544   0.367   0.563   0.568   0.993   0.834
   0.750   1.167   0.800   1.103   1.057   1.488   1.369   0.862   1.322   1.492
   2.509   2.520
   1.237   0.853   1.299   0.517   0.754   0.406   0.718   1.232   1.139   1.222
   0.977   0.906   0.851   0.768   0.890   0.710   1.226   0.761   0.389   0.761
   1.226   0.710   0.890   0.768   0.851   0.906   0.977   1.222   1.139   1.232
   0.718   0.406   0.754   0.517   1.299   0.853   1.237   0.853   1.299   0.517
   0.754   0.406   0.718   1.232   1.139   1.222   0.977   0.906   0.851   0.768
   0.890   0.710   1.226   0.761   0.389   0.761   1.226   0.710   0.890   0.768
   0.851   0.906   0.977   1.222   1.139   1.232   0.718   0.406   0.754   0.517
   1.299   0.853
 200       5.00   72    0 5.00   15    0
   1.165   1.165   1.165   1.165   1.165   1.165   1.165   1.165   1.165   1.165
   1.165   1.165   1.165   1.165   1.165   1.165   1.165   1.165   1.165   1.165
   1.165   1.165   1.165   1.165   1.165   1.165   1.165   1.165   1.165   1.165
   1.165   1.165   1.165   1.165   1.165   1.165   1.165   1.165   1.165   1.165
   1.165   1.165   1.165   1.165   1.165   1.165   1.165   1.165   1.165   1.165
   1.165   1.165   1.165   1.165   1.165   1.165   1.165   1.165   1.165   1.165
   1.165   1.165   1.165   1.165   1.165   1.165   1.165   1.165   1.165   1.165
   1.165   1.165
   1.060   1.083   1.108   1.162   1.140   1.232   1.178   1.126   1.130   1.385
   0.993   1.071   1.061   1.052   1.062   1.024   0.949   1.047   1.030   1.047
   0.949   1.024   1.062   1.052   1.061   1.071   0.993   1.385   1.130   1.126
   1.178   1.232   1.140   1.162   1.108   1.083   1.060   1.083   1.108   1.162
   1.140   1.232   1.178   1.126   1.130   1.385   0.993   1.071   1.061   1.052
   1.062   1.024   0.949   1.047   1.030   1.047   0.949   1.024   1.062   1.052
   1.061   1.071   0.993   1.385   1.130   1.126   1.178   1.232   1.140   1.162
   1.108   1.083
   1.225   1.203   1.320   1.202   1.091   1.112   1.257   1.124   1.148   1.094
   0.998   0.986   1.050   0.945   1.104   0.985   0.918   0.931   0.848   0.931
   0.918   0.985   1.104   0.945   1.050   0.986   0.998   1.094   1.148   1.124
   1.257   1.112   1.091   1.202   1.320   1.203   1.225   1.203   1.320   1.202
   1.091   1.112   1.257   1.124   1.148   1.094   0.998   0.986   1.050   0.945
   1.104   0.985   0.918   0.931   0.848   0.931   0.918   0.985   1.104   0.945
   1.050   0.986   0.998   1.094   1.148   1.124   1.257   1.112   1.091   1.202
   1.320   1.203
   1.706   1.617   1.605   1.531   1.366   1.342   1.525   1.371   1.268   1.124
   1.085   1.023   0.959   0.853   1.003   0.904   0.830   0.852   0.774   0.852
   0.830   0.904   1.003   0.853   0.959   1.023   1.085   1.124   1.268   1.371
   1.525   1.342   1.366   1.531   1.605   1.617   1.706   1.617   1.605   1.531
   1.366   1.342   1.525   1.371   1.268   1.124   1.085   1.023   0.959   0.853
   1.003   0.904   0.830   0.852   0.774   0.852   0.830   0.904   1.003   0.853
   0.959   1.023   1.085   1.124   1.268   1.371   1.525   1.342   1.366   1.531
   1.605   1.617
   2.707   2.594   2.360   2.386   2.141   2.030   1.858   1.726   1.434   1.309
   1.094   1.010   0.852   0.762   0.720   0.755   0.699   0.706   0.598   0.706
   0.699   0.755   0.720   0.762   0.852   1.010   1.094   1.309   1.434   1.726
   1.858   2.030   2.141   2.386   2.360   2.594   2.707   2.594   2.360   2.386
   2.141   2.030   1.858   1.726   1.434   1.309   1.094   1.010   0.852   0.762
   0.720   0.755   0.699   0.706   0.598   0.706   0.699   0.755   0.720   0.762
   0.852   1.010   1.094   1.309   1.434   1.726   1.858   2.030   2.141   2.386
   2.360   2.594
   3.201   3.232   3.156   3.058   2.881   2.914   2.517   2.205   1.796   1.531
   1.172   0.957   0.790   0.701   0.603   0.578   0.667   0.512   0.392   0.512
   0.667   0.578   0.603   0.701   0.790   0.957   1.172   1.531   1.796   2.205
   2.517   2.914   2.881   3.058   3.156   3.232   3.201   3.232   3.156   3.058
   2.881   2.914   2.517   2.205   1.796   1.531   1.172   0.957   0.790   0.701
   0.603   0.578   0.667   0.512   0.392   0.512   0.667   0.578   0.603   0.701
   0.790   0.957   1.172   1.531   1.796   2.205   2.517   2.914   2.881   3.058
   3.156   3.232
   2.088   2.023   2.227   2.055   2.226   2.498   2.517   2.567   2.327   1.730
   1.338   1.132   0.963   0.875   0.744   0.603   0.622   0.524   0.462   0.524
   0.622   0.603   0.744   0.875   0.963   1.132   1.338   1.730   2.327   2.567
   2.517   2.498   2.226   2.055   2.227   2.023   2.088   2.023   2.227   2.055
   2.226   2.498   2.517   2.567   2.327   1.730   1.338   1.132   0.963   0.875
   0.744   0.603   0.622   0.524   0.462   0.524   0.622   0.603   0.744   0.875
   0.963   1.132   1.338   1.730   2.327   2.567   2.517   2.498   2.226   2.055
   2.227   2.023
   0.680   0.662   0.777   0.698   0.952   1.178   1.398   1.816   2.035   1.618
   1.311   1.296   1.151   1.035   0.902   0.679   0.697   0.513   0.516   0.513
   0.697   0.679   0.902   1.035   1.151   1.296   1.311   1.618   2.035   1.816
   1.398   1.178   0.952   0.698   0.777   0.662   0.680   0.662   0.777   0.698
   0.952   1.178   1.398   1.816   2.035   1.618   1.311   1.296   1.151   1.035
   0.902   0.679   0.697   0.513   0.516   0.513   0.697   0.679   0.902   1.035
   1.151   1.296   1.311   1.618   2.035   1.816   1.398   1.178   0.952   0.698
   0.777   0.662
   0.318   0.311   0.352   0.349   0.389   0.506   0.574   0.918   1.129   1.181
   1.264   1.259   1.041   0.985   1.007   0.692   0.687   0.376   0.446   0.376
   0.687   0.692   1.007   0.985   1.041   1.259   1.264   1.181   1.129   0.918
   0.574   0.506   0.389   0.349   0.352   0.311   0.318   0.311   0.352   0.349
   0.389   0.506   0.574   0.918   1.129   1.181   1.264   1.259   1.041   0.985
   1.007   0.692   0.687   0.376   0.446   0.376   0.687   0.692   1.007   0.985
   1.041   1.259   1.264   1.181   1.129   0.918   0.574   0.506   0.389   0.349
   0.352   0.311
   0.304   0.247   0.292   0.253   0.318   0.200   0.442   0.648   0.697   0.825
   1.244   1.284   1.010   1.005   0.876   0.754   0.580   0.455   0.326   0.455
   0.580   0.754   0.876   1.005   1.010   1.284   1.244   0.825   0.697   0.648
   0.442   0.200   0.318   0.253   0.292   0.247   0.304   0.247   0.292   0.253
   0.318   0.200   0.442   0.648   0.697   0.825   1.244   1.284   1.010   1.005
   0.876   0.754   0.580   0.455   0.326   0.455   0.580   0.754   0.876   1.005
   1.010   1.284   1.244   0.825   0.697   0.648   0.442   0.200   0.318   0.253
   0.292   0.247
   0.140   0.240   0.318   0.299   0.285   0.127   0.322   0.544   0.596   0.660
   1.164   1.452   1.096   0.992   0.686   0.654   0.607   0.584   0.323   0.584
   0.607   0.654   0.686   0.992   1.096   1.452   1.164   0.660   0.596   0.544
   0.322   0.127   0.285   0.299   0.318   0.240   0.140   0.240   0.318   0.299
   0.285   0.127   0.322   0.544   0.596   0.660   1.164   1.452   1.096   0.992
   0.686   0.654   0.607   0.584   0.323   0.584   0.607   0.654   0.686   0.992
   1.096   1.452   1.164   0.660   0.596   0.544   0.322   0.127   0.285   0.299
   0.318   0.240
   0.159   0.149   0.253   0.321   0.238   0.214   0.356   0.422   0.606   0.746
   1.330   1.466   1.442   0.987   0.763   0.602   0.444   0.512   0.405   0.512
   0.444   0.602   0.763   0.987   1.442   1.466   1.330   0.746   0.606   0.422
   0.356   0.214   0.238   0.321   0.253   0.149   0.159   0.149   0.253   0.321
   0.238   0.214   0.356   0.422   0.606   0.746   1.330   1.466   1.442   0.987
   0.763   0.602   0.444   0.512   0.405   0.512   0.444   0.602   0.763   0.987
   1.442   1.466   1.330   0.746   0.606   0.422   0.356   0.214   0.238   0.321
   0.253   0.149
   0.366   0.190   0.283   0.246   0.290   0.344   0.538   0.252   0.501   0.966
   1.643   1.718   1.801   1.006   0.854   0.716   0.350   0.479   0.368   0.479
   0.350   0.716   0.854   1.006   1.801   1.718   1.643   0.966   0.501   0.252
   0.538   0.344   0.290   0.246   0.283   0.190   0.366   0.190   0.283   0.246
   0.290   0.344   0.538   0.252   0.501   0.966   1.643   1.718   1.801   1.006
   0.854   0.716   0.350   0.479   0.368   0.479   0.350   0.716   0.854   1.006
   1.801   1.718   1.643   0.966   0.501   0.252   0.538   0.344   0.290   0.246
   0.283   0.190
   0.408   0.380   0.524   0.253   0.309   0.275   0.560   0.502   0.814   0.995
   1.929   2.006   1.712   0.758   0.660   0.725   0.579   0.572   0.415   0.572
   0.579   0.725   0.660   0.758   1.712   2.006   1.929   0.995   0.814   0.502
   0.560   0.275   0.309   0.253   0.524   0.380   0.408   0.380   0.524   0.253
   0.309   0.275   0.560   0.502   0.814   0.995   1.929   2.006   1.712   0.758
   0.660   0.725   0.579   0.572   0.415   0.572   0.579   0.725   0.660   0.758
   1.712   2.006   1.929   0.995   0.814   0.502   0.560   0.275   0.309   0.253
   0.524   0.380
   0.456   0.411   0.661   0.516   0.292   0.485   0.714   1.195   1.338   1.433
   2.174   1.786   1.131   0.655   0.956   0.621   0.597   0.434   0.682   0.434
   0.597   0.621   0.956   0.655   1.131   1.786   2.174   1.433   1.338   1.195
   0.714   0.485   0.292   0.516   0.661   0.411   0.456   0.411   0.661   0.516
   0.292   0.485   0.714   1.195   1.338   1.433   2.174   1.786   1.131   0.655
   0.956   0.621   0.597   0.434   0.682   0.434   0.597   0.621   0.956   0.655
   1.131   1.786   2.174   1.433   1.338   1.195   0.714   0.485   0.292   0.516
   0.661   0.411
 111       5.00   72    0 5.00   15    0
   0.240   0.240   0.240   0.240   0.240   0.240   0.240   0.240   0.240   0.240
   0.240   0.240   0.240   0.240   0.240   0.240   0.240   0.240   0.240   0.240
   0.240   0.240   0.240   0.240   0.240   0.240   0.240   0.240   0.240   0.240
   0.240   0.240   0.240   0.240   0.240   0.240   0.240   0.240   0.240   0.240
   0.240   0.240   0.240   0.240   0.240   0.240   0.240   0.240   0.240   0.240
   0.240   0.240   0.240   0.240   0.240   0.240   0.240   0.240   0.240   0.240
   0.240   0.240   0.240   0.240   0.240   0.240   0.240   0.240   0.240   0.240
   0.240   0.240
   0.268   0.286   0.282   0.274   0.263   0.262   0.242   0.261   0.284   0.241
   0.253   0.294   0.252   0.225   0.229   0.209   0.220   0.241   0.213   0.241
   0.220   0.209   0.229   0.225   0.252   0.294   0.253   0.241   0.284   0.261
   0.242   0.262   0.263   0.274   0.282   0.286   0.268   0.286   0.282   0.274
   0.263   0.262   0.242   0.261   0.284   0.241   0.253   0.294   0.252   0.225
   0.229   0.209   0.220   0.241   0.213   0.241   0.220   0.209   0.229   0.225
   0.252   0.294   0.253   0.241   0.284   0.261   0.242   0.262   0.263   0.274
   0.282   0.286
   0.396   0.393   0.391   0.418   0.368   0.368   0.345   0.328   0.298   0.261
   0.267   0.313   0.240   0.250   0.231   0.195   0.229   0.258   0.245   0.258
   0.229   0.195   0.231   0.250   0.240   0.313   0.267   0.261   0.298   0.328
   0.345   0.368   0.368   0.418   0.391   0.393   0.396   0.393   0.391   0.418
   0.368   0.368   0.345   0.328   0.298   0.261   0.267   0.313   0.240   0.250
   0.231   0.195   0.229   0.258   0.245   0.258   0.229   0.195   0.231   0.250
   0.240   0.313   0.267   0.261   0.298   0.328   0.345   0.368   0.368   0.418
   0.391   0.393
   0.854   0.849   0.811   0.738   0.632   0.590   0.499   0.407   0.374   0.295
   0.302   0.302   0.261   0.280   0.245   0.185   0.257   0.236   0.197   0.236
   0.257   0.185   0.245   0.280   0.261   0.302   0.302   0.295   0.374   0.407
   0.499   0.590   0.632   0.738   0.811   0.849   0.854   0.849   0.811   0.738
   0.632   0.590   0.499   0.407   0.374   0.295   0.302   0.302   0.261   0.280
   0.245   0.185   0.257   0.236   0.197   0.236   0.257   0.185   0.245   0.280
   0.261   0.302   0.302   0.295   0.374   0.407   0.499   0.590   0.632   0.738
   0.811   0.849
   2.847   2.833   2.377   1.859   1.499   1.156   0.887   0.676   0.493   0.421
   0.352   0.317   0.256   0.254   0.216   0.167   0.227   0.205   0.183   0.205
   0.227   0.167   0.216   0.254   0.256   0.317   0.352   0.421   0.493   0.676
   0.887   1.156   1.499   1.859   2.377   2.833   2.847   2.833   2.377   1.859
   1.499   1.156   0.887   0.676   0.493   0.421   0.352   0.317   0.256   0.254
   0.216   0.167   0.227   0.205   0.183   0.205   0.227   0.167   0.216   0.254
   0.256   0.317   0.352   0.421   0.493   0.676   0.887   1.156   1.499   1.859
   2.377   2.833
   5.955   5.583   4.646   3.863   3.118   2.420   1.754   1.267   0.840   0.692
   0.506   0.338   0.267   0.245   0.207   0.172   0.203   0.155   0.174   0.155
   0.203   0.172   0.207   0.245   0.267   0.338   0.506   0.692   0.840   1.267
   1.754   2.420   3.118   3.863   4.646   5.583   5.955   5.583   4.646   3.863
   3.118   2.420   1.754   1.267   0.840   0.692   0.506   0.338   0.267   0.245
   0.207   0.172   0.203   0.155   0.174   0.155   0.203   0.172   0.207   0.245
   0.267   0.338   0.506   0.692   0.840   1.267   1.754   2.420   3.118   3.863
   4.646   5.583
   5.342   4.965   4.400   4.040   3.480   2.970   2.439   1.835   1.411   1.119
   0.791   0.588   0.494   0.367   0.342   0.254   0.244   0.212   0.208   0.212
   0.244   0.254   0.342   0.367   0.494   0.588   0.791   1.119   1.411   1.835
   2.439   2.970   3.480   4.040   4.400   4.965   5.342   4.965   4.400   4.040
   3.480   2.970   2.439   1.835   1.411   1.119   0.791   0.588   0.494   0.367
   0.342   0.254   0.244   0.212   0.208   0.212   0.244   0.254   0.342   0.367
   0.494   0.588   0.791   1.119   1.411   1.835   2.439   2.970   3.480   4.040
   4.400   4.965
   2.381   2.360   2.324   2.313   2.186   2.290   2.173   1.900   1.749   1.575
   1.256   0.903   0.817   0.584   0.549   0.400   0.395   0.380   0.319   0.380
   0.395   0.400   0.549   0.584   0.817   0.903   1.256   1.575   1.749   1.900
   2.173   2.290   2.186   2.313   2.324   2.360   2.381   2.360   2.324   2.313
   2.186   2.290   2.173   1.900   1.749   1.575   1.256   0.903   0.817   0.584
   0.549   0.400   0.395   0.380   0.319   0.380   0.395   0.400   0.549   0.584
   0.817   0.903   1.256   1.575   1.749   1.900   2.173   2.290   2.186   2.313
   2.324   2.360
   1.118   1.169   1.148   1.064   1.118   1.403   1.495   1.674   1.731   1.840
   1.561   1.430   1.191   0.861   0.741   0.577   0.572   0.532   0.452   0.532
   0.572   0.577   0.741   0.861   1.191   1.430   1.561   1.840   1.731   1.674
   1.495   1.403   1.118   1.064   1.148   1.169   1.118   1.169   1.148   1.064
   1.118   1.403   1.495   1.674   1.731   1.840   1.561   1.430   1.191   0.861
   0.741   0.577   0.572   0.532   0.452   0.532   0.572   0.577   0.741   0.861
   1.191   1.430   1.561   1.840   1.731   1.674   1.495   1.403   1.118   1.064
   1.148   1.169
   0.604   0.743   0.654   0.515   0.686   0.747   0.976   1.341   1.570   1.776
   1.602   1.785   1.630   1.193   0.828   0.846   0.701   0.673   0.591   0.673
   0.701   0.846   0.828   1.193   1.630   1.785   1.602   1.776   1.570   1.341
   0.976   0.747   0.686   0.515   0.654   0.743   0.604   0.743   0.654   0.515
   0.686   0.747   0.976   1.341   1.570   1.776   1.602   1.785   1.630   1.193
   0.828   0.846   0.701   0.673   0.591   0.673   0.701   0.846   0.828   1.193
   1.630   1.785   1.602   1.776   1.570   1.341   0.976   0.747   0.686   0.515
   0.654   0.743
   0.413   0.567   0.559   0.441   0.502   0.486   0.620   0.889   1.376   1.342
   1.384   1.620   1.676   1.414   1.149   1.154   0.954   0.960   0.919   0.960
   0.954   1.154   1.149   1.414   1.676   1.620   1.384   1.342   1.376   0.889
   0.620   0.486   0.502   0.441   0.559   0.567   0.413   0.567   0.559   0.441
   0.502   0.486   0.620   0.889   1.376   1.342   1.384   1.620   1.676   1.414
   1.149   1.154   0.954   0.960   0.919   0.960   0.954   1.154   1.149   1.414
   1.676   1.620   1.384   1.342   1.376   0.889   0.620   0.486   0.502   0.441
   0.559   0.567
   0.341   0.493   0.478   0.445   0.460   0.397   0.534   0.710   1.117   1.128
   1.107   1.206   1.349   1.428   1.448   1.547   1.358   1.258   1.327   1.258
   1.358   1.547   1.448   1.428   1.349   1.206   1.107   1.128   1.117   0.710
   0.534   0.397   0.460   0.445   0.478   0.493   0.341   0.493   0.478   0.445
   0.460   0.397   0.534   0.710   1.117   1.128   1.107   1.206   1.349   1.428
   1.448   1.547   1.358   1.258   1.327   1.258   1.358   1.547   1.448   1.428
   1.349   1.206   1.107   1.128   1.117   0.710   0.534   0.397   0.460   0.445
   0.478   0.493
   0.453   0.495   0.419   0.387   0.411   0.327   0.405   0.674   0.788   1.028
   0.865   0.864   0.964   1.076   1.395   1.894   1.535   1.246   1.212   1.246
   1.535   1.894   1.395   1.076   0.964   0.864   0.865   1.028   0.788   0.674
   0.405   0.327   0.411   0.387   0.419   0.495   0.453   0.495   0.419   0.387
   0.411   0.327   0.405   0.674   0.788   1.028   0.865   0.864   0.964   1.076
   1.395   1.894   1.535   1.246   1.212   1.246   1.535   1.894   1.395   1.076
   0.964   0.864   0.865   1.028   0.788   0.674   0.405   0.327   0.411   0.387
   0.419   0.495
   0.445   0.480   0.558   0.404   0.283   0.356   0.387   0.679   0.506   0.677
   0.661   0.766   0.643   0.727   1.039   1.550   1.468   1.283   1.313   1.283
   1.468   1.550   1.039   0.727   0.643   0.766   0.661   0.677   0.506   0.679
   0.387   0.356   0.283   0.404   0.558   0.480   0.445   0.480   0.558   0.404
   0.283   0.356   0.387   0.679   0.506   0.677   0.661   0.766   0.643   0.727
   1.039   1.550   1.468   1.283   1.313   1.283   1.468   1.550   1.039   0.727
   0.643   0.766   0.661   0.677   0.506   0.679   0.387   0.356   0.283   0.404
   0.558   0.480
   0.432   0.458   0.924   0.597   0.508   0.372   0.504   0.601   0.437   0.551
   0.555   0.639   0.509   0.639   0.745   1.142   1.201   1.364   1.506   1.364
   1.201   1.142   0.745   0.639   0.509   0.639   0.555   0.551   0.437   0.601
   0.504   0.372   0.508   0.597   0.924   0.458   0.432   0.458   0.924   0.597
   0.508   0.372   0.504   0.601   0.437   0.551   0.555   0.639   0.509   0.639
   0.745   1.142   1.201   1.364   1.506   1.364   1.201   1.142   0.745   0.639
   0.509   0.639   0.555   0.551   0.437   0.601   0.504   0.372   0.508   0.597
   0.924   0.458
  4  1      7.3830076E-01
  4  2     -2.1433743E-01
  4  3     -8.1882394E-01
  6  1      1.4526538E+00
  6  2     -3.1622834E+00
  6  3      9.3551121E-01
  6  4      2.1251908E-01
  8  1     -5.3770753E-01
  8  2      3.5270788E-01
  8  3      1.7457283E-01
  8  4      9.6327906E-01
  8  5      6.2759862E-01
 10  1     -4.3788131E-02
 10  2     -4.4408690E-01
 10  3      9.8131006E-01
 10  4      4.0057405E-01
 10  5      1.9175572E-01
 10  6     -4.4133224E-02
 12  1     -1.2872628E-01  1.4916099E+00
 12  2     -1.0706155E-01 -1.7811254E+00
 12  3     -2.2812365E-02  1.7489279E+00
 12  4     -4.6962946E-02 -3.2260849E-01
 12  5      8.4226426E-02 -2.1255714E-01
 12  6     -6.8276433E-01  1.6485422E-01
 12  7      2.0389340E-01 -6.9307056E-02
 14  1     -6.3176898E-01
 14  2      7.6549207E-01
 14  3     -1.9278856E-01
 14  4     -1.3475250E-01
 14  5     -3.7178356E-01
 14  6     -1.0309403E-01
 14  7      1.7589137E-01
 14  8     -3.0365098E-01
 220       5.00   72    0 5.00   18    0
   1.986   1.987   1.989   1.993   1.997   2.003   2.011   2.018   2.027   2.035
   2.044   2.053   2.061   2.068   2.074   2.079   2.083   2.085   2.086   2.085
   2.083   2.079   2.074   2.068   2.061   2.053   2.044   2.035   2.027   2.018
   2.011   2.003   1.997   1.993   1.989   1.987   1.986   1.987   1.989   1.993
   1.997   2.003   2.011   2.018   2.027   2.035   2.044   2.053   2.061   2.068
   2.074   2.079   2.083   2.085   2.086   2.085   2.083   2.079   2.074   2.068
   2.061   2.053   2.044   2.035   2.027   2.018   2.011   2.003   1.997   1.993
   1.989   1.987
   1.316   1.321   1.336   1.360   1.395   1.438   1.489   1.548   1.613   1.681
   1.752   1.823   1.892   1.955   2.011   2.058   2.092   2.114   2.121   2.114
   2.092   2.058   2.011   1.955   1.892   1.823   1.752   1.681   1.613   1.548
   1.489   1.438   1.395   1.360   1.336   1.321   1.316   1.321   1.336   1.360
   1.395   1.438   1.489   1.548   1.613   1.681   1.752   1.823   1.892   1.955
   2.011   2.058   2.092   2.114   2.121   2.114   2.092   2.058   2.011   1.955
   1.892   1.823   1.752   1.681   1.613   1.548   1.489   1.438   1.395   1.360
   1.336   1.321
   0.450   0.457   0.477   0.513   0.566   0.636   0.726   0.835   0.964   1.111
   1.271   1.440   1.611   1.776   1.926   2.053   2.150   2.210   2.231   2.210
   2.150   2.053   1.926   1.776   1.611   1.440   1.271   1.111   0.964   0.835
   0.726   0.636   0.566   0.513   0.477   0.457   0.450   0.457   0.477   0.513
   0.566   0.636   0.726   0.835   0.964   1.111   1.271   1.440   1.611   1.776
   1.926   2.053   2.150   2.210   2.231   2.210   2.150   2.053   1.926   1.776
   1.611   1.440   1.271   1.111   0.964   0.835   0.726   0.636   0.566   0.513
   0.477   0.457
  -0.037  -0.036  -0.032  -0.020   0.004   0.048   0.119   0.226   0.371   0.559
   0.784   1.041   1.316   1.593   1.856   2.084   2.260   2.372   2.411   2.372
   2.260   2.084   1.856   1.593   1.316   1.041   0.784   0.559   0.371   0.226
   0.119   0.048   0.004  -0.020  -0.032  -0.036  -0.037  -0.036  -0.032  -0.020
   0.004   0.048   0.119   0.226   0.371   0.559   0.784   1.041   1.316   1.593
   1.856   2.084   2.260   2.372   2.411   2.372   2.260   2.084   1.856   1.593
   1.316   1.041   0.784   0.559   0.371   0.226   0.119   0.048   0.004  -0.020
  -0.032  -0.036
   0.062   0.053   0.030  -0.003  -0.038  -0.061  -0.059  -0.015   0.085   0.250
   0.482   0.773   1.107   1.459   1.802   2.106   2.344   2.496   2.549   2.496
   2.344   2.106   1.802   1.459   1.107   0.773   0.482   0.250   0.085  -0.015
  -0.059  -0.061  -0.038  -0.003   0.030   0.053   0.062   0.053   0.030  -0.003
  -0.038  -0.061  -0.059  -0.015   0.085   0.250   0.482   0.773   1.107   1.459
   1.802   2.106   2.344   2.496   2.549   2.496   2.344   2.106   1.802   1.459
   1.107   0.773   0.482   0.250   0.085  -0.015  -0.059  -0.061  -0.038  -0.003
   0.030   0.053
   0.421   0.411   0.382   0.333   0.270   0.202   0.145   0.122   0.154   0.261
   0.450   0.715   1.037   1.388   1.733   2.039   2.277   2.429   2.480   2.429
   2.277   2.039   1.733   1.388   1.037   0.715   0.450   0.261   0.154   0.122
   0.145   0.202   0.270   0.333   0.382   0.411   0.421   0.411   0.382   0.333
   0.270   0.202   0.145   0.122   0.154   0.261   0.450   0.715   1.037   1.388
   1.733   2.039   2.277   2.429   2.480   2.429   2.277   2.039   1.733   1.388
   1.037   0.715   0.450   0.261   0.154   0.122   0.145   0.202   0.270   0.333
   0.382   0.411
   0.531   0.534   0.537   0.532   0.511   0.471   0.423   0.388   0.392   0.460
   0.604   0.819   1.082   1.361   1.622   1.840   1.999   2.095   2.126   2.095
   1.999   1.840   1.622   1.361   1.082   0.819   0.604   0.460   0.392   0.388
   0.423   0.471   0.511   0.532   0.537   0.534   0.531   0.534   0.537   0.532
   0.511   0.471   0.423   0.388   0.392   0.460   0.604   0.819   1.082   1.361
   1.622   1.840   1.999   2.095   2.126   2.095   1.999   1.840   1.622   1.361
   1.082   0.819   0.604   0.460   0.392   0.388   0.423   0.471   0.511   0.532
   0.537   0.534
   0.271   0.289   0.336   0.396   0.451   0.485   0.500   0.511   0.543   0.622
   0.758   0.943   1.146   1.333   1.471   1.551   1.581   1.584   1.582   1.584
   1.581   1.551   1.471   1.333   1.146   0.943   0.758   0.622   0.543   0.511
   0.500   0.485   0.451   0.396   0.336   0.289   0.271   0.289   0.336   0.396
   0.451   0.485   0.500   0.511   0.543   0.622   0.758   0.943   1.146   1.333
   1.471   1.551   1.581   1.584   1.582   1.584   1.581   1.551   1.471   1.333
   1.146   0.943   0.758   0.622   0.543   0.511   0.500   0.485   0.451   0.396
   0.336   0.289
   0.135   0.148   0.186   0.241   0.302   0.359   0.407   0.454   0.519   0.624
   0.776   0.959   1.135   1.260   1.302   1.264   1.179   1.097   1.064   1.097
   1.179   1.264   1.302   1.260   1.135   0.959   0.776   0.624   0.519   0.454
   0.407   0.359   0.302   0.241   0.186   0.148   0.135   0.148   0.186   0.241
   0.302   0.359   0.407   0.454   0.519   0.624   0.776   0.959   1.135   1.260
   1.302   1.264   1.179   1.097   1.064   1.097   1.179   1.264   1.302   1.260
   1.135   0.959   0.776   0.624   0.519   0.454   0.407   0.359   0.302   0.241
   0.186   0.148
   0.767   0.740   0.670   0.584   0.510   0.461   0.439   0.440   0.472   0.551
   0.683   0.854   1.021   1.128   1.138   1.052   0.915   0.793   0.744   0.793
   0.915   1.052   1.138   1.128   1.021   0.854   0.683   0.551   0.472   0.440
   0.439   0.461   0.510   0.584   0.670   0.740   0.767   0.740   0.670   0.584
   0.510   0.461   0.439   0.440   0.472   0.551   0.683   0.854   1.021   1.128
   1.138   1.052   0.915   0.793   0.744   0.793   0.915   1.052   1.138   1.128
   1.021   0.854   0.683   0.551   0.472   0.440   0.439   0.461   0.510   0.584
   0.670   0.740
   2.193   2.100   1.852   1.531   1.223   0.980   0.810   0.693   0.614   0.585
   0.623   0.729   0.866   0.972   0.994   0.924   0.797   0.681   0.635   0.681
   0.797   0.924   0.994   0.972   0.866   0.729   0.623   0.585   0.614   0.693
   0.810   0.980   1.223   1.531   1.852   2.100   2.193   2.100   1.852   1.531
   1.223   0.980   0.810   0.693   0.614   0.585   0.623   0.729   0.866   0.972
   0.994   0.924   0.797   0.681   0.635   0.681   0.797   0.924   0.994   0.972
   0.866   0.729   0.623   0.585   0.614   0.693   0.810   0.980   1.223   1.531
   1.852   2.100
   3.572   3.423   3.026   2.512   2.022   1.640   1.369   1.162   0.974   0.810
   0.708   0.701   0.771   0.856   0.890   0.846   0.749   0.655   0.617   0.655
   0.749   0.846   0.890   0.856   0.771   0.701   0.708   0.810   0.974   1.162
   1.369   1.640   2.022   2.512   3.026   3.423   3.572   3.423   3.026   2.512
   2.022   1.640   1.369   1.162   0.974   0.810   0.708   0.701   0.771   0.856
   0.890   0.846   0.749   0.655   0.617   0.655   0.749   0.846   0.890   0.856
   0.771   0.701   0.708   0.810   0.974   1.162   1.369   1.640   2.022   2.512
   3.026   3.423
   3.851   3.691   3.272   2.739   2.254   1.912   1.702   1.541   1.349   1.121
   0.918   0.807   0.798   0.835   0.846   0.798   0.708   0.625   0.591   0.625
   0.708   0.798   0.846   0.835   0.798   0.807   0.918   1.121   1.349   1.541
   1.702   1.912   2.254   2.739   3.272   3.691   3.851   3.691   3.272   2.739
   2.254   1.912   1.702   1.541   1.349   1.121   0.918   0.807   0.798   0.835
   0.846   0.798   0.708   0.625   0.591   0.625   0.708   0.798   0.846   0.835
   0.798   0.807   0.918   1.121   1.349   1.541   1.702   1.912   2.254   2.739
   3.272   3.691
   2.755   2.642   2.346   1.982   1.687   1.545   1.537   1.558   1.498   1.330
   1.125   0.974   0.912   0.899   0.869   0.794   0.696   0.616   0.585   0.616
   0.696   0.794   0.869   0.899   0.912   0.974   1.125   1.330   1.498   1.558
   1.537   1.545   1.687   1.982   2.346   2.642   2.755   2.642   2.346   1.982
   1.687   1.545   1.537   1.558   1.498   1.330   1.125   0.974   0.912   0.899
   0.869   0.794   0.696   0.616   0.585   0.616   0.696   0.794   0.869   0.899
   0.912   0.974   1.125   1.330   1.498   1.558   1.537   1.545   1.687   1.982
   2.346   2.642
   1.096   1.060   0.960   0.836   0.766   0.825   1.013   1.233   1.359   1.334
   1.212   1.089   1.020   0.983   0.934   0.861   0.787   0.738   0.723   0.738
   0.787   0.861   0.934   0.983   1.020   1.089   1.212   1.334   1.359   1.233
   1.013   0.825   0.766   0.836   0.960   1.060   1.096   1.060   0.960   0.836
   0.766   0.825   1.013   1.233   1.359   1.334   1.212   1.089   1.020   0.983
   0.934   0.861   0.787   0.738   0.723   0.738   0.787   0.861   0.934   0.983
   1.020   1.089   1.212   1.334   1.359   1.233   1.013   0.825   0.766   0.836
   0.960   1.060
   0.013   0.047   0.113   0.156   0.187   0.289   0.518   0.824   1.077   1.184
   1.162   1.094   1.045   1.020   1.002   0.995   1.015   1.052   1.071   1.052
   1.015   0.995   1.002   1.020   1.045   1.094   1.162   1.184   1.077   0.824
   0.518   0.289   0.187   0.156   0.113   0.047   0.013   0.047   0.113   0.156
   0.187   0.289   0.518   0.824   1.077   1.184   1.162   1.094   1.045   1.020
   1.002   0.995   1.015   1.052   1.071   1.052   1.015   0.995   1.002   1.020
   1.045   1.094   1.162   1.184   1.077   0.824   0.518   0.289   0.187   0.156
   0.113   0.047
  -0.083  -0.008   0.141   0.226   0.206   0.188   0.301   0.557   0.835   1.007
   1.047   1.017   0.990   0.996   1.044   1.149   1.306   1.460   1.525   1.460
   1.306   1.149   1.044   0.996   0.990   1.017   1.047   1.007   0.835   0.557
   0.301   0.188   0.206   0.226   0.141  -0.008  -0.083  -0.008   0.141   0.226
   0.206   0.188   0.301   0.557   0.835   1.007   1.047   1.017   0.990   0.996
   1.044   1.149   1.306   1.460   1.525   1.460   1.306   1.149   1.044   0.996
   0.990   1.017   1.047   1.007   0.835   0.557   0.301   0.188   0.206   0.226
   0.141  -0.008
   0.242   0.332   0.502   0.566   0.457   0.304   0.287   0.461   0.715   0.900
   0.960   0.944   0.928   0.958   1.059   1.251   1.511   1.751   1.850   1.751
   1.511   1.251   1.059   0.958   0.928   0.944   0.960   0.900   0.715   0.461
   0.287   0.304   0.457   0.566   0.502   0.332   0.242   0.332   0.502   0.566
   0.457   0.304   0.287   0.461   0.715   0.900   0.960   0.944   0.928   0.958
   1.059   1.251   1.511   1.751   1.850   1.751   1.511   1.251   1.059   0.958
   0.928   0.944   0.960   0.900   0.715   0.461   0.287   0.304   0.457   0.566
   0.502   0.332
 200       5.00   72    0 5.00   18    0
   1.174   1.174   1.175   1.176   1.178   1.181   1.184   1.187   1.191   1.194
   1.198   1.201   1.205   1.208   1.210   1.212   1.214   1.215   1.215   1.215
   1.214   1.212   1.210   1.208   1.205   1.201   1.198   1.194   1.191   1.187
   1.184   1.181   1.178   1.176   1.175   1.174   1.174   1.174   1.175   1.176
   1.178   1.181   1.184   1.187   1.191   1.194   1.198   1.201   1.205   1.208
   1.210   1.212   1.214   1.215   1.215   1.215   1.214   1.212   1.210   1.208
   1.205   1.201   1.198   1.194   1.191   1.187   1.184   1.181   1.178   1.176
   1.175   1.174
   0.911   0.912   0.916   0.923   0.932   0.944   0.958   0.974   0.992   1.012
   1.033   1.053   1.073   1.092   1.109   1.123   1.134   1.140   1.142   1.140
   1.134   1.123   1.109   1.092   1.073   1.053   1.033   1.012   0.992   0.974
   0.958   0.944   0.932   0.923   0.916   0.912   0.911   0.912   0.916   0.923
   0.932   0.944   0.958   0.974   0.992   1.012   1.033   1.053   1.073   1.092
   1.109   1.123   1.134   1.140   1.142   1.140   1.134   1.123   1.109   1.092
   1.073   1.053   1.033   1.012   0.992   0.974   0.958   0.944   0.932   0.923
   0.916   0.912
   0.912   0.910   0.904   0.896   0.886   0.876   0.867   0.862   0.861   0.864
   0.873   0.885   0.901   0.919   0.937   0.954   0.967   0.975   0.978   0.975
   0.967   0.954   0.937   0.919   0.901   0.885   0.873   0.864   0.861   0.862
   0.867   0.876   0.886   0.896   0.904   0.910   0.912   0.910   0.904   0.896
   0.886   0.876   0.867   0.862   0.861   0.864   0.873   0.885   0.901   0.919
   0.937   0.954   0.967   0.975   0.978   0.975   0.967   0.954   0.937   0.919
   0.901   0.885   0.873   0.864   0.861   0.862   0.867   0.876   0.886   0.896
   0.904   0.910
   1.522   1.510   1.476   1.422   1.353   1.274   1.190   1.106   1.026   0.953
   0.891   0.840   0.800   0.772   0.754   0.744   0.738   0.736   0.736   0.736
   0.738   0.744   0.754   0.772   0.800   0.840   0.891   0.953   1.026   1.106
   1.190   1.274   1.353   1.422   1.476   1.510   1.522   1.510   1.476   1.422
   1.353   1.274   1.190   1.106   1.026   0.953   0.891   0.840   0.800   0.772
   0.754   0.744   0.738   0.736   0.736   0.736   0.738   0.744   0.754   0.772
   0.800   0.840   0.891   0.953   1.026   1.106   1.190   1.274   1.353   1.422
   1.476   1.510
   2.365   2.344   2.282   2.184   2.059   1.913   1.754   1.588   1.421   1.256
   1.098   0.953   0.824   0.715   0.629   0.566   0.524   0.500   0.492   0.500
   0.524   0.566   0.629   0.715   0.824   0.953   1.098   1.256   1.421   1.588
   1.754   1.913   2.059   2.184   2.282   2.344   2.365   2.344   2.282   2.184
   2.059   1.913   1.754   1.588   1.421   1.256   1.098   0.953   0.824   0.715
   0.629   0.566   0.524   0.500   0.492   0.500   0.524   0.566   0.629   0.715
   0.824   0.953   1.098   1.256   1.421   1.588   1.754   1.913   2.059   2.184
   2.282   2.344
   2.661   2.640   2.578   2.484   2.365   2.229   2.081   1.920   1.743   1.551
   1.346   1.136   0.934   0.752   0.601   0.488   0.411   0.368   0.355   0.368
   0.411   0.488   0.601   0.752   0.934   1.136   1.346   1.551   1.743   1.920
   2.081   2.229   2.365   2.484   2.578   2.640   2.661   2.640   2.578   2.484
   2.365   2.229   2.081   1.920   1.743   1.551   1.346   1.136   0.934   0.752
   0.601   0.488   0.411   0.368   0.355   0.368   0.411   0.488   0.601   0.752
   0.934   1.136   1.346   1.551   1.743   1.920   2.081   2.229   2.365   2.484
   2.578   2.640
   2.047   2.037   2.008   1.971   1.933   1.900   1.867   1.822   1.749   1.632
   1.467   1.264   1.044   0.833   0.655   0.523   0.438   0.393   0.379   0.393
   0.438   0.523   0.655   0.833   1.044   1.264   1.467   1.632   1.749   1.822
   1.867   1.900   1.933   1.971   2.008   2.037   2.047   2.037   2.008   1.971
   1.933   1.900   1.867   1.822   1.749   1.632   1.467   1.264   1.044   0.833
   0.655   0.523   0.438   0.393   0.379   0.393   0.438   0.523   0.655   0.833
   1.044   1.264   1.467   1.632   1.749   1.822   1.867   1.900   1.933   1.971
   2.008   2.037
   0.969   0.971   0.982   1.009   1.062   1.147   1.255   1.365   1.446   1.466
   1.408   1.276   1.095   0.905   0.741   0.624   0.556   0.525   0.517   0.525
   0.556   0.624   0.741   0.905   1.095   1.276   1.408   1.466   1.446   1.365
   1.255   1.147   1.062   1.009   0.982   0.971   0.969   0.971   0.982   1.009
   1.062   1.147   1.255   1.365   1.446   1.466   1.408   1.276   1.095   0.905
   0.741   0.624   0.556   0.525   0.517   0.525   0.556   0.624   0.741   0.905
   1.095   1.276   1.408   1.466   1.446   1.365   1.255   1.147   1.062   1.009
   0.982   0.971
   0.202   0.211   0.237   0.284   0.361   0.477   0.639   0.833   1.027   1.177
   1.244   1.212   1.102   0.957   0.821   0.725   0.675   0.656   0.653   0.656
   0.675   0.725   0.821   0.957   1.102   1.212   1.244   1.177   1.027   0.833
   0.639   0.477   0.361   0.284   0.237   0.211   0.202   0.211   0.237   0.284
   0.361   0.477   0.639   0.833   1.027   1.177   1.244   1.212   1.102   0.957
   0.821   0.725   0.675   0.656   0.653   0.656   0.675   0.725   0.821   0.957
   1.102   1.212   1.244   1.177   1.027   0.833   0.639   0.477   0.361   0.284
   0.237   0.211
   0.085   0.094   0.115   0.134   0.149   0.185   0.276   0.445   0.678   0.921
   1.103   1.177   1.138   1.026   0.895   0.791   0.727   0.699   0.692   0.699
   0.727   0.791   0.895   1.026   1.138   1.177   1.103   0.921   0.678   0.445
   0.276   0.185   0.149   0.134   0.115   0.094   0.085   0.094   0.115   0.134
   0.149   0.185   0.276   0.445   0.678   0.921   1.103   1.177   1.138   1.026
   0.895   0.791   0.727   0.699   0.692   0.699   0.727   0.791   0.895   1.026
   1.138   1.177   1.103   0.921   0.678   0.445   0.276   0.185   0.149   0.134
   0.115   0.094
   0.301   0.315   0.337   0.326   0.262   0.176   0.146   0.244   0.487   0.809
   1.099   1.261   1.262   1.142   0.973   0.819   0.712   0.654   0.637   0.654
   0.712   0.819   0.973   1.142   1.262   1.261   1.099   0.809   0.487   0.244
   0.146   0.176   0.262   0.326   0.337   0.315   0.301   0.315   0.337   0.326
   0.262   0.176   0.146   0.244   0.487   0.809   1.099   1.261   1.262   1.142
   0.973   0.819   0.712   0.654   0.637   0.654   0.712   0.819   0.973   1.142
   1.262   1.261   1.099   0.809   0.487   0.244   0.146   0.176   0.262   0.326
   0.337   0.315
   0.365   0.393   0.445   0.452   0.369   0.230   0.140   0.217   0.499   0.907
   1.281   1.482   1.462   1.278   1.035   0.820   0.673   0.593   0.569   0.593
   0.673   0.820   1.035   1.278   1.462   1.482   1.281   0.907   0.499   0.217
   0.140   0.230   0.369   0.452   0.445   0.393   0.365   0.393   0.445   0.452
   0.369   0.230   0.140   0.217   0.499   0.907   1.281   1.482   1.462   1.278
   1.035   0.820   0.673   0.593   0.569   0.593   0.673   0.820   1.035   1.278
   1.462   1.482   1.281   0.907   0.499   0.217   0.140   0.230   0.369   0.452
   0.445   0.393
   0.185   0.226   0.318   0.385   0.370   0.293   0.260   0.399   0.750   1.216
   1.606   1.759   1.640   1.349   1.032   0.792   0.654   0.593   0.577   0.593
   0.654   0.792   1.032   1.349   1.640   1.759   1.606   1.216   0.750   0.399
   0.260   0.293   0.370   0.385   0.318   0.226   0.185   0.226   0.318   0.385
   0.370   0.293   0.260   0.399   0.750   1.216   1.606   1.759   1.640   1.349
   1.032   0.792   0.654   0.593   0.577   0.593   0.654   0.792   1.032   1.349
   1.640   1.759   1.606   1.216   0.750   0.399   0.260   0.293   0.370   0.385
   0.318   0.226
   0.080   0.116   0.209   0.323   0.415   0.480   0.581   0.808   1.190   1.624
   1.922   1.935   1.670   1.278   0.937   0.741   0.677   0.678   0.685   0.678
   0.677   0.741   0.937   1.278   1.670   1.935   1.922   1.624   1.190   0.808
   0.581   0.480   0.415   0.323   0.209   0.116   0.080   0.116   0.209   0.323
   0.415   0.480   0.581   0.808   1.190   1.624   1.922   1.935   1.670   1.278
   0.937   0.741   0.677   0.678   0.685   0.678   0.677   0.741   0.937   1.278
   1.670   1.935   1.922   1.624   1.190   0.808   0.581   0.480   0.415   0.323
   0.209   0.116
   0.361   0.358   0.378   0.470   0.639   0.848   1.073   1.333   1.640   1.919
   2.027   1.864   1.481   1.060   0.778   0.692   0.738   0.814   0.847   0.814
   0.738   0.692   0.778   1.060   1.481   1.864   2.027   1.919   1.640   1.333
   1.073   0.848   0.639   0.470   0.378   0.358   0.361   0.358   0.378   0.470
   0.639   0.848   1.073   1.333   1.640   1.919   2.027   1.864   1.481   1.060
   0.778   0.692   0.738   0.814   0.847   0.814   0.738   0.692   0.778   1.060
   1.481   1.864   2.027   1.919   1.640   1.333   1.073   0.848   0.639   0.470
   0.378   0.358
   0.992   0.924   0.804   0.799   0.983   1.282   1.564   1.766   1.892   1.931
   1.820   1.521   1.112   0.767   0.622   0.675   0.821   0.946   0.991   0.946
   0.821   0.675   0.622   0.767   1.112   1.521   1.820   1.931   1.892   1.766
   1.564   1.282   0.983   0.799   0.804   0.924   0.992   0.924   0.804   0.799
   0.983   1.282   1.564   1.766   1.892   1.931   1.820   1.521   1.112   0.767
   0.622   0.675   0.821   0.946   0.991   0.946   0.821   0.675   0.622   0.767
   1.112   1.521   1.820   1.931   1.892   1.766   1.564   1.282   0.983   0.799
   0.804   0.924
   1.668   1.531   1.258   1.128   1.283   1.613   1.892   1.983   1.896   1.698
   1.412   1.054   0.707   0.504   0.520   0.697   0.902   1.036   1.079   1.036
   0.902   0.697   0.520   0.504   0.707   1.054   1.412   1.698   1.896   1.983
   1.892   1.613   1.283   1.128   1.258   1.531   1.668   1.531   1.258   1.128
   1.283   1.613   1.892   1.983   1.896   1.698   1.412   1.054   0.707   0.504
   0.520   0.697   0.902   1.036   1.079   1.036   0.902   0.697   0.520   0.504
   0.707   1.054   1.412   1.698   1.896   1.983   1.892   1.613   1.283   1.128
   1.258   1.531
   2.083   1.901   1.530   1.314   1.438   1.772   2.030   2.035   1.808   1.465
   1.088   0.722   0.444   0.353   0.478   0.726   0.952   1.079   1.114   1.079
   0.952   0.726   0.478   0.353   0.444   0.722   1.088   1.465   1.808   2.035
   2.030   1.772   1.438   1.314   1.530   1.901   2.083   1.901   1.530   1.314
   1.438   1.772   2.030   2.035   1.808   1.465   1.088   0.722   0.444   0.353
   0.478   0.726   0.952   1.079   1.114   1.079   0.952   0.726   0.478   0.353
   0.444   0.722   1.088   1.465   1.808   2.035   2.030   1.772   1.438   1.314
   1.530   1.901
 111       5.00   72    0 5.00   18    0
   0.391   0.391   0.393   0.396   0.400   0.405   0.411   0.417   0.424   0.431
   0.439   0.446   0.452   0.458   0.463   0.468   0.471   0.473   0.473   0.473
   0.471   0.468   0.463   0.458   0.452   0.446   0.439   0.431   0.424   0.417
   0.411   0.405   0.400   0.396   0.393   0.391   0.391   0.391   0.393   0.396
   0.400   0.405   0.411   0.417   0.424   0.431   0.439   0.446   0.452   0.458
   0.463   0.468   0.471   0.473   0.473   0.473   0.471   0.468   0.463   0.458
   0.452   0.446   0.439   0.431   0.424   0.417   0.411   0.405   0.400   0.396
   0.393   0.391
  -0.082  -0.080  -0.072  -0.060  -0.042  -0.019   0.010   0.045   0.084   0.128
   0.174   0.223   0.270   0.316   0.357   0.391   0.417   0.433   0.438   0.433
   0.417   0.391   0.357   0.316   0.270   0.223   0.174   0.128   0.084   0.045
   0.010  -0.019  -0.042  -0.060  -0.072  -0.080  -0.082  -0.080  -0.072  -0.060
  -0.042  -0.019   0.010   0.045   0.084   0.128   0.174   0.223   0.270   0.316
   0.357   0.391   0.417   0.433   0.438   0.433   0.417   0.391   0.357   0.316
   0.270   0.223   0.174   0.128   0.084   0.045   0.010  -0.019  -0.042  -0.060
  -0.072  -0.080
  -0.128  -0.134  -0.149  -0.172  -0.197  -0.219  -0.232  -0.232  -0.215  -0.180
  -0.125  -0.055   0.027   0.114   0.199   0.274   0.334   0.372   0.385   0.372
   0.334   0.274   0.199   0.114   0.027  -0.055  -0.125  -0.180  -0.215  -0.232
  -0.232  -0.219  -0.197  -0.172  -0.149  -0.134  -0.128  -0.134  -0.149  -0.172
  -0.197  -0.219  -0.232  -0.232  -0.215  -0.180  -0.125  -0.055   0.027   0.114
   0.199   0.274   0.334   0.372   0.385   0.372   0.334   0.274   0.199   0.114
   0.027  -0.055  -0.125  -0.180  -0.215  -0.232  -0.232  -0.219  -0.197  -0.172
  -0.149  -0.134
   0.965   0.935   0.847   0.711   0.543   0.360   0.182   0.025  -0.095  -0.171
  -0.197  -0.177  -0.117  -0.028   0.074   0.175   0.259   0.315   0.335   0.315
   0.259   0.175   0.074  -0.028  -0.117  -0.177  -0.197  -0.171  -0.095   0.025
   0.182   0.360   0.543   0.711   0.847   0.935   0.965   0.935   0.847   0.711
   0.543   0.360   0.182   0.025  -0.095  -0.171  -0.197  -0.177  -0.117  -0.028
   0.074   0.175   0.259   0.315   0.335   0.315   0.259   0.175   0.074  -0.028
  -0.117  -0.177  -0.197  -0.171  -0.095   0.025   0.182   0.360   0.543   0.711
   0.847   0.935
   2.788   2.726   2.545   2.266   1.916   1.529   1.138   0.775   0.463   0.220
   0.053  -0.037  -0.057  -0.022   0.050   0.136   0.217   0.273   0.294   0.273
   0.217   0.136   0.050  -0.022  -0.057  -0.037   0.053   0.220   0.463   0.775
   1.138   1.529   1.916   2.266   2.545   2.726   2.788   2.726   2.545   2.266
   1.916   1.529   1.138   0.775   0.463   0.220   0.053  -0.037  -0.057  -0.022
   0.050   0.136   0.217   0.273   0.294   0.273   0.217   0.136   0.050  -0.022
  -0.057  -0.037   0.053   0.220   0.463   0.775   1.138   1.529   1.916   2.266
   2.545   2.726
   4.084   4.004   3.773   3.419   2.980   2.497   2.010   1.550   1.141   0.797
   0.526   0.331   0.209   0.153   0.147   0.174   0.212   0.244   0.256   0.244
   0.212   0.174   0.147   0.153   0.209   0.331   0.526   0.797   1.141   1.550
   2.010   2.497   2.980   3.419   3.773   4.004   4.084   4.004   3.773   3.419
   2.980   2.497   2.010   1.550   1.141   0.797   0.526   0.331   0.209   0.153
   0.147   0.174   0.212   0.244   0.256   0.244   0.212   0.174   0.147   0.153
   0.209   0.331   0.526   0.797   1.141   1.550   2.010   2.497   2.980   3.419
   3.773   4.004
   3.937   3.867   3.667   3.368   3.011   2.635   2.267   1.922   1.603   1.309
   1.042   0.805   0.606   0.453   0.345   0.278   0.242   0.226   0.222   0.226
   0.242   0.278   0.345   0.453   0.606   0.805   1.042   1.309   1.603   1.922
   2.267   2.635   3.011   3.368   3.667   3.867   3.937   3.867   3.667   3.368
   3.011   2.635   2.267   1.922   1.603   1.309   1.042   0.805   0.606   0.453
   0.345   0.278   0.242   0.226   0.222   0.226   0.242   0.278   0.345   0.453
   0.606   0.805   1.042   1.309   1.603   1.922   2.267   2.635   3.011   3.368
   3.667   3.867
   2.589   2.548   2.436   2.286   2.136   2.012   1.919   1.842   1.755   1.632
   1.464   1.259   1.034   0.814   0.615   0.450   0.327   0.250   0.224   0.250
   0.327   0.450   0.615   0.814   1.034   1.259   1.464   1.632   1.755   1.842
   1.919   2.012   2.136   2.286   2.436   2.548   2.589   2.548   2.436   2.286
   2.136   2.012   1.919   1.842   1.755   1.632   1.464   1.259   1.034   0.814
   0.615   0.450   0.327   0.250   0.224   0.250   0.327   0.450   0.615   0.814
   1.034   1.259   1.464   1.632   1.755   1.842   1.919   2.012   2.136   2.286
   2.436   2.548
   1.092   1.078   1.052   1.044   1.089   1.203   1.370   1.551   1.694   1.756
   1.720   1.594   1.405   1.179   0.940   0.709   0.511   0.375   0.326   0.375
   0.511   0.709   0.940   1.179   1.405   1.594   1.720   1.756   1.694   1.551
   1.370   1.203   1.089   1.044   1.052   1.078   1.092   1.078   1.052   1.044
   1.089   1.203   1.370   1.551   1.694   1.756   1.720   1.594   1.405   1.179
   0.940   0.709   0.511   0.375   0.326   0.375   0.511   0.709   0.940   1.179
   1.405   1.594   1.720   1.756   1.694   1.551   1.370   1.203   1.089   1.044
   1.052   1.078
   0.283   0.281   0.291   0.343   0.469   0.681   0.962   1.262   1.522   1.696
   1.765   1.739   1.641   1.489   1.290   1.057   0.824   0.647   0.581   0.647
   0.824   1.057   1.290   1.489   1.641   1.739   1.765   1.696   1.522   1.262
   0.962   0.681   0.469   0.343   0.291   0.281   0.283   0.281   0.291   0.343
   0.469   0.681   0.962   1.262   1.522   1.696   1.765   1.739   1.641   1.489
   1.290   1.057   0.824   0.647   0.581   0.647   0.824   1.057   1.290   1.489
   1.641   1.739   1.765   1.696   1.522   1.262   0.962   0.681   0.469   0.343
   0.291   0.281
   0.187   0.182   0.179   0.208   0.302   0.477   0.724   1.004   1.266   1.467
   1.594   1.659   1.682   1.665   1.585   1.429   1.225   1.046   0.974   1.046
   1.225   1.429   1.585   1.665   1.682   1.659   1.594   1.467   1.266   1.004
   0.724   0.477   0.302   0.208   0.179   0.182   0.187   0.182   0.179   0.208
   0.302   0.477   0.724   1.004   1.266   1.467   1.594   1.659   1.682   1.665
   1.585   1.429   1.225   1.046   0.974   1.046   1.225   1.429   1.585   1.665
   1.682   1.659   1.594   1.467   1.266   1.004   0.724   0.477   0.302   0.208
   0.179   0.182
   0.318   0.304   0.272   0.252   0.277   0.369   0.533   0.743   0.960   1.143
   1.279   1.389   1.504   1.623   1.703   1.692   1.588   1.460   1.403   1.460
   1.588   1.692   1.703   1.623   1.504   1.389   1.279   1.143   0.960   0.743
   0.533   0.369   0.277   0.252   0.272   0.304   0.318   0.304   0.272   0.252
   0.277   0.369   0.533   0.743   0.960   1.143   1.279   1.389   1.504   1.623
   1.703   1.692   1.588   1.460   1.403   1.460   1.588   1.692   1.703   1.623
   1.504   1.389   1.279   1.143   0.960   0.743   0.533   0.369   0.277   0.252
   0.272   0.304
   0.349   0.327   0.276   0.228   0.215   0.259   0.370   0.533   0.712   0.861
   0.958   1.036   1.156   1.347   1.566   1.725   1.772   1.742   1.718   1.742
   1.772   1.725   1.566   1.347   1.156   1.036   0.958   0.861   0.712   0.533
   0.370   0.259   0.215   0.228   0.276   0.327   0.349   0.327   0.276   0.228
   0.215   0.259   0.370   0.533   0.712   0.861   0.958   1.036   1.156   1.347
   1.566   1.725   1.772   1.742   1.718   1.742   1.772   1.725   1.566   1.347
   1.156   1.036   0.958   0.861   0.712   0.533   0.370   0.259   0.215   0.228
   0.276   0.327
   0.388   0.362   0.302   0.250   0.236   0.270   0.354   0.482   0.624   0.725
   0.749   0.729   0.764   0.936   1.225   1.522   1.718   1.796   1.810   1.796
   1.718   1.522   1.225   0.936   0.764   0.729   0.749   0.725   0.624   0.482
   0.354   0.270   0.236   0.250   0.302   0.362   0.388   0.362   0.302   0.250
   0.236   0.270   0.354   0.482   0.624   0.725   0.749   0.729   0.764   0.936
   1.225   1.522   1.718   1.796   1.810   1.796   1.718   1.522   1.225   0.936
   0.764   0.729   0.749   0.725   0.624   0.482   0.354   0.270   0.236   0.250
   0.302   0.362
   0.704   0.670   0.598   0.542   0.526   0.535   0.558   0.604   0.671   0.711
   0.665   0.548   0.475   0.573   0.857   1.212   1.489   1.631   1.669   1.631
   1.489   1.212   0.857   0.573   0.475   0.548   0.665   0.711   0.671   0.604
   0.558   0.535   0.526   0.542   0.598   0.670   0.704   0.670   0.598   0.542
   0.526   0.535   0.558   0.604   0.671   0.711   0.665   0.548   0.475   0.573
   0.857   1.212   1.489   1.631   1.669   1.631   1.489   1.212   0.857   0.573
   0.475   0.548   0.665   0.711   0.671   0.604   0.558   0.535   0.526   0.542
   0.598   0.670
   1.339   1.294   1.198   1.120   1.072   1.006   0.896   0.785   0.726   0.703
   0.635   0.493   0.368   0.401   0.634   0.959   1.221   1.353   1.386   1.353
   1.221   0.959   0.634   0.401   0.368   0.493   0.635   0.703   0.726   0.785
   0.896   1.006   1.072   1.120   1.198   1.294   1.339   1.294   1.198   1.120
   1.072   1.006   0.896   0.785   0.726   0.703   0.635   0.493   0.368   0.401
   0.634   0.959   1.221   1.353   1.386   1.353   1.221   0.959   0.634   0.401
   0.368   0.493   0.635   0.703   0.726   0.785   0.896   1.006   1.072   1.120
   1.198   1.294
   2.050   1.993   1.869   1.756   1.652   1.479   1.202   0.902   0.703   0.633
   0.596   0.507   0.408   0.420   0.595   0.842   1.022   1.090   1.098   1.090
   1.022   0.842   0.595   0.420   0.408   0.507   0.596   0.633   0.703   0.902
   1.202   1.479   1.652   1.756   1.869   1.993   2.050   1.993   1.869   1.756
   1.652   1.479   1.202   0.902   0.703   0.633   0.596   0.507   0.408   0.420
   0.595   0.842   1.022   1.090   1.098   1.090   1.022   0.842   0.595   0.420
   0.408   0.507   0.596   0.633   0.703   0.902   1.202   1.479   1.652   1.756
   1.869   1.993
   2.509   2.443   2.300   2.161   2.015   1.764   1.367   0.937   0.647   0.554
   0.557   0.532   0.478   0.495   0.635   0.819   0.927   0.936   0.923   0.936
   0.927   0.819   0.635   0.495   0.478   0.532   0.557   0.554   0.647   0.937
   1.367   1.764   2.015   2.161   2.300   2.443   2.509   2.443   2.300   2.161
   2.015   1.764   1.367   0.937   0.647   0.554   0.557   0.532   0.478   0.495
   0.635   0.819   0.927   0.936   0.923   0.936   0.927   0.819   0.635   0.495
   0.478   0.532   0.557   0.554   0.647   0.937   1.367   1.764   2.015   2.161
   2.300   2.443
 311       5.00   72    0 5.00   18    0
   1.796   1.797   1.799   1.801   1.805   1.809   1.814   1.820   1.826   1.832
   1.838   1.844   1.850   1.855   1.859   1.863   1.866   1.867   1.868   1.867
   1.866   1.863   1.859   1.855   1.850   1.844   1.838   1.832   1.826   1.820
   1.814   1.809   1.805   1.801   1.799   1.797   1.796   1.797   1.799   1.801
   1.805   1.809   1.814   1.820   1.826   1.832   1.838   1.844   1.850   1.855
   1.859   1.863   1.866   1.867   1.868   1.867   1.866   1.863   1.859   1.855
   1.850   1.844   1.838   1.832   1.826   1.820   1.814   1.809   1.805   1.801
   1.799   1.797
   1.210   1.213   1.223   1.239   1.261   1.289   1.322   1.360   1.401   1.445
   1.490   1.535   1.578   1.617   1.652   1.681   1.702   1.716   1.720   1.716
   1.702   1.681   1.652   1.617   1.578   1.535   1.490   1.445   1.401   1.360
   1.322   1.289   1.261   1.239   1.223   1.213   1.210   1.213   1.223   1.239
   1.261   1.289   1.322   1.360   1.401   1.445   1.490   1.535   1.578   1.617
   1.652   1.681   1.702   1.716   1.720   1.716   1.702   1.681   1.652   1.617
   1.578   1.535   1.490   1.445   1.401   1.360   1.322   1.289   1.261   1.239
   1.223   1.213
   0.638   0.641   0.650   0.666   0.689   0.721   0.763   0.815   0.876   0.946
   1.023   1.104   1.187   1.267   1.339   1.401   1.448   1.478   1.488   1.478
   1.448   1.401   1.339   1.267   1.187   1.104   1.023   0.946   0.876   0.815
   0.763   0.721   0.689   0.666   0.650   0.641   0.638   0.641   0.650   0.666
   0.689   0.721   0.763   0.815   0.876   0.946   1.023   1.104   1.187   1.267
   1.339   1.401   1.448   1.478   1.488   1.478   1.448   1.401   1.339   1.267
   1.187   1.104   1.023   0.946   0.876   0.815   0.763   0.721   0.689   0.666
   0.650   0.641
   0.626   0.622   0.612   0.598   0.583   0.573   0.571   0.583   0.610   0.654
   0.715   0.792   0.878   0.970   1.059   1.139   1.202   1.242   1.256   1.242
   1.202   1.139   1.059   0.970   0.878   0.792   0.715   0.654   0.610   0.583
   0.571   0.573   0.583   0.598   0.612   0.622   0.626   0.622   0.612   0.598
   0.583   0.573   0.571   0.583   0.610   0.654   0.715   0.792   0.878   0.970
   1.059   1.139   1.202   1.242   1.256   1.242   1.202   1.139   1.059   0.970
   0.878   0.792   0.715   0.654   0.610   0.583   0.571   0.573   0.583   0.598
   0.612   0.622
   1.087   1.076   1.043   0.994   0.933   0.868   0.805   0.751   0.712   0.693
   0.696   0.722   0.768   0.831   0.902   0.972   1.031   1.070   1.084   1.070
   1.031   0.972   0.902   0.831   0.768   0.722   0.696   0.693   0.712   0.751
   0.805   0.868   0.933   0.994   1.043   1.076   1.087   1.076   1.043   0.994
   0.933   0.868   0.805   0.751   0.712   0.693   0.696   0.722   0.768   0.831
   0.902   0.972   1.031   1.070   1.084   1.070   1.031   0.972   0.902   0.831
   0.768   0.722   0.696   0.693   0.712   0.751   0.805   0.868   0.933   0.994
   1.043   1.076
   1.435   1.425   1.397   1.353   1.297   1.232   1.161   1.086   1.011   0.941
   0.884   0.845   0.829   0.838   0.866   0.905   0.944   0.973   0.983   0.973
   0.944   0.905   0.866   0.838   0.829   0.845   0.884   0.941   1.011   1.086
   1.161   1.232   1.297   1.353   1.397   1.425   1.435   1.425   1.397   1.353
   1.297   1.232   1.161   1.086   1.011   0.941   0.884   0.845   0.829   0.838
   0.866   0.905   0.944   0.973   0.983   0.973   0.944   0.905   0.866   0.838
   0.829   0.845   0.884   0.941   1.011   1.086   1.161   1.232   1.297   1.353
   1.397   1.425
   1.247   1.251   1.264   1.285   1.308   1.327   1.330   1.309   1.258   1.182
   1.093   1.006   0.938   0.897   0.885   0.893   0.911   0.928   0.934   0.928
   0.911   0.893   0.885   0.897   0.938   1.006   1.093   1.182   1.258   1.309
   1.330   1.327   1.308   1.285   1.264   1.251   1.247   1.251   1.264   1.285
   1.308   1.327   1.330   1.309   1.258   1.182   1.093   1.006   0.938   0.897
   0.885   0.893   0.911   0.928   0.934   0.928   0.911   0.893   0.885   0.897
   0.938   1.006   1.093   1.182   1.258   1.309   1.330   1.327   1.308   1.285
   1.264   1.251
   0.702   0.726   0.794   0.902   1.035   1.170   1.279   1.339   1.335   1.273
   1.174   1.067   0.979   0.923   0.900   0.899   0.908   0.916   0.919   0.916
   0.908   0.899   0.900   0.923   0.979   1.067   1.174   1.273   1.335   1.339
   1.279   1.170   1.035   0.902   0.794   0.726   0.702   0.726   0.794   0.902
   1.035   1.170   1.279   1.339   1.335   1.273   1.174   1.067   0.979   0.923
   0.900   0.899   0.908   0.916   0.919   0.916   0.908   0.899   0.900   0.923
   0.979   1.067   1.174   1.273   1.335   1.339   1.279   1.170   1.035   0.902
   0.794   0.726
   0.341   0.376   0.477   0.636   0.832   1.031   1.191   1.278   1.277   1.202
   1.090   0.985   0.919   0.899   0.909   0.927   0.937   0.938   0.937   0.938
   0.937   0.927   0.909   0.899   0.919   0.985   1.090   1.202   1.277   1.278
   1.191   1.031   0.832   0.636   0.477   0.376   0.341   0.376   0.477   0.636
   0.832   1.031   1.191   1.278   1.277   1.202   1.090   0.985   0.919   0.899
   0.909   0.927   0.937   0.938   0.937   0.938   0.937   0.927   0.909   0.899
   0.919   0.985   1.090   1.202   1.277   1.278   1.191   1.031   0.832   0.636
   0.477   0.376
   0.464   0.496   0.589   0.736   0.914   1.085   1.204   1.235   1.170   1.040
   0.902   0.815   0.808   0.867   0.947   1.001   1.012   0.996   0.986   0.996
   1.012   1.001   0.947   0.867   0.808   0.815   0.902   1.040   1.170   1.235
   1.204   1.085   0.914   0.736   0.589   0.496   0.464   0.496   0.589   0.736
   0.914   1.085   1.204   1.235   1.170   1.040   0.902   0.815   0.808   0.867
   0.947   1.001   1.012   0.996   0.986   0.996   1.012   1.001   0.947   0.867
   0.808   0.815   0.902   1.040   1.170   1.235   1.204   1.085   0.914   0.736
   0.589   0.496
   0.852   0.872   0.932   1.027   1.141   1.239   1.275   1.218   1.071   0.879
   0.717   0.657   0.722   0.874   1.030   1.115   1.112   1.064   1.038   1.064
   1.112   1.115   1.030   0.874   0.722   0.657   0.717   0.879   1.071   1.218
   1.275   1.239   1.141   1.027   0.932   0.872   0.852   0.872   0.932   1.027
   1.141   1.239   1.275   1.218   1.071   0.879   0.717   0.657   0.722   0.874
   1.030   1.115   1.112   1.064   1.038   1.064   1.112   1.115   1.030   0.874
   0.722   0.657   0.717   0.879   1.071   1.218   1.275   1.239   1.141   1.027
   0.932   0.872
   1.048   1.059   1.092   1.152   1.224   1.280   1.277   1.186   1.011   0.800
   0.636   0.596   0.707   0.918   1.118   1.212   1.179   1.089   1.044   1.089
   1.179   1.212   1.118   0.918   0.707   0.596   0.636   0.800   1.011   1.186
   1.277   1.280   1.224   1.152   1.092   1.059   1.048   1.059   1.092   1.152
   1.224   1.280   1.277   1.186   1.011   0.800   0.636   0.596   0.707   0.918
   1.118   1.212   1.179   1.089   1.044   1.089   1.179   1.212   1.118   0.918
   0.707   0.596   0.636   0.800   1.011   1.186   1.277   1.280   1.224   1.152
   1.092   1.059
   0.856   0.866   0.901   0.967   1.056   1.138   1.175   1.135   1.014   0.848
   0.705   0.664   0.764   0.963   1.153   1.225   1.157   1.031   0.969   1.031
   1.157   1.225   1.153   0.963   0.764   0.664   0.705   0.848   1.014   1.135
   1.175   1.138   1.056   0.967   0.901   0.866   0.856   0.866   0.901   0.967
   1.056   1.138   1.175   1.135   1.014   0.848   0.705   0.664   0.764   0.963
   1.153   1.225   1.157   1.031   0.969   1.031   1.157   1.225   1.153   0.963
   0.764   0.664   0.705   0.848   1.014   1.135   1.175   1.138   1.056   0.967
   0.901   0.866
   0.499   0.515   0.572   0.675   0.812   0.951   1.055   1.098   1.072   0.989
   0.887   0.829   0.866   0.991   1.120   1.150   1.051   0.902   0.832   0.902
   1.051   1.150   1.120   0.991   0.866   0.829   0.887   0.989   1.072   1.098
   1.055   0.951   0.812   0.675   0.572   0.515   0.499   0.515   0.572   0.675
   0.812   0.951   1.055   1.098   1.072   0.989   0.887   0.829   0.866   0.991
   1.120   1.150   1.051   0.902   0.832   0.902   1.051   1.150   1.120   0.991
   0.866   0.829   0.887   0.989   1.072   1.098   1.055   0.951   0.812   0.675
   0.572   0.515
   0.354   0.378   0.457   0.589   0.749   0.898   1.008   1.079   1.117   1.118
   1.076   1.016   0.990   1.024   1.074   1.054   0.929   0.769   0.696   0.769
   0.929   1.054   1.074   1.024   0.990   1.016   1.076   1.118   1.117   1.079
   1.008   0.898   0.749   0.589   0.457   0.378   0.354   0.378   0.457   0.589
   0.749   0.898   1.008   1.079   1.117   1.118   1.076   1.016   0.990   1.024
   1.074   1.054   0.929   0.769   0.696   0.769   0.929   1.054   1.074   1.024
   0.990   1.016   1.076   1.118   1.117   1.079   1.008   0.898   0.749   0.589
   0.457   0.378
   0.590   0.618   0.704   0.833   0.959   1.032   1.043   1.040   1.072   1.133
   1.172   1.158   1.118   1.095   1.081   1.016   0.868   0.698   0.622   0.698
   0.868   1.016   1.081   1.095   1.118   1.158   1.172   1.133   1.072   1.040
   1.043   1.032   0.959   0.833   0.704   0.618   0.590   0.618   0.704   0.833
   0.959   1.032   1.043   1.040   1.072   1.133   1.172   1.158   1.118   1.095
   1.081   1.016   0.868   0.698   0.622   0.698   0.868   1.016   1.081   1.095
   1.118   1.158   1.172   1.133   1.072   1.040   1.043   1.032   0.959   0.833
   0.704   0.618
   1.046   1.074   1.154   1.254   1.306   1.251   1.103   0.963   0.937   1.032
   1.160   1.230   1.228   1.196   1.150   1.053   0.882   0.699   0.618   0.699
   0.882   1.053   1.150   1.196   1.228   1.230   1.160   1.032   0.937   0.963
   1.103   1.251   1.306   1.254   1.154   1.074   1.046   1.074   1.154   1.254
   1.306   1.251   1.103   0.963   0.937   1.032   1.160   1.230   1.228   1.196
   1.150   1.053   0.882   0.699   0.618   0.699   0.882   1.053   1.150   1.196
   1.228   1.230   1.160   1.032   0.937   0.963   1.103   1.251   1.306   1.254
   1.154   1.074
   1.395   1.422   1.493   1.567   1.561   1.408   1.140   0.895   0.816   0.926
   1.114   1.251   1.293   1.273   1.218   1.105   0.918   0.725   0.640   0.725
   0.918   1.105   1.218   1.273   1.293   1.251   1.114   0.926   0.816   0.895
   1.140   1.408   1.561   1.567   1.493   1.422   1.395   1.422   1.493   1.567
   1.561   1.408   1.140   0.895   0.816   0.926   1.114   1.251   1.293   1.273
   1.218   1.105   0.918   0.725   0.640   0.725   0.918   1.105   1.218   1.273
   1.293   1.251   1.114   0.926   0.816   0.895   1.140   1.408   1.561   1.567
   1.493   1.422
TEXTURE_INDEX=   2.7238
ERR_CF 220         1080     478   27.56   21.41
ERR_CF 200         1080     518   21.38   11.15
ERR_CF 111         1080     342   38.45   12.92
