TEXEVAL                                                                         
Analysis started on 21-Sep-20 10:53:19                                          
 LMAX=14LFMAX=03 CUBIC ORTHO   
 220      5.00 5.00
 200      5.00 5.00
 111      5.00 5.00
 220       5.00   72    0 5.00   15    0
   0.667   0.667   0.667   0.667   0.667   0.667   0.667   0.667   0.667   0.667
   0.667   0.667   0.667   0.667   0.667   0.667   0.667   0.667   0.667   0.667
   0.667   0.667   0.667   0.667   0.667   0.667   0.667   0.667   0.667   0.667
   0.667   0.667   0.667   0.667   0.667   0.667   0.667   0.667   0.667   0.667
   0.667   0.667   0.667   0.667   0.667   0.667   0.667   0.667   0.667   0.667
   0.667   0.667   0.667   0.667   0.667   0.667   0.667   0.667   0.667   0.667
   0.667   0.667   0.667   0.667   0.667   0.667   0.667   0.667   0.667   0.667
   0.667   0.667
   0.789   0.738   0.795   0.808   0.975   0.769   0.802   0.757   0.900   0.862
   0.864   0.674   0.895   0.734   0.676   0.722   0.723   0.784   0.686   0.784
   0.723   0.722   0.676   0.734   0.895   0.674   0.864   0.862   0.900   0.757
   0.802   0.769   0.975   0.808   0.795   0.738   0.789   0.738   0.795   0.808
   0.975   0.769   0.802   0.757   0.900   0.862   0.864   0.674   0.895   0.734
   0.676   0.722   0.723   0.784   0.686   0.784   0.723   0.722   0.676   0.734
   0.895   0.674   0.864   0.862   0.900   0.757   0.802   0.769   0.975   0.808
   0.795   0.738
   1.004   0.769   1.115   0.992   1.097   1.032   0.929   0.837   0.852   0.836
   0.919   0.754   0.773   0.709   0.771   0.815   0.884   0.777   0.689   0.777
   0.884   0.815   0.771   0.709   0.773   0.754   0.919   0.836   0.852   0.837
   0.929   1.032   1.097   0.992   1.115   0.769   1.004   0.769   1.115   0.992
   1.097   1.032   0.929   0.837   0.852   0.836   0.919   0.754   0.773   0.709
   0.771   0.815   0.884   0.777   0.689   0.777   0.884   0.815   0.771   0.709
   0.773   0.754   0.919   0.836   0.852   0.837   0.929   1.032   1.097   0.992
   1.115   0.769
   1.198   1.055   1.364   1.298   1.036   1.118   1.037   0.823   0.852   0.740
   0.989   0.888   0.769   0.853   0.915   0.858   0.901   0.819   0.640   0.819
   0.901   0.858   0.915   0.853   0.769   0.888   0.989   0.740   0.852   0.823
   1.037   1.118   1.036   1.298   1.364   1.055   1.198   1.055   1.364   1.298
   1.036   1.118   1.037   0.823   0.852   0.740   0.989   0.888   0.769   0.853
   0.915   0.858   0.901   0.819   0.640   0.819   0.901   0.858   0.915   0.853
   0.769   0.888   0.989   0.740   0.852   0.823   1.037   1.118   1.036   1.298
   1.364   1.055
   1.640   1.630   1.484   1.448   1.214   1.174   1.270   1.027   1.019   1.042
   1.264   0.994   0.907   0.955   0.955   0.999   0.963   1.043   0.881   1.043
   0.963   0.999   0.955   0.955   0.907   0.994   1.264   1.042   1.019   1.027
   1.270   1.174   1.214   1.448   1.484   1.630   1.640   1.630   1.484   1.448
   1.214   1.174   1.270   1.027   1.019   1.042   1.264   0.994   0.907   0.955
   0.955   0.999   0.963   1.043   0.881   1.043   0.963   0.999   0.955   0.955
   0.907   0.994   1.264   1.042   1.019   1.027   1.270   1.174   1.214   1.448
   1.484   1.630
   1.859   1.669   1.530   1.523   1.617   1.502   1.495   1.415   1.337   1.296
   1.359   1.180   1.087   1.022   1.006   0.929   1.092   1.195   1.021   1.195
   1.092   0.929   1.006   1.022   1.087   1.180   1.359   1.296   1.337   1.415
   1.495   1.502   1.617   1.523   1.530   1.669   1.859   1.669   1.530   1.523
   1.617   1.502   1.495   1.415   1.337   1.296   1.359   1.180   1.087   1.022
   1.006   0.929   1.092   1.195   1.021   1.195   1.092   0.929   1.006   1.022
   1.087   1.180   1.359   1.296   1.337   1.415   1.495   1.502   1.617   1.523
   1.530   1.669
   1.603   1.223   1.633   1.601   1.961   1.506   1.471   1.725   1.554   1.273
   1.210   1.253   1.142   1.050   1.050   0.892   0.984   1.163   1.127   1.163
   0.984   0.892   1.050   1.050   1.142   1.253   1.210   1.273   1.554   1.725
   1.471   1.506   1.961   1.601   1.633   1.223   1.603   1.223   1.633   1.601
   1.961   1.506   1.471   1.725   1.554   1.273   1.210   1.253   1.142   1.050
   1.050   0.892   0.984   1.163   1.127   1.163   0.984   0.892   1.050   1.050
   1.142   1.253   1.210   1.273   1.554   1.725   1.471   1.506   1.961   1.601
   1.633   1.223
   1.257   1.146   1.378   1.325   1.793   1.245   1.233   1.554   1.431   1.360
   1.214   1.151   1.009   0.895   0.889   1.111   1.034   1.185   1.400   1.185
   1.034   1.111   0.889   0.895   1.009   1.151   1.214   1.360   1.431   1.554
   1.233   1.245   1.793   1.325   1.378   1.146   1.257   1.146   1.378   1.325
   1.793   1.245   1.233   1.554   1.431   1.360   1.214   1.151   1.009   0.895
   0.889   1.111   1.034   1.185   1.400   1.185   1.034   1.111   0.889   0.895
   1.009   1.151   1.214   1.360   1.431   1.554   1.233   1.245   1.793   1.325
   1.378   1.146
   1.059   1.205   1.030   1.226   1.151   1.085   1.139   1.230   1.219   1.453
   1.291   1.132   1.110   1.008   0.864   1.085   1.174   1.091   1.547   1.091
   1.174   1.085   0.864   1.008   1.110   1.132   1.291   1.453   1.219   1.230
   1.139   1.085   1.151   1.226   1.030   1.205   1.059   1.205   1.030   1.226
   1.151   1.085   1.139   1.230   1.219   1.453   1.291   1.132   1.110   1.008
   0.864   1.085   1.174   1.091   1.547   1.091   1.174   1.085   0.864   1.008
   1.110   1.132   1.291   1.453   1.219   1.230   1.139   1.085   1.151   1.226
   1.030   1.205
   0.983   1.107   1.053   1.206   1.047   1.148   1.274   1.049   1.256   1.401
   1.226   1.229   1.250   1.347   0.876   0.949   1.139   1.037   1.283   1.037
   1.139   0.949   0.876   1.347   1.250   1.229   1.226   1.401   1.256   1.049
   1.274   1.148   1.047   1.206   1.053   1.107   0.983   1.107   1.053   1.206
   1.047   1.148   1.274   1.049   1.256   1.401   1.226   1.229   1.250   1.347
   0.876   0.949   1.139   1.037   1.283   1.037   1.139   0.949   0.876   1.347
   1.250   1.229   1.226   1.401   1.256   1.049   1.274   1.148   1.047   1.206
   1.053   1.107
   0.827   0.809   1.002   0.861   1.095   0.999   1.061   0.757   1.047   1.035
   1.035   1.222   0.967   1.377   1.117   0.848   1.171   1.106   0.929   1.106
   1.171   0.848   1.117   1.377   0.967   1.222   1.035   1.035   1.047   0.757
   1.061   0.999   1.095   0.861   1.002   0.809   0.827   0.809   1.002   0.861
   1.095   0.999   1.061   0.757   1.047   1.035   1.035   1.222   0.967   1.377
   1.117   0.848   1.171   1.106   0.929   1.106   1.171   0.848   1.117   1.377
   0.967   1.222   1.035   1.035   1.047   0.757   1.061   0.999   1.095   0.861
   1.002   0.809
   0.769   0.790   0.644   0.610   0.877   0.713   0.851   0.987   0.806   0.680
   0.930   1.317   0.752   1.064   1.108   0.694   1.146   1.158   1.011   1.158
   1.146   0.694   1.108   1.064   0.752   1.317   0.930   0.680   0.806   0.987
   0.851   0.713   0.877   0.610   0.644   0.790   0.769   0.790   0.644   0.610
   0.877   0.713   0.851   0.987   0.806   0.680   0.930   1.317   0.752   1.064
   1.108   0.694   1.146   1.158   1.011   1.158   1.146   0.694   1.108   1.064
   0.752   1.317   0.930   0.680   0.806   0.987   0.851   0.713   0.877   0.610
   0.644   0.790
   0.944   0.992   0.645   0.745   0.801   0.980   0.788   0.962   1.020   0.831
   1.134   1.463   0.864   0.989   0.919   0.620   0.900   1.055   1.206   1.055
   0.900   0.620   0.919   0.989   0.864   1.463   1.134   0.831   1.020   0.962
   0.788   0.980   0.801   0.745   0.645   0.992   0.944   0.992   0.645   0.745
   0.801   0.980   0.788   0.962   1.020   0.831   1.134   1.463   0.864   0.989
   0.919   0.620   0.900   1.055   1.206   1.055   0.900   0.620   0.919   0.989
   0.864   1.463   1.134   0.831   1.020   0.962   0.788   0.980   0.801   0.745
   0.645   0.992
   0.677   0.729   0.784   0.544   0.707   0.885   0.623   0.644   0.870   0.692
   1.052   0.954   0.733   0.917   0.699   0.548   0.682   0.757   0.902   0.757
   0.682   0.548   0.699   0.917   0.733   0.954   1.052   0.692   0.870   0.644
   0.623   0.885   0.707   0.544   0.784   0.729   0.677   0.729   0.784   0.544
   0.707   0.885   0.623   0.644   0.870   0.692   1.052   0.954   0.733   0.917
   0.699   0.548   0.682   0.757   0.902   0.757   0.682   0.548   0.699   0.917
   0.733   0.954   1.052   0.692   0.870   0.644   0.623   0.885   0.707   0.544
   0.784   0.729
   0.409   0.763   0.874   0.303   0.606   0.636   0.576   0.568   0.444   0.541
   0.542   0.810   0.686   0.700   0.405   0.554   0.670   0.746   0.708   0.746
   0.670   0.554   0.405   0.700   0.686   0.810   0.542   0.541   0.444   0.568
   0.576   0.636   0.606   0.303   0.874   0.763   0.409   0.763   0.874   0.303
   0.606   0.636   0.576   0.568   0.444   0.541   0.542   0.810   0.686   0.700
   0.405   0.554   0.670   0.746   0.708   0.746   0.670   0.554   0.405   0.700
   0.686   0.810   0.542   0.541   0.444   0.568   0.576   0.636   0.606   0.303
   0.874   0.763
 200       5.00   72    0 5.00   15    0
   1.811   1.811   1.811   1.811   1.811   1.811   1.811   1.811   1.811   1.811
   1.811   1.811   1.811   1.811   1.811   1.811   1.811   1.811   1.811   1.811
   1.811   1.811   1.811   1.811   1.811   1.811   1.811   1.811   1.811   1.811
   1.811   1.811   1.811   1.811   1.811   1.811   1.811   1.811   1.811   1.811
   1.811   1.811   1.811   1.811   1.811   1.811   1.811   1.811   1.811   1.811
   1.811   1.811   1.811   1.811   1.811   1.811   1.811   1.811   1.811   1.811
   1.811   1.811   1.811   1.811   1.811   1.811   1.811   1.811   1.811   1.811
   1.811   1.811
   2.094   1.962   1.953   2.018   1.878   1.843   1.749   1.713   1.853   1.816
   2.020   1.900   2.034   1.873   1.881   1.589   1.613   1.659   1.434   1.659
   1.613   1.589   1.881   1.873   2.034   1.900   2.020   1.816   1.853   1.713
   1.749   1.843   1.878   2.018   1.953   1.962   2.094   1.962   1.953   2.018
   1.878   1.843   1.749   1.713   1.853   1.816   2.020   1.900   2.034   1.873
   1.881   1.589   1.613   1.659   1.434   1.659   1.613   1.589   1.881   1.873
   2.034   1.900   2.020   1.816   1.853   1.713   1.749   1.843   1.878   2.018
   1.953   1.962
   1.935   1.785   1.871   1.725   1.470   1.679   1.904   1.695   1.736   1.719
   1.794   1.795   1.941   1.792   1.615   1.480   1.564   1.505   1.312   1.505
   1.564   1.480   1.615   1.792   1.941   1.795   1.794   1.719   1.736   1.695
   1.904   1.679   1.470   1.725   1.871   1.785   1.935   1.785   1.871   1.725
   1.470   1.679   1.904   1.695   1.736   1.719   1.794   1.795   1.941   1.792
   1.615   1.480   1.564   1.505   1.312   1.505   1.564   1.480   1.615   1.792
   1.941   1.795   1.794   1.719   1.736   1.695   1.904   1.679   1.470   1.725
   1.871   1.785
   1.696   1.522   1.638   1.484   1.328   1.568   1.700   1.684   1.582   1.526
   1.626   1.712   1.745   1.624   1.486   1.329   1.521   1.414   1.402   1.414
   1.521   1.329   1.486   1.624   1.745   1.712   1.626   1.526   1.582   1.684
   1.700   1.568   1.328   1.484   1.638   1.522   1.696   1.522   1.638   1.484
   1.328   1.568   1.700   1.684   1.582   1.526   1.626   1.712   1.745   1.624
   1.486   1.329   1.521   1.414   1.402   1.414   1.521   1.329   1.486   1.624
   1.745   1.712   1.626   1.526   1.582   1.684   1.700   1.568   1.328   1.484
   1.638   1.522
   1.297   1.146   1.331   1.259   1.289   1.219   1.193   1.254   1.280   1.260
   1.483   1.417   1.374   1.416   1.331   1.270   1.510   1.288   1.476   1.288
   1.510   1.270   1.331   1.416   1.374   1.417   1.483   1.260   1.280   1.254
   1.193   1.219   1.289   1.259   1.331   1.146   1.297   1.146   1.331   1.259
   1.289   1.219   1.193   1.254   1.280   1.260   1.483   1.417   1.374   1.416
   1.331   1.270   1.510   1.288   1.476   1.288   1.510   1.270   1.331   1.416
   1.374   1.417   1.483   1.260   1.280   1.254   1.193   1.219   1.289   1.259
   1.331   1.146
   0.890   0.874   1.153   1.141   1.065   0.973   0.980   0.981   1.024   1.134
   1.308   1.179   1.180   1.287   1.187   1.251   1.401   1.232   1.411   1.232
   1.401   1.251   1.187   1.287   1.180   1.179   1.308   1.134   1.024   0.981
   0.980   0.973   1.065   1.141   1.153   0.874   0.890   0.874   1.153   1.141
   1.065   0.973   0.980   0.981   1.024   1.134   1.308   1.179   1.180   1.287
   1.187   1.251   1.401   1.232   1.411   1.232   1.401   1.251   1.187   1.287
   1.180   1.179   1.308   1.134   1.024   0.981   0.980   0.973   1.065   1.141
   1.153   0.874
   0.706   0.961   1.174   1.136   0.844   0.892   0.802   1.121   0.907   1.129
   1.175   1.185   1.267   1.184   1.088   1.277   1.253   1.215   1.167   1.215
   1.253   1.277   1.088   1.184   1.267   1.185   1.175   1.129   0.907   1.121
   0.802   0.892   0.844   1.136   1.174   0.961   0.706   0.961   1.174   1.136
   0.844   0.892   0.802   1.121   0.907   1.129   1.175   1.185   1.267   1.184
   1.088   1.277   1.253   1.215   1.167   1.215   1.253   1.277   1.088   1.184
   1.267   1.185   1.175   1.129   0.907   1.121   0.802   0.892   0.844   1.136
   1.174   0.961
   0.666   0.797   1.082   1.107   0.816   0.728   0.647   0.925   0.919   1.031
   0.916   1.053   1.129   0.953   0.968   1.231   1.221   1.097   1.077   1.097
   1.221   1.231   0.968   0.953   1.129   1.053   0.916   1.031   0.919   0.925
   0.647   0.728   0.816   1.107   1.082   0.797   0.666   0.797   1.082   1.107
   0.816   0.728   0.647   0.925   0.919   1.031   0.916   1.053   1.129   0.953
   0.968   1.231   1.221   1.097   1.077   1.097   1.221   1.231   0.968   0.953
   1.129   1.053   0.916   1.031   0.919   0.925   0.647   0.728   0.816   1.107
   1.082   0.797
   0.692   0.605   0.899   0.925   0.638   0.669   0.577   0.777   0.908   0.803
   0.860   0.813   0.872   0.796   0.838   0.863   1.050   1.001   0.871   1.001
   1.050   0.863   0.838   0.796   0.872   0.813   0.860   0.803   0.908   0.777
   0.577   0.669   0.638   0.925   0.899   0.605   0.692   0.605   0.899   0.925
   0.638   0.669   0.577   0.777   0.908   0.803   0.860   0.813   0.872   0.796
   0.838   0.863   1.050   1.001   0.871   1.001   1.050   0.863   0.838   0.796
   0.872   0.813   0.860   0.803   0.908   0.777   0.577   0.669   0.638   0.925
   0.899   0.605
   0.694   0.603   0.697   0.603   0.672   0.712   0.534   0.742   0.689   0.659
   0.876   0.649   0.769   0.812   0.765   0.793   0.808   0.972   0.669   0.972
   0.808   0.793   0.765   0.812   0.769   0.649   0.876   0.659   0.689   0.742
   0.534   0.712   0.672   0.603   0.697   0.603   0.694   0.603   0.697   0.603
   0.672   0.712   0.534   0.742   0.689   0.659   0.876   0.649   0.769   0.812
   0.765   0.793   0.808   0.972   0.669   0.972   0.808   0.793   0.765   0.812
   0.769   0.649   0.876   0.659   0.689   0.742   0.534   0.712   0.672   0.603
   0.697   0.603
   0.948   0.943   0.760   0.584   0.869   0.713   0.749   0.654   0.626   0.850
   0.767   0.687   0.783   0.838   1.022   0.895   0.686   0.897   0.828   0.897
   0.686   0.895   1.022   0.838   0.783   0.687   0.767   0.850   0.626   0.654
   0.749   0.713   0.869   0.584   0.760   0.943   0.948   0.943   0.760   0.584
   0.869   0.713   0.749   0.654   0.626   0.850   0.767   0.687   0.783   0.838
   1.022   0.895   0.686   0.897   0.828   0.897   0.686   0.895   1.022   0.838
   0.783   0.687   0.767   0.850   0.626   0.654   0.749   0.713   0.869   0.584
   0.760   0.943
   0.939   1.221   0.840   0.951   0.926   0.782   0.935   0.888   0.705   0.894
   0.752   0.917   0.875   0.740   0.972   0.817   0.707   0.751   0.776   0.751
   0.707   0.817   0.972   0.740   0.875   0.917   0.752   0.894   0.705   0.888
   0.935   0.782   0.926   0.951   0.840   1.221   0.939   1.221   0.840   0.951
   0.926   0.782   0.935   0.888   0.705   0.894   0.752   0.917   0.875   0.740
   0.972   0.817   0.707   0.751   0.776   0.751   0.707   0.817   0.972   0.740
   0.875   0.917   0.752   0.894   0.705   0.888   0.935   0.782   0.926   0.951
   0.840   1.221
   0.900   1.174   0.874   1.091   1.257   1.023   0.985   1.259   0.817   1.098
   0.806   0.962   0.866   0.902   0.944   1.079   0.862   0.890   0.680   0.890
   0.862   1.079   0.944   0.902   0.866   0.962   0.806   1.098   0.817   1.259
   0.985   1.023   1.257   1.091   0.874   1.174   0.900   1.174   0.874   1.091
   1.257   1.023   0.985   1.259   0.817   1.098   0.806   0.962   0.866   0.902
   0.944   1.079   0.862   0.890   0.680   0.890   0.862   1.079   0.944   0.902
   0.866   0.962   0.806   1.098   0.817   1.259   0.985   1.023   1.257   1.091
   0.874   1.174
   0.800   0.875   0.779   0.868   1.031   0.909   0.935   1.152   0.723   1.009
   0.789   0.864   0.525   0.883   0.787   1.274   0.773   0.888   0.852   0.888
   0.773   1.274   0.787   0.883   0.525   0.864   0.789   1.009   0.723   1.152
   0.935   0.909   1.031   0.868   0.779   0.875   0.800   0.875   0.779   0.868
   1.031   0.909   0.935   1.152   0.723   1.009   0.789   0.864   0.525   0.883
   0.787   1.274   0.773   0.888   0.852   0.888   0.773   1.274   0.787   0.883
   0.525   0.864   0.789   1.009   0.723   1.152   0.935   0.909   1.031   0.868
   0.779   0.875
   0.536   0.803   0.631   0.696   0.719   0.808   0.952   0.798   0.599   0.699
   0.426   0.789   0.348   0.705   0.750   0.824   0.515   0.676   0.842   0.676
   0.515   0.824   0.750   0.705   0.348   0.789   0.426   0.699   0.599   0.798
   0.952   0.808   0.719   0.696   0.631   0.803   0.536   0.803   0.631   0.696
   0.719   0.808   0.952   0.798   0.599   0.699   0.426   0.789   0.348   0.705
   0.750   0.824   0.515   0.676   0.842   0.676   0.515   0.824   0.750   0.705
   0.348   0.789   0.426   0.699   0.599   0.798   0.952   0.808   0.719   0.696
   0.631   0.803
 111       5.00   72    0 5.00   15    0
   1.470   1.470   1.470   1.470   1.470   1.470   1.470   1.470   1.470   1.470
   1.470   1.470   1.470   1.470   1.470   1.470   1.470   1.470   1.470   1.470
   1.470   1.470   1.470   1.470   1.470   1.470   1.470   1.470   1.470   1.470
   1.470   1.470   1.470   1.470   1.470   1.470   1.470   1.470   1.470   1.470
   1.470   1.470   1.470   1.470   1.470   1.470   1.470   1.470   1.470   1.470
   1.470   1.470   1.470   1.470   1.470   1.470   1.470   1.470   1.470   1.470
   1.470   1.470   1.470   1.470   1.470   1.470   1.470   1.470   1.470   1.470
   1.470   1.470
   1.168   1.140   1.321   1.357   1.432   1.391   1.309   1.399   1.460   1.454
   1.531   1.330   1.755   1.549   1.705   1.732   1.599   1.679   1.585   1.679
   1.599   1.732   1.705   1.549   1.755   1.330   1.531   1.454   1.460   1.399
   1.309   1.391   1.432   1.357   1.321   1.140   1.168   1.140   1.321   1.357
   1.432   1.391   1.309   1.399   1.460   1.454   1.531   1.330   1.755   1.549
   1.705   1.732   1.599   1.679   1.585   1.679   1.599   1.732   1.705   1.549
   1.755   1.330   1.531   1.454   1.460   1.399   1.309   1.391   1.432   1.357
   1.321   1.140
   0.920   0.967   1.082   1.192   1.252   1.338   1.166   1.340   1.291   1.297
   1.370   1.253   1.429   1.450   1.471   1.412   1.415   1.444   1.392   1.444
   1.415   1.412   1.471   1.450   1.429   1.253   1.370   1.297   1.291   1.340
   1.166   1.338   1.252   1.192   1.082   0.967   0.920   0.967   1.082   1.192
   1.252   1.338   1.166   1.340   1.291   1.297   1.370   1.253   1.429   1.450
   1.471   1.412   1.415   1.444   1.392   1.444   1.415   1.412   1.471   1.450
   1.429   1.253   1.370   1.297   1.291   1.340   1.166   1.338   1.252   1.192
   1.082   0.967
   0.839   0.885   1.006   0.926   0.981   1.150   1.045   1.160   0.935   1.159
   1.200   1.145   1.279   1.358   1.290   1.373   1.225   1.301   1.389   1.301
   1.225   1.373   1.290   1.358   1.279   1.145   1.200   1.159   0.935   1.160
   1.045   1.150   0.981   0.926   1.006   0.885   0.839   0.885   1.006   0.926
   0.981   1.150   1.045   1.160   0.935   1.159   1.200   1.145   1.279   1.358
   1.290   1.373   1.225   1.301   1.389   1.301   1.225   1.373   1.290   1.358
   1.279   1.145   1.200   1.159   0.935   1.160   1.045   1.150   0.981   0.926
   1.006   0.885
   0.812   0.750   0.905   0.805   0.856   1.061   1.070   1.011   0.722   0.981
   1.054   1.090   1.174   1.205   1.104   1.417   1.308   1.606   1.632   1.606
   1.308   1.417   1.104   1.205   1.174   1.090   1.054   0.981   0.722   1.011
   1.070   1.061   0.856   0.805   0.905   0.750   0.812   0.750   0.905   0.805
   0.856   1.061   1.070   1.011   0.722   0.981   1.054   1.090   1.174   1.205
   1.104   1.417   1.308   1.606   1.632   1.606   1.308   1.417   1.104   1.205
   1.174   1.090   1.054   0.981   0.722   1.011   1.070   1.061   0.856   0.805
   0.905   0.750
   0.983   0.830   0.816   0.949   0.843   1.027   0.963   0.867   0.772   1.066
   1.074   0.913   1.005   1.204   1.081   1.359   1.487   1.673   1.665   1.673
   1.487   1.359   1.081   1.204   1.005   0.913   1.074   1.066   0.772   0.867
   0.963   1.027   0.843   0.949   0.816   0.830   0.983   0.830   0.816   0.949
   0.843   1.027   0.963   0.867   0.772   1.066   1.074   0.913   1.005   1.204
   1.081   1.359   1.487   1.673   1.665   1.673   1.487   1.359   1.081   1.204
   1.005   0.913   1.074   1.066   0.772   0.867   0.963   1.027   0.843   0.949
   0.816   0.830
   0.916   0.881   0.768   0.975   0.839   0.901   0.825   0.803   0.850   1.056
   1.080   0.879   1.033   1.267   1.266   1.261   1.452   1.453   1.517   1.453
   1.452   1.261   1.266   1.267   1.033   0.879   1.080   1.056   0.850   0.803
   0.825   0.901   0.839   0.975   0.768   0.881   0.916   0.881   0.768   0.975
   0.839   0.901   0.825   0.803   0.850   1.056   1.080   0.879   1.033   1.267
   1.266   1.261   1.452   1.453   1.517   1.453   1.452   1.261   1.266   1.267
   1.033   0.879   1.080   1.056   0.850   0.803   0.825   0.901   0.839   0.975
   0.768   0.881
   0.756   0.902   0.987   1.011   1.008   0.840   0.815   0.798   0.922   0.973
   0.869   1.031   1.199   1.147   1.230   1.187   1.288   1.409   1.228   1.409
   1.288   1.187   1.230   1.147   1.199   1.031   0.869   0.973   0.922   0.798
   0.815   0.840   1.008   1.011   0.987   0.902   0.756   0.902   0.987   1.011
   1.008   0.840   0.815   0.798   0.922   0.973   0.869   1.031   1.199   1.147
   1.230   1.187   1.288   1.409   1.228   1.409   1.288   1.187   1.230   1.147
   1.199   1.031   0.869   0.973   0.922   0.798   0.815   0.840   1.008   1.011
   0.987   0.902
   0.968   1.021   1.185   1.274   0.989   0.973   0.851   0.944   1.139   0.984
   0.855   1.044   1.196   1.001   0.913   1.042   1.281   1.401   1.262   1.401
   1.281   1.042   0.913   1.001   1.196   1.044   0.855   0.984   1.139   0.944
   0.851   0.973   0.989   1.274   1.185   1.021   0.968   1.021   1.185   1.274
   0.989   0.973   0.851   0.944   1.139   0.984   0.855   1.044   1.196   1.001
   0.913   1.042   1.281   1.401   1.262   1.401   1.281   1.042   0.913   1.001
   1.196   1.044   0.855   0.984   1.139   0.944   0.851   0.973   0.989   1.274
   1.185   1.021
   1.142   1.107   1.378   1.447   0.973   1.020   0.859   1.108   1.195   1.017
   1.098   0.981   0.929   0.981   0.896   1.105   1.528   1.201   1.259   1.201
   1.528   1.105   0.896   0.981   0.929   0.981   1.098   1.017   1.195   1.108
   0.859   1.020   0.973   1.447   1.378   1.107   1.142   1.107   1.378   1.447
   0.973   1.020   0.859   1.108   1.195   1.017   1.098   0.981   0.929   0.981
   0.896   1.105   1.528   1.201   1.259   1.201   1.528   1.105   0.896   0.981
   0.929   0.981   1.098   1.017   1.195   1.108   0.859   1.020   0.973   1.447
   1.378   1.107
   1.102   1.180   1.638   1.441   1.077   1.000   0.918   1.036   1.073   1.102
   1.162   1.039   0.946   0.929   0.962   1.095   1.431   1.150   1.001   1.150
   1.431   1.095   0.962   0.929   0.946   1.039   1.162   1.102   1.073   1.036
   0.918   1.000   1.077   1.441   1.638   1.180   1.102   1.180   1.638   1.441
   1.077   1.000   0.918   1.036   1.073   1.102   1.162   1.039   0.946   0.929
   0.962   1.095   1.431   1.150   1.001   1.150   1.431   1.095   0.962   0.929
   0.946   1.039   1.162   1.102   1.073   1.036   0.918   1.000   1.077   1.441
   1.638   1.180
   1.145   1.448   1.717   1.491   1.238   1.102   0.937   1.068   0.999   1.059
   0.933   1.137   1.026   0.884   0.975   1.033   0.992   1.304   0.991   1.304
   0.992   1.033   0.975   0.884   1.026   1.137   0.933   1.059   0.999   1.068
   0.937   1.102   1.238   1.491   1.717   1.448   1.145   1.448   1.717   1.491
   1.238   1.102   0.937   1.068   0.999   1.059   0.933   1.137   1.026   0.884
   0.975   1.033   0.992   1.304   0.991   1.304   0.992   1.033   0.975   0.884
   1.026   1.137   0.933   1.059   0.999   1.068   0.937   1.102   1.238   1.491
   1.717   1.448
   1.593   1.569   1.688   1.456   1.378   1.183   0.990   1.108   1.167   1.018
   0.854   1.094   1.080   0.877   0.885   1.131   1.019   1.314   1.034   1.314
   1.019   1.131   0.885   0.877   1.080   1.094   0.854   1.018   1.167   1.108
   0.990   1.183   1.378   1.456   1.688   1.569   1.593   1.569   1.688   1.456
   1.378   1.183   0.990   1.108   1.167   1.018   0.854   1.094   1.080   0.877
   0.885   1.131   1.019   1.314   1.034   1.314   1.019   1.131   0.885   0.877
   1.080   1.094   0.854   1.018   1.167   1.108   0.990   1.183   1.378   1.456
   1.688   1.569
   1.581   1.328   1.631   1.304   1.267   1.145   0.980   1.077   1.312   0.973
   0.815   0.915   0.912   0.923   0.819   1.163   1.175   1.212   1.024   1.212
   1.175   1.163   0.819   0.923   0.912   0.915   0.815   0.973   1.312   1.077
   0.980   1.145   1.267   1.304   1.631   1.328   1.581   1.328   1.631   1.304
   1.267   1.145   0.980   1.077   1.312   0.973   0.815   0.915   0.912   0.923
   0.819   1.163   1.175   1.212   1.024   1.212   1.175   1.163   0.819   0.923
   0.912   0.915   0.815   0.973   1.312   1.077   0.980   1.145   1.267   1.304
   1.631   1.328
   1.131   0.923   1.049   1.088   1.008   0.928   0.813   1.247   0.986   0.797
   0.555   0.673   0.606   0.775   0.806   0.879   1.011   0.993   0.962   0.993
   1.011   0.879   0.806   0.775   0.606   0.673   0.555   0.797   0.986   1.247
   0.813   0.928   1.008   1.088   1.049   0.923   1.131   0.923   1.049   1.088
   1.008   0.928   0.813   1.247   0.986   0.797   0.555   0.673   0.606   0.775
   0.806   0.879   1.011   0.993   0.962   0.993   1.011   0.879   0.806   0.775
   0.606   0.673   0.555   0.797   0.986   1.247   0.813   0.928   1.008   1.088
   1.049   0.923
  4  1      6.5350990E-01
  4  2     -4.5386122E-02
  4  3     -1.5784509E-01
  6  1     -6.3046571E-01
  6  2      6.0436535E-01
  6  3     -3.2611941E-01
  6  4      1.6855949E-01
  8  1      2.2474735E-01
  8  2      1.4584856E-01
  8  3     -2.1057853E-02
  8  4      4.3566952E-03
  8  5      1.2503569E-01
 10  1      1.6576268E-01
 10  2     -8.6175981E-02
 10  3      9.2754060E-02
 10  4     -6.6749178E-02
 10  5      2.0248597E-01
 10  6      1.8770251E-01
 12  1      2.8697471E-01  4.4452317E-01
 12  2      7.2848571E-02 -4.2270148E-02
 12  3     -7.0005495E-02  1.0364891E-01
 12  4      7.0711570E-03 -2.3566265E-01
 12  5      1.1214267E-01  1.1387945E-01
 12  6      2.7318244E-01 -1.6122757E-01
 12  7      2.1412314E-01  3.4451270E-01
 14  1      2.6130438E-01
 14  2     -4.6584980E-02
 14  3      1.0602583E-01
 14  4     -1.0417731E-01
 14  5      2.2579920E-02
 14  6      1.6325207E-01
 14  7      3.6390344E-01
 14  8      1.5934876E-01
 220       5.00   72    0 5.00   18    0
   0.812   0.812   0.811   0.811   0.811   0.811   0.810   0.810   0.809   0.809
   0.808   0.808   0.807   0.807   0.806   0.806   0.806   0.806   0.806   0.806
   0.806   0.806   0.806   0.807   0.807   0.808   0.808   0.809   0.809   0.810
   0.810   0.811   0.811   0.811   0.811   0.812   0.812   0.812   0.811   0.811
   0.811   0.811   0.810   0.810   0.809   0.809   0.808   0.808   0.807   0.807
   0.806   0.806   0.806   0.806   0.806   0.806   0.806   0.806   0.806   0.807
   0.807   0.808   0.808   0.809   0.809   0.810   0.810   0.811   0.811   0.811
   0.811   0.812
   0.765   0.764   0.763   0.760   0.756   0.752   0.747   0.741   0.736   0.731
   0.726   0.721   0.718   0.714   0.712   0.710   0.708   0.707   0.707   0.707
   0.708   0.710   0.712   0.714   0.718   0.721   0.726   0.731   0.736   0.741
   0.747   0.752   0.756   0.760   0.763   0.764   0.765   0.764   0.763   0.760
   0.756   0.752   0.747   0.741   0.736   0.731   0.726   0.721   0.718   0.714
   0.712   0.710   0.708   0.707   0.707   0.707   0.708   0.710   0.712   0.714
   0.718   0.721   0.726   0.731   0.736   0.741   0.747   0.752   0.756   0.760
   0.763   0.764
   0.786   0.783   0.777   0.768   0.755   0.739   0.722   0.704   0.686   0.669
   0.653   0.640   0.630   0.622   0.617   0.613   0.611   0.610   0.610   0.610
   0.611   0.613   0.617   0.622   0.630   0.640   0.653   0.669   0.686   0.704
   0.722   0.739   0.755   0.768   0.777   0.783   0.786   0.783   0.777   0.768
   0.755   0.739   0.722   0.704   0.686   0.669   0.653   0.640   0.630   0.622
   0.617   0.613   0.611   0.610   0.610   0.610   0.611   0.613   0.617   0.622
   0.630   0.640   0.653   0.669   0.686   0.704   0.722   0.739   0.755   0.768
   0.777   0.783
   0.955   0.952   0.941   0.923   0.898   0.867   0.832   0.794   0.755   0.717
   0.684   0.657   0.636   0.623   0.616   0.614   0.614   0.615   0.616   0.615
   0.614   0.614   0.616   0.623   0.636   0.657   0.684   0.717   0.755   0.794
   0.832   0.867   0.898   0.923   0.941   0.952   0.955   0.952   0.941   0.923
   0.898   0.867   0.832   0.794   0.755   0.717   0.684   0.657   0.636   0.623
   0.616   0.614   0.614   0.615   0.616   0.615   0.614   0.614   0.616   0.623
   0.636   0.657   0.684   0.717   0.755   0.794   0.832   0.867   0.898   0.923
   0.941   0.952
   1.205   1.202   1.192   1.175   1.148   1.111   1.063   1.007   0.946   0.885
   0.828   0.781   0.746   0.725   0.717   0.717   0.722   0.728   0.730   0.728
   0.722   0.717   0.717   0.725   0.746   0.781   0.828   0.885   0.946   1.007
   1.063   1.111   1.148   1.175   1.192   1.202   1.205   1.202   1.192   1.175
   1.148   1.111   1.063   1.007   0.946   0.885   0.828   0.781   0.746   0.725
   0.717   0.717   0.722   0.728   0.730   0.728   0.722   0.717   0.717   0.725
   0.746   0.781   0.828   0.885   0.946   1.007   1.063   1.111   1.148   1.175
   1.192   1.202
   1.367   1.368   1.370   1.368   1.359   1.336   1.297   1.240   1.169   1.090
   1.012   0.943   0.892   0.860   0.847   0.849   0.859   0.868   0.872   0.868
   0.859   0.849   0.847   0.860   0.892   0.943   1.012   1.090   1.169   1.240
   1.297   1.336   1.359   1.368   1.370   1.368   1.367   1.368   1.370   1.368
   1.359   1.336   1.297   1.240   1.169   1.090   1.012   0.943   0.892   0.860
   0.847   0.849   0.859   0.868   0.872   0.868   0.859   0.849   0.847   0.860
   0.892   0.943   1.012   1.090   1.169   1.240   1.297   1.336   1.359   1.368
   1.370   1.368
   1.338   1.345   1.363   1.387   1.409   1.419   1.409   1.374   1.314   1.236
   1.150   1.070   1.005   0.962   0.941   0.939   0.948   0.959   0.963   0.959
   0.948   0.939   0.941   0.962   1.005   1.070   1.150   1.236   1.314   1.374
   1.409   1.419   1.409   1.387   1.363   1.345   1.338   1.345   1.363   1.387
   1.409   1.419   1.409   1.374   1.314   1.236   1.150   1.070   1.005   0.962
   0.941   0.939   0.948   0.959   0.963   0.959   0.948   0.939   0.941   0.962
   1.005   1.070   1.150   1.236   1.314   1.374   1.409   1.419   1.409   1.387
   1.363   1.345
   1.173   1.182   1.209   1.250   1.298   1.341   1.367   1.367   1.337   1.284
   1.216   1.143   1.077   1.025   0.993   0.981   0.982   0.989   0.992   0.989
   0.982   0.981   0.993   1.025   1.077   1.143   1.216   1.284   1.337   1.367
   1.367   1.341   1.298   1.250   1.209   1.182   1.173   1.182   1.209   1.250
   1.298   1.341   1.367   1.367   1.337   1.284   1.216   1.143   1.077   1.025
   0.993   0.981   0.982   0.989   0.992   0.989   0.982   0.981   0.993   1.025
   1.077   1.143   1.216   1.284   1.337   1.367   1.367   1.341   1.298   1.250
   1.209   1.182
   1.009   1.015   1.034   1.070   1.121   1.178   1.228   1.259   1.268   1.257
   1.229   1.188   1.136   1.081   1.035   1.007   0.998   1.001   1.003   1.001
   0.998   1.007   1.035   1.081   1.136   1.188   1.229   1.257   1.268   1.259
   1.228   1.178   1.121   1.070   1.034   1.015   1.009   1.015   1.034   1.070
   1.121   1.178   1.228   1.259   1.268   1.257   1.229   1.188   1.136   1.081
   1.035   1.007   0.998   1.001   1.003   1.001   0.998   1.007   1.035   1.081
   1.136   1.188   1.229   1.257   1.268   1.259   1.228   1.178   1.121   1.070
   1.034   1.015
   0.925   0.923   0.923   0.938   0.974   1.024   1.075   1.118   1.156   1.190
   1.217   1.222   1.194   1.138   1.075   1.032   1.019   1.025   1.030   1.025
   1.019   1.032   1.075   1.138   1.194   1.222   1.217   1.190   1.156   1.118
   1.075   1.024   0.974   0.938   0.923   0.923   0.925   0.923   0.923   0.938
   0.974   1.024   1.075   1.118   1.156   1.190   1.217   1.222   1.194   1.138
   1.075   1.032   1.019   1.025   1.030   1.025   1.019   1.032   1.075   1.138
   1.194   1.222   1.217   1.190   1.156   1.118   1.075   1.024   0.974   0.938
   0.923   0.923
   0.888   0.879   0.863   0.861   0.883   0.920   0.955   0.988   1.033   1.102
   1.182   1.234   1.227   1.162   1.079   1.027   1.026   1.053   1.069   1.053
   1.026   1.027   1.079   1.162   1.227   1.234   1.182   1.102   1.033   0.988
   0.955   0.920   0.883   0.861   0.863   0.879   0.888   0.879   0.863   0.861
   0.883   0.920   0.955   0.988   1.033   1.102   1.182   1.234   1.227   1.162
   1.079   1.027   1.026   1.053   1.069   1.053   1.026   1.027   1.079   1.162
   1.227   1.234   1.182   1.102   1.033   0.988   0.955   0.920   0.883   0.861
   0.863   0.879
   0.834   0.823   0.804   0.805   0.832   0.865   0.879   0.884   0.915   1.000
   1.118   1.206   1.207   1.123   1.017   0.967   0.996   1.062   1.095   1.062
   0.996   0.967   1.017   1.123   1.207   1.206   1.118   1.000   0.915   0.884
   0.879   0.865   0.832   0.805   0.804   0.823   0.834   0.823   0.804   0.805
   0.832   0.865   0.879   0.884   0.915   1.000   1.118   1.206   1.207   1.123
   1.017   0.967   0.996   1.062   1.095   1.062   0.996   0.967   1.017   1.123
   1.207   1.206   1.118   1.000   0.915   0.884   0.879   0.865   0.832   0.805
   0.804   0.823
   0.769   0.758   0.746   0.762   0.809   0.848   0.845   0.816   0.821   0.904
   1.040   1.145   1.141   1.035   0.913   0.872   0.939   1.049   1.101   1.049
   0.939   0.872   0.913   1.035   1.141   1.145   1.040   0.904   0.821   0.816
   0.845   0.848   0.809   0.762   0.746   0.758   0.769   0.758   0.746   0.762
   0.809   0.848   0.845   0.816   0.821   0.904   1.040   1.145   1.141   1.035
   0.913   0.872   0.939   1.049   1.101   1.049   0.939   0.872   0.913   1.035
   1.141   1.145   1.040   0.904   0.821   0.816   0.845   0.848   0.809   0.762
   0.746   0.758
   0.773   0.759   0.742   0.763   0.821   0.867   0.854   0.799   0.777   0.845
   0.978   1.081   1.070   0.954   0.832   0.806   0.899   1.031   1.093   1.031
   0.899   0.806   0.832   0.954   1.070   1.081   0.978   0.845   0.777   0.799
   0.854   0.867   0.821   0.763   0.742   0.759   0.773   0.759   0.742   0.763
   0.821   0.867   0.854   0.799   0.777   0.845   0.978   1.081   1.070   0.954
   0.832   0.806   0.899   1.031   1.093   1.031   0.899   0.806   0.832   0.954
   1.070   1.081   0.978   0.845   0.777   0.799   0.854   0.867   0.821   0.763
   0.742   0.759
   0.913   0.887   0.840   0.832   0.875   0.918   0.903   0.840   0.800   0.845
   0.953   1.037   1.024   0.927   0.831   0.821   0.907   1.021   1.073   1.021
   0.907   0.821   0.831   0.927   1.024   1.037   0.953   0.845   0.800   0.840
   0.903   0.918   0.875   0.832   0.840   0.887   0.913   0.887   0.840   0.832
   0.875   0.918   0.903   0.840   0.800   0.845   0.953   1.037   1.024   0.927
   0.831   0.821   0.907   1.021   1.073   1.021   0.907   0.821   0.831   0.927
   1.024   1.037   0.953   0.845   0.800   0.840   0.903   0.918   0.875   0.832
   0.840   0.887
   1.169   1.121   1.020   0.952   0.953   0.980   0.971   0.918   0.875   0.892
   0.958   1.013   1.009   0.957   0.911   0.911   0.956   1.011   1.034   1.011
   0.956   0.911   0.911   0.957   1.009   1.013   0.958   0.892   0.875   0.918
   0.971   0.980   0.953   0.952   1.020   1.121   1.169   1.121   1.020   0.952
   0.953   0.980   0.971   0.918   0.875   0.892   0.958   1.013   1.009   0.957
   0.911   0.911   0.956   1.011   1.034   1.011   0.956   0.911   0.911   0.957
   1.009   1.013   0.958   0.892   0.875   0.918   0.971   0.980   0.953   0.952
   1.020   1.121
   1.440   1.368   1.209   1.072   1.022   1.031   1.033   1.000   0.961   0.952
   0.974   0.999   1.008   1.011   1.019   1.025   1.015   0.993   0.981   0.993
   1.015   1.025   1.019   1.011   1.008   0.999   0.974   0.952   0.961   1.000
   1.033   1.031   1.022   1.072   1.209   1.368   1.440   1.368   1.209   1.072
   1.022   1.031   1.033   1.000   0.961   0.952   0.974   0.999   1.008   1.011
   1.019   1.025   1.015   0.993   0.981   0.993   1.015   1.025   1.019   1.011
   1.008   0.999   0.974   0.952   0.961   1.000   1.033   1.031   1.022   1.072
   1.209   1.368
   1.610   1.524   1.326   1.144   1.059   1.056   1.067   1.050   1.016   0.992
   0.985   0.990   1.009   1.049   1.093   1.101   1.051   0.977   0.941   0.977
   1.051   1.101   1.093   1.049   1.009   0.990   0.985   0.992   1.016   1.050
   1.067   1.056   1.059   1.144   1.326   1.524   1.610   1.524   1.326   1.144
   1.059   1.056   1.067   1.050   1.016   0.992   0.985   0.990   1.009   1.049
   1.093   1.101   1.051   0.977   0.941   0.977   1.051   1.101   1.093   1.049
   1.009   0.990   0.985   0.992   1.016   1.050   1.067   1.056   1.059   1.144
   1.326   1.524
 200       5.00   72    0 5.00   18    0
   1.975   1.975   1.974   1.974   1.974   1.973   1.973   1.972   1.971   1.971
   1.970   1.969   1.969   1.968   1.968   1.967   1.967   1.967   1.967   1.967
   1.967   1.967   1.968   1.968   1.969   1.969   1.970   1.971   1.971   1.972
   1.973   1.973   1.974   1.974   1.974   1.975   1.975   1.975   1.974   1.974
   1.974   1.973   1.973   1.972   1.971   1.971   1.970   1.969   1.969   1.968
   1.968   1.967   1.967   1.967   1.967   1.967   1.967   1.967   1.968   1.968
   1.969   1.969   1.970   1.971   1.971   1.972   1.973   1.973   1.974   1.974
   1.974   1.975
   1.836   1.836   1.835   1.834   1.832   1.830   1.827   1.823   1.819   1.814
   1.810   1.805   1.800   1.795   1.791   1.787   1.784   1.783   1.782   1.783
   1.784   1.787   1.791   1.795   1.800   1.805   1.810   1.814   1.819   1.823
   1.827   1.830   1.832   1.834   1.835   1.836   1.836   1.836   1.835   1.834
   1.832   1.830   1.827   1.823   1.819   1.814   1.810   1.805   1.800   1.795
   1.791   1.787   1.784   1.783   1.782   1.783   1.784   1.787   1.791   1.795
   1.800   1.805   1.810   1.814   1.819   1.823   1.827   1.830   1.832   1.834
   1.835   1.836
   1.573   1.573   1.573   1.574   1.575   1.575   1.574   1.572   1.568   1.563
   1.555   1.546   1.536   1.526   1.515   1.506   1.499   1.495   1.493   1.495
   1.499   1.506   1.515   1.526   1.536   1.546   1.555   1.563   1.568   1.572
   1.574   1.575   1.575   1.574   1.573   1.573   1.573   1.573   1.573   1.574
   1.575   1.575   1.574   1.572   1.568   1.563   1.555   1.546   1.536   1.526
   1.515   1.506   1.499   1.495   1.493   1.495   1.499   1.506   1.515   1.526
   1.536   1.546   1.555   1.563   1.568   1.572   1.574   1.575   1.575   1.574
   1.573   1.573
   1.245   1.247   1.252   1.259   1.269   1.279   1.290   1.298   1.304   1.306
   1.304   1.298   1.287   1.274   1.259   1.246   1.234   1.227   1.224   1.227
   1.234   1.246   1.259   1.274   1.287   1.298   1.304   1.306   1.304   1.298
   1.290   1.279   1.269   1.259   1.252   1.247   1.245   1.247   1.252   1.259
   1.269   1.279   1.290   1.298   1.304   1.306   1.304   1.298   1.287   1.274
   1.259   1.246   1.234   1.227   1.224   1.227   1.234   1.246   1.259   1.274
   1.287   1.298   1.304   1.306   1.304   1.298   1.290   1.279   1.269   1.259
   1.252   1.247
   0.960   0.963   0.972   0.986   1.004   1.026   1.050   1.075   1.097   1.114
   1.125   1.129   1.127   1.118   1.107   1.094   1.083   1.076   1.073   1.076
   1.083   1.094   1.107   1.118   1.127   1.129   1.125   1.114   1.097   1.075
   1.050   1.026   1.004   0.986   0.972   0.963   0.960   0.963   0.972   0.986
   1.004   1.026   1.050   1.075   1.097   1.114   1.125   1.129   1.127   1.118
   1.107   1.094   1.083   1.076   1.073   1.076   1.083   1.094   1.107   1.118
   1.127   1.129   1.125   1.114   1.097   1.075   1.050   1.026   1.004   0.986
   0.972   0.963
   0.796   0.799   0.806   0.820   0.839   0.864   0.894   0.928   0.962   0.994
   1.020   1.038   1.049   1.054   1.054   1.052   1.051   1.049   1.049   1.049
   1.051   1.052   1.054   1.054   1.049   1.038   1.020   0.994   0.962   0.928
   0.894   0.864   0.839   0.820   0.806   0.799   0.796   0.799   0.806   0.820
   0.839   0.864   0.894   0.928   0.962   0.994   1.020   1.038   1.049   1.054
   1.054   1.052   1.051   1.049   1.049   1.049   1.051   1.052   1.054   1.054
   1.049   1.038   1.020   0.994   0.962   0.928   0.894   0.864   0.839   0.820
   0.806   0.799
   0.738   0.739   0.742   0.749   0.759   0.776   0.800   0.833   0.869   0.905
   0.938   0.964   0.985   1.003   1.021   1.039   1.055   1.066   1.070   1.066
   1.055   1.039   1.021   1.003   0.985   0.964   0.938   0.905   0.869   0.833
   0.800   0.776   0.759   0.749   0.742   0.739   0.738   0.739   0.742   0.749
   0.759   0.776   0.800   0.833   0.869   0.905   0.938   0.964   0.985   1.003
   1.021   1.039   1.055   1.066   1.070   1.066   1.055   1.039   1.021   1.003
   0.985   0.964   0.938   0.905   0.869   0.833   0.800   0.776   0.759   0.749
   0.742   0.739
   0.716   0.716   0.716   0.714   0.713   0.716   0.728   0.752   0.784   0.815
   0.841   0.861   0.881   0.905   0.937   0.974   1.009   1.035   1.044   1.035
   1.009   0.974   0.937   0.905   0.881   0.861   0.841   0.815   0.784   0.752
   0.728   0.716   0.713   0.714   0.716   0.716   0.716   0.716   0.716   0.714
   0.713   0.716   0.728   0.752   0.784   0.815   0.841   0.861   0.881   0.905
   0.937   0.974   1.009   1.035   1.044   1.035   1.009   0.974   0.937   0.905
   0.881   0.861   0.841   0.815   0.784   0.752   0.728   0.716   0.713   0.714
   0.716   0.716
   0.703   0.704   0.704   0.697   0.685   0.674   0.675   0.693   0.720   0.744
   0.755   0.758   0.762   0.781   0.818   0.865   0.910   0.941   0.953   0.941
   0.910   0.865   0.818   0.781   0.762   0.758   0.755   0.744   0.720   0.693
   0.675   0.674   0.685   0.697   0.704   0.704   0.703   0.704   0.704   0.697
   0.685   0.674   0.675   0.693   0.720   0.744   0.755   0.758   0.762   0.781
   0.818   0.865   0.910   0.941   0.953   0.941   0.910   0.865   0.818   0.781
   0.762   0.758   0.755   0.744   0.720   0.693   0.675   0.674   0.685   0.697
   0.704   0.704
   0.749   0.752   0.754   0.743   0.718   0.692   0.684   0.701   0.729   0.747
   0.741   0.722   0.711   0.722   0.757   0.799   0.832   0.851   0.857   0.851
   0.832   0.799   0.757   0.722   0.711   0.722   0.741   0.747   0.729   0.701
   0.684   0.692   0.718   0.743   0.754   0.752   0.749   0.752   0.754   0.743
   0.718   0.692   0.684   0.701   0.729   0.747   0.741   0.722   0.711   0.722
   0.757   0.799   0.832   0.851   0.857   0.851   0.832   0.799   0.757   0.722
   0.711   0.722   0.741   0.747   0.729   0.701   0.684   0.692   0.718   0.743
   0.754   0.752
   0.892   0.897   0.902   0.885   0.845   0.803   0.787   0.805   0.834   0.842
   0.818   0.781   0.764   0.781   0.816   0.842   0.841   0.824   0.815   0.824
   0.841   0.842   0.816   0.781   0.764   0.781   0.818   0.842   0.834   0.805
   0.787   0.803   0.845   0.885   0.902   0.897   0.892   0.897   0.902   0.885
   0.845   0.803   0.787   0.805   0.834   0.842   0.818   0.781   0.764   0.781
   0.816   0.842   0.841   0.824   0.815   0.824   0.841   0.842   0.816   0.781
   0.764   0.781   0.818   0.842   0.834   0.805   0.787   0.803   0.845   0.885
   0.902   0.897
   1.063   1.071   1.080   1.063   1.015   0.965   0.947   0.964   0.983   0.969
   0.919   0.870   0.864   0.902   0.948   0.953   0.907   0.843   0.814   0.843
   0.907   0.953   0.948   0.902   0.864   0.870   0.919   0.969   0.983   0.964
   0.947   0.965   1.015   1.063   1.080   1.071   1.063   1.071   1.080   1.063
   1.015   0.965   0.947   0.964   0.983   0.969   0.919   0.870   0.864   0.902
   0.948   0.953   0.907   0.843   0.814   0.843   0.907   0.953   0.948   0.902
   0.864   0.870   0.919   0.969   0.983   0.964   0.947   0.965   1.015   1.063
   1.080   1.071
   1.127   1.138   1.156   1.151   1.117   1.084   1.078   1.093   1.089   1.037
   0.956   0.902   0.913   0.976   1.029   1.017   0.937   0.843   0.802   0.843
   0.937   1.017   1.029   0.976   0.913   0.902   0.956   1.037   1.089   1.093
   1.078   1.084   1.117   1.151   1.156   1.138   1.127   1.138   1.156   1.151
   1.117   1.084   1.078   1.093   1.089   1.037   0.956   0.902   0.913   0.976
   1.029   1.017   0.937   0.843   0.802   0.843   0.937   1.017   1.029   0.976
   0.913   0.902   0.956   1.037   1.089   1.093   1.078   1.084   1.117   1.151
   1.156   1.138
   1.030   1.043   1.069   1.085   1.089   1.101   1.128   1.144   1.110   1.021
   0.921   0.872   0.896   0.957   0.993   0.966   0.891   0.814   0.782   0.814
   0.891   0.966   0.993   0.957   0.896   0.872   0.921   1.021   1.110   1.144
   1.128   1.101   1.089   1.085   1.069   1.043   1.030   1.043   1.069   1.085
   1.089   1.101   1.128   1.144   1.110   1.021   0.921   0.872   0.896   0.957
   0.993   0.966   0.891   0.814   0.782   0.814   0.891   0.966   0.993   0.957
   0.896   0.872   0.921   1.021   1.110   1.144   1.128   1.101   1.089   1.085
   1.069   1.043
   0.885   0.893   0.912   0.942   0.990   1.060   1.129   1.149   1.095   0.995
   0.913   0.891   0.912   0.923   0.896   0.854   0.833   0.840   0.848   0.840
   0.833   0.854   0.896   0.923   0.912   0.891   0.913   0.995   1.095   1.149
   1.129   1.060   0.990   0.942   0.912   0.893   0.885   0.893   0.912   0.942
   0.990   1.060   1.129   1.149   1.095   0.995   0.913   0.891   0.912   0.923
   0.896   0.854   0.833   0.840   0.848   0.840   0.833   0.854   0.896   0.923
   0.912   0.891   0.913   0.995   1.095   1.149   1.129   1.060   0.990   0.942
   0.912   0.893
   0.863   0.855   0.845   0.864   0.937   1.053   1.155   1.181   1.125   1.053
   1.034   1.066   1.070   0.986   0.855   0.793   0.867   1.011   1.084   1.011
   0.867   0.793   0.855   0.986   1.070   1.066   1.034   1.053   1.125   1.181
   1.155   1.053   0.937   0.864   0.845   0.855   0.863   0.855   0.845   0.864
   0.937   1.053   1.155   1.181   1.125   1.053   1.034   1.066   1.070   0.986
   0.855   0.793   0.867   1.011   1.084   1.011   0.867   0.793   0.855   0.986
   1.070   1.066   1.034   1.053   1.125   1.181   1.155   1.053   0.937   0.864
   0.845   0.855
   1.001   0.973   0.920   0.906   0.978   1.114   1.232   1.260   1.217   1.197
   1.264   1.360   1.344   1.155   0.910   0.827   1.002   1.292   1.432   1.292
   1.002   0.827   0.910   1.155   1.344   1.360   1.264   1.197   1.217   1.260
   1.232   1.114   0.978   0.906   0.920   0.973   1.001   0.973   0.920   0.906
   0.978   1.114   1.232   1.260   1.217   1.197   1.264   1.360   1.344   1.155
   0.910   0.827   1.002   1.292   1.432   1.292   1.002   0.827   0.910   1.155
   1.344   1.360   1.264   1.197   1.217   1.260   1.232   1.114   0.978   0.906
   0.920   0.973
   1.153   1.111   1.025   0.983   1.045   1.184   1.305   1.334   1.303   1.324
   1.453   1.593   1.564   1.305   0.987   0.890   1.130   1.513   1.697   1.513
   1.130   0.890   0.987   1.305   1.564   1.593   1.453   1.324   1.303   1.334
   1.305   1.184   1.045   0.983   1.025   1.111   1.153   1.111   1.025   0.983
   1.045   1.184   1.305   1.334   1.303   1.324   1.453   1.593   1.564   1.305
   0.987   0.890   1.130   1.513   1.697   1.513   1.130   0.890   0.987   1.305
   1.564   1.593   1.453   1.324   1.303   1.334   1.305   1.184   1.045   0.983
   1.025   1.111
 111       5.00   72    0 5.00   18    0
   1.236   1.236   1.237   1.237   1.238   1.238   1.239   1.240   1.241   1.242
   1.243   1.244   1.245   1.246   1.247   1.248   1.248   1.248   1.248   1.248
   1.248   1.248   1.247   1.246   1.245   1.244   1.243   1.242   1.241   1.240
   1.239   1.238   1.238   1.237   1.237   1.236   1.236   1.236   1.237   1.237
   1.238   1.238   1.239   1.240   1.241   1.242   1.243   1.244   1.245   1.246
   1.247   1.248   1.248   1.248   1.248   1.248   1.248   1.248   1.247   1.246
   1.245   1.244   1.243   1.242   1.241   1.240   1.239   1.238   1.238   1.237
   1.237   1.236
   1.102   1.103   1.105   1.109   1.114   1.120   1.128   1.136   1.144   1.153
   1.162   1.171   1.179   1.187   1.193   1.198   1.202   1.205   1.205   1.205
   1.202   1.198   1.193   1.187   1.179   1.171   1.162   1.153   1.144   1.136
   1.128   1.120   1.114   1.109   1.105   1.103   1.102   1.103   1.105   1.109
   1.114   1.120   1.128   1.136   1.144   1.153   1.162   1.171   1.179   1.187
   1.193   1.198   1.202   1.205   1.205   1.205   1.202   1.198   1.193   1.187
   1.179   1.171   1.162   1.153   1.144   1.136   1.128   1.120   1.114   1.109
   1.105   1.103
   0.873   0.875   0.880   0.889   0.901   0.916   0.933   0.953   0.974   0.996
   1.018   1.040   1.061   1.080   1.096   1.110   1.120   1.126   1.128   1.126
   1.120   1.110   1.096   1.080   1.061   1.040   1.018   0.996   0.974   0.953
   0.933   0.916   0.901   0.889   0.880   0.875   0.873   0.875   0.880   0.889
   0.901   0.916   0.933   0.953   0.974   0.996   1.018   1.040   1.061   1.080
   1.096   1.110   1.120   1.126   1.128   1.126   1.120   1.110   1.096   1.080
   1.061   1.040   1.018   0.996   0.974   0.953   0.933   0.916   0.901   0.889
   0.880   0.875
   0.646   0.648   0.655   0.667   0.683   0.703   0.728   0.756   0.788   0.823
   0.859   0.895   0.931   0.965   0.995   1.020   1.039   1.050   1.054   1.050
   1.039   1.020   0.995   0.965   0.931   0.895   0.859   0.823   0.788   0.756
   0.728   0.703   0.683   0.667   0.655   0.648   0.646   0.648   0.655   0.667
   0.683   0.703   0.728   0.756   0.788   0.823   0.859   0.895   0.931   0.965
   0.995   1.020   1.039   1.050   1.054   1.050   1.039   1.020   0.995   0.965
   0.931   0.895   0.859   0.823   0.788   0.756   0.728   0.703   0.683   0.667
   0.655   0.648
   0.540   0.542   0.547   0.556   0.569   0.587   0.609   0.637   0.670   0.709
   0.753   0.800   0.850   0.899   0.945   0.986   1.018   1.038   1.045   1.038
   1.018   0.986   0.945   0.899   0.850   0.800   0.753   0.709   0.670   0.637
   0.609   0.587   0.569   0.556   0.547   0.542   0.540   0.542   0.547   0.556
   0.569   0.587   0.609   0.637   0.670   0.709   0.753   0.800   0.850   0.899
   0.945   0.986   1.018   1.038   1.045   1.038   1.018   0.986   0.945   0.899
   0.850   0.800   0.753   0.709   0.670   0.637   0.609   0.587   0.569   0.556
   0.547   0.542
   0.609   0.610   0.613   0.616   0.620   0.626   0.635   0.651   0.674   0.705
   0.745   0.794   0.850   0.912   0.975   1.035   1.084   1.117   1.129   1.117
   1.084   1.035   0.975   0.912   0.850   0.794   0.745   0.705   0.674   0.651
   0.635   0.626   0.620   0.616   0.613   0.610   0.609   0.610   0.613   0.616
   0.620   0.626   0.635   0.651   0.674   0.705   0.745   0.794   0.850   0.912
   0.975   1.035   1.084   1.117   1.129   1.117   1.084   1.035   0.975   0.912
   0.850   0.794   0.745   0.705   0.674   0.651   0.635   0.626   0.620   0.616
   0.613   0.610
   0.785   0.787   0.790   0.791   0.788   0.782   0.775   0.773   0.779   0.794
   0.819   0.855   0.904   0.968   1.042   1.121   1.192   1.242   1.259   1.242
   1.192   1.121   1.042   0.968   0.904   0.855   0.819   0.794   0.779   0.773
   0.775   0.782   0.788   0.791   0.790   0.787   0.785   0.787   0.790   0.791
   0.788   0.782   0.775   0.773   0.779   0.794   0.819   0.855   0.904   0.968
   1.042   1.121   1.192   1.242   1.259   1.242   1.192   1.121   1.042   0.968
   0.904   0.855   0.819   0.794   0.779   0.773   0.775   0.782   0.788   0.791
   0.790   0.787
   0.944   0.949   0.959   0.966   0.962   0.947   0.928   0.915   0.909   0.910
   0.916   0.927   0.952   1.000   1.074   1.165   1.256   1.324   1.349   1.324
   1.256   1.165   1.074   1.000   0.952   0.927   0.916   0.910   0.909   0.915
   0.928   0.947   0.962   0.966   0.959   0.949   0.944   0.949   0.959   0.966
   0.962   0.947   0.928   0.915   0.909   0.910   0.916   0.927   0.952   1.000
   1.074   1.165   1.256   1.324   1.349   1.324   1.256   1.165   1.074   1.000
   0.952   0.927   0.916   0.910   0.909   0.915   0.928   0.947   0.962   0.966
   0.959   0.949
   1.039   1.049   1.069   1.081   1.071   1.043   1.014   0.999   1.000   1.002
   0.993   0.974   0.962   0.979   1.038   1.133   1.238   1.319   1.349   1.319
   1.238   1.133   1.038   0.979   0.962   0.974   0.993   1.002   1.000   0.999
   1.014   1.043   1.071   1.081   1.069   1.049   1.039   1.049   1.069   1.081
   1.071   1.043   1.014   0.999   1.000   1.002   0.993   0.974   0.962   0.979
   1.038   1.133   1.238   1.319   1.349   1.319   1.238   1.133   1.038   0.979
   0.962   0.974   0.993   1.002   1.000   0.999   1.014   1.043   1.071   1.081
   1.069   1.049
   1.140   1.154   1.177   1.180   1.143   1.083   1.035   1.026   1.048   1.069
   1.058   1.013   0.962   0.944   0.983   1.073   1.180   1.265   1.298   1.265
   1.180   1.073   0.983   0.944   0.962   1.013   1.058   1.069   1.048   1.026
   1.035   1.083   1.143   1.180   1.177   1.154   1.140   1.154   1.177   1.180
   1.143   1.083   1.035   1.026   1.048   1.069   1.058   1.013   0.962   0.944
   0.983   1.073   1.180   1.265   1.298   1.265   1.180   1.073   0.983   0.944
   0.962   1.013   1.058   1.069   1.048   1.026   1.035   1.083   1.143   1.180
   1.177   1.154
   1.322   1.336   1.353   1.328   1.242   1.129   1.051   1.046   1.095   1.139
   1.129   1.064   0.985   0.948   0.977   1.059   1.158   1.234   1.262   1.234
   1.158   1.059   0.977   0.948   0.985   1.064   1.129   1.139   1.095   1.046
   1.051   1.129   1.242   1.328   1.353   1.336   1.322   1.336   1.353   1.328
   1.242   1.129   1.051   1.046   1.095   1.139   1.129   1.064   0.985   0.948
   0.977   1.059   1.158   1.234   1.262   1.234   1.158   1.059   0.977   0.948
   0.985   1.064   1.129   1.139   1.095   1.046   1.051   1.129   1.242   1.328
   1.353   1.336
   1.528   1.541   1.548   1.494   1.361   1.202   1.099   1.096   1.158   1.207
   1.185   1.102   1.016   0.985   1.024   1.104   1.185   1.239   1.257   1.239
   1.185   1.104   1.024   0.985   1.016   1.102   1.185   1.207   1.158   1.096
   1.099   1.202   1.361   1.494   1.548   1.541   1.528   1.541   1.548   1.494
   1.361   1.202   1.099   1.096   1.158   1.207   1.185   1.102   1.016   0.985
   1.024   1.104   1.185   1.239   1.257   1.239   1.185   1.104   1.024   0.985
   1.016   1.102   1.185   1.207   1.158   1.096   1.099   1.202   1.361   1.494
   1.548   1.541
   1.593   1.606   1.611   1.550   1.407   1.245   1.150   1.152   1.204   1.224
   1.169   1.071   0.999   0.998   1.060   1.140   1.199   1.227   1.234   1.227
   1.199   1.140   1.060   0.998   0.999   1.071   1.169   1.224   1.204   1.152
   1.150   1.245   1.407   1.550   1.611   1.606   1.593   1.606   1.611   1.550
   1.407   1.245   1.150   1.152   1.204   1.224   1.169   1.071   0.999   0.998
   1.060   1.140   1.199   1.227   1.234   1.227   1.199   1.140   1.060   0.998
   0.999   1.071   1.169   1.224   1.204   1.152   1.150   1.245   1.407   1.550
   1.611   1.606
   1.417   1.429   1.438   1.396   1.296   1.194   1.150   1.167   1.186   1.147
   1.050   0.952   0.915   0.952   1.030   1.101   1.140   1.152   1.153   1.152
   1.140   1.101   1.030   0.952   0.915   0.952   1.050   1.147   1.186   1.167
   1.150   1.194   1.296   1.396   1.438   1.429   1.417   1.429   1.438   1.396
   1.296   1.194   1.150   1.167   1.186   1.147   1.050   0.952   0.915   0.952
   1.030   1.101   1.140   1.152   1.153   1.152   1.140   1.101   1.030   0.952
   0.915   0.952   1.050   1.147   1.186   1.167   1.150   1.194   1.296   1.396
   1.438   1.429
   1.086   1.092   1.095   1.078   1.052   1.051   1.088   1.122   1.095   0.995
   0.876   0.809   0.824   0.890   0.955   0.997   1.023   1.040   1.047   1.040
   1.023   0.997   0.955   0.890   0.824   0.809   0.876   0.995   1.095   1.122
   1.088   1.051   1.052   1.078   1.095   1.092   1.086   1.092   1.095   1.078
   1.052   1.051   1.088   1.122   1.095   0.995   0.876   0.809   0.824   0.890
   0.955   0.997   1.023   1.040   1.047   1.040   1.023   0.997   0.955   0.890
   0.824   0.809   0.876   0.995   1.095   1.122   1.088   1.051   1.052   1.078
   1.095   1.092
   0.801   0.789   0.763   0.750   0.789   0.891   1.006   1.050   0.977   0.836
   0.732   0.735   0.815   0.888   0.907   0.901   0.922   0.968   0.993   0.968
   0.922   0.901   0.907   0.888   0.815   0.735   0.732   0.836   0.977   1.050
   1.006   0.891   0.789   0.750   0.763   0.789   0.801   0.789   0.763   0.750
   0.789   0.891   1.006   1.050   0.977   0.836   0.732   0.735   0.815   0.888
   0.907   0.901   0.922   0.968   0.993   0.968   0.922   0.901   0.907   0.888
   0.815   0.735   0.732   0.836   0.977   1.050   1.006   0.891   0.789   0.750
   0.763   0.789
   0.680   0.645   0.572   0.538   0.611   0.781   0.948   0.992   0.884   0.727
   0.668   0.756   0.899   0.964   0.922   0.864   0.886   0.971   1.019   0.971
   0.886   0.864   0.922   0.964   0.899   0.756   0.668   0.727   0.884   0.992
   0.948   0.781   0.611   0.538   0.572   0.645   0.680   0.645   0.572   0.538
   0.611   0.781   0.948   0.992   0.884   0.727   0.668   0.756   0.899   0.964
   0.922   0.864   0.886   0.971   1.019   0.971   0.886   0.864   0.922   0.964
   0.899   0.756   0.668   0.727   0.884   0.992   0.948   0.781   0.611   0.538
   0.572   0.645
   0.672   0.620   0.511   0.454   0.535   0.736   0.926   0.965   0.838   0.680
   0.659   0.807   0.989   1.045   0.960   0.867   0.892   1.004   1.068   1.004
   0.892   0.867   0.960   1.045   0.989   0.807   0.659   0.680   0.838   0.965
   0.926   0.736   0.535   0.454   0.511   0.620   0.672   0.620   0.511   0.454
   0.535   0.736   0.926   0.965   0.838   0.680   0.659   0.807   0.989   1.045
   0.960   0.867   0.892   1.004   1.068   1.004   0.892   0.867   0.960   1.045
   0.989   0.807   0.659   0.680   0.838   0.965   0.926   0.736   0.535   0.454
   0.511   0.620
 311       5.00   72    0 5.00   18    0
   0.988   0.988   0.989   0.989   0.989   0.989   0.990   0.990   0.990   0.991
   0.991   0.991   0.992   0.992   0.992   0.992   0.992   0.993   0.993   0.993
   0.992   0.992   0.992   0.992   0.992   0.991   0.991   0.991   0.990   0.990
   0.990   0.989   0.989   0.989   0.989   0.988   0.988   0.988   0.989   0.989
   0.989   0.989   0.990   0.990   0.990   0.991   0.991   0.991   0.992   0.992
   0.992   0.992   0.992   0.993   0.993   0.993   0.992   0.992   0.992   0.992
   0.992   0.991   0.991   0.991   0.990   0.990   0.990   0.989   0.989   0.989
   0.989   0.988
   1.019   1.020   1.020   1.022   1.023   1.026   1.028   1.031   1.034   1.037
   1.040   1.043   1.045   1.048   1.050   1.052   1.053   1.054   1.054   1.054
   1.053   1.052   1.050   1.048   1.045   1.043   1.040   1.037   1.034   1.031
   1.028   1.026   1.023   1.022   1.020   1.020   1.019   1.020   1.020   1.022
   1.023   1.026   1.028   1.031   1.034   1.037   1.040   1.043   1.045   1.048
   1.050   1.052   1.053   1.054   1.054   1.054   1.053   1.052   1.050   1.048
   1.045   1.043   1.040   1.037   1.034   1.031   1.028   1.026   1.023   1.022
   1.020   1.020
   1.045   1.045   1.047   1.050   1.054   1.060   1.066   1.072   1.079   1.086
   1.093   1.100   1.106   1.111   1.116   1.120   1.123   1.124   1.125   1.124
   1.123   1.120   1.116   1.111   1.106   1.100   1.093   1.086   1.079   1.072
   1.066   1.060   1.054   1.050   1.047   1.045   1.045   1.045   1.047   1.050
   1.054   1.060   1.066   1.072   1.079   1.086   1.093   1.100   1.106   1.111
   1.116   1.120   1.123   1.124   1.125   1.124   1.123   1.120   1.116   1.111
   1.106   1.100   1.093   1.086   1.079   1.072   1.066   1.060   1.054   1.050
   1.047   1.045
   1.038   1.038   1.041   1.045   1.051   1.058   1.066   1.075   1.085   1.095
   1.106   1.116   1.125   1.134   1.141   1.147   1.152   1.154   1.155   1.154
   1.152   1.147   1.141   1.134   1.125   1.116   1.106   1.095   1.085   1.075
   1.066   1.058   1.051   1.045   1.041   1.038   1.038   1.038   1.041   1.045
   1.051   1.058   1.066   1.075   1.085   1.095   1.106   1.116   1.125   1.134
   1.141   1.147   1.152   1.154   1.155   1.154   1.152   1.147   1.141   1.134
   1.125   1.116   1.106   1.095   1.085   1.075   1.066   1.058   1.051   1.045
   1.041   1.038
   1.010   1.011   1.014   1.018   1.023   1.029   1.036   1.043   1.052   1.062
   1.073   1.084   1.096   1.107   1.117   1.125   1.132   1.136   1.138   1.136
   1.132   1.125   1.117   1.107   1.096   1.084   1.073   1.062   1.052   1.043
   1.036   1.029   1.023   1.018   1.014   1.011   1.010   1.011   1.014   1.018
   1.023   1.029   1.036   1.043   1.052   1.062   1.073   1.084   1.096   1.107
   1.117   1.125   1.132   1.136   1.138   1.136   1.132   1.125   1.117   1.107
   1.096   1.084   1.073   1.062   1.052   1.043   1.036   1.029   1.023   1.018
   1.014   1.011
   0.988   0.990   0.993   0.998   1.002   1.004   1.006   1.008   1.011   1.016
   1.024   1.033   1.044   1.056   1.068   1.080   1.089   1.096   1.098   1.096
   1.089   1.080   1.068   1.056   1.044   1.033   1.024   1.016   1.011   1.008
   1.006   1.004   1.002   0.998   0.993   0.990   0.988   0.990   0.993   0.998
   1.002   1.004   1.006   1.008   1.011   1.016   1.024   1.033   1.044   1.056
   1.068   1.080   1.089   1.096   1.098   1.096   1.089   1.080   1.068   1.056
   1.044   1.033   1.024   1.016   1.011   1.008   1.006   1.004   1.002   0.998
   0.993   0.990
   0.969   0.973   0.982   0.992   0.998   0.998   0.993   0.988   0.983   0.983
   0.985   0.989   0.996   1.005   1.017   1.030   1.043   1.053   1.057   1.053
   1.043   1.030   1.017   1.005   0.996   0.989   0.985   0.983   0.983   0.988
   0.993   0.998   0.998   0.992   0.982   0.973   0.969   0.973   0.982   0.992
   0.998   0.998   0.993   0.988   0.983   0.983   0.985   0.989   0.996   1.005
   1.017   1.030   1.043   1.053   1.057   1.053   1.043   1.030   1.017   1.005
   0.996   0.989   0.985   0.983   0.983   0.988   0.993   0.998   0.998   0.992
   0.982   0.973
   0.930   0.939   0.961   0.983   0.995   0.993   0.982   0.969   0.961   0.959
   0.959   0.958   0.956   0.957   0.963   0.975   0.991   1.004   1.009   1.004
   0.991   0.975   0.963   0.957   0.956   0.958   0.959   0.959   0.961   0.969
   0.982   0.993   0.995   0.983   0.961   0.939   0.930   0.939   0.961   0.983
   0.995   0.993   0.982   0.969   0.961   0.959   0.959   0.958   0.956   0.957
   0.963   0.975   0.991   1.004   1.009   1.004   0.991   0.975   0.963   0.957
   0.956   0.958   0.959   0.959   0.961   0.969   0.982   0.993   0.995   0.983
   0.961   0.939
   0.873   0.889   0.928   0.966   0.982   0.973   0.950   0.932   0.928   0.934
   0.941   0.938   0.926   0.913   0.908   0.916   0.932   0.947   0.953   0.947
   0.932   0.916   0.908   0.913   0.926   0.938   0.941   0.934   0.928   0.932
   0.950   0.973   0.982   0.966   0.928   0.889   0.873   0.889   0.928   0.966
   0.982   0.973   0.950   0.932   0.928   0.934   0.941   0.938   0.926   0.913
   0.908   0.916   0.932   0.947   0.953   0.947   0.932   0.916   0.908   0.913
   0.926   0.938   0.941   0.934   0.928   0.932   0.950   0.973   0.982   0.966
   0.928   0.889
   0.839   0.865   0.922   0.971   0.980   0.948   0.904   0.879   0.888   0.916
   0.939   0.939   0.918   0.892   0.875   0.876   0.889   0.904   0.910   0.904
   0.889   0.876   0.875   0.892   0.918   0.939   0.939   0.916   0.888   0.879
   0.904   0.948   0.980   0.971   0.922   0.865   0.839   0.865   0.922   0.971
   0.980   0.948   0.904   0.879   0.888   0.916   0.939   0.939   0.918   0.892
   0.875   0.876   0.889   0.904   0.910   0.904   0.889   0.876   0.875   0.892
   0.918   0.939   0.939   0.916   0.888   0.879   0.904   0.948   0.980   0.971
   0.922   0.865
   0.863   0.897   0.971   1.025   1.017   0.952   0.878   0.847   0.871   0.924
   0.966   0.972   0.947   0.912   0.890   0.887   0.896   0.908   0.912   0.908
   0.896   0.887   0.890   0.912   0.947   0.972   0.966   0.924   0.871   0.847
   0.878   0.952   1.017   1.025   0.971   0.897   0.863   0.897   0.971   1.025
   1.017   0.952   0.878   0.847   0.871   0.924   0.966   0.972   0.947   0.912
   0.890   0.887   0.896   0.908   0.912   0.908   0.896   0.887   0.890   0.912
   0.947   0.972   0.966   0.924   0.871   0.847   0.878   0.952   1.017   1.025
   0.971   0.897
   0.914   0.957   1.048   1.108   1.084   0.992   0.897   0.862   0.899   0.968
   1.019   1.025   0.998   0.967   0.949   0.948   0.954   0.959   0.960   0.959
   0.954   0.948   0.949   0.967   0.998   1.025   1.019   0.968   0.899   0.862
   0.897   0.992   1.084   1.108   1.048   0.957   0.914   0.957   1.048   1.108
   1.084   0.992   0.897   0.862   0.899   0.968   1.019   1.025   0.998   0.967
   0.949   0.948   0.954   0.959   0.960   0.959   0.954   0.948   0.949   0.967
   0.998   1.025   1.019   0.968   0.899   0.862   0.897   0.992   1.084   1.108
   1.048   0.957
   0.924   0.974   1.080   1.154   1.134   1.041   0.948   0.919   0.960   1.024
   1.064   1.062   1.038   1.017   1.012   1.016   1.019   1.018   1.016   1.018
   1.019   1.016   1.012   1.017   1.038   1.062   1.064   1.024   0.960   0.919
   0.948   1.041   1.134   1.154   1.080   0.974   0.924   0.974   1.080   1.154
   1.134   1.041   0.948   0.919   0.960   1.024   1.064   1.062   1.038   1.017
   1.012   1.016   1.019   1.018   1.016   1.018   1.019   1.016   1.012   1.017
   1.038   1.062   1.064   1.024   0.960   0.919   0.948   1.041   1.134   1.154
   1.080   0.974
   0.868   0.920   1.034   1.121   1.124   1.062   0.999   0.986   1.018   1.056
   1.071   1.059   1.043   1.035   1.038   1.043   1.043   1.041   1.039   1.041
   1.043   1.043   1.038   1.035   1.043   1.059   1.071   1.056   1.018   0.986
   0.999   1.062   1.124   1.121   1.034   0.920   0.868   0.920   1.034   1.121
   1.124   1.062   0.999   0.986   1.018   1.056   1.071   1.059   1.043   1.035
   1.038   1.043   1.043   1.041   1.039   1.041   1.043   1.043   1.038   1.035
   1.043   1.059   1.071   1.056   1.018   0.986   0.999   1.062   1.124   1.121
   1.034   0.920
   0.815   0.859   0.958   1.041   1.068   1.052   1.032   1.033   1.045   1.048
   1.039   1.031   1.029   1.031   1.028   1.021   1.020   1.024   1.027   1.024
   1.020   1.021   1.028   1.031   1.029   1.031   1.039   1.048   1.045   1.033
   1.032   1.052   1.068   1.041   0.958   0.859   0.815   0.859   0.958   1.041
   1.068   1.052   1.032   1.033   1.045   1.048   1.039   1.031   1.029   1.031
   1.028   1.021   1.020   1.024   1.027   1.024   1.020   1.021   1.028   1.031
   1.029   1.031   1.039   1.048   1.045   1.033   1.032   1.052   1.068   1.041
   0.958   0.859
   0.856   0.881   0.936   0.987   1.018   1.035   1.051   1.057   1.042   1.014
   0.998   1.012   1.036   1.039   1.012   0.983   0.979   0.998   1.011   0.998
   0.979   0.983   1.012   1.039   1.036   1.012   0.998   1.014   1.042   1.057
   1.051   1.035   1.018   0.987   0.936   0.881   0.856   0.881   0.936   0.987
   1.018   1.035   1.051   1.057   1.042   1.014   0.998   1.012   1.036   1.039
   1.012   0.983   0.979   0.998   1.011   0.998   0.979   0.983   1.012   1.039
   1.036   1.012   0.998   1.014   1.042   1.057   1.051   1.035   1.018   0.987
   0.936   0.881
   0.994   0.994   0.993   0.993   1.005   1.035   1.066   1.067   1.026   0.978
   0.973   1.021   1.073   1.072   1.016   0.959   0.954   0.991   1.014   0.991
   0.954   0.959   1.016   1.072   1.073   1.021   0.973   0.978   1.026   1.067
   1.066   1.035   1.005   0.993   0.993   0.994   0.994   0.994   0.993   0.993
   1.005   1.035   1.066   1.067   1.026   0.978   0.973   1.021   1.073   1.072
   1.016   0.959   0.954   0.991   1.014   0.991   0.954   0.959   1.016   1.072
   1.073   1.021   0.973   0.978   1.026   1.067   1.066   1.035   1.005   0.993
   0.993   0.994
   1.120   1.103   1.062   1.022   1.014   1.044   1.078   1.071   1.015   0.959
   0.966   1.039   1.110   1.106   1.028   0.953   0.947   0.996   1.026   0.996
   0.947   0.953   1.028   1.106   1.110   1.039   0.966   0.959   1.015   1.071
   1.078   1.044   1.014   1.022   1.062   1.103   1.120   1.103   1.062   1.022
   1.014   1.044   1.078   1.071   1.015   0.959   0.966   1.039   1.110   1.106
   1.028   0.953   0.947   0.996   1.026   0.996   0.947   0.953   1.028   1.106
   1.110   1.039   0.966   0.959   1.015   1.071   1.078   1.044   1.014   1.022
   1.062   1.103
TEXTURE_INDEX=   1.1661
ERR_CF 220         1080     500   17.92   12.57
ERR_CF 200         1080     558   15.79   13.84
ERR_CF 111         1080     730   15.78   15.60
