TEXEVAL                                                                         
Analysis started on 21-Sep-20 11:00:41                                          
 LMAX=14LFMAX=03 CUBIC ORTHO   
 220      5.00 5.00
 200      5.00 5.00
 111      5.00 5.00
 220       5.00   72    0 5.00   15    0
   0.776   0.776   0.776   0.776   0.776   0.776   0.776   0.776   0.776   0.776
   0.776   0.776   0.776   0.776   0.776   0.776   0.776   0.776   0.776   0.776
   0.776   0.776   0.776   0.776   0.776   0.776   0.776   0.776   0.776   0.776
   0.776   0.776   0.776   0.776   0.776   0.776   0.776   0.776   0.776   0.776
   0.776   0.776   0.776   0.776   0.776   0.776   0.776   0.776   0.776   0.776
   0.776   0.776   0.776   0.776   0.776   0.776   0.776   0.776   0.776   0.776
   0.776   0.776   0.776   0.776   0.776   0.776   0.776   0.776   0.776   0.776
   0.776   0.776
   0.927   0.934   0.778   0.664   0.793   0.793   0.870   0.911   0.910   0.885
   0.955   0.810   0.881   0.804   0.903   0.966   1.046   0.981   1.028   0.981
   1.046   0.966   0.903   0.804   0.881   0.810   0.955   0.885   0.910   0.911
   0.870   0.793   0.793   0.664   0.778   0.934   0.927   0.934   0.778   0.664
   0.793   0.793   0.870   0.911   0.910   0.885   0.955   0.810   0.881   0.804
   0.903   0.966   1.046   0.981   1.028   0.981   1.046   0.966   0.903   0.804
   0.881   0.810   0.955   0.885   0.910   0.911   0.870   0.793   0.793   0.664
   0.778   0.934
   0.938   0.985   1.073   0.812   0.751   0.894   0.971   1.010   0.898   0.904
   0.943   0.804   0.938   0.927   0.954   1.144   1.006   1.014   1.077   1.014
   1.006   1.144   0.954   0.927   0.938   0.804   0.943   0.904   0.898   1.010
   0.971   0.894   0.751   0.812   1.073   0.985   0.938   0.985   1.073   0.812
   0.751   0.894   0.971   1.010   0.898   0.904   0.943   0.804   0.938   0.927
   0.954   1.144   1.006   1.014   1.077   1.014   1.006   1.144   0.954   0.927
   0.938   0.804   0.943   0.904   0.898   1.010   0.971   0.894   0.751   0.812
   1.073   0.985
   1.016   0.932   1.174   0.885   0.942   1.085   1.046   1.164   0.850   1.128
   0.858   1.021   0.975   0.904   0.843   0.994   0.927   1.033   1.001   1.033
   0.927   0.994   0.843   0.904   0.975   1.021   0.858   1.128   0.850   1.164
   1.046   1.085   0.942   0.885   1.174   0.932   1.016   0.932   1.174   0.885
   0.942   1.085   1.046   1.164   0.850   1.128   0.858   1.021   0.975   0.904
   0.843   0.994   0.927   1.033   1.001   1.033   0.927   0.994   0.843   0.904
   0.975   1.021   0.858   1.128   0.850   1.164   1.046   1.085   0.942   0.885
   1.174   0.932
   1.138   1.080   1.033   0.941   1.200   1.150   0.918   1.082   0.921   1.067
   1.000   1.041   0.850   0.715   0.827   0.787   0.982   0.801   0.946   0.801
   0.982   0.787   0.827   0.715   0.850   1.041   1.000   1.067   0.921   1.082
   0.918   1.150   1.200   0.941   1.033   1.080   1.138   1.080   1.033   0.941
   1.200   1.150   0.918   1.082   0.921   1.067   1.000   1.041   0.850   0.715
   0.827   0.787   0.982   0.801   0.946   0.801   0.982   0.787   0.827   0.715
   0.850   1.041   1.000   1.067   0.921   1.082   0.918   1.150   1.200   0.941
   1.033   1.080
   1.002   1.013   0.935   1.020   1.189   1.152   1.024   1.045   0.975   0.946
   1.155   1.000   0.956   0.857   1.009   0.791   1.005   0.720   1.102   0.720
   1.005   0.791   1.009   0.857   0.956   1.000   1.155   0.946   0.975   1.045
   1.024   1.152   1.189   1.020   0.935   1.013   1.002   1.013   0.935   1.020
   1.189   1.152   1.024   1.045   0.975   0.946   1.155   1.000   0.956   0.857
   1.009   0.791   1.005   0.720   1.102   0.720   1.005   0.791   1.009   0.857
   0.956   1.000   1.155   0.946   0.975   1.045   1.024   1.152   1.189   1.020
   0.935   1.013
   1.004   1.051   1.033   1.023   1.090   1.144   1.219   1.168   1.069   1.025
   1.193   1.064   1.115   1.036   1.172   0.872   1.041   0.889   1.110   0.889
   1.041   0.872   1.172   1.036   1.115   1.064   1.193   1.025   1.069   1.168
   1.219   1.144   1.090   1.023   1.033   1.051   1.004   1.051   1.033   1.023
   1.090   1.144   1.219   1.168   1.069   1.025   1.193   1.064   1.115   1.036
   1.172   0.872   1.041   0.889   1.110   0.889   1.041   0.872   1.172   1.036
   1.115   1.064   1.193   1.025   1.069   1.168   1.219   1.144   1.090   1.023
   1.033   1.051
   1.052   1.030   1.064   1.146   0.993   1.027   1.209   1.140   0.992   1.075
   1.182   1.003   0.966   1.066   1.031   0.888   0.995   1.050   0.900   1.050
   0.995   0.888   1.031   1.066   0.966   1.003   1.182   1.075   0.992   1.140
   1.209   1.027   0.993   1.146   1.064   1.030   1.052   1.030   1.064   1.146
   0.993   1.027   1.209   1.140   0.992   1.075   1.182   1.003   0.966   1.066
   1.031   0.888   0.995   1.050   0.900   1.050   0.995   0.888   1.031   1.066
   0.966   1.003   1.182   1.075   0.992   1.140   1.209   1.027   0.993   1.146
   1.064   1.030
   0.878   0.893   0.925   1.092   0.869   0.986   1.292   1.104   0.951   1.208
   1.053   0.941   1.038   1.207   1.073   1.112   1.107   0.896   0.733   0.896
   1.107   1.112   1.073   1.207   1.038   0.941   1.053   1.208   0.951   1.104
   1.292   0.986   0.869   1.092   0.925   0.893   0.878   0.893   0.925   1.092
   0.869   0.986   1.292   1.104   0.951   1.208   1.053   0.941   1.038   1.207
   1.073   1.112   1.107   0.896   0.733   0.896   1.107   1.112   1.073   1.207
   1.038   0.941   1.053   1.208   0.951   1.104   1.292   0.986   0.869   1.092
   0.925   0.893
   1.141   0.906   0.992   0.918   0.902   1.026   1.120   1.050   1.020   1.297
   1.158   1.040   1.157   1.362   1.183   1.253   1.254   0.647   0.824   0.647
   1.254   1.253   1.183   1.362   1.157   1.040   1.158   1.297   1.020   1.050
   1.120   1.026   0.902   0.918   0.992   0.906   1.141   0.906   0.992   0.918
   0.902   1.026   1.120   1.050   1.020   1.297   1.158   1.040   1.157   1.362
   1.183   1.253   1.254   0.647   0.824   0.647   1.254   1.253   1.183   1.362
   1.157   1.040   1.158   1.297   1.020   1.050   1.120   1.026   0.902   0.918
   0.992   0.906
   1.137   0.986   1.109   1.057   0.866   0.998   1.035   1.025   1.058   1.278
   1.252   1.326   0.990   1.343   1.110   1.103   1.005   0.793   1.117   0.793
   1.005   1.103   1.110   1.343   0.990   1.326   1.252   1.278   1.058   1.025
   1.035   0.998   0.866   1.057   1.109   0.986   1.137   0.986   1.109   1.057
   0.866   0.998   1.035   1.025   1.058   1.278   1.252   1.326   0.990   1.343
   1.110   1.103   1.005   0.793   1.117   0.793   1.005   1.103   1.110   1.343
   0.990   1.326   1.252   1.278   1.058   1.025   1.035   0.998   0.866   1.057
   1.109   0.986
   0.759   1.106   1.135   1.140   0.943   1.016   1.105   0.926   1.024   1.122
   1.146   1.300   1.242   1.208   1.195   1.074   0.910   0.815   1.077   0.815
   0.910   1.074   1.195   1.208   1.242   1.300   1.146   1.122   1.024   0.926
   1.105   1.016   0.943   1.140   1.135   1.106   0.759   1.106   1.135   1.140
   0.943   1.016   1.105   0.926   1.024   1.122   1.146   1.300   1.242   1.208
   1.195   1.074   0.910   0.815   1.077   0.815   0.910   1.074   1.195   1.208
   1.242   1.300   1.146   1.122   1.024   0.926   1.105   1.016   0.943   1.140
   1.135   1.106
   0.631   0.959   1.154   1.159   1.178   1.088   1.037   0.913   0.999   1.112
   1.074   1.160   1.303   1.243   1.148   1.023   0.938   0.847   1.043   0.847
   0.938   1.023   1.148   1.243   1.303   1.160   1.074   1.112   0.999   0.913
   1.037   1.088   1.178   1.159   1.154   0.959   0.631   0.959   1.154   1.159
   1.178   1.088   1.037   0.913   0.999   1.112   1.074   1.160   1.303   1.243
   1.148   1.023   0.938   0.847   1.043   0.847   0.938   1.023   1.148   1.243
   1.303   1.160   1.074   1.112   0.999   0.913   1.037   1.088   1.178   1.159
   1.154   0.959
   0.659   0.725   1.023   1.005   0.876   1.116   0.952   0.943   0.882   1.342
   0.936   0.822   0.985   1.044   0.916   1.099   0.863   0.778   0.945   0.778
   0.863   1.099   0.916   1.044   0.985   0.822   0.936   1.342   0.882   0.943
   0.952   1.116   0.876   1.005   1.023   0.725   0.659   0.725   1.023   1.005
   0.876   1.116   0.952   0.943   0.882   1.342   0.936   0.822   0.985   1.044
   0.916   1.099   0.863   0.778   0.945   0.778   0.863   1.099   0.916   1.044
   0.985   0.822   0.936   1.342   0.882   0.943   0.952   1.116   0.876   1.005
   1.023   0.725
   0.394   0.524   0.825   0.858   0.588   1.060   0.612   0.882   0.700   0.980
   0.742   0.712   0.745   0.609   0.858   1.076   0.705   0.563   0.466   0.563
   0.705   1.076   0.858   0.609   0.745   0.712   0.742   0.980   0.700   0.882
   0.612   1.060   0.588   0.858   0.825   0.524   0.394   0.524   0.825   0.858
   0.588   1.060   0.612   0.882   0.700   0.980   0.742   0.712   0.745   0.609
   0.858   1.076   0.705   0.563   0.466   0.563   0.705   1.076   0.858   0.609
   0.745   0.712   0.742   0.980   0.700   0.882   0.612   1.060   0.588   0.858
   0.825   0.524
 200       5.00   72    0 5.00   15    0
   1.266   1.266   1.266   1.266   1.266   1.266   1.266   1.266   1.266   1.266
   1.266   1.266   1.266   1.266   1.266   1.266   1.266   1.266   1.266   1.266
   1.266   1.266   1.266   1.266   1.266   1.266   1.266   1.266   1.266   1.266
   1.266   1.266   1.266   1.266   1.266   1.266   1.266   1.266   1.266   1.266
   1.266   1.266   1.266   1.266   1.266   1.266   1.266   1.266   1.266   1.266
   1.266   1.266   1.266   1.266   1.266   1.266   1.266   1.266   1.266   1.266
   1.266   1.266   1.266   1.266   1.266   1.266   1.266   1.266   1.266   1.266
   1.266   1.266
   1.354   1.357   1.457   1.669   1.439   1.278   1.497   1.419   1.498   1.295
   1.147   1.346   1.441   1.422   1.272   1.370   1.321   1.143   1.137   1.143
   1.321   1.370   1.272   1.422   1.441   1.346   1.147   1.295   1.498   1.419
   1.497   1.278   1.439   1.669   1.457   1.357   1.354   1.357   1.457   1.669
   1.439   1.278   1.497   1.419   1.498   1.295   1.147   1.346   1.441   1.422
   1.272   1.370   1.321   1.143   1.137   1.143   1.321   1.370   1.272   1.422
   1.441   1.346   1.147   1.295   1.498   1.419   1.497   1.278   1.439   1.669
   1.457   1.357
   1.092   1.301   1.181   1.465   1.456   1.196   1.371   1.320   1.376   1.264
   1.271   1.363   1.232   1.322   1.280   1.396   1.413   1.120   1.264   1.120
   1.413   1.396   1.280   1.322   1.232   1.363   1.271   1.264   1.376   1.320
   1.371   1.196   1.456   1.465   1.181   1.301   1.092   1.301   1.181   1.465
   1.456   1.196   1.371   1.320   1.376   1.264   1.271   1.363   1.232   1.322
   1.280   1.396   1.413   1.120   1.264   1.120   1.413   1.396   1.280   1.322
   1.232   1.363   1.271   1.264   1.376   1.320   1.371   1.196   1.456   1.465
   1.181   1.301
   1.020   1.313   1.159   1.368   1.402   1.190   1.316   1.333   1.146   1.127
   1.281   1.224   1.108   1.015   1.252   1.192   1.205   1.191   1.224   1.191
   1.205   1.192   1.252   1.015   1.108   1.224   1.281   1.127   1.146   1.333
   1.316   1.190   1.402   1.368   1.159   1.313   1.020   1.313   1.159   1.368
   1.402   1.190   1.316   1.333   1.146   1.127   1.281   1.224   1.108   1.015
   1.252   1.192   1.205   1.191   1.224   1.191   1.205   1.192   1.252   1.015
   1.108   1.224   1.281   1.127   1.146   1.333   1.316   1.190   1.402   1.368
   1.159   1.313
   1.410   1.370   1.216   1.305   1.159   1.155   1.208   1.166   1.267   1.133
   1.147   1.044   1.149   1.017   1.310   1.184   1.159   1.110   1.138   1.110
   1.159   1.184   1.310   1.017   1.149   1.044   1.147   1.133   1.267   1.166
   1.208   1.155   1.159   1.305   1.216   1.370   1.410   1.370   1.216   1.305
   1.159   1.155   1.208   1.166   1.267   1.133   1.147   1.044   1.149   1.017
   1.310   1.184   1.159   1.110   1.138   1.110   1.159   1.184   1.310   1.017
   1.149   1.044   1.147   1.133   1.267   1.166   1.208   1.155   1.159   1.305
   1.216   1.370
   1.333   1.192   1.071   1.104   1.034   1.326   1.252   1.070   1.183   1.185
   1.078   1.037   0.989   0.961   1.215   1.106   1.123   1.029   1.028   1.029
   1.123   1.106   1.215   0.961   0.989   1.037   1.078   1.185   1.183   1.070
   1.252   1.326   1.034   1.104   1.071   1.192   1.333   1.192   1.071   1.104
   1.034   1.326   1.252   1.070   1.183   1.185   1.078   1.037   0.989   0.961
   1.215   1.106   1.123   1.029   1.028   1.029   1.123   1.106   1.215   0.961
   0.989   1.037   1.078   1.185   1.183   1.070   1.252   1.326   1.034   1.104
   1.071   1.192
   1.048   0.972   1.064   0.935   0.908   1.373   1.263   0.902   1.089   1.209
   1.033   1.113   1.062   0.838   1.176   0.855   1.012   0.980   0.825   0.980
   1.012   0.855   1.176   0.838   1.062   1.113   1.033   1.209   1.089   0.902
   1.263   1.373   0.908   0.935   1.064   0.972   1.048   0.972   1.064   0.935
   0.908   1.373   1.263   0.902   1.089   1.209   1.033   1.113   1.062   0.838
   1.176   0.855   1.012   0.980   0.825   0.980   1.012   0.855   1.176   0.838
   1.062   1.113   1.033   1.209   1.089   0.902   1.263   1.373   0.908   0.935
   1.064   0.972
   0.960   0.966   1.012   0.900   0.970   1.009   1.023   0.696   1.043   1.006
   0.970   0.987   1.056   0.771   1.115   0.816   1.022   0.839   0.897   0.839
   1.022   0.816   1.115   0.771   1.056   0.987   0.970   1.006   1.043   0.696
   1.023   1.009   0.970   0.900   1.012   0.966   0.960   0.966   1.012   0.900
   0.970   1.009   1.023   0.696   1.043   1.006   0.970   0.987   1.056   0.771
   1.115   0.816   1.022   0.839   0.897   0.839   1.022   0.816   1.115   0.771
   1.056   0.987   0.970   1.006   1.043   0.696   1.023   1.009   0.970   0.900
   1.012   0.966
   0.736   0.933   0.783   0.852   1.026   0.866   1.010   0.706   0.878   0.852
   0.940   0.748   0.906   0.890   0.993   0.832   0.838   0.951   0.906   0.951
   0.838   0.832   0.993   0.890   0.906   0.748   0.940   0.852   0.878   0.706
   1.010   0.866   1.026   0.852   0.783   0.933   0.736   0.933   0.783   0.852
   1.026   0.866   1.010   0.706   0.878   0.852   0.940   0.748   0.906   0.890
   0.993   0.832   0.838   0.951   0.906   0.951   0.838   0.832   0.993   0.890
   0.906   0.748   0.940   0.852   0.878   0.706   1.010   0.866   1.026   0.852
   0.783   0.933
   0.898   0.829   0.804   0.921   0.890   0.925   0.909   0.713   0.824   0.940
   0.691   0.597   0.781   1.084   0.895   0.827   0.741   0.982   0.871   0.982
   0.741   0.827   0.895   1.084   0.781   0.597   0.691   0.940   0.824   0.713
   0.909   0.925   0.890   0.921   0.804   0.829   0.898   0.829   0.804   0.921
   0.890   0.925   0.909   0.713   0.824   0.940   0.691   0.597   0.781   1.084
   0.895   0.827   0.741   0.982   0.871   0.982   0.741   0.827   0.895   1.084
   0.781   0.597   0.691   0.940   0.824   0.713   0.909   0.925   0.890   0.921
   0.804   0.829
   1.110   0.972   1.070   0.876   0.828   1.055   0.621   0.790   0.786   0.888
   0.655   0.954   0.852   1.180   0.811   0.890   0.796   0.837   1.288   0.837
   0.796   0.890   0.811   1.180   0.852   0.954   0.655   0.888   0.786   0.790
   0.621   1.055   0.828   0.876   1.070   0.972   1.110   0.972   1.070   0.876
   0.828   1.055   0.621   0.790   0.786   0.888   0.655   0.954   0.852   1.180
   0.811   0.890   0.796   0.837   1.288   0.837   0.796   0.890   0.811   1.180
   0.852   0.954   0.655   0.888   0.786   0.790   0.621   1.055   0.828   0.876
   1.070   0.972
   1.206   1.021   0.991   1.019   0.967   0.919   0.726   0.737   0.903   1.031
   1.043   1.080   1.135   0.933   0.979   0.898   0.930   0.968   1.268   0.968
   0.930   0.898   0.979   0.933   1.135   1.080   1.043   1.031   0.903   0.737
   0.726   0.919   0.967   1.019   0.991   1.021   1.206   1.021   0.991   1.019
   0.967   0.919   0.726   0.737   0.903   1.031   1.043   1.080   1.135   0.933
   0.979   0.898   0.930   0.968   1.268   0.968   0.930   0.898   0.979   0.933
   1.135   1.080   1.043   1.031   0.903   0.737   0.726   0.919   0.967   1.019
   0.991   1.021
   1.489   1.252   0.789   1.109   0.883   0.775   0.776   0.888   0.894   1.000
   0.908   0.961   1.111   0.835   0.816   0.985   0.908   0.952   0.750   0.952
   0.908   0.985   0.816   0.835   1.111   0.961   0.908   1.000   0.894   0.888
   0.776   0.775   0.883   1.109   0.789   1.252   1.489   1.252   0.789   1.109
   0.883   0.775   0.776   0.888   0.894   1.000   0.908   0.961   1.111   0.835
   0.816   0.985   0.908   0.952   0.750   0.952   0.908   0.985   0.816   0.835
   1.111   0.961   0.908   1.000   0.894   0.888   0.776   0.775   0.883   1.109
   0.789   1.252
   1.103   1.026   0.967   1.231   0.673   0.988   0.860   1.092   0.970   0.909
   0.653   1.015   1.005   0.811   0.621   1.036   0.688   1.102   0.759   1.102
   0.688   1.036   0.621   0.811   1.005   1.015   0.653   0.909   0.970   1.092
   0.860   0.988   0.673   1.231   0.967   1.026   1.103   1.026   0.967   1.231
   0.673   0.988   0.860   1.092   0.970   0.909   0.653   1.015   1.005   0.811
   0.621   1.036   0.688   1.102   0.759   1.102   0.688   1.036   0.621   0.811
   1.005   1.015   0.653   0.909   0.970   1.092   0.860   0.988   0.673   1.231
   0.967   1.026
   0.517   0.433   0.970   1.025   0.847   0.905   0.935   0.912   1.156   0.927
   0.839   0.807   1.026   0.624   0.785   0.781   0.792   0.938   0.868   0.938
   0.792   0.781   0.785   0.624   1.026   0.807   0.839   0.927   1.156   0.912
   0.935   0.905   0.847   1.025   0.970   0.433   0.517   0.433   0.970   1.025
   0.847   0.905   0.935   0.912   1.156   0.927   0.839   0.807   1.026   0.624
   0.785   0.781   0.792   0.938   0.868   0.938   0.792   0.781   0.785   0.624
   1.026   0.807   0.839   0.927   1.156   0.912   0.935   0.905   0.847   1.025
   0.970   0.433
 111       5.00   72    0 5.00   15    0
   0.875   0.875   0.875   0.875   0.875   0.875   0.875   0.875   0.875   0.875
   0.875   0.875   0.875   0.875   0.875   0.875   0.875   0.875   0.875   0.875
   0.875   0.875   0.875   0.875   0.875   0.875   0.875   0.875   0.875   0.875
   0.875   0.875   0.875   0.875   0.875   0.875   0.875   0.875   0.875   0.875
   0.875   0.875   0.875   0.875   0.875   0.875   0.875   0.875   0.875   0.875
   0.875   0.875   0.875   0.875   0.875   0.875   0.875   0.875   0.875   0.875
   0.875   0.875   0.875   0.875   0.875   0.875   0.875   0.875   0.875   0.875
   0.875   0.875
   0.921   0.941   1.089   1.181   1.081   1.028   0.866   0.845   0.968   1.242
   1.073   0.969   1.031   1.053   1.023   0.970   1.033   0.982   0.902   0.982
   1.033   0.970   1.023   1.053   1.031   0.969   1.073   1.242   0.968   0.845
   0.866   1.028   1.081   1.181   1.089   0.941   0.921   0.941   1.089   1.181
   1.081   1.028   0.866   0.845   0.968   1.242   1.073   0.969   1.031   1.053
   1.023   0.970   1.033   0.982   0.902   0.982   1.033   0.970   1.023   1.053
   1.031   0.969   1.073   1.242   0.968   0.845   0.866   1.028   1.081   1.181
   1.089   0.941
   1.095   0.998   0.996   1.094   0.970   0.947   0.998   0.879   1.138   1.203
   1.208   1.080   1.022   0.923   0.958   1.000   1.160   1.092   0.943   1.092
   1.160   1.000   0.958   0.923   1.022   1.080   1.208   1.203   1.138   0.879
   0.998   0.947   0.970   1.094   0.996   0.998   1.095   0.998   0.996   1.094
   0.970   0.947   0.998   0.879   1.138   1.203   1.208   1.080   1.022   0.923
   0.958   1.000   1.160   1.092   0.943   1.092   1.160   1.000   0.958   0.923
   1.022   1.080   1.208   1.203   1.138   0.879   0.998   0.947   0.970   1.094
   0.996   0.998
   1.061   1.025   0.969   0.898   1.010   0.875   1.100   0.915   1.148   1.118
   1.100   1.142   1.123   1.048   0.892   0.894   1.114   1.096   0.809   1.096
   1.114   0.894   0.892   1.048   1.123   1.142   1.100   1.118   1.148   0.915
   1.100   0.875   1.010   0.898   0.969   1.025   1.061   1.025   0.969   0.898
   1.010   0.875   1.100   0.915   1.148   1.118   1.100   1.142   1.123   1.048
   0.892   0.894   1.114   1.096   0.809   1.096   1.114   0.894   0.892   1.048
   1.123   1.142   1.100   1.118   1.148   0.915   1.100   0.875   1.010   0.898
   0.969   1.025
   0.816   1.003   0.951   0.871   0.932   0.924   1.040   0.909   1.041   1.028
   0.982   1.022   1.087   1.121   0.926   0.910   1.185   1.027   0.760   1.027
   1.185   0.910   0.926   1.121   1.087   1.022   0.982   1.028   1.041   0.909
   1.040   0.924   0.932   0.871   0.951   1.003   0.816   1.003   0.951   0.871
   0.932   0.924   1.040   0.909   1.041   1.028   0.982   1.022   1.087   1.121
   0.926   0.910   1.185   1.027   0.760   1.027   1.185   0.910   0.926   1.121
   1.087   1.022   0.982   1.028   1.041   0.909   1.040   0.924   0.932   0.871
   0.951   1.003
   1.091   0.988   0.925   0.803   0.808   1.009   0.915   1.065   1.144   1.094
   0.926   0.950   1.087   0.920   0.994   0.930   1.112   1.071   1.040   1.071
   1.112   0.930   0.994   0.920   1.087   0.950   0.926   1.094   1.144   1.065
   0.915   1.009   0.808   0.803   0.925   0.988   1.091   0.988   0.925   0.803
   0.808   1.009   0.915   1.065   1.144   1.094   0.926   0.950   1.087   0.920
   0.994   0.930   1.112   1.071   1.040   1.071   1.112   0.930   0.994   0.920
   1.087   0.950   0.926   1.094   1.144   1.065   0.915   1.009   0.808   0.803
   0.925   0.988
   1.220   1.014   0.918   0.751   0.928   0.976   0.957   1.047   1.050   1.121
   0.907   0.960   1.108   0.979   1.041   0.944   1.054   1.189   1.148   1.189
   1.054   0.944   1.041   0.979   1.108   0.960   0.907   1.121   1.050   1.047
   0.957   0.976   0.928   0.751   0.918   1.014   1.220   1.014   0.918   0.751
   0.928   0.976   0.957   1.047   1.050   1.121   0.907   0.960   1.108   0.979
   1.041   0.944   1.054   1.189   1.148   1.189   1.054   0.944   1.041   0.979
   1.108   0.960   0.907   1.121   1.050   1.047   0.957   0.976   0.928   0.751
   0.918   1.014
   1.069   1.058   0.890   0.925   1.018   0.991   0.990   0.840   0.944   1.045
   0.795   0.930   1.007   1.122   1.069   1.026   1.104   1.253   0.994   1.253
   1.104   1.026   1.069   1.122   1.007   0.930   0.795   1.045   0.944   0.840
   0.990   0.991   1.018   0.925   0.890   1.058   1.069   1.058   0.890   0.925
   1.018   0.991   0.990   0.840   0.944   1.045   0.795   0.930   1.007   1.122
   1.069   1.026   1.104   1.253   0.994   1.253   1.104   1.026   1.069   1.122
   1.007   0.930   0.795   1.045   0.944   0.840   0.990   0.991   1.018   0.925
   0.890   1.058
   1.097   1.091   0.893   0.971   1.001   1.077   0.952   0.907   0.877   1.004
   0.705   0.887   0.970   1.047   1.084   1.066   0.964   1.084   0.951   1.084
   0.964   1.066   1.084   1.047   0.970   0.887   0.705   1.004   0.877   0.907
   0.952   1.077   1.001   0.971   0.893   1.091   1.097   1.091   0.893   0.971
   1.001   1.077   0.952   0.907   0.877   1.004   0.705   0.887   0.970   1.047
   1.084   1.066   0.964   1.084   0.951   1.084   0.964   1.066   1.084   1.047
   0.970   0.887   0.705   1.004   0.877   0.907   0.952   1.077   1.001   0.971
   0.893   1.091
   1.017   0.970   1.011   0.953   1.017   1.187   0.940   1.032   0.814   1.010
   0.784   1.131   1.088   0.935   1.072   1.048   0.940   1.170   1.086   1.170
   0.940   1.048   1.072   0.935   1.088   1.131   0.784   1.010   0.814   1.032
   0.940   1.187   1.017   0.953   1.011   0.970   1.017   0.970   1.011   0.953
   1.017   1.187   0.940   1.032   0.814   1.010   0.784   1.131   1.088   0.935
   1.072   1.048   0.940   1.170   1.086   1.170   0.940   1.048   1.072   0.935
   1.088   1.131   0.784   1.010   0.814   1.032   0.940   1.187   1.017   0.953
   1.011   0.970
   0.939   1.015   1.288   1.175   1.070   1.251   1.020   1.028   0.997   0.958
   0.980   1.287   1.122   0.886   1.037   1.155   1.005   1.230   1.227   1.230
   1.005   1.155   1.037   0.886   1.122   1.287   0.980   0.958   0.997   1.028
   1.020   1.251   1.070   1.175   1.288   1.015   0.939   1.015   1.288   1.175
   1.070   1.251   1.020   1.028   0.997   0.958   0.980   1.287   1.122   0.886
   1.037   1.155   1.005   1.230   1.227   1.230   1.005   1.155   1.037   0.886
   1.122   1.287   0.980   0.958   0.997   1.028   1.020   1.251   1.070   1.175
   1.288   1.015
   1.258   1.241   1.265   1.315   1.157   1.063   1.046   1.269   1.018   0.904
   1.036   1.140   1.011   0.945   1.030   1.304   0.951   1.273   1.254   1.273
   0.951   1.304   1.030   0.945   1.011   1.140   1.036   0.904   1.018   1.269
   1.046   1.063   1.157   1.315   1.265   1.241   1.258   1.241   1.265   1.315
   1.157   1.063   1.046   1.269   1.018   0.904   1.036   1.140   1.011   0.945
   1.030   1.304   0.951   1.273   1.254   1.273   0.951   1.304   1.030   0.945
   1.011   1.140   1.036   0.904   1.018   1.269   1.046   1.063   1.157   1.315
   1.265   1.241
   1.426   1.357   0.999   1.230   1.044   0.932   1.059   1.209   1.047   0.983
   0.953   0.991   0.979   0.955   0.964   1.271   1.054   1.211   1.264   1.211
   1.054   1.271   0.964   0.955   0.979   0.991   0.953   0.983   1.047   1.209
   1.059   0.932   1.044   1.230   0.999   1.357   1.426   1.357   0.999   1.230
   1.044   0.932   1.059   1.209   1.047   0.983   0.953   0.991   0.979   0.955
   0.964   1.271   1.054   1.211   1.264   1.211   1.054   1.271   0.964   0.955
   0.979   0.991   0.953   0.983   1.047   1.209   1.059   0.932   1.044   1.230
   0.999   1.357
   1.166   1.115   1.110   1.006   0.993   1.056   1.022   1.010   1.165   1.012
   0.997   0.799   1.023   1.142   0.844   1.115   1.072   1.087   1.424   1.087
   1.072   1.115   0.844   1.142   1.023   0.799   0.997   1.012   1.165   1.010
   1.022   1.056   0.993   1.006   1.110   1.115   1.166   1.115   1.110   1.006
   0.993   1.056   1.022   1.010   1.165   1.012   0.997   0.799   1.023   1.142
   0.844   1.115   1.072   1.087   1.424   1.087   1.072   1.115   0.844   1.142
   1.023   0.799   0.997   1.012   1.165   1.010   1.022   1.056   0.993   1.006
   1.110   1.115
   1.001   0.897   1.017   0.891   0.920   0.979   0.816   1.096   0.987   0.952
   0.896   0.739   0.964   1.327   1.020   1.047   0.898   1.086   1.170   1.086
   0.898   1.047   1.020   1.327   0.964   0.739   0.896   0.952   0.987   1.096
   0.816   0.979   0.920   0.891   1.017   0.897   1.001   0.897   1.017   0.891
   0.920   0.979   0.816   1.096   0.987   0.952   0.896   0.739   0.964   1.327
   1.020   1.047   0.898   1.086   1.170   1.086   0.898   1.047   1.020   1.327
   0.964   0.739   0.896   0.952   0.987   1.096   0.816   0.979   0.920   0.891
   1.017   0.897
  4  1      3.6680685E-01
  4  2      5.2719245E-02
  4  3     -4.5760404E-02
  6  1     -1.5009478E-01
  6  2      9.3047142E-02
  6  3     -2.4289235E-01
  6  4      1.0434442E-01
  8  1      1.0766040E-01
  8  2      1.0909766E-01
  8  3     -4.1523340E-02
  8  4      1.3913136E-01
  8  5     -4.4865103E-02
 10  1      2.0627097E-02
 10  2      7.1273970E-02
 10  3      5.5738496E-02
 10  4     -7.9325557E-03
 10  5     -1.0593873E-02
 10  6      2.2063612E-01
 12  1      1.0138447E-01  2.6357441E-01
 12  2      2.7541316E-02 -8.5274940E-02
 12  3      6.0877256E-02  2.9455255E-02
 12  4     -9.3546412E-02 -1.8873922E-01
 12  5     -5.5514278E-02 -6.0804339E-02
 12  6      1.6305679E-02 -6.1865672E-02
 12  7     -1.3285164E-01 -4.3316239E-01
 14  1     -1.7318491E-03
 14  2     -4.7349823E-02
 14  3      5.7042166E-02
 14  4     -9.5743084E-02
 14  5      1.0251660E-01
 14  6      9.5820926E-02
 14  7     -2.5092607E-01
 14  8      4.4273238E-01
 220       5.00   72    0 5.00   18    0
   0.981   0.981   0.981   0.981   0.981   0.981   0.982   0.982   0.982   0.982
   0.983   0.983   0.983   0.984   0.984   0.984   0.984   0.984   0.984   0.984
   0.984   0.984   0.984   0.984   0.983   0.983   0.983   0.982   0.982   0.982
   0.982   0.981   0.981   0.981   0.981   0.981   0.981   0.981   0.981   0.981
   0.981   0.981   0.982   0.982   0.982   0.982   0.983   0.983   0.983   0.984
   0.984   0.984   0.984   0.984   0.984   0.984   0.984   0.984   0.984   0.984
   0.983   0.983   0.983   0.982   0.982   0.982   0.982   0.981   0.981   0.981
   0.981   0.981
   0.928   0.929   0.929   0.930   0.931   0.932   0.934   0.936   0.938   0.940
   0.942   0.944   0.946   0.947   0.949   0.950   0.951   0.952   0.952   0.952
   0.951   0.950   0.949   0.947   0.946   0.944   0.942   0.940   0.938   0.936
   0.934   0.932   0.931   0.930   0.929   0.929   0.928   0.929   0.929   0.930
   0.931   0.932   0.934   0.936   0.938   0.940   0.942   0.944   0.946   0.947
   0.949   0.950   0.951   0.952   0.952   0.952   0.951   0.950   0.949   0.947
   0.946   0.944   0.942   0.940   0.938   0.936   0.934   0.932   0.931   0.930
   0.929   0.929
   0.885   0.885   0.886   0.887   0.888   0.889   0.890   0.892   0.893   0.894
   0.895   0.897   0.899   0.901   0.903   0.905   0.907   0.908   0.908   0.908
   0.907   0.905   0.903   0.901   0.899   0.897   0.895   0.894   0.893   0.892
   0.890   0.889   0.888   0.887   0.886   0.885   0.885   0.885   0.886   0.887
   0.888   0.889   0.890   0.892   0.893   0.894   0.895   0.897   0.899   0.901
   0.903   0.905   0.907   0.908   0.908   0.908   0.907   0.905   0.903   0.901
   0.899   0.897   0.895   0.894   0.893   0.892   0.890   0.889   0.888   0.887
   0.886   0.885
   0.905   0.906   0.907   0.908   0.909   0.909   0.908   0.904   0.899   0.894
   0.888   0.883   0.879   0.877   0.877   0.879   0.880   0.882   0.882   0.882
   0.880   0.879   0.877   0.877   0.879   0.883   0.888   0.894   0.899   0.904
   0.908   0.909   0.909   0.908   0.907   0.906   0.905   0.906   0.907   0.908
   0.909   0.909   0.908   0.904   0.899   0.894   0.888   0.883   0.879   0.877
   0.877   0.879   0.880   0.882   0.882   0.882   0.880   0.879   0.877   0.877
   0.879   0.883   0.888   0.894   0.899   0.904   0.908   0.909   0.909   0.908
   0.907   0.906
   0.978   0.980   0.984   0.990   0.994   0.996   0.994   0.985   0.971   0.954
   0.935   0.917   0.902   0.893   0.889   0.889   0.892   0.894   0.896   0.894
   0.892   0.889   0.889   0.893   0.902   0.917   0.935   0.954   0.971   0.985
   0.994   0.996   0.994   0.990   0.984   0.980   0.978   0.980   0.984   0.990
   0.994   0.996   0.994   0.985   0.971   0.954   0.935   0.917   0.902   0.893
   0.889   0.889   0.892   0.894   0.896   0.894   0.892   0.889   0.889   0.893
   0.902   0.917   0.935   0.954   0.971   0.985   0.994   0.996   0.994   0.990
   0.984   0.980
   1.039   1.043   1.053   1.068   1.083   1.094   1.098   1.091   1.073   1.046
   1.014   0.982   0.956   0.939   0.931   0.932   0.936   0.941   0.943   0.941
   0.936   0.932   0.931   0.939   0.956   0.982   1.014   1.046   1.073   1.091
   1.098   1.094   1.083   1.068   1.053   1.043   1.039   1.043   1.053   1.068
   1.083   1.094   1.098   1.091   1.073   1.046   1.014   0.982   0.956   0.939
   0.931   0.932   0.936   0.941   0.943   0.941   0.936   0.932   0.931   0.939
   0.956   0.982   1.014   1.046   1.073   1.091   1.098   1.094   1.083   1.068
   1.053   1.043
   1.038   1.044   1.059   1.083   1.110   1.135   1.153   1.158   1.147   1.121
   1.086   1.047   1.015   0.992   0.983   0.983   0.988   0.993   0.996   0.993
   0.988   0.983   0.983   0.992   1.015   1.047   1.086   1.121   1.147   1.158
   1.153   1.135   1.110   1.083   1.059   1.044   1.038   1.044   1.059   1.083
   1.110   1.135   1.153   1.158   1.147   1.121   1.086   1.047   1.015   0.992
   0.983   0.983   0.988   0.993   0.996   0.993   0.988   0.983   0.983   0.992
   1.015   1.047   1.086   1.121   1.147   1.158   1.153   1.135   1.110   1.083
   1.059   1.044
   0.987   0.993   1.008   1.032   1.063   1.097   1.128   1.151   1.158   1.148
   1.123   1.090   1.060   1.037   1.025   1.019   1.018   1.017   1.017   1.017
   1.018   1.019   1.025   1.037   1.060   1.090   1.123   1.148   1.158   1.151
   1.128   1.097   1.063   1.032   1.008   0.993   0.987   0.993   1.008   1.032
   1.063   1.097   1.128   1.151   1.158   1.148   1.123   1.090   1.060   1.037
   1.025   1.019   1.018   1.017   1.017   1.017   1.018   1.019   1.025   1.037
   1.060   1.090   1.123   1.148   1.158   1.151   1.128   1.097   1.063   1.032
   1.008   0.993
   0.940   0.943   0.952   0.968   0.989   1.018   1.054   1.091   1.121   1.134
   1.130   1.112   1.090   1.071   1.054   1.035   1.015   0.997   0.990   0.997
   1.015   1.035   1.054   1.071   1.090   1.112   1.130   1.134   1.121   1.091
   1.054   1.018   0.989   0.968   0.952   0.943   0.940   0.943   0.952   0.968
   0.989   1.018   1.054   1.091   1.121   1.134   1.130   1.112   1.090   1.071
   1.054   1.035   1.015   0.997   0.990   0.997   1.015   1.035   1.054   1.071
   1.090   1.112   1.130   1.134   1.121   1.091   1.054   1.018   0.989   0.968
   0.952   0.943
   0.929   0.932   0.939   0.945   0.950   0.961   0.987   1.029   1.077   1.114
   1.129   1.125   1.112   1.096   1.075   1.039   0.991   0.948   0.930   0.948
   0.991   1.039   1.075   1.096   1.112   1.125   1.129   1.114   1.077   1.029
   0.987   0.961   0.950   0.945   0.939   0.932   0.929   0.932   0.939   0.945
   0.950   0.961   0.987   1.029   1.077   1.114   1.129   1.125   1.112   1.096
   1.075   1.039   0.991   0.948   0.930   0.948   0.991   1.039   1.075   1.096
   1.112   1.125   1.129   1.114   1.077   1.029   0.987   0.961   0.950   0.945
   0.939   0.932
   0.943   0.951   0.966   0.973   0.965   0.952   0.958   0.996   1.055   1.108
   1.134   1.131   1.118   1.106   1.086   1.041   0.970   0.899   0.870   0.899
   0.970   1.041   1.086   1.106   1.118   1.131   1.134   1.108   1.055   0.996
   0.958   0.952   0.965   0.973   0.966   0.951   0.943   0.951   0.966   0.973
   0.965   0.952   0.958   0.996   1.055   1.108   1.134   1.131   1.118   1.106
   1.086   1.041   0.970   0.899   0.870   0.899   0.970   1.041   1.086   1.106
   1.118   1.131   1.134   1.108   1.055   0.996   0.958   0.952   0.965   0.973
   0.966   0.951
   0.946   0.962   0.997   1.018   1.004   0.969   0.950   0.978   1.046   1.112
   1.137   1.120   1.093   1.083   1.078   1.043   0.964   0.875   0.836   0.875
   0.964   1.043   1.078   1.083   1.093   1.120   1.137   1.112   1.046   0.978
   0.950   0.969   1.004   1.018   0.997   0.962   0.946   0.962   0.997   1.018
   1.004   0.969   0.950   0.978   1.046   1.112   1.137   1.120   1.093   1.083
   1.078   1.043   0.964   0.875   0.836   0.875   0.964   1.043   1.078   1.083
   1.093   1.120   1.137   1.112   1.046   0.978   0.950   0.969   1.004   1.018
   0.997   0.962
   0.925   0.950   1.004   1.041   1.026   0.970   0.927   0.946   1.023   1.102
   1.123   1.080   1.029   1.020   1.044   1.042   0.975   0.879   0.834   0.879
   0.975   1.042   1.044   1.020   1.029   1.080   1.123   1.102   1.023   0.946
   0.927   0.970   1.026   1.041   1.004   0.950   0.925   0.950   1.004   1.041
   1.026   0.970   0.927   0.946   1.023   1.102   1.123   1.080   1.029   1.020
   1.044   1.042   0.975   0.879   0.834   0.879   0.975   1.042   1.044   1.020
   1.029   1.080   1.123   1.102   1.023   0.946   0.927   0.970   1.026   1.041
   1.004   0.950
   0.907   0.933   0.992   1.034   1.017   0.947   0.883   0.890   0.976   1.070
   1.087   1.020   0.944   0.940   1.001   1.043   0.997   0.899   0.848   0.899
   0.997   1.043   1.001   0.940   0.944   1.020   1.087   1.070   0.976   0.890
   0.883   0.947   1.017   1.034   0.992   0.933   0.907   0.933   0.992   1.034
   1.017   0.947   0.883   0.890   0.976   1.070   1.087   1.020   0.944   0.940
   1.001   1.043   0.997   0.899   0.848   0.899   0.997   1.043   1.001   0.940
   0.944   1.020   1.087   1.070   0.976   0.890   0.883   0.947   1.017   1.034
   0.992   0.933
   0.928   0.946   0.988   1.021   1.004   0.930   0.849   0.841   0.925   1.029
   1.049   0.967   0.876   0.882   0.981   1.061   1.028   0.918   0.859   0.918
   1.028   1.061   0.981   0.882   0.876   0.967   1.049   1.029   0.925   0.841
   0.849   0.930   1.004   1.021   0.988   0.946   0.928   0.946   0.988   1.021
   1.004   0.930   0.849   0.841   0.925   1.029   1.049   0.967   0.876   0.882
   0.981   1.061   1.028   0.918   0.859   0.918   1.028   1.061   0.981   0.882
   0.876   0.967   1.049   1.029   0.925   0.841   0.849   0.930   1.004   1.021
   0.988   0.946
   0.997   1.000   1.012   1.029   1.018   0.952   0.864   0.833   0.902   1.005
   1.031   0.948   0.856   0.876   1.005   1.106   1.067   0.933   0.859   0.933
   1.067   1.106   1.005   0.876   0.856   0.948   1.031   1.005   0.902   0.833
   0.864   0.952   1.018   1.029   1.012   1.000   0.997   1.000   1.012   1.029
   1.018   0.952   0.864   0.833   0.902   1.005   1.031   0.948   0.856   0.876
   1.005   1.106   1.067   0.933   0.859   0.933   1.067   1.106   1.005   0.876
   0.856   0.948   1.031   1.005   0.902   0.833   0.864   0.952   1.018   1.029
   1.012   1.000
   1.085   1.072   1.053   1.056   1.058   1.011   0.921   0.868   0.912   1.006
   1.037   0.962   0.879   0.914   1.060   1.166   1.107   0.941   0.853   0.941
   1.107   1.166   1.060   0.914   0.879   0.962   1.037   1.006   0.912   0.868
   0.921   1.011   1.058   1.056   1.053   1.072   1.085   1.072   1.053   1.056
   1.058   1.011   0.921   0.868   0.912   1.006   1.037   0.962   0.879   0.914
   1.060   1.166   1.107   0.941   0.853   0.941   1.107   1.166   1.060   0.914
   0.879   0.962   1.037   1.006   0.912   0.868   0.921   1.011   1.058   1.056
   1.053   1.072
   1.146   1.123   1.086   1.081   1.094   1.062   0.974   0.906   0.931   1.017
   1.049   0.982   0.907   0.952   1.107   1.210   1.134   0.946   0.847   0.946
   1.134   1.210   1.107   0.952   0.907   0.982   1.049   1.017   0.931   0.906
   0.974   1.062   1.094   1.081   1.086   1.123   1.146   1.123   1.086   1.081
   1.094   1.062   0.974   0.906   0.931   1.017   1.049   0.982   0.907   0.952
   1.107   1.210   1.134   0.946   0.847   0.946   1.134   1.210   1.107   0.952
   0.907   0.982   1.049   1.017   0.931   0.906   0.974   1.062   1.094   1.081
   1.086   1.123
 200       5.00   72    0 5.00   18    0
   1.517   1.517   1.517   1.517   1.517   1.517   1.516   1.516   1.516   1.515
   1.515   1.515   1.514   1.514   1.514   1.514   1.514   1.513   1.513   1.513
   1.514   1.514   1.514   1.514   1.514   1.515   1.515   1.515   1.516   1.516
   1.516   1.517   1.517   1.517   1.517   1.517   1.517   1.517   1.517   1.517
   1.517   1.517   1.516   1.516   1.516   1.515   1.515   1.515   1.514   1.514
   1.514   1.514   1.514   1.513   1.513   1.513   1.514   1.514   1.514   1.514
   1.514   1.515   1.515   1.515   1.516   1.516   1.516   1.517   1.517   1.517
   1.517   1.517
   1.421   1.421   1.420   1.419   1.418   1.416   1.414   1.412   1.409   1.407
   1.404   1.402   1.400   1.398   1.396   1.394   1.393   1.392   1.392   1.392
   1.393   1.394   1.396   1.398   1.400   1.402   1.404   1.407   1.409   1.412
   1.414   1.416   1.418   1.419   1.420   1.421   1.421   1.421   1.420   1.419
   1.418   1.416   1.414   1.412   1.409   1.407   1.404   1.402   1.400   1.398
   1.396   1.394   1.393   1.392   1.392   1.392   1.393   1.394   1.396   1.398
   1.400   1.402   1.404   1.407   1.409   1.412   1.414   1.416   1.418   1.419
   1.420   1.421
   1.277   1.276   1.275   1.274   1.271   1.268   1.264   1.260   1.256   1.251
   1.246   1.241   1.237   1.233   1.229   1.226   1.224   1.222   1.222   1.222
   1.224   1.226   1.229   1.233   1.237   1.241   1.246   1.251   1.256   1.260
   1.264   1.268   1.271   1.274   1.275   1.276   1.277   1.276   1.275   1.274
   1.271   1.268   1.264   1.260   1.256   1.251   1.246   1.241   1.237   1.233
   1.229   1.226   1.224   1.222   1.222   1.222   1.224   1.226   1.229   1.233
   1.237   1.241   1.246   1.251   1.256   1.260   1.264   1.268   1.271   1.274
   1.275   1.276
   1.149   1.149   1.148   1.146   1.144   1.140   1.136   1.131   1.125   1.119
   1.114   1.109   1.104   1.099   1.095   1.091   1.089   1.087   1.086   1.087
   1.089   1.091   1.095   1.099   1.104   1.109   1.114   1.119   1.125   1.131
   1.136   1.140   1.144   1.146   1.148   1.149   1.149   1.149   1.148   1.146
   1.144   1.140   1.136   1.131   1.125   1.119   1.114   1.109   1.104   1.099
   1.095   1.091   1.089   1.087   1.086   1.087   1.089   1.091   1.095   1.099
   1.104   1.109   1.114   1.119   1.125   1.131   1.136   1.140   1.144   1.146
   1.148   1.149
   1.073   1.073   1.074   1.074   1.073   1.069   1.063   1.056   1.048   1.041
   1.036   1.032   1.030   1.027   1.025   1.023   1.021   1.019   1.019   1.019
   1.021   1.023   1.025   1.027   1.030   1.032   1.036   1.041   1.048   1.056
   1.063   1.069   1.073   1.074   1.074   1.073   1.073   1.073   1.074   1.074
   1.073   1.069   1.063   1.056   1.048   1.041   1.036   1.032   1.030   1.027
   1.025   1.023   1.021   1.019   1.019   1.019   1.021   1.023   1.025   1.027
   1.030   1.032   1.036   1.041   1.048   1.056   1.063   1.069   1.073   1.074
   1.074   1.073
   1.029   1.032   1.038   1.044   1.047   1.044   1.034   1.021   1.007   0.996
   0.990   0.988   0.990   0.993   0.995   0.995   0.993   0.992   0.991   0.992
   0.993   0.995   0.995   0.993   0.990   0.988   0.990   0.996   1.007   1.021
   1.034   1.044   1.047   1.044   1.038   1.032   1.029   1.032   1.038   1.044
   1.047   1.044   1.034   1.021   1.007   0.996   0.990   0.988   0.990   0.993
   0.995   0.995   0.993   0.992   0.991   0.992   0.993   0.995   0.995   0.993
   0.990   0.988   0.990   0.996   1.007   1.021   1.034   1.044   1.047   1.044
   1.038   1.032
   0.973   0.980   0.997   1.016   1.029   1.027   1.012   0.988   0.963   0.946
   0.939   0.942   0.951   0.959   0.964   0.964   0.963   0.960   0.959   0.960
   0.963   0.964   0.964   0.959   0.951   0.942   0.939   0.946   0.963   0.988
   1.012   1.027   1.029   1.016   0.997   0.980   0.973   0.980   0.997   1.016
   1.029   1.027   1.012   0.988   0.963   0.946   0.939   0.942   0.951   0.959
   0.964   0.964   0.963   0.960   0.959   0.960   0.963   0.964   0.964   0.959
   0.951   0.942   0.939   0.946   0.963   0.988   1.012   1.027   1.029   1.016
   0.997   0.980
   0.890   0.902   0.932   0.966   0.989   0.990   0.969   0.934   0.901   0.881
   0.880   0.892   0.908   0.920   0.923   0.921   0.916   0.912   0.911   0.912
   0.916   0.921   0.923   0.920   0.908   0.892   0.880   0.881   0.901   0.934
   0.969   0.990   0.989   0.966   0.932   0.902   0.890   0.902   0.932   0.966
   0.989   0.990   0.969   0.934   0.901   0.881   0.880   0.892   0.908   0.920
   0.923   0.921   0.916   0.912   0.911   0.912   0.916   0.921   0.923   0.920
   0.908   0.892   0.880   0.881   0.901   0.934   0.969   0.990   0.989   0.966
   0.932   0.902
   0.828   0.841   0.875   0.913   0.937   0.934   0.906   0.866   0.834   0.825
   0.841   0.869   0.894   0.903   0.897   0.886   0.877   0.873   0.873   0.873
   0.877   0.886   0.897   0.903   0.894   0.869   0.841   0.825   0.834   0.866
   0.906   0.934   0.937   0.913   0.875   0.841   0.828   0.841   0.875   0.913
   0.937   0.934   0.906   0.866   0.834   0.825   0.841   0.869   0.894   0.903
   0.897   0.886   0.877   0.873   0.873   0.873   0.877   0.886   0.897   0.903
   0.894   0.869   0.841   0.825   0.834   0.866   0.906   0.934   0.937   0.913
   0.875   0.841
   0.854   0.862   0.880   0.898   0.901   0.883   0.847   0.808   0.789   0.802
   0.846   0.897   0.929   0.929   0.905   0.880   0.869   0.871   0.874   0.871
   0.869   0.880   0.905   0.929   0.929   0.897   0.846   0.802   0.789   0.808
   0.847   0.883   0.901   0.898   0.880   0.862   0.854   0.862   0.880   0.898
   0.901   0.883   0.847   0.808   0.789   0.802   0.846   0.897   0.929   0.929
   0.905   0.880   0.869   0.871   0.874   0.871   0.869   0.880   0.905   0.929
   0.929   0.897   0.846   0.802   0.789   0.808   0.847   0.883   0.901   0.898
   0.880   0.862
   0.978   0.974   0.960   0.936   0.903   0.861   0.819   0.788   0.784   0.820
   0.888   0.958   0.994   0.980   0.934   0.895   0.887   0.902   0.912   0.902
   0.887   0.895   0.934   0.980   0.994   0.958   0.888   0.820   0.784   0.788
   0.819   0.861   0.903   0.936   0.960   0.974   0.978   0.974   0.960   0.936
   0.903   0.861   0.819   0.788   0.784   0.820   0.888   0.958   0.994   0.980
   0.934   0.895   0.887   0.902   0.912   0.902   0.887   0.895   0.934   0.980
   0.994   0.958   0.888   0.820   0.784   0.788   0.819   0.861   0.903   0.936
   0.960   0.974
   1.112   1.098   1.059   1.001   0.935   0.879   0.839   0.819   0.824   0.861
   0.929   1.002   1.037   1.013   0.950   0.903   0.904   0.937   0.956   0.937
   0.904   0.903   0.950   1.013   1.037   1.002   0.929   0.861   0.824   0.819
   0.839   0.879   0.935   1.001   1.059   1.098   1.112   1.098   1.059   1.001
   0.935   0.879   0.839   0.819   0.824   0.861   0.929   1.002   1.037   1.013
   0.950   0.903   0.904   0.937   0.956   0.937   0.904   0.903   0.950   1.013
   1.037   1.002   0.929   0.861   0.824   0.819   0.839   0.879   0.935   1.001
   1.059   1.098
   1.137   1.130   1.101   1.046   0.977   0.923   0.899   0.896   0.898   0.908
   0.943   0.995   1.027   1.002   0.937   0.889   0.901   0.952   0.981   0.952
   0.901   0.889   0.937   1.002   1.027   0.995   0.943   0.908   0.898   0.896
   0.899   0.923   0.977   1.046   1.101   1.130   1.137   1.130   1.101   1.046
   0.977   0.923   0.899   0.896   0.898   0.908   0.943   0.995   1.027   1.002
   0.937   0.889   0.901   0.952   0.981   0.952   0.901   0.889   0.937   1.002
   1.027   0.995   0.943   0.908   0.898   0.896   0.899   0.923   0.977   1.046
   1.101   1.130
   1.013   1.034   1.066   1.061   1.014   0.971   0.970   0.992   0.994   0.964
   0.940   0.953   0.980   0.970   0.917   0.875   0.894   0.955   0.989   0.955
   0.894   0.875   0.917   0.970   0.980   0.953   0.940   0.964   0.994   0.992
   0.970   0.971   1.014   1.061   1.066   1.034   1.013   1.034   1.066   1.061
   1.014   0.971   0.970   0.992   0.994   0.964   0.940   0.953   0.980   0.970
   0.917   0.875   0.894   0.955   0.989   0.955   0.894   0.875   0.917   0.970
   0.980   0.953   0.940   0.964   0.994   0.992   0.970   0.971   1.014   1.061
   1.066   1.034
   0.817   0.883   1.013   1.084   1.054   1.002   1.012   1.072   1.095   1.040
   0.959   0.927   0.951   0.967   0.937   0.901   0.916   0.974   1.007   0.974
   0.916   0.901   0.937   0.967   0.951   0.927   0.959   1.040   1.095   1.072
   1.012   1.002   1.054   1.084   1.013   0.883   0.817   0.883   1.013   1.084
   1.054   1.002   1.012   1.072   1.095   1.040   0.959   0.927   0.951   0.967
   0.937   0.901   0.916   0.974   1.007   0.974   0.916   0.901   0.937   0.967
   0.951   0.927   0.959   1.040   1.095   1.072   1.012   1.002   1.054   1.084
   1.013   0.883
   0.671   0.787   1.021   1.155   1.111   1.010   1.007   1.110   1.186   1.140
   1.023   0.957   0.981   1.025   1.020   0.985   0.986   1.029   1.056   1.029
   0.986   0.985   1.020   1.025   0.981   0.957   1.023   1.140   1.186   1.110
   1.007   1.010   1.111   1.155   1.021   0.787   0.671   0.787   1.021   1.155
   1.111   1.010   1.007   1.110   1.186   1.140   1.023   0.957   0.981   1.025
   1.020   0.985   0.986   1.029   1.056   1.029   0.986   0.985   1.020   1.025
   0.981   0.957   1.023   1.140   1.186   1.110   1.007   1.010   1.111   1.155
   1.021   0.787
   0.630   0.787   1.099   1.267   1.177   1.000   0.968   1.110   1.251   1.240
   1.117   1.032   1.057   1.122   1.135   1.098   1.080   1.104   1.124   1.104
   1.080   1.098   1.135   1.122   1.057   1.032   1.117   1.240   1.251   1.110
   0.968   1.000   1.177   1.267   1.099   0.787   0.630   0.787   1.099   1.267
   1.177   1.000   0.968   1.110   1.251   1.240   1.117   1.032   1.057   1.122
   1.135   1.098   1.080   1.104   1.124   1.104   1.080   1.098   1.135   1.122
   1.057   1.032   1.117   1.240   1.251   1.110   0.968   1.000   1.177   1.267
   1.099   0.787
   0.645   0.824   1.177   1.354   1.224   0.989   0.931   1.097   1.285   1.305
   1.186   1.094   1.121   1.198   1.219   1.179   1.148   1.159   1.173   1.159
   1.148   1.179   1.219   1.198   1.121   1.094   1.186   1.305   1.285   1.097
   0.931   0.989   1.224   1.354   1.177   0.824   0.645   0.824   1.177   1.354
   1.224   0.989   0.931   1.097   1.285   1.305   1.186   1.094   1.121   1.198
   1.219   1.179   1.148   1.159   1.173   1.159   1.148   1.179   1.219   1.198
   1.121   1.094   1.186   1.305   1.285   1.097   0.931   0.989   1.224   1.354
   1.177   0.824
 111       5.00   72    0 5.00   18    0
   1.035   1.035   1.035   1.035   1.035   1.035   1.035   1.035   1.034   1.034
   1.034   1.034   1.034   1.034   1.034   1.033   1.033   1.033   1.033   1.033
   1.033   1.033   1.034   1.034   1.034   1.034   1.034   1.034   1.034   1.035
   1.035   1.035   1.035   1.035   1.035   1.035   1.035   1.035   1.035   1.035
   1.035   1.035   1.035   1.035   1.034   1.034   1.034   1.034   1.034   1.034
   1.034   1.033   1.033   1.033   1.033   1.033   1.033   1.033   1.034   1.034
   1.034   1.034   1.034   1.034   1.034   1.035   1.035   1.035   1.035   1.035
   1.035   1.035
   0.979   0.979   0.979   0.979   0.978   0.978   0.977   0.976   0.975   0.974
   0.973   0.973   0.972   0.971   0.970   0.969   0.969   0.968   0.968   0.968
   0.969   0.969   0.970   0.971   0.972   0.973   0.973   0.974   0.975   0.976
   0.977   0.978   0.978   0.979   0.979   0.979   0.979   0.979   0.979   0.979
   0.978   0.978   0.977   0.976   0.975   0.974   0.973   0.973   0.972   0.971
   0.970   0.969   0.969   0.968   0.968   0.968   0.969   0.969   0.970   0.971
   0.972   0.973   0.973   0.974   0.975   0.976   0.977   0.978   0.978   0.979
   0.979   0.979
   0.906   0.906   0.906   0.906   0.905   0.904   0.904   0.903   0.902   0.901
   0.900   0.899   0.898   0.896   0.895   0.894   0.893   0.893   0.893   0.893
   0.893   0.894   0.895   0.896   0.898   0.899   0.900   0.901   0.902   0.903
   0.904   0.904   0.905   0.906   0.906   0.906   0.906   0.906   0.906   0.906
   0.905   0.904   0.904   0.903   0.902   0.901   0.900   0.899   0.898   0.896
   0.895   0.894   0.893   0.893   0.893   0.893   0.893   0.894   0.895   0.896
   0.898   0.899   0.900   0.901   0.902   0.903   0.904   0.904   0.905   0.906
   0.906   0.906
   0.867   0.866   0.866   0.865   0.864   0.863   0.863   0.862   0.863   0.864
   0.865   0.866   0.868   0.869   0.870   0.870   0.870   0.870   0.870   0.870
   0.870   0.870   0.870   0.869   0.868   0.866   0.865   0.864   0.863   0.862
   0.863   0.863   0.864   0.865   0.866   0.866   0.867   0.866   0.866   0.865
   0.864   0.863   0.863   0.862   0.863   0.864   0.865   0.866   0.868   0.869
   0.870   0.870   0.870   0.870   0.870   0.870   0.870   0.870   0.870   0.869
   0.868   0.866   0.865   0.864   0.863   0.862   0.863   0.863   0.864   0.865
   0.866   0.866
   0.887   0.886   0.885   0.883   0.880   0.876   0.873   0.870   0.870   0.873
   0.880   0.888   0.897   0.905   0.912   0.917   0.920   0.922   0.923   0.922
   0.920   0.917   0.912   0.905   0.897   0.888   0.880   0.873   0.870   0.870
   0.873   0.876   0.880   0.883   0.885   0.886   0.887   0.886   0.885   0.883
   0.880   0.876   0.873   0.870   0.870   0.873   0.880   0.888   0.897   0.905
   0.912   0.917   0.920   0.922   0.923   0.922   0.920   0.917   0.912   0.905
   0.897   0.888   0.880   0.873   0.870   0.870   0.873   0.876   0.880   0.883
   0.885   0.886
   0.944   0.944   0.944   0.942   0.937   0.927   0.916   0.905   0.900   0.903
   0.914   0.931   0.953   0.974   0.992   1.006   1.016   1.021   1.022   1.021
   1.016   1.006   0.992   0.974   0.953   0.931   0.914   0.903   0.900   0.905
   0.916   0.927   0.937   0.942   0.944   0.944   0.944   0.944   0.944   0.942
   0.937   0.927   0.916   0.905   0.900   0.903   0.914   0.931   0.953   0.974
   0.992   1.006   1.016   1.021   1.022   1.021   1.016   1.006   0.992   0.974
   0.953   0.931   0.914   0.903   0.900   0.905   0.916   0.927   0.937   0.942
   0.944   0.944
   0.989   0.991   0.997   1.002   0.998   0.984   0.961   0.938   0.921   0.919
   0.933   0.961   0.996   1.031   1.062   1.087   1.104   1.114   1.117   1.114
   1.104   1.087   1.062   1.031   0.996   0.961   0.933   0.919   0.921   0.938
   0.961   0.984   0.998   1.002   0.997   0.991   0.989   0.991   0.997   1.002
   0.998   0.984   0.961   0.938   0.921   0.919   0.933   0.961   0.996   1.031
   1.062   1.087   1.104   1.114   1.117   1.114   1.104   1.087   1.062   1.031
   0.996   0.961   0.933   0.919   0.921   0.938   0.961   0.984   0.998   1.002
   0.997   0.991
   0.994   1.001   1.018   1.035   1.039   1.024   0.993   0.955   0.927   0.919
   0.935   0.970   1.014   1.057   1.095   1.127   1.151   1.167   1.173   1.167
   1.151   1.127   1.095   1.057   1.014   0.970   0.935   0.919   0.927   0.955
   0.993   1.024   1.039   1.035   1.018   1.001   0.994   1.001   1.018   1.035
   1.039   1.024   0.993   0.955   0.927   0.919   0.935   0.970   1.014   1.057
   1.095   1.127   1.151   1.167   1.173   1.167   1.151   1.127   1.095   1.057
   1.014   0.970   0.935   0.919   0.927   0.955   0.993   1.024   1.039   1.035
   1.018   1.001
   0.993   1.003   1.027   1.052   1.062   1.048   1.012   0.967   0.932   0.924
   0.944   0.984   1.028   1.066   1.097   1.127   1.156   1.180   1.189   1.180
   1.156   1.127   1.097   1.066   1.028   0.984   0.944   0.924   0.932   0.967
   1.012   1.048   1.062   1.052   1.027   1.003   0.993   1.003   1.027   1.052
   1.062   1.048   1.012   0.967   0.932   0.924   0.944   0.984   1.028   1.066
   1.097   1.127   1.156   1.180   1.189   1.180   1.156   1.127   1.097   1.066
   1.028   0.984   0.944   0.924   0.932   0.967   1.012   1.048   1.062   1.052
   1.027   1.003
   1.046   1.052   1.067   1.082   1.085   1.067   1.029   0.984   0.952   0.948
   0.977   1.020   1.058   1.078   1.089   1.107   1.138   1.171   1.186   1.171
   1.138   1.107   1.089   1.078   1.058   1.020   0.977   0.948   0.952   0.984
   1.029   1.067   1.085   1.082   1.067   1.052   1.046   1.052   1.067   1.082
   1.085   1.067   1.029   0.984   0.952   0.948   0.977   1.020   1.058   1.078
   1.089   1.107   1.138   1.171   1.186   1.171   1.138   1.107   1.089   1.078
   1.058   1.020   0.977   0.948   0.952   0.984   1.029   1.067   1.085   1.082
   1.067   1.052
   1.166   1.162   1.150   1.132   1.111   1.083   1.048   1.009   0.981   0.982
   1.016   1.064   1.096   1.097   1.083   1.083   1.115   1.159   1.180   1.159
   1.115   1.083   1.083   1.097   1.096   1.064   1.016   0.982   0.981   1.009
   1.048   1.083   1.111   1.132   1.150   1.162   1.166   1.162   1.150   1.132
   1.111   1.083   1.048   1.009   0.981   0.982   1.016   1.064   1.096   1.097
   1.083   1.083   1.115   1.159   1.180   1.159   1.115   1.083   1.083   1.097
   1.096   1.064   1.016   0.982   0.981   1.009   1.048   1.083   1.111   1.132
   1.150   1.162
   1.279   1.264   1.223   1.170   1.122   1.089   1.064   1.036   1.008   0.998
   1.023   1.073   1.110   1.107   1.077   1.063   1.094   1.148   1.174   1.148
   1.094   1.063   1.077   1.107   1.110   1.073   1.023   0.998   1.008   1.036
   1.064   1.089   1.122   1.170   1.223   1.264   1.279   1.264   1.223   1.170
   1.122   1.089   1.064   1.036   1.008   0.998   1.023   1.073   1.110   1.107
   1.077   1.063   1.094   1.148   1.174   1.148   1.094   1.063   1.077   1.107
   1.110   1.073   1.023   0.998   1.008   1.036   1.064   1.089   1.122   1.170
   1.223   1.264
   1.279   1.264   1.218   1.153   1.097   1.071   1.070   1.062   1.027   0.983
   0.975   1.018   1.073   1.091   1.067   1.048   1.073   1.129   1.158   1.129
   1.073   1.048   1.067   1.091   1.073   1.018   0.975   0.983   1.027   1.062
   1.070   1.071   1.097   1.153   1.218   1.264   1.279   1.264   1.218   1.153
   1.097   1.071   1.070   1.062   1.027   0.983   0.975   1.018   1.073   1.091
   1.067   1.048   1.073   1.129   1.158   1.129   1.073   1.048   1.067   1.091
   1.073   1.018   0.975   0.983   1.027   1.062   1.070   1.071   1.097   1.153
   1.218   1.264
   1.131   1.132   1.121   1.080   1.032   1.022   1.056   1.084   1.048   0.958
   0.893   0.911   0.991   1.052   1.055   1.035   1.046   1.090   1.116   1.090
   1.046   1.035   1.055   1.052   0.991   0.911   0.893   0.958   1.048   1.084
   1.056   1.022   1.032   1.080   1.121   1.132   1.131   1.132   1.121   1.080
   1.032   1.022   1.056   1.084   1.048   0.958   0.893   0.911   0.991   1.052
   1.055   1.035   1.046   1.090   1.116   1.090   1.046   1.035   1.055   1.052
   0.991   0.911   0.893   0.958   1.048   1.084   1.056   1.022   1.032   1.080
   1.121   1.132
   0.912   0.945   1.000   1.003   0.959   0.948   1.016   1.099   1.086   0.959
   0.825   0.803   0.899   1.009   1.046   1.023   1.007   1.024   1.039   1.024
   1.007   1.023   1.046   1.009   0.899   0.803   0.825   0.959   1.086   1.099
   1.016   0.948   0.959   1.003   1.000   0.945   0.912   0.945   1.000   1.003
   0.959   0.948   1.016   1.099   1.086   0.959   0.825   0.803   0.899   1.009
   1.046   1.023   1.007   1.024   1.039   1.024   1.007   1.023   1.046   1.009
   0.899   0.803   0.825   0.959   1.086   1.099   1.016   0.948   0.959   1.003
   1.000   0.945
   0.743   0.814   0.940   0.979   0.911   0.866   0.952   1.101   1.141   1.003
   0.809   0.737   0.834   0.980   1.044   1.010   0.957   0.938   0.938   0.938
   0.957   1.010   1.044   0.980   0.834   0.737   0.809   1.003   1.141   1.101
   0.952   0.866   0.911   0.979   0.940   0.814   0.743   0.814   0.940   0.979
   0.911   0.866   0.952   1.101   1.141   1.003   0.809   0.737   0.834   0.980
   1.044   1.010   0.957   0.938   0.938   0.938   0.957   1.010   1.044   0.980
   0.834   0.737   0.809   1.003   1.141   1.101   0.952   0.866   0.911   0.979
   0.940   0.814
   0.681   0.783   0.965   1.016   0.899   0.797   0.883   1.093   1.199   1.074
   0.839   0.722   0.807   0.971   1.048   0.999   0.908   0.852   0.838   0.852
   0.908   0.999   1.048   0.971   0.807   0.722   0.839   1.074   1.199   1.093
   0.883   0.797   0.899   1.016   0.965   0.783   0.681   0.783   0.965   1.016
   0.899   0.797   0.883   1.093   1.199   1.074   0.839   0.722   0.807   0.971
   1.048   0.999   0.908   0.852   0.838   0.852   0.908   0.999   1.048   0.971
   0.807   0.722   0.839   1.074   1.199   1.093   0.883   0.797   0.899   1.016
   0.965   0.783
   0.684   0.802   1.012   1.062   0.904   0.758   0.836   1.084   1.236   1.127
   0.874   0.729   0.802   0.972   1.052   0.991   0.876   0.798   0.775   0.798
   0.876   0.991   1.052   0.972   0.802   0.729   0.874   1.127   1.236   1.084
   0.836   0.758   0.904   1.062   1.012   0.802   0.684   0.802   1.012   1.062
   0.904   0.758   0.836   1.084   1.236   1.127   0.874   0.729   0.802   0.972
   1.052   0.991   0.876   0.798   0.775   0.798   0.876   0.991   1.052   0.972
   0.802   0.729   0.874   1.127   1.236   1.084   0.836   0.758   0.904   1.062
   1.012   0.802
 311       5.00   72    0 5.00   18    0
   1.057   1.057   1.058   1.058   1.058   1.058   1.059   1.059   1.059   1.060
   1.060   1.060   1.061   1.061   1.061   1.062   1.062   1.062   1.062   1.062
   1.062   1.062   1.061   1.061   1.061   1.060   1.060   1.060   1.059   1.059
   1.059   1.058   1.058   1.058   1.058   1.057   1.057   1.057   1.058   1.058
   1.058   1.058   1.059   1.059   1.059   1.060   1.060   1.060   1.061   1.061
   1.061   1.062   1.062   1.062   1.062   1.062   1.062   1.062   1.061   1.061
   1.061   1.060   1.060   1.060   1.059   1.059   1.059   1.058   1.058   1.058
   1.058   1.057
   1.027   1.028   1.028   1.030   1.032   1.034   1.037   1.040   1.043   1.046
   1.049   1.052   1.055   1.057   1.059   1.060   1.061   1.062   1.062   1.062
   1.061   1.060   1.059   1.057   1.055   1.052   1.049   1.046   1.043   1.040
   1.037   1.034   1.032   1.030   1.028   1.028   1.027   1.028   1.028   1.030
   1.032   1.034   1.037   1.040   1.043   1.046   1.049   1.052   1.055   1.057
   1.059   1.060   1.061   1.062   1.062   1.062   1.061   1.060   1.059   1.057
   1.055   1.052   1.049   1.046   1.043   1.040   1.037   1.034   1.032   1.030
   1.028   1.028
   0.987   0.988   0.990   0.994   0.999   1.006   1.013   1.020   1.027   1.034
   1.041   1.047   1.052   1.056   1.059   1.061   1.063   1.064   1.064   1.064
   1.063   1.061   1.059   1.056   1.052   1.047   1.041   1.034   1.027   1.020
   1.013   1.006   0.999   0.994   0.990   0.988   0.987   0.988   0.990   0.994
   0.999   1.006   1.013   1.020   1.027   1.034   1.041   1.047   1.052   1.056
   1.059   1.061   1.063   1.064   1.064   1.064   1.063   1.061   1.059   1.056
   1.052   1.047   1.041   1.034   1.027   1.020   1.013   1.006   0.999   0.994
   0.990   0.988
   0.965   0.966   0.970   0.976   0.984   0.993   1.004   1.015   1.025   1.035
   1.044   1.051   1.057   1.061   1.063   1.064   1.064   1.064   1.064   1.064
   1.064   1.064   1.063   1.061   1.057   1.051   1.044   1.035   1.025   1.015
   1.004   0.993   0.984   0.976   0.970   0.966   0.965   0.966   0.970   0.976
   0.984   0.993   1.004   1.015   1.025   1.035   1.044   1.051   1.057   1.061
   1.063   1.064   1.064   1.064   1.064   1.064   1.064   1.064   1.063   1.061
   1.057   1.051   1.044   1.035   1.025   1.015   1.004   0.993   0.984   0.976
   0.970   0.966
   0.976   0.977   0.981   0.987   0.995   1.003   1.013   1.022   1.032   1.041
   1.049   1.056   1.061   1.063   1.063   1.061   1.059   1.057   1.056   1.057
   1.059   1.061   1.063   1.063   1.061   1.056   1.049   1.041   1.032   1.022
   1.013   1.003   0.995   0.987   0.981   0.977   0.976   0.977   0.981   0.987
   0.995   1.003   1.013   1.022   1.032   1.041   1.049   1.056   1.061   1.063
   1.063   1.061   1.059   1.057   1.056   1.057   1.059   1.061   1.063   1.063
   1.061   1.056   1.049   1.041   1.032   1.022   1.013   1.003   0.995   0.987
   0.981   0.977
   1.005   1.007   1.010   1.015   1.019   1.023   1.025   1.027   1.029   1.033
   1.038   1.043   1.047   1.048   1.047   1.044   1.041   1.038   1.037   1.038
   1.041   1.044   1.047   1.048   1.047   1.043   1.038   1.033   1.029   1.027
   1.025   1.023   1.019   1.015   1.010   1.007   1.005   1.007   1.010   1.015
   1.019   1.023   1.025   1.027   1.029   1.033   1.038   1.043   1.047   1.048
   1.047   1.044   1.041   1.038   1.037   1.038   1.041   1.044   1.047   1.048
   1.047   1.043   1.038   1.033   1.029   1.027   1.025   1.023   1.019   1.015
   1.010   1.007
   1.019   1.022   1.028   1.034   1.036   1.033   1.025   1.014   1.005   1.000
   0.999   1.003   1.007   1.011   1.012   1.012   1.012   1.011   1.011   1.011
   1.012   1.012   1.012   1.011   1.007   1.003   0.999   1.000   1.005   1.014
   1.025   1.033   1.036   1.034   1.028   1.022   1.019   1.022   1.028   1.034
   1.036   1.033   1.025   1.014   1.005   1.000   0.999   1.003   1.007   1.011
   1.012   1.012   1.012   1.011   1.011   1.011   1.012   1.012   1.012   1.011
   1.007   1.003   0.999   1.000   1.005   1.014   1.025   1.033   1.036   1.034
   1.028   1.022
   0.996   1.001   1.013   1.026   1.032   1.027   1.011   0.989   0.968   0.954
   0.949   0.951   0.956   0.962   0.968   0.974   0.981   0.987   0.990   0.987
   0.981   0.974   0.968   0.962   0.956   0.951   0.949   0.954   0.968   0.989
   1.011   1.027   1.032   1.026   1.013   1.001   0.996   1.001   1.013   1.026
   1.032   1.027   1.011   0.989   0.968   0.954   0.949   0.951   0.956   0.962
   0.968   0.974   0.981   0.987   0.990   0.987   0.981   0.974   0.968   0.962
   0.956   0.951   0.949   0.954   0.968   0.989   1.011   1.027   1.032   1.026
   1.013   1.001
   0.951   0.958   0.977   0.999   1.013   1.011   0.993   0.966   0.940   0.923
   0.917   0.918   0.921   0.924   0.930   0.943   0.961   0.978   0.985   0.978
   0.961   0.943   0.930   0.924   0.921   0.918   0.917   0.923   0.940   0.966
   0.993   1.011   1.013   0.999   0.977   0.958   0.951   0.958   0.977   0.999
   1.013   1.011   0.993   0.966   0.940   0.923   0.917   0.918   0.921   0.924
   0.930   0.943   0.961   0.978   0.985   0.978   0.961   0.943   0.930   0.924
   0.921   0.918   0.917   0.923   0.940   0.966   0.993   1.011   1.013   0.999
   0.977   0.958
   0.924   0.932   0.953   0.977   0.995   0.999   0.985   0.961   0.938   0.924
   0.921   0.923   0.920   0.913   0.912   0.926   0.956   0.987   1.000   0.987
   0.956   0.926   0.912   0.913   0.920   0.923   0.921   0.924   0.938   0.961
   0.985   0.999   0.995   0.977   0.953   0.932   0.924   0.932   0.953   0.977
   0.995   0.999   0.985   0.961   0.938   0.924   0.921   0.923   0.920   0.913
   0.912   0.926   0.956   0.987   1.000   0.987   0.956   0.926   0.912   0.913
   0.920   0.923   0.921   0.924   0.938   0.961   0.985   0.999   0.995   0.977
   0.953   0.932
   0.940   0.945   0.959   0.977   0.993   0.999   0.992   0.976   0.959   0.952
   0.955   0.958   0.950   0.930   0.914   0.924   0.962   1.008   1.028   1.008
   0.962   0.924   0.914   0.930   0.950   0.958   0.955   0.952   0.959   0.976
   0.992   0.999   0.993   0.977   0.959   0.945   0.940   0.945   0.959   0.977
   0.993   0.999   0.992   0.976   0.959   0.952   0.955   0.958   0.950   0.930
   0.914   0.924   0.962   1.008   1.028   1.008   0.962   0.924   0.914   0.930
   0.950   0.958   0.955   0.952   0.959   0.976   0.992   0.999   0.993   0.977
   0.959   0.945
   0.978   0.980   0.986   0.993   1.001   1.008   1.009   1.002   0.990   0.984
   0.990   0.998   0.990   0.961   0.931   0.932   0.975   1.031   1.058   1.031
   0.975   0.932   0.931   0.961   0.990   0.998   0.990   0.984   0.990   1.002
   1.009   1.008   1.001   0.993   0.986   0.980   0.978   0.980   0.986   0.993
   1.001   1.008   1.009   1.002   0.990   0.984   0.990   0.998   0.990   0.961
   0.931   0.932   0.975   1.031   1.058   1.031   0.975   0.932   0.931   0.961
   0.990   0.998   0.990   0.984   0.990   1.002   1.009   1.008   1.001   0.993
   0.986   0.980
   0.991   0.995   1.003   1.007   1.009   1.015   1.024   1.027   1.017   1.004
   1.004   1.016   1.018   0.993   0.957   0.948   0.989   1.051   1.080   1.051
   0.989   0.948   0.957   0.993   1.018   1.016   1.004   1.004   1.017   1.027
   1.024   1.015   1.009   1.007   1.003   0.995   0.991   0.995   1.003   1.007
   1.009   1.015   1.024   1.027   1.017   1.004   1.004   1.016   1.018   0.993
   0.957   0.948   0.989   1.051   1.080   1.051   0.989   0.948   0.957   0.993
   1.018   1.016   1.004   1.004   1.017   1.027   1.024   1.015   1.009   1.007
   1.003   0.995
   0.957   0.971   0.998   1.012   1.009   1.009   1.025   1.042   1.037   1.012
   0.997   1.008   1.025   1.016   0.984   0.968   1.000   1.060   1.090   1.060
   1.000   0.968   0.984   1.016   1.025   1.008   0.997   1.012   1.037   1.042
   1.025   1.009   1.009   1.012   0.998   0.971   0.957   0.971   0.998   1.012
   1.009   1.009   1.025   1.042   1.037   1.012   0.997   1.008   1.025   1.016
   0.984   0.968   1.000   1.060   1.090   1.060   1.000   0.968   0.984   1.016
   1.025   1.008   0.997   1.012   1.037   1.042   1.025   1.009   1.009   1.012
   0.998   0.971
   0.904   0.936   0.996   1.025   1.006   0.985   1.001   1.041   1.053   1.024
   0.989   0.990   1.019   1.030   1.007   0.984   1.003   1.054   1.081   1.054
   1.003   0.984   1.007   1.030   1.019   0.990   0.989   1.024   1.053   1.041
   1.001   0.985   1.006   1.025   0.996   0.936   0.904   0.936   0.996   1.025
   1.006   0.985   1.001   1.041   1.053   1.024   0.989   0.990   1.019   1.030
   1.007   0.984   1.003   1.054   1.081   1.054   1.003   0.984   1.007   1.030
   1.019   0.990   0.989   1.024   1.053   1.041   1.001   0.985   1.006   1.025
   0.996   0.936
   0.881   0.932   1.028   1.063   1.011   0.948   0.955   1.023   1.070   1.048
   0.996   0.981   1.012   1.038   1.022   0.992   0.995   1.033   1.055   1.033
   0.995   0.992   1.022   1.038   1.012   0.981   0.996   1.048   1.070   1.023
   0.955   0.948   1.011   1.063   1.028   0.932   0.881   0.932   1.028   1.063
   1.011   0.948   0.955   1.023   1.070   1.048   0.996   0.981   1.012   1.038
   1.022   0.992   0.995   1.033   1.055   1.033   0.995   0.992   1.022   1.038
   1.012   0.981   0.996   1.048   1.070   1.023   0.955   0.948   1.011   1.063
   1.028   0.932
   0.902   0.970   1.091   1.122   1.026   0.912   0.903   0.998   1.086   1.081
   1.018   0.984   1.009   1.041   1.029   0.991   0.980   1.004   1.022   1.004
   0.980   0.991   1.029   1.041   1.009   0.984   1.018   1.081   1.086   0.998
   0.903   0.912   1.026   1.122   1.091   0.970   0.902   0.970   1.091   1.122
   1.026   0.912   0.903   0.998   1.086   1.081   1.018   0.984   1.009   1.041
   1.029   0.991   0.980   1.004   1.022   1.004   0.980   0.991   1.029   1.041
   1.009   0.984   1.018   1.081   1.086   0.998   0.903   0.912   1.026   1.122
   1.091   0.970
   0.934   1.010   1.144   1.168   1.039   0.889   0.868   0.980   1.095   1.105
   1.037   0.992   1.010   1.043   1.031   0.987   0.967   0.984   0.999   0.984
   0.967   0.987   1.031   1.043   1.010   0.992   1.037   1.105   1.095   0.980
   0.868   0.889   1.039   1.168   1.144   1.010   0.934   1.010   1.144   1.168
   1.039   0.889   0.868   0.980   1.095   1.105   1.037   0.992   1.010   1.043
   1.031   0.987   0.967   0.984   0.999   0.984   0.967   0.987   1.031   1.043
   1.010   0.992   1.037   1.105   1.095   0.980   0.868   0.889   1.039   1.168
   1.144   1.010
TEXTURE_INDEX=   1.0530
ERR_CF 220         1080     526   12.33    8.92
ERR_CF 200         1080     610   11.72   11.01
ERR_CF 111         1080     578    9.73    9.39
