TEXEVAL                                                                         
Analysis started on 21-Sep-20 11:05:31                                          
 LMAX=14LFMAX=03 CUBIC ORTHO   
 220      5.00 5.00
 200      5.00 5.00
 111      5.00 5.00
 220       5.00   72    0 5.00   15    0
   1.661   1.661   1.661   1.661   1.661   1.661   1.661   1.661   1.661   1.661
   1.661   1.661   1.661   1.661   1.661   1.661   1.661   1.661   1.661   1.661
   1.661   1.661   1.661   1.661   1.661   1.661   1.661   1.661   1.661   1.661
   1.661   1.661   1.661   1.661   1.661   1.661   1.661   1.661   1.661   1.661
   1.661   1.661   1.661   1.661   1.661   1.661   1.661   1.661   1.661   1.661
   1.661   1.661   1.661   1.661   1.661   1.661   1.661   1.661   1.661   1.661
   1.661   1.661   1.661   1.661   1.661   1.661   1.661   1.661   1.661   1.661
   1.661   1.661
   1.048   1.185   1.146   0.962   1.025   1.148   1.173   1.120   1.158   1.260
   1.290   1.274   1.495   1.661   1.751   1.732   1.772   1.896   1.908   1.896
   1.772   1.732   1.751   1.661   1.495   1.274   1.290   1.260   1.158   1.120
   1.173   1.148   1.025   0.962   1.146   1.185   1.048   1.185   1.146   0.962
   1.025   1.148   1.173   1.120   1.158   1.260   1.290   1.274   1.495   1.661
   1.751   1.732   1.772   1.896   1.908   1.896   1.772   1.732   1.751   1.661
   1.495   1.274   1.290   1.260   1.158   1.120   1.173   1.148   1.025   0.962
   1.146   1.185
   1.192   1.062   0.900   0.846   0.826   1.023   0.884   0.949   0.955   1.063
   1.027   1.328   1.479   1.509   1.568   1.765   2.016   2.089   2.229   2.089
   2.016   1.765   1.568   1.509   1.479   1.328   1.027   1.063   0.955   0.949
   0.884   1.023   0.826   0.846   0.900   1.062   1.192   1.062   0.900   0.846
   0.826   1.023   0.884   0.949   0.955   1.063   1.027   1.328   1.479   1.509
   1.568   1.765   2.016   2.089   2.229   2.089   2.016   1.765   1.568   1.509
   1.479   1.328   1.027   1.063   0.955   0.949   0.884   1.023   0.826   0.846
   0.900   1.062
   1.445   1.134   0.953   0.862   0.821   1.082   0.954   0.926   1.119   1.116
   0.971   1.249   1.216   1.328   1.222   1.477   1.887   1.794   1.876   1.794
   1.887   1.477   1.222   1.328   1.216   1.249   0.971   1.116   1.119   0.926
   0.954   1.082   0.821   0.862   0.953   1.134   1.445   1.134   0.953   0.862
   0.821   1.082   0.954   0.926   1.119   1.116   0.971   1.249   1.216   1.328
   1.222   1.477   1.887   1.794   1.876   1.794   1.887   1.477   1.222   1.328
   1.216   1.249   0.971   1.116   1.119   0.926   0.954   1.082   0.821   0.862
   0.953   1.134
   1.343   1.097   0.983   0.944   1.008   1.280   1.191   1.013   1.207   0.942
   0.879   0.818   0.966   1.390   1.217   1.251   1.410   1.643   1.668   1.643
   1.410   1.251   1.217   1.390   0.966   0.818   0.879   0.942   1.207   1.013
   1.191   1.280   1.008   0.944   0.983   1.097   1.343   1.097   0.983   0.944
   1.008   1.280   1.191   1.013   1.207   0.942   0.879   0.818   0.966   1.390
   1.217   1.251   1.410   1.643   1.668   1.643   1.410   1.251   1.217   1.390
   0.966   0.818   0.879   0.942   1.207   1.013   1.191   1.280   1.008   0.944
   0.983   1.097
   1.431   1.122   1.119   1.138   1.102   1.275   1.205   1.146   1.045   0.793
   0.945   0.886   1.261   1.244   1.196   1.236   1.129   1.331   1.273   1.331
   1.129   1.236   1.196   1.244   1.261   0.886   0.945   0.793   1.045   1.146
   1.205   1.275   1.102   1.138   1.119   1.122   1.431   1.122   1.119   1.138
   1.102   1.275   1.205   1.146   1.045   0.793   0.945   0.886   1.261   1.244
   1.196   1.236   1.129   1.331   1.273   1.331   1.129   1.236   1.196   1.244
   1.261   0.886   0.945   0.793   1.045   1.146   1.205   1.275   1.102   1.138
   1.119   1.122
   1.187   1.135   1.115   1.259   1.088   1.130   1.067   0.894   0.932   0.867
   1.009   1.073   1.591   1.091   0.926   1.022   0.864   0.877   0.789   0.877
   0.864   1.022   0.926   1.091   1.591   1.073   1.009   0.867   0.932   0.894
   1.067   1.130   1.088   1.259   1.115   1.135   1.187   1.135   1.115   1.259
   1.088   1.130   1.067   0.894   0.932   0.867   1.009   1.073   1.591   1.091
   0.926   1.022   0.864   0.877   0.789   0.877   0.864   1.022   0.926   1.091
   1.591   1.073   1.009   0.867   0.932   0.894   1.067   1.130   1.088   1.259
   1.115   1.135
   1.008   1.265   1.156   1.077   1.095   0.995   1.003   1.029   0.835   0.728
   0.951   1.104   1.280   0.948   0.900   1.119   0.820   1.075   1.033   1.075
   0.820   1.119   0.900   0.948   1.280   1.104   0.951   0.728   0.835   1.029
   1.003   0.995   1.095   1.077   1.156   1.265   1.008   1.265   1.156   1.077
   1.095   0.995   1.003   1.029   0.835   0.728   0.951   1.104   1.280   0.948
   0.900   1.119   0.820   1.075   1.033   1.075   0.820   1.119   0.900   0.948
   1.280   1.104   0.951   0.728   0.835   1.029   1.003   0.995   1.095   1.077
   1.156   1.265
   1.438   1.450   1.496   1.063   1.372   1.049   0.937   1.066   0.766   0.715
   0.820   1.168   0.972   0.752   1.199   1.080   0.865   1.034   0.901   1.034
   0.865   1.080   1.199   0.752   0.972   1.168   0.820   0.715   0.766   1.066
   0.937   1.049   1.372   1.063   1.496   1.450   1.438   1.450   1.496   1.063
   1.372   1.049   0.937   1.066   0.766   0.715   0.820   1.168   0.972   0.752
   1.199   1.080   0.865   1.034   0.901   1.034   0.865   1.080   1.199   0.752
   0.972   1.168   0.820   0.715   0.766   1.066   0.937   1.049   1.372   1.063
   1.496   1.450
   1.406   1.347   1.440   1.107   1.125   1.082   0.816   0.872   0.807   0.928
   0.861   1.065   0.947   1.084   1.535   0.934   0.742   0.799   0.808   0.799
   0.742   0.934   1.535   1.084   0.947   1.065   0.861   0.928   0.807   0.872
   0.816   1.082   1.125   1.107   1.440   1.347   1.406   1.347   1.440   1.107
   1.125   1.082   0.816   0.872   0.807   0.928   0.861   1.065   0.947   1.084
   1.535   0.934   0.742   0.799   0.808   0.799   0.742   0.934   1.535   1.084
   0.947   1.065   0.861   0.928   0.807   0.872   0.816   1.082   1.125   1.107
   1.440   1.347
   1.042   1.280   1.304   1.040   0.766   0.831   0.692   0.931   0.941   1.134
   0.995   0.893   1.015   1.291   1.580   1.035   0.708   1.078   0.907   1.078
   0.708   1.035   1.580   1.291   1.015   0.893   0.995   1.134   0.941   0.931
   0.692   0.831   0.766   1.040   1.304   1.280   1.042   1.280   1.304   1.040
   0.766   0.831   0.692   0.931   0.941   1.134   0.995   0.893   1.015   1.291
   1.580   1.035   0.708   1.078   0.907   1.078   0.708   1.035   1.580   1.291
   1.015   0.893   0.995   1.134   0.941   0.931   0.692   0.831   0.766   1.040
   1.304   1.280
   1.623   1.663   1.618   1.110   0.876   0.713   0.633   0.635   0.948   1.092
   1.061   1.042   1.525   1.068   1.439   1.289   0.833   1.419   0.995   1.419
   0.833   1.289   1.439   1.068   1.525   1.042   1.061   1.092   0.948   0.635
   0.633   0.713   0.876   1.110   1.618   1.663   1.623   1.663   1.618   1.110
   0.876   0.713   0.633   0.635   0.948   1.092   1.061   1.042   1.525   1.068
   1.439   1.289   0.833   1.419   0.995   1.419   0.833   1.289   1.439   1.068
   1.525   1.042   1.061   1.092   0.948   0.635   0.633   0.713   0.876   1.110
   1.618   1.663
   1.979   1.633   1.765   0.960   1.034   0.653   0.704   0.535   0.889   0.945
   1.024   1.366   1.391   0.983   1.066   1.079   0.878   1.112   0.711   1.112
   0.878   1.079   1.066   0.983   1.391   1.366   1.024   0.945   0.889   0.535
   0.704   0.653   1.034   0.960   1.765   1.633   1.979   1.633   1.765   0.960
   1.034   0.653   0.704   0.535   0.889   0.945   1.024   1.366   1.391   0.983
   1.066   1.079   0.878   1.112   0.711   1.112   0.878   1.079   1.066   0.983
   1.391   1.366   1.024   0.945   0.889   0.535   0.704   0.653   1.034   0.960
   1.765   1.633
   1.370   0.946   1.283   0.710   1.041   0.583   0.935   0.962   0.963   0.932
   1.157   1.386   0.880   1.345   0.896   0.564   0.994   0.905   0.403   0.905
   0.994   0.564   0.896   1.345   0.880   1.386   1.157   0.932   0.963   0.962
   0.935   0.583   1.041   0.710   1.283   0.946   1.370   0.946   1.283   0.710
   1.041   0.583   0.935   0.962   0.963   0.932   1.157   1.386   0.880   1.345
   0.896   0.564   0.994   0.905   0.403   0.905   0.994   0.564   0.896   1.345
   0.880   1.386   1.157   0.932   0.963   0.962   0.935   0.583   1.041   0.710
   1.283   0.946
   0.778   0.657   0.772   0.434   0.612   0.351   0.978   0.847   0.760   0.709
   0.924   0.925   0.717   1.294   0.560   0.447   0.886   0.790   0.251   0.790
   0.886   0.447   0.560   1.294   0.717   0.925   0.924   0.709   0.760   0.847
   0.978   0.351   0.612   0.434   0.772   0.657   0.778   0.657   0.772   0.434
   0.612   0.351   0.978   0.847   0.760   0.709   0.924   0.925   0.717   1.294
   0.560   0.447   0.886   0.790   0.251   0.790   0.886   0.447   0.560   1.294
   0.717   0.925   0.924   0.709   0.760   0.847   0.978   0.351   0.612   0.434
   0.772   0.657
 200       5.00   72    0 5.00   15    0
   1.118   1.118   1.118   1.118   1.118   1.118   1.118   1.118   1.118   1.118
   1.118   1.118   1.118   1.118   1.118   1.118   1.118   1.118   1.118   1.118
   1.118   1.118   1.118   1.118   1.118   1.118   1.118   1.118   1.118   1.118
   1.118   1.118   1.118   1.118   1.118   1.118   1.118   1.118   1.118   1.118
   1.118   1.118   1.118   1.118   1.118   1.118   1.118   1.118   1.118   1.118
   1.118   1.118   1.118   1.118   1.118   1.118   1.118   1.118   1.118   1.118
   1.118   1.118   1.118   1.118   1.118   1.118   1.118   1.118   1.118   1.118
   1.118   1.118
   1.302   1.401   1.802   1.468   1.370   1.371   1.372   1.574   1.466   1.307
   1.394   1.414   1.397   1.522   1.656   1.742   1.745   1.617   1.533   1.617
   1.745   1.742   1.656   1.522   1.397   1.414   1.394   1.307   1.466   1.574
   1.372   1.371   1.370   1.468   1.802   1.401   1.302   1.401   1.802   1.468
   1.370   1.371   1.372   1.574   1.466   1.307   1.394   1.414   1.397   1.522
   1.656   1.742   1.745   1.617   1.533   1.617   1.745   1.742   1.656   1.522
   1.397   1.414   1.394   1.307   1.466   1.574   1.372   1.371   1.370   1.468
   1.802   1.401
   1.195   1.338   1.471   1.329   1.407   1.506   1.550   1.793   1.811   1.628
   1.698   1.868   2.003   1.973   1.660   1.682   1.660   1.705   1.605   1.705
   1.660   1.682   1.660   1.973   2.003   1.868   1.698   1.628   1.811   1.793
   1.550   1.506   1.407   1.329   1.471   1.338   1.195   1.338   1.471   1.329
   1.407   1.506   1.550   1.793   1.811   1.628   1.698   1.868   2.003   1.973
   1.660   1.682   1.660   1.705   1.605   1.705   1.660   1.682   1.660   1.973
   2.003   1.868   1.698   1.628   1.811   1.793   1.550   1.506   1.407   1.329
   1.471   1.338
   0.958   1.136   1.371   1.274   1.063   1.323   1.273   1.378   1.367   1.584
   1.751   1.805   1.823   1.691   1.526   1.587   1.441   1.576   1.474   1.576
   1.441   1.587   1.526   1.691   1.823   1.805   1.751   1.584   1.367   1.378
   1.273   1.323   1.063   1.274   1.371   1.136   0.958   1.136   1.371   1.274
   1.063   1.323   1.273   1.378   1.367   1.584   1.751   1.805   1.823   1.691
   1.526   1.587   1.441   1.576   1.474   1.576   1.441   1.587   1.526   1.691
   1.823   1.805   1.751   1.584   1.367   1.378   1.273   1.323   1.063   1.274
   1.371   1.136
   1.108   1.131   1.443   1.174   0.852   1.065   0.910   1.226   1.193   1.302
   1.370   1.521   1.642   1.210   1.320   1.363   1.217   1.205   1.122   1.205
   1.217   1.363   1.320   1.210   1.642   1.521   1.370   1.302   1.193   1.226
   0.910   1.065   0.852   1.174   1.443   1.131   1.108   1.131   1.443   1.174
   0.852   1.065   0.910   1.226   1.193   1.302   1.370   1.521   1.642   1.210
   1.320   1.363   1.217   1.205   1.122   1.205   1.217   1.363   1.320   1.210
   1.642   1.521   1.370   1.302   1.193   1.226   0.910   1.065   0.852   1.174
   1.443   1.131
   1.281   1.208   0.854   0.914   1.036   0.898   0.850   1.084   1.046   1.184
   1.215   1.168   1.675   1.734   1.517   1.080   1.110   1.025   1.067   1.025
   1.110   1.080   1.517   1.734   1.675   1.168   1.215   1.184   1.046   1.084
   0.850   0.898   1.036   0.914   0.854   1.208   1.281   1.208   0.854   0.914
   1.036   0.898   0.850   1.084   1.046   1.184   1.215   1.168   1.675   1.734
   1.517   1.080   1.110   1.025   1.067   1.025   1.110   1.080   1.517   1.734
   1.675   1.168   1.215   1.184   1.046   1.084   0.850   0.898   1.036   0.914
   0.854   1.208
   1.060   0.953   0.605   0.844   0.939   0.667   0.732   0.986   0.979   1.223
   1.378   0.885   1.198   1.684   1.620   1.673   1.608   1.284   1.169   1.284
   1.608   1.673   1.620   1.684   1.198   0.885   1.378   1.223   0.979   0.986
   0.732   0.667   0.939   0.844   0.605   0.953   1.060   0.953   0.605   0.844
   0.939   0.667   0.732   0.986   0.979   1.223   1.378   0.885   1.198   1.684
   1.620   1.673   1.608   1.284   1.169   1.284   1.608   1.673   1.620   1.684
   1.198   0.885   1.378   1.223   0.979   0.986   0.732   0.667   0.939   0.844
   0.605   0.953
   0.548   0.535   0.647   0.539   0.465   0.436   0.716   1.142   1.160   1.046
   1.087   1.070   1.221   1.310   1.393   1.705   1.587   1.551   1.212   1.551
   1.587   1.705   1.393   1.310   1.221   1.070   1.087   1.046   1.160   1.142
   0.716   0.436   0.465   0.539   0.647   0.535   0.548   0.535   0.647   0.539
   0.465   0.436   0.716   1.142   1.160   1.046   1.087   1.070   1.221   1.310
   1.393   1.705   1.587   1.551   1.212   1.551   1.587   1.705   1.393   1.310
   1.221   1.070   1.087   1.046   1.160   1.142   0.716   0.436   0.465   0.539
   0.647   0.535
   0.445   0.545   0.498   0.529   0.381   0.417   0.738   0.915   0.837   0.804
   0.827   1.316   1.416   1.353   1.047   0.923   1.253   1.526   1.364   1.526
   1.253   0.923   1.047   1.353   1.416   1.316   0.827   0.804   0.837   0.915
   0.738   0.417   0.381   0.529   0.498   0.545   0.445   0.545   0.498   0.529
   0.381   0.417   0.738   0.915   0.837   0.804   0.827   1.316   1.416   1.353
   1.047   0.923   1.253   1.526   1.364   1.526   1.253   0.923   1.047   1.353
   1.416   1.316   0.827   0.804   0.837   0.915   0.738   0.417   0.381   0.529
   0.498   0.545
   0.612   0.677   0.342   0.479   0.479   0.480   0.536   0.628   0.833   0.669
   0.936   1.267   1.423   1.073   1.092   0.888   1.020   1.291   1.381   1.291
   1.020   0.888   1.092   1.073   1.423   1.267   0.936   0.669   0.833   0.628
   0.536   0.480   0.479   0.479   0.342   0.677   0.612   0.677   0.342   0.479
   0.479   0.480   0.536   0.628   0.833   0.669   0.936   1.267   1.423   1.073
   1.092   0.888   1.020   1.291   1.381   1.291   1.020   0.888   1.092   1.073
   1.423   1.267   0.936   0.669   0.833   0.628   0.536   0.480   0.479   0.479
   0.342   0.677
   0.667   0.438   0.371   0.436   0.491   0.307   0.525   0.904   0.902   0.851
   1.056   1.328   1.343   0.945   1.398   0.895   0.658   0.782   0.767   0.782
   0.658   0.895   1.398   0.945   1.343   1.328   1.056   0.851   0.902   0.904
   0.525   0.307   0.491   0.436   0.371   0.438   0.667   0.438   0.371   0.436
   0.491   0.307   0.525   0.904   0.902   0.851   1.056   1.328   1.343   0.945
   1.398   0.895   0.658   0.782   0.767   0.782   0.658   0.895   1.398   0.945
   1.343   1.328   1.056   0.851   0.902   0.904   0.525   0.307   0.491   0.436
   0.371   0.438
   0.594   0.497   0.371   0.605   0.489   0.373   0.625   1.428   0.874   1.003
   0.960   1.579   1.426   1.384   1.242   1.028   0.791   0.759   0.418   0.759
   0.791   1.028   1.242   1.384   1.426   1.579   0.960   1.003   0.874   1.428
   0.625   0.373   0.489   0.605   0.371   0.497   0.594   0.497   0.371   0.605
   0.489   0.373   0.625   1.428   0.874   1.003   0.960   1.579   1.426   1.384
   1.242   1.028   0.791   0.759   0.418   0.759   0.791   1.028   1.242   1.384
   1.426   1.579   0.960   1.003   0.874   1.428   0.625   0.373   0.489   0.605
   0.371   0.497
   0.466   0.505   0.472   0.698   0.576   0.617   0.576   1.355   0.849   0.944
   0.988   1.524   1.179   1.432   0.687   0.884   0.732   0.728   0.574   0.728
   0.732   0.884   0.687   1.432   1.179   1.524   0.988   0.944   0.849   1.355
   0.576   0.617   0.576   0.698   0.472   0.505   0.466   0.505   0.472   0.698
   0.576   0.617   0.576   1.355   0.849   0.944   0.988   1.524   1.179   1.432
   0.687   0.884   0.732   0.728   0.574   0.728   0.732   0.884   0.687   1.432
   1.179   1.524   0.988   0.944   0.849   1.355   0.576   0.617   0.576   0.698
   0.472   0.505
   0.556   0.442   0.461   0.667   0.608   0.891   0.863   1.232   0.783   1.299
   1.164   1.392   0.638   0.897   0.531   0.608   0.513   0.506   0.651   0.506
   0.513   0.608   0.531   0.897   0.638   1.392   1.164   1.299   0.783   1.232
   0.863   0.891   0.608   0.667   0.461   0.442   0.556   0.442   0.461   0.667
   0.608   0.891   0.863   1.232   0.783   1.299   1.164   1.392   0.638   0.897
   0.531   0.608   0.513   0.506   0.651   0.506   0.513   0.608   0.531   0.897
   0.638   1.392   1.164   1.299   0.783   1.232   0.863   0.891   0.608   0.667
   0.461   0.442
   0.697   0.438   0.249   0.523   0.603   0.767   1.094   1.326   0.729   1.324
   1.189   1.282   0.804   0.887   1.030   0.386   0.412   0.311   0.389   0.311
   0.412   0.386   1.030   0.887   0.804   1.282   1.189   1.324   0.729   1.326
   1.094   0.767   0.603   0.523   0.249   0.438   0.697   0.438   0.249   0.523
   0.603   0.767   1.094   1.326   0.729   1.324   1.189   1.282   0.804   0.887
   1.030   0.386   0.412   0.311   0.389   0.311   0.412   0.386   1.030   0.887
   0.804   1.282   1.189   1.324   0.729   1.326   1.094   0.767   0.603   0.523
   0.249   0.438
 111       5.00   72    0 5.00   15    0
   0.805   0.805   0.805   0.805   0.805   0.805   0.805   0.805   0.805   0.805
   0.805   0.805   0.805   0.805   0.805   0.805   0.805   0.805   0.805   0.805
   0.805   0.805   0.805   0.805   0.805   0.805   0.805   0.805   0.805   0.805
   0.805   0.805   0.805   0.805   0.805   0.805   0.805   0.805   0.805   0.805
   0.805   0.805   0.805   0.805   0.805   0.805   0.805   0.805   0.805   0.805
   0.805   0.805   0.805   0.805   0.805   0.805   0.805   0.805   0.805   0.805
   0.805   0.805   0.805   0.805   0.805   0.805   0.805   0.805   0.805   0.805
   0.805   0.805
   0.941   0.887   0.824   0.982   0.929   0.980   0.830   0.772   0.766   0.857
   0.864   0.848   0.930   0.964   1.036   1.072   1.094   1.186   1.230   1.186
   1.094   1.072   1.036   0.964   0.930   0.848   0.864   0.857   0.766   0.772
   0.830   0.980   0.929   0.982   0.824   0.887   0.941   0.887   0.824   0.982
   0.929   0.980   0.830   0.772   0.766   0.857   0.864   0.848   0.930   0.964
   1.036   1.072   1.094   1.186   1.230   1.186   1.094   1.072   1.036   0.964
   0.930   0.848   0.864   0.857   0.766   0.772   0.830   0.980   0.929   0.982
   0.824   0.887
   0.966   0.884   1.081   1.291   1.077   1.117   0.756   0.854   0.858   0.981
   0.867   0.845   0.867   0.925   0.831   0.778   0.904   1.072   1.096   1.072
   0.904   0.778   0.831   0.925   0.867   0.845   0.867   0.981   0.858   0.854
   0.756   1.117   1.077   1.291   1.081   0.884   0.966   0.884   1.081   1.291
   1.077   1.117   0.756   0.854   0.858   0.981   0.867   0.845   0.867   0.925
   0.831   0.778   0.904   1.072   1.096   1.072   0.904   0.778   0.831   0.925
   0.867   0.845   0.867   0.981   0.858   0.854   0.756   1.117   1.077   1.291
   1.081   0.884
   1.329   0.972   1.070   1.208   0.983   1.284   0.743   0.954   0.820   0.899
   0.839   0.789   0.837   0.877   1.055   1.017   1.068   1.192   1.333   1.192
   1.068   1.017   1.055   0.877   0.837   0.789   0.839   0.899   0.820   0.954
   0.743   1.284   0.983   1.208   1.070   0.972   1.329   0.972   1.070   1.208
   0.983   1.284   0.743   0.954   0.820   0.899   0.839   0.789   0.837   0.877
   1.055   1.017   1.068   1.192   1.333   1.192   1.068   1.017   1.055   0.877
   0.837   0.789   0.839   0.899   0.820   0.954   0.743   1.284   0.983   1.208
   1.070   0.972
   1.886   1.375   1.068   1.001   0.948   1.261   0.846   0.779   0.674   0.659
   0.605   0.585   0.820   0.773   1.268   1.423   1.600   1.668   1.686   1.668
   1.600   1.423   1.268   0.773   0.820   0.585   0.605   0.659   0.674   0.779
   0.846   1.261   0.948   1.001   1.068   1.375   1.886   1.375   1.068   1.001
   0.948   1.261   0.846   0.779   0.674   0.659   0.605   0.585   0.820   0.773
   1.268   1.423   1.600   1.668   1.686   1.668   1.600   1.423   1.268   0.773
   0.820   0.585   0.605   0.659   0.674   0.779   0.846   1.261   0.948   1.001
   1.068   1.375
   1.571   1.656   1.465   1.336   1.245   1.263   1.077   0.742   0.777   0.812
   0.817   0.724   0.938   0.693   0.864   0.941   1.246   1.301   1.216   1.301
   1.246   0.941   0.864   0.693   0.938   0.724   0.817   0.812   0.777   0.742
   1.077   1.263   1.245   1.336   1.465   1.656   1.571   1.656   1.465   1.336
   1.245   1.263   1.077   0.742   0.777   0.812   0.817   0.724   0.938   0.693
   0.864   0.941   1.246   1.301   1.216   1.301   1.246   0.941   0.864   0.693
   0.938   0.724   0.817   0.812   0.777   0.742   1.077   1.263   1.245   1.336
   1.465   1.656
   1.787   1.661   1.740   1.568   1.381   1.516   1.465   0.941   1.013   1.026
   0.913   0.902   1.119   0.701   0.888   1.021   1.028   0.974   0.994   0.974
   1.028   1.021   0.888   0.701   1.119   0.902   0.913   1.026   1.013   0.941
   1.465   1.516   1.381   1.568   1.740   1.661   1.787   1.661   1.740   1.568
   1.381   1.516   1.465   0.941   1.013   1.026   0.913   0.902   1.119   0.701
   0.888   1.021   1.028   0.974   0.994   0.974   1.028   1.021   0.888   0.701
   1.119   0.902   0.913   1.026   1.013   0.941   1.465   1.516   1.381   1.568
   1.740   1.661
   1.820   1.609   1.408   1.312   1.334   1.549   1.348   1.329   1.595   1.072
   0.855   1.093   1.297   0.778   0.934   1.289   0.998   0.999   1.273   0.999
   0.998   1.289   0.934   0.778   1.297   1.093   0.855   1.072   1.595   1.329
   1.348   1.549   1.334   1.312   1.408   1.609   1.820   1.609   1.408   1.312
   1.334   1.549   1.348   1.329   1.595   1.072   0.855   1.093   1.297   0.778
   0.934   1.289   0.998   0.999   1.273   0.999   0.998   1.289   0.934   0.778
   1.297   1.093   0.855   1.072   1.595   1.329   1.348   1.549   1.334   1.312
   1.408   1.609
   1.253   1.343   1.272   1.195   1.268   1.234   0.889   1.314   1.482   0.985
   0.920   1.047   1.169   0.928   0.765   1.001   0.829   0.711   1.042   0.711
   0.829   1.001   0.765   0.928   1.169   1.047   0.920   0.985   1.482   1.314
   0.889   1.234   1.268   1.195   1.272   1.343   1.253   1.343   1.272   1.195
   1.268   1.234   0.889   1.314   1.482   0.985   0.920   1.047   1.169   0.928
   0.765   1.001   0.829   0.711   1.042   0.711   0.829   1.001   0.765   0.928
   1.169   1.047   0.920   0.985   1.482   1.314   0.889   1.234   1.268   1.195
   1.272   1.343
   1.292   1.251   1.418   1.373   1.119   1.190   0.865   0.936   0.921   1.192
   0.868   1.113   0.891   0.881   0.748   0.852   0.974   0.950   1.239   0.950
   0.974   0.852   0.748   0.881   0.891   1.113   0.868   1.192   0.921   0.936
   0.865   1.190   1.119   1.373   1.418   1.251   1.292   1.251   1.418   1.373
   1.119   1.190   0.865   0.936   0.921   1.192   0.868   1.113   0.891   0.881
   0.748   0.852   0.974   0.950   1.239   0.950   0.974   0.852   0.748   0.881
   0.891   1.113   0.868   1.192   0.921   0.936   0.865   1.190   1.119   1.373
   1.418   1.251
   1.476   1.301   1.368   1.264   0.922   1.176   0.891   1.017   0.660   1.140
   1.184   1.129   0.702   0.674   0.942   0.757   0.997   1.095   1.212   1.095
   0.997   0.757   0.942   0.674   0.702   1.129   1.184   1.140   0.660   1.017
   0.891   1.176   0.922   1.264   1.368   1.301   1.476   1.301   1.368   1.264
   0.922   1.176   0.891   1.017   0.660   1.140   1.184   1.129   0.702   0.674
   0.942   0.757   0.997   1.095   1.212   1.095   0.997   0.757   0.942   0.674
   0.702   1.129   1.184   1.140   0.660   1.017   0.891   1.176   0.922   1.264
   1.368   1.301
   1.506   1.241   1.445   1.213   1.066   0.977   1.232   0.938   0.744   0.819
   1.108   0.838   0.783   0.693   1.167   0.869   0.887   0.890   0.676   0.890
   0.887   0.869   1.167   0.693   0.783   0.838   1.108   0.819   0.744   0.938
   1.232   0.977   1.066   1.213   1.445   1.241   1.506   1.241   1.445   1.213
   1.066   0.977   1.232   0.938   0.744   0.819   1.108   0.838   0.783   0.693
   1.167   0.869   0.887   0.890   0.676   0.890   0.887   0.869   1.167   0.693
   0.783   0.838   1.108   0.819   0.744   0.938   1.232   0.977   1.066   1.213
   1.445   1.241
   1.229   1.371   1.339   1.443   1.121   1.060   1.634   0.769   0.979   0.745
   0.646   0.810   0.819   1.010   1.180   1.076   1.081   0.914   0.690   0.914
   1.081   1.076   1.180   1.010   0.819   0.810   0.646   0.745   0.979   0.769
   1.634   1.060   1.121   1.443   1.339   1.371   1.229   1.371   1.339   1.443
   1.121   1.060   1.634   0.769   0.979   0.745   0.646   0.810   0.819   1.010
   1.180   1.076   1.081   0.914   0.690   0.914   1.081   1.076   1.180   1.010
   0.819   0.810   0.646   0.745   0.979   0.769   1.634   1.060   1.121   1.443
   1.339   1.371
   0.839   1.039   0.966   1.340   0.900   1.242   1.414   0.774   0.974   0.720
   0.624   0.883   0.672   0.822   1.002   1.327   1.150   1.172   1.236   1.172
   1.150   1.327   1.002   0.822   0.672   0.883   0.624   0.720   0.974   0.774
   1.414   1.242   0.900   1.340   0.966   1.039   0.839   1.039   0.966   1.340
   0.900   1.242   1.414   0.774   0.974   0.720   0.624   0.883   0.672   0.822
   1.002   1.327   1.150   1.172   1.236   1.172   1.150   1.327   1.002   0.822
   0.672   0.883   0.624   0.720   0.974   0.774   1.414   1.242   0.900   1.340
   0.966   1.039
   0.741   0.681   0.628   0.910   1.014   0.955   1.025   0.582   1.055   0.739
   0.596   0.506   0.731   0.658   0.799   1.162   0.807   1.542   2.464   1.542
   0.807   1.162   0.799   0.658   0.731   0.506   0.596   0.739   1.055   0.582
   1.025   0.955   1.014   0.910   0.628   0.681   0.741   0.681   0.628   0.910
   1.014   0.955   1.025   0.582   1.055   0.739   0.596   0.506   0.731   0.658
   0.799   1.162   0.807   1.542   2.464   1.542   0.807   1.162   0.799   0.658
   0.731   0.506   0.596   0.739   1.055   0.582   1.025   0.955   1.014   0.910
   0.628   0.681
  4  1      5.2372400E-01
  4  2     -7.4449666E-01
  4  3     -7.0918451E-01
  6  1      2.5112224E-01
  6  2     -6.5387792E-02
  6  3      8.7168858E-02
  6  4      6.0975968E-01
  8  1      2.2636958E-01
  8  2     -1.2285840E-01
  8  3      2.5304454E-01
  8  4      6.1879700E-01
  8  5      1.1760565E-01
 10  1      1.4388533E-01
 10  2     -7.9209436E-02
 10  3      2.2598833E-01
 10  4      9.3619429E-02
 10  5     -8.4939552E-04
 10  6     -1.6302356E-01
 12  1      3.6341036E-02  3.8194077E-01
 12  2      1.0086117E-02 -4.1186227E-01
 12  3     -2.1036287E-01  4.3308169E-01
 12  4      1.3735324E-01 -2.1005390E-01
 12  5      4.2268974E-02  2.5889474E-02
 12  6     -5.0508794E-02  8.3967169E-02
 12  7      1.8935793E-01  4.0383401E-01
 14  1      2.4312846E-01
 14  2     -4.0625535E-03
 14  3     -9.0679825E-02
 14  4     -1.9450908E-02
 14  5     -2.7309298E-01
 14  6      2.5850829E-02
 14  7      5.6910682E-03
 14  8     -6.9092283E-02
 220       5.00   72    0 5.00   18    0
   1.358   1.358   1.358   1.359   1.360   1.362   1.363   1.365   1.367   1.369
   1.371   1.373   1.375   1.377   1.378   1.379   1.380   1.381   1.381   1.381
   1.380   1.379   1.378   1.377   1.375   1.373   1.371   1.369   1.367   1.365
   1.363   1.362   1.360   1.359   1.358   1.358   1.358   1.358   1.358   1.359
   1.360   1.362   1.363   1.365   1.367   1.369   1.371   1.373   1.375   1.377
   1.378   1.379   1.380   1.381   1.381   1.381   1.380   1.379   1.378   1.377
   1.375   1.373   1.371   1.369   1.367   1.365   1.363   1.362   1.360   1.359
   1.358   1.358
   1.114   1.115   1.118   1.123   1.130   1.138   1.149   1.161   1.174   1.189
   1.205   1.220   1.235   1.250   1.262   1.273   1.281   1.286   1.287   1.286
   1.281   1.273   1.262   1.250   1.235   1.220   1.205   1.189   1.174   1.161
   1.149   1.138   1.130   1.123   1.118   1.115   1.114   1.115   1.118   1.123
   1.130   1.138   1.149   1.161   1.174   1.189   1.205   1.220   1.235   1.250
   1.262   1.273   1.281   1.286   1.287   1.286   1.281   1.273   1.262   1.250
   1.235   1.220   1.205   1.189   1.174   1.161   1.149   1.138   1.130   1.123
   1.118   1.115
   0.859   0.859   0.860   0.863   0.867   0.874   0.885   0.900   0.919   0.944
   0.972   1.004   1.039   1.073   1.105   1.133   1.155   1.168   1.173   1.168
   1.155   1.133   1.105   1.073   1.039   1.004   0.972   0.944   0.919   0.900
   0.885   0.874   0.867   0.863   0.860   0.859   0.859   0.859   0.860   0.863
   0.867   0.874   0.885   0.900   0.919   0.944   0.972   1.004   1.039   1.073
   1.105   1.133   1.155   1.168   1.173   1.168   1.155   1.133   1.105   1.073
   1.039   1.004   0.972   0.944   0.919   0.900   0.885   0.874   0.867   0.863
   0.860   0.859
   0.823   0.820   0.811   0.798   0.782   0.767   0.754   0.748   0.751   0.765
   0.792   0.831   0.879   0.932   0.986   1.036   1.075   1.101   1.110   1.101
   1.075   1.036   0.986   0.932   0.879   0.831   0.792   0.765   0.751   0.748
   0.754   0.767   0.782   0.798   0.811   0.820   0.823   0.820   0.811   0.798
   0.782   0.767   0.754   0.748   0.751   0.765   0.792   0.831   0.879   0.932
   0.986   1.036   1.075   1.101   1.110   1.101   1.075   1.036   0.986   0.932
   0.879   0.831   0.792   0.765   0.751   0.748   0.754   0.767   0.782   0.798
   0.811   0.820
   1.009   1.003   0.983   0.951   0.908   0.858   0.807   0.760   0.726   0.710
   0.716   0.746   0.796   0.860   0.930   0.996   1.051   1.087   1.099   1.087
   1.051   0.996   0.930   0.860   0.796   0.746   0.716   0.710   0.726   0.760
   0.807   0.858   0.908   0.951   0.983   1.003   1.009   1.003   0.983   0.951
   0.908   0.858   0.807   0.760   0.726   0.710   0.716   0.746   0.796   0.860
   0.930   0.996   1.051   1.087   1.099   1.087   1.051   0.996   0.930   0.860
   0.796   0.746   0.716   0.710   0.726   0.760   0.807   0.858   0.908   0.951
   0.983   1.003
   1.209   1.203   1.183   1.147   1.095   1.027   0.947   0.866   0.795   0.746
   0.725   0.737   0.778   0.839   0.910   0.978   1.034   1.070   1.083   1.070
   1.034   0.978   0.910   0.839   0.778   0.737   0.725   0.746   0.795   0.866
   0.947   1.027   1.095   1.147   1.183   1.203   1.209   1.203   1.183   1.147
   1.095   1.027   0.947   0.866   0.795   0.746   0.725   0.737   0.778   0.839
   0.910   0.978   1.034   1.070   1.083   1.070   1.034   0.978   0.910   0.839
   0.778   0.737   0.725   0.746   0.795   0.866   0.947   1.027   1.095   1.147
   1.183   1.203
   1.231   1.230   1.225   1.210   1.176   1.121   1.045   0.960   0.878   0.815
   0.782   0.782   0.810   0.856   0.907   0.952   0.985   1.005   1.011   1.005
   0.985   0.952   0.907   0.856   0.810   0.782   0.782   0.815   0.878   0.960
   1.045   1.121   1.176   1.210   1.225   1.230   1.231   1.230   1.225   1.210
   1.176   1.121   1.045   0.960   0.878   0.815   0.782   0.782   0.810   0.856
   0.907   0.952   0.985   1.005   1.011   1.005   0.985   0.952   0.907   0.856
   0.810   0.782   0.782   0.815   0.878   0.960   1.045   1.121   1.176   1.210
   1.225   1.230
   1.105   1.109   1.118   1.125   1.119   1.093   1.046   0.988   0.929   0.886
   0.868   0.874   0.895   0.919   0.933   0.932   0.920   0.907   0.901   0.907
   0.920   0.932   0.933   0.919   0.895   0.874   0.868   0.886   0.929   0.988
   1.046   1.093   1.119   1.125   1.118   1.109   1.105   1.109   1.118   1.125
   1.119   1.093   1.046   0.988   0.929   0.886   0.868   0.874   0.895   0.919
   0.933   0.932   0.920   0.907   0.901   0.907   0.920   0.932   0.933   0.919
   0.895   0.874   0.868   0.886   0.929   0.988   1.046   1.093   1.119   1.125
   1.118   1.109
   1.044   1.043   1.039   1.032   1.021   1.004   0.984   0.963   0.950   0.952
   0.970   0.999   1.024   1.028   1.002   0.950   0.887   0.836   0.816   0.836
   0.887   0.950   1.002   1.028   1.024   0.999   0.970   0.952   0.950   0.963
   0.984   1.004   1.021   1.032   1.039   1.043   1.044   1.043   1.039   1.032
   1.021   1.004   0.984   0.963   0.950   0.952   0.970   0.999   1.024   1.028
   1.002   0.950   0.887   0.836   0.816   0.836   0.887   0.950   1.002   1.028
   1.024   0.999   0.970   0.952   0.950   0.963   0.984   1.004   1.021   1.032
   1.039   1.043
   1.212   1.190   1.131   1.056   0.985   0.936   0.914   0.919   0.949   0.998
   1.059   1.117   1.151   1.145   1.092   1.004   0.906   0.830   0.802   0.830
   0.906   1.004   1.092   1.145   1.151   1.117   1.059   0.998   0.949   0.919
   0.914   0.936   0.985   1.056   1.131   1.190   1.212   1.190   1.131   1.056
   0.985   0.936   0.914   0.919   0.949   0.998   1.059   1.117   1.151   1.145
   1.092   1.004   0.906   0.830   0.802   0.830   0.906   1.004   1.092   1.145
   1.151   1.117   1.059   0.998   0.949   0.919   0.914   0.936   0.985   1.056
   1.131   1.190
   1.532   1.482   1.347   1.176   1.017   0.909   0.864   0.876   0.929   1.010
   1.100   1.180   1.225   1.218   1.156   1.057   0.950   0.870   0.840   0.870
   0.950   1.057   1.156   1.218   1.225   1.180   1.100   1.010   0.929   0.876
   0.864   0.909   1.017   1.176   1.347   1.482   1.532   1.482   1.347   1.176
   1.017   0.909   0.864   0.876   0.929   1.010   1.100   1.180   1.225   1.218
   1.156   1.057   0.950   0.870   0.840   0.870   0.950   1.057   1.156   1.218
   1.225   1.180   1.100   1.010   0.929   0.876   0.864   0.909   1.017   1.176
   1.347   1.482
   1.747   1.676   1.489   1.252   1.038   0.895   0.835   0.845   0.903   0.991
   1.091   1.181   1.234   1.228   1.167   1.071   0.973   0.903   0.878   0.903
   0.973   1.071   1.167   1.228   1.234   1.181   1.091   0.991   0.903   0.845
   0.835   0.895   1.038   1.252   1.489   1.676   1.747   1.676   1.489   1.252
   1.038   0.895   0.835   0.845   0.903   0.991   1.091   1.181   1.234   1.228
   1.167   1.071   0.973   0.903   0.878   0.903   0.973   1.071   1.167   1.228
   1.234   1.181   1.091   0.991   0.903   0.845   0.835   0.895   1.038   1.252
   1.489   1.676
   1.662   1.590   1.404   1.177   0.983   0.865   0.823   0.838   0.889   0.968
   1.067   1.161   1.217   1.210   1.142   1.046   0.958   0.901   0.883   0.901
   0.958   1.046   1.142   1.210   1.217   1.161   1.067   0.968   0.889   0.838
   0.823   0.865   0.983   1.177   1.404   1.590   1.662   1.590   1.404   1.177
   0.983   0.865   0.823   0.838   0.889   0.968   1.067   1.161   1.217   1.210
   1.142   1.046   0.958   0.901   0.883   0.901   0.958   1.046   1.142   1.210
   1.217   1.161   1.067   0.968   0.889   0.838   0.823   0.865   0.983   1.177
   1.404   1.590
   1.337   1.281   1.141   0.984   0.870   0.823   0.826   0.852   0.893   0.959
   1.056   1.158   1.217   1.200   1.116   1.010   0.928   0.886   0.874   0.886
   0.928   1.010   1.116   1.200   1.217   1.158   1.056   0.959   0.893   0.852
   0.826   0.823   0.870   0.984   1.141   1.281   1.337   1.281   1.141   0.984
   0.870   0.823   0.826   0.852   0.893   0.959   1.056   1.158   1.217   1.200
   1.116   1.010   0.928   0.886   0.874   0.886   0.928   1.010   1.116   1.200
   1.217   1.158   1.056   0.959   0.893   0.852   0.826   0.823   0.870   0.984
   1.141   1.281
   1.041   1.000   0.904   0.812   0.773   0.789   0.828   0.860   0.888   0.945
   1.047   1.163   1.228   1.201   1.098   0.986   0.918   0.900   0.901   0.900
   0.918   0.986   1.098   1.201   1.228   1.163   1.047   0.945   0.888   0.860
   0.828   0.789   0.773   0.812   0.904   1.000   1.041   1.000   0.904   0.812
   0.773   0.789   0.828   0.860   0.888   0.945   1.047   1.163   1.228   1.201
   1.098   0.986   0.918   0.900   0.901   0.900   0.918   0.986   1.098   1.201
   1.228   1.163   1.047   0.945   0.888   0.860   0.828   0.789   0.773   0.812
   0.904   1.000
   1.001   0.960   0.865   0.778   0.748   0.771   0.807   0.826   0.840   0.893
   1.007   1.140   1.214   1.180   1.071   0.971   0.941   0.967   0.987   0.967
   0.941   0.971   1.071   1.180   1.214   1.140   1.007   0.893   0.840   0.826
   0.807   0.771   0.748   0.778   0.865   0.960   1.001   0.960   0.865   0.778
   0.748   0.771   0.807   0.826   0.840   0.893   1.007   1.140   1.214   1.180
   1.071   0.971   0.941   0.967   0.987   0.967   0.941   0.971   1.071   1.180
   1.214   1.140   1.007   0.893   0.840   0.826   0.807   0.771   0.748   0.778
   0.865   0.960
   1.205   1.148   1.012   0.871   0.786   0.763   0.763   0.755   0.753   0.805
   0.931   1.080   1.162   1.129   1.027   0.958   0.981   1.060   1.103   1.060
   0.981   0.958   1.027   1.129   1.162   1.080   0.931   0.805   0.753   0.755
   0.763   0.763   0.786   0.871   1.012   1.148   1.205   1.148   1.012   0.871
   0.786   0.763   0.763   0.755   0.753   0.805   0.931   1.080   1.162   1.129
   1.027   0.958   0.981   1.060   1.103   1.060   0.981   0.958   1.027   1.129
   1.162   1.080   0.931   0.805   0.753   0.755   0.763   0.763   0.786   0.871
   1.012   1.148
   1.419   1.347   1.169   0.972   0.831   0.760   0.725   0.694   0.682   0.734
   0.868   1.025   1.112   1.082   0.990   0.947   1.011   1.128   1.186   1.128
   1.011   0.947   0.990   1.082   1.112   1.025   0.868   0.734   0.682   0.694
   0.725   0.760   0.831   0.972   1.169   1.347   1.419   1.347   1.169   0.972
   0.831   0.760   0.725   0.694   0.682   0.734   0.868   1.025   1.112   1.082
   0.990   0.947   1.011   1.128   1.186   1.128   1.011   0.947   0.990   1.082
   1.112   1.025   0.868   0.734   0.682   0.694   0.725   0.760   0.831   0.972
   1.169   1.347
 200       5.00   72    0 5.00   18    0
   1.409   1.410   1.410   1.411   1.411   1.413   1.414   1.415   1.417   1.418
   1.420   1.421   1.422   1.424   1.425   1.426   1.426   1.427   1.427   1.427
   1.426   1.426   1.425   1.424   1.422   1.421   1.420   1.418   1.417   1.415
   1.414   1.413   1.411   1.411   1.410   1.410   1.409   1.410   1.410   1.411
   1.411   1.413   1.414   1.415   1.417   1.418   1.420   1.421   1.422   1.424
   1.425   1.426   1.426   1.427   1.427   1.427   1.426   1.426   1.425   1.424
   1.422   1.421   1.420   1.418   1.417   1.415   1.414   1.413   1.411   1.411
   1.410   1.410
   1.324   1.325   1.328   1.333   1.340   1.349   1.358   1.369   1.381   1.393
   1.405   1.417   1.428   1.438   1.447   1.454   1.459   1.462   1.464   1.462
   1.459   1.454   1.447   1.438   1.428   1.417   1.405   1.393   1.381   1.369
   1.358   1.349   1.340   1.333   1.328   1.325   1.324   1.325   1.328   1.333
   1.340   1.349   1.358   1.369   1.381   1.393   1.405   1.417   1.428   1.438
   1.447   1.454   1.459   1.462   1.464   1.462   1.459   1.454   1.447   1.438
   1.428   1.417   1.405   1.393   1.381   1.369   1.358   1.349   1.340   1.333
   1.328   1.325
   1.169   1.171   1.177   1.188   1.203   1.221   1.243   1.268   1.294   1.322
   1.349   1.376   1.401   1.424   1.444   1.460   1.471   1.478   1.481   1.478
   1.471   1.460   1.444   1.424   1.401   1.376   1.349   1.322   1.294   1.268
   1.243   1.221   1.203   1.188   1.177   1.171   1.169   1.171   1.177   1.188
   1.203   1.221   1.243   1.268   1.294   1.322   1.349   1.376   1.401   1.424
   1.444   1.460   1.471   1.478   1.481   1.478   1.471   1.460   1.444   1.424
   1.401   1.376   1.349   1.322   1.294   1.268   1.243   1.221   1.203   1.188
   1.177   1.171
   0.983   0.986   0.994   1.008   1.028   1.055   1.087   1.124   1.165   1.207
   1.248   1.288   1.324   1.356   1.384   1.405   1.421   1.431   1.434   1.431
   1.421   1.405   1.384   1.356   1.324   1.288   1.248   1.207   1.165   1.124
   1.087   1.055   1.028   1.008   0.994   0.986   0.983   0.986   0.994   1.008
   1.028   1.055   1.087   1.124   1.165   1.207   1.248   1.288   1.324   1.356
   1.384   1.405   1.421   1.431   1.434   1.431   1.421   1.405   1.384   1.356
   1.324   1.288   1.248   1.207   1.165   1.124   1.087   1.055   1.028   1.008
   0.994   0.986
   0.828   0.829   0.834   0.845   0.865   0.896   0.937   0.987   1.042   1.097
   1.149   1.196   1.236   1.269   1.296   1.317   1.333   1.343   1.347   1.343
   1.333   1.317   1.296   1.269   1.236   1.196   1.149   1.097   1.042   0.987
   0.937   0.896   0.865   0.845   0.834   0.829   0.828   0.829   0.834   0.845
   0.865   0.896   0.937   0.987   1.042   1.097   1.149   1.196   1.236   1.269
   1.296   1.317   1.333   1.343   1.347   1.343   1.333   1.317   1.296   1.269
   1.236   1.196   1.149   1.097   1.042   0.987   0.937   0.896   0.865   0.845
   0.834   0.829
   0.743   0.740   0.734   0.733   0.744   0.774   0.826   0.893   0.968   1.041
   1.105   1.154   1.190   1.216   1.238   1.256   1.272   1.282   1.286   1.282
   1.272   1.256   1.238   1.216   1.190   1.154   1.105   1.041   0.968   0.893
   0.826   0.774   0.744   0.733   0.734   0.740   0.743   0.740   0.734   0.733
   0.744   0.774   0.826   0.893   0.968   1.041   1.105   1.154   1.190   1.216
   1.238   1.256   1.272   1.282   1.286   1.282   1.272   1.256   1.238   1.216
   1.190   1.154   1.105   1.041   0.968   0.893   0.826   0.774   0.744   0.733
   0.734   0.740
   0.723   0.712   0.686   0.660   0.653   0.678   0.740   0.832   0.936   1.033
   1.111   1.162   1.193   1.211   1.226   1.245   1.266   1.282   1.289   1.282
   1.266   1.245   1.226   1.211   1.193   1.162   1.111   1.033   0.936   0.832
   0.740   0.678   0.653   0.660   0.686   0.712   0.723   0.712   0.686   0.660
   0.653   0.678   0.740   0.832   0.936   1.033   1.111   1.162   1.193   1.211
   1.226   1.245   1.266   1.282   1.289   1.282   1.266   1.245   1.226   1.211
   1.193   1.162   1.111   1.033   0.936   0.832   0.740   0.678   0.653   0.660
   0.686   0.712
   0.720   0.700   0.649   0.593   0.561   0.577   0.646   0.760   0.894   1.019
   1.115   1.173   1.200   1.213   1.226   1.248   1.276   1.300   1.310   1.300
   1.276   1.248   1.226   1.213   1.200   1.173   1.115   1.019   0.894   0.760
   0.646   0.577   0.561   0.593   0.649   0.700   0.720   0.700   0.649   0.593
   0.561   0.577   0.646   0.760   0.894   1.019   1.115   1.173   1.200   1.213
   1.226   1.248   1.276   1.300   1.310   1.300   1.276   1.248   1.226   1.213
   1.200   1.173   1.115   1.019   0.894   0.760   0.646   0.577   0.561   0.593
   0.649   0.700
   0.695   0.669   0.603   0.527   0.476   0.480   0.549   0.672   0.824   0.970
   1.085   1.155   1.185   1.192   1.197   1.211   1.234   1.256   1.266   1.256
   1.234   1.211   1.197   1.192   1.185   1.155   1.085   0.970   0.824   0.672
   0.549   0.480   0.476   0.527   0.603   0.669   0.695   0.669   0.603   0.527
   0.476   0.480   0.549   0.672   0.824   0.970   1.085   1.155   1.185   1.192
   1.197   1.211   1.234   1.256   1.266   1.256   1.234   1.211   1.197   1.192
   1.185   1.155   1.085   0.970   0.824   0.672   0.549   0.480   0.476   0.527
   0.603   0.669
   0.648   0.624   0.563   0.492   0.444   0.446   0.509   0.625   0.775   0.929
   1.058   1.142   1.176   1.171   1.148   1.124   1.111   1.108   1.107   1.108
   1.111   1.124   1.148   1.171   1.176   1.142   1.058   0.929   0.775   0.625
   0.509   0.446   0.444   0.492   0.563   0.624   0.648   0.624   0.563   0.492
   0.444   0.446   0.509   0.625   0.775   0.929   1.058   1.142   1.176   1.171
   1.148   1.124   1.111   1.108   1.107   1.108   1.111   1.124   1.148   1.171
   1.176   1.142   1.058   0.929   0.775   0.625   0.509   0.446   0.444   0.492
   0.563   0.624
   0.605   0.589   0.550   0.511   0.495   0.515   0.578   0.681   0.815   0.963
   1.097   1.189   1.219   1.186   1.109   1.018   0.940   0.889   0.871   0.889
   0.940   1.018   1.109   1.186   1.219   1.189   1.097   0.963   0.815   0.681
   0.578   0.515   0.495   0.511   0.550   0.589   0.605   0.589   0.550   0.511
   0.495   0.515   0.578   0.681   0.815   0.963   1.097   1.189   1.219   1.186
   1.109   1.018   0.940   0.889   0.871   0.889   0.940   1.018   1.109   1.186
   1.219   1.189   1.097   0.963   0.815   0.681   0.578   0.515   0.495   0.511
   0.550   0.589
   0.584   0.575   0.560   0.560   0.591   0.653   0.736   0.834   0.950   1.080
   1.205   1.289   1.298   1.222   1.081   0.919   0.775   0.681   0.648   0.681
   0.775   0.919   1.081   1.222   1.298   1.289   1.205   1.080   0.950   0.834
   0.736   0.653   0.591   0.560   0.560   0.575   0.584   0.575   0.560   0.560
   0.591   0.653   0.736   0.834   0.950   1.080   1.205   1.289   1.298   1.222
   1.081   0.919   0.775   0.681   0.648   0.681   0.775   0.919   1.081   1.222
   1.298   1.289   1.205   1.080   0.950   0.834   0.736   0.653   0.591   0.560
   0.560   0.575
   0.586   0.575   0.563   0.586   0.665   0.783   0.907   1.015   1.114   1.215
   1.309   1.362   1.332   1.209   1.021   0.821   0.656   0.554   0.520   0.554
   0.656   0.821   1.021   1.209   1.332   1.362   1.309   1.215   1.114   1.015
   0.907   0.783   0.665   0.586   0.563   0.575   0.586   0.575   0.563   0.586
   0.665   0.783   0.907   1.015   1.114   1.215   1.309   1.362   1.332   1.209
   1.021   0.821   0.656   0.554   0.520   0.554   0.656   0.821   1.021   1.209
   1.332   1.362   1.309   1.215   1.114   1.015   0.907   0.783   0.665   0.586
   0.563   0.575
   0.619   0.596   0.564   0.589   0.707   0.886   1.057   1.176   1.246   1.297
   1.337   1.336   1.259   1.100   0.900   0.718   0.595   0.534   0.518   0.534
   0.595   0.718   0.900   1.100   1.259   1.336   1.337   1.297   1.246   1.176
   1.057   0.886   0.707   0.589   0.564   0.596   0.619   0.596   0.564   0.589
   0.707   0.886   1.057   1.176   1.246   1.297   1.337   1.336   1.259   1.100
   0.900   0.718   0.595   0.534   0.518   0.534   0.595   0.718   0.900   1.100
   1.259   1.336   1.337   1.297   1.246   1.176   1.057   0.886   0.707   0.589
   0.564   0.596
   0.708   0.672   0.616   0.642   0.799   1.035   1.241   1.345   1.354   1.325
   1.290   1.230   1.112   0.936   0.756   0.634   0.596   0.609   0.622   0.609
   0.596   0.634   0.756   0.936   1.112   1.230   1.290   1.325   1.354   1.345
   1.241   1.035   0.799   0.642   0.616   0.672   0.708   0.672   0.616   0.642
   0.799   1.035   1.241   1.345   1.354   1.325   1.290   1.230   1.112   0.936
   0.756   0.634   0.596   0.609   0.622   0.609   0.596   0.634   0.756   0.936
   1.112   1.230   1.290   1.325   1.354   1.345   1.241   1.035   0.799   0.642
   0.616   0.672
   0.870   0.828   0.767   0.814   1.021   1.308   1.524   1.576   1.490   1.356
   1.238   1.127   0.984   0.811   0.664   0.609   0.655   0.741   0.782   0.741
   0.655   0.609   0.664   0.811   0.984   1.127   1.238   1.356   1.490   1.576
   1.524   1.308   1.021   0.814   0.767   0.828   0.870   0.828   0.767   0.814
   1.021   1.308   1.524   1.576   1.490   1.356   1.238   1.127   0.984   0.811
   0.664   0.609   0.655   0.741   0.782   0.741   0.655   0.609   0.664   0.811
   0.984   1.127   1.238   1.356   1.490   1.576   1.524   1.308   1.021   0.814
   0.767   0.828
   1.065   1.027   0.983   1.071   1.335   1.663   1.869   1.850   1.656   1.419
   1.230   1.085   0.936   0.773   0.654   0.644   0.746   0.879   0.939   0.879
   0.746   0.644   0.654   0.773   0.936   1.085   1.230   1.419   1.656   1.850
   1.869   1.663   1.335   1.071   0.983   1.027   1.065   1.027   0.983   1.071
   1.335   1.663   1.869   1.850   1.656   1.419   1.230   1.085   0.936   0.773
   0.654   0.644   0.746   0.879   0.939   0.879   0.746   0.644   0.654   0.773
   0.936   1.085   1.230   1.419   1.656   1.850   1.869   1.663   1.335   1.071
   0.983   1.027
   1.202   1.169   1.145   1.267   1.572   1.923   2.117   2.046   1.780   1.478
   1.248   1.088   0.940   0.785   0.680   0.690   0.814   0.966   1.034   0.966
   0.814   0.690   0.680   0.785   0.940   1.088   1.248   1.478   1.780   2.046
   2.117   1.923   1.572   1.267   1.145   1.169   1.202   1.169   1.145   1.267
   1.572   1.923   2.117   2.046   1.780   1.478   1.248   1.088   0.940   0.785
   0.680   0.690   0.814   0.966   1.034   0.966   0.814   0.690   0.680   0.785
   0.940   1.088   1.248   1.478   1.780   2.046   2.117   1.923   1.572   1.267
   1.145   1.169
 111       5.00   72    0 5.00   18    0
   0.748   0.748   0.748   0.749   0.750   0.751   0.752   0.753   0.754   0.756
   0.757   0.758   0.760   0.761   0.762   0.763   0.763   0.764   0.764   0.764
   0.763   0.763   0.762   0.761   0.760   0.758   0.757   0.756   0.754   0.753
   0.752   0.751   0.750   0.749   0.748   0.748   0.748   0.748   0.748   0.749
   0.750   0.751   0.752   0.753   0.754   0.756   0.757   0.758   0.760   0.761
   0.762   0.763   0.763   0.764   0.764   0.764   0.763   0.763   0.762   0.761
   0.760   0.758   0.757   0.756   0.754   0.753   0.752   0.751   0.750   0.749
   0.748   0.748
   0.700   0.700   0.702   0.704   0.707   0.711   0.716   0.723   0.731   0.740
   0.751   0.761   0.772   0.782   0.792   0.800   0.806   0.810   0.811   0.810
   0.806   0.800   0.792   0.782   0.772   0.761   0.751   0.740   0.731   0.723
   0.716   0.711   0.707   0.704   0.702   0.700   0.700   0.700   0.702   0.704
   0.707   0.711   0.716   0.723   0.731   0.740   0.751   0.761   0.772   0.782
   0.792   0.800   0.806   0.810   0.811   0.810   0.806   0.800   0.792   0.782
   0.772   0.761   0.751   0.740   0.731   0.723   0.716   0.711   0.707   0.704
   0.702   0.700
   0.699   0.698   0.693   0.687   0.681   0.675   0.672   0.673   0.679   0.691
   0.708   0.730   0.756   0.783   0.810   0.834   0.853   0.865   0.869   0.865
   0.853   0.834   0.810   0.783   0.756   0.730   0.708   0.691   0.679   0.673
   0.672   0.675   0.681   0.687   0.693   0.698   0.699   0.698   0.693   0.687
   0.681   0.675   0.672   0.673   0.679   0.691   0.708   0.730   0.756   0.783
   0.810   0.834   0.853   0.865   0.869   0.865   0.853   0.834   0.810   0.783
   0.756   0.730   0.708   0.691   0.679   0.673   0.672   0.675   0.681   0.687
   0.693   0.698
   0.845   0.838   0.818   0.787   0.750   0.711   0.675   0.647   0.629   0.626
   0.636   0.661   0.698   0.742   0.789   0.834   0.871   0.895   0.904   0.895
   0.871   0.834   0.789   0.742   0.698   0.661   0.636   0.626   0.629   0.647
   0.675   0.711   0.750   0.787   0.818   0.838   0.845   0.838   0.818   0.787
   0.750   0.711   0.675   0.647   0.629   0.626   0.636   0.661   0.698   0.742
   0.789   0.834   0.871   0.895   0.904   0.895   0.871   0.834   0.789   0.742
   0.698   0.661   0.636   0.626   0.629   0.647   0.675   0.711   0.750   0.787
   0.818   0.838
   1.141   1.127   1.086   1.023   0.946   0.864   0.785   0.715   0.661   0.626
   0.614   0.624   0.654   0.702   0.760   0.821   0.873   0.908   0.921   0.908
   0.873   0.821   0.760   0.702   0.654   0.624   0.614   0.626   0.661   0.715
   0.785   0.864   0.946   1.023   1.086   1.127   1.141   1.127   1.086   1.023
   0.946   0.864   0.785   0.715   0.661   0.626   0.614   0.624   0.654   0.702
   0.760   0.821   0.873   0.908   0.921   0.908   0.873   0.821   0.760   0.702
   0.654   0.624   0.614   0.626   0.661   0.715   0.785   0.864   0.946   1.023
   1.086   1.127
   1.464   1.445   1.389   1.305   1.204   1.099   0.997   0.906   0.827   0.764
   0.719   0.696   0.698   0.725   0.773   0.832   0.889   0.930   0.945   0.930
   0.889   0.832   0.773   0.725   0.698   0.696   0.719   0.764   0.827   0.906
   0.997   1.099   1.204   1.305   1.389   1.445   1.464   1.445   1.389   1.305
   1.204   1.099   0.997   0.906   0.827   0.764   0.719   0.696   0.698   0.725
   0.773   0.832   0.889   0.930   0.945   0.930   0.889   0.832   0.773   0.725
   0.698   0.696   0.719   0.764   0.827   0.906   0.997   1.099   1.204   1.305
   1.389   1.445
   1.651   1.630   1.571   1.486   1.392   1.300   1.218   1.144   1.074   1.004
   0.935   0.874   0.831   0.817   0.832   0.872   0.921   0.961   0.976   0.961
   0.921   0.872   0.832   0.817   0.831   0.874   0.935   1.004   1.074   1.144
   1.218   1.300   1.392   1.486   1.571   1.630   1.651   1.630   1.571   1.486
   1.392   1.300   1.218   1.144   1.074   1.004   0.935   0.874   0.831   0.817
   0.832   0.872   0.921   0.961   0.976   0.961   0.921   0.872   0.832   0.817
   0.831   0.874   0.935   1.004   1.074   1.144   1.218   1.300   1.392   1.486
   1.571   1.630
   1.629   1.609   1.555   1.483   1.413   1.358   1.321   1.294   1.262   1.211
   1.139   1.054   0.973   0.915   0.893   0.904   0.936   0.967   0.980   0.967
   0.936   0.904   0.893   0.915   0.973   1.054   1.139   1.211   1.262   1.294
   1.321   1.358   1.413   1.483   1.555   1.609   1.629   1.609   1.555   1.483
   1.413   1.358   1.321   1.294   1.262   1.211   1.139   1.054   0.973   0.915
   0.893   0.904   0.936   0.967   0.980   0.967   0.936   0.904   0.893   0.915
   0.973   1.054   1.139   1.211   1.262   1.294   1.321   1.358   1.413   1.483
   1.555   1.609
   1.475   1.456   1.408   1.348   1.298   1.271   1.268   1.278   1.281   1.261
   1.208   1.129   1.041   0.964   0.916   0.901   0.909   0.926   0.933   0.926
   0.909   0.901   0.916   0.964   1.041   1.129   1.208   1.261   1.281   1.278
   1.268   1.271   1.298   1.348   1.408   1.456   1.475   1.456   1.408   1.348
   1.298   1.271   1.268   1.278   1.281   1.261   1.208   1.129   1.041   0.964
   0.916   0.901   0.909   0.926   0.933   0.926   0.909   0.901   0.916   0.964
   1.041   1.129   1.208   1.261   1.281   1.278   1.268   1.271   1.298   1.348
   1.408   1.456
   1.337   1.321   1.278   1.225   1.178   1.150   1.141   1.147   1.154   1.151
   1.129   1.086   1.029   0.969   0.918   0.885   0.869   0.865   0.865   0.865
   0.869   0.885   0.918   0.969   1.029   1.086   1.129   1.151   1.154   1.147
   1.141   1.150   1.178   1.225   1.278   1.321   1.337   1.321   1.278   1.225
   1.178   1.150   1.141   1.147   1.154   1.151   1.129   1.086   1.029   0.969
   0.918   0.885   0.869   0.865   0.865   0.865   0.869   0.885   0.918   0.969
   1.029   1.086   1.129   1.151   1.154   1.147   1.141   1.150   1.178   1.225
   1.278   1.321
   1.301   1.288   1.253   1.206   1.156   1.108   1.063   1.024   0.998   0.987
   0.989   0.992   0.987   0.969   0.939   0.905   0.876   0.857   0.850   0.857
   0.876   0.905   0.939   0.969   0.987   0.992   0.989   0.987   0.998   1.024
   1.063   1.108   1.156   1.206   1.253   1.288   1.301   1.288   1.253   1.206
   1.156   1.108   1.063   1.024   0.998   0.987   0.989   0.992   0.987   0.969
   0.939   0.905   0.876   0.857   0.850   0.857   0.876   0.905   0.939   0.969
   0.987   0.992   0.989   0.987   0.998   1.024   1.063   1.108   1.156   1.206
   1.253   1.288
   1.312   1.303   1.278   1.245   1.205   1.149   1.073   0.986   0.913   0.874
   0.878   0.910   0.947   0.972   0.978   0.971   0.959   0.951   0.948   0.951
   0.959   0.971   0.978   0.972   0.947   0.910   0.878   0.874   0.913   0.986
   1.073   1.149   1.205   1.245   1.278   1.303   1.312   1.303   1.278   1.245
   1.205   1.149   1.073   0.986   0.913   0.874   0.878   0.910   0.947   0.972
   0.978   0.971   0.959   0.951   0.948   0.951   0.959   0.971   0.978   0.972
   0.947   0.910   0.878   0.874   0.913   0.986   1.073   1.149   1.205   1.245
   1.278   1.303
   1.251   1.243   1.228   1.217   1.207   1.177   1.107   1.002   0.896   0.827
   0.811   0.840   0.887   0.937   0.987   1.039   1.092   1.134   1.150   1.134
   1.092   1.039   0.987   0.937   0.887   0.840   0.811   0.827   0.896   1.002
   1.107   1.177   1.207   1.217   1.228   1.243   1.251   1.243   1.228   1.217
   1.207   1.177   1.107   1.002   0.896   0.827   0.811   0.840   0.887   0.937
   0.987   1.039   1.092   1.134   1.150   1.134   1.092   1.039   0.987   0.937
   0.887   0.840   0.811   0.827   0.896   1.002   1.107   1.177   1.207   1.217
   1.228   1.243
   1.076   1.068   1.056   1.068   1.102   1.123   1.090   0.997   0.881   0.791
   0.753   0.758   0.788   0.842   0.933   1.065   1.217   1.342   1.390   1.342
   1.217   1.065   0.933   0.842   0.788   0.758   0.753   0.791   0.881   0.997
   1.090   1.123   1.102   1.068   1.056   1.068   1.076   1.068   1.056   1.068
   1.102   1.123   1.090   0.997   0.881   0.791   0.753   0.758   0.788   0.842
   0.933   1.065   1.217   1.342   1.390   1.342   1.217   1.065   0.933   0.842
   0.788   0.758   0.753   0.791   0.881   0.997   1.090   1.123   1.102   1.068
   1.056   1.068
   0.876   0.866   0.857   0.889   0.965   1.031   1.029   0.945   0.825   0.729
   0.684   0.676   0.688   0.736   0.853   1.057   1.306   1.516   1.598   1.516
   1.306   1.057   0.853   0.736   0.688   0.676   0.684   0.729   0.825   0.945
   1.029   1.031   0.965   0.889   0.857   0.866   0.876   0.866   0.857   0.889
   0.965   1.031   1.029   0.945   0.825   0.729   0.684   0.676   0.688   0.736
   0.853   1.057   1.306   1.516   1.598   1.516   1.306   1.057   0.853   0.736
   0.688   0.676   0.684   0.729   0.825   0.945   1.029   1.031   0.965   0.889
   0.857   0.866
   0.779   0.769   0.768   0.820   0.922   1.006   0.997   0.888   0.748   0.654
   0.629   0.640   0.656   0.699   0.823   1.061   1.368   1.632   1.736   1.632
   1.368   1.061   0.823   0.699   0.656   0.640   0.629   0.654   0.748   0.888
   0.997   1.006   0.922   0.820   0.768   0.769   0.779   0.769   0.768   0.820
   0.922   1.006   0.997   0.888   0.748   0.654   0.629   0.640   0.656   0.699
   0.823   1.061   1.368   1.632   1.736   1.632   1.368   1.061   0.823   0.699
   0.656   0.640   0.629   0.654   0.748   0.888   0.997   1.006   0.922   0.820
   0.768   0.769
   0.816   0.810   0.821   0.892   1.007   1.079   1.030   0.868   0.692   0.600
   0.611   0.666   0.708   0.751   0.866   1.101   1.419   1.699   1.811   1.699
   1.419   1.101   0.866   0.751   0.708   0.666   0.611   0.600   0.692   0.868
   1.030   1.079   1.007   0.892   0.821   0.810   0.816   0.810   0.821   0.892
   1.007   1.079   1.030   0.868   0.692   0.600   0.611   0.666   0.708   0.751
   0.866   1.101   1.419   1.699   1.811   1.699   1.419   1.101   0.866   0.751
   0.708   0.666   0.611   0.600   0.692   0.868   1.030   1.079   1.007   0.892
   0.821   0.810
   0.891   0.889   0.911   0.994   1.112   1.167   1.080   0.874   0.669   0.578
   0.617   0.707   0.773   0.820   0.923   1.144   1.453   1.729   1.841   1.729
   1.453   1.144   0.923   0.820   0.773   0.707   0.617   0.578   0.669   0.874
   1.080   1.167   1.112   0.994   0.911   0.889   0.891   0.889   0.911   0.994
   1.112   1.167   1.080   0.874   0.669   0.578   0.617   0.707   0.773   0.820
   0.923   1.144   1.453   1.729   1.841   1.729   1.453   1.144   0.923   0.820
   0.773   0.707   0.617   0.578   0.669   0.874   1.080   1.167   1.112   0.994
   0.911   0.889
 311       5.00   72    0 5.00   18    0
   0.981   0.981   0.981   0.982   0.982   0.983   0.983   0.984   0.985   0.986
   0.986   0.987   0.988   0.989   0.989   0.990   0.990   0.990   0.990   0.990
   0.990   0.990   0.989   0.989   0.988   0.987   0.986   0.986   0.985   0.984
   0.983   0.983   0.982   0.982   0.981   0.981   0.981   0.981   0.981   0.982
   0.982   0.983   0.983   0.984   0.985   0.986   0.986   0.987   0.988   0.989
   0.989   0.990   0.990   0.990   0.990   0.990   0.990   0.990   0.989   0.989
   0.988   0.987   0.986   0.986   0.985   0.984   0.983   0.983   0.982   0.982
   0.981   0.981
   0.978   0.979   0.980   0.981   0.984   0.986   0.990   0.995   1.000   1.005
   1.012   1.018   1.025   1.031   1.036   1.041   1.045   1.047   1.048   1.047
   1.045   1.041   1.036   1.031   1.025   1.018   1.012   1.005   1.000   0.995
   0.990   0.986   0.984   0.981   0.980   0.979   0.978   0.979   0.980   0.981
   0.984   0.986   0.990   0.995   1.000   1.005   1.012   1.018   1.025   1.031
   1.036   1.041   1.045   1.047   1.048   1.047   1.045   1.041   1.036   1.031
   1.025   1.018   1.012   1.005   1.000   0.995   0.990   0.986   0.984   0.981
   0.980   0.979
   0.996   0.996   0.995   0.994   0.993   0.994   0.995   0.999   1.005   1.014
   1.026   1.040   1.055   1.071   1.086   1.100   1.111   1.118   1.120   1.118
   1.111   1.100   1.086   1.071   1.055   1.040   1.026   1.014   1.005   0.999
   0.995   0.994   0.993   0.994   0.995   0.996   0.996   0.996   0.995   0.994
   0.993   0.994   0.995   0.999   1.005   1.014   1.026   1.040   1.055   1.071
   1.086   1.100   1.111   1.118   1.120   1.118   1.111   1.100   1.086   1.071
   1.055   1.040   1.026   1.014   1.005   0.999   0.995   0.994   0.993   0.994
   0.995   0.996
   1.042   1.041   1.036   1.028   1.019   1.009   1.001   0.995   0.994   0.998
   1.008   1.024   1.045   1.071   1.097   1.123   1.143   1.157   1.162   1.157
   1.143   1.123   1.097   1.071   1.045   1.024   1.008   0.998   0.994   0.995
   1.001   1.009   1.019   1.028   1.036   1.041   1.042   1.041   1.036   1.028
   1.019   1.009   1.001   0.995   0.994   0.998   1.008   1.024   1.045   1.071
   1.097   1.123   1.143   1.157   1.162   1.157   1.143   1.123   1.097   1.071
   1.045   1.024   1.008   0.998   0.994   0.995   1.001   1.009   1.019   1.028
   1.036   1.041
   1.083   1.081   1.075   1.066   1.054   1.040   1.024   1.010   0.997   0.988
   0.986   0.993   1.010   1.035   1.067   1.101   1.132   1.152   1.160   1.152
   1.132   1.101   1.067   1.035   1.010   0.993   0.986   0.988   0.997   1.010
   1.024   1.040   1.054   1.066   1.075   1.081   1.083   1.081   1.075   1.066
   1.054   1.040   1.024   1.010   0.997   0.988   0.986   0.993   1.010   1.035
   1.067   1.101   1.132   1.152   1.160   1.152   1.132   1.101   1.067   1.035
   1.010   0.993   0.986   0.988   0.997   1.010   1.024   1.040   1.054   1.066
   1.075   1.081
   1.052   1.054   1.057   1.063   1.069   1.072   1.071   1.063   1.048   1.027
   1.005   0.990   0.986   0.998   1.025   1.061   1.097   1.124   1.133   1.124
   1.097   1.061   1.025   0.998   0.986   0.990   1.005   1.027   1.048   1.063
   1.071   1.072   1.069   1.063   1.057   1.054   1.052   1.054   1.057   1.063
   1.069   1.072   1.071   1.063   1.048   1.027   1.005   0.990   0.986   0.998
   1.025   1.061   1.097   1.124   1.133   1.124   1.097   1.061   1.025   0.998
   0.986   0.990   1.005   1.027   1.048   1.063   1.071   1.072   1.069   1.063
   1.057   1.054
   0.913   0.922   0.946   0.983   1.029   1.075   1.113   1.133   1.131   1.105
   1.064   1.021   0.988   0.977   0.990   1.024   1.064   1.096   1.109   1.096
   1.064   1.024   0.990   0.977   0.988   1.021   1.064   1.105   1.131   1.133
   1.113   1.075   1.029   0.983   0.946   0.922   0.913   0.922   0.946   0.983
   1.029   1.075   1.113   1.133   1.131   1.105   1.064   1.021   0.988   0.977
   0.990   1.024   1.064   1.096   1.109   1.096   1.064   1.024   0.990   0.977
   0.988   1.021   1.064   1.105   1.131   1.133   1.113   1.075   1.029   0.983
   0.946   0.922
   0.712   0.727   0.773   0.844   0.933   1.026   1.108   1.163   1.180   1.157
   1.104   1.040   0.986   0.957   0.963   0.996   1.042   1.080   1.095   1.080
   1.042   0.996   0.963   0.957   0.986   1.040   1.104   1.157   1.180   1.163
   1.108   1.026   0.933   0.844   0.773   0.727   0.712   0.727   0.773   0.844
   0.933   1.026   1.108   1.163   1.180   1.157   1.104   1.040   0.986   0.957
   0.963   0.996   1.042   1.080   1.095   1.080   1.042   0.996   0.963   0.957
   0.986   1.040   1.104   1.157   1.180   1.163   1.108   1.026   0.933   0.844
   0.773   0.727
   0.563   0.582   0.639   0.728   0.838   0.953   1.053   1.121   1.144   1.122
   1.069   1.004   0.950   0.927   0.938   0.979   1.031   1.073   1.090   1.073
   1.031   0.979   0.938   0.927   0.950   1.004   1.069   1.122   1.144   1.121
   1.053   0.953   0.838   0.728   0.639   0.582   0.563   0.582   0.639   0.728
   0.838   0.953   1.053   1.121   1.144   1.122   1.069   1.004   0.950   0.927
   0.938   0.979   1.031   1.073   1.090   1.073   1.031   0.979   0.938   0.927
   0.950   1.004   1.069   1.122   1.144   1.121   1.053   0.953   0.838   0.728
   0.639   0.582
   0.565   0.584   0.639   0.723   0.824   0.923   1.001   1.044   1.046   1.015
   0.966   0.920   0.894   0.898   0.930   0.981   1.035   1.075   1.090   1.075
   1.035   0.981   0.930   0.898   0.894   0.920   0.966   1.015   1.046   1.044
   1.001   0.923   0.824   0.723   0.639   0.584   0.565   0.584   0.639   0.723
   0.824   0.923   1.001   1.044   1.046   1.015   0.966   0.920   0.894   0.898
   0.930   0.981   1.035   1.075   1.090   1.075   1.035   0.981   0.930   0.898
   0.894   0.920   0.966   1.015   1.046   1.044   1.001   0.923   0.824   0.723
   0.639   0.584
   0.711   0.727   0.773   0.840   0.915   0.978   1.011   1.006   0.968   0.915
   0.869   0.848   0.858   0.897   0.952   1.010   1.057   1.088   1.098   1.088
   1.057   1.010   0.952   0.897   0.858   0.848   0.869   0.915   0.968   1.006
   1.011   0.978   0.915   0.840   0.773   0.727   0.711   0.727   0.773   0.840
   0.915   0.978   1.011   1.006   0.968   0.915   0.869   0.848   0.858   0.897
   0.952   1.010   1.057   1.088   1.098   1.088   1.057   1.010   0.952   0.897
   0.858   0.848   0.869   0.915   0.968   1.006   1.011   0.978   0.915   0.840
   0.773   0.727
   0.886   0.898   0.934   0.988   1.047   1.087   1.089   1.046   0.973   0.896
   0.844   0.834   0.866   0.924   0.990   1.045   1.082   1.101   1.106   1.101
   1.082   1.045   0.990   0.924   0.866   0.834   0.844   0.896   0.973   1.046
   1.089   1.087   1.047   0.988   0.934   0.898   0.886   0.898   0.934   0.988
   1.047   1.087   1.089   1.046   0.973   0.896   0.844   0.834   0.866   0.924
   0.990   1.045   1.082   1.101   1.106   1.101   1.082   1.045   0.990   0.924
   0.866   0.834   0.844   0.896   0.973   1.046   1.089   1.087   1.047   0.988
   0.934   0.898
   0.965   0.973   1.001   1.051   1.114   1.164   1.173   1.129   1.047   0.959
   0.896   0.877   0.900   0.950   1.006   1.051   1.079   1.091   1.094   1.091
   1.079   1.051   1.006   0.950   0.900   0.877   0.896   0.959   1.047   1.129
   1.173   1.164   1.114   1.051   1.001   0.973   0.965   0.973   1.001   1.051
   1.114   1.164   1.173   1.129   1.047   0.959   0.896   0.877   0.900   0.950
   1.006   1.051   1.079   1.091   1.094   1.091   1.079   1.051   1.006   0.950
   0.900   0.877   0.896   0.959   1.047   1.129   1.173   1.164   1.114   1.051
   1.001   0.973
   0.928   0.931   0.949   0.997   1.075   1.155   1.198   1.184   1.123   1.044
   0.977   0.941   0.937   0.955   0.984   1.011   1.031   1.040   1.043   1.040
   1.031   1.011   0.984   0.955   0.937   0.941   0.977   1.044   1.123   1.184
   1.198   1.155   1.075   0.997   0.949   0.931   0.928   0.931   0.949   0.997
   1.075   1.155   1.198   1.184   1.123   1.044   0.977   0.941   0.937   0.955
   0.984   1.011   1.031   1.040   1.043   1.040   1.031   1.011   0.984   0.955
   0.937   0.941   0.977   1.044   1.123   1.184   1.198   1.155   1.075   0.997
   0.949   0.931
   0.874   0.869   0.871   0.909   0.991   1.089   1.159   1.174   1.142   1.091
   1.042   1.005   0.979   0.961   0.952   0.951   0.953   0.956   0.957   0.956
   0.953   0.951   0.952   0.961   0.979   1.005   1.042   1.091   1.142   1.174
   1.159   1.089   0.991   0.909   0.871   0.869   0.874   0.869   0.871   0.909
   0.991   1.089   1.159   1.174   1.142   1.091   1.042   1.005   0.979   0.961
   0.952   0.951   0.953   0.956   0.957   0.956   0.953   0.951   0.952   0.961
   0.979   1.005   1.042   1.091   1.142   1.174   1.159   1.089   0.991   0.909
   0.871   0.869
   0.911   0.898   0.880   0.896   0.960   1.043   1.103   1.118   1.103   1.086
   1.079   1.071   1.047   1.006   0.957   0.914   0.884   0.866   0.861   0.866
   0.884   0.914   0.957   1.006   1.047   1.071   1.079   1.086   1.103   1.118
   1.103   1.043   0.960   0.896   0.880   0.898   0.911   0.898   0.880   0.896
   0.960   1.043   1.103   1.118   1.103   1.086   1.079   1.071   1.047   1.006
   0.957   0.914   0.884   0.866   0.861   0.866   0.884   0.914   0.957   1.006
   1.047   1.071   1.079   1.086   1.103   1.118   1.103   1.043   0.960   0.896
   0.880   0.898
   1.046   1.026   0.991   0.980   1.010   1.053   1.072   1.058   1.041   1.055
   1.098   1.138   1.139   1.090   1.008   0.920   0.847   0.800   0.783   0.800
   0.847   0.920   1.008   1.090   1.139   1.138   1.098   1.055   1.041   1.058
   1.072   1.053   1.010   0.980   0.991   1.026   1.046   1.026   0.991   0.980
   1.010   1.053   1.072   1.058   1.041   1.055   1.098   1.138   1.139   1.090
   1.008   0.920   0.847   0.800   0.783   0.800   0.847   0.920   1.008   1.090
   1.139   1.138   1.098   1.055   1.041   1.058   1.072   1.053   1.010   0.980
   0.991   1.026
   1.170   1.147   1.100   1.072   1.076   1.085   1.067   1.025   1.000   1.030
   1.108   1.184   1.208   1.160   1.059   0.941   0.837   0.767   0.742   0.767
   0.837   0.941   1.059   1.160   1.208   1.184   1.108   1.030   1.000   1.025
   1.067   1.085   1.076   1.072   1.100   1.147   1.170   1.147   1.100   1.072
   1.076   1.085   1.067   1.025   1.000   1.030   1.108   1.184   1.208   1.160
   1.059   0.941   0.837   0.767   0.742   0.767   0.837   0.941   1.059   1.160
   1.208   1.184   1.108   1.030   1.000   1.025   1.067   1.085   1.076   1.072
   1.100   1.147
TEXTURE_INDEX=   1.2567
ERR_CF 220         1080     658   19.18   17.42
ERR_CF 200         1080     640   19.77   16.06
ERR_CF 111         1080     486   15.29   14.92
