TEXEVAL                                                                         
Analysis started on 21-Sep-20 11:10:49                                          
 LMAX=14LFMAX=03 CUBIC ORTHO   
 220      5.00 5.00
 200      5.00 5.00
 111      5.00 5.00
 220       5.00   72    0 5.00   15    0
   2.309   2.309   2.309   2.309   2.309   2.309   2.309   2.309   2.309   2.309
   2.309   2.309   2.309   2.309   2.309   2.309   2.309   2.309   2.309   2.309
   2.309   2.309   2.309   2.309   2.309   2.309   2.309   2.309   2.309   2.309
   2.309   2.309   2.309   2.309   2.309   2.309   2.309   2.309   2.309   2.309
   2.309   2.309   2.309   2.309   2.309   2.309   2.309   2.309   2.309   2.309
   2.309   2.309   2.309   2.309   2.309   2.309   2.309   2.309   2.309   2.309
   2.309   2.309   2.309   2.309   2.309   2.309   2.309   2.309   2.309   2.309
   2.309   2.309
   1.608   1.696   1.666   1.522   1.334   1.435   1.352   1.698   1.410   1.447
   1.653   1.781   1.792   1.777   1.965   2.377   2.669   2.723   2.759   2.723
   2.669   2.377   1.965   1.777   1.792   1.781   1.653   1.447   1.410   1.698
   1.352   1.435   1.334   1.522   1.666   1.696   1.608   1.696   1.666   1.522
   1.334   1.435   1.352   1.698   1.410   1.447   1.653   1.781   1.792   1.777
   1.965   2.377   2.669   2.723   2.759   2.723   2.669   2.377   1.965   1.777
   1.792   1.781   1.653   1.447   1.410   1.698   1.352   1.435   1.334   1.522
   1.666   1.696
   1.326   1.367   1.403   0.998   0.859   0.998   1.255   1.375   1.146   1.298
   1.712   1.710   1.606   1.594   1.603   1.836   1.964   1.783   1.659   1.783
   1.964   1.836   1.603   1.594   1.606   1.710   1.712   1.298   1.146   1.375
   1.255   0.998   0.859   0.998   1.403   1.367   1.326   1.367   1.403   0.998
   0.859   0.998   1.255   1.375   1.146   1.298   1.712   1.710   1.606   1.594
   1.603   1.836   1.964   1.783   1.659   1.783   1.964   1.836   1.603   1.594
   1.606   1.710   1.712   1.298   1.146   1.375   1.255   0.998   0.859   0.998
   1.403   1.367
   1.282   1.446   1.220   0.798   0.820   1.051   1.071   0.953   1.002   1.161
   1.411   1.429   1.175   1.147   1.184   1.463   1.712   2.167   2.553   2.167
   1.712   1.463   1.184   1.147   1.175   1.429   1.411   1.161   1.002   0.953
   1.071   1.051   0.820   0.798   1.220   1.446   1.282   1.446   1.220   0.798
   0.820   1.051   1.071   0.953   1.002   1.161   1.411   1.429   1.175   1.147
   1.184   1.463   1.712   2.167   2.553   2.167   1.712   1.463   1.184   1.147
   1.175   1.429   1.411   1.161   1.002   0.953   1.071   1.051   0.820   0.798
   1.220   1.446
   1.149   1.268   1.216   1.024   1.059   1.104   1.662   1.388   1.166   1.146
   1.220   1.091   0.849   0.892   0.920   1.037   1.274   2.176   2.799   2.176
   1.274   1.037   0.920   0.892   0.849   1.091   1.220   1.146   1.166   1.388
   1.662   1.104   1.059   1.024   1.216   1.268   1.149   1.268   1.216   1.024
   1.059   1.104   1.662   1.388   1.166   1.146   1.220   1.091   0.849   0.892
   0.920   1.037   1.274   2.176   2.799   2.176   1.274   1.037   0.920   0.892
   0.849   1.091   1.220   1.146   1.166   1.388   1.662   1.104   1.059   1.024
   1.216   1.268
   1.060   0.944   1.148   1.496   0.840   0.919   1.812   1.252   1.105   0.806
   0.933   0.804   0.880   0.856   0.755   0.924   1.202   1.927   1.693   1.927
   1.202   0.924   0.755   0.856   0.880   0.804   0.933   0.806   1.105   1.252
   1.812   0.919   0.840   1.496   1.148   0.944   1.060   0.944   1.148   1.496
   0.840   0.919   1.812   1.252   1.105   0.806   0.933   0.804   0.880   0.856
   0.755   0.924   1.202   1.927   1.693   1.927   1.202   0.924   0.755   0.856
   0.880   0.804   0.933   0.806   1.105   1.252   1.812   0.919   0.840   1.496
   1.148   0.944
   0.720   0.860   0.907   1.207   0.549   0.754   0.920   0.931   0.799   0.634
   0.734   0.851   0.965   1.130   0.801   0.925   1.707   2.257   1.838   2.257
   1.707   0.925   0.801   1.130   0.965   0.851   0.734   0.634   0.799   0.931
   0.920   0.754   0.549   1.207   0.907   0.860   0.720   0.860   0.907   1.207
   0.549   0.754   0.920   0.931   0.799   0.634   0.734   0.851   0.965   1.130
   0.801   0.925   1.707   2.257   1.838   2.257   1.707   0.925   0.801   1.130
   0.965   0.851   0.734   0.634   0.799   0.931   0.920   0.754   0.549   1.207
   0.907   0.860
   0.579   0.805   0.825   0.969   0.785   0.633   1.130   1.193   1.025   0.949
   0.919   0.847   0.791   1.429   1.337   1.235   1.844   1.716   1.781   1.716
   1.844   1.235   1.337   1.429   0.791   0.847   0.919   0.949   1.025   1.193
   1.130   0.633   0.785   0.969   0.825   0.805   0.579   0.805   0.825   0.969
   0.785   0.633   1.130   1.193   1.025   0.949   0.919   0.847   0.791   1.429
   1.337   1.235   1.844   1.716   1.781   1.716   1.844   1.235   1.337   1.429
   0.791   0.847   0.919   0.949   1.025   1.193   1.130   0.633   0.785   0.969
   0.825   0.805
   0.704   0.726   0.967   1.297   0.950   0.875   1.602   1.031   1.273   1.181
   1.106   0.906   0.744   1.297   1.190   1.022   1.410   1.338   1.103   1.338
   1.410   1.022   1.190   1.297   0.744   0.906   1.106   1.181   1.273   1.031
   1.602   0.875   0.950   1.297   0.967   0.726   0.704   0.726   0.967   1.297
   0.950   0.875   1.602   1.031   1.273   1.181   1.106   0.906   0.744   1.297
   1.190   1.022   1.410   1.338   1.103   1.338   1.410   1.022   1.190   1.297
   0.744   0.906   1.106   1.181   1.273   1.031   1.602   0.875   0.950   1.297
   0.967   0.726
   0.917   0.741   1.280   1.049   0.835   0.962   1.142   0.795   0.898   1.002
   1.045   0.935   1.293   1.099   1.045   0.652   0.789   0.907   0.584   0.907
   0.789   0.652   1.045   1.099   1.293   0.935   1.045   1.002   0.898   0.795
   1.142   0.962   0.835   1.049   1.280   0.741   0.917   0.741   1.280   1.049
   0.835   0.962   1.142   0.795   0.898   1.002   1.045   0.935   1.293   1.099
   1.045   0.652   0.789   0.907   0.584   0.907   0.789   0.652   1.045   1.099
   1.293   0.935   1.045   1.002   0.898   0.795   1.142   0.962   0.835   1.049
   1.280   0.741
   0.837   0.998   1.145   0.902   0.825   0.701   0.667   0.569   0.701   0.818
   1.451   1.173   1.451   0.827   1.197   1.422   1.150   0.737   1.007   0.737
   1.150   1.422   1.197   0.827   1.451   1.173   1.451   0.818   0.701   0.569
   0.667   0.701   0.825   0.902   1.145   0.998   0.837   0.998   1.145   0.902
   0.825   0.701   0.667   0.569   0.701   0.818   1.451   1.173   1.451   0.827
   1.197   1.422   1.150   0.737   1.007   0.737   1.150   1.422   1.197   0.827
   1.451   1.173   1.451   0.818   0.701   0.569   0.667   0.701   0.825   0.902
   1.145   0.998
   1.612   1.916   1.215   1.527   0.962   0.675   0.843   0.745   0.740   0.735
   1.317   1.112   0.981   1.571   1.175   1.169   2.134   1.121   0.992   1.121
   2.134   1.169   1.175   1.571   0.981   1.112   1.317   0.735   0.740   0.745
   0.843   0.675   0.962   1.527   1.215   1.916   1.612   1.916   1.215   1.527
   0.962   0.675   0.843   0.745   0.740   0.735   1.317   1.112   0.981   1.571
   1.175   1.169   2.134   1.121   0.992   1.121   2.134   1.169   1.175   1.571
   0.981   1.112   1.317   0.735   0.740   0.745   0.843   0.675   0.962   1.527
   1.215   1.916
   2.556   2.047   1.760   1.509   1.048   0.810   0.696   0.674   0.603   0.790
   0.826   0.688   0.733   1.643   1.063   0.856   1.703   0.961   0.255   0.961
   1.703   0.856   1.063   1.643   0.733   0.688   0.826   0.790   0.603   0.674
   0.696   0.810   1.048   1.509   1.760   2.047   2.556   2.047   1.760   1.509
   1.048   0.810   0.696   0.674   0.603   0.790   0.826   0.688   0.733   1.643
   1.063   0.856   1.703   0.961   0.255   0.961   1.703   0.856   1.063   1.643
   0.733   0.688   0.826   0.790   0.603   0.674   0.696   0.810   1.048   1.509
   1.760   2.047
   1.819   0.987   1.152   0.803   1.382   0.776   0.486   0.305   0.490   0.766
   1.137   0.673   0.840   0.634   0.753   1.187   1.193   0.772   0.547   0.772
   1.193   1.187   0.753   0.634   0.840   0.673   1.137   0.766   0.490   0.305
   0.486   0.776   1.382   0.803   1.152   0.987   1.819   0.987   1.152   0.803
   1.382   0.776   0.486   0.305   0.490   0.766   1.137   0.673   0.840   0.634
   0.753   1.187   1.193   0.772   0.547   0.772   1.193   1.187   0.753   0.634
   0.840   0.673   1.137   0.766   0.490   0.305   0.486   0.776   1.382   0.803
   1.152   0.987
   0.646   0.501   0.531   0.500   1.301   0.474   0.326   0.625   0.353   0.330
   1.128   0.712   0.711   0.220   0.706   0.922   0.830   0.654   0.475   0.654
   0.830   0.922   0.706   0.220   0.711   0.712   1.128   0.330   0.353   0.625
   0.326   0.474   1.301   0.500   0.531   0.501   0.646   0.501   0.531   0.500
   1.301   0.474   0.326   0.625   0.353   0.330   1.128   0.712   0.711   0.220
   0.706   0.922   0.830   0.654   0.475   0.654   0.830   0.922   0.706   0.220
   0.711   0.712   1.128   0.330   0.353   0.625   0.326   0.474   1.301   0.500
   0.531   0.501
 200       5.00   72    0 5.00   15    0
   1.198   1.198   1.198   1.198   1.198   1.198   1.198   1.198   1.198   1.198
   1.198   1.198   1.198   1.198   1.198   1.198   1.198   1.198   1.198   1.198
   1.198   1.198   1.198   1.198   1.198   1.198   1.198   1.198   1.198   1.198
   1.198   1.198   1.198   1.198   1.198   1.198   1.198   1.198   1.198   1.198
   1.198   1.198   1.198   1.198   1.198   1.198   1.198   1.198   1.198   1.198
   1.198   1.198   1.198   1.198   1.198   1.198   1.198   1.198   1.198   1.198
   1.198   1.198   1.198   1.198   1.198   1.198   1.198   1.198   1.198   1.198
   1.198   1.198
   0.878   0.979   1.318   1.612   1.381   1.422   1.299   1.259   1.188   1.066
   1.132   1.084   1.179   1.199   1.352   1.556   1.552   1.500   2.039   1.500
   1.552   1.556   1.352   1.199   1.179   1.084   1.132   1.066   1.188   1.259
   1.299   1.422   1.381   1.612   1.318   0.979   0.878   0.979   1.318   1.612
   1.381   1.422   1.299   1.259   1.188   1.066   1.132   1.084   1.179   1.199
   1.352   1.556   1.552   1.500   2.039   1.500   1.552   1.556   1.352   1.199
   1.179   1.084   1.132   1.066   1.188   1.259   1.299   1.422   1.381   1.612
   1.318   0.979
   1.052   1.134   1.335   1.136   1.162   1.281   1.352   1.226   1.050   0.999
   1.291   1.437   1.194   0.868   0.956   1.318   1.206   1.067   0.986   1.067
   1.206   1.318   0.956   0.868   1.194   1.437   1.291   0.999   1.050   1.226
   1.352   1.281   1.162   1.136   1.335   1.134   1.052   1.134   1.335   1.136
   1.162   1.281   1.352   1.226   1.050   0.999   1.291   1.437   1.194   0.868
   0.956   1.318   1.206   1.067   0.986   1.067   1.206   1.318   0.956   0.868
   1.194   1.437   1.291   0.999   1.050   1.226   1.352   1.281   1.162   1.136
   1.335   1.134
   1.525   1.874   1.395   1.057   0.888   0.965   1.271   1.386   1.175   0.877
   1.048   1.316   1.195   0.970   0.971   1.190   0.987   0.852   0.726   0.852
   0.987   1.190   0.971   0.970   1.195   1.316   1.048   0.877   1.175   1.386
   1.271   0.965   0.888   1.057   1.395   1.874   1.525   1.874   1.395   1.057
   0.888   0.965   1.271   1.386   1.175   0.877   1.048   1.316   1.195   0.970
   0.971   1.190   0.987   0.852   0.726   0.852   0.987   1.190   0.971   0.970
   1.195   1.316   1.048   0.877   1.175   1.386   1.271   0.965   0.888   1.057
   1.395   1.874
   1.653   2.417   1.298   0.924   0.971   1.092   1.083   1.085   0.957   0.656
   0.616   0.747   1.022   0.830   0.764   0.761   0.578   0.573   0.554   0.573
   0.578   0.761   0.764   0.830   1.022   0.747   0.616   0.656   0.957   1.085
   1.083   1.092   0.971   0.924   1.298   2.417   1.653   2.417   1.298   0.924
   0.971   1.092   1.083   1.085   0.957   0.656   0.616   0.747   1.022   0.830
   0.764   0.761   0.578   0.573   0.554   0.573   0.578   0.761   0.764   0.830
   1.022   0.747   0.616   0.656   0.957   1.085   1.083   1.092   0.971   0.924
   1.298   2.417
   1.420   1.785   1.224   0.743   1.213   1.324   0.947   0.818   0.903   1.009
   0.920   0.965   1.016   0.805   0.952   0.584   0.465   0.438   0.374   0.438
   0.465   0.584   0.952   0.805   1.016   0.965   0.920   1.009   0.903   0.818
   0.947   1.324   1.213   0.743   1.224   1.785   1.420   1.785   1.224   0.743
   1.213   1.324   0.947   0.818   0.903   1.009   0.920   0.965   1.016   0.805
   0.952   0.584   0.465   0.438   0.374   0.438   0.465   0.584   0.952   0.805
   1.016   0.965   0.920   1.009   0.903   0.818   0.947   1.324   1.213   0.743
   1.224   1.785
   1.104   1.016   1.116   0.632   1.111   1.001   0.961   1.169   1.244   1.350
   1.284   1.198   1.167   1.103   1.280   0.788   0.545   0.433   0.306   0.433
   0.545   0.788   1.280   1.103   1.167   1.198   1.284   1.350   1.244   1.169
   0.961   1.001   1.111   0.632   1.116   1.016   1.104   1.016   1.116   0.632
   1.111   1.001   0.961   1.169   1.244   1.350   1.284   1.198   1.167   1.103
   1.280   0.788   0.545   0.433   0.306   0.433   0.545   0.788   1.280   1.103
   1.167   1.198   1.284   1.350   1.244   1.169   0.961   1.001   1.111   0.632
   1.116   1.016
   0.734   0.723   0.747   0.758   0.944   0.526   0.712   1.403   1.819   1.509
   1.227   1.474   1.124   0.911   0.992   0.856   0.607   0.637   0.665   0.637
   0.607   0.856   0.992   0.911   1.124   1.474   1.227   1.509   1.819   1.403
   0.712   0.526   0.944   0.758   0.747   0.723   0.734   0.723   0.747   0.758
   0.944   0.526   0.712   1.403   1.819   1.509   1.227   1.474   1.124   0.911
   0.992   0.856   0.607   0.637   0.665   0.637   0.607   0.856   0.992   0.911
   1.124   1.474   1.227   1.509   1.819   1.403   0.712   0.526   0.944   0.758
   0.747   0.723
   0.636   0.848   0.909   0.981   0.825   0.450   0.874   1.148   1.828   1.201
   1.212   1.709   1.588   0.862   0.793   0.851   0.565   0.880   0.879   0.880
   0.565   0.851   0.793   0.862   1.588   1.709   1.212   1.201   1.828   1.148
   0.874   0.450   0.825   0.981   0.909   0.848   0.636   0.848   0.909   0.981
   0.825   0.450   0.874   1.148   1.828   1.201   1.212   1.709   1.588   0.862
   0.793   0.851   0.565   0.880   0.879   0.880   0.565   0.851   0.793   0.862
   1.588   1.709   1.212   1.201   1.828   1.148   0.874   0.450   0.825   0.981
   0.909   0.848
   0.639   0.889   1.020   0.818   0.565   0.524   1.235   0.887   1.012   1.053
   1.510   1.873   1.767   1.447   0.854   0.708   0.445   0.674   0.661   0.674
   0.445   0.708   0.854   1.447   1.767   1.873   1.510   1.053   1.012   0.887
   1.235   0.524   0.565   0.818   1.020   0.889   0.639   0.889   1.020   0.818
   0.565   0.524   1.235   0.887   1.012   1.053   1.510   1.873   1.767   1.447
   0.854   0.708   0.445   0.674   0.661   0.674   0.445   0.708   0.854   1.447
   1.767   1.873   1.510   1.053   1.012   0.887   1.235   0.524   0.565   0.818
   1.020   0.889
   0.485   0.701   0.769   0.711   0.437   0.780   1.196   0.770   0.558   1.027
   1.159   1.877   1.187   1.542   0.722   0.610   0.475   0.529   1.056   0.529
   0.475   0.610   0.722   1.542   1.187   1.877   1.159   1.027   0.558   0.770
   1.196   0.780   0.437   0.711   0.769   0.701   0.485   0.701   0.769   0.711
   0.437   0.780   1.196   0.770   0.558   1.027   1.159   1.877   1.187   1.542
   0.722   0.610   0.475   0.529   1.056   0.529   0.475   0.610   0.722   1.542
   1.187   1.877   1.159   1.027   0.558   0.770   1.196   0.780   0.437   0.711
   0.769   0.701
   0.826   0.624   0.549   0.842   0.434   0.989   1.187   0.824   0.612   0.804
   1.334   1.404   0.842   0.842   0.745   0.678   0.764   1.728   2.753   1.728
   0.764   0.678   0.745   0.842   0.842   1.404   1.334   0.804   0.612   0.824
   1.187   0.989   0.434   0.842   0.549   0.624   0.826   0.624   0.549   0.842
   0.434   0.989   1.187   0.824   0.612   0.804   1.334   1.404   0.842   0.842
   0.745   0.678   0.764   1.728   2.753   1.728   0.764   0.678   0.745   0.842
   0.842   1.404   1.334   0.804   0.612   0.824   1.187   0.989   0.434   0.842
   0.549   0.624
   0.788   0.352   0.338   0.529   0.390   0.938   0.862   1.318   0.916   1.180
   1.683   0.944   0.446   0.396   0.894   0.512   0.923   1.621   2.149   1.621
   0.923   0.512   0.894   0.396   0.446   0.944   1.683   1.180   0.916   1.318
   0.862   0.938   0.390   0.529   0.338   0.352   0.788   0.352   0.338   0.529
   0.390   0.938   0.862   1.318   0.916   1.180   1.683   0.944   0.446   0.396
   0.894   0.512   0.923   1.621   2.149   1.621   0.923   0.512   0.894   0.396
   0.446   0.944   1.683   1.180   0.916   1.318   0.862   0.938   0.390   0.529
   0.338   0.352
   0.189   0.427   0.311   0.482   0.538   1.279   0.701   1.188   1.381   1.262
   1.165   0.837   0.413   0.675   0.920   0.975   0.757   0.594   0.363   0.594
   0.757   0.975   0.920   0.675   0.413   0.837   1.165   1.262   1.381   1.188
   0.701   1.279   0.538   0.482   0.311   0.427   0.189   0.427   0.311   0.482
   0.538   1.279   0.701   1.188   1.381   1.262   1.165   0.837   0.413   0.675
   0.920   0.975   0.757   0.594   0.363   0.594   0.757   0.975   0.920   0.675
   0.413   0.837   1.165   1.262   1.381   1.188   0.701   1.279   0.538   0.482
   0.311   0.427
   0.153   0.723   0.480   0.995   0.907   1.365   0.700   0.895   1.422   1.246
   0.800   0.553   0.556   1.356   2.055   1.141   1.019   1.072   0.488   1.072
   1.019   1.141   2.055   1.356   0.556   0.553   0.800   1.246   1.422   0.895
   0.700   1.365   0.907   0.995   0.480   0.723   0.153   0.723   0.480   0.995
   0.907   1.365   0.700   0.895   1.422   1.246   0.800   0.553   0.556   1.356
   2.055   1.141   1.019   1.072   0.488   1.072   1.019   1.141   2.055   1.356
   0.556   0.553   0.800   1.246   1.422   0.895   0.700   1.365   0.907   0.995
   0.480   0.723
 111       5.00   72    0 5.00   15    0
   0.742   0.742   0.742   0.742   0.742   0.742   0.742   0.742   0.742   0.742
   0.742   0.742   0.742   0.742   0.742   0.742   0.742   0.742   0.742   0.742
   0.742   0.742   0.742   0.742   0.742   0.742   0.742   0.742   0.742   0.742
   0.742   0.742   0.742   0.742   0.742   0.742   0.742   0.742   0.742   0.742
   0.742   0.742   0.742   0.742   0.742   0.742   0.742   0.742   0.742   0.742
   0.742   0.742   0.742   0.742   0.742   0.742   0.742   0.742   0.742   0.742
   0.742   0.742   0.742   0.742   0.742   0.742   0.742   0.742   0.742   0.742
   0.742   0.742
   0.604   0.733   0.733   0.680   0.677   0.750   0.861   0.919   0.953   0.961
   1.004   0.842   0.820   0.875   0.830   0.853   0.833   0.819   0.885   0.819
   0.833   0.853   0.830   0.875   0.820   0.842   1.004   0.961   0.953   0.919
   0.861   0.750   0.677   0.680   0.733   0.733   0.604   0.733   0.733   0.680
   0.677   0.750   0.861   0.919   0.953   0.961   1.004   0.842   0.820   0.875
   0.830   0.853   0.833   0.819   0.885   0.819   0.833   0.853   0.830   0.875
   0.820   0.842   1.004   0.961   0.953   0.919   0.861   0.750   0.677   0.680
   0.733   0.733
   1.048   0.837   0.895   0.777   0.776   0.760   0.806   0.732   0.767   0.786
   0.710   0.779   0.733   0.789   0.773   0.847   0.787   0.798   0.799   0.798
   0.787   0.847   0.773   0.789   0.733   0.779   0.710   0.786   0.767   0.732
   0.806   0.760   0.776   0.777   0.895   0.837   1.048   0.837   0.895   0.777
   0.776   0.760   0.806   0.732   0.767   0.786   0.710   0.779   0.733   0.789
   0.773   0.847   0.787   0.798   0.799   0.798   0.787   0.847   0.773   0.789
   0.733   0.779   0.710   0.786   0.767   0.732   0.806   0.760   0.776   0.777
   0.895   0.837
   0.972   0.846   1.223   0.928   0.846   0.726   0.817   0.581   0.551   0.572
   0.593   0.606   0.629   0.731   1.025   1.666   1.356   1.054   1.127   1.054
   1.356   1.666   1.025   0.731   0.629   0.606   0.593   0.572   0.551   0.581
   0.817   0.726   0.846   0.928   1.223   0.846   0.972   0.846   1.223   0.928
   0.846   0.726   0.817   0.581   0.551   0.572   0.593   0.606   0.629   0.731
   1.025   1.666   1.356   1.054   1.127   1.054   1.356   1.666   1.025   0.731
   0.629   0.606   0.593   0.572   0.551   0.581   0.817   0.726   0.846   0.928
   1.223   0.846
   0.573   0.905   1.394   1.348   1.755   1.093   0.851   0.900   0.642   0.709
   0.684   0.581   0.734   0.922   1.054   1.523   1.353   1.259   1.444   1.259
   1.353   1.523   1.054   0.922   0.734   0.581   0.684   0.709   0.642   0.900
   0.851   1.093   1.755   1.348   1.394   0.905   0.573   0.905   1.394   1.348
   1.755   1.093   0.851   0.900   0.642   0.709   0.684   0.581   0.734   0.922
   1.054   1.523   1.353   1.259   1.444   1.259   1.353   1.523   1.054   0.922
   0.734   0.581   0.684   0.709   0.642   0.900   0.851   1.093   1.755   1.348
   1.394   0.905
   1.315   1.612   2.046   1.730   2.439   1.583   1.203   1.114   0.813   0.792
   0.894   0.713   0.712   0.850   0.693   0.779   0.880   0.956   1.033   0.956
   0.880   0.779   0.693   0.850   0.712   0.713   0.894   0.792   0.813   1.114
   1.203   1.583   2.439   1.730   2.046   1.612   1.315   1.612   2.046   1.730
   2.439   1.583   1.203   1.114   0.813   0.792   0.894   0.713   0.712   0.850
   0.693   0.779   0.880   0.956   1.033   0.956   0.880   0.779   0.693   0.850
   0.712   0.713   0.894   0.792   0.813   1.114   1.203   1.583   2.439   1.730
   2.046   1.612
   1.210   1.517   3.215   1.752   2.108   1.381   1.823   1.845   1.298   1.064
   0.831   0.849   0.669   0.569   0.674   1.069   0.881   0.681   0.608   0.681
   0.881   1.069   0.674   0.569   0.669   0.849   0.831   1.064   1.298   1.845
   1.823   1.381   2.108   1.752   3.215   1.517   1.210   1.517   3.215   1.752
   2.108   1.381   1.823   1.845   1.298   1.064   0.831   0.849   0.669   0.569
   0.674   1.069   0.881   0.681   0.608   0.681   0.881   1.069   0.674   0.569
   0.669   0.849   0.831   1.064   1.298   1.845   1.823   1.381   2.108   1.752
   3.215   1.517
   0.646   0.808   2.432   1.531   1.496   1.039   1.521   2.365   2.289   1.754
   0.897   1.052   0.860   0.605   0.774   1.048   0.943   0.652   0.662   0.652
   0.943   1.048   0.774   0.605   0.860   1.052   0.897   1.754   2.289   2.365
   1.521   1.039   1.496   1.531   2.432   0.808   0.646   0.808   2.432   1.531
   1.496   1.039   1.521   2.365   2.289   1.754   0.897   1.052   0.860   0.605
   0.774   1.048   0.943   0.652   0.662   0.652   0.943   1.048   0.774   0.605
   0.860   1.052   0.897   1.754   2.289   2.365   1.521   1.039   1.496   1.531
   2.432   0.808
   0.787   0.807   1.080   1.128   1.021   1.119   1.109   2.082   2.877   1.825
   1.477   0.892   0.625   0.631   0.593   0.643   0.847   1.215   1.000   1.215
   0.847   0.643   0.593   0.631   0.625   0.892   1.477   1.825   2.877   2.082
   1.109   1.119   1.021   1.128   1.080   0.807   0.787   0.807   1.080   1.128
   1.021   1.119   1.109   2.082   2.877   1.825   1.477   0.892   0.625   0.631
   0.593   0.643   0.847   1.215   1.000   1.215   0.847   0.643   0.593   0.631
   0.625   0.892   1.477   1.825   2.877   2.082   1.109   1.119   1.021   1.128
   1.080   0.807
   0.877   0.987   0.928   0.835   1.116   1.136   1.194   1.851   1.881   1.342
   1.275   0.593   0.510   0.693   0.781   0.573   1.195   1.120   0.897   1.120
   1.195   0.573   0.781   0.693   0.510   0.593   1.275   1.342   1.881   1.851
   1.194   1.136   1.116   0.835   0.928   0.987   0.877   0.987   0.928   0.835
   1.116   1.136   1.194   1.851   1.881   1.342   1.275   0.593   0.510   0.693
   0.781   0.573   1.195   1.120   0.897   1.120   1.195   0.573   0.781   0.693
   0.510   0.593   1.275   1.342   1.881   1.851   1.194   1.136   1.116   0.835
   0.928   0.987
   0.800   0.860   0.586   0.796   1.013   0.984   0.885   0.988   0.786   0.764
   0.556   0.730   0.729   1.119   1.545   1.102   1.212   0.550   0.690   0.550
   1.212   1.102   1.545   1.119   0.729   0.730   0.556   0.764   0.786   0.988
   0.885   0.984   1.013   0.796   0.586   0.860   0.800   0.860   0.586   0.796
   1.013   0.984   0.885   0.988   0.786   0.764   0.556   0.730   0.729   1.119
   1.545   1.102   1.212   0.550   0.690   0.550   1.212   1.102   1.545   1.119
   0.729   0.730   0.556   0.764   0.786   0.988   0.885   0.984   1.013   0.796
   0.586   0.860
   0.489   0.568   0.639   0.820   0.938   1.107   0.808   0.665   1.092   0.420
   0.701   0.819   1.176   1.260   1.540   1.471   0.868   1.267   0.998   1.267
   0.868   1.471   1.540   1.260   1.176   0.819   0.701   0.420   1.092   0.665
   0.808   1.107   0.938   0.820   0.639   0.568   0.489   0.568   0.639   0.820
   0.938   1.107   0.808   0.665   1.092   0.420   0.701   0.819   1.176   1.260
   1.540   1.471   0.868   1.267   0.998   1.267   0.868   1.471   1.540   1.260
   1.176   0.819   0.701   0.420   1.092   0.665   0.808   1.107   0.938   0.820
   0.639   0.568
   0.255   0.463   0.702   0.959   1.417   1.241   0.820   1.233   1.137   0.859
   0.970   1.049   1.914   0.931   0.643   0.943   0.951   1.714   1.108   1.714
   0.951   0.943   0.643   0.931   1.914   1.049   0.970   0.859   1.137   1.233
   0.820   1.241   1.417   0.959   0.702   0.463   0.255   0.463   0.702   0.959
   1.417   1.241   0.820   1.233   1.137   0.859   0.970   1.049   1.914   0.931
   0.643   0.943   0.951   1.714   1.108   1.714   0.951   0.943   0.643   0.931
   1.914   1.049   0.970   0.859   1.137   1.233   0.820   1.241   1.417   0.959
   0.702   0.463
   0.662   0.619   0.626   0.886   1.674   1.445   0.673   1.190   0.563   0.896
   0.665   1.441   1.779   0.980   0.330   0.394   0.780   1.429   0.922   1.429
   0.780   0.394   0.330   0.980   1.779   1.441   0.665   0.896   0.563   1.190
   0.673   1.445   1.674   0.886   0.626   0.619   0.662   0.619   0.626   0.886
   1.674   1.445   0.673   1.190   0.563   0.896   0.665   1.441   1.779   0.980
   0.330   0.394   0.780   1.429   0.922   1.429   0.780   0.394   0.330   0.980
   1.779   1.441   0.665   0.896   0.563   1.190   0.673   1.445   1.674   0.886
   0.626   0.619
   0.826   0.835   0.727   0.662   1.228   1.372   0.737   0.724   0.302   0.418
   0.319   1.088   0.939   0.818   0.545   0.623   0.799   0.888   0.690   0.888
   0.799   0.623   0.545   0.818   0.939   1.088   0.319   0.418   0.302   0.724
   0.737   1.372   1.228   0.662   0.727   0.835   0.826   0.835   0.727   0.662
   1.228   1.372   0.737   0.724   0.302   0.418   0.319   1.088   0.939   0.818
   0.545   0.623   0.799   0.888   0.690   0.888   0.799   0.623   0.545   0.818
   0.939   1.088   0.319   0.418   0.302   0.724   0.737   1.372   1.228   0.662
   0.727   0.835
  4  1      2.6047695E-01
  4  2     -1.5858231E-01
  4  3     -4.2443549E-01
  6  1      4.7208452E-01
  6  2     -6.8674233E-01
  6  3      5.2732645E-01
  6  4      6.6199006E-01
  8  1      4.2429534E-01
  8  2      5.1692224E-02
  8  3     -3.0958902E-01
  8  4      1.3744551E-01
  8  5     -3.9455606E-02
 10  1      6.8080841E-03
 10  2     -4.9854140E-01
 10  3      8.3055798E-02
 10  4     -6.6942547E-01
 10  5     -4.3157850E-01
 10  6     -1.0249773E+00
 12  1     -1.8144540E-01  6.0880871E-01
 12  2      4.0591750E-02 -2.3235767E-01
 12  3     -2.9279447E-02  8.7304725E-01
 12  4      4.8595934E-01 -5.1053408E-01
 12  5      1.1685698E-01  3.1362394E-01
 12  6     -4.3484761E-01 -1.7475287E-01
 12  7     -1.1445253E+00 -5.2027181E-01
 14  1      1.7556696E-01
 14  2      1.1182956E-01
 14  3     -6.4747237E-01
 14  4      2.0360129E-01
 14  5     -1.2372789E-01
 14  6     -2.1555334E-02
 14  7     -8.1062921E-01
 14  8      3.2905709E-01
 220       5.00   72    0 5.00   18    0
   1.762   1.762   1.763   1.763   1.764   1.766   1.767   1.768   1.770   1.772
   1.773   1.775   1.776   1.778   1.779   1.780   1.780   1.781   1.781   1.781
   1.780   1.780   1.779   1.778   1.776   1.775   1.773   1.772   1.770   1.768
   1.767   1.766   1.764   1.763   1.763   1.762   1.762   1.762   1.763   1.763
   1.764   1.766   1.767   1.768   1.770   1.772   1.773   1.775   1.776   1.778
   1.779   1.780   1.780   1.781   1.781   1.781   1.780   1.780   1.779   1.778
   1.776   1.775   1.773   1.772   1.770   1.768   1.767   1.766   1.764   1.763
   1.763   1.762
   1.403   1.404   1.407   1.412   1.419   1.428   1.438   1.449   1.462   1.474
   1.488   1.501   1.513   1.525   1.535   1.543   1.549   1.553   1.554   1.553
   1.549   1.543   1.535   1.525   1.513   1.501   1.488   1.474   1.462   1.449
   1.438   1.428   1.419   1.412   1.407   1.404   1.403   1.404   1.407   1.412
   1.419   1.428   1.438   1.449   1.462   1.474   1.488   1.501   1.513   1.525
   1.535   1.543   1.549   1.553   1.554   1.553   1.549   1.543   1.535   1.525
   1.513   1.501   1.488   1.474   1.462   1.449   1.438   1.428   1.419   1.412
   1.407   1.404
   0.937   0.939   0.945   0.954   0.966   0.982   1.001   1.023   1.047   1.075
   1.104   1.135   1.166   1.196   1.224   1.248   1.266   1.277   1.281   1.277
   1.266   1.248   1.224   1.196   1.166   1.135   1.104   1.075   1.047   1.023
   1.001   0.982   0.966   0.954   0.945   0.939   0.937   0.939   0.945   0.954
   0.966   0.982   1.001   1.023   1.047   1.075   1.104   1.135   1.166   1.196
   1.224   1.248   1.266   1.277   1.281   1.277   1.266   1.248   1.224   1.196
   1.166   1.135   1.104   1.075   1.047   1.023   1.001   0.982   0.966   0.954
   0.945   0.939
   0.660   0.661   0.666   0.674   0.683   0.696   0.712   0.731   0.756   0.788
   0.827   0.874   0.927   0.983   1.039   1.089   1.129   1.156   1.165   1.156
   1.129   1.089   1.039   0.983   0.927   0.874   0.827   0.788   0.756   0.731
   0.712   0.696   0.683   0.674   0.666   0.661   0.660   0.661   0.666   0.674
   0.683   0.696   0.712   0.731   0.756   0.788   0.827   0.874   0.927   0.983
   1.039   1.089   1.129   1.156   1.165   1.156   1.129   1.089   1.039   0.983
   0.927   0.874   0.827   0.788   0.756   0.731   0.712   0.696   0.683   0.674
   0.666   0.661
   0.665   0.667   0.670   0.674   0.677   0.676   0.674   0.672   0.676   0.691
   0.721   0.772   0.843   0.929   1.023   1.114   1.190   1.241   1.259   1.241
   1.190   1.114   1.023   0.929   0.843   0.772   0.721   0.691   0.676   0.672
   0.674   0.676   0.677   0.674   0.670   0.667   0.665   0.667   0.670   0.674
   0.677   0.676   0.674   0.672   0.676   0.691   0.721   0.772   0.843   0.929
   1.023   1.114   1.190   1.241   1.259   1.241   1.190   1.114   1.023   0.929
   0.843   0.772   0.721   0.691   0.676   0.672   0.674   0.676   0.677   0.674
   0.670   0.667
   0.794   0.798   0.809   0.822   0.828   0.823   0.804   0.775   0.744   0.722
   0.723   0.758   0.831   0.938   1.069   1.203   1.320   1.400   1.428   1.400
   1.320   1.203   1.069   0.938   0.831   0.758   0.723   0.722   0.744   0.775
   0.804   0.823   0.828   0.822   0.809   0.798   0.794   0.798   0.809   0.822
   0.828   0.823   0.804   0.775   0.744   0.722   0.723   0.758   0.831   0.938
   1.069   1.203   1.320   1.400   1.428   1.400   1.320   1.203   1.069   0.938
   0.831   0.758   0.723   0.722   0.744   0.775   0.804   0.823   0.828   0.822
   0.809   0.798
   0.819   0.831   0.864   0.906   0.942   0.959   0.950   0.915   0.861   0.804
   0.765   0.763   0.812   0.913   1.052   1.207   1.346   1.443   1.478   1.443
   1.346   1.207   1.052   0.913   0.812   0.763   0.765   0.804   0.861   0.915
   0.950   0.959   0.942   0.906   0.864   0.831   0.819   0.831   0.864   0.906
   0.942   0.959   0.950   0.915   0.861   0.804   0.765   0.763   0.812   0.913
   1.052   1.207   1.346   1.443   1.478   1.443   1.346   1.207   1.052   0.913
   0.812   0.763   0.765   0.804   0.861   0.915   0.950   0.959   0.942   0.906
   0.864   0.831
   0.711   0.731   0.785   0.858   0.931   0.988   1.016   1.010   0.970   0.907
   0.840   0.797   0.799   0.858   0.965   1.095   1.216   1.301   1.332   1.301
   1.216   1.095   0.965   0.858   0.799   0.797   0.840   0.907   0.970   1.010
   1.016   0.988   0.931   0.858   0.785   0.731   0.711   0.731   0.785   0.858
   0.931   0.988   1.016   1.010   0.970   0.907   0.840   0.797   0.799   0.858
   0.965   1.095   1.216   1.301   1.332   1.301   1.216   1.095   0.965   0.858
   0.799   0.797   0.840   0.907   0.970   1.010   1.016   0.988   0.931   0.858
   0.785   0.731
   0.693   0.710   0.754   0.813   0.874   0.933   0.987   1.027   1.039   1.013
   0.956   0.891   0.852   0.859   0.907   0.976   1.039   1.080   1.093   1.080
   1.039   0.976   0.907   0.859   0.852   0.891   0.956   1.013   1.039   1.027
   0.987   0.933   0.874   0.813   0.754   0.710   0.693   0.710   0.754   0.813
   0.874   0.933   0.987   1.027   1.039   1.013   0.956   0.891   0.852   0.859
   0.907   0.976   1.039   1.080   1.093   1.080   1.039   0.976   0.907   0.859
   0.852   0.891   0.956   1.013   1.039   1.027   0.987   0.933   0.874   0.813
   0.754   0.710
   1.002   0.999   0.983   0.949   0.906   0.879   0.895   0.955   1.027   1.069
   1.058   1.012   0.968   0.954   0.965   0.975   0.966   0.945   0.934   0.945
   0.966   0.975   0.965   0.954   0.968   1.012   1.058   1.069   1.027   0.955
   0.895   0.879   0.906   0.949   0.983   0.999   1.002   0.999   0.983   0.949
   0.906   0.879   0.895   0.955   1.027   1.069   1.058   1.012   0.968   0.954
   0.965   0.975   0.966   0.945   0.934   0.945   0.966   0.975   0.965   0.954
   0.968   1.012   1.058   1.069   1.027   0.955   0.895   0.879   0.906   0.949
   0.983   0.999
   1.579   1.549   1.450   1.280   1.066   0.878   0.787   0.815   0.920   1.021
   1.067   1.065   1.060   1.081   1.111   1.103   1.039   0.958   0.920   0.958
   1.039   1.103   1.111   1.081   1.060   1.065   1.067   1.021   0.920   0.815
   0.787   0.878   1.066   1.280   1.450   1.549   1.579   1.549   1.450   1.280
   1.066   0.878   0.787   0.815   0.920   1.021   1.067   1.065   1.060   1.081
   1.111   1.103   1.039   0.958   0.920   0.958   1.039   1.103   1.111   1.081
   1.060   1.065   1.067   1.021   0.920   0.815   0.787   0.878   1.066   1.280
   1.450   1.549
   2.032   1.990   1.849   1.593   1.254   0.927   0.721   0.689   0.785   0.907
   0.978   1.007   1.049   1.137   1.226   1.240   1.150   1.021   0.961   1.021
   1.150   1.240   1.226   1.137   1.049   1.007   0.978   0.907   0.785   0.689
   0.721   0.927   1.254   1.593   1.849   1.990   2.032   1.990   1.849   1.593
   1.254   0.927   0.721   0.689   0.785   0.907   0.978   1.007   1.049   1.137
   1.226   1.240   1.150   1.021   0.961   1.021   1.150   1.240   1.226   1.137
   1.049   1.007   0.978   0.907   0.785   0.689   0.721   0.927   1.254   1.593
   1.849   1.990
   1.975   1.950   1.850   1.638   1.322   0.985   0.747   0.676   0.740   0.837
   0.887   0.904   0.959   1.085   1.221   1.258   1.155   0.994   0.917   0.994
   1.155   1.258   1.221   1.085   0.959   0.904   0.887   0.837   0.740   0.676
   0.747   0.985   1.322   1.638   1.850   1.950   1.975   1.950   1.850   1.638
   1.322   0.985   0.747   0.676   0.740   0.837   0.887   0.904   0.959   1.085
   1.221   1.258   1.155   0.994   0.917   0.994   1.155   1.258   1.221   1.085
   0.959   0.904   0.887   0.837   0.740   0.676   0.747   0.985   1.322   1.638
   1.850   1.950
   1.427   1.432   1.427   1.360   1.210   1.011   0.848   0.788   0.825   0.884
   0.899   0.880   0.899   0.996   1.113   1.138   1.021   0.846   0.764   0.846
   1.021   1.138   1.113   0.996   0.899   0.880   0.899   0.884   0.825   0.788
   0.848   1.011   1.210   1.360   1.427   1.432   1.427   1.432   1.427   1.360
   1.210   1.011   0.848   0.788   0.825   0.884   0.899   0.880   0.899   0.996
   1.113   1.138   1.021   0.846   0.764   0.846   1.021   1.138   1.113   0.996
   0.899   0.880   0.899   0.884   0.825   0.788   0.848   1.011   1.210   1.360
   1.427   1.432
   0.846   0.861   0.902   0.955   0.988   0.977   0.936   0.913   0.939   0.991
   1.014   0.993   0.967   0.979   1.009   0.982   0.859   0.700   0.627   0.700
   0.859   0.982   1.009   0.979   0.967   0.993   1.014   0.991   0.939   0.913
   0.936   0.977   0.988   0.955   0.902   0.861   0.846   0.861   0.902   0.955
   0.988   0.977   0.936   0.913   0.939   0.991   1.014   0.993   0.967   0.979
   1.009   0.982   0.859   0.700   0.627   0.700   0.859   0.982   1.009   0.979
   0.967   0.993   1.014   0.991   0.939   0.913   0.936   0.977   0.988   0.955
   0.902   0.861
   0.715   0.690   0.656   0.685   0.783   0.881   0.918   0.911   0.937   1.030
   1.142   1.193   1.161   1.083   1.001   0.912   0.802   0.696   0.650   0.696
   0.802   0.912   1.001   1.083   1.161   1.193   1.142   1.030   0.937   0.911
   0.918   0.881   0.783   0.685   0.656   0.690   0.715   0.690   0.656   0.685
   0.783   0.881   0.918   0.911   0.937   1.030   1.142   1.193   1.161   1.083
   1.001   0.912   0.802   0.696   0.650   0.696   0.802   0.912   1.001   1.083
   1.161   1.193   1.142   1.030   0.937   0.911   0.918   0.881   0.783   0.685
   0.656   0.690
   1.072   0.972   0.769   0.642   0.669   0.761   0.795   0.767   0.792   0.956
   1.203   1.382   1.391   1.256   1.082   0.950   0.875   0.839   0.828   0.839
   0.875   0.950   1.082   1.256   1.391   1.382   1.203   0.956   0.792   0.767
   0.795   0.761   0.669   0.642   0.769   0.972   1.072   0.972   0.769   0.642
   0.669   0.761   0.795   0.767   0.792   0.956   1.203   1.382   1.391   1.256
   1.082   0.950   0.875   0.839   0.828   0.839   0.875   0.950   1.082   1.256
   1.391   1.382   1.203   0.956   0.792   0.767   0.795   0.761   0.669   0.642
   0.769   0.972
   1.478   1.319   0.975   0.703   0.633   0.676   0.677   0.620   0.642   0.860
   1.210   1.489   1.542   1.385   1.164   1.014   0.970   0.986   1.000   0.986
   0.970   1.014   1.164   1.385   1.542   1.489   1.210   0.860   0.642   0.620
   0.677   0.676   0.633   0.703   0.975   1.319   1.478   1.319   0.975   0.703
   0.633   0.676   0.677   0.620   0.642   0.860   1.210   1.489   1.542   1.385
   1.164   1.014   0.970   0.986   1.000   0.986   0.970   1.014   1.164   1.385
   1.542   1.489   1.210   0.860   0.642   0.620   0.677   0.676   0.633   0.703
   0.975   1.319
 200       5.00   72    0 5.00   18    0
   1.283   1.283   1.283   1.282   1.281   1.281   1.280   1.279   1.278   1.277
   1.275   1.275   1.274   1.273   1.272   1.272   1.271   1.271   1.271   1.271
   1.271   1.272   1.272   1.273   1.274   1.275   1.275   1.277   1.278   1.279
   1.280   1.281   1.281   1.282   1.283   1.283   1.283   1.283   1.283   1.282
   1.281   1.281   1.280   1.279   1.278   1.277   1.275   1.275   1.274   1.273
   1.272   1.272   1.271   1.271   1.271   1.271   1.271   1.272   1.272   1.273
   1.274   1.275   1.275   1.277   1.278   1.279   1.280   1.281   1.281   1.282
   1.283   1.283
   1.315   1.313   1.309   1.301   1.292   1.280   1.268   1.256   1.245   1.235
   1.227   1.220   1.215   1.212   1.209   1.208   1.208   1.208   1.208   1.208
   1.208   1.208   1.209   1.212   1.215   1.220   1.227   1.235   1.245   1.256
   1.268   1.280   1.292   1.301   1.309   1.313   1.315   1.313   1.309   1.301
   1.292   1.280   1.268   1.256   1.245   1.235   1.227   1.220   1.215   1.212
   1.209   1.208   1.208   1.208   1.208   1.208   1.208   1.208   1.209   1.212
   1.215   1.220   1.227   1.235   1.245   1.256   1.268   1.280   1.292   1.301
   1.309   1.313
   1.386   1.379   1.360   1.330   1.293   1.250   1.207   1.166   1.131   1.103
   1.084   1.074   1.071   1.075   1.084   1.093   1.102   1.108   1.111   1.108
   1.102   1.093   1.084   1.075   1.071   1.074   1.084   1.103   1.131   1.166
   1.207   1.250   1.293   1.330   1.360   1.379   1.386   1.379   1.360   1.330
   1.293   1.250   1.207   1.166   1.131   1.103   1.084   1.074   1.071   1.075
   1.084   1.093   1.102   1.108   1.111   1.108   1.102   1.093   1.084   1.075
   1.071   1.074   1.084   1.103   1.131   1.166   1.207   1.250   1.293   1.330
   1.360   1.379
   1.450   1.436   1.396   1.334   1.257   1.173   1.089   1.013   0.951   0.907
   0.881   0.873   0.881   0.901   0.928   0.956   0.981   0.997   1.003   0.997
   0.981   0.956   0.928   0.901   0.881   0.873   0.881   0.907   0.951   1.013
   1.089   1.173   1.257   1.334   1.396   1.436   1.450   1.436   1.396   1.334
   1.257   1.173   1.089   1.013   0.951   0.907   0.881   0.873   0.881   0.901
   0.928   0.956   0.981   0.997   1.003   0.997   0.981   0.956   0.928   0.901
   0.881   0.873   0.881   0.907   0.951   1.013   1.089   1.173   1.257   1.334
   1.396   1.436
   1.408   1.390   1.338   1.259   1.165   1.067   0.976   0.898   0.839   0.799
   0.778   0.774   0.782   0.798   0.821   0.844   0.864   0.878   0.883   0.878
   0.864   0.844   0.821   0.798   0.782   0.774   0.778   0.799   0.839   0.898
   0.976   1.067   1.165   1.259   1.338   1.390   1.408   1.390   1.338   1.259
   1.165   1.067   0.976   0.898   0.839   0.799   0.778   0.774   0.782   0.798
   0.821   0.844   0.864   0.878   0.883   0.878   0.864   0.844   0.821   0.798
   0.782   0.774   0.778   0.799   0.839   0.898   0.976   1.067   1.165   1.259
   1.338   1.390
   1.215   1.198   1.152   1.088   1.022   0.967   0.932   0.918   0.919   0.925
   0.927   0.918   0.896   0.864   0.829   0.796   0.770   0.754   0.749   0.754
   0.770   0.796   0.829   0.864   0.896   0.918   0.927   0.925   0.919   0.918
   0.932   0.967   1.022   1.088   1.152   1.198   1.215   1.198   1.152   1.088
   1.022   0.967   0.932   0.918   0.919   0.925   0.927   0.918   0.896   0.864
   0.829   0.796   0.770   0.754   0.749   0.754   0.770   0.796   0.829   0.864
   0.896   0.918   0.927   0.925   0.919   0.918   0.932   0.967   1.022   1.088
   1.152   1.198
   0.968   0.953   0.916   0.876   0.859   0.880   0.945   1.043   1.150   1.237
   1.280   1.263   1.189   1.072   0.939   0.814   0.717   0.656   0.635   0.656
   0.717   0.814   0.939   1.072   1.189   1.263   1.280   1.237   1.150   1.043
   0.945   0.880   0.859   0.876   0.916   0.953   0.968   0.953   0.916   0.876
   0.859   0.880   0.945   1.043   1.150   1.237   1.280   1.263   1.189   1.072
   0.939   0.814   0.717   0.656   0.635   0.656   0.717   0.814   0.939   1.072
   1.189   1.263   1.280   1.237   1.150   1.043   0.945   0.880   0.859   0.876
   0.916   0.953
   0.839   0.818   0.770   0.727   0.728   0.797   0.939   1.133   1.338   1.506
   1.594   1.577   1.458   1.268   1.054   0.861   0.719   0.636   0.610   0.636
   0.719   0.861   1.054   1.268   1.458   1.577   1.594   1.506   1.338   1.133
   0.939   0.797   0.728   0.727   0.770   0.818   0.839   0.818   0.770   0.727
   0.728   0.797   0.939   1.133   1.338   1.506   1.594   1.577   1.458   1.268
   1.054   0.861   0.719   0.636   0.610   0.636   0.719   0.861   1.054   1.268
   1.458   1.577   1.594   1.506   1.338   1.133   0.939   0.797   0.728   0.727
   0.770   0.818
   0.889   0.857   0.778   0.699   0.672   0.731   0.879   1.094   1.331   1.534
   1.651   1.644   1.513   1.299   1.068   0.883   0.772   0.724   0.713   0.724
   0.772   0.883   1.068   1.299   1.513   1.644   1.651   1.534   1.331   1.094
   0.879   0.731   0.672   0.699   0.778   0.857   0.889   0.857   0.778   0.699
   0.672   0.731   0.879   1.094   1.331   1.534   1.651   1.644   1.513   1.299
   1.068   0.883   0.772   0.724   0.713   0.724   0.772   0.883   1.068   1.299
   1.513   1.644   1.651   1.534   1.331   1.094   0.879   0.731   0.672   0.699
   0.778   0.857
   0.986   0.947   0.851   0.750   0.698   0.722   0.823   0.982   1.169   1.344
   1.456   1.460   1.342   1.147   0.958   0.850   0.841   0.885   0.911   0.885
   0.841   0.850   0.958   1.147   1.342   1.460   1.456   1.344   1.169   0.982
   0.823   0.722   0.698   0.750   0.851   0.947   0.986   0.947   0.851   0.750
   0.698   0.722   0.823   0.982   1.169   1.344   1.456   1.460   1.342   1.147
   0.958   0.850   0.841   0.885   0.911   0.885   0.841   0.850   0.958   1.147
   1.342   1.460   1.456   1.344   1.169   0.982   0.823   0.722   0.698   0.750
   0.851   0.947
   0.933   0.906   0.842   0.784   0.765   0.792   0.851   0.929   1.023   1.126
   1.205   1.207   1.105   0.936   0.797   0.778   0.888   1.039   1.108   1.039
   0.888   0.778   0.797   0.936   1.105   1.207   1.205   1.126   1.023   0.929
   0.851   0.792   0.765   0.784   0.842   0.906   0.933   0.906   0.842   0.784
   0.765   0.792   0.851   0.929   1.023   1.126   1.205   1.207   1.105   0.936
   0.797   0.778   0.888   1.039   1.108   1.039   0.888   0.778   0.797   0.936
   1.105   1.207   1.205   1.126   1.023   0.929   0.851   0.792   0.765   0.784
   0.842   0.906
   0.689   0.691   0.707   0.749   0.819   0.895   0.952   0.980   0.999   1.030
   1.063   1.051   0.956   0.803   0.690   0.720   0.898   1.113   1.208   1.113
   0.898   0.720   0.690   0.803   0.956   1.051   1.063   1.030   0.999   0.980
   0.952   0.895   0.819   0.749   0.707   0.691   0.689   0.691   0.707   0.749
   0.819   0.895   0.952   0.980   0.999   1.030   1.063   1.051   0.956   0.803
   0.690   0.720   0.898   1.113   1.208   1.113   0.898   0.720   0.690   0.803
   0.956   1.051   1.063   1.030   0.999   0.980   0.952   0.895   0.819   0.749
   0.707   0.691
   0.416   0.455   0.560   0.696   0.832   0.945   1.022   1.056   1.058   1.048
   1.033   0.996   0.910   0.788   0.702   0.733   0.893   1.083   1.169   1.083
   0.893   0.733   0.702   0.788   0.910   0.996   1.033   1.048   1.058   1.056
   1.022   0.945   0.832   0.696   0.560   0.455   0.416   0.455   0.560   0.696
   0.832   0.945   1.022   1.056   1.058   1.048   1.033   0.996   0.910   0.788
   0.702   0.733   0.893   1.083   1.169   1.083   0.893   0.733   0.702   0.788
   0.910   0.996   1.033   1.048   1.058   1.056   1.022   0.945   0.832   0.696
   0.560   0.455
   0.309   0.384   0.559   0.731   0.840   0.911   0.992   1.083   1.136   1.111
   1.025   0.931   0.867   0.837   0.833   0.856   0.910   0.972   0.999   0.972
   0.910   0.856   0.833   0.837   0.867   0.931   1.025   1.111   1.136   1.083
   0.992   0.911   0.840   0.731   0.559   0.384   0.309   0.384   0.559   0.731
   0.840   0.911   0.992   1.083   1.136   1.111   1.025   0.931   0.867   0.837
   0.833   0.856   0.910   0.972   0.999   0.972   0.910   0.856   0.833   0.837
   0.867   0.931   1.025   1.111   1.136   1.083   0.992   0.911   0.840   0.731
   0.559   0.384
   0.396   0.513   0.755   0.914   0.909   0.857   0.920   1.111   1.267   1.226
   1.007   0.790   0.747   0.881   1.045   1.086   0.974   0.811   0.736   0.811
   0.974   1.086   1.045   0.881   0.747   0.790   1.007   1.226   1.267   1.111
   0.920   0.857   0.909   0.914   0.755   0.513   0.396   0.513   0.755   0.914
   0.909   0.857   0.920   1.111   1.267   1.226   1.007   0.790   0.747   0.881
   1.045   1.086   0.974   0.811   0.736   0.811   0.974   1.086   1.045   0.881
   0.747   0.790   1.007   1.226   1.267   1.111   0.920   0.857   0.909   0.914
   0.755   0.513
   0.544   0.716   1.050   1.207   1.073   0.878   0.932   1.256   1.537   1.456
   1.031   0.616   0.565   0.899   1.292   1.378   1.071   0.630   0.426   0.630
   1.071   1.378   1.292   0.899   0.565   0.616   1.031   1.456   1.537   1.256
   0.932   0.878   1.073   1.207   1.050   0.716   0.544   0.716   1.050   1.207
   1.073   0.878   0.932   1.256   1.537   1.456   1.031   0.616   0.565   0.899
   1.292   1.378   1.071   0.630   0.426   0.630   1.071   1.378   1.292   0.899
   0.565   0.616   1.031   1.456   1.537   1.256   0.932   0.878   1.073   1.207
   1.050   0.716
   0.624   0.857   1.306   1.499   1.283   0.991   1.061   1.520   1.916   1.778
   1.125   0.485   0.397   0.904   1.514   1.650   1.167   0.466   0.141   0.466
   1.167   1.650   1.514   0.904   0.397   0.485   1.125   1.778   1.916   1.520
   1.061   0.991   1.283   1.499   1.306   0.857   0.624   0.857   1.306   1.499
   1.283   0.991   1.061   1.520   1.916   1.778   1.125   0.485   0.397   0.904
   1.514   1.650   1.167   0.466   0.141   0.466   1.167   1.650   1.514   0.904
   0.397   0.485   1.125   1.778   1.916   1.520   1.061   0.991   1.283   1.499
   1.306   0.857
   0.634   0.910   1.442   1.678   1.433   1.099   1.192   1.742   2.207   2.026
   1.220   0.427   0.303   0.908   1.648   1.816   1.226   0.366  -0.034   0.366
   1.226   1.816   1.648   0.908   0.303   0.427   1.220   2.026   2.207   1.742
   1.192   1.099   1.433   1.678   1.442   0.910   0.634   0.910   1.442   1.678
   1.433   1.099   1.192   1.742   2.207   2.026   1.220   0.427   0.303   0.908
   1.648   1.816   1.226   0.366  -0.034   0.366   1.226   1.816   1.648   0.908
   0.303   0.427   1.220   2.026   2.207   1.742   1.192   1.099   1.433   1.678
   1.442   0.910
 111       5.00   72    0 5.00   18    0
   0.826   0.827   0.827   0.828   0.829   0.831   0.833   0.835   0.837   0.839
   0.842   0.844   0.846   0.848   0.850   0.851   0.852   0.853   0.853   0.853
   0.852   0.851   0.850   0.848   0.846   0.844   0.842   0.839   0.837   0.835
   0.833   0.831   0.829   0.828   0.827   0.827   0.826   0.827   0.827   0.828
   0.829   0.831   0.833   0.835   0.837   0.839   0.842   0.844   0.846   0.848
   0.850   0.851   0.852   0.853   0.853   0.853   0.852   0.851   0.850   0.848
   0.846   0.844   0.842   0.839   0.837   0.835   0.833   0.831   0.829   0.828
   0.827   0.827
   0.715   0.715   0.717   0.719   0.722   0.727   0.735   0.744   0.757   0.772
   0.790   0.809   0.829   0.849   0.867   0.883   0.895   0.903   0.905   0.903
   0.895   0.883   0.867   0.849   0.829   0.809   0.790   0.772   0.757   0.744
   0.735   0.727   0.722   0.719   0.717   0.715   0.715   0.715   0.717   0.719
   0.722   0.727   0.735   0.744   0.757   0.772   0.790   0.809   0.829   0.849
   0.867   0.883   0.895   0.903   0.905   0.903   0.895   0.883   0.867   0.849
   0.829   0.809   0.790   0.772   0.757   0.744   0.735   0.727   0.722   0.719
   0.717   0.715
   0.702   0.699   0.688   0.672   0.653   0.635   0.621   0.615   0.619   0.635
   0.665   0.706   0.758   0.815   0.873   0.925   0.968   0.995   1.004   0.995
   0.968   0.925   0.873   0.815   0.758   0.706   0.665   0.635   0.619   0.615
   0.621   0.635   0.653   0.672   0.688   0.699   0.702   0.699   0.688   0.672
   0.653   0.635   0.621   0.615   0.619   0.635   0.665   0.706   0.758   0.815
   0.873   0.925   0.968   0.995   1.004   0.995   0.968   0.925   0.873   0.815
   0.758   0.706   0.665   0.635   0.619   0.615   0.621   0.635   0.653   0.672
   0.688   0.699
   0.938   0.927   0.894   0.843   0.778   0.705   0.632   0.569   0.524   0.505
   0.516   0.561   0.635   0.732   0.840   0.945   1.033   1.091   1.112   1.091
   1.033   0.945   0.840   0.732   0.635   0.561   0.516   0.505   0.524   0.569
   0.632   0.705   0.778   0.843   0.894   0.927   0.938   0.927   0.894   0.843
   0.778   0.705   0.632   0.569   0.524   0.505   0.516   0.561   0.635   0.732
   0.840   0.945   1.033   1.091   1.112   1.091   1.033   0.945   0.840   0.732
   0.635   0.561   0.516   0.505   0.524   0.569   0.632   0.705   0.778   0.843
   0.894   0.927
   1.299   1.287   1.251   1.190   1.105   0.999   0.877   0.751   0.633   0.541
   0.488   0.486   0.538   0.638   0.770   0.912   1.038   1.125   1.156   1.125
   1.038   0.912   0.770   0.638   0.538   0.486   0.488   0.541   0.633   0.751
   0.877   0.999   1.105   1.190   1.251   1.287   1.299   1.287   1.251   1.190
   1.105   0.999   0.877   0.751   0.633   0.541   0.488   0.486   0.538   0.638
   0.770   0.912   1.038   1.125   1.156   1.125   1.038   0.912   0.770   0.638
   0.538   0.486   0.488   0.541   0.633   0.751   0.877   0.999   1.105   1.190
   1.251   1.287
   1.488   1.492   1.498   1.496   1.474   1.416   1.317   1.176   1.008   0.834
   0.684   0.583   0.550   0.589   0.689   0.824   0.958   1.055   1.091   1.055
   0.958   0.824   0.689   0.589   0.550   0.583   0.684   0.834   1.008   1.176
   1.317   1.416   1.474   1.496   1.498   1.492   1.488   1.492   1.498   1.496
   1.474   1.416   1.317   1.176   1.008   0.834   0.684   0.583   0.550   0.589
   0.689   0.824   0.958   1.055   1.091   1.055   0.958   0.824   0.689   0.589
   0.550   0.583   0.684   0.834   1.008   1.176   1.317   1.416   1.474   1.496
   1.498   1.492
   1.337   1.367   1.449   1.561   1.669   1.738   1.737   1.650   1.482   1.259
   1.021   0.811   0.666   0.607   0.633   0.722   0.835   0.926   0.960   0.926
   0.835   0.722   0.633   0.607   0.666   0.811   1.021   1.259   1.482   1.650
   1.737   1.738   1.669   1.561   1.449   1.367   1.337   1.367   1.449   1.561
   1.669   1.738   1.737   1.650   1.482   1.259   1.021   0.811   0.666   0.607
   0.633   0.722   0.835   0.926   0.960   0.926   0.835   0.722   0.633   0.607
   0.666   0.811   1.021   1.259   1.482   1.650   1.737   1.738   1.669   1.561
   1.449   1.367
   0.971   1.021   1.162   1.367   1.593   1.784   1.890   1.881   1.755   1.538
   1.274   1.014   0.803   0.672   0.635   0.678   0.765   0.847   0.880   0.847
   0.765   0.678   0.635   0.672   0.803   1.014   1.274   1.538   1.755   1.881
   1.890   1.784   1.593   1.367   1.162   1.021   0.971   1.021   1.162   1.367
   1.593   1.784   1.890   1.881   1.755   1.538   1.274   1.014   0.803   0.672
   0.635   0.678   0.765   0.847   0.880   0.847   0.765   0.678   0.635   0.672
   0.803   1.014   1.274   1.538   1.755   1.881   1.890   1.784   1.593   1.367
   1.162   1.021
   0.661   0.711   0.855   1.074   1.329   1.559   1.706   1.736   1.652   1.488
   1.287   1.083   0.905   0.776   0.720   0.743   0.822   0.906   0.941   0.906
   0.822   0.743   0.720   0.776   0.905   1.083   1.287   1.488   1.652   1.736
   1.706   1.559   1.329   1.074   0.855   0.711   0.661   0.711   0.855   1.074
   1.329   1.559   1.706   1.736   1.652   1.488   1.287   1.083   0.905   0.776
   0.720   0.743   0.822   0.906   0.941   0.906   0.822   0.743   0.720   0.776
   0.905   1.083   1.287   1.488   1.652   1.736   1.706   1.559   1.329   1.074
   0.855   0.711
   0.564   0.595   0.694   0.860   1.065   1.251   1.356   1.356   1.282   1.190
   1.118   1.064   1.004   0.935   0.888   0.902   0.983   1.078   1.121   1.078
   0.983   0.902   0.888   0.935   1.004   1.064   1.118   1.190   1.282   1.356
   1.356   1.251   1.065   0.860   0.694   0.595   0.564   0.595   0.694   0.860
   1.065   1.251   1.356   1.356   1.282   1.190   1.118   1.064   1.004   0.935
   0.888   0.902   0.983   1.078   1.121   1.078   0.983   0.902   0.888   0.935
   1.004   1.064   1.118   1.190   1.282   1.356   1.356   1.251   1.065   0.860
   0.694   0.595
   0.611   0.624   0.677   0.789   0.939   1.063   1.091   1.018   0.917   0.884
   0.958   1.082   1.159   1.141   1.076   1.058   1.131   1.244   1.298   1.244
   1.131   1.058   1.076   1.141   1.159   1.082   0.958   0.884   0.917   1.018
   1.091   1.063   0.939   0.789   0.677   0.624   0.611   0.624   0.677   0.789
   0.939   1.063   1.091   1.018   0.917   0.884   0.958   1.082   1.159   1.141
   1.076   1.058   1.131   1.244   1.298   1.244   1.131   1.058   1.076   1.141
   1.159   1.082   0.958   0.884   0.917   1.018   1.091   1.063   0.939   0.789
   0.677   0.624
   0.653   0.663   0.709   0.817   0.961   1.056   1.022   0.871   0.723   0.722
   0.908   1.171   1.334   1.311   1.176   1.093   1.153   1.291   1.362   1.291
   1.153   1.093   1.176   1.311   1.334   1.171   0.908   0.722   0.723   0.871
   1.022   1.056   0.961   0.817   0.709   0.663   0.653   0.663   0.709   0.817
   0.961   1.056   1.022   0.871   0.723   0.722   0.908   1.171   1.334   1.311
   1.176   1.093   1.153   1.291   1.362   1.291   1.153   1.093   1.176   1.311
   1.334   1.171   0.908   0.722   0.723   0.871   1.022   1.056   0.961   0.817
   0.709   0.663
   0.629   0.654   0.739   0.886   1.050   1.131   1.053   0.845   0.658   0.665
   0.904   1.225   1.400   1.322   1.101   0.964   1.035   1.222   1.319   1.222
   1.035   0.964   1.101   1.322   1.400   1.225   0.904   0.665   0.658   0.845
   1.053   1.131   1.050   0.886   0.739   0.654   0.629   0.654   0.739   0.886
   1.050   1.131   1.053   0.845   0.658   0.665   0.904   1.225   1.400   1.322
   1.101   0.964   1.035   1.222   1.319   1.222   1.035   0.964   1.101   1.322
   1.400   1.225   0.904   0.665   0.658   0.845   1.053   1.131   1.050   0.886
   0.739   0.654
   0.585   0.644   0.799   0.993   1.144   1.169   1.034   0.798   0.610   0.619
   0.847   1.136   1.261   1.127   0.874   0.753   0.889   1.154   1.285   1.154
   0.889   0.753   0.874   1.127   1.261   1.136   0.847   0.619   0.610   0.798
   1.034   1.169   1.144   0.993   0.799   0.644   0.585   0.644   0.799   0.993
   1.144   1.169   1.034   0.798   0.610   0.619   0.847   1.136   1.261   1.127
   0.874   0.753   0.889   1.154   1.285   1.154   0.889   0.753   0.874   1.127
   1.261   1.136   0.847   0.619   0.610   0.798   1.034   1.169   1.144   0.993
   0.799   0.644
   0.574   0.684   0.937   1.171   1.253   1.154   0.938   0.711   0.576   0.600
   0.762   0.939   0.973   0.821   0.626   0.612   0.866   1.219   1.384   1.219
   0.866   0.612   0.626   0.821   0.973   0.939   0.762   0.600   0.576   0.711
   0.938   1.154   1.253   1.171   0.937   0.684   0.574   0.684   0.937   1.171
   1.253   1.154   0.938   0.711   0.576   0.600   0.762   0.939   0.973   0.821
   0.626   0.612   0.866   1.219   1.384   1.219   0.866   0.612   0.626   0.821
   0.973   0.939   0.762   0.600   0.576   0.711   0.938   1.154   1.253   1.171
   0.937   0.684
   0.583   0.760   1.142   1.424   1.410   1.153   0.856   0.681   0.653   0.707
   0.769   0.778   0.700   0.564   0.498   0.647   1.030   1.454   1.639   1.454
   1.030   0.647   0.498   0.564   0.700   0.778   0.769   0.707   0.653   0.681
   0.856   1.153   1.410   1.424   1.142   0.760   0.583   0.760   1.142   1.424
   1.410   1.153   0.856   0.681   0.653   0.707   0.769   0.778   0.700   0.564
   0.498   0.647   1.030   1.454   1.639   1.454   1.030   0.647   0.498   0.564
   0.700   0.778   0.769   0.707   0.653   0.681   0.856   1.153   1.410   1.424
   1.142   0.760
   0.577   0.823   1.342   1.686   1.597   1.208   0.857   0.760   0.856   0.948
   0.905   0.741   0.553   0.445   0.515   0.818   1.300   1.760   1.951   1.760
   1.300   0.818   0.515   0.445   0.553   0.741   0.905   0.948   0.856   0.760
   0.857   1.208   1.597   1.686   1.342   0.823   0.577   0.823   1.342   1.686
   1.597   1.208   0.857   0.760   0.856   0.948   0.905   0.741   0.553   0.445
   0.515   0.818   1.300   1.760   1.951   1.760   1.300   0.818   0.515   0.445
   0.553   0.741   0.905   0.948   0.856   0.760   0.857   1.208   1.597   1.686
   1.342   0.823
   0.560   0.852   1.463   1.855   1.731   1.271   0.899   0.860   1.041   1.159
   1.048   0.773   0.514   0.425   0.579   0.972   1.504   1.974   2.163   1.974
   1.504   0.972   0.579   0.425   0.514   0.773   1.048   1.159   1.041   0.860
   0.899   1.271   1.731   1.855   1.463   0.852   0.560   0.852   1.463   1.855
   1.731   1.271   0.899   0.860   1.041   1.159   1.048   0.773   0.514   0.425
   0.579   0.972   1.504   1.974   2.163   1.974   1.504   0.972   0.579   0.425
   0.514   0.773   1.048   1.159   1.041   0.860   0.899   1.271   1.731   1.855
   1.463   0.852
 311       5.00   72    0 5.00   18    0
   1.002   1.002   1.002   1.002   1.002   1.003   1.003   1.003   1.004   1.004
   1.005   1.005   1.006   1.006   1.007   1.007   1.007   1.008   1.008   1.008
   1.007   1.007   1.007   1.006   1.006   1.005   1.005   1.004   1.004   1.003
   1.003   1.003   1.002   1.002   1.002   1.002   1.002   1.002   1.002   1.002
   1.002   1.003   1.003   1.003   1.004   1.004   1.005   1.005   1.006   1.006
   1.007   1.007   1.007   1.008   1.008   1.008   1.007   1.007   1.007   1.006
   1.006   1.005   1.005   1.004   1.004   1.003   1.003   1.003   1.002   1.002
   1.002   1.002
   0.967   0.966   0.965   0.963   0.961   0.959   0.958   0.958   0.959   0.962
   0.966   0.971   0.978   0.984   0.991   0.997   1.002   1.005   1.006   1.005
   1.002   0.997   0.991   0.984   0.978   0.971   0.966   0.962   0.959   0.958
   0.958   0.959   0.961   0.963   0.965   0.966   0.967   0.966   0.965   0.963
   0.961   0.959   0.958   0.958   0.959   0.962   0.966   0.971   0.978   0.984
   0.991   0.997   1.002   1.005   1.006   1.005   1.002   0.997   0.991   0.984
   0.978   0.971   0.966   0.962   0.959   0.958   0.958   0.959   0.961   0.963
   0.965   0.966
   0.992   0.989   0.979   0.963   0.943   0.922   0.903   0.888   0.878   0.877
   0.884   0.900   0.922   0.950   0.979   1.006   1.028   1.043   1.048   1.043
   1.028   1.006   0.979   0.950   0.922   0.900   0.884   0.877   0.878   0.888
   0.903   0.922   0.943   0.963   0.979   0.989   0.992   0.989   0.979   0.963
   0.943   0.922   0.903   0.888   0.878   0.877   0.884   0.900   0.922   0.950
   0.979   1.006   1.028   1.043   1.048   1.043   1.028   1.006   0.979   0.950
   0.922   0.900   0.884   0.877   0.878   0.888   0.903   0.922   0.943   0.963
   0.979   0.989
   1.127   1.118   1.093   1.054   1.005   0.950   0.895   0.846   0.810   0.791
   0.794   0.818   0.863   0.922   0.989   1.055   1.110   1.147   1.160   1.147
   1.110   1.055   0.989   0.922   0.863   0.818   0.794   0.791   0.810   0.846
   0.895   0.950   1.005   1.054   1.093   1.118   1.127   1.118   1.093   1.054
   1.005   0.950   0.895   0.846   0.810   0.791   0.794   0.818   0.863   0.922
   0.989   1.055   1.110   1.147   1.160   1.147   1.110   1.055   0.989   0.922
   0.863   0.818   0.794   0.791   0.810   0.846   0.895   0.950   1.005   1.054
   1.093   1.118
   1.271   1.262   1.233   1.187   1.125   1.052   0.973   0.896   0.830   0.785
   0.769   0.787   0.840   0.922   1.023   1.127   1.217   1.278   1.300   1.278
   1.217   1.127   1.023   0.922   0.840   0.787   0.769   0.785   0.830   0.896
   0.973   1.052   1.125   1.187   1.233   1.262   1.271   1.262   1.233   1.187
   1.125   1.052   0.973   0.896   0.830   0.785   0.769   0.787   0.840   0.922
   1.023   1.127   1.217   1.278   1.300   1.278   1.217   1.127   1.023   0.922
   0.840   0.787   0.769   0.785   0.830   0.896   0.973   1.052   1.125   1.187
   1.233   1.262
   1.266   1.264   1.255   1.238   1.209   1.166   1.108   1.037   0.963   0.896
   0.852   0.842   0.873   0.946   1.050   1.167   1.274   1.349   1.375   1.349
   1.274   1.167   1.050   0.946   0.873   0.842   0.852   0.896   0.963   1.037
   1.108   1.166   1.209   1.238   1.255   1.264   1.266   1.264   1.255   1.238
   1.209   1.166   1.108   1.037   0.963   0.896   0.852   0.842   0.873   0.946
   1.050   1.167   1.274   1.349   1.375   1.349   1.274   1.167   1.050   0.946
   0.873   0.842   0.852   0.896   0.963   1.037   1.108   1.166   1.209   1.238
   1.255   1.264
   1.079   1.086   1.107   1.137   1.170   1.193   1.196   1.171   1.120   1.053
   0.986   0.939   0.928   0.961   1.033   1.129   1.225   1.296   1.322   1.296
   1.225   1.129   1.033   0.961   0.928   0.939   0.986   1.053   1.120   1.171
   1.196   1.193   1.170   1.137   1.107   1.086   1.079   1.086   1.107   1.137
   1.170   1.193   1.196   1.171   1.120   1.053   0.986   0.939   0.928   0.961
   1.033   1.129   1.225   1.296   1.322   1.296   1.225   1.129   1.033   0.961
   0.928   0.939   0.986   1.053   1.120   1.171   1.196   1.193   1.170   1.137
   1.107   1.086
   0.863   0.871   0.896   0.943   1.009   1.082   1.143   1.174   1.165   1.121
   1.057   0.994   0.951   0.939   0.965   1.020   1.088   1.142   1.163   1.142
   1.088   1.020   0.965   0.939   0.951   0.994   1.057   1.121   1.165   1.174
   1.143   1.082   1.009   0.943   0.896   0.871   0.863   0.871   0.896   0.943
   1.009   1.082   1.143   1.174   1.165   1.121   1.057   0.994   0.951   0.939
   0.965   1.020   1.088   1.142   1.163   1.142   1.088   1.020   0.965   0.939
   0.951   0.994   1.057   1.121   1.165   1.174   1.143   1.082   1.009   0.943
   0.896   0.871
   0.818   0.808   0.791   0.791   0.827   0.896   0.972   1.029   1.052   1.043
   1.012   0.972   0.931   0.900   0.888   0.904   0.940   0.976   0.992   0.976
   0.940   0.904   0.888   0.900   0.931   0.972   1.012   1.043   1.052   1.029
   0.972   0.896   0.827   0.791   0.791   0.808   0.818   0.808   0.791   0.791
   0.827   0.896   0.972   1.029   1.052   1.043   1.012   0.972   0.931   0.900
   0.888   0.904   0.940   0.976   0.992   0.976   0.940   0.904   0.888   0.900
   0.931   0.972   1.012   1.043   1.052   1.029   0.972   0.896   0.827   0.791
   0.791   0.808
   0.985   0.946   0.854   0.769   0.738   0.768   0.825   0.872   0.896   0.907
   0.918   0.929   0.924   0.898   0.864   0.848   0.860   0.887   0.900   0.887
   0.860   0.848   0.864   0.898   0.924   0.929   0.918   0.907   0.896   0.872
   0.825   0.768   0.738   0.769   0.854   0.946   0.985   0.946   0.854   0.769
   0.738   0.768   0.825   0.872   0.896   0.907   0.918   0.929   0.924   0.898
   0.864   0.848   0.860   0.887   0.900   0.887   0.860   0.848   0.864   0.898
   0.924   0.929   0.918   0.907   0.896   0.872   0.825   0.768   0.738   0.769
   0.854   0.946
   1.206   1.139   0.984   0.838   0.775   0.797   0.847   0.870   0.860   0.857
   0.890   0.948   0.984   0.966   0.911   0.869   0.871   0.903   0.921   0.903
   0.871   0.869   0.911   0.966   0.984   0.948   0.890   0.857   0.860   0.870
   0.847   0.797   0.775   0.838   0.984   1.139   1.206   1.139   0.984   0.838
   0.775   0.797   0.847   0.870   0.860   0.857   0.890   0.948   0.984   0.966
   0.911   0.869   0.871   0.903   0.921   0.903   0.871   0.869   0.911   0.966
   0.984   0.948   0.890   0.857   0.860   0.870   0.847   0.797   0.775   0.838
   0.984   1.139
   1.280   1.202   1.027   0.886   0.868   0.955   1.046   1.057   0.993   0.937
   0.954   1.031   1.088   1.067   0.986   0.924   0.932   0.987   1.018   0.987
   0.932   0.924   0.986   1.067   1.088   1.031   0.954   0.937   0.993   1.057
   1.046   0.955   0.868   0.886   1.027   1.202   1.280   1.202   1.027   0.886
   0.868   0.955   1.046   1.057   0.993   0.937   0.954   1.031   1.088   1.067
   0.986   0.924   0.932   0.987   1.018   0.987   0.932   0.924   0.986   1.067
   1.088   1.031   0.954   0.937   0.993   1.057   1.046   0.955   0.868   0.886
   1.027   1.202
   1.157   1.081   0.926   0.842   0.922   1.118   1.283   1.299   1.181   1.052
   1.024   1.092   1.154   1.122   1.020   0.950   0.981   1.075   1.124   1.075
   0.981   0.950   1.020   1.122   1.154   1.092   1.024   1.052   1.181   1.299
   1.283   1.118   0.922   0.842   0.926   1.081   1.157   1.081   0.926   0.842
   0.922   1.118   1.283   1.299   1.181   1.052   1.024   1.092   1.154   1.122
   1.020   0.950   0.981   1.075   1.124   1.075   0.981   0.950   1.020   1.122
   1.154   1.092   1.024   1.052   1.181   1.299   1.283   1.118   0.922   0.842
   0.926   1.081
   0.962   0.897   0.775   0.746   0.899   1.173   1.395   1.423   1.270   1.083
   1.009   1.060   1.125   1.096   0.992   0.929   0.986   1.113   1.178   1.113
   0.986   0.929   0.992   1.096   1.125   1.060   1.009   1.083   1.270   1.423
   1.395   1.173   0.899   0.746   0.775   0.897   0.962   0.897   0.775   0.746
   0.899   1.173   1.395   1.423   1.270   1.083   1.009   1.060   1.125   1.096
   0.992   0.929   0.986   1.113   1.178   1.113   0.986   0.929   0.992   1.096
   1.125   1.060   1.009   1.083   1.270   1.423   1.395   1.173   0.899   0.746
   0.775   0.897
   0.871   0.819   0.721   0.704   0.850   1.112   1.334   1.372   1.220   1.017
   0.921   0.965   1.043   1.039   0.952   0.896   0.956   1.085   1.152   1.085
   0.956   0.896   0.952   1.039   1.043   0.965   0.921   1.017   1.220   1.372
   1.334   1.112   0.850   0.704   0.721   0.819   0.871   0.819   0.721   0.704
   0.850   1.112   1.334   1.372   1.220   1.017   0.921   0.965   1.043   1.039
   0.952   0.896   0.956   1.085   1.152   1.085   0.956   0.896   0.952   1.039
   1.043   0.965   0.921   1.017   1.220   1.372   1.334   1.112   0.850   0.704
   0.721   0.819
   0.956   0.916   0.831   0.783   0.846   1.012   1.180   1.226   1.115   0.943
   0.855   0.902   1.001   1.030   0.966   0.899   0.921   1.008   1.057   1.008
   0.921   0.899   0.966   1.030   1.001   0.902   0.855   0.943   1.115   1.226
   1.180   1.012   0.846   0.783   0.831   0.916   0.956   0.916   0.831   0.783
   0.846   1.012   1.180   1.226   1.115   0.943   0.855   0.902   1.001   1.030
   0.966   0.899   0.921   1.008   1.057   1.008   0.921   0.899   0.966   1.030
   1.001   0.902   0.855   0.943   1.115   1.226   1.180   1.012   0.846   0.783
   0.831   0.916
   1.143   1.115   1.038   0.946   0.900   0.943   1.042   1.098   1.047   0.930
   0.867   0.922   1.037   1.093   1.041   0.945   0.900   0.920   0.940   0.920
   0.900   0.945   1.041   1.093   1.037   0.922   0.867   0.930   1.047   1.098
   1.042   0.943   0.900   0.946   1.038   1.115   1.143   1.115   1.038   0.946
   0.900   0.943   1.042   1.098   1.047   0.930   0.867   0.922   1.037   1.093
   1.041   0.945   0.900   0.920   0.940   0.920   0.900   0.945   1.041   1.093
   1.037   0.922   0.867   0.930   1.047   1.098   1.042   0.943   0.900   0.946
   1.038   1.115
   1.289   1.268   1.197   1.076   0.959   0.920   0.971   1.037   1.030   0.955
   0.911   0.971   1.094   1.163   1.113   0.991   0.894   0.861   0.860   0.861
   0.894   0.991   1.113   1.163   1.094   0.971   0.911   0.955   1.030   1.037
   0.971   0.920   0.959   1.076   1.197   1.268   1.289   1.268   1.197   1.076
   0.959   0.920   0.971   1.037   1.030   0.955   0.911   0.971   1.094   1.163
   1.113   0.991   0.894   0.861   0.860   0.861   0.894   0.991   1.113   1.163
   1.094   0.971   0.911   0.955   1.030   1.037   0.971   0.920   0.959   1.076
   1.197   1.268
TEXTURE_INDEX=   1.4384
ERR_CF 220         1080     618   27.62   23.83
ERR_CF 200         1080     534   22.85   15.23
ERR_CF 111         1080     366   22.02   20.25
