TEXEVAL                                                                         
Analysis started on 21-Sep-20 11:12:07                                          
 LMAX=14LFMAX=03 CUBIC ORTHO   
 220      5.00 5.00
 200      5.00 5.00
 111      5.00 5.00
 220       5.00   72    0 5.00   15    0
   1.069   1.069   1.069   1.069   1.069   1.069   1.069   1.069   1.069   1.069
   1.069   1.069   1.069   1.069   1.069   1.069   1.069   1.069   1.069   1.069
   1.069   1.069   1.069   1.069   1.069   1.069   1.069   1.069   1.069   1.069
   1.069   1.069   1.069   1.069   1.069   1.069   1.069   1.069   1.069   1.069
   1.069   1.069   1.069   1.069   1.069   1.069   1.069   1.069   1.069   1.069
   1.069   1.069   1.069   1.069   1.069   1.069   1.069   1.069   1.069   1.069
   1.069   1.069   1.069   1.069   1.069   1.069   1.069   1.069   1.069   1.069
   1.069   1.069
   1.067   1.033   1.442   1.025   1.181   1.340   1.462   1.167   1.423   1.425
   1.480   1.073   1.510   1.266   1.330   1.320   1.441   1.420   1.267   1.420
   1.441   1.320   1.330   1.266   1.510   1.073   1.480   1.425   1.423   1.167
   1.462   1.340   1.181   1.025   1.442   1.033   1.067   1.033   1.442   1.025
   1.181   1.340   1.462   1.167   1.423   1.425   1.480   1.073   1.510   1.266
   1.330   1.320   1.441   1.420   1.267   1.420   1.441   1.320   1.330   1.266
   1.510   1.073   1.480   1.425   1.423   1.167   1.462   1.340   1.181   1.025
   1.442   1.033
   1.120   1.265   1.173   1.143   1.122   1.321   1.262   1.435   1.340   1.263
   1.239   1.323   1.362   1.174   1.326   1.226   1.472   1.425   1.391   1.425
   1.472   1.226   1.326   1.174   1.362   1.323   1.239   1.263   1.340   1.435
   1.262   1.321   1.122   1.143   1.173   1.265   1.120   1.265   1.173   1.143
   1.122   1.321   1.262   1.435   1.340   1.263   1.239   1.323   1.362   1.174
   1.326   1.226   1.472   1.425   1.391   1.425   1.472   1.226   1.326   1.174
   1.362   1.323   1.239   1.263   1.340   1.435   1.262   1.321   1.122   1.143
   1.173   1.265
   1.469   1.282   1.242   1.189   1.356   1.286   1.457   1.516   1.182   1.345
   1.564   1.357   1.175   1.194   1.279   1.263   1.135   1.339   1.228   1.339
   1.135   1.263   1.279   1.194   1.175   1.357   1.564   1.345   1.182   1.516
   1.457   1.286   1.356   1.189   1.242   1.282   1.469   1.282   1.242   1.189
   1.356   1.286   1.457   1.516   1.182   1.345   1.564   1.357   1.175   1.194
   1.279   1.263   1.135   1.339   1.228   1.339   1.135   1.263   1.279   1.194
   1.175   1.357   1.564   1.345   1.182   1.516   1.457   1.286   1.356   1.189
   1.242   1.282
   1.451   1.238   1.393   1.263   1.318   1.456   1.473   1.275   1.017   1.241
   1.576   1.052   1.101   1.065   1.206   1.345   1.116   1.347   1.134   1.347
   1.116   1.345   1.206   1.065   1.101   1.052   1.576   1.241   1.017   1.275
   1.473   1.456   1.318   1.263   1.393   1.238   1.451   1.238   1.393   1.263
   1.318   1.456   1.473   1.275   1.017   1.241   1.576   1.052   1.101   1.065
   1.206   1.345   1.116   1.347   1.134   1.347   1.116   1.345   1.206   1.065
   1.101   1.052   1.576   1.241   1.017   1.275   1.473   1.456   1.318   1.263
   1.393   1.238
   1.683   1.287   1.334   1.458   1.255   1.488   1.334   1.094   0.960   0.967
   1.151   1.075   1.060   1.145   1.202   1.252   1.097   1.451   1.219   1.451
   1.097   1.252   1.202   1.145   1.060   1.075   1.151   0.967   0.960   1.094
   1.334   1.488   1.255   1.458   1.334   1.287   1.683   1.287   1.334   1.458
   1.255   1.488   1.334   1.094   0.960   0.967   1.151   1.075   1.060   1.145
   1.202   1.252   1.097   1.451   1.219   1.451   1.097   1.252   1.202   1.145
   1.060   1.075   1.151   0.967   0.960   1.094   1.334   1.488   1.255   1.458
   1.334   1.287
   1.561   1.307   1.093   1.260   1.211   1.264   1.190   1.032   1.136   0.989
   1.197   1.162   1.253   1.114   1.134   1.201   0.969   1.346   1.320   1.346
   0.969   1.201   1.134   1.114   1.253   1.162   1.197   0.989   1.136   1.032
   1.190   1.264   1.211   1.260   1.093   1.307   1.561   1.307   1.093   1.260
   1.211   1.264   1.190   1.032   1.136   0.989   1.197   1.162   1.253   1.114
   1.134   1.201   0.969   1.346   1.320   1.346   0.969   1.201   1.134   1.114
   1.253   1.162   1.197   0.989   1.136   1.032   1.190   1.264   1.211   1.260
   1.093   1.307
   0.780   1.177   0.982   1.029   1.200   1.234   1.378   1.258   1.461   1.257
   1.111   1.255   1.251   1.120   1.103   1.073   1.041   1.199   1.246   1.199
   1.041   1.073   1.103   1.120   1.251   1.255   1.111   1.257   1.461   1.258
   1.378   1.234   1.200   1.029   0.982   1.177   0.780   1.177   0.982   1.029
   1.200   1.234   1.378   1.258   1.461   1.257   1.111   1.255   1.251   1.120
   1.103   1.073   1.041   1.199   1.246   1.199   1.041   1.073   1.103   1.120
   1.251   1.255   1.111   1.257   1.461   1.258   1.378   1.234   1.200   1.029
   0.982   1.177
   1.026   1.168   1.237   1.148   1.242   1.445   1.592   1.371   1.321   1.440
   0.953   1.387   1.245   1.223   1.093   0.967   1.111   1.191   1.084   1.191
   1.111   0.967   1.093   1.223   1.245   1.387   0.953   1.440   1.321   1.371
   1.592   1.445   1.242   1.148   1.237   1.168   1.026   1.168   1.237   1.148
   1.242   1.445   1.592   1.371   1.321   1.440   0.953   1.387   1.245   1.223
   1.093   0.967   1.111   1.191   1.084   1.191   1.111   0.967   1.093   1.223
   1.245   1.387   0.953   1.440   1.321   1.371   1.592   1.445   1.242   1.148
   1.237   1.168
   1.153   0.712   1.473   1.161   0.959   1.249   1.265   1.053   0.988   1.334
   0.990   1.518   1.165   1.143   0.981   0.951   1.058   1.088   1.290   1.088
   1.058   0.951   0.981   1.143   1.165   1.518   0.990   1.334   0.988   1.053
   1.265   1.249   0.959   1.161   1.473   0.712   1.153   0.712   1.473   1.161
   0.959   1.249   1.265   1.053   0.988   1.334   0.990   1.518   1.165   1.143
   0.981   0.951   1.058   1.088   1.290   1.088   1.058   0.951   0.981   1.143
   1.165   1.518   0.990   1.334   0.988   1.053   1.265   1.249   0.959   1.161
   1.473   0.712
   0.856   0.807   1.339   1.096   0.741   1.055   1.042   1.126   0.839   1.254
   1.150   1.545   1.193   1.233   0.928   0.830   0.973   0.904   1.285   0.904
   0.973   0.830   0.928   1.233   1.193   1.545   1.150   1.254   0.839   1.126
   1.042   1.055   0.741   1.096   1.339   0.807   0.856   0.807   1.339   1.096
   0.741   1.055   1.042   1.126   0.839   1.254   1.150   1.545   1.193   1.233
   0.928   0.830   0.973   0.904   1.285   0.904   0.973   0.830   0.928   1.233
   1.193   1.545   1.150   1.254   0.839   1.126   1.042   1.055   0.741   1.096
   1.339   0.807
   0.800   1.289   1.243   1.160   0.799   0.776   1.032   1.179   0.879   1.127
   1.168   1.111   1.384   1.067   0.867   1.064   0.984   0.835   0.819   0.835
   0.984   1.064   0.867   1.067   1.384   1.111   1.168   1.127   0.879   1.179
   1.032   0.776   0.799   1.160   1.243   1.289   0.800   1.289   1.243   1.160
   0.799   0.776   1.032   1.179   0.879   1.127   1.168   1.111   1.384   1.067
   0.867   1.064   0.984   0.835   0.819   0.835   0.984   1.064   0.867   1.067
   1.384   1.111   1.168   1.127   0.879   1.179   1.032   0.776   0.799   1.160
   1.243   1.289
   0.684   1.021   0.872   0.730   0.588   0.319   0.664   0.632   0.681   0.923
   0.938   1.030   0.855   0.707   0.973   0.846   0.923   0.731   0.350   0.731
   0.923   0.846   0.973   0.707   0.855   1.030   0.938   0.923   0.681   0.632
   0.664   0.319   0.588   0.730   0.872   1.021   0.684   1.021   0.872   0.730
   0.588   0.319   0.664   0.632   0.681   0.923   0.938   1.030   0.855   0.707
   0.973   0.846   0.923   0.731   0.350   0.731   0.923   0.846   0.973   0.707
   0.855   1.030   0.938   0.923   0.681   0.632   0.664   0.319   0.588   0.730
   0.872   1.021
   0.360   0.922   0.591   0.359   0.273   0.344   0.563   0.524   0.428   0.835
   0.851   1.023   0.575   0.678   1.461   0.560   0.936   0.524   0.505   0.524
   0.936   0.560   1.461   0.678   0.575   1.023   0.851   0.835   0.428   0.524
   0.563   0.344   0.273   0.359   0.591   0.922   0.360   0.922   0.591   0.359
   0.273   0.344   0.563   0.524   0.428   0.835   0.851   1.023   0.575   0.678
   1.461   0.560   0.936   0.524   0.505   0.524   0.936   0.560   1.461   0.678
   0.575   1.023   0.851   0.835   0.428   0.524   0.563   0.344   0.273   0.359
   0.591   0.922
   0.477   0.792   0.921   0.656   0.320   0.519   0.646   0.814   0.652   0.643
   0.478   0.700   0.651   0.787   1.111   0.752   0.609   0.307   0.879   0.307
   0.609   0.752   1.111   0.787   0.651   0.700   0.478   0.643   0.652   0.814
   0.646   0.519   0.320   0.656   0.921   0.792   0.477   0.792   0.921   0.656
   0.320   0.519   0.646   0.814   0.652   0.643   0.478   0.700   0.651   0.787
   1.111   0.752   0.609   0.307   0.879   0.307   0.609   0.752   1.111   0.787
   0.651   0.700   0.478   0.643   0.652   0.814   0.646   0.519   0.320   0.656
   0.921   0.792
 200       5.00   72    0 5.00   15    0
   1.366   1.366   1.366   1.366   1.366   1.366   1.366   1.366   1.366   1.366
   1.366   1.366   1.366   1.366   1.366   1.366   1.366   1.366   1.366   1.366
   1.366   1.366   1.366   1.366   1.366   1.366   1.366   1.366   1.366   1.366
   1.366   1.366   1.366   1.366   1.366   1.366   1.366   1.366   1.366   1.366
   1.366   1.366   1.366   1.366   1.366   1.366   1.366   1.366   1.366   1.366
   1.366   1.366   1.366   1.366   1.366   1.366   1.366   1.366   1.366   1.366
   1.366   1.366   1.366   1.366   1.366   1.366   1.366   1.366   1.366   1.366
   1.366   1.366
   1.764   1.805   1.698   1.512   1.587   1.861   1.511   1.534   1.709   1.277
   1.614   1.506   1.728   1.482   1.345   1.412   1.653   1.379   1.320   1.379
   1.653   1.412   1.345   1.482   1.728   1.506   1.614   1.277   1.709   1.534
   1.511   1.861   1.587   1.512   1.698   1.805   1.764   1.805   1.698   1.512
   1.587   1.861   1.511   1.534   1.709   1.277   1.614   1.506   1.728   1.482
   1.345   1.412   1.653   1.379   1.320   1.379   1.653   1.412   1.345   1.482
   1.728   1.506   1.614   1.277   1.709   1.534   1.511   1.861   1.587   1.512
   1.698   1.805
   1.918   1.628   1.344   1.363   1.310   1.717   1.490   1.687   1.600   1.479
   1.562   1.345   1.755   1.558   1.545   1.488   1.841   1.460   1.714   1.460
   1.841   1.488   1.545   1.558   1.755   1.345   1.562   1.479   1.600   1.687
   1.490   1.717   1.310   1.363   1.344   1.628   1.918   1.628   1.344   1.363
   1.310   1.717   1.490   1.687   1.600   1.479   1.562   1.345   1.755   1.558
   1.545   1.488   1.841   1.460   1.714   1.460   1.841   1.488   1.545   1.558
   1.755   1.345   1.562   1.479   1.600   1.687   1.490   1.717   1.310   1.363
   1.344   1.628
   1.450   1.339   1.154   1.264   1.425   1.634   1.318   1.578   1.414   1.566
   1.294   1.565   1.607   1.369   1.553   1.476   1.657   1.515   1.779   1.515
   1.657   1.476   1.553   1.369   1.607   1.565   1.294   1.566   1.414   1.578
   1.318   1.634   1.425   1.264   1.154   1.339   1.450   1.339   1.154   1.264
   1.425   1.634   1.318   1.578   1.414   1.566   1.294   1.565   1.607   1.369
   1.553   1.476   1.657   1.515   1.779   1.515   1.657   1.476   1.553   1.369
   1.607   1.565   1.294   1.566   1.414   1.578   1.318   1.634   1.425   1.264
   1.154   1.339
   1.430   1.262   1.357   1.175   1.428   1.308   1.208   1.228   1.020   1.327
   1.391   1.568   1.222   1.047   1.231   1.245   1.418   1.232   1.161   1.232
   1.418   1.245   1.231   1.047   1.222   1.568   1.391   1.327   1.020   1.228
   1.208   1.308   1.428   1.175   1.357   1.262   1.430   1.262   1.357   1.175
   1.428   1.308   1.208   1.228   1.020   1.327   1.391   1.568   1.222   1.047
   1.231   1.245   1.418   1.232   1.161   1.232   1.418   1.245   1.231   1.047
   1.222   1.568   1.391   1.327   1.020   1.228   1.208   1.308   1.428   1.175
   1.357   1.262
   1.258   1.161   1.284   0.997   1.124   1.328   1.157   0.971   0.909   1.073
   1.326   1.197   0.890   0.944   1.007   1.075   1.244   0.965   0.925   0.965
   1.244   1.075   1.007   0.944   0.890   1.197   1.326   1.073   0.909   0.971
   1.157   1.328   1.124   0.997   1.284   1.161   1.258   1.161   1.284   0.997
   1.124   1.328   1.157   0.971   0.909   1.073   1.326   1.197   0.890   0.944
   1.007   1.075   1.244   0.965   0.925   0.965   1.244   1.075   1.007   0.944
   0.890   1.197   1.326   1.073   0.909   0.971   1.157   1.328   1.124   0.997
   1.284   1.161
   1.006   1.180   1.278   0.953   0.945   1.480   0.919   0.793   0.940   1.096
   1.016   1.058   1.011   1.087   1.051   1.090   1.000   1.009   0.999   1.009
   1.000   1.090   1.051   1.087   1.011   1.058   1.016   1.096   0.940   0.793
   0.919   1.480   0.945   0.953   1.278   1.180   1.006   1.180   1.278   0.953
   0.945   1.480   0.919   0.793   0.940   1.096   1.016   1.058   1.011   1.087
   1.051   1.090   1.000   1.009   0.999   1.009   1.000   1.090   1.051   1.087
   1.011   1.058   1.016   1.096   0.940   0.793   0.919   1.480   0.945   0.953
   1.278   1.180
   0.956   1.048   1.325   0.934   0.904   1.418   0.895   0.748   0.907   0.976
   0.815   0.996   1.218   1.073   0.837   1.107   0.847   1.082   1.122   1.082
   0.847   1.107   0.837   1.073   1.218   0.996   0.815   0.976   0.907   0.748
   0.895   1.418   0.904   0.934   1.325   1.048   0.956   1.048   1.325   0.934
   0.904   1.418   0.895   0.748   0.907   0.976   0.815   0.996   1.218   1.073
   0.837   1.107   0.847   1.082   1.122   1.082   0.847   1.107   0.837   1.073
   1.218   0.996   0.815   0.976   0.907   0.748   0.895   1.418   0.904   0.934
   1.325   1.048
   0.628   0.918   0.954   0.846   0.860   1.143   0.890   0.791   1.044   0.869
   0.771   0.962   0.995   0.856   0.667   0.968   0.721   1.015   1.373   1.015
   0.721   0.968   0.667   0.856   0.995   0.962   0.771   0.869   1.044   0.791
   0.890   1.143   0.860   0.846   0.954   0.918   0.628   0.918   0.954   0.846
   0.860   1.143   0.890   0.791   1.044   0.869   0.771   0.962   0.995   0.856
   0.667   0.968   0.721   1.015   1.373   1.015   0.721   0.968   0.667   0.856
   0.995   0.962   0.771   0.869   1.044   0.791   0.890   1.143   0.860   0.846
   0.954   0.918
   0.443   1.005   0.803   1.044   0.635   0.759   0.787   0.782   1.164   0.796
   0.790   0.896   0.879   0.742   0.865   0.803   0.801   0.853   1.074   0.853
   0.801   0.803   0.865   0.742   0.879   0.896   0.790   0.796   1.164   0.782
   0.787   0.759   0.635   1.044   0.803   1.005   0.443   1.005   0.803   1.044
   0.635   0.759   0.787   0.782   1.164   0.796   0.790   0.896   0.879   0.742
   0.865   0.803   0.801   0.853   1.074   0.853   0.801   0.803   0.865   0.742
   0.879   0.896   0.790   0.796   1.164   0.782   0.787   0.759   0.635   1.044
   0.803   1.005
   0.554   0.876   0.793   1.105   0.572   0.752   0.804   0.764   1.132   0.712
   0.770   0.904   0.850   0.683   0.857   0.850   0.676   0.689   0.537   0.689
   0.676   0.850   0.857   0.683   0.850   0.904   0.770   0.712   1.132   0.764
   0.804   0.752   0.572   1.105   0.793   0.876   0.554   0.876   0.793   1.105
   0.572   0.752   0.804   0.764   1.132   0.712   0.770   0.904   0.850   0.683
   0.857   0.850   0.676   0.689   0.537   0.689   0.676   0.850   0.857   0.683
   0.850   0.904   0.770   0.712   1.132   0.764   0.804   0.752   0.572   1.105
   0.793   0.876
   0.706   0.765   0.817   1.066   0.801   0.913   0.754   0.806   0.974   0.769
   0.975   0.962   0.786   0.756   0.957   0.982   0.653   0.695   0.838   0.695
   0.653   0.982   0.957   0.756   0.786   0.962   0.975   0.769   0.974   0.806
   0.754   0.913   0.801   1.066   0.817   0.765   0.706   0.765   0.817   1.066
   0.801   0.913   0.754   0.806   0.974   0.769   0.975   0.962   0.786   0.756
   0.957   0.982   0.653   0.695   0.838   0.695   0.653   0.982   0.957   0.756
   0.786   0.962   0.975   0.769   0.974   0.806   0.754   0.913   0.801   1.066
   0.817   0.765
   0.792   1.044   0.740   1.030   0.804   1.007   0.729   0.883   0.770   0.759
   1.115   0.850   0.883   0.759   1.121   0.924   0.723   1.034   0.924   1.034
   0.723   0.924   1.121   0.759   0.883   0.850   1.115   0.759   0.770   0.883
   0.729   1.007   0.804   1.030   0.740   1.044   0.792   1.044   0.740   1.030
   0.804   1.007   0.729   0.883   0.770   0.759   1.115   0.850   0.883   0.759
   1.121   0.924   0.723   1.034   0.924   1.034   0.723   0.924   1.121   0.759
   0.883   0.850   1.115   0.759   0.770   0.883   0.729   1.007   0.804   1.030
   0.740   1.044
   0.747   1.036   0.740   0.972   0.792   0.943   0.618   0.857   0.489   0.698
   0.763   1.062   0.946   0.723   0.841   1.024   0.653   0.924   0.770   0.924
   0.653   1.024   0.841   0.723   0.946   1.062   0.763   0.698   0.489   0.857
   0.618   0.943   0.792   0.972   0.740   1.036   0.747   1.036   0.740   0.972
   0.792   0.943   0.618   0.857   0.489   0.698   0.763   1.062   0.946   0.723
   0.841   1.024   0.653   0.924   0.770   0.924   0.653   1.024   0.841   0.723
   0.946   1.062   0.763   0.698   0.489   0.857   0.618   0.943   0.792   0.972
   0.740   1.036
   0.636   0.839   0.889   1.050   0.949   1.128   0.423   0.902   0.509   0.835
   0.789   0.974   0.975   0.811   0.722   1.119   0.845   0.464   1.036   0.464
   0.845   1.119   0.722   0.811   0.975   0.974   0.789   0.835   0.509   0.902
   0.423   1.128   0.949   1.050   0.889   0.839   0.636   0.839   0.889   1.050
   0.949   1.128   0.423   0.902   0.509   0.835   0.789   0.974   0.975   0.811
   0.722   1.119   0.845   0.464   1.036   0.464   0.845   1.119   0.722   0.811
   0.975   0.974   0.789   0.835   0.509   0.902   0.423   1.128   0.949   1.050
   0.889   0.839
 111       5.00   72    0 5.00   15    0
   0.979   0.979   0.979   0.979   0.979   0.979   0.979   0.979   0.979   0.979
   0.979   0.979   0.979   0.979   0.979   0.979   0.979   0.979   0.979   0.979
   0.979   0.979   0.979   0.979   0.979   0.979   0.979   0.979   0.979   0.979
   0.979   0.979   0.979   0.979   0.979   0.979   0.979   0.979   0.979   0.979
   0.979   0.979   0.979   0.979   0.979   0.979   0.979   0.979   0.979   0.979
   0.979   0.979   0.979   0.979   0.979   0.979   0.979   0.979   0.979   0.979
   0.979   0.979   0.979   0.979   0.979   0.979   0.979   0.979   0.979   0.979
   0.979   0.979
   1.568   1.295   1.167   1.446   1.146   1.144   1.107   1.709   1.296   1.390
   1.304   1.107   1.193   1.200   1.177   1.224   1.200   1.095   0.961   1.095
   1.200   1.224   1.177   1.200   1.193   1.107   1.304   1.390   1.296   1.709
   1.107   1.144   1.146   1.446   1.167   1.295   1.568   1.295   1.167   1.446
   1.146   1.144   1.107   1.709   1.296   1.390   1.304   1.107   1.193   1.200
   1.177   1.224   1.200   1.095   0.961   1.095   1.200   1.224   1.177   1.200
   1.193   1.107   1.304   1.390   1.296   1.709   1.107   1.144   1.146   1.446
   1.167   1.295
   1.063   1.278   1.250   1.357   1.315   1.646   1.273   1.427   1.355   1.479
   1.280   1.303   1.254   1.424   1.262   1.276   1.122   1.026   1.117   1.026
   1.122   1.276   1.262   1.424   1.254   1.303   1.280   1.479   1.355   1.427
   1.273   1.646   1.315   1.357   1.250   1.278   1.063   1.278   1.250   1.357
   1.315   1.646   1.273   1.427   1.355   1.479   1.280   1.303   1.254   1.424
   1.262   1.276   1.122   1.026   1.117   1.026   1.122   1.276   1.262   1.424
   1.254   1.303   1.280   1.479   1.355   1.427   1.273   1.646   1.315   1.357
   1.250   1.278
   0.965   1.264   1.268   1.223   1.311   1.580   1.330   1.333   1.266   1.316
   1.219   1.630   1.199   1.403   1.353   1.448   1.280   0.986   1.169   0.986
   1.280   1.448   1.353   1.403   1.199   1.630   1.219   1.316   1.266   1.333
   1.330   1.580   1.311   1.223   1.268   1.264   0.965   1.264   1.268   1.223
   1.311   1.580   1.330   1.333   1.266   1.316   1.219   1.630   1.199   1.403
   1.353   1.448   1.280   0.986   1.169   0.986   1.280   1.448   1.353   1.403
   1.199   1.630   1.219   1.316   1.266   1.333   1.330   1.580   1.311   1.223
   1.268   1.264
   1.044   1.217   1.398   1.278   1.247   1.303   1.324   1.295   1.062   1.233
   1.284   1.590   1.109   1.162   1.374   1.220   1.102   0.876   1.180   0.876
   1.102   1.220   1.374   1.162   1.109   1.590   1.284   1.233   1.062   1.295
   1.324   1.303   1.247   1.278   1.398   1.217   1.044   1.217   1.398   1.278
   1.247   1.303   1.324   1.295   1.062   1.233   1.284   1.590   1.109   1.162
   1.374   1.220   1.102   0.876   1.180   0.876   1.102   1.220   1.374   1.162
   1.109   1.590   1.284   1.233   1.062   1.295   1.324   1.303   1.247   1.278
   1.398   1.217
   1.159   1.024   1.228   1.158   1.230   1.342   1.248   1.037   1.068   1.202
   1.173   1.320   1.006   1.136   1.330   0.990   1.269   1.253   1.213   1.253
   1.269   0.990   1.330   1.136   1.006   1.320   1.173   1.202   1.068   1.037
   1.248   1.342   1.230   1.158   1.228   1.024   1.159   1.024   1.228   1.158
   1.230   1.342   1.248   1.037   1.068   1.202   1.173   1.320   1.006   1.136
   1.330   0.990   1.269   1.253   1.213   1.253   1.269   0.990   1.330   1.136
   1.006   1.320   1.173   1.202   1.068   1.037   1.248   1.342   1.230   1.158
   1.228   1.024
   1.413   1.338   1.046   1.233   1.153   1.313   1.305   1.069   0.926   1.091
   1.195   1.148   0.958   1.200   1.253   1.004   1.332   1.353   0.991   1.353
   1.332   1.004   1.253   1.200   0.958   1.148   1.195   1.091   0.926   1.069
   1.305   1.313   1.153   1.233   1.046   1.338   1.413   1.338   1.046   1.233
   1.153   1.313   1.305   1.069   0.926   1.091   1.195   1.148   0.958   1.200
   1.253   1.004   1.332   1.353   0.991   1.353   1.332   1.004   1.253   1.200
   0.958   1.148   1.195   1.091   0.926   1.069   1.305   1.313   1.153   1.233
   1.046   1.338
   1.391   1.469   0.957   1.241   1.101   1.130   1.367   1.332   1.003   1.152
   1.316   1.100   1.059   1.143   1.240   0.974   1.259   1.245   0.967   1.245
   1.259   0.974   1.240   1.143   1.059   1.100   1.316   1.152   1.003   1.332
   1.367   1.130   1.101   1.241   0.957   1.469   1.391   1.469   0.957   1.241
   1.101   1.130   1.367   1.332   1.003   1.152   1.316   1.100   1.059   1.143
   1.240   0.974   1.259   1.245   0.967   1.245   1.259   0.974   1.240   1.143
   1.059   1.100   1.316   1.152   1.003   1.332   1.367   1.130   1.101   1.241
   0.957   1.469
   1.124   1.206   1.071   1.343   1.078   1.001   1.219   1.237   1.215   1.238
   1.358   1.199   1.115   1.111   1.206   0.925   1.223   1.463   0.913   1.463
   1.223   0.925   1.206   1.111   1.115   1.199   1.358   1.238   1.215   1.237
   1.219   1.001   1.078   1.343   1.071   1.206   1.124   1.206   1.071   1.343
   1.078   1.001   1.219   1.237   1.215   1.238   1.358   1.199   1.115   1.111
   1.206   0.925   1.223   1.463   0.913   1.463   1.223   0.925   1.206   1.111
   1.115   1.199   1.358   1.238   1.215   1.237   1.219   1.001   1.078   1.343
   1.071   1.206
   1.156   1.084   1.105   1.203   0.986   1.022   1.157   1.093   1.151   1.161
   1.330   1.234   1.123   1.187   1.154   0.815   1.151   1.153   0.893   1.153
   1.151   0.815   1.154   1.187   1.123   1.234   1.330   1.161   1.151   1.093
   1.157   1.022   0.986   1.203   1.105   1.084   1.156   1.084   1.105   1.203
   0.986   1.022   1.157   1.093   1.151   1.161   1.330   1.234   1.123   1.187
   1.154   0.815   1.151   1.153   0.893   1.153   1.151   0.815   1.154   1.187
   1.123   1.234   1.330   1.161   1.151   1.093   1.157   1.022   0.986   1.203
   1.105   1.084
   1.074   1.087   1.049   1.031   0.993   1.124   1.029   1.173   1.054   0.960
   1.038   1.030   1.223   1.088   1.152   0.907   1.355   0.878   0.992   0.878
   1.355   0.907   1.152   1.088   1.223   1.030   1.038   0.960   1.054   1.173
   1.029   1.124   0.993   1.031   1.049   1.087   1.074   1.087   1.049   1.031
   0.993   1.124   1.029   1.173   1.054   0.960   1.038   1.030   1.223   1.088
   1.152   0.907   1.355   0.878   0.992   0.878   1.355   0.907   1.152   1.088
   1.223   1.030   1.038   0.960   1.054   1.173   1.029   1.124   0.993   1.031
   1.049   1.087
   0.696   1.015   0.971   1.003   0.995   1.197   0.895   0.888   0.940   0.844
   0.858   1.010   1.108   1.097   1.014   1.136   1.262   0.845   0.925   0.845
   1.262   1.136   1.014   1.097   1.108   1.010   0.858   0.844   0.940   0.888
   0.895   1.197   0.995   1.003   0.971   1.015   0.696   1.015   0.971   1.003
   0.995   1.197   0.895   0.888   0.940   0.844   0.858   1.010   1.108   1.097
   1.014   1.136   1.262   0.845   0.925   0.845   1.262   1.136   1.014   1.097
   1.108   1.010   0.858   0.844   0.940   0.888   0.895   1.197   0.995   1.003
   0.971   1.015
   0.621   0.821   0.952   1.019   0.940   1.111   1.057   0.819   0.889   0.803
   1.042   0.964   0.907   1.045   0.904   1.070   1.012   0.772   1.311   0.772
   1.012   1.070   0.904   1.045   0.907   0.964   1.042   0.803   0.889   0.819
   1.057   1.111   0.940   1.019   0.952   0.821   0.621   0.821   0.952   1.019
   0.940   1.111   1.057   0.819   0.889   0.803   1.042   0.964   0.907   1.045
   0.904   1.070   1.012   0.772   1.311   0.772   1.012   1.070   0.904   1.045
   0.907   0.964   1.042   0.803   0.889   0.819   1.057   1.111   0.940   1.019
   0.952   0.821
   0.720   0.807   1.019   1.005   0.930   1.217   0.972   0.942   1.053   0.814
   0.871   0.742   0.924   1.109   1.000   0.944   0.994   0.842   1.433   0.842
   0.994   0.944   1.000   1.109   0.924   0.742   0.871   0.814   1.053   0.942
   0.972   1.217   0.930   1.005   1.019   0.807   0.720   0.807   1.019   1.005
   0.930   1.217   0.972   0.942   1.053   0.814   0.871   0.742   0.924   1.109
   1.000   0.944   0.994   0.842   1.433   0.842   0.994   0.944   1.000   1.109
   0.924   0.742   0.871   0.814   1.053   0.942   0.972   1.217   0.930   1.005
   1.019   0.807
   0.698   0.750   0.796   1.017   0.871   1.150   0.867   0.897   1.143   0.701
   0.699   0.632   0.684   0.852   0.660   0.764   0.783   0.813   0.927   0.813
   0.783   0.764   0.660   0.852   0.684   0.632   0.699   0.701   1.143   0.897
   0.867   1.150   0.871   1.017   0.796   0.750   0.698   0.750   0.796   1.017
   0.871   1.150   0.867   0.897   1.143   0.701   0.699   0.632   0.684   0.852
   0.660   0.764   0.783   0.813   0.927   0.813   0.783   0.764   0.660   0.852
   0.684   0.632   0.699   0.701   1.143   0.897   0.867   1.150   0.871   1.017
   0.796   0.750
  4  1      4.7755679E-01
  4  2      4.7882692E-03
  4  3      2.6733235E-02
  6  1     -1.2864529E-01
  6  2      2.3467261E-02
  6  3     -6.8885199E-02
  6  4      3.1444593E-01
  8  1      3.2293404E-01
  8  2     -2.4620015E-02
  8  3     -3.6005524E-03
  8  4      1.9671594E-01
  8  5     -1.9600064E-01
 10  1      5.6574991E-02
 10  2     -2.5863002E-02
 10  3     -3.7972352E-02
 10  4      1.3744121E-01
 10  5     -1.1820939E-01
 10  6      1.6409867E-02
 12  1      1.3678882E-01 -9.4020763E-02
 12  2     -7.1758101E-02  1.5737629E-02
 12  3     -5.9616034E-02  1.1732488E-01
 12  4      1.5755740E-01 -1.2999444E-01
 12  5      1.6057115E-02  5.8526273E-02
 12  6     -1.5835321E-01 -3.8931692E-02
 12  7     -1.3859045E-01 -2.2076943E-01
 14  1      3.0300845E-01
 14  2     -3.0230780E-02
 14  3      1.5661135E-01
 14  4      3.7072742E-02
 14  5     -1.2300840E-01
 14  6     -1.8011638E-01
 14  7     -4.8002960E-02
 14  8     -7.5374255E-03
 220       5.00   72    0 5.00   18    0
   0.964   0.964   0.964   0.964   0.964   0.964   0.963   0.963   0.963   0.963
   0.963   0.963   0.963   0.962   0.962   0.962   0.962   0.962   0.962   0.962
   0.962   0.962   0.962   0.962   0.963   0.963   0.963   0.963   0.963   0.963
   0.963   0.964   0.964   0.964   0.964   0.964   0.964   0.964   0.964   0.964
   0.964   0.964   0.963   0.963   0.963   0.963   0.963   0.963   0.963   0.962
   0.962   0.962   0.962   0.962   0.962   0.962   0.962   0.962   0.962   0.962
   0.963   0.963   0.963   0.963   0.963   0.963   0.963   0.964   0.964   0.964
   0.964   0.964
   0.946   0.945   0.944   0.943   0.941   0.939   0.937   0.935   0.933   0.932
   0.931   0.930   0.930   0.930   0.931   0.931   0.932   0.932   0.932   0.932
   0.932   0.931   0.931   0.930   0.930   0.930   0.931   0.932   0.933   0.935
   0.937   0.939   0.941   0.943   0.944   0.945   0.946   0.945   0.944   0.943
   0.941   0.939   0.937   0.935   0.933   0.932   0.931   0.930   0.930   0.930
   0.931   0.931   0.932   0.932   0.932   0.932   0.932   0.931   0.931   0.930
   0.930   0.930   0.931   0.932   0.933   0.935   0.937   0.939   0.941   0.943
   0.944   0.945
   0.946   0.945   0.941   0.935   0.928   0.919   0.911   0.903   0.897   0.894
   0.892   0.893   0.896   0.901   0.907   0.912   0.917   0.920   0.921   0.920
   0.917   0.912   0.907   0.901   0.896   0.893   0.892   0.894   0.897   0.903
   0.911   0.919   0.928   0.935   0.941   0.945   0.946   0.945   0.941   0.935
   0.928   0.919   0.911   0.903   0.897   0.894   0.892   0.893   0.896   0.901
   0.907   0.912   0.917   0.920   0.921   0.920   0.917   0.912   0.907   0.901
   0.896   0.893   0.892   0.894   0.897   0.903   0.911   0.919   0.928   0.935
   0.941   0.945
   0.981   0.978   0.971   0.959   0.944   0.927   0.909   0.893   0.881   0.874
   0.872   0.877   0.887   0.902   0.918   0.934   0.948   0.957   0.960   0.957
   0.948   0.934   0.918   0.902   0.887   0.877   0.872   0.874   0.881   0.893
   0.909   0.927   0.944   0.959   0.971   0.978   0.981   0.978   0.971   0.959
   0.944   0.927   0.909   0.893   0.881   0.874   0.872   0.877   0.887   0.902
   0.918   0.934   0.948   0.957   0.960   0.957   0.948   0.934   0.918   0.902
   0.887   0.877   0.872   0.874   0.881   0.893   0.909   0.927   0.944   0.959
   0.971   0.978
   1.010   1.008   1.001   0.990   0.975   0.955   0.934   0.913   0.895   0.884
   0.881   0.887   0.902   0.925   0.951   0.977   1.000   1.014   1.020   1.014
   1.000   0.977   0.951   0.925   0.902   0.887   0.881   0.884   0.895   0.913
   0.934   0.955   0.975   0.990   1.001   1.008   1.010   1.008   1.001   0.990
   0.975   0.955   0.934   0.913   0.895   0.884   0.881   0.887   0.902   0.925
   0.951   0.977   1.000   1.014   1.020   1.014   1.000   0.977   0.951   0.925
   0.902   0.887   0.881   0.884   0.895   0.913   0.934   0.955   0.975   0.990
   1.001   1.008
   0.987   0.989   0.993   0.997   0.996   0.989   0.975   0.956   0.937   0.921
   0.913   0.915   0.927   0.947   0.973   1.000   1.023   1.039   1.045   1.039
   1.023   1.000   0.973   0.947   0.927   0.915   0.913   0.921   0.937   0.956
   0.975   0.989   0.996   0.997   0.993   0.989   0.987   0.989   0.993   0.997
   0.996   0.989   0.975   0.956   0.937   0.921   0.913   0.915   0.927   0.947
   0.973   1.000   1.023   1.039   1.045   1.039   1.023   1.000   0.973   0.947
   0.927   0.915   0.913   0.921   0.937   0.956   0.975   0.989   0.996   0.997
   0.993   0.989
   0.932   0.940   0.962   0.989   1.013   1.027   1.028   1.018   1.001   0.984
   0.970   0.962   0.961   0.968   0.980   0.995   1.010   1.021   1.025   1.021
   1.010   0.995   0.980   0.968   0.961   0.962   0.970   0.984   1.001   1.018
   1.028   1.027   1.013   0.989   0.962   0.940   0.932   0.940   0.962   0.989
   1.013   1.027   1.028   1.018   1.001   0.984   0.970   0.962   0.961   0.968
   0.980   0.995   1.010   1.021   1.025   1.021   1.010   0.995   0.980   0.968
   0.961   0.962   0.970   0.984   1.001   1.018   1.028   1.027   1.013   0.989
   0.962   0.940
   0.922   0.935   0.968   1.011   1.049   1.074   1.084   1.082   1.073   1.062
   1.049   1.036   1.022   1.010   1.001   0.997   0.998   1.000   1.001   1.000
   0.998   0.997   1.001   1.010   1.022   1.036   1.049   1.062   1.073   1.082
   1.084   1.074   1.049   1.011   0.968   0.935   0.922   0.935   0.968   1.011
   1.049   1.074   1.084   1.082   1.073   1.062   1.049   1.036   1.022   1.010
   1.001   0.997   0.998   1.000   1.001   1.000   0.998   0.997   1.001   1.010
   1.022   1.036   1.049   1.062   1.073   1.082   1.084   1.074   1.049   1.011
   0.968   0.935
   1.002   1.013   1.041   1.074   1.099   1.112   1.115   1.117   1.122   1.129
   1.133   1.126   1.108   1.081   1.053   1.031   1.017   1.011   1.009   1.011
   1.017   1.031   1.053   1.081   1.108   1.126   1.133   1.129   1.122   1.117
   1.115   1.112   1.099   1.074   1.041   1.013   1.002   1.013   1.041   1.074
   1.099   1.112   1.115   1.117   1.122   1.129   1.133   1.126   1.108   1.081
   1.053   1.031   1.017   1.011   1.009   1.011   1.017   1.031   1.053   1.081
   1.108   1.126   1.133   1.129   1.122   1.117   1.115   1.112   1.099   1.074
   1.041   1.013
   1.119   1.123   1.128   1.126   1.113   1.092   1.078   1.083   1.110   1.149
   1.181   1.193   1.180   1.147   1.107   1.071   1.044   1.029   1.024   1.029
   1.044   1.071   1.107   1.147   1.180   1.193   1.181   1.149   1.110   1.083
   1.078   1.092   1.113   1.126   1.128   1.123   1.119   1.123   1.128   1.126
   1.113   1.092   1.078   1.083   1.110   1.149   1.181   1.193   1.180   1.147
   1.107   1.071   1.044   1.029   1.024   1.029   1.044   1.071   1.107   1.147
   1.180   1.193   1.181   1.149   1.110   1.083   1.078   1.092   1.113   1.126
   1.128   1.123
   1.173   1.166   1.144   1.103   1.048   0.996   0.969   0.983   1.034   1.102
   1.162   1.193   1.191   1.162   1.118   1.070   1.028   1.000   0.989   1.000
   1.028   1.070   1.118   1.162   1.191   1.193   1.162   1.102   1.034   0.983
   0.969   0.996   1.048   1.103   1.144   1.166   1.173   1.166   1.144   1.103
   1.048   0.996   0.969   0.983   1.034   1.102   1.162   1.193   1.191   1.162
   1.118   1.070   1.028   1.000   0.989   1.000   1.028   1.070   1.118   1.162
   1.191   1.193   1.162   1.102   1.034   0.983   0.969   0.996   1.048   1.103
   1.144   1.166
   1.117   1.106   1.069   1.009   0.936   0.874   0.850   0.874   0.939   1.018
   1.085   1.125   1.135   1.119   1.080   1.024   0.961   0.911   0.892   0.911
   0.961   1.024   1.080   1.119   1.135   1.125   1.085   1.018   0.939   0.874
   0.850   0.874   0.936   1.009   1.069   1.106   1.117   1.106   1.069   1.009
   0.936   0.874   0.850   0.874   0.939   1.018   1.085   1.125   1.135   1.119
   1.080   1.024   0.961   0.911   0.892   0.911   0.961   1.024   1.080   1.119
   1.135   1.125   1.085   1.018   0.939   0.874   0.850   0.874   0.936   1.009
   1.069   1.106
   1.012   1.003   0.974   0.924   0.865   0.817   0.804   0.833   0.890   0.952
   1.001   1.036   1.058   1.064   1.041   0.981   0.897   0.820   0.789   0.820
   0.897   0.981   1.041   1.064   1.058   1.036   1.001   0.952   0.890   0.833
   0.804   0.817   0.865   0.924   0.974   1.003   1.012   1.003   0.974   0.924
   0.865   0.817   0.804   0.833   0.890   0.952   1.001   1.036   1.058   1.064
   1.041   0.981   0.897   0.820   0.789   0.820   0.897   0.981   1.041   1.064
   1.058   1.036   1.001   0.952   0.890   0.833   0.804   0.817   0.865   0.924
   0.974   1.003
   0.949   0.949   0.944   0.924   0.892   0.864   0.858   0.878   0.911   0.940
   0.960   0.983   1.017   1.048   1.047   0.991   0.890   0.791   0.750   0.791
   0.890   0.991   1.047   1.048   1.017   0.983   0.960   0.940   0.911   0.878
   0.858   0.864   0.892   0.924   0.944   0.949   0.949   0.949   0.944   0.924
   0.892   0.864   0.858   0.878   0.911   0.940   0.960   0.983   1.017   1.048
   1.047   0.991   0.890   0.791   0.750   0.791   0.890   0.991   1.047   1.048
   1.017   0.983   0.960   0.940   0.911   0.878   0.858   0.864   0.892   0.924
   0.944   0.949
   0.964   0.974   0.992   0.998   0.983   0.958   0.943   0.947   0.959   0.967
   0.971   0.987   1.027   1.074   1.088   1.039   0.935   0.829   0.784   0.829
   0.935   1.039   1.088   1.074   1.027   0.987   0.971   0.967   0.959   0.947
   0.943   0.958   0.983   0.998   0.992   0.974   0.964   0.974   0.992   0.998
   0.983   0.958   0.943   0.947   0.959   0.967   0.971   0.987   1.027   1.074
   1.088   1.039   0.935   0.829   0.784   0.829   0.935   1.039   1.088   1.074
   1.027   0.987   0.971   0.967   0.959   0.947   0.943   0.958   0.983   0.998
   0.992   0.974
   1.012   1.028   1.058   1.070   1.046   1.000   0.962   0.954   0.970   0.989
   1.005   1.026   1.062   1.103   1.115   1.070   0.975   0.877   0.836   0.877
   0.975   1.070   1.115   1.103   1.062   1.026   1.005   0.989   0.970   0.954
   0.962   1.000   1.046   1.070   1.058   1.028   1.012   1.028   1.058   1.070
   1.046   1.000   0.962   0.954   0.970   0.989   1.005   1.026   1.062   1.103
   1.115   1.070   0.975   0.877   0.836   0.877   0.975   1.070   1.115   1.103
   1.062   1.026   1.005   0.989   0.970   0.954   0.962   1.000   1.046   1.070
   1.058   1.028
   1.041   1.058   1.088   1.089   1.038   0.958   0.895   0.886   0.925   0.983
   1.031   1.064   1.088   1.106   1.101   1.055   0.973   0.893   0.860   0.893
   0.973   1.055   1.101   1.106   1.088   1.064   1.031   0.983   0.925   0.886
   0.895   0.958   1.038   1.089   1.088   1.058   1.041   1.058   1.088   1.089
   1.038   0.958   0.895   0.886   0.925   0.983   1.031   1.064   1.088   1.106
   1.101   1.055   0.973   0.893   0.860   0.893   0.973   1.055   1.101   1.106
   1.088   1.064   1.031   0.983   0.925   0.886   0.895   0.958   1.038   1.089
   1.088   1.058
   1.044   1.061   1.087   1.075   1.002   0.896   0.818   0.812   0.875   0.966
   1.041   1.083   1.097   1.095   1.073   1.024   0.952   0.885   0.858   0.885
   0.952   1.024   1.073   1.095   1.097   1.083   1.041   0.966   0.875   0.812
   0.818   0.896   1.002   1.075   1.087   1.061   1.044   1.061   1.087   1.075
   1.002   0.896   0.818   0.812   0.875   0.966   1.041   1.083   1.097   1.095
   1.073   1.024   0.952   0.885   0.858   0.885   0.952   1.024   1.073   1.095
   1.097   1.083   1.041   0.966   0.875   0.812   0.818   0.896   1.002   1.075
   1.087   1.061
 200       5.00   72    0 5.00   18    0
   1.549   1.549   1.549   1.549   1.549   1.549   1.550   1.550   1.550   1.550
   1.551   1.551   1.551   1.551   1.551   1.551   1.552   1.552   1.552   1.552
   1.552   1.551   1.551   1.551   1.551   1.551   1.551   1.550   1.550   1.550
   1.550   1.549   1.549   1.549   1.549   1.549   1.549   1.549   1.549   1.549
   1.549   1.549   1.550   1.550   1.550   1.550   1.551   1.551   1.551   1.551
   1.551   1.551   1.552   1.552   1.552   1.552   1.552   1.551   1.551   1.551
   1.551   1.551   1.551   1.550   1.550   1.550   1.550   1.549   1.549   1.549
   1.549   1.549
   1.502   1.502   1.503   1.505   1.507   1.509   1.511   1.514   1.516   1.518
   1.520   1.522   1.523   1.523   1.524   1.524   1.524   1.524   1.524   1.524
   1.524   1.524   1.524   1.523   1.523   1.522   1.520   1.518   1.516   1.514
   1.511   1.509   1.507   1.505   1.503   1.502   1.502   1.502   1.503   1.505
   1.507   1.509   1.511   1.514   1.516   1.518   1.520   1.522   1.523   1.523
   1.524   1.524   1.524   1.524   1.524   1.524   1.524   1.524   1.524   1.523
   1.523   1.522   1.520   1.518   1.516   1.514   1.511   1.509   1.507   1.505
   1.503   1.502
   1.372   1.373   1.376   1.382   1.389   1.397   1.405   1.413   1.419   1.424
   1.428   1.429   1.429   1.427   1.425   1.422   1.420   1.419   1.418   1.419
   1.420   1.422   1.425   1.427   1.429   1.429   1.428   1.424   1.419   1.413
   1.405   1.397   1.389   1.382   1.376   1.373   1.372   1.373   1.376   1.382
   1.389   1.397   1.405   1.413   1.419   1.424   1.428   1.429   1.429   1.427
   1.425   1.422   1.420   1.419   1.418   1.419   1.420   1.422   1.425   1.427
   1.429   1.429   1.428   1.424   1.419   1.413   1.405   1.397   1.389   1.382
   1.376   1.373
   1.168   1.170   1.176   1.186   1.198   1.213   1.227   1.241   1.252   1.260
   1.263   1.262   1.258   1.251   1.242   1.234   1.227   1.222   1.221   1.222
   1.227   1.234   1.242   1.251   1.258   1.262   1.263   1.260   1.252   1.241
   1.227   1.213   1.198   1.186   1.176   1.170   1.168   1.170   1.176   1.186
   1.198   1.213   1.227   1.241   1.252   1.260   1.263   1.262   1.258   1.251
   1.242   1.234   1.227   1.222   1.221   1.222   1.227   1.234   1.242   1.251
   1.258   1.262   1.263   1.260   1.252   1.241   1.227   1.213   1.198   1.186
   1.176   1.170
   0.984   0.986   0.989   0.996   1.006   1.020   1.035   1.050   1.064   1.072
   1.075   1.072   1.064   1.053   1.041   1.030   1.021   1.015   1.013   1.015
   1.021   1.030   1.041   1.053   1.064   1.072   1.075   1.072   1.064   1.050
   1.035   1.020   1.006   0.996   0.989   0.986   0.984   0.986   0.989   0.996
   1.006   1.020   1.035   1.050   1.064   1.072   1.075   1.072   1.064   1.053
   1.041   1.030   1.021   1.015   1.013   1.015   1.021   1.030   1.041   1.053
   1.064   1.072   1.075   1.072   1.064   1.050   1.035   1.020   1.006   0.996
   0.989   0.986
   0.923   0.919   0.911   0.902   0.896   0.896   0.904   0.916   0.928   0.937
   0.941   0.938   0.932   0.923   0.915   0.909   0.905   0.902   0.902   0.902
   0.905   0.909   0.915   0.923   0.932   0.938   0.941   0.937   0.928   0.916
   0.904   0.896   0.896   0.902   0.911   0.919   0.923   0.919   0.911   0.902
   0.896   0.896   0.904   0.916   0.928   0.937   0.941   0.938   0.932   0.923
   0.915   0.909   0.905   0.902   0.902   0.902   0.905   0.909   0.915   0.923
   0.932   0.938   0.941   0.937   0.928   0.916   0.904   0.896   0.896   0.902
   0.911   0.919
   0.979   0.968   0.941   0.906   0.876   0.859   0.858   0.868   0.882   0.893
   0.898   0.897   0.894   0.892   0.893   0.897   0.903   0.909   0.911   0.909
   0.903   0.897   0.893   0.892   0.894   0.897   0.898   0.893   0.882   0.868
   0.858   0.859   0.876   0.906   0.941   0.968   0.979   0.968   0.941   0.906
   0.876   0.859   0.858   0.868   0.882   0.893   0.898   0.897   0.894   0.892
   0.893   0.897   0.903   0.909   0.911   0.909   0.903   0.897   0.893   0.892
   0.894   0.897   0.898   0.893   0.882   0.868   0.858   0.859   0.876   0.906
   0.941   0.968
   1.047   1.029   0.984   0.928   0.881   0.857   0.858   0.875   0.896   0.910
   0.915   0.913   0.910   0.911   0.918   0.930   0.942   0.952   0.956   0.952
   0.942   0.930   0.918   0.911   0.910   0.913   0.915   0.910   0.896   0.875
   0.858   0.857   0.881   0.928   0.984   1.029   1.047   1.029   0.984   0.928
   0.881   0.857   0.858   0.875   0.896   0.910   0.915   0.913   0.910   0.911
   0.918   0.930   0.942   0.952   0.956   0.952   0.942   0.930   0.918   0.911
   0.910   0.913   0.915   0.910   0.896   0.875   0.858   0.857   0.881   0.928
   0.984   1.029
   1.034   1.014   0.964   0.904   0.859   0.844   0.857   0.886   0.915   0.931
   0.933   0.925   0.917   0.915   0.920   0.929   0.939   0.946   0.948   0.946
   0.939   0.929   0.920   0.915   0.917   0.925   0.933   0.931   0.915   0.886
   0.857   0.844   0.859   0.904   0.964   1.014   1.034   1.014   0.964   0.904
   0.859   0.844   0.857   0.886   0.915   0.931   0.933   0.925   0.917   0.915
   0.920   0.929   0.939   0.946   0.948   0.946   0.939   0.929   0.920   0.915
   0.917   0.925   0.933   0.931   0.915   0.886   0.857   0.844   0.859   0.904
   0.964   1.014
   0.958   0.943   0.904   0.861   0.833   0.831   0.852   0.884   0.911   0.924
   0.922   0.912   0.900   0.893   0.890   0.890   0.890   0.890   0.890   0.890
   0.890   0.890   0.890   0.893   0.900   0.912   0.922   0.924   0.911   0.884
   0.852   0.831   0.833   0.861   0.904   0.943   0.958   0.943   0.904   0.861
   0.833   0.831   0.852   0.884   0.911   0.924   0.922   0.912   0.900   0.893
   0.890   0.890   0.890   0.890   0.890   0.890   0.890   0.890   0.890   0.893
   0.900   0.912   0.922   0.924   0.911   0.884   0.852   0.831   0.833   0.861
   0.904   0.943
   0.907   0.902   0.888   0.872   0.859   0.855   0.861   0.874   0.888   0.899
   0.903   0.900   0.892   0.882   0.873   0.865   0.859   0.855   0.854   0.855
   0.859   0.865   0.873   0.882   0.892   0.900   0.903   0.899   0.888   0.874
   0.861   0.855   0.859   0.872   0.888   0.902   0.907   0.902   0.888   0.872
   0.859   0.855   0.861   0.874   0.888   0.899   0.903   0.900   0.892   0.882
   0.873   0.865   0.859   0.855   0.854   0.855   0.859   0.865   0.873   0.882
   0.892   0.900   0.903   0.899   0.888   0.874   0.861   0.855   0.859   0.872
   0.888   0.902
   0.917   0.926   0.943   0.953   0.942   0.913   0.878   0.857   0.860   0.881
   0.906   0.920   0.919   0.907   0.892   0.883   0.881   0.882   0.883   0.882
   0.881   0.883   0.892   0.907   0.919   0.920   0.906   0.881   0.860   0.857
   0.878   0.913   0.942   0.953   0.943   0.926   0.917   0.926   0.943   0.953
   0.942   0.913   0.878   0.857   0.860   0.881   0.906   0.920   0.919   0.907
   0.892   0.883   0.881   0.882   0.883   0.882   0.881   0.883   0.892   0.907
   0.919   0.920   0.906   0.881   0.860   0.857   0.878   0.913   0.942   0.953
   0.943   0.926
   0.931   0.954   1.003   1.036   1.019   0.953   0.874   0.826   0.831   0.878
   0.933   0.964   0.964   0.944   0.924   0.917   0.923   0.934   0.939   0.934
   0.923   0.917   0.924   0.944   0.964   0.964   0.933   0.878   0.831   0.826
   0.874   0.953   1.019   1.036   1.003   0.954   0.931   0.954   1.003   1.036
   1.019   0.953   0.874   0.826   0.831   0.878   0.933   0.964   0.964   0.944
   0.924   0.917   0.923   0.934   0.939   0.934   0.923   0.917   0.924   0.944
   0.964   0.964   0.933   0.878   0.831   0.826   0.874   0.953   1.019   1.036
   1.003   0.954
   0.885   0.922   1.003   1.059   1.041   0.953   0.851   0.799   0.821   0.892
   0.963   0.996   0.988   0.963   0.944   0.941   0.949   0.958   0.961   0.958
   0.949   0.941   0.944   0.963   0.988   0.996   0.963   0.892   0.821   0.799
   0.851   0.953   1.041   1.059   1.003   0.922   0.885   0.922   1.003   1.059
   1.041   0.953   0.851   0.799   0.821   0.892   0.963   0.996   0.988   0.963
   0.944   0.941   0.949   0.958   0.961   0.958   0.949   0.941   0.944   0.963
   0.988   0.996   0.963   0.892   0.821   0.799   0.851   0.953   1.041   1.059
   1.003   0.922
   0.807   0.856   0.966   1.052   1.050   0.970   0.876   0.836   0.868   0.933
   0.982   0.991   0.978   0.969   0.975   0.983   0.978   0.964   0.956   0.964
   0.978   0.983   0.975   0.969   0.978   0.991   0.982   0.933   0.868   0.836
   0.876   0.970   1.050   1.052   0.966   0.856   0.807   0.856   0.966   1.052
   1.050   0.970   0.876   0.836   0.868   0.933   0.982   0.991   0.978   0.969
   0.975   0.983   0.978   0.964   0.956   0.964   0.978   0.983   0.975   0.969
   0.978   0.991   0.982   0.933   0.868   0.836   0.876   0.970   1.050   1.052
   0.966   0.856
   0.784   0.844   0.979   1.097   1.129   1.080   1.014   0.986   0.998   1.011
   0.995   0.962   0.957   1.002   1.067   1.097   1.067   1.008   0.978   1.008
   1.067   1.097   1.067   1.002   0.957   0.962   0.995   1.011   0.998   0.986
   1.014   1.080   1.129   1.097   0.979   0.844   0.784   0.844   0.979   1.097
   1.129   1.080   1.014   0.986   0.998   1.011   0.995   0.962   0.957   1.002
   1.067   1.097   1.067   1.008   0.978   1.008   1.067   1.097   1.067   1.002
   0.957   0.962   0.995   1.011   0.998   0.986   1.014   1.080   1.129   1.097
   0.979   0.844
   0.850   0.917   1.072   1.219   1.286   1.275   1.236   1.208   1.177   1.110
   1.010   0.934   0.952   1.071   1.212   1.273   1.216   1.107   1.053   1.107
   1.216   1.273   1.212   1.071   0.952   0.934   1.010   1.110   1.177   1.208
   1.236   1.275   1.286   1.219   1.072   0.917   0.850   0.917   1.072   1.219
   1.286   1.275   1.236   1.208   1.177   1.110   1.010   0.934   0.952   1.071
   1.212   1.273   1.216   1.107   1.053   1.107   1.216   1.273   1.212   1.071
   0.952   0.934   1.010   1.110   1.177   1.208   1.236   1.275   1.286   1.219
   1.072   0.917
   0.931   1.001   1.167   1.330   1.420   1.433   1.411   1.376   1.309   1.182
   1.023   0.921   0.959   1.132   1.328   1.412   1.339   1.196   1.126   1.196
   1.339   1.412   1.328   1.132   0.959   0.921   1.023   1.182   1.309   1.376
   1.411   1.433   1.420   1.330   1.167   1.001   0.931   1.001   1.167   1.330
   1.420   1.433   1.411   1.376   1.309   1.182   1.023   0.921   0.959   1.132
   1.328   1.412   1.339   1.196   1.126   1.196   1.339   1.412   1.328   1.132
   0.959   0.921   1.023   1.182   1.309   1.376   1.411   1.433   1.420   1.330
   1.167   1.001
 111       5.00   72    0 5.00   18    0
   0.767   0.767   0.767   0.767   0.767   0.767   0.767   0.767   0.767   0.767
   0.766   0.766   0.766   0.766   0.766   0.766   0.766   0.766   0.766   0.766
   0.766   0.766   0.766   0.766   0.766   0.766   0.766   0.767   0.767   0.767
   0.767   0.767   0.767   0.767   0.767   0.767   0.767   0.767   0.767   0.767
   0.767   0.767   0.767   0.767   0.767   0.767   0.766   0.766   0.766   0.766
   0.766   0.766   0.766   0.766   0.766   0.766   0.766   0.766   0.766   0.766
   0.766   0.766   0.766   0.767   0.767   0.767   0.767   0.767   0.767   0.767
   0.767   0.767
   0.855   0.855   0.855   0.855   0.856   0.856   0.856   0.856   0.855   0.855
   0.854   0.853   0.852   0.851   0.850   0.849   0.848   0.848   0.848   0.848
   0.848   0.849   0.850   0.851   0.852   0.853   0.854   0.855   0.855   0.856
   0.856   0.856   0.856   0.855   0.855   0.855   0.855   0.855   0.855   0.855
   0.856   0.856   0.856   0.856   0.855   0.855   0.854   0.853   0.852   0.851
   0.850   0.849   0.848   0.848   0.848   0.848   0.848   0.849   0.850   0.851
   0.852   0.853   0.854   0.855   0.855   0.856   0.856   0.856   0.856   0.855
   0.855   0.855
   0.923   0.923   0.925   0.928   0.931   0.935   0.938   0.940   0.941   0.941
   0.940   0.938   0.935   0.932   0.929   0.926   0.923   0.922   0.921   0.922
   0.923   0.926   0.929   0.932   0.935   0.938   0.940   0.941   0.941   0.940
   0.938   0.935   0.931   0.928   0.925   0.923   0.923   0.923   0.925   0.928
   0.931   0.935   0.938   0.940   0.941   0.941   0.940   0.938   0.935   0.932
   0.929   0.926   0.923   0.922   0.921   0.922   0.923   0.926   0.929   0.932
   0.935   0.938   0.940   0.941   0.941   0.940   0.938   0.935   0.931   0.928
   0.925   0.923
   0.893   0.895   0.899   0.907   0.916   0.925   0.934   0.941   0.945   0.947
   0.946   0.943   0.938   0.933   0.929   0.925   0.923   0.921   0.920   0.921
   0.923   0.925   0.929   0.933   0.938   0.943   0.946   0.947   0.945   0.941
   0.934   0.925   0.916   0.907   0.899   0.895   0.893   0.895   0.899   0.907
   0.916   0.925   0.934   0.941   0.945   0.947   0.946   0.943   0.938   0.933
   0.929   0.925   0.923   0.921   0.920   0.921   0.923   0.925   0.929   0.933
   0.938   0.943   0.946   0.947   0.945   0.941   0.934   0.925   0.916   0.907
   0.899   0.895
   0.821   0.823   0.828   0.838   0.849   0.862   0.874   0.883   0.889   0.890
   0.888   0.884   0.880   0.878   0.878   0.880   0.882   0.885   0.886   0.885
   0.882   0.880   0.878   0.878   0.880   0.884   0.888   0.890   0.889   0.883
   0.874   0.862   0.849   0.838   0.828   0.823   0.821   0.823   0.828   0.838
   0.849   0.862   0.874   0.883   0.889   0.890   0.888   0.884   0.880   0.878
   0.878   0.880   0.882   0.885   0.886   0.885   0.882   0.880   0.878   0.878
   0.880   0.884   0.888   0.890   0.889   0.883   0.874   0.862   0.849   0.838
   0.828   0.823
   0.829   0.829   0.829   0.832   0.838   0.847   0.857   0.864   0.868   0.866
   0.860   0.854   0.852   0.856   0.866   0.879   0.893   0.903   0.907   0.903
   0.893   0.879   0.866   0.856   0.852   0.854   0.860   0.866   0.868   0.864
   0.857   0.847   0.838   0.832   0.829   0.829   0.829   0.829   0.829   0.832
   0.838   0.847   0.857   0.864   0.868   0.866   0.860   0.854   0.852   0.856
   0.866   0.879   0.893   0.903   0.907   0.903   0.893   0.879   0.866   0.856
   0.852   0.854   0.860   0.866   0.868   0.864   0.857   0.847   0.838   0.832
   0.829   0.829
   0.962   0.957   0.945   0.931   0.924   0.924   0.931   0.938   0.940   0.935
   0.925   0.916   0.914   0.922   0.939   0.962   0.984   0.999   1.005   0.999
   0.984   0.962   0.939   0.922   0.914   0.916   0.925   0.935   0.940   0.938
   0.931   0.924   0.924   0.931   0.945   0.957   0.962   0.957   0.945   0.931
   0.924   0.924   0.931   0.938   0.940   0.935   0.925   0.916   0.914   0.922
   0.939   0.962   0.984   0.999   1.005   0.999   0.984   0.962   0.939   0.922
   0.914   0.916   0.925   0.935   0.940   0.938   0.931   0.924   0.924   0.931
   0.945   0.957
   1.134   1.122   1.092   1.059   1.037   1.033   1.044   1.058   1.065   1.061
   1.048   1.037   1.034   1.041   1.056   1.073   1.087   1.096   1.099   1.096
   1.087   1.073   1.056   1.041   1.034   1.037   1.048   1.061   1.065   1.058
   1.044   1.033   1.037   1.059   1.092   1.122   1.134   1.122   1.092   1.059
   1.037   1.033   1.044   1.058   1.065   1.061   1.048   1.037   1.034   1.041
   1.056   1.073   1.087   1.096   1.099   1.096   1.087   1.073   1.056   1.041
   1.034   1.037   1.048   1.061   1.065   1.058   1.044   1.033   1.037   1.059
   1.092   1.122
   1.225   1.207   1.163   1.116   1.087   1.087   1.108   1.132   1.146   1.144
   1.135   1.128   1.130   1.139   1.144   1.139   1.126   1.111   1.105   1.111
   1.126   1.139   1.144   1.139   1.130   1.128   1.135   1.144   1.146   1.132
   1.108   1.087   1.087   1.116   1.163   1.207   1.225   1.207   1.163   1.116
   1.087   1.087   1.108   1.132   1.146   1.144   1.135   1.128   1.130   1.139
   1.144   1.139   1.126   1.111   1.105   1.111   1.126   1.139   1.144   1.139
   1.130   1.128   1.135   1.144   1.146   1.132   1.108   1.087   1.087   1.116
   1.163   1.207
   1.210   1.190   1.144   1.096   1.071   1.076   1.101   1.124   1.133   1.129
   1.125   1.134   1.156   1.176   1.177   1.150   1.103   1.059   1.042   1.059
   1.103   1.150   1.177   1.176   1.156   1.134   1.125   1.129   1.133   1.124
   1.101   1.076   1.071   1.096   1.144   1.190   1.210   1.190   1.144   1.096
   1.071   1.076   1.101   1.124   1.133   1.129   1.125   1.134   1.156   1.176
   1.177   1.150   1.103   1.059   1.042   1.059   1.103   1.150   1.177   1.176
   1.156   1.134   1.125   1.129   1.133   1.124   1.101   1.076   1.071   1.096
   1.144   1.190
   1.148   1.135   1.103   1.074   1.062   1.069   1.080   1.080   1.064   1.046
   1.047   1.076   1.126   1.170   1.181   1.149   1.086   1.027   1.002   1.027
   1.086   1.149   1.181   1.170   1.126   1.076   1.047   1.046   1.064   1.080
   1.080   1.069   1.062   1.074   1.103   1.135   1.148   1.135   1.103   1.074
   1.062   1.069   1.080   1.080   1.064   1.046   1.047   1.076   1.126   1.170
   1.181   1.149   1.086   1.027   1.002   1.027   1.086   1.149   1.181   1.170
   1.126   1.076   1.047   1.046   1.064   1.080   1.080   1.069   1.062   1.074
   1.103   1.135
   1.088   1.088   1.091   1.100   1.112   1.117   1.102   1.064   1.014   0.976
   0.972   1.011   1.078   1.141   1.172   1.157   1.111   1.062   1.041   1.062
   1.111   1.157   1.172   1.141   1.078   1.011   0.972   0.976   1.014   1.064
   1.102   1.117   1.112   1.100   1.091   1.088   1.088   1.088   1.091   1.100
   1.112   1.117   1.102   1.064   1.014   0.976   0.972   1.011   1.078   1.141
   1.172   1.157   1.111   1.062   1.041   1.062   1.111   1.157   1.172   1.141
   1.078   1.011   0.972   0.976   1.014   1.064   1.102   1.117   1.112   1.100
   1.091   1.088
   1.008   1.027   1.076   1.135   1.179   1.188   1.154   1.090   1.018   0.965
   0.948   0.971   1.023   1.081   1.124   1.141   1.134   1.118   1.111   1.118
   1.134   1.141   1.124   1.081   1.023   0.971   0.948   0.965   1.018   1.090
   1.154   1.188   1.179   1.135   1.076   1.027   1.008   1.027   1.076   1.135
   1.179   1.188   1.154   1.090   1.018   0.965   0.948   0.971   1.023   1.081
   1.124   1.141   1.134   1.118   1.111   1.118   1.134   1.141   1.124   1.081
   1.023   0.971   0.948   0.965   1.018   1.090   1.154   1.188   1.179   1.135
   1.076   1.027
   0.877   0.914   1.006   1.112   1.188   1.208   1.178   1.117   1.051   0.996
   0.960   0.945   0.952   0.981   1.023   1.065   1.099   1.118   1.125   1.118
   1.099   1.065   1.023   0.981   0.952   0.945   0.960   0.996   1.051   1.117
   1.178   1.208   1.188   1.112   1.006   0.914   0.877   0.914   1.006   1.112
   1.188   1.208   1.178   1.117   1.051   0.996   0.960   0.945   0.952   0.981
   1.023   1.065   1.099   1.118   1.125   1.118   1.099   1.065   1.023   0.981
   0.952   0.945   0.960   0.996   1.051   1.117   1.178   1.208   1.188   1.112
   1.006   0.914
   0.738   0.784   0.898   1.026   1.117   1.151   1.140   1.107   1.068   1.021
   0.964   0.905   0.867   0.868   0.907   0.965   1.018   1.051   1.062   1.051
   1.018   0.965   0.907   0.868   0.867   0.905   0.964   1.021   1.068   1.107
   1.140   1.151   1.117   1.026   0.898   0.784   0.738   0.784   0.898   1.026
   1.117   1.151   1.140   1.107   1.068   1.021   0.964   0.905   0.867   0.868
   0.907   0.965   1.018   1.051   1.062   1.051   1.018   0.965   0.907   0.868
   0.867   0.905   0.964   1.021   1.068   1.107   1.140   1.151   1.117   1.026
   0.898   0.784
   0.676   0.720   0.828   0.944   1.024   1.058   1.065   1.065   1.053   1.012
   0.935   0.848   0.792   0.797   0.851   0.918   0.963   0.979   0.982   0.979
   0.963   0.918   0.851   0.797   0.792   0.848   0.935   1.012   1.053   1.065
   1.065   1.058   1.024   0.944   0.828   0.720   0.676   0.720   0.828   0.944
   1.024   1.058   1.065   1.065   1.053   1.012   0.935   0.848   0.792   0.797
   0.851   0.918   0.963   0.979   0.982   0.979   0.963   0.918   0.851   0.797
   0.792   0.848   0.935   1.012   1.053   1.065   1.065   1.058   1.024   0.944
   0.828   0.720
   0.719   0.754   0.836   0.919   0.969   0.988   1.002   1.019   1.021   0.978
   0.887   0.792   0.751   0.790   0.877   0.951   0.973   0.956   0.943   0.956
   0.973   0.951   0.877   0.790   0.751   0.792   0.887   0.978   1.021   1.019
   1.002   0.988   0.969   0.919   0.836   0.754   0.719   0.754   0.836   0.919
   0.969   0.988   1.002   1.019   1.021   0.978   0.887   0.792   0.751   0.790
   0.877   0.951   0.973   0.956   0.943   0.956   0.973   0.951   0.877   0.790
   0.751   0.792   0.887   0.978   1.021   1.019   1.002   0.988   0.969   0.919
   0.836   0.754
   0.788   0.815   0.876   0.930   0.954   0.959   0.971   0.993   0.998   0.949
   0.851   0.758   0.738   0.811   0.926   1.006   1.010   0.967   0.942   0.967
   1.010   1.006   0.926   0.811   0.738   0.758   0.851   0.949   0.998   0.993
   0.971   0.959   0.954   0.930   0.876   0.815   0.788   0.815   0.876   0.930
   0.954   0.959   0.971   0.993   0.998   0.949   0.851   0.758   0.738   0.811
   0.926   1.006   1.010   0.967   0.942   0.967   1.010   1.006   0.926   0.811
   0.738   0.758   0.851   0.949   0.998   0.993   0.971   0.959   0.954   0.930
   0.876   0.815
 311       5.00   72    0 5.00   18    0
   0.815   0.815   0.815   0.815   0.814   0.814   0.814   0.813   0.813   0.813
   0.812   0.812   0.812   0.811   0.811   0.811   0.811   0.811   0.810   0.811
   0.811   0.811   0.811   0.811   0.812   0.812   0.812   0.813   0.813   0.813
   0.814   0.814   0.814   0.815   0.815   0.815   0.815   0.815   0.815   0.815
   0.814   0.814   0.814   0.813   0.813   0.813   0.812   0.812   0.812   0.811
   0.811   0.811   0.811   0.811   0.810   0.811   0.811   0.811   0.811   0.811
   0.812   0.812   0.812   0.813   0.813   0.813   0.814   0.814   0.814   0.815
   0.815   0.815
   0.941   0.940   0.940   0.939   0.937   0.936   0.933   0.931   0.928   0.926
   0.923   0.920   0.917   0.915   0.913   0.911   0.910   0.909   0.909   0.909
   0.910   0.911   0.913   0.915   0.917   0.920   0.923   0.926   0.928   0.931
   0.933   0.936   0.937   0.939   0.940   0.940   0.941   0.940   0.940   0.939
   0.937   0.936   0.933   0.931   0.928   0.926   0.923   0.920   0.917   0.915
   0.913   0.911   0.910   0.909   0.909   0.909   0.910   0.911   0.913   0.915
   0.917   0.920   0.923   0.926   0.928   0.931   0.933   0.936   0.937   0.939
   0.940   0.940
   1.084   1.083   1.083   1.082   1.080   1.077   1.074   1.070   1.065   1.060
   1.054   1.049   1.044   1.039   1.035   1.032   1.030   1.028   1.028   1.028
   1.030   1.032   1.035   1.039   1.044   1.049   1.054   1.060   1.065   1.070
   1.074   1.077   1.080   1.082   1.083   1.083   1.084   1.083   1.083   1.082
   1.080   1.077   1.074   1.070   1.065   1.060   1.054   1.049   1.044   1.039
   1.035   1.032   1.030   1.028   1.028   1.028   1.030   1.032   1.035   1.039
   1.044   1.049   1.054   1.060   1.065   1.070   1.074   1.077   1.080   1.082
   1.083   1.083
   1.136   1.136   1.137   1.138   1.139   1.138   1.136   1.132   1.126   1.119
   1.111   1.105   1.099   1.095   1.093   1.093   1.093   1.094   1.094   1.094
   1.093   1.093   1.093   1.095   1.099   1.105   1.111   1.119   1.126   1.132
   1.136   1.138   1.139   1.138   1.137   1.136   1.136   1.136   1.137   1.138
   1.139   1.138   1.136   1.132   1.126   1.119   1.111   1.105   1.099   1.095
   1.093   1.093   1.093   1.094   1.094   1.094   1.093   1.093   1.093   1.095
   1.099   1.105   1.111   1.119   1.126   1.132   1.136   1.138   1.139   1.138
   1.137   1.136
   1.087   1.089   1.093   1.098   1.103   1.106   1.106   1.102   1.094   1.084
   1.073   1.065   1.062   1.064   1.071   1.081   1.092   1.099   1.102   1.099
   1.092   1.081   1.071   1.064   1.062   1.065   1.073   1.084   1.094   1.102
   1.106   1.106   1.103   1.098   1.093   1.089   1.087   1.089   1.093   1.098
   1.103   1.106   1.106   1.102   1.094   1.084   1.073   1.065   1.062   1.064
   1.071   1.081   1.092   1.099   1.102   1.099   1.092   1.081   1.071   1.064
   1.062   1.065   1.073   1.084   1.094   1.102   1.106   1.106   1.103   1.098
   1.093   1.089
   1.010   1.012   1.019   1.028   1.039   1.047   1.050   1.045   1.033   1.015
   0.997   0.985   0.983   0.993   1.014   1.042   1.069   1.088   1.095   1.088
   1.069   1.042   1.014   0.993   0.983   0.985   0.997   1.015   1.033   1.045
   1.050   1.047   1.039   1.028   1.019   1.012   1.010   1.012   1.019   1.028
   1.039   1.047   1.050   1.045   1.033   1.015   0.997   0.985   0.983   0.993
   1.014   1.042   1.069   1.088   1.095   1.088   1.069   1.042   1.014   0.993
   0.983   0.985   0.997   1.015   1.033   1.045   1.050   1.047   1.039   1.028
   1.019   1.012
   0.965   0.967   0.975   0.987   1.003   1.019   1.028   1.025   1.008   0.980
   0.949   0.926   0.920   0.935   0.968   1.011   1.054   1.085   1.096   1.085
   1.054   1.011   0.968   0.935   0.920   0.926   0.949   0.980   1.008   1.025
   1.028   1.019   1.003   0.987   0.975   0.967   0.965   0.967   0.975   0.987
   1.003   1.019   1.028   1.025   1.008   0.980   0.949   0.926   0.920   0.935
   0.968   1.011   1.054   1.085   1.096   1.085   1.054   1.011   0.968   0.935
   0.920   0.926   0.949   0.980   1.008   1.025   1.028   1.019   1.003   0.987
   0.975   0.967
   0.951   0.952   0.956   0.967   0.988   1.014   1.035   1.041   1.024   0.987
   0.943   0.907   0.893   0.905   0.940   0.988   1.034   1.068   1.080   1.068
   1.034   0.988   0.940   0.905   0.893   0.907   0.943   0.987   1.024   1.041
   1.035   1.014   0.988   0.967   0.956   0.952   0.951   0.952   0.956   0.967
   0.988   1.014   1.035   1.041   1.024   0.987   0.943   0.907   0.893   0.905
   0.940   0.988   1.034   1.068   1.080   1.068   1.034   0.988   0.940   0.905
   0.893   0.907   0.943   0.987   1.024   1.041   1.035   1.014   0.988   0.967
   0.956   0.952
   0.938   0.935   0.930   0.935   0.957   0.993   1.030   1.048   1.037   0.999
   0.947   0.903   0.883   0.890   0.919   0.957   0.991   1.015   1.023   1.015
   0.991   0.957   0.919   0.890   0.883   0.903   0.947   0.999   1.037   1.048
   1.030   0.993   0.957   0.935   0.930   0.935   0.938   0.935   0.930   0.935
   0.957   0.993   1.030   1.048   1.037   0.999   0.947   0.903   0.883   0.890
   0.919   0.957   0.991   1.015   1.023   1.015   0.991   0.957   0.919   0.890
   0.883   0.903   0.947   0.999   1.037   1.048   1.030   0.993   0.957   0.935
   0.930   0.935
   0.925   0.916   0.899   0.892   0.909   0.950   0.996   1.024   1.018   0.982
   0.932   0.892   0.877   0.886   0.908   0.931   0.945   0.951   0.952   0.951
   0.945   0.931   0.908   0.886   0.877   0.892   0.932   0.982   1.018   1.024
   0.996   0.950   0.909   0.892   0.899   0.916   0.925   0.916   0.899   0.892
   0.909   0.950   0.996   1.024   1.018   0.982   0.932   0.892   0.877   0.886
   0.908   0.931   0.945   0.951   0.952   0.951   0.945   0.931   0.908   0.886
   0.877   0.892   0.932   0.982   1.018   1.024   0.996   0.950   0.909   0.892
   0.899   0.916
   0.941   0.928   0.900   0.880   0.887   0.922   0.965   0.992   0.985   0.951
   0.910   0.883   0.882   0.901   0.924   0.939   0.940   0.934   0.930   0.934
   0.940   0.939   0.924   0.901   0.882   0.883   0.910   0.951   0.985   0.992
   0.965   0.922   0.887   0.880   0.900   0.928   0.941   0.928   0.900   0.880
   0.887   0.922   0.965   0.992   0.985   0.951   0.910   0.883   0.882   0.901
   0.924   0.939   0.940   0.934   0.930   0.934   0.940   0.939   0.924   0.901
   0.882   0.883   0.910   0.951   0.985   0.992   0.965   0.922   0.887   0.880
   0.900   0.928
   0.994   0.980   0.949   0.923   0.922   0.945   0.976   0.992   0.981   0.949
   0.916   0.900   0.909   0.936   0.965   0.984   0.989   0.986   0.984   0.986
   0.989   0.984   0.965   0.936   0.909   0.900   0.916   0.949   0.981   0.992
   0.976   0.945   0.922   0.923   0.949   0.980   0.994   0.980   0.949   0.923
   0.922   0.945   0.976   0.992   0.981   0.949   0.916   0.900   0.909   0.936
   0.965   0.984   0.989   0.986   0.984   0.986   0.989   0.984   0.965   0.936
   0.909   0.900   0.916   0.949   0.981   0.992   0.976   0.945   0.922   0.923
   0.949   0.980
   1.047   1.037   1.013   0.992   0.989   1.004   1.024   1.032   1.021   0.994
   0.965   0.948   0.950   0.969   0.998   1.028   1.051   1.065   1.070   1.065
   1.051   1.028   0.998   0.969   0.950   0.948   0.965   0.994   1.021   1.032
   1.024   1.004   0.989   0.992   1.013   1.037   1.047   1.037   1.013   0.992
   0.989   1.004   1.024   1.032   1.021   0.994   0.965   0.948   0.950   0.969
   0.998   1.028   1.051   1.065   1.070   1.065   1.051   1.028   0.998   0.969
   0.950   0.948   0.965   0.994   1.021   1.032   1.024   1.004   0.989   0.992
   1.013   1.037
   1.058   1.053   1.042   1.034   1.035   1.047   1.064   1.076   1.076   1.061
   1.034   1.003   0.981   0.977   0.995   1.031   1.073   1.106   1.119   1.106
   1.073   1.031   0.995   0.977   0.981   1.003   1.034   1.061   1.076   1.076
   1.064   1.047   1.035   1.034   1.042   1.053   1.058   1.053   1.042   1.034
   1.035   1.047   1.064   1.076   1.076   1.061   1.034   1.003   0.981   0.977
   0.995   1.031   1.073   1.106   1.119   1.106   1.073   1.031   0.995   0.977
   0.981   1.003   1.034   1.061   1.076   1.076   1.064   1.047   1.035   1.034
   1.042   1.053
   1.033   1.032   1.030   1.029   1.031   1.041   1.059   1.083   1.103   1.105
   1.082   1.038   0.992   0.964   0.967   1.001   1.048   1.089   1.105   1.089
   1.048   1.001   0.967   0.964   0.992   1.038   1.082   1.105   1.103   1.083
   1.059   1.041   1.031   1.029   1.030   1.032   1.033   1.032   1.030   1.029
   1.031   1.041   1.059   1.083   1.103   1.105   1.082   1.038   0.992   0.964
   0.967   1.001   1.048   1.089   1.105   1.089   1.048   1.001   0.967   0.964
   0.992   1.038   1.082   1.105   1.103   1.083   1.059   1.041   1.031   1.029
   1.030   1.032
   1.019   1.018   1.014   1.006   0.996   0.994   1.010   1.044   1.081   1.100
   1.086   1.042   0.991   0.956   0.954   0.979   1.016   1.047   1.059   1.047
   1.016   0.979   0.954   0.956   0.991   1.042   1.086   1.100   1.081   1.044
   1.010   0.994   0.996   1.006   1.014   1.018   1.019   1.018   1.014   1.006
   0.996   0.994   1.010   1.044   1.081   1.100   1.086   1.042   0.991   0.956
   0.954   0.979   1.016   1.047   1.059   1.047   1.016   0.979   0.954   0.956
   0.991   1.042   1.086   1.100   1.081   1.044   1.010   0.994   0.996   1.006
   1.014   1.018
   1.042   1.037   1.022   0.995   0.963   0.942   0.948   0.983   1.029   1.061
   1.058   1.027   0.990   0.970   0.973   0.992   1.009   1.020   1.022   1.020
   1.009   0.992   0.973   0.970   0.990   1.027   1.058   1.061   1.029   0.983
   0.948   0.942   0.963   0.995   1.022   1.037   1.042   1.037   1.022   0.995
   0.963   0.942   0.948   0.983   1.029   1.061   1.058   1.027   0.990   0.970
   0.973   0.992   1.009   1.020   1.022   1.020   1.009   0.992   0.973   0.970
   0.990   1.027   1.058   1.061   1.029   0.983   0.948   0.942   0.963   0.995
   1.022   1.037
   1.074   1.066   1.041   0.999   0.949   0.912   0.908   0.940   0.989   1.025
   1.031   1.013   0.992   0.988   1.001   1.015   1.019   1.013   1.009   1.013
   1.019   1.015   1.001   0.988   0.992   1.013   1.031   1.025   0.989   0.940
   0.908   0.912   0.949   0.999   1.041   1.066   1.074   1.066   1.041   0.999
   0.949   0.912   0.908   0.940   0.989   1.025   1.031   1.013   0.992   0.988
   1.001   1.015   1.019   1.013   1.009   1.013   1.019   1.015   1.001   0.988
   0.992   1.013   1.031   1.025   0.989   0.940   0.908   0.912   0.949   0.999
   1.041   1.066
TEXTURE_INDEX=   1.0607
ERR_CF 220         1080     772   25.54   18.52
ERR_CF 200         1080     572   15.52   14.60
ERR_CF 111         1080     750   18.98   18.69
