TEXEVAL                                                                         
Analysis started on 21-Sep-20 11:22:43                                          
 LMAX=14LFMAX=03 CUBIC ORTHO   
 220      5.00 5.00
 200      5.00 5.00
 111      5.00 5.00
 220       5.00   72    0 5.00   15    0
   0.689   0.689   0.689   0.689   0.689   0.689   0.689   0.689   0.689   0.689
   0.689   0.689   0.689   0.689   0.689   0.689   0.689   0.689   0.689   0.689
   0.689   0.689   0.689   0.689   0.689   0.689   0.689   0.689   0.689   0.689
   0.689   0.689   0.689   0.689   0.689   0.689   0.689   0.689   0.689   0.689
   0.689   0.689   0.689   0.689   0.689   0.689   0.689   0.689   0.689   0.689
   0.689   0.689   0.689   0.689   0.689   0.689   0.689   0.689   0.689   0.689
   0.689   0.689   0.689   0.689   0.689   0.689   0.689   0.689   0.689   0.689
   0.689   0.689
   1.188   0.701   0.928   0.605   0.842   0.673   0.733   0.783   0.647   0.804
   0.944   0.549   0.898   0.988   0.799   0.810   0.917   0.498   0.854   0.498
   0.917   0.810   0.799   0.988   0.898   0.549   0.944   0.804   0.647   0.783
   0.733   0.673   0.842   0.605   0.928   0.701   1.188   0.701   0.928   0.605
   0.842   0.673   0.733   0.783   0.647   0.804   0.944   0.549   0.898   0.988
   0.799   0.810   0.917   0.498   0.854   0.498   0.917   0.810   0.799   0.988
   0.898   0.549   0.944   0.804   0.647   0.783   0.733   0.673   0.842   0.605
   0.928   0.701
   1.105   0.965   1.050   0.634   0.933   0.838   0.999   1.298   1.099   0.712
   0.743   0.952   0.672   1.259   0.723   1.117   1.162   0.874   1.641   0.874
   1.162   1.117   0.723   1.259   0.672   0.952   0.743   0.712   1.099   1.298
   0.999   0.838   0.933   0.634   1.050   0.965   1.105   0.965   1.050   0.634
   0.933   0.838   0.999   1.298   1.099   0.712   0.743   0.952   0.672   1.259
   0.723   1.117   1.162   0.874   1.641   0.874   1.162   1.117   0.723   1.259
   0.672   0.952   0.743   0.712   1.099   1.298   0.999   0.838   0.933   0.634
   1.050   0.965
   1.198   1.189   1.414   0.825   1.049   0.967   1.264   1.277   1.172   0.542
   0.633   1.011   0.743   0.980   0.677   1.011   0.881   0.981   1.453   0.981
   0.881   1.011   0.677   0.980   0.743   1.011   0.633   0.542   1.172   1.277
   1.264   0.967   1.049   0.825   1.414   1.189   1.198   1.189   1.414   0.825
   1.049   0.967   1.264   1.277   1.172   0.542   0.633   1.011   0.743   0.980
   0.677   1.011   0.881   0.981   1.453   0.981   0.881   1.011   0.677   0.980
   0.743   1.011   0.633   0.542   1.172   1.277   1.264   0.967   1.049   0.825
   1.414   1.189
   2.001   1.186   1.198   1.111   0.847   0.996   1.653   1.121   0.873   0.886
   0.768   1.514   0.910   0.656   0.933   0.667   1.041   0.929   0.772   0.929
   1.041   0.667   0.933   0.656   0.910   1.514   0.768   0.886   0.873   1.121
   1.653   0.996   0.847   1.111   1.198   1.186   2.001   1.186   1.198   1.111
   0.847   0.996   1.653   1.121   0.873   0.886   0.768   1.514   0.910   0.656
   0.933   0.667   1.041   0.929   0.772   0.929   1.041   0.667   0.933   0.656
   0.910   1.514   0.768   0.886   0.873   1.121   1.653   0.996   0.847   1.111
   1.198   1.186
   2.245   1.280   1.243   1.395   1.023   1.393   1.775   1.360   1.135   1.104
   1.117   1.782   0.759   1.170   0.871   0.691   1.355   1.251   0.755   1.251
   1.355   0.691   0.871   1.170   0.759   1.782   1.117   1.104   1.135   1.360
   1.775   1.393   1.023   1.395   1.243   1.280   2.245   1.280   1.243   1.395
   1.023   1.393   1.775   1.360   1.135   1.104   1.117   1.782   0.759   1.170
   0.871   0.691   1.355   1.251   0.755   1.251   1.355   0.691   0.871   1.170
   0.759   1.782   1.117   1.104   1.135   1.360   1.775   1.393   1.023   1.395
   1.243   1.280
   1.977   1.388   1.372   1.259   1.590   1.774   1.936   1.335   1.760   1.036
   1.118   1.343   0.810   1.138   0.701   0.819   0.975   0.993   0.833   0.993
   0.975   0.819   0.701   1.138   0.810   1.343   1.118   1.036   1.760   1.335
   1.936   1.774   1.590   1.259   1.372   1.388   1.977   1.388   1.372   1.259
   1.590   1.774   1.936   1.335   1.760   1.036   1.118   1.343   0.810   1.138
   0.701   0.819   0.975   0.993   0.833   0.993   0.975   0.819   0.701   1.138
   0.810   1.343   1.118   1.036   1.760   1.335   1.936   1.774   1.590   1.259
   1.372   1.388
   1.370   1.252   1.208   1.017   1.349   1.649   1.931   1.067   1.568   1.088
   1.128   1.487   1.212   0.690   0.655   1.126   0.694   0.735   0.791   0.735
   0.694   1.126   0.655   0.690   1.212   1.487   1.128   1.088   1.568   1.067
   1.931   1.649   1.349   1.017   1.208   1.252   1.370   1.252   1.208   1.017
   1.349   1.649   1.931   1.067   1.568   1.088   1.128   1.487   1.212   0.690
   0.655   1.126   0.694   0.735   0.791   0.735   0.694   1.126   0.655   0.690
   1.212   1.487   1.128   1.088   1.568   1.067   1.931   1.649   1.349   1.017
   1.208   1.252
   0.770   1.075   0.860   0.937   0.849   1.320   1.289   1.283   1.155   1.466
   1.166   1.257   1.300   1.203   0.756   1.249   1.025   1.241   0.775   1.241
   1.025   1.249   0.756   1.203   1.300   1.257   1.166   1.466   1.155   1.283
   1.289   1.320   0.849   0.937   0.860   1.075   0.770   1.075   0.860   0.937
   0.849   1.320   1.289   1.283   1.155   1.466   1.166   1.257   1.300   1.203
   0.756   1.249   1.025   1.241   0.775   1.241   1.025   1.249   0.756   1.203
   1.300   1.257   1.166   1.466   1.155   1.283   1.289   1.320   0.849   0.937
   0.860   1.075
   0.601   0.776   0.680   0.850   0.721   1.067   1.136   1.206   1.076   1.279
   1.333   1.087   1.681   1.255   1.085   1.072   1.198   1.213   1.281   1.213
   1.198   1.072   1.085   1.255   1.681   1.087   1.333   1.279   1.076   1.206
   1.136   1.067   0.721   0.850   0.680   0.776   0.601   0.776   0.680   0.850
   0.721   1.067   1.136   1.206   1.076   1.279   1.333   1.087   1.681   1.255
   1.085   1.072   1.198   1.213   1.281   1.213   1.198   1.072   1.085   1.255
   1.681   1.087   1.333   1.279   1.076   1.206   1.136   1.067   0.721   0.850
   0.680   0.776
   0.618   0.807   0.649   0.825   0.611   0.804   1.066   1.431   1.050   0.925
   1.555   1.251   1.868   0.773   1.282   0.731   0.975   0.965   1.502   0.965
   0.975   0.731   1.282   0.773   1.868   1.251   1.555   0.925   1.050   1.431
   1.066   0.804   0.611   0.825   0.649   0.807   0.618   0.807   0.649   0.825
   0.611   0.804   1.066   1.431   1.050   0.925   1.555   1.251   1.868   0.773
   1.282   0.731   0.975   0.965   1.502   0.965   0.975   0.731   1.282   0.773
   1.868   1.251   1.555   0.925   1.050   1.431   1.066   0.804   0.611   0.825
   0.649   0.807
   1.058   0.966   0.715   0.933   0.630   0.768   0.961   1.339   1.061   1.135
   1.065   1.102   1.390   0.732   0.933   0.732   0.920   0.887   1.003   0.887
   0.920   0.732   0.933   0.732   1.390   1.102   1.065   1.135   1.061   1.339
   0.961   0.768   0.630   0.933   0.715   0.966   1.058   0.966   0.715   0.933
   0.630   0.768   0.961   1.339   1.061   1.135   1.065   1.102   1.390   0.732
   0.933   0.732   0.920   0.887   1.003   0.887   0.920   0.732   0.933   0.732
   1.390   1.102   1.065   1.135   1.061   1.339   0.961   0.768   0.630   0.933
   0.715   0.966
   1.149   0.717   0.717   0.789   0.691   0.948   0.945   0.447   0.843   0.884
   0.809   0.837   0.896   0.863   0.803   0.905   0.578   0.747   0.692   0.747
   0.578   0.905   0.803   0.863   0.896   0.837   0.809   0.884   0.843   0.447
   0.945   0.948   0.691   0.789   0.717   0.717   1.149   0.717   0.717   0.789
   0.691   0.948   0.945   0.447   0.843   0.884   0.809   0.837   0.896   0.863
   0.803   0.905   0.578   0.747   0.692   0.747   0.578   0.905   0.803   0.863
   0.896   0.837   0.809   0.884   0.843   0.447   0.945   0.948   0.691   0.789
   0.717   0.717
   0.604   0.464   0.963   0.715   0.775   0.766   0.715   0.583   0.821   0.853
   1.284   0.666   0.864   0.981   1.120   1.289   0.645   1.019   0.876   1.019
   0.645   1.289   1.120   0.981   0.864   0.666   1.284   0.853   0.821   0.583
   0.715   0.766   0.775   0.715   0.963   0.464   0.604   0.464   0.963   0.715
   0.775   0.766   0.715   0.583   0.821   0.853   1.284   0.666   0.864   0.981
   1.120   1.289   0.645   1.019   0.876   1.019   0.645   1.289   1.120   0.981
   0.864   0.666   1.284   0.853   0.821   0.583   0.715   0.766   0.775   0.715
   0.963   0.464
   0.508   0.635   0.978   0.731   0.886   0.567   0.598   0.695   0.767   1.050
   1.368   0.572   0.780   1.181   0.854   1.269   0.599   1.087   1.064   1.087
   0.599   1.269   0.854   1.181   0.780   0.572   1.368   1.050   0.767   0.695
   0.598   0.567   0.886   0.731   0.978   0.635   0.508   0.635   0.978   0.731
   0.886   0.567   0.598   0.695   0.767   1.050   1.368   0.572   0.780   1.181
   0.854   1.269   0.599   1.087   1.064   1.087   0.599   1.269   0.854   1.181
   0.780   0.572   1.368   1.050   0.767   0.695   0.598   0.567   0.886   0.731
   0.978   0.635
 200       5.00   72    0 5.00   15    0
   2.000   2.000   2.000   2.000   2.000   2.000   2.000   2.000   2.000   2.000
   2.000   2.000   2.000   2.000   2.000   2.000   2.000   2.000   2.000   2.000
   2.000   2.000   2.000   2.000   2.000   2.000   2.000   2.000   2.000   2.000
   2.000   2.000   2.000   2.000   2.000   2.000   2.000   2.000   2.000   2.000
   2.000   2.000   2.000   2.000   2.000   2.000   2.000   2.000   2.000   2.000
   2.000   2.000   2.000   2.000   2.000   2.000   2.000   2.000   2.000   2.000
   2.000   2.000   2.000   2.000   2.000   2.000   2.000   2.000   2.000   2.000
   2.000   2.000
   1.714   1.834   2.623   2.510   2.002   1.966   1.547   1.754   1.930   1.757
   1.869   2.350   2.457   2.202   1.541   1.567   1.842   1.682   2.535   1.682
   1.842   1.567   1.541   2.202   2.457   2.350   1.869   1.757   1.930   1.754
   1.547   1.966   2.002   2.510   2.623   1.834   1.714   1.834   2.623   2.510
   2.002   1.966   1.547   1.754   1.930   1.757   1.869   2.350   2.457   2.202
   1.541   1.567   1.842   1.682   2.535   1.682   1.842   1.567   1.541   2.202
   2.457   2.350   1.869   1.757   1.930   1.754   1.547   1.966   2.002   2.510
   2.623   1.834
   1.525   1.705   2.559   2.320   1.235   1.722   1.548   1.463   1.837   1.503
   2.190   1.994   1.809   1.604   1.446   1.551   2.060   1.914   2.130   1.914
   2.060   1.551   1.446   1.604   1.809   1.994   2.190   1.503   1.837   1.463
   1.548   1.722   1.235   2.320   2.559   1.705   1.525   1.705   2.559   2.320
   1.235   1.722   1.548   1.463   1.837   1.503   2.190   1.994   1.809   1.604
   1.446   1.551   2.060   1.914   2.130   1.914   2.060   1.551   1.446   1.604
   1.809   1.994   2.190   1.503   1.837   1.463   1.548   1.722   1.235   2.320
   2.559   1.705
   1.400   1.512   1.645   1.423   1.072   1.286   1.493   1.301   1.653   1.132
   2.304   1.730   1.808   1.354   1.133   1.243   1.992   1.965   1.678   1.965
   1.992   1.243   1.133   1.354   1.808   1.730   2.304   1.132   1.653   1.301
   1.493   1.286   1.072   1.423   1.645   1.512   1.400   1.512   1.645   1.423
   1.072   1.286   1.493   1.301   1.653   1.132   2.304   1.730   1.808   1.354
   1.133   1.243   1.992   1.965   1.678   1.965   1.992   1.243   1.133   1.354
   1.808   1.730   2.304   1.132   1.653   1.301   1.493   1.286   1.072   1.423
   1.645   1.512
   1.179   0.989   1.065   0.843   0.867   0.915   1.162   1.200   1.676   0.958
   1.518   1.592   1.196   1.455   1.285   1.173   1.469   1.871   0.994   1.871
   1.469   1.173   1.285   1.455   1.196   1.592   1.518   0.958   1.676   1.200
   1.162   0.915   0.867   0.843   1.065   0.989   1.179   0.989   1.065   0.843
   0.867   0.915   1.162   1.200   1.676   0.958   1.518   1.592   1.196   1.455
   1.285   1.173   1.469   1.871   0.994   1.871   1.469   1.173   1.285   1.455
   1.196   1.592   1.518   0.958   1.676   1.200   1.162   0.915   0.867   0.843
   1.065   0.989
   0.762   1.165   1.027   0.667   0.812   1.191   0.926   1.055   1.196   0.846
   1.195   1.178   0.908   1.272   1.241   1.242   1.699   1.614   1.126   1.614
   1.699   1.242   1.241   1.272   0.908   1.178   1.195   0.846   1.196   1.055
   0.926   1.191   0.812   0.667   1.027   1.165   0.762   1.165   1.027   0.667
   0.812   1.191   0.926   1.055   1.196   0.846   1.195   1.178   0.908   1.272
   1.241   1.242   1.699   1.614   1.126   1.614   1.699   1.242   1.241   1.272
   0.908   1.178   1.195   0.846   1.196   1.055   0.926   1.191   0.812   0.667
   1.027   1.165
   0.600   0.918   0.916   0.592   0.878   1.174   0.769   0.775   0.968   1.053
   0.940   1.031   0.749   1.203   1.180   1.189   1.311   1.224   1.414   1.224
   1.311   1.189   1.180   1.203   0.749   1.031   0.940   1.053   0.968   0.775
   0.769   1.174   0.878   0.592   0.916   0.918   0.600   0.918   0.916   0.592
   0.878   1.174   0.769   0.775   0.968   1.053   0.940   1.031   0.749   1.203
   1.180   1.189   1.311   1.224   1.414   1.224   1.311   1.189   1.180   1.203
   0.749   1.031   0.940   1.053   0.968   0.775   0.769   1.174   0.878   0.592
   0.916   0.918
   0.561   1.108   1.040   0.466   0.925   0.847   1.264   0.755   1.133   0.941
   1.059   0.716   0.600   0.904   1.073   0.913   1.398   1.227   0.966   1.227
   1.398   0.913   1.073   0.904   0.600   0.716   1.059   0.941   1.133   0.755
   1.264   0.847   0.925   0.466   1.040   1.108   0.561   1.108   1.040   0.466
   0.925   0.847   1.264   0.755   1.133   0.941   1.059   0.716   0.600   0.904
   1.073   0.913   1.398   1.227   0.966   1.227   1.398   0.913   1.073   0.904
   0.600   0.716   1.059   0.941   1.133   0.755   1.264   0.847   0.925   0.466
   1.040   1.108
   0.723   1.475   0.780   0.645   0.868   1.299   1.274   0.610   0.909   0.454
   0.918   0.711   0.744   0.968   1.100   0.657   1.392   0.963   0.455   0.963
   1.392   0.657   1.100   0.968   0.744   0.711   0.918   0.454   0.909   0.610
   1.274   1.299   0.868   0.645   0.780   1.475   0.723   1.475   0.780   0.645
   0.868   1.299   1.274   0.610   0.909   0.454   0.918   0.711   0.744   0.968
   1.100   0.657   1.392   0.963   0.455   0.963   1.392   0.657   1.100   0.968
   0.744   0.711   0.918   0.454   0.909   0.610   1.274   1.299   0.868   0.645
   0.780   1.475
   0.953   1.012   0.773   0.824   0.695   1.204   0.881   0.527   0.661   0.880
   0.638   0.866   0.614   1.011   1.128   0.620   0.859   0.558   0.366   0.558
   0.859   0.620   1.128   1.011   0.614   0.866   0.638   0.880   0.661   0.527
   0.881   1.204   0.695   0.824   0.773   1.012   0.953   1.012   0.773   0.824
   0.695   1.204   0.881   0.527   0.661   0.880   0.638   0.866   0.614   1.011
   1.128   0.620   0.859   0.558   0.366   0.558   0.859   0.620   1.128   1.011
   0.614   0.866   0.638   0.880   0.661   0.527   0.881   1.204   0.695   0.824
   0.773   1.012
   0.647   0.683   0.861   0.997   0.694   1.262   1.466   0.881   0.552   0.928
   0.773   0.955   0.604   0.772   0.852   0.549   0.882   0.571   0.405   0.571
   0.882   0.549   0.852   0.772   0.604   0.955   0.773   0.928   0.552   0.881
   1.466   1.262   0.694   0.997   0.861   0.683   0.647   0.683   0.861   0.997
   0.694   1.262   1.466   0.881   0.552   0.928   0.773   0.955   0.604   0.772
   0.852   0.549   0.882   0.571   0.405   0.571   0.882   0.549   0.852   0.772
   0.604   0.955   0.773   0.928   0.552   0.881   1.466   1.262   0.694   0.997
   0.861   0.683
   0.632   0.667   0.811   0.869   0.988   1.304   1.276   1.017   0.680   0.481
   0.852   1.201   1.089   0.812   1.176   1.021   0.625   0.851   0.535   0.851
   0.625   1.021   1.176   0.812   1.089   1.201   0.852   0.481   0.680   1.017
   1.276   1.304   0.988   0.869   0.811   0.667   0.632   0.667   0.811   0.869
   0.988   1.304   1.276   1.017   0.680   0.481   0.852   1.201   1.089   0.812
   1.176   1.021   0.625   0.851   0.535   0.851   0.625   1.021   1.176   0.812
   1.089   1.201   0.852   0.481   0.680   1.017   1.276   1.304   0.988   0.869
   0.811   0.667
   0.662   0.618   0.830   0.622   0.818   0.709   1.284   1.144   1.071   0.805
   0.727   0.999   1.083   0.900   1.070   1.160   0.517   0.754   0.572   0.754
   0.517   1.160   1.070   0.900   1.083   0.999   0.727   0.805   1.071   1.144
   1.284   0.709   0.818   0.622   0.830   0.618   0.662   0.618   0.830   0.622
   0.818   0.709   1.284   1.144   1.071   0.805   0.727   0.999   1.083   0.900
   1.070   1.160   0.517   0.754   0.572   0.754   0.517   1.160   1.070   0.900
   1.083   0.999   0.727   0.805   1.071   1.144   1.284   0.709   0.818   0.622
   0.830   0.618
   0.907   0.488   0.741   0.850   0.479   0.834   1.535   1.334   1.171   0.898
   0.648   0.630   0.907   1.319   1.033   0.649   0.472   0.588   0.705   0.588
   0.472   0.649   1.033   1.319   0.907   0.630   0.648   0.898   1.171   1.334
   1.535   0.834   0.479   0.850   0.741   0.488   0.907   0.488   0.741   0.850
   0.479   0.834   1.535   1.334   1.171   0.898   0.648   0.630   0.907   1.319
   1.033   0.649   0.472   0.588   0.705   0.588   0.472   0.649   1.033   1.319
   0.907   0.630   0.648   0.898   1.171   1.334   1.535   0.834   0.479   0.850
   0.741   0.488
   1.289   0.732   0.722   1.136   0.652   0.903   1.105   1.190   1.144   0.949
   0.861   0.782   0.578   1.457   1.182   0.716   0.676   0.639   0.991   0.639
   0.676   0.716   1.182   1.457   0.578   0.782   0.861   0.949   1.144   1.190
   1.105   0.903   0.652   1.136   0.722   0.732   1.289   0.732   0.722   1.136
   0.652   0.903   1.105   1.190   1.144   0.949   0.861   0.782   0.578   1.457
   1.182   0.716   0.676   0.639   0.991   0.639   0.676   0.716   1.182   1.457
   0.578   0.782   0.861   0.949   1.144   1.190   1.105   0.903   0.652   1.136
   0.722   0.732
 111       5.00   72    0 5.00   15    0
   1.964   1.964   1.964   1.964   1.964   1.964   1.964   1.964   1.964   1.964
   1.964   1.964   1.964   1.964   1.964   1.964   1.964   1.964   1.964   1.964
   1.964   1.964   1.964   1.964   1.964   1.964   1.964   1.964   1.964   1.964
   1.964   1.964   1.964   1.964   1.964   1.964   1.964   1.964   1.964   1.964
   1.964   1.964   1.964   1.964   1.964   1.964   1.964   1.964   1.964   1.964
   1.964   1.964   1.964   1.964   1.964   1.964   1.964   1.964   1.964   1.964
   1.964   1.964   1.964   1.964   1.964   1.964   1.964   1.964   1.964   1.964
   1.964   1.964
   1.130   1.310   1.062   1.408   1.856   0.970   1.100   1.229   1.456   1.216
   1.209   1.141   1.614   1.441   1.889   1.474   1.260   1.409   1.841   1.409
   1.260   1.474   1.889   1.441   1.614   1.141   1.209   1.216   1.456   1.229
   1.100   0.970   1.856   1.408   1.062   1.310   1.130   1.310   1.062   1.408
   1.856   0.970   1.100   1.229   1.456   1.216   1.209   1.141   1.614   1.441
   1.889   1.474   1.260   1.409   1.841   1.409   1.260   1.474   1.889   1.441
   1.614   1.141   1.209   1.216   1.456   1.229   1.100   0.970   1.856   1.408
   1.062   1.310
   0.943   1.253   0.916   1.204   0.950   1.040   1.024   1.240   1.414   1.071
   1.135   1.449   1.359   1.581   1.828   1.410   1.788   1.317   1.837   1.317
   1.788   1.410   1.828   1.581   1.359   1.449   1.135   1.071   1.414   1.240
   1.024   1.040   0.950   1.204   0.916   1.253   0.943   1.253   0.916   1.204
   0.950   1.040   1.024   1.240   1.414   1.071   1.135   1.449   1.359   1.581
   1.828   1.410   1.788   1.317   1.837   1.317   1.788   1.410   1.828   1.581
   1.359   1.449   1.135   1.071   1.414   1.240   1.024   1.040   0.950   1.204
   0.916   1.253
   0.677   1.026   0.631   0.814   0.796   0.922   1.022   1.522   1.034   0.955
   0.859   1.348   1.261   1.444   1.178   1.365   1.494   1.498   1.092   1.498
   1.494   1.365   1.178   1.444   1.261   1.348   0.859   0.955   1.034   1.522
   1.022   0.922   0.796   0.814   0.631   1.026   0.677   1.026   0.631   0.814
   0.796   0.922   1.022   1.522   1.034   0.955   0.859   1.348   1.261   1.444
   1.178   1.365   1.494   1.498   1.092   1.498   1.494   1.365   1.178   1.444
   1.261   1.348   0.859   0.955   1.034   1.522   1.022   0.922   0.796   0.814
   0.631   1.026
   0.841   1.029   0.771   0.818   0.674   0.488   0.694   1.152   1.198   0.935
   0.833   1.040   1.039   0.987   1.113   1.598   1.159   1.835   1.216   1.835
   1.159   1.598   1.113   0.987   1.039   1.040   0.833   0.935   1.198   1.152
   0.694   0.488   0.674   0.818   0.771   1.029   0.841   1.029   0.771   0.818
   0.674   0.488   0.694   1.152   1.198   0.935   0.833   1.040   1.039   0.987
   1.113   1.598   1.159   1.835   1.216   1.835   1.159   1.598   1.113   0.987
   1.039   1.040   0.833   0.935   1.198   1.152   0.694   0.488   0.674   0.818
   0.771   1.029
   0.839   1.048   0.696   0.790   0.577   0.617   0.822   0.721   1.066   0.935
   0.793   1.155   0.909   1.014   1.098   1.390   1.077   1.497   1.143   1.497
   1.077   1.390   1.098   1.014   0.909   1.155   0.793   0.935   1.066   0.721
   0.822   0.617   0.577   0.790   0.696   1.048   0.839   1.048   0.696   0.790
   0.577   0.617   0.822   0.721   1.066   0.935   0.793   1.155   0.909   1.014
   1.098   1.390   1.077   1.497   1.143   1.497   1.077   1.390   1.098   1.014
   0.909   1.155   0.793   0.935   1.066   0.721   0.822   0.617   0.577   0.790
   0.696   1.048
   1.060   0.847   0.727   0.789   0.738   0.696   0.895   0.859   0.539   0.811
   0.632   0.964   1.004   0.994   1.326   1.171   1.110   1.280   0.850   1.280
   1.110   1.171   1.326   0.994   1.004   0.964   0.632   0.811   0.539   0.859
   0.895   0.696   0.738   0.789   0.727   0.847   1.060   0.847   0.727   0.789
   0.738   0.696   0.895   0.859   0.539   0.811   0.632   0.964   1.004   0.994
   1.326   1.171   1.110   1.280   0.850   1.280   1.110   1.171   1.326   0.994
   1.004   0.964   0.632   0.811   0.539   0.859   0.895   0.696   0.738   0.789
   0.727   0.847
   1.147   0.823   1.013   0.766   0.834   0.741   0.649   0.947   0.501   0.924
   0.763   0.801   1.080   0.869   1.528   1.194   1.082   1.247   0.807   1.247
   1.082   1.194   1.528   0.869   1.080   0.801   0.763   0.924   0.501   0.947
   0.649   0.741   0.834   0.766   1.013   0.823   1.147   0.823   1.013   0.766
   0.834   0.741   0.649   0.947   0.501   0.924   0.763   0.801   1.080   0.869
   1.528   1.194   1.082   1.247   0.807   1.247   1.082   1.194   1.528   0.869
   1.080   0.801   0.763   0.924   0.501   0.947   0.649   0.741   0.834   0.766
   1.013   0.823
   0.720   0.910   1.040   0.763   0.906   0.919   0.902   0.955   0.599   1.204
   0.916   1.007   0.945   0.980   1.083   1.378   1.060   1.143   1.263   1.143
   1.060   1.378   1.083   0.980   0.945   1.007   0.916   1.204   0.599   0.955
   0.902   0.919   0.906   0.763   1.040   0.910   0.720   0.910   1.040   0.763
   0.906   0.919   0.902   0.955   0.599   1.204   0.916   1.007   0.945   0.980
   1.083   1.378   1.060   1.143   1.263   1.143   1.060   1.378   1.083   0.980
   0.945   1.007   0.916   1.204   0.599   0.955   0.902   0.919   0.906   0.763
   1.040   0.910
   1.177   1.416   0.982   1.085   1.079   1.049   1.042   0.955   1.012   1.130
   0.914   0.883   0.832   0.999   1.077   1.311   1.194   1.257   1.781   1.257
   1.194   1.311   1.077   0.999   0.832   0.883   0.914   1.130   1.012   0.955
   1.042   1.049   1.079   1.085   0.982   1.416   1.177   1.416   0.982   1.085
   1.079   1.049   1.042   0.955   1.012   1.130   0.914   0.883   0.832   0.999
   1.077   1.311   1.194   1.257   1.781   1.257   1.194   1.311   1.077   0.999
   0.832   0.883   0.914   1.130   1.012   0.955   1.042   1.049   1.079   1.085
   0.982   1.416
   1.801   1.754   1.081   1.485   1.257   1.044   0.752   0.968   1.043   0.973
   0.946   0.886   0.972   0.852   1.126   1.113   1.082   1.573   1.556   1.573
   1.082   1.113   1.126   0.852   0.972   0.886   0.946   0.973   1.043   0.968
   0.752   1.044   1.257   1.485   1.081   1.754   1.801   1.754   1.081   1.485
   1.257   1.044   0.752   0.968   1.043   0.973   0.946   0.886   0.972   0.852
   1.126   1.113   1.082   1.573   1.556   1.573   1.082   1.113   1.126   0.852
   0.972   0.886   0.946   0.973   1.043   0.968   0.752   1.044   1.257   1.485
   1.081   1.754
   1.629   1.405   1.373   1.539   1.225   1.080   0.812   0.909   0.835   0.911
   1.162   1.105   1.129   0.695   0.985   0.997   1.267   1.491   1.470   1.491
   1.267   0.997   0.985   0.695   1.129   1.105   1.162   0.911   0.835   0.909
   0.812   1.080   1.225   1.539   1.373   1.405   1.629   1.405   1.373   1.539
   1.225   1.080   0.812   0.909   0.835   0.911   1.162   1.105   1.129   0.695
   0.985   0.997   1.267   1.491   1.470   1.491   1.267   0.997   0.985   0.695
   1.129   1.105   1.162   0.911   0.835   0.909   0.812   1.080   1.225   1.539
   1.373   1.405
   1.413   1.074   1.170   1.417   1.100   1.523   0.917   0.792   0.969   0.747
   1.062   1.115   0.971   0.585   0.872   0.891   1.360   1.326   1.690   1.326
   1.360   0.891   0.872   0.585   0.971   1.115   1.062   0.747   0.969   0.792
   0.917   1.523   1.100   1.417   1.170   1.074   1.413   1.074   1.170   1.417
   1.100   1.523   0.917   0.792   0.969   0.747   1.062   1.115   0.971   0.585
   0.872   0.891   1.360   1.326   1.690   1.326   1.360   0.891   0.872   0.585
   0.971   1.115   1.062   0.747   0.969   0.792   0.917   1.523   1.100   1.417
   1.170   1.074
   1.155   1.113   1.121   1.468   1.490   1.675   1.068   0.916   1.161   0.635
   0.862   0.836   0.801   0.811   0.966   0.770   1.293   1.345   1.768   1.345
   1.293   0.770   0.966   0.811   0.801   0.836   0.862   0.635   1.161   0.916
   1.068   1.675   1.490   1.468   1.121   1.113   1.155   1.113   1.121   1.468
   1.490   1.675   1.068   0.916   1.161   0.635   0.862   0.836   0.801   0.811
   0.966   0.770   1.293   1.345   1.768   1.345   1.293   0.770   0.966   0.811
   0.801   0.836   0.862   0.635   1.161   0.916   1.068   1.675   1.490   1.468
   1.121   1.113
   0.810   1.230   1.126   1.123   1.480   1.439   1.144   1.087   1.194   0.719
   0.962   0.641   0.985   0.879   1.056   0.679   1.097   1.681   1.460   1.681
   1.097   0.679   1.056   0.879   0.985   0.641   0.962   0.719   1.194   1.087
   1.144   1.439   1.480   1.123   1.126   1.230   0.810   1.230   1.126   1.123
   1.480   1.439   1.144   1.087   1.194   0.719   0.962   0.641   0.985   0.879
   1.056   0.679   1.097   1.681   1.460   1.681   1.097   0.679   1.056   0.879
   0.985   0.641   0.962   0.719   1.194   1.087   1.144   1.439   1.480   1.123
   1.126   1.230
  4  1      5.4642722E-01
  4  2      2.8339505E-02
  4  3     -4.5126943E-01
  6  1     -6.4442665E-01
  6  2      5.5263121E-01
  6  3     -4.7696934E-01
  6  4      3.4546382E-01
  8  1      2.3045901E-01
  8  2     -9.5760475E-02
  8  3      3.1477406E-02
  8  4     -6.0304370E-02
  8  5     -2.2317119E-01
 10  1      1.1360334E-01
 10  2     -6.3005321E-02
 10  3     -4.4114479E-02
 10  4      1.9615682E-01
 10  5      2.9883417E-01
 10  6     -6.9950335E-01
 12  1      8.5584544E-02  2.2448152E-02
 12  2      3.8453113E-01 -2.7727627E-01
 12  3     -1.9143312E-01  1.1972637E-01
 12  4      3.1593550E-02 -2.4188431E-01
 12  5     -1.7205051E-01  4.9832716E-02
 12  6      1.8875811E-01 -2.7589282E-02
 12  7      2.8209871E-01 -4.4802244E-02
 14  1      1.0638868E-03
 14  2      1.5355212E-01
 14  3     -6.2009232E-02
 14  4     -2.7805997E-02
 14  5     -5.4245755E-02
 14  6      8.7264010E-02
 14  7     -1.7783469E-01
 14  8      4.2815760E-01
 220       5.00   72    0 5.00   18    0
   0.604   0.604   0.604   0.605   0.606   0.606   0.607   0.608   0.610   0.611
   0.612   0.613   0.614   0.615   0.616   0.617   0.617   0.618   0.618   0.618
   0.617   0.617   0.616   0.615   0.614   0.613   0.612   0.611   0.610   0.608
   0.607   0.606   0.606   0.605   0.604   0.604   0.604   0.604   0.604   0.605
   0.606   0.606   0.607   0.608   0.610   0.611   0.612   0.613   0.614   0.615
   0.616   0.617   0.617   0.618   0.618   0.618   0.617   0.617   0.616   0.615
   0.614   0.613   0.612   0.611   0.610   0.608   0.607   0.606   0.606   0.605
   0.604   0.604
   0.612   0.613   0.615   0.618   0.622   0.628   0.634   0.641   0.649   0.657
   0.665   0.673   0.681   0.689   0.695   0.700   0.704   0.707   0.708   0.707
   0.704   0.700   0.695   0.689   0.681   0.673   0.665   0.657   0.649   0.641
   0.634   0.628   0.622   0.618   0.615   0.613   0.612   0.613   0.615   0.618
   0.622   0.628   0.634   0.641   0.649   0.657   0.665   0.673   0.681   0.689
   0.695   0.700   0.704   0.707   0.708   0.707   0.704   0.700   0.695   0.689
   0.681   0.673   0.665   0.657   0.649   0.641   0.634   0.628   0.622   0.618
   0.615   0.613
   0.683   0.683   0.685   0.688   0.693   0.698   0.705   0.713   0.723   0.734
   0.746   0.759   0.772   0.785   0.798   0.808   0.817   0.822   0.824   0.822
   0.817   0.808   0.798   0.785   0.772   0.759   0.746   0.734   0.723   0.713
   0.705   0.698   0.693   0.688   0.685   0.683   0.683   0.683   0.685   0.688
   0.693   0.698   0.705   0.713   0.723   0.734   0.746   0.759   0.772   0.785
   0.798   0.808   0.817   0.822   0.824   0.822   0.817   0.808   0.798   0.785
   0.772   0.759   0.746   0.734   0.723   0.713   0.705   0.698   0.693   0.688
   0.685   0.683
   0.859   0.858   0.857   0.854   0.850   0.845   0.840   0.833   0.828   0.825
   0.824   0.828   0.835   0.845   0.857   0.870   0.881   0.888   0.891   0.888
   0.881   0.870   0.857   0.845   0.835   0.828   0.824   0.825   0.828   0.833
   0.840   0.845   0.850   0.854   0.857   0.858   0.859   0.858   0.857   0.854
   0.850   0.845   0.840   0.833   0.828   0.825   0.824   0.828   0.835   0.845
   0.857   0.870   0.881   0.888   0.891   0.888   0.881   0.870   0.857   0.845
   0.835   0.828   0.824   0.825   0.828   0.833   0.840   0.845   0.850   0.854
   0.857   0.858
   1.105   1.104   1.100   1.091   1.077   1.057   1.030   0.997   0.961   0.925
   0.894   0.869   0.855   0.850   0.854   0.864   0.875   0.883   0.886   0.883
   0.875   0.864   0.854   0.850   0.855   0.869   0.894   0.925   0.961   0.997
   1.030   1.057   1.077   1.091   1.100   1.104   1.105   1.104   1.100   1.091
   1.077   1.057   1.030   0.997   0.961   0.925   0.894   0.869   0.855   0.850
   0.854   0.864   0.875   0.883   0.886   0.883   0.875   0.864   0.854   0.850
   0.855   0.869   0.894   0.925   0.961   0.997   1.030   1.057   1.077   1.091
   1.100   1.104
   1.306   1.306   1.306   1.302   1.290   1.267   1.229   1.176   1.112   1.041
   0.972   0.913   0.868   0.842   0.832   0.835   0.844   0.853   0.856   0.853
   0.844   0.835   0.832   0.842   0.868   0.913   0.972   1.041   1.112   1.176
   1.229   1.267   1.290   1.302   1.306   1.306   1.306   1.306   1.306   1.302
   1.290   1.267   1.229   1.176   1.112   1.041   0.972   0.913   0.868   0.842
   0.832   0.835   0.844   0.853   0.856   0.853   0.844   0.835   0.832   0.842
   0.868   0.913   0.972   1.041   1.112   1.176   1.229   1.267   1.290   1.302
   1.306   1.306
   1.342   1.347   1.360   1.375   1.386   1.384   1.364   1.320   1.254   1.171
   1.082   0.998   0.929   0.882   0.858   0.853   0.858   0.866   0.869   0.866
   0.858   0.853   0.858   0.882   0.929   0.998   1.082   1.171   1.254   1.320
   1.364   1.384   1.386   1.375   1.360   1.347   1.342   1.347   1.360   1.375
   1.386   1.384   1.364   1.320   1.254   1.171   1.082   0.998   0.929   0.882
   0.858   0.853   0.858   0.866   0.869   0.866   0.858   0.853   0.858   0.882
   0.929   0.998   1.082   1.171   1.254   1.320   1.364   1.384   1.386   1.375
   1.360   1.347
   1.200   1.209   1.236   1.275   1.318   1.355   1.377   1.376   1.346   1.289
   1.211   1.126   1.050   0.991   0.956   0.942   0.940   0.943   0.944   0.943
   0.940   0.942   0.956   0.991   1.050   1.126   1.211   1.289   1.346   1.376
   1.377   1.355   1.318   1.275   1.236   1.209   1.200   1.209   1.236   1.275
   1.318   1.355   1.377   1.376   1.346   1.289   1.211   1.126   1.050   0.991
   0.956   0.942   0.940   0.943   0.944   0.943   0.940   0.942   0.956   0.991
   1.050   1.126   1.211   1.289   1.346   1.376   1.377   1.355   1.318   1.275
   1.236   1.209
   0.985   0.996   1.027   1.074   1.134   1.201   1.267   1.321   1.351   1.347
   1.309   1.247   1.178   1.118   1.075   1.049   1.036   1.029   1.027   1.029
   1.036   1.049   1.075   1.118   1.178   1.247   1.309   1.347   1.351   1.321
   1.267   1.201   1.134   1.074   1.027   0.996   0.985   0.996   1.027   1.074
   1.134   1.201   1.267   1.321   1.351   1.347   1.309   1.247   1.178   1.118
   1.075   1.049   1.036   1.029   1.027   1.029   1.036   1.049   1.075   1.118
   1.178   1.247   1.309   1.347   1.351   1.321   1.267   1.201   1.134   1.074
   1.027   0.996
   0.840   0.847   0.869   0.902   0.948   1.009   1.088   1.178   1.260   1.312
   1.320   1.288   1.233   1.177   1.130   1.095   1.067   1.048   1.040   1.048
   1.067   1.095   1.130   1.177   1.233   1.288   1.320   1.312   1.260   1.178
   1.088   1.009   0.948   0.902   0.869   0.847   0.840   0.847   0.869   0.902
   0.948   1.009   1.088   1.178   1.260   1.312   1.320   1.288   1.233   1.177
   1.130   1.095   1.067   1.048   1.040   1.048   1.067   1.095   1.130   1.177
   1.233   1.288   1.320   1.312   1.260   1.178   1.088   1.009   0.948   0.902
   0.869   0.847
   0.809   0.814   0.825   0.836   0.846   0.867   0.916   1.001   1.105   1.193
   1.235   1.225   1.182   1.132   1.089   1.050   1.009   0.975   0.961   0.975
   1.009   1.050   1.089   1.132   1.182   1.225   1.235   1.193   1.105   1.001
   0.916   0.867   0.846   0.836   0.825   0.814   0.809   0.814   0.825   0.836
   0.846   0.867   0.916   1.001   1.105   1.193   1.235   1.225   1.182   1.132
   1.089   1.050   1.009   0.975   0.961   0.975   1.009   1.050   1.089   1.132
   1.182   1.225   1.235   1.193   1.105   1.001   0.916   0.867   0.846   0.836
   0.825   0.814
   0.814   0.824   0.844   0.852   0.835   0.807   0.802   0.850   0.945   1.046
   1.106   1.107   1.071   1.033   1.004   0.971   0.923   0.873   0.851   0.873
   0.923   0.971   1.004   1.033   1.071   1.107   1.106   1.046   0.945   0.850
   0.802   0.807   0.835   0.852   0.844   0.824   0.814   0.824   0.844   0.852
   0.835   0.807   0.802   0.850   0.945   1.046   1.106   1.107   1.071   1.033
   1.004   0.971   0.923   0.873   0.851   0.873   0.923   0.971   1.004   1.033
   1.071   1.107   1.106   1.046   0.945   0.850   0.802   0.807   0.835   0.852
   0.844   0.824
   0.765   0.787   0.837   0.873   0.863   0.808   0.754   0.757   0.832   0.937
   1.008   1.017   0.990   0.970   0.967   0.951   0.898   0.830   0.798   0.830
   0.898   0.951   0.967   0.970   0.990   1.017   1.008   0.937   0.832   0.757
   0.754   0.808   0.863   0.873   0.837   0.787   0.765   0.787   0.837   0.873
   0.863   0.808   0.754   0.757   0.832   0.937   1.008   1.017   0.990   0.970
   0.967   0.951   0.898   0.830   0.798   0.830   0.898   0.951   0.967   0.970
   0.990   1.017   1.008   0.937   0.832   0.757   0.754   0.808   0.863   0.873
   0.837   0.787
   0.688   0.720   0.798   0.872   0.889   0.835   0.755   0.724   0.783   0.894
   0.980   0.999   0.983   0.987   1.019   1.025   0.967   0.875   0.830   0.875
   0.967   1.025   1.019   0.987   0.983   0.999   0.980   0.894   0.783   0.724
   0.755   0.835   0.889   0.872   0.798   0.720   0.688   0.720   0.798   0.872
   0.889   0.835   0.755   0.724   0.783   0.894   0.980   0.999   0.983   0.987
   1.019   1.025   0.967   0.875   0.830   0.875   0.967   1.025   1.019   0.987
   0.983   0.999   0.980   0.894   0.783   0.724   0.755   0.835   0.889   0.872
   0.798   0.720
   0.733   0.758   0.826   0.902   0.931   0.881   0.785   0.730   0.777   0.896
   0.996   1.025   1.019   1.047   1.112   1.138   1.068   0.947   0.887   0.947
   1.068   1.138   1.112   1.047   1.019   1.025   0.996   0.896   0.777   0.730
   0.785   0.881   0.931   0.902   0.826   0.758   0.733   0.758   0.826   0.902
   0.931   0.881   0.785   0.730   0.777   0.896   0.996   1.025   1.019   1.047
   1.112   1.138   1.068   0.947   0.887   0.947   1.068   1.138   1.112   1.047
   1.019   1.025   0.996   0.896   0.777   0.730   0.785   0.881   0.931   0.902
   0.826   0.758
   1.015   1.012   1.014   1.029   1.024   0.955   0.836   0.754   0.783   0.900
   1.006   1.036   1.032   1.075   1.164   1.203   1.117   0.963   0.886   0.963
   1.117   1.203   1.164   1.075   1.032   1.036   1.006   0.900   0.783   0.754
   0.836   0.955   1.024   1.029   1.014   1.012   1.015   1.012   1.014   1.029
   1.024   0.955   0.836   0.754   0.783   0.900   1.006   1.036   1.032   1.075
   1.164   1.203   1.117   0.963   0.886   0.963   1.117   1.203   1.164   1.075
   1.032   1.036   1.006   0.900   0.783   0.754   0.836   0.955   1.024   1.029
   1.014   1.012
   1.454   1.410   1.316   1.230   1.155   1.044   0.893   0.778   0.782   0.887
   0.986   1.008   0.998   1.044   1.146   1.190   1.087   0.905   0.814   0.905
   1.087   1.190   1.146   1.044   0.998   1.008   0.986   0.887   0.782   0.778
   0.893   1.044   1.155   1.230   1.316   1.410   1.454   1.410   1.316   1.230
   1.155   1.044   0.893   0.778   0.782   0.887   0.986   1.008   0.998   1.044
   1.146   1.190   1.087   0.905   0.814   0.905   1.087   1.190   1.146   1.044
   0.998   1.008   0.986   0.887   0.782   0.778   0.893   1.044   1.155   1.230
   1.316   1.410
   1.788   1.716   1.551   1.388   1.256   1.109   0.932   0.793   0.777   0.869
   0.960   0.973   0.954   1.000   1.106   1.151   1.038   0.839   0.740   0.839
   1.038   1.151   1.106   1.000   0.954   0.973   0.960   0.869   0.777   0.793
   0.932   1.109   1.256   1.388   1.551   1.716   1.788   1.716   1.551   1.388
   1.256   1.109   0.932   0.793   0.777   0.869   0.960   0.973   0.954   1.000
   1.106   1.151   1.038   0.839   0.740   0.839   1.038   1.151   1.106   1.000
   0.954   0.973   0.960   0.869   0.777   0.793   0.932   1.109   1.256   1.388
   1.551   1.716
 200       5.00   72    0 5.00   18    0
   1.810   1.810   1.810   1.810   1.810   1.810   1.810   1.809   1.809   1.809
   1.808   1.808   1.808   1.808   1.807   1.807   1.807   1.807   1.807   1.807
   1.807   1.807   1.807   1.808   1.808   1.808   1.808   1.809   1.809   1.809
   1.810   1.810   1.810   1.810   1.810   1.810   1.810   1.810   1.810   1.810
   1.810   1.810   1.810   1.809   1.809   1.809   1.808   1.808   1.808   1.808
   1.807   1.807   1.807   1.807   1.807   1.807   1.807   1.807   1.807   1.808
   1.808   1.808   1.808   1.809   1.809   1.809   1.810   1.810   1.810   1.810
   1.810   1.810
   1.699   1.699   1.698   1.698   1.697   1.696   1.694   1.693   1.691   1.689
   1.687   1.685   1.683   1.682   1.680   1.679   1.678   1.677   1.677   1.677
   1.678   1.679   1.680   1.682   1.683   1.685   1.687   1.689   1.691   1.693
   1.694   1.696   1.697   1.698   1.698   1.699   1.699   1.699   1.698   1.698
   1.697   1.696   1.694   1.693   1.691   1.689   1.687   1.685   1.683   1.682
   1.680   1.679   1.678   1.677   1.677   1.677   1.678   1.679   1.680   1.682
   1.683   1.685   1.687   1.689   1.691   1.693   1.694   1.696   1.697   1.698
   1.698   1.699
   1.495   1.495   1.495   1.496   1.496   1.496   1.496   1.496   1.495   1.494
   1.492   1.489   1.487   1.484   1.482   1.480   1.479   1.478   1.477   1.478
   1.479   1.480   1.482   1.484   1.487   1.489   1.492   1.494   1.495   1.496
   1.496   1.496   1.496   1.496   1.495   1.495   1.495   1.495   1.495   1.496
   1.496   1.496   1.496   1.496   1.495   1.494   1.492   1.489   1.487   1.484
   1.482   1.480   1.479   1.478   1.477   1.478   1.479   1.480   1.482   1.484
   1.487   1.489   1.492   1.494   1.495   1.496   1.496   1.496   1.496   1.496
   1.495   1.495
   1.228   1.229   1.233   1.239   1.247   1.255   1.263   1.270   1.277   1.282
   1.285   1.288   1.290   1.291   1.292   1.293   1.293   1.293   1.293   1.293
   1.293   1.293   1.292   1.291   1.290   1.288   1.285   1.282   1.277   1.270
   1.263   1.255   1.247   1.239   1.233   1.229   1.228   1.229   1.233   1.239
   1.247   1.255   1.263   1.270   1.277   1.282   1.285   1.288   1.290   1.291
   1.292   1.293   1.293   1.293   1.293   1.293   1.293   1.293   1.292   1.291
   1.290   1.288   1.285   1.282   1.277   1.270   1.263   1.255   1.247   1.239
   1.233   1.229
   0.944   0.947   0.959   0.975   0.996   1.018   1.040   1.060   1.078   1.095
   1.109   1.123   1.136   1.148   1.160   1.169   1.177   1.182   1.183   1.182
   1.177   1.169   1.160   1.148   1.136   1.123   1.109   1.095   1.078   1.060
   1.040   1.018   0.996   0.975   0.959   0.947   0.944   0.947   0.959   0.975
   0.996   1.018   1.040   1.060   1.078   1.095   1.109   1.123   1.136   1.148
   1.160   1.169   1.177   1.182   1.183   1.182   1.177   1.169   1.160   1.148
   1.136   1.123   1.109   1.095   1.078   1.060   1.040   1.018   0.996   0.975
   0.959   0.947
   0.711   0.719   0.738   0.768   0.802   0.836   0.867   0.894   0.919   0.942
   0.965   0.991   1.019   1.048   1.077   1.102   1.122   1.135   1.140   1.135
   1.122   1.102   1.077   1.048   1.019   0.991   0.965   0.942   0.919   0.894
   0.867   0.836   0.802   0.768   0.738   0.719   0.711   0.719   0.738   0.768
   0.802   0.836   0.867   0.894   0.919   0.942   0.965   0.991   1.019   1.048
   1.077   1.102   1.122   1.135   1.140   1.135   1.122   1.102   1.077   1.048
   1.019   0.991   0.965   0.942   0.919   0.894   0.867   0.836   0.802   0.768
   0.738   0.719
   0.606   0.617   0.644   0.683   0.723   0.757   0.780   0.794   0.803   0.815
   0.835   0.865   0.906   0.952   0.998   1.040   1.073   1.095   1.102   1.095
   1.073   1.040   0.998   0.952   0.906   0.865   0.835   0.815   0.803   0.794
   0.780   0.757   0.723   0.683   0.644   0.617   0.606   0.617   0.644   0.683
   0.723   0.757   0.780   0.794   0.803   0.815   0.835   0.865   0.906   0.952
   0.998   1.040   1.073   1.095   1.102   1.095   1.073   1.040   0.998   0.952
   0.906   0.865   0.835   0.815   0.803   0.794   0.780   0.757   0.723   0.683
   0.644   0.617
   0.655   0.668   0.702   0.745   0.783   0.801   0.796   0.771   0.739   0.716
   0.716   0.741   0.787   0.843   0.899   0.947   0.984   1.007   1.014   1.007
   0.984   0.947   0.899   0.843   0.787   0.741   0.716   0.716   0.739   0.771
   0.796   0.801   0.783   0.745   0.702   0.668   0.655   0.668   0.702   0.745
   0.783   0.801   0.796   0.771   0.739   0.716   0.716   0.741   0.787   0.843
   0.899   0.947   0.984   1.007   1.014   1.007   0.984   0.947   0.899   0.843
   0.787   0.741   0.716   0.716   0.739   0.771   0.796   0.801   0.783   0.745
   0.702   0.668
   0.796   0.811   0.849   0.897   0.932   0.935   0.896   0.822   0.735   0.668
   0.640   0.658   0.706   0.763   0.813   0.847   0.867   0.877   0.880   0.877
   0.867   0.847   0.813   0.763   0.706   0.658   0.640   0.668   0.735   0.822
   0.896   0.935   0.932   0.897   0.849   0.811   0.796   0.811   0.849   0.897
   0.932   0.935   0.896   0.822   0.735   0.668   0.640   0.658   0.706   0.763
   0.813   0.847   0.867   0.877   0.880   0.877   0.867   0.847   0.813   0.763
   0.706   0.658   0.640   0.668   0.735   0.822   0.896   0.935   0.932   0.897
   0.849   0.811
   0.911   0.926   0.967   1.023   1.068   1.077   1.027   0.922   0.794   0.690
   0.646   0.665   0.722   0.777   0.804   0.801   0.782   0.764   0.757   0.764
   0.782   0.801   0.804   0.777   0.722   0.665   0.646   0.690   0.794   0.922
   1.027   1.077   1.068   1.023   0.967   0.926   0.911   0.926   0.967   1.023
   1.068   1.077   1.027   0.922   0.794   0.690   0.646   0.665   0.722   0.777
   0.804   0.801   0.782   0.764   0.757   0.764   0.782   0.801   0.804   0.777
   0.722   0.665   0.646   0.690   0.794   0.922   1.027   1.077   1.068   1.023
   0.967   0.926
   0.927   0.937   0.972   1.032   1.102   1.149   1.132   1.037   0.896   0.773
   0.726   0.763   0.841   0.896   0.894   0.841   0.773   0.721   0.702   0.721
   0.773   0.841   0.894   0.896   0.841   0.763   0.726   0.773   0.896   1.037
   1.132   1.149   1.102   1.032   0.972   0.937   0.927   0.937   0.972   1.032
   1.102   1.149   1.132   1.037   0.896   0.773   0.726   0.763   0.841   0.896
   0.894   0.841   0.773   0.721   0.702   0.721   0.773   0.841   0.894   0.896
   0.841   0.763   0.726   0.773   0.896   1.037   1.132   1.149   1.102   1.032
   0.972   0.937
   0.878   0.876   0.886   0.935   1.030   1.137   1.189   1.140   1.008   0.874
   0.824   0.882   0.987   1.050   1.022   0.924   0.814   0.738   0.712   0.738
   0.814   0.924   1.022   1.050   0.987   0.882   0.824   0.874   1.008   1.140
   1.189   1.137   1.030   0.935   0.886   0.876   0.878   0.876   0.886   0.935
   1.030   1.137   1.189   1.140   1.008   0.874   0.824   0.882   0.987   1.050
   1.022   0.924   0.814   0.738   0.712   0.738   0.814   0.924   1.022   1.050
   0.987   0.882   0.824   0.874   1.008   1.140   1.189   1.137   1.030   0.935
   0.886   0.876
   0.858   0.839   0.808   0.824   0.927   1.089   1.221   1.229   1.106   0.947
   0.877   0.941   1.070   1.143   1.097   0.968   0.839   0.762   0.739   0.762
   0.839   0.968   1.097   1.143   1.070   0.941   0.877   0.947   1.106   1.229
   1.221   1.089   0.927   0.824   0.808   0.839   0.858   0.839   0.808   0.824
   0.927   1.089   1.221   1.229   1.106   0.947   0.877   0.941   1.070   1.143
   1.097   0.968   0.839   0.762   0.739   0.762   0.839   0.968   1.097   1.143
   1.070   0.941   0.877   0.947   1.106   1.229   1.221   1.089   0.927   0.824
   0.808   0.839
   0.904   0.871   0.804   0.782   0.872   1.067   1.260   1.317   1.193   0.991
   0.876   0.929   1.070   1.150   1.089   0.942   0.816   0.759   0.748   0.759
   0.816   0.942   1.089   1.150   1.070   0.929   0.876   0.991   1.193   1.317
   1.260   1.067   0.872   0.782   0.804   0.871   0.904   0.871   0.804   0.782
   0.872   1.067   1.260   1.317   1.193   0.991   0.876   0.929   1.070   1.150
   1.089   0.942   0.816   0.759   0.748   0.759   0.816   0.942   1.089   1.150
   1.070   0.929   0.876   0.991   1.193   1.317   1.260   1.067   0.872   0.782
   0.804   0.871
   0.945   0.914   0.845   0.809   0.885   1.090   1.321   1.413   1.287   1.043
   0.883   0.917   1.064   1.142   1.061   0.896   0.778   0.750   0.755   0.750
   0.778   0.896   1.061   1.142   1.064   0.917   0.883   1.043   1.287   1.413
   1.321   1.090   0.885   0.809   0.845   0.914   0.945   0.914   0.845   0.809
   0.885   1.090   1.321   1.413   1.287   1.043   0.883   0.917   1.064   1.142
   1.061   0.896   0.778   0.750   0.755   0.750   0.778   0.896   1.061   1.142
   1.064   0.917   0.883   1.043   1.287   1.413   1.321   1.090   0.885   0.809
   0.845   0.914
   0.881   0.871   0.848   0.842   0.924   1.133   1.388   1.514   1.400   1.140
   0.956   0.986   1.141   1.212   1.100   0.906   0.787   0.783   0.801   0.783
   0.787   0.906   1.100   1.212   1.141   0.986   0.956   1.140   1.400   1.514
   1.388   1.133   0.924   0.842   0.848   0.871   0.881   0.871   0.848   0.842
   0.924   1.133   1.388   1.514   1.400   1.140   0.956   0.986   1.141   1.212
   1.100   0.906   0.787   0.783   0.801   0.783   0.787   0.906   1.100   1.212
   1.141   0.986   0.956   1.140   1.400   1.514   1.388   1.133   0.924   0.842
   0.848   0.871
   0.712   0.736   0.784   0.840   0.947   1.164   1.439   1.598   1.514   1.266
   1.088   1.131   1.298   1.361   1.216   0.985   0.855   0.861   0.888   0.861
   0.855   0.985   1.216   1.361   1.298   1.131   1.088   1.266   1.514   1.598
   1.439   1.164   0.947   0.840   0.784   0.736   0.712   0.736   0.784   0.840
   0.947   1.164   1.439   1.598   1.514   1.266   1.088   1.131   1.298   1.361
   1.216   0.985   0.855   0.861   0.888   0.861   0.855   0.985   1.216   1.361
   1.298   1.131   1.088   1.266   1.514   1.598   1.439   1.164   0.947   0.840
   0.784   0.736
   0.563   0.611   0.714   0.819   0.950   1.176   1.463   1.647   1.589   1.359
   1.195   1.253   1.430   1.488   1.320   1.064   0.922   0.930   0.961   0.930
   0.922   1.064   1.320   1.488   1.430   1.253   1.195   1.359   1.589   1.647
   1.463   1.176   0.950   0.819   0.714   0.611   0.563   0.611   0.714   0.819
   0.950   1.176   1.463   1.647   1.589   1.359   1.195   1.253   1.430   1.488
   1.320   1.064   0.922   0.930   0.961   0.930   0.922   1.064   1.320   1.488
   1.430   1.253   1.195   1.359   1.589   1.647   1.463   1.176   0.950   0.819
   0.714   0.611
 111       5.00   72    0 5.00   18    0
   1.221   1.221   1.222   1.223   1.225   1.228   1.230   1.233   1.237   1.240
   1.243   1.246   1.249   1.252   1.255   1.257   1.258   1.259   1.259   1.259
   1.258   1.257   1.255   1.252   1.249   1.246   1.243   1.240   1.237   1.233
   1.230   1.228   1.225   1.223   1.222   1.221   1.221   1.221   1.222   1.223
   1.225   1.228   1.230   1.233   1.237   1.240   1.243   1.246   1.249   1.252
   1.255   1.257   1.258   1.259   1.259   1.259   1.258   1.257   1.255   1.252
   1.249   1.246   1.243   1.240   1.237   1.233   1.230   1.228   1.225   1.223
   1.222   1.221
   1.017   1.019   1.025   1.035   1.049   1.066   1.085   1.107   1.131   1.156
   1.182   1.206   1.230   1.252   1.270   1.286   1.297   1.304   1.306   1.304
   1.297   1.286   1.270   1.252   1.230   1.206   1.182   1.156   1.131   1.107
   1.085   1.066   1.049   1.035   1.025   1.019   1.017   1.019   1.025   1.035
   1.049   1.066   1.085   1.107   1.131   1.156   1.182   1.206   1.230   1.252
   1.270   1.286   1.297   1.304   1.306   1.304   1.297   1.286   1.270   1.252
   1.230   1.206   1.182   1.156   1.131   1.107   1.085   1.066   1.049   1.035
   1.025   1.019
   0.763   0.766   0.776   0.793   0.816   0.845   0.880   0.921   0.966   1.014
   1.064   1.114   1.163   1.209   1.250   1.284   1.309   1.325   1.330   1.325
   1.309   1.284   1.250   1.209   1.163   1.114   1.064   1.014   0.966   0.921
   0.880   0.845   0.816   0.793   0.776   0.766   0.763   0.766   0.776   0.793
   0.816   0.845   0.880   0.921   0.966   1.014   1.064   1.114   1.163   1.209
   1.250   1.284   1.309   1.325   1.330   1.325   1.309   1.284   1.250   1.209
   1.163   1.114   1.064   1.014   0.966   0.921   0.880   0.845   0.816   0.793
   0.776   0.766
   0.620   0.622   0.630   0.643   0.662   0.687   0.720   0.760   0.807   0.860
   0.918   0.980   1.042   1.103   1.158   1.206   1.242   1.265   1.273   1.265
   1.242   1.206   1.158   1.103   1.042   0.980   0.918   0.860   0.807   0.760
   0.720   0.687   0.662   0.643   0.630   0.622   0.620   0.622   0.630   0.643
   0.662   0.687   0.720   0.760   0.807   0.860   0.918   0.980   1.042   1.103
   1.158   1.206   1.242   1.265   1.273   1.265   1.242   1.206   1.158   1.103
   1.042   0.980   0.918   0.860   0.807   0.760   0.720   0.687   0.662   0.643
   0.630   0.622
   0.628   0.628   0.628   0.629   0.633   0.642   0.657   0.680   0.712   0.752
   0.799   0.854   0.912   0.973   1.032   1.084   1.127   1.154   1.163   1.154
   1.127   1.084   1.032   0.973   0.912   0.854   0.799   0.752   0.712   0.680
   0.657   0.642   0.633   0.629   0.628   0.628   0.628   0.628   0.628   0.629
   0.633   0.642   0.657   0.680   0.712   0.752   0.799   0.854   0.912   0.973
   1.032   1.084   1.127   1.154   1.163   1.154   1.127   1.084   1.032   0.973
   0.912   0.854   0.799   0.752   0.712   0.680   0.657   0.642   0.633   0.629
   0.628   0.628
   0.712   0.709   0.701   0.691   0.681   0.675   0.676   0.685   0.702   0.727
   0.759   0.797   0.843   0.896   0.951   1.006   1.053   1.085   1.096   1.085
   1.053   1.006   0.951   0.896   0.843   0.797   0.759   0.727   0.702   0.685
   0.676   0.675   0.681   0.691   0.701   0.709   0.712   0.709   0.701   0.691
   0.681   0.675   0.676   0.685   0.702   0.727   0.759   0.797   0.843   0.896
   0.951   1.006   1.053   1.085   1.096   1.085   1.053   1.006   0.951   0.896
   0.843   0.797   0.759   0.727   0.702   0.685   0.676   0.675   0.681   0.691
   0.701   0.709
   0.806   0.800   0.785   0.764   0.745   0.732   0.729   0.738   0.755   0.777
   0.803   0.832   0.866   0.910   0.963   1.023   1.080   1.122   1.137   1.122
   1.080   1.023   0.963   0.910   0.866   0.832   0.803   0.777   0.755   0.738
   0.729   0.732   0.745   0.764   0.785   0.800   0.806   0.800   0.785   0.764
   0.745   0.732   0.729   0.738   0.755   0.777   0.803   0.832   0.866   0.910
   0.963   1.023   1.080   1.122   1.137   1.122   1.080   1.023   0.963   0.910
   0.866   0.832   0.803   0.777   0.755   0.738   0.729   0.732   0.745   0.764
   0.785   0.800
   0.927   0.917   0.888   0.851   0.815   0.791   0.785   0.798   0.826   0.859
   0.890   0.917   0.944   0.980   1.034   1.105   1.180   1.239   1.261   1.239
   1.180   1.105   1.034   0.980   0.944   0.917   0.890   0.859   0.826   0.798
   0.785   0.791   0.815   0.851   0.888   0.917   0.927   0.917   0.888   0.851
   0.815   0.791   0.785   0.798   0.826   0.859   0.890   0.917   0.944   0.980
   1.034   1.105   1.180   1.239   1.261   1.239   1.180   1.105   1.034   0.980
   0.944   0.917   0.890   0.859   0.826   0.798   0.785   0.791   0.815   0.851
   0.888   0.917
   1.129   1.111   1.062   0.993   0.923   0.868   0.843   0.849   0.881   0.925
   0.965   0.992   1.009   1.035   1.086   1.169   1.269   1.353   1.386   1.353
   1.269   1.169   1.086   1.035   1.009   0.992   0.965   0.925   0.881   0.849
   0.843   0.868   0.923   0.993   1.062   1.111   1.129   1.111   1.062   0.993
   0.923   0.868   0.843   0.849   0.881   0.925   0.965   0.992   1.009   1.035
   1.086   1.169   1.269   1.353   1.386   1.353   1.269   1.169   1.086   1.035
   1.009   0.992   0.965   0.925   0.881   0.849   0.843   0.868   0.923   0.993
   1.062   1.111
   1.399   1.373   1.299   1.194   1.080   0.980   0.915   0.894   0.913   0.956
   0.998   1.022   1.027   1.033   1.072   1.164   1.292   1.407   1.453   1.407
   1.292   1.164   1.072   1.033   1.027   1.022   0.998   0.956   0.913   0.894
   0.915   0.980   1.080   1.194   1.299   1.373   1.399   1.373   1.299   1.194
   1.080   0.980   0.915   0.894   0.913   0.956   0.998   1.022   1.027   1.033
   1.072   1.164   1.292   1.407   1.453   1.407   1.292   1.164   1.072   1.033
   1.027   1.022   0.998   0.956   0.913   0.894   0.915   0.980   1.080   1.194
   1.299   1.373
   1.623   1.595   1.513   1.391   1.248   1.112   1.008   0.951   0.942   0.967
   1.001   1.017   1.004   0.985   1.006   1.103   1.261   1.412   1.475   1.412
   1.261   1.103   1.006   0.985   1.004   1.017   1.001   0.967   0.942   0.951
   1.008   1.112   1.248   1.391   1.513   1.595   1.623   1.595   1.513   1.391
   1.248   1.112   1.008   0.951   0.942   0.967   1.001   1.017   1.004   0.985
   1.006   1.103   1.261   1.412   1.475   1.412   1.261   1.103   1.006   0.985
   1.004   1.017   1.001   0.967   0.942   0.951   1.008   1.112   1.248   1.391
   1.513   1.595
   1.672   1.654   1.599   1.500   1.368   1.228   1.106   1.022   0.982   0.980
   0.995   0.999   0.970   0.928   0.929   1.031   1.223   1.418   1.501   1.418
   1.223   1.031   0.929   0.928   0.970   0.999   0.995   0.980   0.982   1.022
   1.106   1.228   1.368   1.500   1.599   1.654   1.672   1.654   1.599   1.500
   1.368   1.228   1.106   1.022   0.982   0.980   0.995   0.999   0.970   0.928
   0.929   1.031   1.223   1.418   1.501   1.418   1.223   1.031   0.929   0.928
   0.970   0.999   0.995   0.980   0.982   1.022   1.106   1.228   1.368   1.500
   1.599   1.654
   1.501   1.511   1.520   1.490   1.407   1.292   1.178   1.086   1.024   0.992
   0.984   0.976   0.939   0.881   0.867   0.973   1.202   1.445   1.549   1.445
   1.202   0.973   0.867   0.881   0.939   0.976   0.984   0.992   1.024   1.086
   1.178   1.292   1.407   1.490   1.520   1.511   1.501   1.511   1.520   1.490
   1.407   1.292   1.178   1.086   1.024   0.992   0.984   0.976   0.939   0.881
   0.867   0.973   1.202   1.445   1.549   1.445   1.202   0.973   0.867   0.881
   0.939   0.976   0.984   0.992   1.024   1.086   1.178   1.292   1.407   1.490
   1.520   1.511
   1.174   1.226   1.332   1.399   1.375   1.284   1.182   1.098   1.032   0.983
   0.957   0.944   0.910   0.846   0.818   0.923   1.178   1.461   1.586   1.461
   1.178   0.923   0.818   0.846   0.910   0.944   0.957   0.983   1.032   1.098
   1.182   1.284   1.375   1.399   1.332   1.226   1.174   1.226   1.332   1.399
   1.375   1.284   1.182   1.098   1.032   0.983   0.957   0.944   0.910   0.846
   0.818   0.923   1.178   1.461   1.586   1.461   1.178   0.923   0.818   0.846
   0.910   0.944   0.957   0.983   1.032   1.098   1.182   1.284   1.375   1.399
   1.332   1.226
   0.800   0.903   1.124   1.289   1.299   1.198   1.088   1.017   0.970   0.930
   0.909   0.908   0.889   0.826   0.777   0.861   1.119   1.422   1.559   1.422
   1.119   0.861   0.777   0.826   0.889   0.908   0.909   0.930   0.970   1.017
   1.088   1.198   1.299   1.289   1.124   0.903   0.800   0.903   1.124   1.289
   1.299   1.198   1.088   1.017   0.970   0.930   0.909   0.908   0.889   0.826
   0.777   0.861   1.119   1.422   1.559   1.422   1.119   0.861   0.777   0.826
   0.889   0.908   0.909   0.930   0.970   1.017   1.088   1.198   1.299   1.289
   1.124   0.903
   0.468   0.623   0.957   1.201   1.208   1.054   0.905   0.844   0.837   0.837
   0.849   0.882   0.891   0.829   0.749   0.789   1.018   1.317   1.455   1.317
   1.018   0.789   0.749   0.829   0.891   0.882   0.849   0.837   0.837   0.844
   0.905   1.054   1.208   1.201   0.957   0.623   0.468   0.623   0.957   1.201
   1.208   1.054   0.905   0.844   0.837   0.837   0.849   0.882   0.891   0.829
   0.749   0.789   1.018   1.317   1.455   1.317   1.018   0.789   0.749   0.829
   0.891   0.882   0.849   0.837   0.837   0.844   0.905   1.054   1.208   1.201
   0.957   0.623
   0.226   0.426   0.850   1.146   1.125   0.897   0.696   0.641   0.682   0.738
   0.799   0.875   0.914   0.854   0.739   0.724   0.909   1.186   1.319   1.186
   0.909   0.724   0.739   0.854   0.914   0.875   0.799   0.738   0.682   0.641
   0.696   0.897   1.125   1.146   0.850   0.426   0.226   0.426   0.850   1.146
   1.125   0.897   0.696   0.641   0.682   0.738   0.799   0.875   0.914   0.854
   0.739   0.724   0.909   1.186   1.319   1.186   0.909   0.724   0.739   0.854
   0.914   0.875   0.799   0.738   0.682   0.641   0.696   0.897   1.125   1.146
   0.850   0.426
   0.099   0.324   0.799   1.120   1.075   0.793   0.556   0.503   0.577   0.674
   0.772   0.878   0.938   0.878   0.739   0.687   0.838   1.096   1.224   1.096
   0.838   0.687   0.739   0.878   0.938   0.878   0.772   0.674   0.577   0.503
   0.556   0.793   1.075   1.120   0.799   0.324   0.099   0.324   0.799   1.120
   1.075   0.793   0.556   0.503   0.577   0.674   0.772   0.878   0.938   0.878
   0.739   0.687   0.838   1.096   1.224   1.096   0.838   0.687   0.739   0.878
   0.938   0.878   0.772   0.674   0.577   0.503   0.556   0.793   1.075   1.120
   0.799   0.324
 311       5.00   72    0 5.00   18    0
   0.980   0.981   0.981   0.982   0.983   0.984   0.986   0.988   0.989   0.991
   0.993   0.995   0.997   0.998   1.000   1.001   1.002   1.002   1.002   1.002
   1.002   1.001   1.000   0.998   0.997   0.995   0.993   0.991   0.989   0.988
   0.986   0.984   0.983   0.982   0.981   0.981   0.980   0.981   0.981   0.982
   0.983   0.984   0.986   0.988   0.989   0.991   0.993   0.995   0.997   0.998
   1.000   1.001   1.002   1.002   1.002   1.002   1.002   1.001   1.000   0.998
   0.997   0.995   0.993   0.991   0.989   0.988   0.986   0.984   0.983   0.982
   0.981   0.981
   0.943   0.944   0.948   0.953   0.960   0.969   0.979   0.991   1.004   1.018
   1.031   1.045   1.058   1.071   1.081   1.090   1.096   1.100   1.102   1.100
   1.096   1.090   1.081   1.071   1.058   1.045   1.031   1.018   1.004   0.991
   0.979   0.969   0.960   0.953   0.948   0.944   0.943   0.944   0.948   0.953
   0.960   0.969   0.979   0.991   1.004   1.018   1.031   1.045   1.058   1.071
   1.081   1.090   1.096   1.100   1.102   1.100   1.096   1.090   1.081   1.071
   1.058   1.045   1.031   1.018   1.004   0.991   0.979   0.969   0.960   0.953
   0.948   0.944
   0.940   0.942   0.945   0.951   0.960   0.971   0.985   1.002   1.022   1.044
   1.067   1.092   1.117   1.141   1.163   1.181   1.195   1.204   1.207   1.204
   1.195   1.181   1.163   1.141   1.117   1.092   1.067   1.044   1.022   1.002
   0.985   0.971   0.960   0.951   0.945   0.942   0.940   0.942   0.945   0.951
   0.960   0.971   0.985   1.002   1.022   1.044   1.067   1.092   1.117   1.141
   1.163   1.181   1.195   1.204   1.207   1.204   1.195   1.181   1.163   1.141
   1.117   1.092   1.067   1.044   1.022   1.002   0.985   0.971   0.960   0.951
   0.945   0.942
   1.019   1.019   1.017   1.016   1.015   1.015   1.017   1.022   1.031   1.044
   1.062   1.084   1.109   1.136   1.162   1.186   1.205   1.218   1.222   1.218
   1.205   1.186   1.162   1.136   1.109   1.084   1.062   1.044   1.031   1.022
   1.017   1.015   1.015   1.016   1.017   1.019   1.019   1.019   1.017   1.016
   1.015   1.015   1.017   1.022   1.031   1.044   1.062   1.084   1.109   1.136
   1.162   1.186   1.205   1.218   1.222   1.218   1.205   1.186   1.162   1.136
   1.109   1.084   1.062   1.044   1.031   1.022   1.017   1.015   1.015   1.016
   1.017   1.019
   1.128   1.126   1.119   1.108   1.093   1.077   1.059   1.043   1.029   1.020
   1.017   1.021   1.033   1.052   1.074   1.098   1.119   1.133   1.138   1.133
   1.119   1.098   1.074   1.052   1.033   1.021   1.017   1.020   1.029   1.043
   1.059   1.077   1.093   1.108   1.119   1.126   1.128   1.126   1.119   1.108
   1.093   1.077   1.059   1.043   1.029   1.020   1.017   1.021   1.033   1.052
   1.074   1.098   1.119   1.133   1.138   1.133   1.119   1.098   1.074   1.052
   1.033   1.021   1.017   1.020   1.029   1.043   1.059   1.077   1.093   1.108
   1.119   1.126
   1.158   1.156   1.149   1.139   1.123   1.103   1.079   1.052   1.023   0.995
   0.971   0.954   0.948   0.952   0.968   0.989   1.012   1.028   1.034   1.028
   1.012   0.989   0.968   0.952   0.948   0.954   0.971   0.995   1.023   1.052
   1.079   1.103   1.123   1.139   1.149   1.156   1.158   1.156   1.149   1.139
   1.123   1.103   1.079   1.052   1.023   0.995   0.971   0.954   0.948   0.952
   0.968   0.989   1.012   1.028   1.034   1.028   1.012   0.989   0.968   0.952
   0.948   0.954   0.971   0.995   1.023   1.052   1.079   1.103   1.123   1.139
   1.149   1.156
   1.054   1.055   1.058   1.061   1.063   1.062   1.055   1.040   1.018   0.990
   0.958   0.929   0.909   0.902   0.912   0.934   0.961   0.983   0.991   0.983
   0.961   0.934   0.912   0.902   0.909   0.929   0.958   0.990   1.018   1.040
   1.055   1.062   1.063   1.061   1.058   1.055   1.054   1.055   1.058   1.061
   1.063   1.062   1.055   1.040   1.018   0.990   0.958   0.929   0.909   0.902
   0.912   0.934   0.961   0.983   0.991   0.983   0.961   0.934   0.912   0.902
   0.909   0.929   0.958   0.990   1.018   1.040   1.055   1.062   1.063   1.061
   1.058   1.055
   0.886   0.891   0.905   0.925   0.950   0.974   0.995   1.008   1.010   0.999
   0.977   0.949   0.924   0.911   0.917   0.942   0.976   1.005   1.017   1.005
   0.976   0.942   0.917   0.911   0.924   0.949   0.977   0.999   1.010   1.008
   0.995   0.974   0.950   0.925   0.905   0.891   0.886   0.891   0.905   0.925
   0.950   0.974   0.995   1.008   1.010   0.999   0.977   0.949   0.924   0.911
   0.917   0.942   0.976   1.005   1.017   1.005   0.976   0.942   0.917   0.911
   0.924   0.949   0.977   0.999   1.010   1.008   0.995   0.974   0.950   0.925
   0.905   0.891
   0.788   0.794   0.811   0.836   0.867   0.901   0.935   0.966   0.990   1.002
   0.999   0.982   0.958   0.939   0.939   0.962   1.001   1.036   1.051   1.036
   1.001   0.962   0.939   0.939   0.958   0.982   0.999   1.002   0.990   0.966
   0.935   0.901   0.867   0.836   0.811   0.794   0.788   0.794   0.811   0.836
   0.867   0.901   0.935   0.966   0.990   1.002   0.999   0.982   0.958   0.939
   0.939   0.962   1.001   1.036   1.051   1.036   1.001   0.962   0.939   0.939
   0.958   0.982   0.999   1.002   0.990   0.966   0.935   0.901   0.867   0.836
   0.811   0.794
   0.833   0.836   0.845   0.858   0.872   0.888   0.907   0.932   0.960   0.985
   1.000   0.997   0.977   0.952   0.939   0.950   0.983   1.019   1.034   1.019
   0.983   0.950   0.939   0.952   0.977   0.997   1.000   0.985   0.960   0.932
   0.907   0.888   0.872   0.858   0.845   0.836   0.833   0.836   0.845   0.858
   0.872   0.888   0.907   0.932   0.960   0.985   1.000   0.997   0.977   0.952
   0.939   0.950   0.983   1.019   1.034   1.019   0.983   0.950   0.939   0.952
   0.977   0.997   1.000   0.985   0.960   0.932   0.907   0.888   0.872   0.858
   0.845   0.836
   0.971   0.971   0.968   0.961   0.948   0.932   0.921   0.921   0.934   0.958
   0.983   0.995   0.983   0.952   0.921   0.911   0.929   0.957   0.971   0.957
   0.929   0.911   0.921   0.952   0.983   0.995   0.983   0.958   0.934   0.921
   0.921   0.932   0.948   0.961   0.968   0.971   0.971   0.971   0.968   0.961
   0.948   0.932   0.921   0.921   0.934   0.958   0.983   0.995   0.983   0.952
   0.921   0.911   0.929   0.957   0.971   0.957   0.929   0.911   0.921   0.952
   0.983   0.995   0.983   0.958   0.934   0.921   0.921   0.932   0.948   0.961
   0.968   0.971
   1.080   1.079   1.074   1.058   1.029   0.995   0.965   0.945   0.940   0.950
   0.974   0.996   0.997   0.968   0.923   0.891   0.889   0.906   0.917   0.906
   0.889   0.891   0.923   0.968   0.997   0.996   0.974   0.950   0.940   0.945
   0.965   0.995   1.029   1.058   1.074   1.079   1.080   1.079   1.074   1.058
   1.029   0.995   0.965   0.945   0.940   0.950   0.974   0.996   0.997   0.968
   0.923   0.891   0.889   0.906   0.917   0.906   0.889   0.891   0.923   0.968
   0.997   0.996   0.974   0.950   0.940   0.945   0.965   0.995   1.029   1.058
   1.074   1.079
   1.082   1.086   1.091   1.082   1.058   1.032   1.014   1.003   0.990   0.981
   0.987   1.009   1.024   1.009   0.965   0.920   0.903   0.910   0.918   0.910
   0.903   0.920   0.965   1.009   1.024   1.009   0.987   0.981   0.990   1.003
   1.014   1.032   1.058   1.082   1.091   1.086   1.082   1.086   1.091   1.082
   1.058   1.032   1.014   1.003   0.990   0.981   0.987   1.009   1.024   1.009
   0.965   0.920   0.903   0.910   0.918   0.910   0.903   0.920   0.965   1.009
   1.024   1.009   0.987   0.981   0.990   1.003   1.014   1.032   1.058   1.082
   1.091   1.086
   0.999   1.011   1.032   1.037   1.026   1.025   1.048   1.076   1.076   1.045
   1.017   1.021   1.047   1.055   1.027   0.984   0.960   0.962   0.967   0.962
   0.960   0.984   1.027   1.055   1.047   1.021   1.017   1.045   1.076   1.076
   1.048   1.025   1.026   1.037   1.032   1.011   0.999   1.011   1.032   1.037
   1.026   1.025   1.048   1.076   1.076   1.045   1.017   1.021   1.047   1.055
   1.027   0.984   0.960   0.962   0.967   0.962   0.960   0.984   1.027   1.055
   1.047   1.021   1.017   1.045   1.076   1.076   1.048   1.025   1.026   1.037
   1.032   1.011
   0.917   0.937   0.971   0.978   0.964   0.978   1.050   1.137   1.168   1.118
   1.042   1.011   1.038   1.073   1.071   1.039   1.014   1.012   1.016   1.012
   1.014   1.039   1.071   1.073   1.038   1.011   1.042   1.118   1.168   1.137
   1.050   0.978   0.964   0.978   0.971   0.937   0.917   0.937   0.971   0.978
   0.964   0.978   1.050   1.137   1.168   1.118   1.042   1.011   1.038   1.073
   1.071   1.039   1.014   1.012   1.016   1.012   1.014   1.039   1.071   1.073
   1.038   1.011   1.042   1.118   1.168   1.137   1.050   0.978   0.964   0.978
   0.971   0.937
   0.903   0.928   0.964   0.953   0.908   0.913   1.019   1.168   1.238   1.174
   1.047   0.972   0.991   1.048   1.072   1.052   1.026   1.019   1.020   1.019
   1.026   1.052   1.072   1.048   0.991   0.972   1.047   1.174   1.238   1.168
   1.019   0.913   0.908   0.953   0.964   0.928   0.903   0.928   0.964   0.953
   0.908   0.913   1.019   1.168   1.238   1.174   1.047   0.972   0.991   1.048
   1.072   1.052   1.026   1.019   1.020   1.019   1.026   1.052   1.072   1.048
   0.991   0.972   1.047   1.174   1.238   1.168   1.019   0.913   0.908   0.953
   0.964   0.928
   0.950   0.977   1.008   0.967   0.875   0.851   0.973   1.170   1.275   1.205
   1.037   0.921   0.927   0.998   1.041   1.029   0.999   0.985   0.983   0.985
   0.999   1.029   1.041   0.998   0.927   0.921   1.037   1.205   1.275   1.170
   0.973   0.851   0.875   0.967   1.008   0.977   0.950   0.977   1.008   0.967
   0.875   0.851   0.973   1.170   1.275   1.205   1.037   0.921   0.927   0.998
   1.041   1.029   0.999   0.985   0.983   0.985   0.999   1.029   1.041   0.998
   0.927   0.921   1.037   1.205   1.275   1.170   0.973   0.851   0.875   0.967
   1.008   0.977
   1.001   1.029   1.053   0.989   0.862   0.813   0.939   1.161   1.288   1.216
   1.025   0.885   0.883   0.960   1.012   1.002   0.968   0.949   0.946   0.949
   0.968   1.002   1.012   0.960   0.883   0.885   1.025   1.216   1.288   1.161
   0.939   0.813   0.862   0.989   1.053   1.029   1.001   1.029   1.053   0.989
   0.862   0.813   0.939   1.161   1.288   1.216   1.025   0.885   0.883   0.960
   1.012   1.002   0.968   0.949   0.946   0.949   0.968   1.002   1.012   0.960
   0.883   0.885   1.025   1.216   1.288   1.161   0.939   0.813   0.862   0.989
   1.053   1.029
TEXTURE_INDEX=   1.2036
ERR_CF 220         1080     462   18.30   17.29
ERR_CF 200         1080     596   20.33   17.11
ERR_CF 111         1080     660   16.87   17.72
