TEXEVAL                                                                         
Analysis started on 21-Sep-20 11:26:40                                          
 LMAX=14LFMAX=03 CUBIC ORTHO   
 220      5.00 5.00
 200      5.00 5.00
 111      5.00 5.00
 220       5.00   72    0 5.00   15    0
   1.422   1.422   1.422   1.422   1.422   1.422   1.422   1.422   1.422   1.422
   1.422   1.422   1.422   1.422   1.422   1.422   1.422   1.422   1.422   1.422
   1.422   1.422   1.422   1.422   1.422   1.422   1.422   1.422   1.422   1.422
   1.422   1.422   1.422   1.422   1.422   1.422   1.422   1.422   1.422   1.422
   1.422   1.422   1.422   1.422   1.422   1.422   1.422   1.422   1.422   1.422
   1.422   1.422   1.422   1.422   1.422   1.422   1.422   1.422   1.422   1.422
   1.422   1.422   1.422   1.422   1.422   1.422   1.422   1.422   1.422   1.422
   1.422   1.422
   0.941   0.765   1.023   1.370   1.143   1.009   1.224   1.406   1.418   2.350
   2.036   1.699   1.494   1.761   1.537   1.656   1.847   2.375   1.577   2.375
   1.847   1.656   1.537   1.761   1.494   1.699   2.036   2.350   1.418   1.406
   1.224   1.009   1.143   1.370   1.023   0.765   0.941   0.765   1.023   1.370
   1.143   1.009   1.224   1.406   1.418   2.350   2.036   1.699   1.494   1.761
   1.537   1.656   1.847   2.375   1.577   2.375   1.847   1.656   1.537   1.761
   1.494   1.699   2.036   2.350   1.418   1.406   1.224   1.009   1.143   1.370
   1.023   0.765
   1.186   0.543   0.711   1.357   0.870   0.843   0.882   0.979   1.601   3.752
   2.098   1.394   1.358   1.522   1.370   2.255   1.427   2.132   1.272   2.132
   1.427   2.255   1.370   1.522   1.358   1.394   2.098   3.752   1.601   0.979
   0.882   0.843   0.870   1.357   0.711   0.543   1.186   0.543   0.711   1.357
   0.870   0.843   0.882   0.979   1.601   3.752   2.098   1.394   1.358   1.522
   1.370   2.255   1.427   2.132   1.272   2.132   1.427   2.255   1.370   1.522
   1.358   1.394   2.098   3.752   1.601   0.979   0.882   0.843   0.870   1.357
   0.711   0.543
   1.211   0.535   1.624   0.783   0.736   0.685   1.032   1.014   1.474   2.581
   1.306   1.091   1.049   1.211   1.638   2.902   1.177   1.506   1.064   1.506
   1.177   2.902   1.638   1.211   1.049   1.091   1.306   2.581   1.474   1.014
   1.032   0.685   0.736   0.783   1.624   0.535   1.211   0.535   1.624   0.783
   0.736   0.685   1.032   1.014   1.474   2.581   1.306   1.091   1.049   1.211
   1.638   2.902   1.177   1.506   1.064   1.506   1.177   2.902   1.638   1.211
   1.049   1.091   1.306   2.581   1.474   1.014   1.032   0.685   0.736   0.783
   1.624   0.535
   1.852   0.660   1.639   0.574   0.545   0.575   0.956   0.797   0.928   0.785
   0.737   0.828   1.276   0.990   1.591   2.251   2.206   1.957   2.371   1.957
   2.206   2.251   1.591   0.990   1.276   0.828   0.737   0.785   0.928   0.797
   0.956   0.575   0.545   0.574   1.639   0.660   1.852   0.660   1.639   0.574
   0.545   0.575   0.956   0.797   0.928   0.785   0.737   0.828   1.276   0.990
   1.591   2.251   2.206   1.957   2.371   1.957   2.206   2.251   1.591   0.990
   1.276   0.828   0.737   0.785   0.928   0.797   0.956   0.575   0.545   0.574
   1.639   0.660
   1.695   0.494   0.584   0.661   0.559   0.593   0.842   3.805   0.744   0.568
   0.490   0.961   1.058   0.916   1.324   1.614   2.026   1.933   2.472   1.933
   2.026   1.614   1.324   0.916   1.058   0.961   0.490   0.568   0.744   3.805
   0.842   0.593   0.559   0.661   0.584   0.494   1.695   0.494   0.584   0.661
   0.559   0.593   0.842   3.805   0.744   0.568   0.490   0.961   1.058   0.916
   1.324   1.614   2.026   1.933   2.472   1.933   2.026   1.614   1.324   0.916
   1.058   0.961   0.490   0.568   0.744   3.805   0.842   0.593   0.559   0.661
   0.584   0.494
   0.719   1.442   0.566   1.265   1.208   0.610   0.795   3.718   1.629   0.601
   3.976   0.774   0.596   0.732   1.154   2.114   1.148   1.507   1.194   1.507
   1.148   2.114   1.154   0.732   0.596   0.774   3.976   0.601   1.629   3.718
   0.795   0.610   1.208   1.265   0.566   1.442   0.719   1.442   0.566   1.265
   1.208   0.610   0.795   3.718   1.629   0.601   3.976   0.774   0.596   0.732
   1.154   2.114   1.148   1.507   1.194   1.507   1.148   2.114   1.154   0.732
   0.596   0.774   3.976   0.601   1.629   3.718   0.795   0.610   1.208   1.265
   0.566   1.442
   0.894   1.597   0.629   1.581   1.307   0.532   0.553   0.454   1.422   0.730
   4.538   0.463   0.627   0.657   0.997   1.966   1.389   1.481   1.215   1.481
   1.389   1.966   0.997   0.657   0.627   0.463   4.538   0.730   1.422   0.454
   0.553   0.532   1.307   1.581   0.629   1.597   0.894   1.597   0.629   1.581
   1.307   0.532   0.553   0.454   1.422   0.730   4.538   0.463   0.627   0.657
   0.997   1.966   1.389   1.481   1.215   1.481   1.389   1.966   0.997   0.657
   0.627   0.463   4.538   0.730   1.422   0.454   0.553   0.532   1.307   1.581
   0.629   1.597
   1.662   0.929   0.580   1.180   0.850   0.553   0.550   0.413   0.392   0.680
   1.175   0.414   0.597   0.747   1.168   1.054   2.486   1.997   1.432   1.997
   2.486   1.054   1.168   0.747   0.597   0.414   1.175   0.680   0.392   0.413
   0.550   0.553   0.850   1.180   0.580   0.929   1.662   0.929   0.580   1.180
   0.850   0.553   0.550   0.413   0.392   0.680   1.175   0.414   0.597   0.747
   1.168   1.054   2.486   1.997   1.432   1.997   2.486   1.054   1.168   0.747
   0.597   0.414   1.175   0.680   0.392   0.413   0.550   0.553   0.850   1.180
   0.580   0.929
   1.901   1.346   1.223   0.920   0.750   0.706   0.661   0.542   0.484   0.548
   0.756   0.427   0.649   1.161   1.350   0.848   2.260   1.607   2.493   1.607
   2.260   0.848   1.350   1.161   0.649   0.427   0.756   0.548   0.484   0.542
   0.661   0.706   0.750   0.920   1.223   1.346   1.901   1.346   1.223   0.920
   0.750   0.706   0.661   0.542   0.484   0.548   0.756   0.427   0.649   1.161
   1.350   0.848   2.260   1.607   2.493   1.607   2.260   0.848   1.350   1.161
   0.649   0.427   0.756   0.548   0.484   0.542   0.661   0.706   0.750   0.920
   1.223   1.346
   1.122   1.337   2.526   1.959   1.030   1.081   0.769   0.779   0.516   0.448
   0.638   0.620   0.642   1.213   1.273   0.938   1.331   1.067   2.140   1.067
   1.331   0.938   1.273   1.213   0.642   0.620   0.638   0.448   0.516   0.779
   0.769   1.081   1.030   1.959   2.526   1.337   1.122   1.337   2.526   1.959
   1.030   1.081   0.769   0.779   0.516   0.448   0.638   0.620   0.642   1.213
   1.273   0.938   1.331   1.067   2.140   1.067   1.331   0.938   1.273   1.213
   0.642   0.620   0.638   0.448   0.516   0.779   0.769   1.081   1.030   1.959
   2.526   1.337
   1.094   1.190   2.565   2.174   2.272   1.074   0.565   0.689   0.305   1.479
   0.872   0.515   0.523   0.701   0.620   0.763   0.948   0.646   0.540   0.646
   0.948   0.763   0.620   0.701   0.523   0.515   0.872   1.479   0.305   0.689
   0.565   1.074   2.272   2.174   2.565   1.190   1.094   1.190   2.565   2.174
   2.272   1.074   0.565   0.689   0.305   1.479   0.872   0.515   0.523   0.701
   0.620   0.763   0.948   0.646   0.540   0.646   0.948   0.763   0.620   0.701
   0.523   0.515   0.872   1.479   0.305   0.689   0.565   1.074   2.272   2.174
   2.565   1.190
   1.304   1.233   1.566   1.471   2.139   0.796   0.395   1.023   0.392   2.101
   0.813   0.778   0.491   0.498   1.231   0.875   0.617   0.503   0.311   0.503
   0.617   0.875   1.231   0.498   0.491   0.778   0.813   2.101   0.392   1.023
   0.395   0.796   2.139   1.471   1.566   1.233   1.304   1.233   1.566   1.471
   2.139   0.796   0.395   1.023   0.392   2.101   0.813   0.778   0.491   0.498
   1.231   0.875   0.617   0.503   0.311   0.503   0.617   0.875   1.231   0.498
   0.491   0.778   0.813   2.101   0.392   1.023   0.395   0.796   2.139   1.471
   1.566   1.233
   1.121   1.335   1.147   1.211   1.057   0.721   0.496   1.158   0.432   1.040
   0.726   0.748   0.524   0.564   1.985   0.623   0.546   0.516   1.318   0.516
   0.546   0.623   1.985   0.564   0.524   0.748   0.726   1.040   0.432   1.158
   0.496   0.721   1.057   1.211   1.147   1.335   1.121   1.335   1.147   1.211
   1.057   0.721   0.496   1.158   0.432   1.040   0.726   0.748   0.524   0.564
   1.985   0.623   0.546   0.516   1.318   0.516   0.546   0.623   1.985   0.564
   0.524   0.748   0.726   1.040   0.432   1.158   0.496   0.721   1.057   1.211
   1.147   1.335
   0.651   1.015   0.803   0.505   1.311   0.403   0.340   0.498   0.518   0.459
   1.432   0.598   0.469   0.554   1.150   0.129   0.971   0.431   1.514   0.431
   0.971   0.129   1.150   0.554   0.469   0.598   1.432   0.459   0.518   0.498
   0.340   0.403   1.311   0.505   0.803   1.015   0.651   1.015   0.803   0.505
   1.311   0.403   0.340   0.498   0.518   0.459   1.432   0.598   0.469   0.554
   1.150   0.129   0.971   0.431   1.514   0.431   0.971   0.129   1.150   0.554
   0.469   0.598   1.432   0.459   0.518   0.498   0.340   0.403   1.311   0.505
   0.803   1.015
 200       5.00   72    0 5.00   15    0
   1.487   1.487   1.487   1.487   1.487   1.487   1.487   1.487   1.487   1.487
   1.487   1.487   1.487   1.487   1.487   1.487   1.487   1.487   1.487   1.487
   1.487   1.487   1.487   1.487   1.487   1.487   1.487   1.487   1.487   1.487
   1.487   1.487   1.487   1.487   1.487   1.487   1.487   1.487   1.487   1.487
   1.487   1.487   1.487   1.487   1.487   1.487   1.487   1.487   1.487   1.487
   1.487   1.487   1.487   1.487   1.487   1.487   1.487   1.487   1.487   1.487
   1.487   1.487   1.487   1.487   1.487   1.487   1.487   1.487   1.487   1.487
   1.487   1.487
   2.478   1.229   0.993   1.305   1.299   1.582   1.454   1.560   1.339   2.147
   1.710   1.392   1.665   1.576   1.391   1.368   1.371   1.298   1.266   1.298
   1.371   1.368   1.391   1.576   1.665   1.392   1.710   2.147   1.339   1.560
   1.454   1.582   1.299   1.305   0.993   1.229   2.478   1.229   0.993   1.305
   1.299   1.582   1.454   1.560   1.339   2.147   1.710   1.392   1.665   1.576
   1.391   1.368   1.371   1.298   1.266   1.298   1.371   1.368   1.391   1.576
   1.665   1.392   1.710   2.147   1.339   1.560   1.454   1.582   1.299   1.305
   0.993   1.229
   1.119   1.106   1.118   2.447   1.324   1.376   1.594   1.601   1.290   1.224
   2.805   1.543   2.220   2.035   0.939   0.978   0.936   0.889   0.985   0.889
   0.936   0.978   0.939   2.035   2.220   1.543   2.805   1.224   1.290   1.601
   1.594   1.376   1.324   2.447   1.118   1.106   1.119   1.106   1.118   2.447
   1.324   1.376   1.594   1.601   1.290   1.224   2.805   1.543   2.220   2.035
   0.939   0.978   0.936   0.889   0.985   0.889   0.936   0.978   0.939   2.035
   2.220   1.543   2.805   1.224   1.290   1.601   1.594   1.376   1.324   2.447
   1.118   1.106
   1.384   1.268   1.419   2.612   1.276   1.819   1.531   1.192   1.203   1.065
   2.573   1.172   1.751   1.744   0.969   0.774   0.745   0.644   0.847   0.644
   0.745   0.774   0.969   1.744   1.751   1.172   2.573   1.065   1.203   1.192
   1.531   1.819   1.276   2.612   1.419   1.268   1.384   1.268   1.419   2.612
   1.276   1.819   1.531   1.192   1.203   1.065   2.573   1.172   1.751   1.744
   0.969   0.774   0.745   0.644   0.847   0.644   0.745   0.774   0.969   1.744
   1.751   1.172   2.573   1.065   1.203   1.192   1.531   1.819   1.276   2.612
   1.419   1.268
   3.095   2.702   1.405   1.252   0.935   1.536   2.164   1.237   2.007   0.965
   0.849   0.679   0.823   0.862   0.966   1.315   0.697   0.560   0.716   0.560
   0.697   1.315   0.966   0.862   0.823   0.679   0.849   0.965   2.007   1.237
   2.164   1.536   0.935   1.252   1.405   2.702   3.095   2.702   1.405   1.252
   0.935   1.536   2.164   1.237   2.007   0.965   0.849   0.679   0.823   0.862
   0.966   1.315   0.697   0.560   0.716   0.560   0.697   1.315   0.966   0.862
   0.823   0.679   0.849   0.965   2.007   1.237   2.164   1.536   0.935   1.252
   1.405   2.702
   3.055   2.559   1.080   1.094   1.083   1.013   2.145   1.230   1.833   1.155
   1.011   0.973   0.673   0.643   0.744   1.221   0.531   0.488   0.542   0.488
   0.531   1.221   0.744   0.643   0.673   0.973   1.011   1.155   1.833   1.230
   2.145   1.013   1.083   1.094   1.080   2.559   3.055   2.559   1.080   1.094
   1.083   1.013   2.145   1.230   1.833   1.155   1.011   0.973   0.673   0.643
   0.744   1.221   0.531   0.488   0.542   0.488   0.531   1.221   0.744   0.643
   0.673   0.973   1.011   1.155   1.833   1.230   2.145   1.013   1.083   1.094
   1.080   2.559
   1.978   0.803   1.501   3.006   1.092   0.885   1.170   1.021   1.582   1.312
   1.138   1.080   0.933   0.767   0.779   0.647   0.443   0.427   0.307   0.427
   0.443   0.647   0.779   0.767   0.933   1.080   1.138   1.312   1.582   1.021
   1.170   0.885   1.092   3.006   1.501   0.803   1.978   0.803   1.501   3.006
   1.092   0.885   1.170   1.021   1.582   1.312   1.138   1.080   0.933   0.767
   0.779   0.647   0.443   0.427   0.307   0.427   0.443   0.647   0.779   0.767
   0.933   1.080   1.138   1.312   1.582   1.021   1.170   0.885   1.092   3.006
   1.501   0.803
   1.535   0.634   1.722   2.740   0.711   0.780   1.294   0.818   1.550   1.315
   1.205   1.545   1.134   0.963   0.971   0.857   0.916   0.470   0.267   0.470
   0.916   0.857   0.971   0.963   1.134   1.545   1.205   1.315   1.550   0.818
   1.294   0.780   0.711   2.740   1.722   0.634   1.535   0.634   1.722   2.740
   0.711   0.780   1.294   0.818   1.550   1.315   1.205   1.545   1.134   0.963
   0.971   0.857   0.916   0.470   0.267   0.470   0.916   0.857   0.971   0.963
   1.134   1.545   1.205   1.315   1.550   0.818   1.294   0.780   0.711   2.740
   1.722   0.634
   0.443   0.448   1.066   0.426   1.963   0.572   0.933   0.595   0.804   1.220
   1.147   1.457   0.814   0.848   0.982   0.661   0.967   0.365   0.247   0.365
   0.967   0.661   0.982   0.848   0.814   1.457   1.147   1.220   0.804   0.595
   0.933   0.572   1.963   0.426   1.066   0.448   0.443   0.448   1.066   0.426
   1.963   0.572   0.933   0.595   0.804   1.220   1.147   1.457   0.814   0.848
   0.982   0.661   0.967   0.365   0.247   0.365   0.967   0.661   0.982   0.848
   0.814   1.457   1.147   1.220   0.804   0.595   0.933   0.572   1.963   0.426
   1.066   0.448
   0.244   0.334   0.773   0.318   1.869   0.335   0.456   0.515   1.350   1.225
   0.792   0.641   0.515   2.186   0.996   0.813   0.754   0.292   0.427   0.292
   0.754   0.813   0.996   2.186   0.515   0.641   0.792   1.225   1.350   0.515
   0.456   0.335   1.869   0.318   0.773   0.334   0.244   0.334   0.773   0.318
   1.869   0.335   0.456   0.515   1.350   1.225   0.792   0.641   0.515   2.186
   0.996   0.813   0.754   0.292   0.427   0.292   0.754   0.813   0.996   2.186
   0.515   0.641   0.792   1.225   1.350   0.515   0.456   0.335   1.869   0.318
   0.773   0.334
   0.316   0.421   0.589   0.599   0.453   0.552   0.522   0.566   1.400   1.003
   0.671   0.930   0.589   2.768   1.009   1.150   0.617   0.518   0.440   0.518
   0.617   1.150   1.009   2.768   0.589   0.930   0.671   1.003   1.400   0.566
   0.522   0.552   0.453   0.599   0.589   0.421   0.316   0.421   0.589   0.599
   0.453   0.552   0.522   0.566   1.400   1.003   0.671   0.930   0.589   2.768
   1.009   1.150   0.617   0.518   0.440   0.518   0.617   1.150   1.009   2.768
   0.589   0.930   0.671   1.003   1.400   0.566   0.522   0.552   0.453   0.599
   0.589   0.421
   0.363   0.508   0.261   0.546   0.522   0.634   0.509   0.649   0.941   0.651
   0.649   0.970   0.587   1.281   0.621   0.749   0.357   0.439   0.481   0.439
   0.357   0.749   0.621   1.281   0.587   0.970   0.649   0.651   0.941   0.649
   0.509   0.634   0.522   0.546   0.261   0.508   0.363   0.508   0.261   0.546
   0.522   0.634   0.509   0.649   0.941   0.651   0.649   0.970   0.587   1.281
   0.621   0.749   0.357   0.439   0.481   0.439   0.357   0.749   0.621   1.281
   0.587   0.970   0.649   0.651   0.941   0.649   0.509   0.634   0.522   0.546
   0.261   0.508
   0.540   0.601   0.389   0.522   0.588   1.181   0.839   0.805   1.027   1.251
   0.725   0.847   0.514   0.815   0.646   0.443   0.593   0.393   0.507   0.393
   0.593   0.443   0.646   0.815   0.514   0.847   0.725   1.251   1.027   0.805
   0.839   1.181   0.588   0.522   0.389   0.601   0.540   0.601   0.389   0.522
   0.588   1.181   0.839   0.805   1.027   1.251   0.725   0.847   0.514   0.815
   0.646   0.443   0.593   0.393   0.507   0.393   0.593   0.443   0.646   0.815
   0.514   0.847   0.725   1.251   1.027   0.805   0.839   1.181   0.588   0.522
   0.389   0.601
   0.795   0.731   0.573   1.163   0.436   1.424   0.991   1.015   1.008   1.244
   0.831   0.845   0.512   0.706   0.777   0.593   0.934   0.387   0.526   0.387
   0.934   0.593   0.777   0.706   0.512   0.845   0.831   1.244   1.008   1.015
   0.991   1.424   0.436   1.163   0.573   0.731   0.795   0.731   0.573   1.163
   0.436   1.424   0.991   1.015   1.008   1.244   0.831   0.845   0.512   0.706
   0.777   0.593   0.934   0.387   0.526   0.387   0.934   0.593   0.777   0.706
   0.512   0.845   0.831   1.244   1.008   1.015   0.991   1.424   0.436   1.163
   0.573   0.731
   0.521   0.836   0.519   0.974   0.334   1.123   0.966   0.973   2.379   0.478
   0.629   0.877   0.417   0.721   0.917   1.022   1.088   0.435   0.936   0.435
   1.088   1.022   0.917   0.721   0.417   0.877   0.629   0.478   2.379   0.973
   0.966   1.123   0.334   0.974   0.519   0.836   0.521   0.836   0.519   0.974
   0.334   1.123   0.966   0.973   2.379   0.478   0.629   0.877   0.417   0.721
   0.917   1.022   1.088   0.435   0.936   0.435   1.088   1.022   0.917   0.721
   0.417   0.877   0.629   0.478   2.379   0.973   0.966   1.123   0.334   0.974
   0.519   0.836
 111       5.00   72    0 5.00   15    0
   0.354   0.354   0.354   0.354   0.354   0.354   0.354   0.354   0.354   0.354
   0.354   0.354   0.354   0.354   0.354   0.354   0.354   0.354   0.354   0.354
   0.354   0.354   0.354   0.354   0.354   0.354   0.354   0.354   0.354   0.354
   0.354   0.354   0.354   0.354   0.354   0.354   0.354   0.354   0.354   0.354
   0.354   0.354   0.354   0.354   0.354   0.354   0.354   0.354   0.354   0.354
   0.354   0.354   0.354   0.354   0.354   0.354   0.354   0.354   0.354   0.354
   0.354   0.354   0.354   0.354   0.354   0.354   0.354   0.354   0.354   0.354
   0.354   0.354
   0.373   0.478   0.344   0.933   0.719   0.654   0.385   0.355   0.413   0.585
   0.559   0.415   0.422   0.433   0.464   0.418   0.393   0.430   0.394   0.430
   0.393   0.418   0.464   0.433   0.422   0.415   0.559   0.585   0.413   0.355
   0.385   0.654   0.719   0.933   0.344   0.478   0.373   0.478   0.344   0.933
   0.719   0.654   0.385   0.355   0.413   0.585   0.559   0.415   0.422   0.433
   0.464   0.418   0.393   0.430   0.394   0.430   0.393   0.418   0.464   0.433
   0.422   0.415   0.559   0.585   0.413   0.355   0.385   0.654   0.719   0.933
   0.344   0.478
   0.530   0.689   0.508   1.060   0.459   0.466   0.896   0.491   0.541   0.631
   0.628   0.450   0.503   0.599   0.481   0.438   0.412   0.399   0.572   0.399
   0.412   0.438   0.481   0.599   0.503   0.450   0.628   0.631   0.541   0.491
   0.896   0.466   0.459   1.060   0.508   0.689   0.530   0.689   0.508   1.060
   0.459   0.466   0.896   0.491   0.541   0.631   0.628   0.450   0.503   0.599
   0.481   0.438   0.412   0.399   0.572   0.399   0.412   0.438   0.481   0.599
   0.503   0.450   0.628   0.631   0.541   0.491   0.896   0.466   0.459   1.060
   0.508   0.689
   0.855   0.913   0.829   1.149   0.991   0.958   1.769   2.109   0.769   0.799
   0.596   0.530   0.475   0.551   0.431   0.429   0.393   0.409   0.611   0.409
   0.393   0.429   0.431   0.551   0.475   0.530   0.596   0.799   0.769   2.109
   1.769   0.958   0.991   1.149   0.829   0.913   0.855   0.913   0.829   1.149
   0.991   0.958   1.769   2.109   0.769   0.799   0.596   0.530   0.475   0.551
   0.431   0.429   0.393   0.409   0.611   0.409   0.393   0.429   0.431   0.551
   0.475   0.530   0.596   0.799   0.769   2.109   1.769   0.958   0.991   1.149
   0.829   0.913
   1.426   1.818   1.298   2.501   1.399   1.431   2.190   3.063   0.994   0.765
   0.605   0.593   0.637   0.479   0.450   0.393   0.428   0.421   0.460   0.421
   0.428   0.393   0.450   0.479   0.637   0.593   0.605   0.765   0.994   3.063
   2.190   1.431   1.399   2.501   1.298   1.818   1.426   1.818   1.298   2.501
   1.399   1.431   2.190   3.063   0.994   0.765   0.605   0.593   0.637   0.479
   0.450   0.393   0.428   0.421   0.460   0.421   0.428   0.393   0.450   0.479
   0.637   0.593   0.605   0.765   0.994   3.063   2.190   1.431   1.399   2.501
   1.298   1.818
   2.389   2.308   1.336   2.416   1.841   1.467   1.817   2.018   1.665   0.739
   0.837   0.623   1.569   1.375   0.573   0.712   0.463   0.435   0.442   0.435
   0.463   0.712   0.573   1.375   1.569   0.623   0.837   0.739   1.665   2.018
   1.817   1.467   1.841   2.416   1.336   2.308   2.389   2.308   1.336   2.416
   1.841   1.467   1.817   2.018   1.665   0.739   0.837   0.623   1.569   1.375
   0.573   0.712   0.463   0.435   0.442   0.435   0.463   0.712   0.573   1.375
   1.569   0.623   0.837   0.739   1.665   2.018   1.817   1.467   1.841   2.416
   1.336   2.308
   2.901   2.780   1.041   1.226   1.767   1.301   1.406   2.057   1.837   1.027
   1.137   0.973   1.644   1.484   0.689   0.729   0.572   0.453   0.346   0.453
   0.572   0.729   0.689   1.484   1.644   0.973   1.137   1.027   1.837   2.057
   1.406   1.301   1.767   1.226   1.041   2.780   2.901   2.780   1.041   1.226
   1.767   1.301   1.406   2.057   1.837   1.027   1.137   0.973   1.644   1.484
   0.689   0.729   0.572   0.453   0.346   0.453   0.572   0.729   0.689   1.484
   1.644   0.973   1.137   1.027   1.837   2.057   1.406   1.301   1.767   1.226
   1.041   2.780
   1.792   2.056   0.867   1.664   1.125   1.547   1.275   2.284   1.507   1.210
   1.144   1.229   1.260   0.942   1.123   0.961   0.619   0.472   0.465   0.472
   0.619   0.961   1.123   0.942   1.260   1.229   1.144   1.210   1.507   2.284
   1.275   1.547   1.125   1.664   0.867   2.056   1.792   2.056   0.867   1.664
   1.125   1.547   1.275   2.284   1.507   1.210   1.144   1.229   1.260   0.942
   1.123   0.961   0.619   0.472   0.465   0.472   0.619   0.961   1.123   0.942
   1.260   1.229   1.144   1.210   1.507   2.284   1.275   1.547   1.125   1.664
   0.867   2.056
   0.674   0.632   0.606   1.662   0.824   1.266   1.119   1.690   1.898   1.200
   1.261   1.104   1.576   1.531   1.496   1.998   0.795   0.691   0.694   0.691
   0.795   1.998   1.496   1.531   1.576   1.104   1.261   1.200   1.898   1.690
   1.119   1.266   0.824   1.662   0.606   0.632   0.674   0.632   0.606   1.662
   0.824   1.266   1.119   1.690   1.898   1.200   1.261   1.104   1.576   1.531
   1.496   1.998   0.795   0.691   0.694   0.691   0.795   1.998   1.496   1.531
   1.576   1.104   1.261   1.200   1.898   1.690   1.119   1.266   0.824   1.662
   0.606   0.632
   0.380   0.553   0.420   0.668   0.604   0.701   0.952   3.334   1.641   1.021
   1.064   1.063   1.616   3.071   1.509   1.809   0.915   1.064   0.742   1.064
   0.915   1.809   1.509   3.071   1.616   1.063   1.064   1.021   1.641   3.334
   0.952   0.701   0.604   0.668   0.420   0.553   0.380   0.553   0.420   0.668
   0.604   0.701   0.952   3.334   1.641   1.021   1.064   1.063   1.616   3.071
   1.509   1.809   0.915   1.064   0.742   1.064   0.915   1.809   1.509   3.071
   1.616   1.063   1.064   1.021   1.641   3.334   0.952   0.701   0.604   0.668
   0.420   0.553
   0.207   0.571   0.755   0.472   0.514   0.711   0.766   2.959   0.946   0.742
   0.898   1.249   1.465   2.627   1.327   1.502   0.850   1.270   0.746   1.270
   0.850   1.502   1.327   2.627   1.465   1.249   0.898   0.742   0.946   2.959
   0.766   0.711   0.514   0.472   0.755   0.571   0.207   0.571   0.755   0.472
   0.514   0.711   0.766   2.959   0.946   0.742   0.898   1.249   1.465   2.627
   1.327   1.502   0.850   1.270   0.746   1.270   0.850   1.502   1.327   2.627
   1.465   1.249   0.898   0.742   0.946   2.959   0.766   0.711   0.514   0.472
   0.755   0.571
   0.271   0.437   0.808   0.440   0.685   0.718   0.693   0.638   0.803   0.711
   1.127   1.075   1.302   1.681   0.971   1.403   0.878   0.913   0.662   0.913
   0.878   1.403   0.971   1.681   1.302   1.075   1.127   0.711   0.803   0.638
   0.693   0.718   0.685   0.440   0.808   0.437   0.271   0.437   0.808   0.440
   0.685   0.718   0.693   0.638   0.803   0.711   1.127   1.075   1.302   1.681
   0.971   1.403   0.878   0.913   0.662   0.913   0.878   1.403   0.971   1.681
   1.302   1.075   1.127   0.711   0.803   0.638   0.693   0.718   0.685   0.440
   0.808   0.437
   0.314   0.310   0.890   0.594   0.712   0.767   0.755   0.900   0.913   1.328
   1.229   1.145   1.770   1.497   0.896   1.029   1.085   0.682   0.783   0.682
   1.085   1.029   0.896   1.497   1.770   1.145   1.229   1.328   0.913   0.900
   0.755   0.767   0.712   0.594   0.890   0.310   0.314   0.310   0.890   0.594
   0.712   0.767   0.755   0.900   0.913   1.328   1.229   1.145   1.770   1.497
   0.896   1.029   1.085   0.682   0.783   0.682   1.085   1.029   0.896   1.497
   1.770   1.145   1.229   1.328   0.913   0.900   0.755   0.767   0.712   0.594
   0.890   0.310
   0.480   0.518   0.901   0.706   0.546   0.732   0.692   0.973   0.899   1.704
   0.890   1.212   1.726   0.859   0.902   0.953   1.097   0.748   0.647   0.748
   1.097   0.953   0.902   0.859   1.726   1.212   0.890   1.704   0.899   0.973
   0.692   0.732   0.546   0.706   0.901   0.518   0.480   0.518   0.901   0.706
   0.546   0.732   0.692   0.973   0.899   1.704   0.890   1.212   1.726   0.859
   0.902   0.953   1.097   0.748   0.647   0.748   1.097   0.953   0.902   0.859
   1.726   1.212   0.890   1.704   0.899   0.973   0.692   0.732   0.546   0.706
   0.901   0.518
   0.511   0.820   0.363   0.506   0.638   0.992   0.533   0.659   0.679   1.249
   0.436   0.830   1.047   0.861   0.632   0.630   0.652   0.623   0.668   0.623
   0.652   0.630   0.632   0.861   1.047   0.830   0.436   1.249   0.679   0.659
   0.533   0.992   0.638   0.506   0.363   0.820   0.511   0.820   0.363   0.506
   0.638   0.992   0.533   0.659   0.679   1.249   0.436   0.830   1.047   0.861
   0.632   0.630   0.652   0.623   0.668   0.623   0.652   0.630   0.632   0.861
   1.047   0.830   0.436   1.249   0.679   0.659   0.533   0.992   0.638   0.506
   0.363   0.820
  4  1      6.9719537E-01
  4  2      1.8627596E-01
  4  3     -1.2981481E-01
  6  1      5.2319764E-01
  6  2     -1.2546590E+00
  6  3      1.0007505E+00
  6  4      8.5487568E-02
  8  1      1.9017228E-01
  8  2      4.7466124E-01
  8  3      1.1310668E-01
  8  4      2.2486260E-01
  8  5     -2.9972246E-01
 10  1     -1.8092534E-01
 10  2      1.0009437E-01
 10  3     -6.7645517E-02
 10  4     -2.6233535E-01
 10  5     -2.5788231E-01
 10  6     -4.4976663E-02
 12  1     -1.5455091E-01  2.9967531E-01
 12  2     -4.6155533E-03 -8.3963668E-01
 12  3      1.9673561E-01  5.6979195E-02
 12  4      1.5312936E-02 -1.2191529E-01
 12  5     -4.4338374E-01 -2.7858969E-01
 12  6      3.1554178E-01 -2.3526353E-03
 12  7     -6.5598842E-01 -1.1059731E+00
 14  1      1.2239292E-02
 14  2     -1.5600438E-01
 14  3      3.3308256E-01
 14  4     -2.4708809E-01
 14  5      2.7921023E-01
 14  6     -4.9025391E-01
 14  7     -6.1066427E-01
 14  8      1.7486682E-01
 220       5.00   72    0 5.00   18    0
   1.395   1.395   1.397   1.399   1.402   1.406   1.410   1.415   1.420   1.425
   1.430   1.435   1.440   1.445   1.448   1.452   1.454   1.455   1.456   1.455
   1.454   1.452   1.448   1.445   1.440   1.435   1.430   1.425   1.420   1.415
   1.410   1.406   1.402   1.399   1.397   1.395   1.395   1.395   1.397   1.399
   1.402   1.406   1.410   1.415   1.420   1.425   1.430   1.435   1.440   1.445
   1.448   1.452   1.454   1.455   1.456   1.455   1.454   1.452   1.448   1.445
   1.440   1.435   1.430   1.425   1.420   1.415   1.410   1.406   1.402   1.399
   1.397   1.395
   1.043   1.046   1.056   1.072   1.093   1.120   1.152   1.187   1.225   1.265
   1.305   1.345   1.382   1.417   1.447   1.471   1.489   1.500   1.504   1.500
   1.489   1.471   1.447   1.417   1.382   1.345   1.305   1.265   1.225   1.187
   1.152   1.120   1.093   1.072   1.056   1.046   1.043   1.046   1.056   1.072
   1.093   1.120   1.152   1.187   1.225   1.265   1.305   1.345   1.382   1.417
   1.447   1.471   1.489   1.500   1.504   1.500   1.489   1.471   1.447   1.417
   1.382   1.345   1.305   1.265   1.225   1.187   1.152   1.120   1.093   1.072
   1.056   1.046
   0.631   0.636   0.653   0.680   0.718   0.765   0.821   0.885   0.956   1.031
   1.110   1.189   1.266   1.338   1.402   1.456   1.496   1.522   1.530   1.522
   1.496   1.456   1.402   1.338   1.266   1.189   1.110   1.031   0.956   0.885
   0.821   0.765   0.718   0.680   0.653   0.636   0.631   0.636   0.653   0.680
   0.718   0.765   0.821   0.885   0.956   1.031   1.110   1.189   1.266   1.338
   1.402   1.456   1.496   1.522   1.530   1.522   1.496   1.456   1.402   1.338
   1.266   1.189   1.110   1.031   0.956   0.885   0.821   0.765   0.718   0.680
   0.653   0.636
   0.454   0.459   0.474   0.499   0.534   0.578   0.630   0.692   0.762   0.841
   0.926   1.018   1.112   1.205   1.292   1.368   1.427   1.464   1.477   1.464
   1.427   1.368   1.292   1.205   1.112   1.018   0.926   0.841   0.762   0.692
   0.630   0.578   0.534   0.499   0.474   0.459   0.454   0.459   0.474   0.499
   0.534   0.578   0.630   0.692   0.762   0.841   0.926   1.018   1.112   1.205
   1.292   1.368   1.427   1.464   1.477   1.464   1.427   1.368   1.292   1.205
   1.112   1.018   0.926   0.841   0.762   0.692   0.630   0.578   0.534   0.499
   0.474   0.459
   0.549   0.552   0.561   0.575   0.594   0.617   0.644   0.676   0.715   0.763
   0.821   0.891   0.972   1.062   1.155   1.243   1.315   1.363   1.380   1.363
   1.315   1.243   1.155   1.062   0.972   0.891   0.821   0.763   0.715   0.676
   0.644   0.617   0.594   0.575   0.561   0.552   0.549   0.552   0.561   0.575
   0.594   0.617   0.644   0.676   0.715   0.763   0.821   0.891   0.972   1.062
   1.155   1.243   1.315   1.363   1.380   1.363   1.315   1.243   1.155   1.062
   0.972   0.891   0.821   0.763   0.715   0.676   0.644   0.617   0.594   0.575
   0.561   0.552
   0.717   0.719   0.723   0.728   0.734   0.739   0.744   0.750   0.760   0.777
   0.803   0.843   0.902   0.981   1.075   1.174   1.262   1.324   1.346   1.324
   1.262   1.174   1.075   0.981   0.902   0.843   0.803   0.777   0.760   0.750
   0.744   0.739   0.734   0.728   0.723   0.719   0.717   0.719   0.723   0.728
   0.734   0.739   0.744   0.750   0.760   0.777   0.803   0.843   0.902   0.981
   1.075   1.174   1.262   1.324   1.346   1.324   1.262   1.174   1.075   0.981
   0.902   0.843   0.803   0.777   0.760   0.750   0.744   0.739   0.734   0.728
   0.723   0.719
   0.782   0.783   0.783   0.781   0.774   0.766   0.762   0.765   0.777   0.796
   0.823   0.860   0.915   0.994   1.099   1.219   1.333   1.415   1.446   1.415
   1.333   1.219   1.099   0.994   0.915   0.860   0.823   0.796   0.777   0.765
   0.762   0.766   0.774   0.781   0.783   0.783   0.782   0.783   0.783   0.781
   0.774   0.766   0.762   0.765   0.777   0.796   0.823   0.860   0.915   0.994
   1.099   1.219   1.333   1.415   1.446   1.415   1.333   1.219   1.099   0.994
   0.915   0.860   0.823   0.796   0.777   0.765   0.762   0.766   0.774   0.781
   0.783   0.783
   0.782   0.781   0.774   0.753   0.716   0.676   0.652   0.658   0.697   0.759
   0.827   0.896   0.970   1.064   1.188   1.335   1.478   1.585   1.624   1.585
   1.478   1.335   1.188   1.064   0.970   0.896   0.827   0.759   0.697   0.658
   0.652   0.676   0.716   0.753   0.774   0.781   0.782   0.781   0.774   0.753
   0.716   0.676   0.652   0.658   0.697   0.759   0.827   0.896   0.970   1.064
   1.188   1.335   1.478   1.585   1.624   1.585   1.478   1.335   1.188   1.064
   0.970   0.896   0.827   0.759   0.697   0.658   0.652   0.676   0.716   0.753
   0.774   0.781
   0.891   0.890   0.876   0.827   0.734   0.621   0.535   0.517   0.576   0.686
   0.807   0.913   1.008   1.112   1.244   1.403   1.561   1.678   1.722   1.678
   1.561   1.403   1.244   1.112   1.008   0.913   0.807   0.686   0.576   0.517
   0.535   0.621   0.734   0.827   0.876   0.890   0.891   0.890   0.876   0.827
   0.734   0.621   0.535   0.517   0.576   0.686   0.807   0.913   1.008   1.112
   1.244   1.403   1.561   1.678   1.722   1.678   1.561   1.403   1.244   1.112
   1.008   0.913   0.807   0.686   0.576   0.517   0.535   0.621   0.734   0.827
   0.876   0.890
   1.189   1.197   1.196   1.130   0.973   0.760   0.575   0.494   0.537   0.662
   0.801   0.911   0.994   1.081   1.195   1.333   1.469   1.568   1.604   1.568
   1.469   1.333   1.195   1.081   0.994   0.911   0.801   0.662   0.537   0.494
   0.575   0.760   0.973   1.130   1.196   1.197   1.189   1.197   1.196   1.130
   0.973   0.760   0.575   0.494   0.537   0.662   0.801   0.911   0.994   1.081
   1.195   1.333   1.469   1.568   1.604   1.568   1.469   1.333   1.195   1.081
   0.994   0.911   0.801   0.662   0.537   0.494   0.575   0.760   0.973   1.130
   1.196   1.197
   1.553   1.582   1.621   1.572   1.376   1.078   0.798   0.647   0.651   0.747
   0.847   0.903   0.934   0.979   1.058   1.151   1.226   1.267   1.279   1.267
   1.226   1.151   1.058   0.979   0.934   0.903   0.847   0.747   0.651   0.647
   0.798   1.078   1.376   1.572   1.621   1.582   1.553   1.582   1.621   1.572
   1.376   1.078   0.798   0.647   0.651   0.747   0.847   0.903   0.934   0.979
   1.058   1.151   1.226   1.267   1.279   1.267   1.226   1.151   1.058   0.979
   0.934   0.903   0.847   0.747   0.651   0.647   0.798   1.078   1.376   1.572
   1.621   1.582
   1.758   1.812   1.906   1.899   1.704   1.373   1.053   0.876   0.858   0.908
   0.927   0.892   0.853   0.866   0.926   0.976   0.971   0.929   0.905   0.929
   0.971   0.976   0.926   0.866   0.853   0.892   0.927   0.908   0.858   0.876
   1.053   1.373   1.704   1.899   1.906   1.812   1.758   1.812   1.906   1.899
   1.704   1.373   1.053   0.876   0.858   0.908   0.927   0.892   0.853   0.866
   0.926   0.976   0.971   0.929   0.905   0.929   0.971   0.976   0.926   0.866
   0.853   0.892   0.927   0.908   0.858   0.876   1.053   1.373   1.704   1.899
   1.906   1.812
   1.676   1.746   1.877   1.907   1.739   1.431   1.148   1.015   1.022   1.047
   0.990   0.868   0.782   0.803   0.888   0.926   0.851   0.721   0.657   0.721
   0.851   0.926   0.888   0.803   0.782   0.868   0.990   1.047   1.022   1.015
   1.148   1.431   1.739   1.907   1.877   1.746   1.676   1.746   1.877   1.907
   1.739   1.431   1.148   1.015   1.022   1.047   0.990   0.868   0.782   0.803
   0.888   0.926   0.851   0.721   0.657   0.721   0.851   0.926   0.888   0.803
   0.782   0.868   0.990   1.047   1.022   1.015   1.148   1.431   1.739   1.907
   1.877   1.746
   1.351   1.423   1.562   1.608   1.473   1.225   1.028   0.989   1.063   1.101
   1.008   0.841   0.748   0.814   0.959   1.015   0.897   0.698   0.601   0.698
   0.897   1.015   0.959   0.814   0.748   0.841   1.008   1.101   1.063   0.989
   1.028   1.225   1.473   1.608   1.562   1.423   1.351   1.423   1.562   1.608
   1.473   1.225   1.028   0.989   1.063   1.101   1.008   0.841   0.748   0.814
   0.959   1.015   0.897   0.698   0.601   0.698   0.897   1.015   0.959   0.814
   0.748   0.841   1.008   1.101   1.063   0.989   1.028   1.225   1.473   1.608
   1.562   1.423
   0.935   1.003   1.137   1.197   1.106   0.932   0.826   0.877   1.020   1.097
   1.014   0.850   0.777   0.886   1.078   1.153   1.015   0.777   0.660   0.777
   1.015   1.153   1.078   0.886   0.777   0.850   1.014   1.097   1.020   0.877
   0.826   0.932   1.106   1.197   1.137   1.003   0.935   1.003   1.137   1.197
   1.106   0.932   0.826   0.877   1.020   1.097   1.014   0.850   0.777   0.886
   1.078   1.153   1.015   0.777   0.660   0.777   1.015   1.153   1.078   0.886
   0.777   0.850   1.014   1.097   1.020   0.877   0.826   0.932   1.106   1.197
   1.137   1.003
   0.563   0.632   0.781   0.883   0.862   0.766   0.725   0.820   0.996   1.108
   1.064   0.929   0.872   0.984   1.171   1.237   1.085   0.833   0.711   0.833
   1.085   1.237   1.171   0.984   0.872   0.929   1.064   1.108   0.996   0.820
   0.725   0.766   0.862   0.883   0.781   0.632   0.563   0.632   0.781   0.883
   0.862   0.766   0.725   0.820   0.996   1.108   1.064   0.929   0.872   0.984
   1.171   1.237   1.085   0.833   0.711   0.833   1.085   1.237   1.171   0.984
   0.872   0.929   1.064   1.108   0.996   0.820   0.725   0.766   0.862   0.883
   0.781   0.632
   0.300   0.382   0.571   0.744   0.809   0.784   0.774   0.867   1.038   1.167
   1.161   1.057   0.998   1.072   1.208   1.236   1.069   0.818   0.698   0.818
   1.069   1.236   1.208   1.072   0.998   1.057   1.161   1.167   1.038   0.867
   0.774   0.784   0.809   0.744   0.571   0.382   0.300   0.382   0.571   0.744
   0.809   0.784   0.774   0.867   1.038   1.167   1.161   1.057   0.998   1.072
   1.208   1.236   1.069   0.818   0.698   0.818   1.069   1.236   1.208   1.072
   0.998   1.057   1.161   1.167   1.038   0.867   0.774   0.784   0.809   0.744
   0.571   0.382
   0.168   0.262   0.487   0.718   0.846   0.866   0.865   0.941   1.095   1.228
   1.243   1.157   1.087   1.123   1.211   1.203   1.024   0.776   0.660   0.776
   1.024   1.203   1.211   1.123   1.087   1.157   1.243   1.228   1.095   0.941
   0.865   0.866   0.846   0.718   0.487   0.262   0.168   0.262   0.487   0.718
   0.846   0.866   0.865   0.941   1.095   1.228   1.243   1.157   1.087   1.123
   1.211   1.203   1.024   0.776   0.660   0.776   1.024   1.203   1.211   1.123
   1.087   1.157   1.243   1.228   1.095   0.941   0.865   0.866   0.846   0.718
   0.487   0.262
 200       5.00   72    0 5.00   18    0
   1.523   1.523   1.522   1.522   1.521   1.520   1.519   1.517   1.516   1.515
   1.513   1.512   1.511   1.509   1.508   1.508   1.507   1.507   1.507   1.507
   1.507   1.508   1.508   1.509   1.511   1.512   1.513   1.515   1.516   1.517
   1.519   1.520   1.521   1.522   1.522   1.523   1.523   1.523   1.522   1.522
   1.521   1.520   1.519   1.517   1.516   1.515   1.513   1.512   1.511   1.509
   1.508   1.508   1.507   1.507   1.507   1.507   1.507   1.508   1.508   1.509
   1.511   1.512   1.513   1.515   1.516   1.517   1.519   1.520   1.521   1.522
   1.522   1.523
   1.530   1.529   1.526   1.522   1.515   1.507   1.497   1.487   1.475   1.463
   1.450   1.438   1.426   1.414   1.405   1.397   1.391   1.387   1.386   1.387
   1.391   1.397   1.405   1.414   1.426   1.438   1.450   1.463   1.475   1.487
   1.497   1.507   1.515   1.522   1.526   1.529   1.530   1.529   1.526   1.522
   1.515   1.507   1.497   1.487   1.475   1.463   1.450   1.438   1.426   1.414
   1.405   1.397   1.391   1.387   1.386   1.387   1.391   1.397   1.405   1.414
   1.426   1.438   1.450   1.463   1.475   1.487   1.497   1.507   1.515   1.522
   1.526   1.529
   1.548   1.545   1.538   1.525   1.509   1.488   1.464   1.436   1.406   1.374
   1.341   1.307   1.274   1.242   1.213   1.189   1.170   1.159   1.155   1.159
   1.170   1.189   1.213   1.242   1.274   1.307   1.341   1.374   1.406   1.436
   1.464   1.488   1.509   1.525   1.538   1.545   1.548   1.545   1.538   1.525
   1.509   1.488   1.464   1.436   1.406   1.374   1.341   1.307   1.274   1.242
   1.213   1.189   1.170   1.159   1.155   1.159   1.170   1.189   1.213   1.242
   1.274   1.307   1.341   1.374   1.406   1.436   1.464   1.488   1.509   1.525
   1.538   1.545
   1.593   1.587   1.571   1.545   1.510   1.468   1.421   1.371   1.318   1.262
   1.206   1.148   1.089   1.031   0.976   0.927   0.889   0.864   0.855   0.864
   0.889   0.927   0.976   1.031   1.089   1.148   1.206   1.262   1.318   1.371
   1.421   1.468   1.510   1.545   1.571   1.587   1.593   1.587   1.571   1.545
   1.510   1.468   1.421   1.371   1.318   1.262   1.206   1.148   1.089   1.031
   0.976   0.927   0.889   0.864   0.855   0.864   0.889   0.927   0.976   1.031
   1.089   1.148   1.206   1.262   1.318   1.371   1.421   1.468   1.510   1.545
   1.571   1.587
   1.669   1.659   1.629   1.581   1.519   1.445   1.366   1.285   1.207   1.133
   1.063   0.994   0.922   0.846   0.767   0.690   0.625   0.581   0.565   0.581
   0.625   0.690   0.767   0.846   0.922   0.994   1.063   1.133   1.207   1.285
   1.366   1.445   1.519   1.581   1.629   1.659   1.669   1.659   1.629   1.581
   1.519   1.445   1.366   1.285   1.207   1.133   1.063   0.994   0.922   0.846
   0.767   0.690   0.625   0.581   0.565   0.581   0.625   0.690   0.767   0.846
   0.922   0.994   1.063   1.133   1.207   1.285   1.366   1.445   1.519   1.581
   1.629   1.659
   1.708   1.695   1.656   1.593   1.507   1.405   1.293   1.183   1.083   1.002
   0.939   0.886   0.830   0.760   0.670   0.566   0.468   0.396   0.369   0.396
   0.468   0.566   0.670   0.760   0.830   0.886   0.939   1.002   1.083   1.183
   1.293   1.405   1.507   1.593   1.656   1.695   1.708   1.695   1.656   1.593
   1.507   1.405   1.293   1.183   1.083   1.002   0.939   0.886   0.830   0.760
   0.670   0.566   0.468   0.396   0.369   0.396   0.468   0.566   0.670   0.760
   0.830   0.886   0.939   1.002   1.083   1.183   1.293   1.405   1.507   1.593
   1.656   1.695
   1.574   1.566   1.540   1.494   1.424   1.329   1.214   1.092   0.982   0.906
   0.869   0.861   0.856   0.820   0.733   0.602   0.457   0.343   0.300   0.343
   0.457   0.602   0.733   0.820   0.856   0.861   0.869   0.906   0.982   1.092
   1.214   1.329   1.424   1.494   1.540   1.566   1.574   1.566   1.540   1.494
   1.424   1.329   1.214   1.092   0.982   0.906   0.869   0.861   0.856   0.820
   0.733   0.602   0.457   0.343   0.300   0.343   0.457   0.602   0.733   0.820
   0.856   0.861   0.869   0.906   0.982   1.092   1.214   1.329   1.424   1.494
   1.540   1.566
   1.200   1.204   1.215   1.227   1.230   1.205   1.141   1.043   0.941   0.875
   0.870   0.921   0.984   1.001   0.928   0.763   0.557   0.386   0.320   0.386
   0.557   0.763   0.928   1.001   0.984   0.921   0.870   0.875   0.941   1.043
   1.141   1.205   1.230   1.227   1.215   1.204   1.200   1.204   1.215   1.227
   1.230   1.205   1.141   1.043   0.941   0.875   0.870   0.921   0.984   1.001
   0.928   0.763   0.557   0.386   0.320   0.386   0.557   0.763   0.928   1.001
   0.984   0.921   0.870   0.875   0.941   1.043   1.141   1.205   1.230   1.227
   1.215   1.204
   0.717   0.728   0.768   0.843   0.944   1.034   1.071   1.035   0.956   0.895
   0.908   1.005   1.133   1.202   1.141   0.943   0.673   0.442   0.352   0.442
   0.673   0.943   1.141   1.202   1.133   1.005   0.908   0.895   0.956   1.035
   1.071   1.034   0.944   0.843   0.768   0.728   0.717   0.728   0.768   0.843
   0.944   1.034   1.071   1.035   0.956   0.895   0.908   1.005   1.133   1.202
   1.141   0.943   0.673   0.442   0.352   0.442   0.673   0.943   1.141   1.202
   1.133   1.005   0.908   0.895   0.956   1.035   1.071   1.034   0.944   0.843
   0.768   0.728
   0.402   0.400   0.415   0.493   0.649   0.840   0.986   1.028   0.979   0.914
   0.922   1.035   1.195   1.296   1.245   1.027   0.721   0.457   0.354   0.457
   0.721   1.027   1.245   1.296   1.195   1.035   0.922   0.914   0.979   1.028
   0.986   0.840   0.649   0.493   0.415   0.400   0.402   0.400   0.415   0.493
   0.649   0.840   0.986   1.028   0.979   0.914   0.922   1.035   1.195   1.296
   1.245   1.027   0.721   0.457   0.354   0.457   0.721   1.027   1.245   1.296
   1.195   1.035   0.922   0.914   0.979   1.028   0.986   0.840   0.649   0.493
   0.415   0.400
   0.437   0.399   0.329   0.325   0.450   0.673   0.888   0.994   0.973   0.902
   0.887   0.978   1.127   1.224   1.176   0.972   0.688   0.445   0.351   0.445
   0.688   0.972   1.176   1.224   1.127   0.978   0.887   0.902   0.973   0.994
   0.888   0.673   0.450   0.325   0.329   0.399   0.437   0.399   0.329   0.325
   0.450   0.673   0.888   0.994   0.973   0.902   0.887   0.978   1.127   1.224
   1.176   0.972   0.688   0.445   0.351   0.445   0.688   0.972   1.176   1.224
   1.127   0.978   0.887   0.902   0.973   0.994   0.888   0.673   0.450   0.325
   0.329   0.399
   0.713   0.641   0.482   0.371   0.410   0.593   0.815   0.954   0.962   0.895
   0.853   0.893   0.984   1.041   0.993   0.838   0.636   0.471   0.408   0.471
   0.636   0.838   0.993   1.041   0.984   0.893   0.853   0.895   0.962   0.954
   0.815   0.593   0.410   0.371   0.482   0.641   0.713   0.641   0.482   0.371
   0.410   0.593   0.815   0.954   0.962   0.895   0.853   0.893   0.984   1.041
   0.993   0.838   0.636   0.471   0.408   0.471   0.636   0.838   0.993   1.041
   0.984   0.893   0.853   0.895   0.962   0.954   0.815   0.593   0.410   0.371
   0.482   0.641
   0.923   0.855   0.696   0.553   0.524   0.633   0.814   0.961   1.008   0.965
   0.899   0.868   0.875   0.876   0.835   0.750   0.654   0.582   0.557   0.582
   0.654   0.750   0.835   0.876   0.875   0.868   0.899   0.965   1.008   0.961
   0.814   0.633   0.524   0.553   0.696   0.855   0.923   0.855   0.696   0.553
   0.524   0.633   0.814   0.961   1.008   0.965   0.899   0.868   0.875   0.876
   0.835   0.750   0.654   0.582   0.557   0.582   0.654   0.750   0.835   0.876
   0.875   0.868   0.899   0.965   1.008   0.961   0.814   0.633   0.524   0.553
   0.696   0.855
   0.866   0.860   0.834   0.788   0.751   0.775   0.881   1.027   1.127   1.126
   1.038   0.930   0.858   0.833   0.827   0.813   0.786   0.759   0.748   0.759
   0.786   0.813   0.827   0.833   0.858   0.930   1.038   1.126   1.127   1.027
   0.881   0.775   0.751   0.788   0.834   0.860   0.866   0.860   0.834   0.788
   0.751   0.775   0.881   1.027   1.127   1.126   1.038   0.930   0.858   0.833
   0.827   0.813   0.786   0.759   0.748   0.759   0.786   0.813   0.827   0.833
   0.858   0.930   1.038   1.126   1.127   1.027   0.881   0.775   0.751   0.788
   0.834   0.860
   0.639   0.736   0.939   1.070   1.047   0.958   0.956   1.090   1.254   1.301
   1.184   1.002   0.895   0.917   1.003   1.049   1.008   0.925   0.884   0.925
   1.008   1.049   1.003   0.917   0.895   1.002   1.184   1.301   1.254   1.090
   0.956   0.958   1.047   1.070   0.939   0.736   0.639   0.736   0.939   1.070
   1.047   0.958   0.956   1.090   1.254   1.301   1.184   1.002   0.895   0.917
   1.003   1.049   1.008   0.925   0.884   0.925   1.008   1.049   1.003   0.917
   0.895   1.002   1.184   1.301   1.254   1.090   0.956   0.958   1.047   1.070
   0.939   0.736
   0.500   0.705   1.137   1.424   1.368   1.113   0.965   1.074   1.300   1.384
   1.228   0.987   0.902   1.054   1.293   1.388   1.250   1.013   0.898   1.013
   1.250   1.388   1.293   1.054   0.902   0.987   1.228   1.384   1.300   1.074
   0.965   1.113   1.368   1.424   1.137   0.705   0.500   0.705   1.137   1.424
   1.368   1.113   0.965   1.074   1.300   1.384   1.228   0.987   0.902   1.054
   1.293   1.388   1.250   1.013   0.898   1.013   1.250   1.388   1.293   1.054
   0.902   0.987   1.228   1.384   1.300   1.074   0.965   1.113   1.368   1.424
   1.137   0.705
   0.568   0.851   1.439   1.802   1.655   1.205   0.901   0.977   1.248   1.354
   1.156   0.876   0.850   1.169   1.576   1.708   1.443   1.017   0.814   1.017
   1.443   1.708   1.576   1.169   0.850   0.876   1.156   1.354   1.248   0.977
   0.901   1.205   1.655   1.802   1.439   0.851   0.568   0.851   1.439   1.802
   1.655   1.205   0.901   0.977   1.248   1.354   1.156   0.876   0.850   1.169
   1.576   1.708   1.443   1.017   0.814   1.017   1.443   1.708   1.576   1.169
   0.850   0.876   1.156   1.354   1.248   0.977   0.901   1.205   1.655   1.802
   1.439   0.851
   0.702   1.023   1.681   2.059   1.828   1.241   0.833   0.883   1.177   1.291
   1.066   0.767   0.790   1.226   1.746   1.900   1.545   0.992   0.730   0.992
   1.545   1.900   1.746   1.226   0.790   0.767   1.066   1.291   1.177   0.883
   0.833   1.241   1.828   2.059   1.681   1.023   0.702   1.023   1.681   2.059
   1.828   1.241   0.833   0.883   1.177   1.291   1.066   0.767   0.790   1.226
   1.746   1.900   1.545   0.992   0.730   0.992   1.545   1.900   1.746   1.226
   0.790   0.767   1.066   1.291   1.177   0.883   0.833   1.241   1.828   2.059
   1.681   1.023
 111       5.00   72    0 5.00   18    0
   0.376   0.376   0.376   0.376   0.376   0.375   0.375   0.375   0.374   0.374
   0.373   0.373   0.373   0.372   0.372   0.371   0.371   0.371   0.371   0.371
   0.371   0.371   0.372   0.372   0.373   0.373   0.373   0.374   0.374   0.375
   0.375   0.375   0.376   0.376   0.376   0.376   0.376   0.376   0.376   0.376
   0.376   0.375   0.375   0.375   0.374   0.374   0.373   0.373   0.373   0.372
   0.372   0.371   0.371   0.371   0.371   0.371   0.371   0.371   0.372   0.372
   0.373   0.373   0.373   0.374   0.374   0.375   0.375   0.375   0.376   0.376
   0.376   0.376
   0.444   0.444   0.444   0.444   0.443   0.441   0.439   0.436   0.432   0.427
   0.421   0.415   0.408   0.401   0.395   0.390   0.386   0.383   0.382   0.383
   0.386   0.390   0.395   0.401   0.408   0.415   0.421   0.427   0.432   0.436
   0.439   0.441   0.443   0.444   0.444   0.444   0.444   0.444   0.444   0.444
   0.443   0.441   0.439   0.436   0.432   0.427   0.421   0.415   0.408   0.401
   0.395   0.390   0.386   0.383   0.382   0.383   0.386   0.390   0.395   0.401
   0.408   0.415   0.421   0.427   0.432   0.436   0.439   0.441   0.443   0.444
   0.444   0.444
   0.610   0.611   0.612   0.613   0.613   0.612   0.607   0.599   0.586   0.568
   0.545   0.518   0.488   0.457   0.427   0.401   0.381   0.368   0.363   0.368
   0.381   0.401   0.427   0.457   0.488   0.518   0.545   0.568   0.586   0.599
   0.607   0.612   0.613   0.613   0.612   0.611   0.610   0.611   0.612   0.613
   0.613   0.612   0.607   0.599   0.586   0.568   0.545   0.518   0.488   0.457
   0.427   0.401   0.381   0.368   0.363   0.368   0.381   0.401   0.427   0.457
   0.488   0.518   0.545   0.568   0.586   0.599   0.607   0.612   0.613   0.613
   0.612   0.611
   0.899   0.900   0.902   0.905   0.905   0.902   0.891   0.871   0.840   0.797
   0.743   0.678   0.606   0.531   0.457   0.391   0.338   0.304   0.293   0.304
   0.338   0.391   0.457   0.531   0.606   0.678   0.743   0.797   0.840   0.871
   0.891   0.902   0.905   0.905   0.902   0.900   0.899   0.900   0.902   0.905
   0.905   0.902   0.891   0.871   0.840   0.797   0.743   0.678   0.606   0.531
   0.457   0.391   0.338   0.304   0.293   0.304   0.338   0.391   0.457   0.531
   0.606   0.678   0.743   0.797   0.840   0.871   0.891   0.902   0.905   0.905
   0.902   0.900
   1.266   1.267   1.268   1.268   1.263   1.247   1.219   1.177   1.118   1.043
   0.954   0.851   0.738   0.617   0.498   0.387   0.298   0.239   0.218   0.239
   0.298   0.387   0.498   0.617   0.738   0.851   0.954   1.043   1.118   1.177
   1.219   1.247   1.263   1.268   1.268   1.267   1.266   1.267   1.268   1.268
   1.263   1.247   1.219   1.177   1.118   1.043   0.954   0.851   0.738   0.617
   0.498   0.387   0.298   0.239   0.218   0.239   0.298   0.387   0.498   0.617
   0.738   0.851   0.954   1.043   1.118   1.177   1.219   1.247   1.263   1.268
   1.268   1.267
   1.551   1.553   1.558   1.561   1.552   1.526   1.478   1.406   1.316   1.213
   1.101   0.983   0.858   0.725   0.587   0.453   0.338   0.260   0.232   0.260
   0.338   0.453   0.587   0.725   0.858   0.983   1.101   1.213   1.316   1.406
   1.478   1.526   1.552   1.561   1.558   1.553   1.551   1.553   1.558   1.561
   1.552   1.526   1.478   1.406   1.316   1.213   1.101   0.983   0.858   0.725
   0.587   0.453   0.338   0.260   0.232   0.260   0.338   0.453   0.587   0.725
   0.858   0.983   1.101   1.213   1.316   1.406   1.478   1.526   1.552   1.561
   1.558   1.553
   1.550   1.560   1.587   1.619   1.641   1.635   1.591   1.507   1.396   1.275
   1.163   1.064   0.973   0.875   0.761   0.634   0.512   0.423   0.390   0.423
   0.512   0.634   0.761   0.875   0.973   1.064   1.163   1.275   1.396   1.507
   1.591   1.635   1.641   1.619   1.587   1.560   1.550   1.560   1.587   1.619
   1.641   1.635   1.591   1.507   1.396   1.275   1.163   1.064   0.973   0.875
   0.761   0.634   0.512   0.423   0.390   0.423   0.512   0.634   0.761   0.875
   0.973   1.064   1.163   1.275   1.396   1.507   1.591   1.635   1.641   1.619
   1.587   1.560
   1.198   1.221   1.289   1.388   1.491   1.564   1.577   1.520   1.411   1.288
   1.191   1.135   1.107   1.076   1.011   0.906   0.784   0.685   0.647   0.685
   0.784   0.906   1.011   1.076   1.107   1.135   1.191   1.288   1.411   1.520
   1.577   1.564   1.491   1.388   1.289   1.221   1.198   1.221   1.289   1.388
   1.491   1.564   1.577   1.520   1.411   1.288   1.191   1.135   1.107   1.076
   1.011   0.906   0.784   0.685   0.647   0.685   0.784   0.906   1.011   1.076
   1.107   1.135   1.191   1.288   1.411   1.520   1.577   1.564   1.491   1.388
   1.289   1.221
   0.687   0.721   0.824   0.992   1.199   1.390   1.506   1.515   1.433   1.321
   1.244   1.232   1.266   1.295   1.269   1.174   1.042   0.928   0.883   0.928
   1.042   1.174   1.269   1.295   1.266   1.232   1.244   1.321   1.433   1.515
   1.506   1.390   1.199   0.992   0.824   0.721   0.687   0.721   0.824   0.992
   1.199   1.390   1.506   1.515   1.433   1.321   1.244   1.232   1.266   1.295
   1.269   1.174   1.042   0.928   0.883   0.928   1.042   1.174   1.269   1.295
   1.266   1.232   1.244   1.321   1.433   1.515   1.506   1.390   1.199   0.992
   0.824   0.721
   0.351   0.377   0.471   0.656   0.924   1.211   1.425   1.505   1.462   1.371
   1.319   1.344   1.415   1.466   1.439   1.328   1.177   1.050   1.001   1.050
   1.177   1.328   1.439   1.466   1.415   1.344   1.319   1.371   1.462   1.505
   1.425   1.211   0.924   0.656   0.471   0.377   0.351   0.377   0.471   0.656
   0.924   1.211   1.425   1.505   1.462   1.371   1.319   1.344   1.415   1.466
   1.439   1.328   1.177   1.050   1.001   1.050   1.177   1.328   1.439   1.466
   1.415   1.344   1.319   1.371   1.462   1.505   1.425   1.211   0.924   0.656
   0.471   0.377
   0.366   0.367   0.401   0.530   0.774   1.075   1.322   1.437   1.424   1.368
   1.358   1.420   1.503   1.532   1.464   1.320   1.161   1.043   1.001   1.043
   1.161   1.320   1.464   1.532   1.503   1.420   1.358   1.368   1.424   1.437
   1.322   1.075   0.774   0.530   0.401   0.367   0.366   0.367   0.401   0.530
   0.774   1.075   1.322   1.437   1.424   1.368   1.358   1.420   1.503   1.532
   1.464   1.320   1.161   1.043   1.001   1.043   1.161   1.320   1.464   1.532
   1.503   1.420   1.358   1.368   1.424   1.437   1.322   1.075   0.774   0.530
   0.401   0.367
   0.579   0.557   0.532   0.580   0.743   0.974   1.171   1.263   1.265   1.257
   1.312   1.421   1.504   1.487   1.363   1.196   1.061   0.989   0.968   0.989
   1.061   1.196   1.363   1.487   1.504   1.421   1.312   1.257   1.265   1.263
   1.171   0.974   0.743   0.580   0.532   0.557   0.579   0.557   0.532   0.580
   0.743   0.974   1.171   1.263   1.265   1.257   1.312   1.421   1.504   1.487
   1.363   1.196   1.061   0.989   0.968   0.989   1.061   1.196   1.363   1.487
   1.504   1.421   1.312   1.257   1.265   1.263   1.171   0.974   0.743   0.580
   0.532   0.557
   0.680   0.666   0.648   0.673   0.764   0.887   0.983   1.018   1.024   1.072
   1.194   1.344   1.423   1.368   1.212   1.056   0.978   0.974   0.984   0.974
   0.978   1.056   1.212   1.368   1.423   1.344   1.194   1.072   1.024   1.018
   0.983   0.887   0.764   0.673   0.648   0.666   0.680   0.666   0.648   0.673
   0.764   0.887   0.983   1.018   1.024   1.072   1.194   1.344   1.423   1.368
   1.212   1.056   0.978   0.974   0.984   0.974   0.978   1.056   1.212   1.368
   1.423   1.344   1.194   1.072   1.024   1.018   0.983   0.887   0.764   0.673
   0.648   0.666
   0.558   0.588   0.663   0.746   0.803   0.823   0.812   0.798   0.819   0.906
   1.053   1.200   1.266   1.211   1.084   0.981   0.967   1.014   1.043   1.014
   0.967   0.981   1.084   1.211   1.266   1.200   1.053   0.906   0.819   0.798
   0.812   0.823   0.803   0.746   0.663   0.588   0.558   0.588   0.663   0.746
   0.803   0.823   0.812   0.798   0.819   0.906   1.053   1.200   1.266   1.211
   1.084   0.981   0.967   1.014   1.043   1.014   0.967   0.981   1.084   1.211
   1.266   1.200   1.053   0.906   0.819   0.798   0.812   0.823   0.803   0.746
   0.663   0.588
   0.442   0.531   0.728   0.883   0.903   0.814   0.719   0.694   0.747   0.834
   0.920   0.987   1.023   1.024   1.003   0.991   1.011   1.050   1.070   1.050
   1.011   0.991   1.003   1.024   1.023   0.987   0.920   0.834   0.747   0.694
   0.719   0.814   0.903   0.883   0.728   0.531   0.442   0.531   0.728   0.883
   0.903   0.814   0.719   0.694   0.747   0.834   0.920   0.987   1.023   1.024
   1.003   0.991   1.011   1.050   1.070   1.050   1.011   0.991   1.003   1.024
   1.023   0.987   0.920   0.834   0.747   0.694   0.719   0.814   0.903   0.883
   0.728   0.531
   0.640   0.771   1.038   1.194   1.109   0.880   0.715   0.718   0.815   0.860
   0.799   0.708   0.700   0.804   0.952   1.049   1.058   1.019   0.996   1.019
   1.058   1.049   0.952   0.804   0.700   0.708   0.799   0.860   0.815   0.718
   0.715   0.880   1.109   1.194   1.038   0.771   0.640   0.771   1.038   1.194
   1.109   0.880   0.715   0.718   0.815   0.860   0.799   0.708   0.700   0.804
   0.952   1.049   1.058   1.019   0.996   1.019   1.058   1.049   0.952   0.804
   0.700   0.708   0.799   0.860   0.815   0.718   0.715   0.880   1.109   1.194
   1.038   0.771
   1.153   1.293   1.555   1.627   1.377   0.989   0.763   0.807   0.948   0.929
   0.691   0.422   0.366   0.586   0.911   1.106   1.076   0.926   0.847   0.926
   1.076   1.106   0.911   0.586   0.366   0.422   0.691   0.929   0.948   0.807
   0.763   0.989   1.377   1.627   1.555   1.293   1.153   1.293   1.555   1.627
   1.377   0.989   0.763   0.807   0.948   0.929   0.691   0.422   0.366   0.586
   0.911   1.106   1.076   0.926   0.847   0.926   1.076   1.106   0.911   0.586
   0.366   0.422   0.691   0.929   0.948   0.807   0.763   0.989   1.377   1.627
   1.555   1.293
   1.604   1.740   1.968   1.952   1.572   1.072   0.806   0.879   1.046   0.980
   0.621   0.234   0.149   0.444   0.883   1.137   1.073   0.844   0.725   0.844
   1.073   1.137   0.883   0.444   0.149   0.234   0.621   0.980   1.046   0.879
   0.806   1.072   1.572   1.952   1.968   1.740   1.604   1.740   1.968   1.952
   1.572   1.072   0.806   0.879   1.046   0.980   0.621   0.234   0.149   0.444
   0.883   1.137   1.073   0.844   0.725   0.844   1.073   1.137   0.883   0.444
   0.149   0.234   0.621   0.980   1.046   0.879   0.806   1.072   1.572   1.952
   1.968   1.740
 311       5.00   72    0 5.00   18    0
   1.141   1.141   1.141   1.142   1.144   1.145   1.147   1.149   1.151   1.153
   1.156   1.158   1.160   1.162   1.163   1.164   1.165   1.166   1.166   1.166
   1.165   1.164   1.163   1.162   1.160   1.158   1.156   1.153   1.151   1.149
   1.147   1.145   1.144   1.142   1.141   1.141   1.141   1.141   1.141   1.142
   1.144   1.145   1.147   1.149   1.151   1.153   1.156   1.158   1.160   1.162
   1.163   1.164   1.165   1.166   1.166   1.166   1.165   1.164   1.163   1.162
   1.160   1.158   1.156   1.153   1.151   1.149   1.147   1.145   1.144   1.142
   1.141   1.141
   0.996   0.998   1.003   1.012   1.023   1.037   1.052   1.069   1.086   1.103
   1.120   1.136   1.150   1.162   1.173   1.181   1.187   1.191   1.192   1.191
   1.187   1.181   1.173   1.162   1.150   1.136   1.120   1.103   1.086   1.069
   1.052   1.037   1.023   1.012   1.003   0.998   0.996   0.998   1.003   1.012
   1.023   1.037   1.052   1.069   1.086   1.103   1.120   1.136   1.150   1.162
   1.173   1.181   1.187   1.191   1.192   1.191   1.187   1.181   1.173   1.162
   1.150   1.136   1.120   1.103   1.086   1.069   1.052   1.037   1.023   1.012
   1.003   0.998
   0.814   0.819   0.832   0.853   0.880   0.913   0.949   0.986   1.024   1.060
   1.093   1.122   1.146   1.166   1.180   1.191   1.198   1.202   1.204   1.202
   1.198   1.191   1.180   1.166   1.146   1.122   1.093   1.060   1.024   0.986
   0.949   0.913   0.880   0.853   0.832   0.819   0.814   0.819   0.832   0.853
   0.880   0.913   0.949   0.986   1.024   1.060   1.093   1.122   1.146   1.166
   1.180   1.191   1.198   1.202   1.204   1.202   1.198   1.191   1.180   1.166
   1.146   1.122   1.093   1.060   1.024   0.986   0.949   0.913   0.880   0.853
   0.832   0.819
   0.737   0.743   0.762   0.792   0.831   0.877   0.927   0.978   1.027   1.071
   1.107   1.135   1.154   1.165   1.169   1.168   1.164   1.161   1.160   1.161
   1.164   1.168   1.169   1.165   1.154   1.135   1.107   1.071   1.027   0.978
   0.927   0.877   0.831   0.792   0.762   0.743   0.737   0.743   0.762   0.792
   0.831   0.877   0.927   0.978   1.027   1.071   1.107   1.135   1.154   1.165
   1.169   1.168   1.164   1.161   1.160   1.161   1.164   1.168   1.169   1.165
   1.154   1.135   1.107   1.071   1.027   0.978   0.927   0.877   0.831   0.792
   0.762   0.743
   0.833   0.838   0.855   0.881   0.915   0.955   0.998   1.041   1.080   1.114
   1.139   1.153   1.155   1.146   1.128   1.106   1.084   1.069   1.063   1.069
   1.084   1.106   1.128   1.146   1.155   1.153   1.139   1.114   1.080   1.041
   0.998   0.955   0.915   0.881   0.855   0.838   0.833   0.838   0.855   0.881
   0.915   0.955   0.998   1.041   1.080   1.114   1.139   1.153   1.155   1.146
   1.128   1.106   1.084   1.069   1.063   1.069   1.084   1.106   1.128   1.146
   1.155   1.153   1.139   1.114   1.080   1.041   0.998   0.955   0.915   0.881
   0.855   0.838
   1.031   1.033   1.039   1.048   1.060   1.074   1.090   1.104   1.117   1.126
   1.131   1.129   1.118   1.095   1.063   1.026   0.990   0.965   0.955   0.965
   0.990   1.026   1.063   1.095   1.118   1.129   1.131   1.126   1.117   1.104
   1.090   1.074   1.060   1.048   1.039   1.033   1.031   1.033   1.039   1.048
   1.060   1.074   1.090   1.104   1.117   1.126   1.131   1.129   1.118   1.095
   1.063   1.026   0.990   0.965   0.955   0.965   0.990   1.026   1.063   1.095
   1.118   1.129   1.131   1.126   1.117   1.104   1.090   1.074   1.060   1.048
   1.039   1.033
   1.168   1.166   1.160   1.153   1.146   1.138   1.126   1.110   1.091   1.072
   1.058   1.048   1.037   1.020   0.993   0.957   0.919   0.890   0.879   0.890
   0.919   0.957   0.993   1.020   1.037   1.048   1.058   1.072   1.091   1.110
   1.126   1.138   1.146   1.153   1.160   1.166   1.168   1.166   1.160   1.153
   1.146   1.138   1.126   1.110   1.091   1.072   1.058   1.048   1.037   1.020
   0.993   0.957   0.919   0.890   0.879   0.890   0.919   0.957   0.993   1.020
   1.037   1.048   1.058   1.072   1.091   1.110   1.126   1.138   1.146   1.153
   1.160   1.166
   1.134   1.129   1.118   1.108   1.103   1.101   1.091   1.066   1.029   0.989
   0.959   0.944   0.942   0.942   0.933   0.912   0.882   0.858   0.848   0.858
   0.882   0.912   0.933   0.942   0.942   0.944   0.959   0.989   1.029   1.066
   1.091   1.101   1.103   1.108   1.118   1.129   1.134   1.129   1.118   1.108
   1.103   1.101   1.091   1.066   1.029   0.989   0.959   0.944   0.942   0.942
   0.933   0.912   0.882   0.858   0.848   0.858   0.882   0.912   0.933   0.942
   0.942   0.944   0.959   0.989   1.029   1.066   1.091   1.101   1.103   1.108
   1.118   1.129
   0.984   0.975   0.958   0.952   0.970   1.004   1.032   1.030   0.995   0.943
   0.898   0.875   0.875   0.885   0.889   0.881   0.866   0.851   0.845   0.851
   0.866   0.881   0.889   0.885   0.875   0.875   0.898   0.943   0.995   1.030
   1.032   1.004   0.970   0.952   0.958   0.975   0.984   0.975   0.958   0.952
   0.970   1.004   1.032   1.030   0.995   0.943   0.898   0.875   0.875   0.885
   0.889   0.881   0.866   0.851   0.845   0.851   0.866   0.881   0.889   0.885
   0.875   0.875   0.898   0.943   0.995   1.030   1.032   1.004   0.970   0.952
   0.958   0.975
   0.887   0.868   0.831   0.817   0.852   0.928   1.003   1.038   1.017   0.963
   0.907   0.872   0.859   0.856   0.854   0.853   0.855   0.860   0.862   0.860
   0.855   0.853   0.854   0.856   0.859   0.872   0.907   0.963   1.017   1.038
   1.003   0.928   0.852   0.817   0.831   0.868   0.887   0.868   0.831   0.817
   0.852   0.928   1.003   1.038   1.017   0.963   0.907   0.872   0.859   0.856
   0.854   0.853   0.855   0.860   0.862   0.860   0.855   0.853   0.854   0.856
   0.859   0.872   0.907   0.963   1.017   1.038   1.003   0.928   0.852   0.817
   0.831   0.868
   0.940   0.908   0.840   0.799   0.828   0.918   1.017   1.069   1.059   1.011
   0.960   0.921   0.889   0.856   0.831   0.830   0.860   0.901   0.919   0.901
   0.860   0.830   0.831   0.856   0.889   0.921   0.960   1.011   1.059   1.069
   1.017   0.918   0.828   0.799   0.840   0.908   0.940   0.908   0.840   0.799
   0.828   0.918   1.017   1.069   1.059   1.011   0.960   0.921   0.889   0.856
   0.831   0.830   0.860   0.901   0.919   0.901   0.860   0.830   0.831   0.856
   0.889   0.921   0.960   1.011   1.059   1.069   1.017   0.918   0.828   0.799
   0.840   0.908
   1.062   1.023   0.939   0.878   0.888   0.961   1.040   1.076   1.064   1.032
   1.008   0.988   0.948   0.884   0.830   0.833   0.905   0.998   1.040   0.998
   0.905   0.833   0.830   0.884   0.948   0.988   1.008   1.032   1.064   1.076
   1.040   0.961   0.888   0.878   0.939   1.023   1.062   1.023   0.939   0.878
   0.888   0.961   1.040   1.076   1.064   1.032   1.008   0.988   0.948   0.884
   0.830   0.833   0.905   0.998   1.040   0.998   0.905   0.833   0.830   0.884
   0.948   0.988   1.008   1.032   1.064   1.076   1.040   0.961   0.888   0.878
   0.939   1.023
   1.076   1.049   0.991   0.951   0.959   1.002   1.038   1.039   1.019   1.011
   1.030   1.046   1.015   0.934   0.864   0.879   0.995   1.139   1.204   1.139
   0.995   0.879   0.864   0.934   1.015   1.046   1.030   1.011   1.019   1.039
   1.038   1.002   0.959   0.951   0.991   1.049   1.076   1.049   0.991   0.951
   0.959   1.002   1.038   1.039   1.019   1.011   1.030   1.046   1.015   0.934
   0.864   0.879   0.995   1.139   1.204   1.139   0.995   0.879   0.864   0.934
   1.015   1.046   1.030   1.011   1.019   1.039   1.038   1.002   0.959   0.951
   0.991   1.049
   0.931   0.932   0.939   0.957   0.983   1.005   1.005   0.985   0.970   0.987
   1.038   1.079   1.064   0.991   0.928   0.956   1.093   1.258   1.331   1.258
   1.093   0.956   0.928   0.991   1.064   1.079   1.038   0.987   0.970   0.985
   1.005   1.005   0.983   0.957   0.939   0.932   0.931   0.932   0.939   0.957
   0.983   1.005   1.005   0.985   0.970   0.987   1.038   1.079   1.064   0.991
   0.928   0.956   1.093   1.258   1.331   1.258   1.093   0.956   0.928   0.991
   1.064   1.079   1.038   0.987   0.970   0.985   1.005   1.005   0.983   0.957
   0.939   0.932
   0.778   0.807   0.874   0.937   0.967   0.967   0.959   0.960   0.977   1.011
   1.051   1.078   1.068   1.025   0.993   1.028   1.140   1.270   1.327   1.270
   1.140   1.028   0.993   1.025   1.068   1.078   1.051   1.011   0.977   0.960
   0.959   0.967   0.967   0.937   0.874   0.807   0.778   0.807   0.874   0.937
   0.967   0.967   0.959   0.960   0.977   1.011   1.051   1.078   1.068   1.025
   0.993   1.028   1.140   1.270   1.327   1.270   1.140   1.028   0.993   1.025
   1.068   1.078   1.051   1.011   0.977   0.960   0.959   0.967   0.967   0.937
   0.874   0.807
   0.817   0.856   0.934   0.978   0.958   0.918   0.921   0.983   1.058   1.093
   1.076   1.039   1.014   1.014   1.032   1.063   1.105   1.145   1.161   1.145
   1.105   1.063   1.032   1.014   1.014   1.039   1.076   1.093   1.058   0.983
   0.921   0.918   0.958   0.978   0.934   0.856   0.817   0.856   0.934   0.978
   0.958   0.918   0.921   0.983   1.058   1.093   1.076   1.039   1.014   1.014
   1.032   1.063   1.105   1.145   1.161   1.145   1.105   1.063   1.032   1.014
   1.014   1.039   1.076   1.093   1.058   0.983   0.921   0.918   0.958   0.978
   0.934   0.856
   1.063   1.092   1.129   1.094   0.980   0.881   0.901   1.037   1.174   1.199
   1.102   0.977   0.926   0.967   1.036   1.058   1.014   0.945   0.913   0.945
   1.014   1.058   1.036   0.967   0.926   0.977   1.102   1.199   1.174   1.037
   0.901   0.881   0.980   1.094   1.129   1.092   1.063   1.092   1.129   1.094
   0.980   0.881   0.901   1.037   1.174   1.199   1.102   0.977   0.926   0.967
   1.036   1.058   1.014   0.945   0.913   0.945   1.014   1.058   1.036   0.967
   0.926   0.977   1.102   1.199   1.174   1.037   0.901   0.881   0.980   1.094
   1.129   1.092
   1.300   1.315   1.308   1.201   1.009   0.865   0.894   1.079   1.257   1.272
   1.117   0.930   0.858   0.925   1.026   1.041   0.938   0.796   0.731   0.796
   0.938   1.041   1.026   0.925   0.858   0.930   1.117   1.272   1.257   1.079
   0.894   0.865   1.009   1.201   1.308   1.315   1.300   1.315   1.308   1.201
   1.009   0.865   0.894   1.079   1.257   1.272   1.117   0.930   0.858   0.925
   1.026   1.041   0.938   0.796   0.731   0.796   0.938   1.041   1.026   0.925
   0.858   0.930   1.117   1.272   1.257   1.079   0.894   0.865   1.009   1.201
   1.308   1.315
TEXTURE_INDEX=   1.4605
ERR_CF 220         1080     576   35.55   25.21
ERR_CF 200         1080     508   29.99   21.18
ERR_CF 111         1080     376   25.48   23.02
