TEXEVAL                                                                         
Analysis started on 21-Oct-19 09:54:25                                          
 LMAX=14LFMAX=03 CUBIC ORTHO   
 220      5.00 5.00
 200      5.00 5.00
 111      5.00 5.00
 220       5.00   72    0 5.00   15    0
   2.905   2.905   2.905   2.905   2.905   2.905   2.905   2.905   2.905   2.905
   2.905   2.905   2.905   2.905   2.905   2.905   2.905   2.905   2.905   2.905
   2.905   2.905   2.905   2.905   2.905   2.905   2.905   2.905   2.905   2.905
   2.905   2.905   2.905   2.905   2.905   2.905   2.905   2.905   2.905   2.905
   2.905   2.905   2.905   2.905   2.905   2.905   2.905   2.905   2.905   2.905
   2.905   2.905   2.905   2.905   2.905   2.905   2.905   2.905   2.905   2.905
   2.905   2.905   2.905   2.905   2.905   2.905   2.905   2.905   2.905   2.905
   2.905   2.905
   1.492   1.563   1.687   2.257   1.827   1.708   1.951   1.913   2.027   1.799
   1.802   1.977   2.114   1.481   1.976   2.156   2.573   2.617   1.892   2.617
   2.573   2.156   1.976   1.481   2.114   1.977   1.802   1.799   2.027   1.913
   1.951   1.708   1.827   2.257   1.687   1.563   1.492   1.563   1.687   2.257
   1.827   1.708   1.951   1.913   2.027   1.799   1.802   1.977   2.114   1.481
   1.976   2.156   2.573   2.617   1.892   2.617   2.573   2.156   1.976   1.481
   2.114   1.977   1.802   1.799   2.027   1.913   1.951   1.708   1.827   2.257
   1.687   1.563
   1.045   1.219   1.057   1.616   1.052   1.509   1.915   1.687   1.454   1.539
   1.271   1.763   1.709   1.857   1.864   2.093   2.343   2.922   2.432   2.922
   2.343   2.093   1.864   1.857   1.709   1.763   1.271   1.539   1.454   1.687
   1.915   1.509   1.052   1.616   1.057   1.219   1.045   1.219   1.057   1.616
   1.052   1.509   1.915   1.687   1.454   1.539   1.271   1.763   1.709   1.857
   1.864   2.093   2.343   2.922   2.432   2.922   2.343   2.093   1.864   1.857
   1.709   1.763   1.271   1.539   1.454   1.687   1.915   1.509   1.052   1.616
   1.057   1.219
   0.801   1.040   0.857   1.034   0.821   0.901   1.216   1.202   1.105   1.392
   1.277   1.513   1.619   2.225   1.789   2.230   2.139   2.362   2.448   2.362
   2.139   2.230   1.789   2.225   1.619   1.513   1.277   1.392   1.105   1.202
   1.216   0.901   0.821   1.034   0.857   1.040   0.801   1.040   0.857   1.034
   0.821   0.901   1.216   1.202   1.105   1.392   1.277   1.513   1.619   2.225
   1.789   2.230   2.139   2.362   2.448   2.362   2.139   2.230   1.789   2.225
   1.619   1.513   1.277   1.392   1.105   1.202   1.216   0.901   0.821   1.034
   0.857   1.040
   0.585   0.629   0.729   0.836   0.789   0.684   0.789   1.005   1.067   1.150
   1.032   1.233   1.445   1.874   1.864   2.061   1.920   1.963   2.341   1.963
   1.920   2.061   1.864   1.874   1.445   1.233   1.032   1.150   1.067   1.005
   0.789   0.684   0.789   0.836   0.729   0.629   0.585   0.629   0.729   0.836
   0.789   0.684   0.789   1.005   1.067   1.150   1.032   1.233   1.445   1.874
   1.864   2.061   1.920   1.963   2.341   1.963   1.920   2.061   1.864   1.874
   1.445   1.233   1.032   1.150   1.067   1.005   0.789   0.684   0.789   0.836
   0.729   0.629
   0.534   0.672   0.604   0.778   0.717   0.536   0.675   0.804   0.810   0.875
   0.951   1.115   1.130   1.082   1.436   1.851   1.869   2.244   2.337   2.244
   1.869   1.851   1.436   1.082   1.130   1.115   0.951   0.875   0.810   0.804
   0.675   0.536   0.717   0.778   0.604   0.672   0.534   0.672   0.604   0.778
   0.717   0.536   0.675   0.804   0.810   0.875   0.951   1.115   1.130   1.082
   1.436   1.851   1.869   2.244   2.337   2.244   1.869   1.851   1.436   1.082
   1.130   1.115   0.951   0.875   0.810   0.804   0.675   0.536   0.717   0.778
   0.604   0.672
   0.462   0.737   0.767   0.663   0.616   0.522   0.560   0.810   0.659   0.834
   0.954   0.970   1.031   0.839   1.074   1.748   1.679   2.132   2.184   2.132
   1.679   1.748   1.074   0.839   1.031   0.970   0.954   0.834   0.659   0.810
   0.560   0.522   0.616   0.663   0.767   0.737   0.462   0.737   0.767   0.663
   0.616   0.522   0.560   0.810   0.659   0.834   0.954   0.970   1.031   0.839
   1.074   1.748   1.679   2.132   2.184   2.132   1.679   1.748   1.074   0.839
   1.031   0.970   0.954   0.834   0.659   0.810   0.560   0.522   0.616   0.663
   0.767   0.737
   0.793   0.672   1.063   0.940   0.652   0.625   0.729   0.860   0.469   0.992
   0.921   0.881   0.931   0.786   1.304   1.547   1.526   1.749   1.549   1.749
   1.526   1.547   1.304   0.786   0.931   0.881   0.921   0.992   0.469   0.860
   0.729   0.625   0.652   0.940   1.063   0.672   0.793   0.672   1.063   0.940
   0.652   0.625   0.729   0.860   0.469   0.992   0.921   0.881   0.931   0.786
   1.304   1.547   1.526   1.749   1.549   1.749   1.526   1.547   1.304   0.786
   0.931   0.881   0.921   0.992   0.469   0.860   0.729   0.625   0.652   0.940
   1.063   0.672
   1.212   1.193   1.499   1.194   0.765   0.734   0.783   0.706   0.502   0.821
   0.812   0.911   0.916   0.655   1.205   1.355   1.155   1.629   1.540   1.629
   1.155   1.355   1.205   0.655   0.916   0.911   0.812   0.821   0.502   0.706
   0.783   0.734   0.765   1.194   1.499   1.193   1.212   1.193   1.499   1.194
   0.765   0.734   0.783   0.706   0.502   0.821   0.812   0.911   0.916   0.655
   1.205   1.355   1.155   1.629   1.540   1.629   1.155   1.355   1.205   0.655
   0.916   0.911   0.812   0.821   0.502   0.706   0.783   0.734   0.765   1.194
   1.499   1.193
   1.521   1.717   1.475   1.254   1.181   1.012   0.729   1.103   1.085   0.909
   0.700   0.855   0.979   0.692   1.056   1.257   1.164   1.418   1.954   1.418
   1.164   1.257   1.056   0.692   0.979   0.855   0.700   0.909   1.085   1.103
   0.729   1.012   1.181   1.254   1.475   1.717   1.521   1.717   1.475   1.254
   1.181   1.012   0.729   1.103   1.085   0.909   0.700   0.855   0.979   0.692
   1.056   1.257   1.164   1.418   1.954   1.418   1.164   1.257   1.056   0.692
   0.979   0.855   0.700   0.909   1.085   1.103   0.729   1.012   1.181   1.254
   1.475   1.717
   1.541   1.782   1.554   1.600   1.424   1.177   0.772   1.135   1.207   1.336
   0.941   0.841   0.876   0.723   0.910   1.122   1.110   1.138   1.520   1.138
   1.110   1.122   0.910   0.723   0.876   0.841   0.941   1.336   1.207   1.135
   0.772   1.177   1.424   1.600   1.554   1.782   1.541   1.782   1.554   1.600
   1.424   1.177   0.772   1.135   1.207   1.336   0.941   0.841   0.876   0.723
   0.910   1.122   1.110   1.138   1.520   1.138   1.110   1.122   0.910   0.723
   0.876   0.841   0.941   1.336   1.207   1.135   0.772   1.177   1.424   1.600
   1.554   1.782
   0.932   1.566   1.738   1.574   1.458   0.976   0.839   1.384   0.923   0.964
   0.823   0.634   0.810   0.667   0.616   1.066   0.747   1.168   1.043   1.168
   0.747   1.066   0.616   0.667   0.810   0.634   0.823   0.964   0.923   1.384
   0.839   0.976   1.458   1.574   1.738   1.566   0.932   1.566   1.738   1.574
   1.458   0.976   0.839   1.384   0.923   0.964   0.823   0.634   0.810   0.667
   0.616   1.066   0.747   1.168   1.043   1.168   0.747   1.066   0.616   0.667
   0.810   0.634   0.823   0.964   0.923   1.384   0.839   0.976   1.458   1.574
   1.738   1.566
   0.570   1.400   1.479   0.831   1.302   0.923   0.815   1.659   1.133   0.534
   0.326   0.590   0.550   0.946   0.380   0.794   0.566   1.233   0.844   1.233
   0.566   0.794   0.380   0.946   0.550   0.590   0.326   0.534   1.133   1.659
   0.815   0.923   1.302   0.831   1.479   1.400   0.570   1.400   1.479   0.831
   1.302   0.923   0.815   1.659   1.133   0.534   0.326   0.590   0.550   0.946
   0.380   0.794   0.566   1.233   0.844   1.233   0.566   0.794   0.380   0.946
   0.550   0.590   0.326   0.534   1.133   1.659   0.815   0.923   1.302   0.831
   1.479   1.400
   1.064   1.125   1.274   0.700   1.262   0.935   0.884   1.156   1.198   0.781
   0.455   0.855   0.629   0.908   0.770   0.617   0.592   1.016   0.869   1.016
   0.592   0.617   0.770   0.908   0.629   0.855   0.455   0.781   1.198   1.156
   0.884   0.935   1.262   0.700   1.274   1.125   1.064   1.125   1.274   0.700
   1.262   0.935   0.884   1.156   1.198   0.781   0.455   0.855   0.629   0.908
   0.770   0.617   0.592   1.016   0.869   1.016   0.592   0.617   0.770   0.908
   0.629   0.855   0.455   0.781   1.198   1.156   0.884   0.935   1.262   0.700
   1.274   1.125
   1.006   0.718   0.693   1.032   1.676   0.933   0.889   0.907   1.197   0.982
   0.808   1.067   1.157   0.696   1.014   0.656   0.692   0.834   1.067   0.834
   0.692   0.656   1.014   0.696   1.157   1.067   0.808   0.982   1.197   0.907
   0.889   0.933   1.676   1.032   0.693   0.718   1.006   0.718   0.693   1.032
   1.676   0.933   0.889   0.907   1.197   0.982   0.808   1.067   1.157   0.696
   1.014   0.656   0.692   0.834   1.067   0.834   0.692   0.656   1.014   0.696
   1.157   1.067   0.808   0.982   1.197   0.907   0.889   0.933   1.676   1.032
   0.693   0.718
 200       5.00   72    0 5.00   15    0
   2.920   2.920   2.920   2.920   2.920   2.920   2.920   2.920   2.920   2.920
   2.920   2.920   2.920   2.920   2.920   2.920   2.920   2.920   2.920   2.920
   2.920   2.920   2.920   2.920   2.920   2.920   2.920   2.920   2.920   2.920
   2.920   2.920   2.920   2.920   2.920   2.920   2.920   2.920   2.920   2.920
   2.920   2.920   2.920   2.920   2.920   2.920   2.920   2.920   2.920   2.920
   2.920   2.920   2.920   2.920   2.920   2.920   2.920   2.920   2.920   2.920
   2.920   2.920   2.920   2.920   2.920   2.920   2.920   2.920   2.920   2.920
   2.920   2.920
   3.425   2.211   2.169   2.506   2.334   2.694   2.775   2.375   2.545   3.232
   2.748   3.105   2.133   1.909   2.036   2.772   3.356   2.341   2.598   2.341
   3.356   2.772   2.036   1.909   2.133   3.105   2.748   3.232   2.545   2.375
   2.775   2.694   2.334   2.506   2.169   2.211   3.425   2.211   2.169   2.506
   2.334   2.694   2.775   2.375   2.545   3.232   2.748   3.105   2.133   1.909
   2.036   2.772   3.356   2.341   2.598   2.341   3.356   2.772   2.036   1.909
   2.133   3.105   2.748   3.232   2.545   2.375   2.775   2.694   2.334   2.506
   2.169   2.211
   2.240   1.601   2.151   1.565   1.426   1.929   2.082   1.648   1.764   2.222
   1.370   1.713   1.772   1.907   1.805   2.712   2.037   1.884   2.271   1.884
   2.037   2.712   1.805   1.907   1.772   1.713   1.370   2.222   1.764   1.648
   2.082   1.929   1.426   1.565   2.151   1.601   2.240   1.601   2.151   1.565
   1.426   1.929   2.082   1.648   1.764   2.222   1.370   1.713   1.772   1.907
   1.805   2.712   2.037   1.884   2.271   1.884   2.037   2.712   1.805   1.907
   1.772   1.713   1.370   2.222   1.764   1.648   2.082   1.929   1.426   1.565
   2.151   1.601
   1.499   1.304   1.789   1.327   1.420   1.302   1.382   1.443   1.341   1.611
   1.316   1.150   1.634   1.974   1.284   1.563   1.788   1.530   1.347   1.530
   1.788   1.563   1.284   1.974   1.634   1.150   1.316   1.611   1.341   1.443
   1.382   1.302   1.420   1.327   1.789   1.304   1.499   1.304   1.789   1.327
   1.420   1.302   1.382   1.443   1.341   1.611   1.316   1.150   1.634   1.974
   1.284   1.563   1.788   1.530   1.347   1.530   1.788   1.563   1.284   1.974
   1.634   1.150   1.316   1.611   1.341   1.443   1.382   1.302   1.420   1.327
   1.789   1.304
   1.674   1.116   1.515   1.504   1.173   1.228   1.324   1.284   1.278   1.133
   1.476   0.900   1.231   1.217   1.088   0.967   1.367   0.996   1.006   0.996
   1.367   0.967   1.088   1.217   1.231   0.900   1.476   1.133   1.278   1.284
   1.324   1.228   1.173   1.504   1.515   1.116   1.674   1.116   1.515   1.504
   1.173   1.228   1.324   1.284   1.278   1.133   1.476   0.900   1.231   1.217
   1.088   0.967   1.367   0.996   1.006   0.996   1.367   0.967   1.088   1.217
   1.231   0.900   1.476   1.133   1.278   1.284   1.324   1.228   1.173   1.504
   1.515   1.116
   1.623   1.171   1.405   1.383   1.483   1.493   1.590   1.259   1.289   1.019
   1.203   0.826   0.814   0.923   1.059   1.107   0.942   0.829   1.115   0.829
   0.942   1.107   1.059   0.923   0.814   0.826   1.203   1.019   1.289   1.259
   1.590   1.493   1.483   1.383   1.405   1.171   1.623   1.171   1.405   1.383
   1.483   1.493   1.590   1.259   1.289   1.019   1.203   0.826   0.814   0.923
   1.059   1.107   0.942   0.829   1.115   0.829   0.942   1.107   1.059   0.923
   0.814   0.826   1.203   1.019   1.289   1.259   1.590   1.493   1.483   1.383
   1.405   1.171
   1.552   1.326   1.161   1.210   1.827   1.686   1.738   1.198   1.605   0.908
   0.996   0.879   0.841   1.224   0.907   0.947   0.845   1.087   1.193   1.087
   0.845   0.947   0.907   1.224   0.841   0.879   0.996   0.908   1.605   1.198
   1.738   1.686   1.827   1.210   1.161   1.326   1.552   1.326   1.161   1.210
   1.827   1.686   1.738   1.198   1.605   0.908   0.996   0.879   0.841   1.224
   0.907   0.947   0.845   1.087   1.193   1.087   0.845   0.947   0.907   1.224
   0.841   0.879   0.996   0.908   1.605   1.198   1.738   1.686   1.827   1.210
   1.161   1.326
   1.317   1.060   0.961   1.025   1.524   1.257   1.487   1.122   1.919   1.063
   0.921   1.042   0.969   0.851   0.689   0.675   0.769   1.211   1.192   1.211
   0.769   0.675   0.689   0.851   0.969   1.042   0.921   1.063   1.919   1.122
   1.487   1.257   1.524   1.025   0.961   1.060   1.317   1.060   0.961   1.025
   1.524   1.257   1.487   1.122   1.919   1.063   0.921   1.042   0.969   0.851
   0.689   0.675   0.769   1.211   1.192   1.211   0.769   0.675   0.689   0.851
   0.969   1.042   0.921   1.063   1.919   1.122   1.487   1.257   1.524   1.025
   0.961   1.060
   1.022   0.608   0.584   0.774   1.057   0.897   1.202   0.964   1.228   1.083
   0.856   0.967   0.789   0.517   0.684   0.474   0.792   0.804   0.649   0.804
   0.792   0.474   0.684   0.517   0.789   0.967   0.856   1.083   1.228   0.964
   1.202   0.897   1.057   0.774   0.584   0.608   1.022   0.608   0.584   0.774
   1.057   0.897   1.202   0.964   1.228   1.083   0.856   0.967   0.789   0.517
   0.684   0.474   0.792   0.804   0.649   0.804   0.792   0.474   0.684   0.517
   0.789   0.967   0.856   1.083   1.228   0.964   1.202   0.897   1.057   0.774
   0.584   0.608
   0.555   0.510   0.523   0.600   0.593   0.688   0.690   0.902   0.917   0.912
   0.608   0.883   0.684   0.460   0.758   0.557   0.662   0.862   0.567   0.862
   0.662   0.557   0.758   0.460   0.684   0.883   0.608   0.912   0.917   0.902
   0.690   0.688   0.593   0.600   0.523   0.510   0.555   0.510   0.523   0.600
   0.593   0.688   0.690   0.902   0.917   0.912   0.608   0.883   0.684   0.460
   0.758   0.557   0.662   0.862   0.567   0.862   0.662   0.557   0.758   0.460
   0.684   0.883   0.608   0.912   0.917   0.902   0.690   0.688   0.593   0.600
   0.523   0.510
   0.322   0.534   0.592   0.577   0.520   0.615   0.499   0.831   0.687   0.785
   0.462   1.348   0.620   0.498   0.600   1.017   0.625   0.817   0.486   0.817
   0.625   1.017   0.600   0.498   0.620   1.348   0.462   0.785   0.687   0.831
   0.499   0.615   0.520   0.577   0.592   0.534   0.322   0.534   0.592   0.577
   0.520   0.615   0.499   0.831   0.687   0.785   0.462   1.348   0.620   0.498
   0.600   1.017   0.625   0.817   0.486   0.817   0.625   1.017   0.600   0.498
   0.620   1.348   0.462   0.785   0.687   0.831   0.499   0.615   0.520   0.577
   0.592   0.534
   0.520   0.425   0.381   0.703   0.791   0.606   0.524   0.982   0.583   0.754
   0.835   1.303   0.848   0.557   0.718   0.969   0.796   0.714   0.421   0.714
   0.796   0.969   0.718   0.557   0.848   1.303   0.835   0.754   0.583   0.982
   0.524   0.606   0.791   0.703   0.381   0.425   0.520   0.425   0.381   0.703
   0.791   0.606   0.524   0.982   0.583   0.754   0.835   1.303   0.848   0.557
   0.718   0.969   0.796   0.714   0.421   0.714   0.796   0.969   0.718   0.557
   0.848   1.303   0.835   0.754   0.583   0.982   0.524   0.606   0.791   0.703
   0.381   0.425
   0.425   0.511   0.290   0.713   0.570   0.503   0.542   0.963   0.800   0.797
   1.153   1.215   1.187   0.628   0.893   0.481   0.817   0.940   0.515   0.940
   0.817   0.481   0.893   0.628   1.187   1.215   1.153   0.797   0.800   0.963
   0.542   0.503   0.570   0.713   0.290   0.511   0.425   0.511   0.290   0.713
   0.570   0.503   0.542   0.963   0.800   0.797   1.153   1.215   1.187   0.628
   0.893   0.481   0.817   0.940   0.515   0.940   0.817   0.481   0.893   0.628
   1.187   1.215   1.153   0.797   0.800   0.963   0.542   0.503   0.570   0.713
   0.290   0.511
   0.314   0.354   0.199   0.427   0.446   0.615   0.774   0.621   0.875   0.850
   1.210   1.217   1.107   0.780   0.714   0.472   0.705   0.641   0.196   0.641
   0.705   0.472   0.714   0.780   1.107   1.217   1.210   0.850   0.875   0.621
   0.774   0.615   0.446   0.427   0.199   0.354   0.314   0.354   0.199   0.427
   0.446   0.615   0.774   0.621   0.875   0.850   1.210   1.217   1.107   0.780
   0.714   0.472   0.705   0.641   0.196   0.641   0.705   0.472   0.714   0.780
   1.107   1.217   1.210   0.850   0.875   0.621   0.774   0.615   0.446   0.427
   0.199   0.354
   0.764   0.305   0.127   0.317   0.545   0.652   0.745   0.914   0.990   0.775
   0.819   0.720   0.595   0.734   0.463   0.369   0.432   0.360   0.135   0.360
   0.432   0.369   0.463   0.734   0.595   0.720   0.819   0.775   0.990   0.914
   0.745   0.652   0.545   0.317   0.127   0.305   0.764   0.305   0.127   0.317
   0.545   0.652   0.745   0.914   0.990   0.775   0.819   0.720   0.595   0.734
   0.463   0.369   0.432   0.360   0.135   0.360   0.432   0.369   0.463   0.734
   0.595   0.720   0.819   0.775   0.990   0.914   0.745   0.652   0.545   0.317
   0.127   0.305
 111       5.00   72    0 5.00   15    0
   0.588   0.588   0.588   0.588   0.588   0.588   0.588   0.588   0.588   0.588
   0.588   0.588   0.588   0.588   0.588   0.588   0.588   0.588   0.588   0.588
   0.588   0.588   0.588   0.588   0.588   0.588   0.588   0.588   0.588   0.588
   0.588   0.588   0.588   0.588   0.588   0.588   0.588   0.588   0.588   0.588
   0.588   0.588   0.588   0.588   0.588   0.588   0.588   0.588   0.588   0.588
   0.588   0.588   0.588   0.588   0.588   0.588   0.588   0.588   0.588   0.588
   0.588   0.588   0.588   0.588   0.588   0.588   0.588   0.588   0.588   0.588
   0.588   0.588
   0.496   1.088   0.766   0.793   0.885   0.977   0.964   0.508   0.766   0.801
   0.759   0.549   0.446   0.628   0.404   0.724   0.510   0.468   0.495   0.468
   0.510   0.724   0.404   0.628   0.446   0.549   0.759   0.801   0.766   0.508
   0.964   0.977   0.885   0.793   0.766   1.088   0.496   1.088   0.766   0.793
   0.885   0.977   0.964   0.508   0.766   0.801   0.759   0.549   0.446   0.628
   0.404   0.724   0.510   0.468   0.495   0.468   0.510   0.724   0.404   0.628
   0.446   0.549   0.759   0.801   0.766   0.508   0.964   0.977   0.885   0.793
   0.766   1.088
   0.673   1.348   0.901   0.882   0.922   0.671   1.044   0.721   0.761   0.930
   0.668   0.830   0.613   0.918   0.354   0.727   0.418   0.446   0.596   0.446
   0.418   0.727   0.354   0.918   0.613   0.830   0.668   0.930   0.761   0.721
   1.044   0.671   0.922   0.882   0.901   1.348   0.673   1.348   0.901   0.882
   0.922   0.671   1.044   0.721   0.761   0.930   0.668   0.830   0.613   0.918
   0.354   0.727   0.418   0.446   0.596   0.446   0.418   0.727   0.354   0.918
   0.613   0.830   0.668   0.930   0.761   0.721   1.044   0.671   0.922   0.882
   0.901   1.348
   1.406   1.283   1.256   1.313   1.033   0.899   1.229   0.821   0.864   1.119
   0.574   1.171   0.681   1.044   0.540   0.697   0.615   0.443   0.716   0.443
   0.615   0.697   0.540   1.044   0.681   1.171   0.574   1.119   0.864   0.821
   1.229   0.899   1.033   1.313   1.256   1.283   1.406   1.283   1.256   1.313
   1.033   0.899   1.229   0.821   0.864   1.119   0.574   1.171   0.681   1.044
   0.540   0.697   0.615   0.443   0.716   0.443   0.615   0.697   0.540   1.044
   0.681   1.171   0.574   1.119   0.864   0.821   1.229   0.899   1.033   1.313
   1.256   1.283
   1.591   1.401   1.716   1.541   1.301   1.117   1.308   0.916   1.013   1.009
   0.707   1.155   0.725   0.835   0.689   0.703   0.726   0.504   0.989   0.504
   0.726   0.703   0.689   0.835   0.725   1.155   0.707   1.009   1.013   0.916
   1.308   1.117   1.301   1.541   1.716   1.401   1.591   1.401   1.716   1.541
   1.301   1.117   1.308   0.916   1.013   1.009   0.707   1.155   0.725   0.835
   0.689   0.703   0.726   0.504   0.989   0.504   0.726   0.703   0.689   0.835
   0.725   1.155   0.707   1.009   1.013   0.916   1.308   1.117   1.301   1.541
   1.716   1.401
   1.547   2.151   1.777   1.657   1.678   1.425   1.371   0.988   1.050   0.828
   0.982   1.082   0.785   0.680   0.665   0.688   0.645   0.584   1.020   0.584
   0.645   0.688   0.665   0.680   0.785   1.082   0.982   0.828   1.050   0.988
   1.371   1.425   1.678   1.657   1.777   2.151   1.547   2.151   1.777   1.657
   1.678   1.425   1.371   0.988   1.050   0.828   0.982   1.082   0.785   0.680
   0.665   0.688   0.645   0.584   1.020   0.584   0.645   0.688   0.665   0.680
   0.785   1.082   0.982   0.828   1.050   0.988   1.371   1.425   1.678   1.657
   1.777   2.151
   1.803   2.497   1.879   1.913   1.723   1.998   1.547   1.053   1.186   1.051
   1.075   1.185   1.059   0.951   0.776   0.776   0.769   0.802   0.622   0.802
   0.769   0.776   0.776   0.951   1.059   1.185   1.075   1.051   1.186   1.053
   1.547   1.998   1.723   1.913   1.879   2.497   1.803   2.497   1.879   1.913
   1.723   1.998   1.547   1.053   1.186   1.051   1.075   1.185   1.059   0.951
   0.776   0.776   0.769   0.802   0.622   0.802   0.769   0.776   0.776   0.951
   1.059   1.185   1.075   1.051   1.186   1.053   1.547   1.998   1.723   1.913
   1.879   2.497
   1.894   1.787   2.248   1.741   1.473   1.884   1.560   1.399   1.555   1.362
   1.168   1.194   1.230   1.006   1.356   0.884   0.810   0.943   0.777   0.943
   0.810   0.884   1.356   1.006   1.230   1.194   1.168   1.362   1.555   1.399
   1.560   1.884   1.473   1.741   2.248   1.787   1.894   1.787   2.248   1.741
   1.473   1.884   1.560   1.399   1.555   1.362   1.168   1.194   1.230   1.006
   1.356   0.884   0.810   0.943   0.777   0.943   0.810   0.884   1.356   1.006
   1.230   1.194   1.168   1.362   1.555   1.399   1.560   1.884   1.473   1.741
   2.248   1.787
   1.499   1.033   1.788   1.186   1.152   1.488   1.284   1.751   1.578   1.538
   1.086   1.524   1.346   0.971   1.336   1.107   0.891   0.858   0.705   0.858
   0.891   1.107   1.336   0.971   1.346   1.524   1.086   1.538   1.578   1.751
   1.284   1.488   1.152   1.186   1.788   1.033   1.499   1.033   1.788   1.186
   1.152   1.488   1.284   1.751   1.578   1.538   1.086   1.524   1.346   0.971
   1.336   1.107   0.891   0.858   0.705   0.858   0.891   1.107   1.336   0.971
   1.346   1.524   1.086   1.538   1.578   1.751   1.284   1.488   1.152   1.186
   1.788   1.033
   0.831   0.878   0.852   0.801   0.862   1.394   1.164   1.726   1.502   1.471
   1.189   1.592   1.428   1.259   0.886   0.935   0.985   0.786   0.653   0.786
   0.985   0.935   0.886   1.259   1.428   1.592   1.189   1.471   1.502   1.726
   1.164   1.394   0.862   0.801   0.852   0.878   0.831   0.878   0.852   0.801
   0.862   1.394   1.164   1.726   1.502   1.471   1.189   1.592   1.428   1.259
   0.886   0.935   0.985   0.786   0.653   0.786   0.985   0.935   0.886   1.259
   1.428   1.592   1.189   1.471   1.502   1.726   1.164   1.394   0.862   0.801
   0.852   0.878
   0.624   0.527   0.619   0.781   0.627   1.117   1.236   1.515   1.528   1.459
   1.675   1.507   1.306   1.416   1.081   0.860   0.922   0.967   1.073   0.967
   0.922   0.860   1.081   1.416   1.306   1.507   1.675   1.459   1.528   1.515
   1.236   1.117   0.627   0.781   0.619   0.527   0.624   0.527   0.619   0.781
   0.627   1.117   1.236   1.515   1.528   1.459   1.675   1.507   1.306   1.416
   1.081   0.860   0.922   0.967   1.073   0.967   0.922   0.860   1.081   1.416
   1.306   1.507   1.675   1.459   1.528   1.515   1.236   1.117   0.627   0.781
   0.619   0.527
   0.635   0.386   0.456   0.666   0.629   0.790   1.098   1.218   1.236   1.685
   1.722   1.559   1.347   1.337   1.201   1.162   0.785   1.093   1.264   1.093
   0.785   1.162   1.201   1.337   1.347   1.559   1.722   1.685   1.236   1.218
   1.098   0.790   0.629   0.666   0.456   0.386   0.635   0.386   0.456   0.666
   0.629   0.790   1.098   1.218   1.236   1.685   1.722   1.559   1.347   1.337
   1.201   1.162   0.785   1.093   1.264   1.093   0.785   1.162   1.201   1.337
   1.347   1.559   1.722   1.685   1.236   1.218   1.098   0.790   0.629   0.666
   0.456   0.386
   0.561   0.518   0.449   0.557   0.632   1.052   1.065   1.120   0.984   1.521
   1.257   1.329   1.352   1.263   0.871   1.394   0.671   1.118   1.087   1.118
   0.671   1.394   0.871   1.263   1.352   1.329   1.257   1.521   0.984   1.120
   1.065   1.052   0.632   0.557   0.449   0.518   0.561   0.518   0.449   0.557
   0.632   1.052   1.065   1.120   0.984   1.521   1.257   1.329   1.352   1.263
   0.871   1.394   0.671   1.118   1.087   1.118   0.671   1.394   0.871   1.263
   1.352   1.329   1.257   1.521   0.984   1.120   1.065   1.052   0.632   0.557
   0.449   0.518
   1.007   0.425   0.562   0.518   0.454   1.114   1.083   1.444   0.795   0.858
   0.801   0.889   1.121   0.937   0.829   1.337   0.661   1.028   1.114   1.028
   0.661   1.337   0.829   0.937   1.121   0.889   0.801   0.858   0.795   1.444
   1.083   1.114   0.454   0.518   0.562   0.425   1.007   0.425   0.562   0.518
   0.454   1.114   1.083   1.444   0.795   0.858   0.801   0.889   1.121   0.937
   0.829   1.337   0.661   1.028   1.114   1.028   0.661   1.337   0.829   0.937
   1.121   0.889   0.801   0.858   0.795   1.444   1.083   1.114   0.454   0.518
   0.562   0.425
   1.338   0.412   0.846   0.901   0.485   0.556   0.908   1.154   0.466   0.603
   0.776   0.408   0.872   0.736   0.898   1.259   0.878   0.505   0.798   0.505
   0.878   1.259   0.898   0.736   0.872   0.408   0.776   0.603   0.466   1.154
   0.908   0.556   0.485   0.901   0.846   0.412   1.338   0.412   0.846   0.901
   0.485   0.556   0.908   1.154   0.466   0.603   0.776   0.408   0.872   0.736
   0.898   1.259   0.878   0.505   0.798   0.505   0.878   1.259   0.898   0.736
   0.872   0.408   0.776   0.603   0.466   1.154   0.908   0.556   0.485   0.901
   0.846   0.412
  4  1      9.8638291E-01
  4  2     -8.0530704E-02
  4  3     -3.6424407E-02
  6  1      6.2331662E-01
  6  2     -1.2176566E+00
  6  3      8.3981287E-01
  6  4     -1.8624010E-01
  8  1      7.8996606E-01
  8  2     -2.6293911E-01
  8  3      4.4768134E-01
  8  4     -1.5690235E-01
  8  5      2.1535903E-01
 10  1     -2.8170027E-02
 10  2     -6.8566517E-02
 10  3      5.2246051E-01
 10  4      2.4895688E-01
 10  5      2.0770038E-02
 10  6      3.6469246E-01
 12  1      8.1465118E-01  5.2235584E-01
 12  2     -1.8587213E-01 -2.4251409E-01
 12  3      2.6505011E-01  2.4963659E-01
 12  4     -2.8904776E-01 -2.1845130E-01
 12  5     -1.6567538E-02  3.8346704E-01
 12  6     -3.2413169E-02 -2.1512964E-02
 12  7     -3.3509182E-02  2.0456920E-01
 14  1      3.9419958E-01
 14  2     -9.1786451E-02
 14  3      5.8026437E-02
 14  4     -2.0621235E-01
 14  5      1.1667132E-01
 14  6      1.1674405E-01
 14  7     -1.7116921E-01
 14  8     -5.1562257E-01
 220       5.00   72    0 5.00   18    0
   1.571   1.571   1.572   1.573   1.575   1.577   1.579   1.582   1.585   1.588
   1.591   1.594   1.597   1.599   1.601   1.603   1.604   1.605   1.605   1.605
   1.604   1.603   1.601   1.599   1.597   1.594   1.591   1.588   1.585   1.582
   1.579   1.577   1.575   1.573   1.572   1.571   1.571   1.571   1.572   1.573
   1.575   1.577   1.579   1.582   1.585   1.588   1.591   1.594   1.597   1.599
   1.601   1.603   1.604   1.605   1.605   1.605   1.604   1.603   1.601   1.599
   1.597   1.594   1.591   1.588   1.585   1.582   1.579   1.577   1.575   1.573
   1.572   1.571
   1.253   1.255   1.261   1.270   1.283   1.299   1.318   1.339   1.362   1.386
   1.410   1.434   1.457   1.478   1.496   1.511   1.522   1.529   1.532   1.529
   1.522   1.511   1.496   1.478   1.457   1.434   1.410   1.386   1.362   1.339
   1.318   1.299   1.283   1.270   1.261   1.255   1.253   1.255   1.261   1.270
   1.283   1.299   1.318   1.339   1.362   1.386   1.410   1.434   1.457   1.478
   1.496   1.511   1.522   1.529   1.532   1.529   1.522   1.511   1.496   1.478
   1.457   1.434   1.410   1.386   1.362   1.339   1.318   1.299   1.283   1.270
   1.261   1.255
   0.820   0.823   0.834   0.853   0.878   0.910   0.948   0.992   1.041   1.093
   1.148   1.204   1.259   1.310   1.357   1.395   1.425   1.443   1.449   1.443
   1.425   1.395   1.357   1.310   1.259   1.204   1.148   1.093   1.041   0.992
   0.948   0.910   0.878   0.853   0.834   0.823   0.820   0.823   0.834   0.853
   0.878   0.910   0.948   0.992   1.041   1.093   1.148   1.204   1.259   1.310
   1.357   1.395   1.425   1.443   1.449   1.443   1.425   1.395   1.357   1.310
   1.259   1.204   1.148   1.093   1.041   0.992   0.948   0.910   0.878   0.853
   0.834   0.823
   0.499   0.503   0.515   0.536   0.564   0.602   0.648   0.703   0.767   0.838
   0.917   1.001   1.088   1.173   1.254   1.323   1.377   1.411   1.423   1.411
   1.377   1.323   1.254   1.173   1.088   1.001   0.917   0.838   0.767   0.703
   0.648   0.602   0.564   0.536   0.515   0.503   0.499   0.503   0.515   0.536
   0.564   0.602   0.648   0.703   0.767   0.838   0.917   1.001   1.088   1.173
   1.254   1.323   1.377   1.411   1.423   1.411   1.377   1.323   1.254   1.173
   1.088   1.001   0.917   0.838   0.767   0.703   0.648   0.602   0.564   0.536
   0.515   0.503
   0.384   0.386   0.393   0.407   0.428   0.457   0.496   0.546   0.607   0.680
   0.765   0.863   0.971   1.085   1.199   1.302   1.386   1.441   1.460   1.441
   1.386   1.302   1.199   1.085   0.971   0.863   0.765   0.680   0.607   0.546
   0.496   0.457   0.428   0.407   0.393   0.386   0.384   0.386   0.393   0.407
   0.428   0.457   0.496   0.546   0.607   0.680   0.765   0.863   0.971   1.085
   1.199   1.302   1.386   1.441   1.460   1.441   1.386   1.302   1.199   1.085
   0.971   0.863   0.765   0.680   0.607   0.546   0.496   0.457   0.428   0.407
   0.393   0.386
   0.437   0.435   0.430   0.427   0.429   0.441   0.465   0.500   0.547   0.607
   0.682   0.775   0.889   1.020   1.161   1.297   1.413   1.490   1.518   1.490
   1.413   1.297   1.161   1.020   0.889   0.775   0.682   0.607   0.547   0.500
   0.465   0.441   0.429   0.427   0.430   0.435   0.437   0.435   0.430   0.427
   0.429   0.441   0.465   0.500   0.547   0.607   0.682   0.775   0.889   1.020
   1.161   1.297   1.413   1.490   1.518   1.490   1.413   1.297   1.161   1.020
   0.889   0.775   0.682   0.607   0.547   0.500   0.465   0.441   0.429   0.427
   0.430   0.435
   0.616   0.605   0.576   0.540   0.511   0.498   0.504   0.526   0.560   0.603
   0.658   0.731   0.832   0.964   1.120   1.282   1.426   1.525   1.560   1.525
   1.426   1.282   1.120   0.964   0.832   0.731   0.658   0.603   0.560   0.526
   0.504   0.498   0.511   0.540   0.576   0.605   0.616   0.605   0.576   0.540
   0.511   0.498   0.504   0.526   0.560   0.603   0.658   0.731   0.832   0.964
   1.120   1.282   1.426   1.525   1.560   1.525   1.426   1.282   1.120   0.964
   0.832   0.731   0.658   0.603   0.560   0.526   0.504   0.498   0.511   0.540
   0.576   0.605
   0.922   0.897   0.830   0.744   0.668   0.620   0.608   0.622   0.647   0.674
   0.702   0.744   0.817   0.933   1.088   1.263   1.424   1.539   1.580   1.539
   1.424   1.263   1.088   0.933   0.817   0.744   0.702   0.674   0.647   0.622
   0.608   0.620   0.668   0.744   0.830   0.897   0.922   0.897   0.830   0.744
   0.668   0.620   0.608   0.622   0.647   0.674   0.702   0.744   0.817   0.933
   1.088   1.263   1.424   1.539   1.580   1.539   1.424   1.263   1.088   0.933
   0.817   0.744   0.702   0.674   0.647   0.622   0.608   0.620   0.668   0.744
   0.830   0.897
   1.330   1.290   1.181   1.040   0.910   0.823   0.788   0.790   0.804   0.809
   0.805   0.808   0.845   0.935   1.076   1.247   1.412   1.531   1.574   1.531
   1.412   1.247   1.076   0.935   0.845   0.808   0.805   0.809   0.804   0.790
   0.788   0.823   0.910   1.040   1.181   1.290   1.330   1.290   1.181   1.040
   0.910   0.823   0.788   0.790   0.804   0.809   0.805   0.808   0.845   0.935
   1.076   1.247   1.412   1.531   1.574   1.531   1.412   1.247   1.076   0.935
   0.845   0.808   0.805   0.809   0.804   0.790   0.788   0.823   0.910   1.040
   1.181   1.290
   1.709   1.661   1.531   1.358   1.192   1.073   1.012   0.991   0.980   0.952
   0.907   0.871   0.873   0.936   1.058   1.213   1.365   1.475   1.515   1.475
   1.365   1.213   1.058   0.936   0.873   0.871   0.907   0.952   0.980   0.991
   1.012   1.073   1.192   1.358   1.531   1.661   1.709   1.661   1.531   1.358
   1.192   1.073   1.012   0.991   0.980   0.952   0.907   0.871   0.873   0.936
   1.058   1.213   1.365   1.475   1.515   1.475   1.365   1.213   1.058   0.936
   0.873   0.871   0.907   0.952   0.980   0.991   1.012   1.073   1.192   1.358
   1.531   1.661
   1.878   1.838   1.727   1.571   1.410   1.281   1.198   1.147   1.096   1.025
   0.941   0.873   0.855   0.900   0.999   1.127   1.252   1.341   1.374   1.341
   1.252   1.127   0.999   0.900   0.855   0.873   0.941   1.025   1.096   1.147
   1.198   1.281   1.410   1.571   1.727   1.838   1.878   1.838   1.727   1.571
   1.410   1.281   1.198   1.147   1.096   1.025   0.941   0.873   0.855   0.900
   0.999   1.127   1.252   1.341   1.374   1.341   1.252   1.127   0.999   0.900
   0.855   0.873   0.941   1.025   1.096   1.147   1.198   1.281   1.410   1.571
   1.727   1.838
   1.755   1.739   1.687   1.596   1.481   1.370   1.280   1.203   1.115   1.007
   0.897   0.820   0.800   0.835   0.908   0.997   1.084   1.148   1.172   1.148
   1.084   0.997   0.908   0.835   0.800   0.820   0.897   1.007   1.115   1.203
   1.280   1.370   1.481   1.596   1.687   1.739   1.755   1.739   1.687   1.596
   1.481   1.370   1.280   1.203   1.115   1.007   0.897   0.820   0.800   0.835
   0.908   0.997   1.084   1.148   1.172   1.148   1.084   0.997   0.908   0.835
   0.800   0.820   0.897   1.007   1.115   1.203   1.280   1.370   1.481   1.596
   1.687   1.739
   1.431   1.445   1.465   1.456   1.404   1.329   1.253   1.174   1.073   0.952
   0.843   0.783   0.778   0.805   0.841   0.879   0.925   0.969   0.988   0.969
   0.925   0.879   0.841   0.805   0.778   0.783   0.843   0.952   1.073   1.174
   1.253   1.329   1.404   1.456   1.465   1.445   1.431   1.445   1.465   1.456
   1.404   1.329   1.253   1.174   1.073   0.952   0.843   0.783   0.778   0.805
   0.841   0.879   0.925   0.969   0.988   0.969   0.925   0.879   0.841   0.805
   0.778   0.783   0.843   0.952   1.073   1.174   1.253   1.329   1.404   1.456
   1.465   1.445
   1.087   1.121   1.194   1.242   1.239   1.206   1.170   1.122   1.040   0.933
   0.848   0.823   0.843   0.857   0.843   0.826   0.843   0.886   0.909   0.886
   0.843   0.826   0.843   0.857   0.843   0.823   0.848   0.933   1.040   1.122
   1.170   1.206   1.239   1.242   1.194   1.121   1.087   1.121   1.194   1.242
   1.239   1.206   1.170   1.122   1.040   0.933   0.848   0.823   0.843   0.857
   0.843   0.826   0.843   0.886   0.909   0.886   0.843   0.826   0.843   0.857
   0.843   0.823   0.848   0.933   1.040   1.122   1.170   1.206   1.239   1.242
   1.194   1.121
   0.840   0.879   0.961   1.021   1.038   1.049   1.078   1.094   1.054   0.971
   0.914   0.926   0.969   0.964   0.897   0.835   0.850   0.922   0.963   0.922
   0.850   0.835   0.897   0.964   0.969   0.926   0.914   0.971   1.054   1.094
   1.078   1.049   1.038   1.021   0.961   0.879   0.840   0.879   0.961   1.021
   1.038   1.049   1.078   1.094   1.054   0.971   0.914   0.926   0.969   0.964
   0.897   0.835   0.850   0.922   0.963   0.922   0.850   0.835   0.897   0.964
   0.969   0.926   0.914   0.971   1.054   1.094   1.078   1.049   1.038   1.021
   0.961   0.879
   0.691   0.721   0.777   0.810   0.827   0.883   0.994   1.090   1.096   1.028
   0.982   1.017   1.074   1.051   0.941   0.857   0.900   1.028   1.098   1.028
   0.900   0.857   0.941   1.051   1.074   1.017   0.982   1.028   1.096   1.090
   0.994   0.883   0.827   0.810   0.777   0.721   0.691   0.721   0.777   0.810
   0.827   0.883   0.994   1.090   1.096   1.028   0.982   1.017   1.074   1.051
   0.941   0.857   0.900   1.028   1.098   1.028   0.900   0.857   0.941   1.051
   1.074   1.017   0.982   1.028   1.096   1.090   0.994   0.883   0.827   0.810
   0.777   0.721
   0.596   0.610   0.628   0.622   0.632   0.732   0.921   1.090   1.130   1.059
   1.006   1.047   1.111   1.075   0.940   0.854   0.941   1.135   1.235   1.135
   0.941   0.854   0.940   1.075   1.111   1.047   1.006   1.059   1.130   1.090
   0.921   0.732   0.632   0.622   0.628   0.610   0.596   0.610   0.628   0.622
   0.632   0.732   0.921   1.090   1.130   1.059   1.006   1.047   1.111   1.075
   0.940   0.854   0.941   1.135   1.235   1.135   0.941   0.854   0.940   1.075
   1.111   1.047   1.006   1.059   1.130   1.090   0.921   0.732   0.632   0.622
   0.628   0.610
   0.540   0.543   0.535   0.503   0.509   0.637   0.876   1.088   1.143   1.065
   1.000   1.039   1.105   1.063   0.917   0.838   0.958   1.195   1.316   1.195
   0.958   0.838   0.917   1.063   1.105   1.039   1.000   1.065   1.143   1.088
   0.876   0.637   0.509   0.503   0.535   0.543   0.540   0.543   0.535   0.503
   0.509   0.637   0.876   1.088   1.143   1.065   1.000   1.039   1.105   1.063
   0.917   0.838   0.958   1.195   1.316   1.195   0.958   0.838   0.917   1.063
   1.105   1.039   1.000   1.065   1.143   1.088   0.876   0.637   0.509   0.503
   0.535   0.543
 200       5.00   72    0 5.00   18    0
   2.536   2.536   2.536   2.537   2.537   2.538   2.538   2.539   2.540   2.540
   2.541   2.542   2.543   2.543   2.544   2.544   2.544   2.545   2.545   2.545
   2.544   2.544   2.544   2.543   2.543   2.542   2.541   2.540   2.540   2.539
   2.538   2.538   2.537   2.537   2.536   2.536   2.536   2.536   2.536   2.537
   2.537   2.538   2.538   2.539   2.540   2.540   2.541   2.542   2.543   2.543
   2.544   2.544   2.544   2.545   2.545   2.545   2.544   2.544   2.544   2.543
   2.543   2.542   2.541   2.540   2.540   2.539   2.538   2.538   2.537   2.537
   2.536   2.536
   2.129   2.129   2.130   2.131   2.133   2.136   2.140   2.143   2.148   2.153
   2.158   2.164   2.169   2.174   2.179   2.183   2.186   2.188   2.188   2.188
   2.186   2.183   2.179   2.174   2.169   2.164   2.158   2.153   2.148   2.143
   2.140   2.136   2.133   2.131   2.130   2.129   2.129   2.129   2.130   2.131
   2.133   2.136   2.140   2.143   2.148   2.153   2.158   2.164   2.169   2.174
   2.179   2.183   2.186   2.188   2.188   2.188   2.186   2.183   2.179   2.174
   2.169   2.164   2.158   2.153   2.148   2.143   2.140   2.136   2.133   2.131
   2.130   2.129
   1.563   1.563   1.562   1.561   1.560   1.560   1.560   1.562   1.566   1.572
   1.581   1.590   1.602   1.613   1.625   1.635   1.642   1.647   1.649   1.647
   1.642   1.635   1.625   1.613   1.602   1.590   1.581   1.572   1.566   1.562
   1.560   1.560   1.560   1.561   1.562   1.563   1.563   1.563   1.562   1.561
   1.560   1.560   1.560   1.562   1.566   1.572   1.581   1.590   1.602   1.613
   1.625   1.635   1.642   1.647   1.649   1.647   1.642   1.635   1.625   1.613
   1.602   1.590   1.581   1.572   1.566   1.562   1.560   1.560   1.560   1.561
   1.562   1.563
   1.164   1.162   1.156   1.146   1.133   1.119   1.105   1.092   1.082   1.077
   1.078   1.084   1.096   1.111   1.128   1.145   1.159   1.168   1.171   1.168
   1.159   1.145   1.128   1.111   1.096   1.084   1.078   1.077   1.082   1.092
   1.105   1.119   1.133   1.146   1.156   1.162   1.164   1.162   1.156   1.146
   1.133   1.119   1.105   1.092   1.082   1.077   1.078   1.084   1.096   1.111
   1.128   1.145   1.159   1.168   1.171   1.168   1.159   1.145   1.128   1.111
   1.096   1.084   1.078   1.077   1.082   1.092   1.105   1.119   1.133   1.146
   1.156   1.162
   1.091   1.087   1.078   1.061   1.037   1.006   0.970   0.931   0.894   0.862
   0.839   0.828   0.829   0.840   0.859   0.880   0.900   0.914   0.920   0.914
   0.900   0.880   0.859   0.840   0.829   0.828   0.839   0.862   0.894   0.931
   0.970   1.006   1.037   1.061   1.078   1.087   1.091   1.087   1.078   1.061
   1.037   1.006   0.970   0.931   0.894   0.862   0.839   0.828   0.829   0.840
   0.859   0.880   0.900   0.914   0.920   0.914   0.900   0.880   0.859   0.840
   0.829   0.828   0.839   0.862   0.894   0.931   0.970   1.006   1.037   1.061
   1.078   1.087
   1.218   1.218   1.218   1.213   1.197   1.165   1.116   1.054   0.984   0.915
   0.856   0.814   0.792   0.791   0.807   0.834   0.862   0.883   0.891   0.883
   0.862   0.834   0.807   0.791   0.792   0.814   0.856   0.915   0.984   1.054
   1.116   1.165   1.197   1.213   1.218   1.218   1.218   1.218   1.218   1.213
   1.197   1.165   1.116   1.054   0.984   0.915   0.856   0.814   0.792   0.791
   0.807   0.834   0.862   0.883   0.891   0.883   0.862   0.834   0.807   0.791
   0.792   0.814   0.856   0.915   0.984   1.054   1.116   1.165   1.197   1.213
   1.218   1.218
   1.254   1.265   1.293   1.326   1.348   1.344   1.308   1.239   1.147   1.046
   0.950   0.874   0.826   0.810   0.824   0.860   0.902   0.935   0.948   0.935
   0.902   0.860   0.824   0.810   0.826   0.874   0.950   1.046   1.147   1.239
   1.308   1.344   1.348   1.326   1.293   1.265   1.254   1.265   1.293   1.326
   1.348   1.344   1.308   1.239   1.147   1.046   0.950   0.874   0.826   0.810
   0.824   0.860   0.902   0.935   0.948   0.935   0.902   0.860   0.824   0.810
   0.826   0.874   0.950   1.046   1.147   1.239   1.308   1.344   1.348   1.326
   1.293   1.265
   1.026   1.050   1.114   1.197   1.272   1.315   1.312   1.260   1.171   1.061
   0.948   0.850   0.783   0.756   0.772   0.821   0.885   0.937   0.958   0.937
   0.885   0.821   0.772   0.756   0.783   0.850   0.948   1.061   1.171   1.260
   1.312   1.315   1.272   1.197   1.114   1.050   1.026   1.050   1.114   1.197
   1.272   1.315   1.312   1.260   1.171   1.061   0.948   0.850   0.783   0.756
   0.772   0.821   0.885   0.937   0.958   0.937   0.885   0.821   0.772   0.756
   0.783   0.850   0.948   1.061   1.171   1.260   1.312   1.315   1.272   1.197
   1.114   1.050
   0.658   0.687   0.768   0.876   0.983   1.060   1.090   1.071   1.013   0.930
   0.837   0.746   0.674   0.639   0.654   0.715   0.800   0.873   0.902   0.873
   0.800   0.715   0.654   0.639   0.674   0.746   0.837   0.930   1.013   1.071
   1.090   1.060   0.983   0.876   0.768   0.687   0.658   0.687   0.768   0.876
   0.983   1.060   1.090   1.071   1.013   0.930   0.837   0.746   0.674   0.639
   0.654   0.715   0.800   0.873   0.902   0.873   0.800   0.715   0.654   0.639
   0.674   0.746   0.837   0.930   1.013   1.071   1.090   1.060   0.983   0.876
   0.768   0.687
   0.434   0.455   0.513   0.598   0.689   0.764   0.808   0.822   0.816   0.795
   0.759   0.705   0.642   0.596   0.594   0.649   0.740   0.825   0.859   0.825
   0.740   0.649   0.594   0.596   0.642   0.705   0.759   0.795   0.816   0.822
   0.808   0.764   0.689   0.598   0.513   0.455   0.434   0.455   0.513   0.598
   0.689   0.764   0.808   0.822   0.816   0.795   0.759   0.705   0.642   0.596
   0.594   0.649   0.740   0.825   0.859   0.825   0.740   0.649   0.594   0.596
   0.642   0.705   0.759   0.795   0.816   0.822   0.808   0.764   0.689   0.598
   0.513   0.455
   0.480   0.481   0.491   0.519   0.566   0.617   0.659   0.698   0.744   0.798
   0.837   0.833   0.781   0.712   0.674   0.698   0.771   0.848   0.881   0.848
   0.771   0.698   0.674   0.712   0.781   0.833   0.837   0.798   0.744   0.698
   0.659   0.617   0.566   0.519   0.491   0.481   0.480   0.481   0.491   0.519
   0.566   0.617   0.659   0.698   0.744   0.798   0.837   0.833   0.781   0.712
   0.674   0.698   0.771   0.848   0.881   0.848   0.771   0.698   0.674   0.712
   0.781   0.833   0.837   0.798   0.744   0.698   0.659   0.617   0.566   0.519
   0.491   0.481
   0.613   0.596   0.565   0.558   0.588   0.638   0.686   0.739   0.819   0.928
   1.025   1.058   1.007   0.907   0.825   0.803   0.840   0.892   0.916   0.892
   0.840   0.803   0.825   0.907   1.007   1.058   1.025   0.928   0.819   0.739
   0.686   0.638   0.588   0.558   0.565   0.596   0.613   0.596   0.565   0.558
   0.588   0.638   0.686   0.739   0.819   0.928   1.025   1.058   1.007   0.907
   0.825   0.803   0.840   0.892   0.916   0.892   0.840   0.803   0.825   0.907
   1.007   1.058   1.025   0.928   0.819   0.739   0.686   0.638   0.588   0.558
   0.565   0.596
   0.563   0.542   0.509   0.526   0.606   0.706   0.780   0.836   0.918   1.043
   1.162   1.200   1.131   1.003   0.892   0.842   0.846   0.867   0.878   0.867
   0.846   0.842   0.892   1.003   1.131   1.200   1.162   1.043   0.918   0.836
   0.780   0.706   0.606   0.526   0.509   0.542   0.563   0.542   0.509   0.526
   0.606   0.706   0.780   0.836   0.918   1.043   1.162   1.200   1.131   1.003
   0.892   0.842   0.846   0.867   0.878   0.867   0.846   0.842   0.892   1.003
   1.131   1.200   1.162   1.043   0.918   0.836   0.780   0.706   0.606   0.526
   0.509   0.542
   0.353   0.335   0.326   0.402   0.568   0.740   0.838   0.878   0.936   1.049
   1.157   1.171   1.071   0.927   0.824   0.786   0.782   0.781   0.778   0.781
   0.782   0.786   0.824   0.927   1.071   1.171   1.157   1.049   0.936   0.878
   0.838   0.740   0.568   0.402   0.326   0.335   0.353   0.335   0.326   0.402
   0.568   0.740   0.838   0.878   0.936   1.049   1.157   1.171   1.071   0.927
   0.824   0.786   0.782   0.781   0.778   0.781   0.782   0.786   0.824   0.927
   1.071   1.171   1.157   1.049   0.936   0.878   0.838   0.740   0.568   0.402
   0.326   0.335
   0.357   0.334   0.324   0.423   0.625   0.811   0.883   0.877   0.905   1.010
   1.107   1.085   0.946   0.800   0.742   0.761   0.783   0.773   0.761   0.773
   0.783   0.761   0.742   0.800   0.946   1.085   1.107   1.010   0.905   0.877
   0.883   0.811   0.625   0.423   0.324   0.334   0.357   0.334   0.324   0.423
   0.625   0.811   0.883   0.877   0.905   1.010   1.107   1.085   0.946   0.800
   0.742   0.761   0.783   0.773   0.761   0.773   0.783   0.761   0.742   0.800
   0.946   1.085   1.107   1.010   0.905   0.877   0.883   0.811   0.625   0.423
   0.324   0.334
   0.924   0.874   0.801   0.824   0.946   1.039   1.009   0.926   0.934   1.063
   1.175   1.129   0.953   0.811   0.817   0.917   0.985   0.978   0.960   0.978
   0.985   0.917   0.817   0.811   0.953   1.129   1.175   1.063   0.934   0.926
   1.009   1.039   0.946   0.824   0.801   0.874   0.924   0.874   0.801   0.824
   0.946   1.039   1.009   0.926   0.934   1.063   1.175   1.129   0.953   0.811
   0.817   0.917   0.985   0.978   0.960   0.978   0.985   0.917   0.817   0.811
   0.953   1.129   1.175   1.063   0.934   0.926   1.009   1.039   0.946   0.824
   0.801   0.874
   1.913   1.822   1.639   1.516   1.475   1.400   1.224   1.056   1.061   1.238
   1.389   1.338   1.134   0.996   1.057   1.231   1.345   1.347   1.325   1.347
   1.345   1.231   1.057   0.996   1.134   1.338   1.389   1.238   1.061   1.056
   1.224   1.400   1.475   1.516   1.639   1.822   1.913   1.822   1.639   1.516
   1.475   1.400   1.224   1.056   1.061   1.238   1.389   1.338   1.134   0.996
   1.057   1.231   1.345   1.347   1.325   1.347   1.345   1.231   1.057   0.996
   1.134   1.338   1.389   1.238   1.061   1.056   1.224   1.400   1.475   1.516
   1.639   1.822
   2.700   2.578   2.309   2.067   1.892   1.685   1.402   1.177   1.186   1.403
   1.589   1.540   1.322   1.184   1.276   1.494   1.636   1.642   1.619   1.642
   1.636   1.494   1.276   1.184   1.322   1.540   1.589   1.403   1.186   1.177
   1.402   1.685   1.892   2.067   2.309   2.578   2.700   2.578   2.309   2.067
   1.892   1.685   1.402   1.177   1.186   1.403   1.589   1.540   1.322   1.184
   1.276   1.494   1.636   1.642   1.619   1.642   1.636   1.494   1.276   1.184
   1.322   1.540   1.589   1.403   1.186   1.177   1.402   1.685   1.892   2.067
   2.309   2.578
 111       5.00   72    0 5.00   18    0
   0.237   0.237   0.236   0.236   0.235   0.234   0.233   0.232   0.231   0.230
   0.229   0.228   0.227   0.226   0.225   0.225   0.224   0.224   0.224   0.224
   0.224   0.225   0.225   0.226   0.227   0.228   0.229   0.230   0.231   0.232
   0.233   0.234   0.235   0.236   0.236   0.237   0.237   0.237   0.236   0.236
   0.235   0.234   0.233   0.232   0.231   0.230   0.229   0.228   0.227   0.226
   0.225   0.225   0.224   0.224   0.224   0.224   0.224   0.225   0.225   0.226
   0.227   0.228   0.229   0.230   0.231   0.232   0.233   0.234   0.235   0.236
   0.236   0.237
   0.397   0.395   0.392   0.387   0.380   0.371   0.362   0.351   0.341   0.331
   0.321   0.312   0.304   0.297   0.292   0.287   0.284   0.282   0.281   0.282
   0.284   0.287   0.292   0.297   0.304   0.312   0.321   0.331   0.341   0.351
   0.362   0.371   0.380   0.387   0.392   0.395   0.397   0.395   0.392   0.387
   0.380   0.371   0.362   0.351   0.341   0.331   0.321   0.312   0.304   0.297
   0.292   0.287   0.284   0.282   0.281   0.282   0.284   0.287   0.292   0.297
   0.304   0.312   0.321   0.331   0.341   0.351   0.362   0.371   0.380   0.387
   0.392   0.395
   0.659   0.655   0.643   0.624   0.599   0.570   0.539   0.508   0.478   0.451
   0.427   0.406   0.389   0.376   0.365   0.358   0.353   0.350   0.349   0.350
   0.353   0.358   0.365   0.376   0.389   0.406   0.427   0.451   0.478   0.508
   0.539   0.570   0.599   0.624   0.643   0.655   0.659   0.655   0.643   0.624
   0.599   0.570   0.539   0.508   0.478   0.451   0.427   0.406   0.389   0.376
   0.365   0.358   0.353   0.350   0.349   0.350   0.353   0.358   0.365   0.376
   0.389   0.406   0.427   0.451   0.478   0.508   0.539   0.570   0.599   0.624
   0.643   0.655
   0.981   0.971   0.941   0.895   0.837   0.771   0.704   0.640   0.581   0.532
   0.492   0.461   0.438   0.421   0.410   0.402   0.397   0.394   0.393   0.394
   0.397   0.402   0.410   0.421   0.438   0.461   0.492   0.532   0.581   0.640
   0.704   0.771   0.837   0.895   0.941   0.971   0.981   0.971   0.941   0.895
   0.837   0.771   0.704   0.640   0.581   0.532   0.492   0.461   0.438   0.421
   0.410   0.402   0.397   0.394   0.393   0.394   0.397   0.402   0.410   0.421
   0.438   0.461   0.492   0.532   0.581   0.640   0.704   0.771   0.837   0.895
   0.941   0.971
   1.350   1.331   1.278   1.196   1.094   0.983   0.872   0.770   0.683   0.614
   0.561   0.523   0.497   0.478   0.465   0.455   0.448   0.444   0.442   0.444
   0.448   0.455   0.465   0.478   0.497   0.523   0.561   0.614   0.683   0.770
   0.872   0.983   1.094   1.196   1.278   1.331   1.350   1.331   1.278   1.196
   1.094   0.983   0.872   0.770   0.683   0.614   0.561   0.523   0.497   0.478
   0.465   0.455   0.448   0.444   0.442   0.444   0.448   0.455   0.465   0.478
   0.497   0.523   0.561   0.614   0.683   0.770   0.872   0.983   1.094   1.196
   1.278   1.331
   1.711   1.686   1.614   1.505   1.372   1.228   1.089   0.966   0.864   0.785
   0.727   0.683   0.649   0.621   0.595   0.573   0.556   0.545   0.541   0.545
   0.556   0.573   0.595   0.621   0.649   0.683   0.727   0.785   0.864   0.966
   1.089   1.228   1.372   1.505   1.614   1.686   1.711   1.686   1.614   1.505
   1.372   1.228   1.089   0.966   0.864   0.785   0.727   0.683   0.649   0.621
   0.595   0.573   0.556   0.545   0.541   0.545   0.556   0.573   0.595   0.621
   0.649   0.683   0.727   0.785   0.864   0.966   1.089   1.228   1.372   1.505
   1.614   1.686
   1.910   1.886   1.817   1.713   1.588   1.457   1.333   1.226   1.140   1.071
   1.014   0.961   0.907   0.852   0.799   0.752   0.716   0.695   0.687   0.695
   0.716   0.752   0.799   0.852   0.907   0.961   1.014   1.071   1.140   1.226
   1.333   1.457   1.588   1.713   1.817   1.886   1.910   1.886   1.817   1.713
   1.588   1.457   1.333   1.226   1.140   1.071   1.014   0.961   0.907   0.852
   0.799   0.752   0.716   0.695   0.687   0.695   0.716   0.752   0.799   0.852
   0.907   0.961   1.014   1.071   1.140   1.226   1.333   1.457   1.588   1.713
   1.817   1.886
   1.793   1.778   1.737   1.678   1.613   1.550   1.497   1.456   1.423   1.388
   1.341   1.273   1.186   1.087   0.992   0.914   0.860   0.830   0.821   0.830
   0.860   0.914   0.992   1.087   1.186   1.273   1.341   1.388   1.423   1.456
   1.497   1.550   1.613   1.678   1.737   1.778   1.793   1.778   1.737   1.678
   1.613   1.550   1.497   1.456   1.423   1.388   1.341   1.273   1.186   1.087
   0.992   0.914   0.860   0.830   0.821   0.830   0.860   0.914   0.992   1.087
   1.186   1.273   1.341   1.388   1.423   1.456   1.497   1.550   1.613   1.678
   1.737   1.778
   1.374   1.372   1.369   1.375   1.397   1.438   1.493   1.551   1.600   1.619
   1.594   1.515   1.389   1.241   1.102   0.996   0.932   0.903   0.895   0.903
   0.932   0.996   1.102   1.241   1.389   1.515   1.594   1.619   1.600   1.551
   1.493   1.438   1.397   1.375   1.369   1.372   1.374   1.372   1.369   1.375
   1.397   1.438   1.493   1.551   1.600   1.619   1.594   1.515   1.389   1.241
   1.102   0.996   0.932   0.903   0.895   0.903   0.932   0.996   1.102   1.241
   1.389   1.515   1.594   1.619   1.600   1.551   1.493   1.438   1.397   1.375
   1.369   1.372
   0.884   0.887   0.906   0.958   1.054   1.189   1.345   1.498   1.627   1.706
   1.715   1.640   1.493   1.310   1.140   1.019   0.957   0.936   0.933   0.936
   0.957   1.019   1.140   1.310   1.493   1.640   1.715   1.706   1.627   1.498
   1.345   1.189   1.054   0.958   0.906   0.887   0.884   0.887   0.906   0.958
   1.054   1.189   1.345   1.498   1.627   1.706   1.715   1.640   1.493   1.310
   1.140   1.019   0.957   0.936   0.933   0.936   0.957   1.019   1.140   1.310
   1.493   1.640   1.715   1.706   1.627   1.498   1.345   1.189   1.054   0.958
   0.906   0.887
   0.583   0.579   0.586   0.642   0.770   0.957   1.167   1.367   1.535   1.654
   1.700   1.654   1.521   1.342   1.172   1.055   1.001   0.989   0.990   0.989
   1.001   1.055   1.172   1.342   1.521   1.654   1.700   1.654   1.535   1.367
   1.167   0.957   0.770   0.642   0.586   0.579   0.583   0.579   0.586   0.642
   0.770   0.957   1.167   1.367   1.535   1.654   1.700   1.654   1.521   1.342
   1.172   1.055   1.001   0.989   0.990   0.989   1.001   1.055   1.172   1.342
   1.521   1.654   1.700   1.654   1.535   1.367   1.167   0.957   0.770   0.642
   0.586   0.579
   0.539   0.518   0.488   0.519   0.648   0.845   1.051   1.226   1.367   1.480
   1.552   1.553   1.477   1.350   1.223   1.134   1.092   1.079   1.078   1.079
   1.092   1.134   1.223   1.350   1.477   1.553   1.552   1.480   1.367   1.226
   1.051   0.845   0.648   0.519   0.488   0.518   0.539   0.518   0.488   0.519
   0.648   0.845   1.051   1.226   1.367   1.480   1.552   1.553   1.477   1.350
   1.223   1.134   1.092   1.079   1.078   1.079   1.092   1.134   1.223   1.350
   1.477   1.553   1.552   1.480   1.367   1.226   1.051   0.845   0.648   0.519
   0.488   0.518
   0.627   0.584   0.511   0.515   0.641   0.835   0.998   1.090   1.142   1.201
   1.273   1.323   1.324   1.288   1.244   1.206   1.173   1.145   1.133   1.145
   1.173   1.206   1.244   1.288   1.324   1.323   1.273   1.201   1.142   1.090
   0.998   0.835   0.641   0.515   0.511   0.584   0.627   0.584   0.511   0.515
   0.641   0.835   0.998   1.090   1.142   1.201   1.273   1.323   1.324   1.288
   1.244   1.206   1.173   1.145   1.133   1.145   1.173   1.206   1.244   1.288
   1.324   1.323   1.273   1.201   1.142   1.090   0.998   0.835   0.641   0.515
   0.511   0.584
   0.728   0.663   0.546   0.527   0.660   0.850   0.960   0.950   0.892   0.880
   0.932   1.006   1.070   1.126   1.178   1.202   1.174   1.115   1.085   1.115
   1.174   1.202   1.178   1.126   1.070   1.006   0.932   0.880   0.892   0.950
   0.960   0.850   0.660   0.527   0.546   0.663   0.728   0.663   0.546   0.527
   0.660   0.850   0.960   0.950   0.892   0.880   0.932   1.006   1.070   1.126
   1.178   1.202   1.174   1.115   1.085   1.115   1.174   1.202   1.178   1.126
   1.070   1.006   0.932   0.880   0.892   0.950   0.960   0.850   0.660   0.527
   0.546   0.663
   0.899   0.805   0.629   0.567   0.687   0.863   0.923   0.832   0.701   0.644
   0.675   0.739   0.814   0.921   1.048   1.124   1.091   0.989   0.935   0.989
   1.091   1.124   1.048   0.921   0.814   0.739   0.675   0.644   0.701   0.832
   0.923   0.863   0.687   0.567   0.629   0.805   0.899   0.805   0.629   0.567
   0.687   0.863   0.923   0.832   0.701   0.644   0.675   0.739   0.814   0.921
   1.048   1.124   1.091   0.989   0.935   0.989   1.091   1.124   1.048   0.921
   0.814   0.739   0.675   0.644   0.701   0.832   0.923   0.863   0.687   0.567
   0.629   0.805
   1.263   1.130   0.864   0.714   0.774   0.904   0.918   0.789   0.649   0.605
   0.633   0.660   0.687   0.781   0.936   1.039   0.988   0.838   0.757   0.838
   0.988   1.039   0.936   0.781   0.687   0.660   0.633   0.605   0.649   0.789
   0.918   0.904   0.774   0.714   0.864   1.130   1.263   1.130   0.864   0.714
   0.774   0.904   0.918   0.789   0.649   0.605   0.633   0.660   0.687   0.781
   0.936   1.039   0.988   0.838   0.757   0.838   0.988   1.039   0.936   0.781
   0.687   0.660   0.633   0.605   0.649   0.789   0.918   0.904   0.774   0.714
   0.864   1.130
   1.777   1.601   1.231   0.964   0.929   0.989   0.959   0.827   0.728   0.740
   0.785   0.766   0.716   0.754   0.898   1.001   0.926   0.732   0.628   0.732
   0.926   1.001   0.898   0.754   0.716   0.766   0.785   0.740   0.728   0.827
   0.959   0.989   0.929   0.964   1.231   1.601   1.777   1.601   1.231   0.964
   0.929   0.989   0.959   0.827   0.728   0.740   0.785   0.766   0.716   0.754
   0.898   1.001   0.926   0.732   0.628   0.732   0.926   1.001   0.898   0.754
   0.716   0.766   0.785   0.740   0.728   0.827   0.959   0.989   0.929   0.964
   1.231   1.601
   2.170   1.965   1.522   1.170   1.059   1.065   1.008   0.883   0.826   0.886
   0.950   0.901   0.793   0.783   0.906   1.001   0.908   0.688   0.571   0.688
   0.908   1.001   0.906   0.783   0.793   0.901   0.950   0.886   0.826   0.883
   1.008   1.065   1.059   1.170   1.522   1.965   2.170   1.965   1.522   1.170
   1.059   1.065   1.008   0.883   0.826   0.886   0.950   0.901   0.793   0.783
   0.906   1.001   0.908   0.688   0.571   0.688   0.908   1.001   0.906   0.783
   0.793   0.901   0.950   0.886   0.826   0.883   1.008   1.065   1.059   1.170
   1.522   1.965
TEXTURE_INDEX=   1.4669
ERR_CF 220         1080     630   26.31   23.99
ERR_CF 200         1080     542   22.07   17.63
ERR_CF 111         1080     490   24.05   15.75
