TEXEVAL                                                                         
Analysis started on 21-Oct-19 10:20:44                                          
 LMAX=14LFMAX=03 CUBIC ORTHO   
 220      5.00 5.00
 200      5.00 5.00
 111      5.00 5.00
 220       5.00   72    0 5.00   15    0
   2.381   2.381   2.381   2.381   2.381   2.381   2.381   2.381   2.381   2.381
   2.381   2.381   2.381   2.381   2.381   2.381   2.381   2.381   2.381   2.381
   2.381   2.381   2.381   2.381   2.381   2.381   2.381   2.381   2.381   2.381
   2.381   2.381   2.381   2.381   2.381   2.381   2.381   2.381   2.381   2.381
   2.381   2.381   2.381   2.381   2.381   2.381   2.381   2.381   2.381   2.381
   2.381   2.381   2.381   2.381   2.381   2.381   2.381   2.381   2.381   2.381
   2.381   2.381   2.381   2.381   2.381   2.381   2.381   2.381   2.381   2.381
   2.381   2.381
   1.269   1.893   1.786   1.865   1.454   1.503   1.229   1.952   1.629   1.607
   1.866   1.980   2.556   1.953   2.026   1.819   2.175   1.862   2.389   1.862
   2.175   1.819   2.026   1.953   2.556   1.980   1.866   1.607   1.629   1.952
   1.229   1.503   1.454   1.865   1.786   1.893   1.269   1.893   1.786   1.865
   1.454   1.503   1.229   1.952   1.629   1.607   1.866   1.980   2.556   1.953
   2.026   1.819   2.175   1.862   2.389   1.862   2.175   1.819   2.026   1.953
   2.556   1.980   1.866   1.607   1.629   1.952   1.229   1.503   1.454   1.865
   1.786   1.893
   0.908   1.141   1.225   1.317   1.054   1.179   0.997   1.353   1.477   1.430
   1.585   1.975   1.819   1.755   1.905   2.049   2.300   2.076   2.631   2.076
   2.300   2.049   1.905   1.755   1.819   1.975   1.585   1.430   1.477   1.353
   0.997   1.179   1.054   1.317   1.225   1.141   0.908   1.141   1.225   1.317
   1.054   1.179   0.997   1.353   1.477   1.430   1.585   1.975   1.819   1.755
   1.905   2.049   2.300   2.076   2.631   2.076   2.300   2.049   1.905   1.755
   1.819   1.975   1.585   1.430   1.477   1.353   0.997   1.179   1.054   1.317
   1.225   1.141
   0.544   0.741   0.888   0.749   0.732   0.968   0.909   1.037   1.104   1.208
   1.084   1.444   1.720   1.805   1.831   2.245   2.308   2.577   2.707   2.577
   2.308   2.245   1.831   1.805   1.720   1.444   1.084   1.208   1.104   1.037
   0.909   0.968   0.732   0.749   0.888   0.741   0.544   0.741   0.888   0.749
   0.732   0.968   0.909   1.037   1.104   1.208   1.084   1.444   1.720   1.805
   1.831   2.245   2.308   2.577   2.707   2.577   2.308   2.245   1.831   1.805
   1.720   1.444   1.084   1.208   1.104   1.037   0.909   0.968   0.732   0.749
   0.888   0.741
   0.427   0.532   0.632   0.566   0.648   0.711   0.814   0.771   0.927   1.031
   0.988   1.252   1.618   1.969   1.841   2.664   2.379   2.662   2.783   2.662
   2.379   2.664   1.841   1.969   1.618   1.252   0.988   1.031   0.927   0.771
   0.814   0.711   0.648   0.566   0.632   0.532   0.427   0.532   0.632   0.566
   0.648   0.711   0.814   0.771   0.927   1.031   0.988   1.252   1.618   1.969
   1.841   2.664   2.379   2.662   2.783   2.662   2.379   2.664   1.841   1.969
   1.618   1.252   0.988   1.031   0.927   0.771   0.814   0.711   0.648   0.566
   0.632   0.532
   0.509   0.388   0.560   0.387   0.544   0.606   0.658   0.688   0.836   0.790
   0.991   1.356   1.366   1.601   1.823   2.434   2.400   2.377   2.659   2.377
   2.400   2.434   1.823   1.601   1.366   1.356   0.991   0.790   0.836   0.688
   0.658   0.606   0.544   0.387   0.560   0.388   0.509   0.388   0.560   0.387
   0.544   0.606   0.658   0.688   0.836   0.790   0.991   1.356   1.366   1.601
   1.823   2.434   2.400   2.377   2.659   2.377   2.400   2.434   1.823   1.601
   1.366   1.356   0.991   0.790   0.836   0.688   0.658   0.606   0.544   0.387
   0.560   0.388
   0.468   0.560   0.657   0.405   0.575   0.753   0.558   0.669   0.616   0.778
   1.036   1.037   1.378   1.443   1.749   2.002   2.037   2.376   2.148   2.376
   2.037   2.002   1.749   1.443   1.378   1.037   1.036   0.778   0.616   0.669
   0.558   0.753   0.575   0.405   0.657   0.560   0.468   0.560   0.657   0.405
   0.575   0.753   0.558   0.669   0.616   0.778   1.036   1.037   1.378   1.443
   1.749   2.002   2.037   2.376   2.148   2.376   2.037   2.002   1.749   1.443
   1.378   1.037   1.036   0.778   0.616   0.669   0.558   0.753   0.575   0.405
   0.657   0.560
   0.743   0.927   0.825   0.810   0.787   0.773   0.614   0.673   0.646   0.676
   1.002   0.892   1.086   1.374   1.553   1.955   1.925   2.330   1.944   2.330
   1.925   1.955   1.553   1.374   1.086   0.892   1.002   0.676   0.646   0.673
   0.614   0.773   0.787   0.810   0.825   0.927   0.743   0.927   0.825   0.810
   0.787   0.773   0.614   0.673   0.646   0.676   1.002   0.892   1.086   1.374
   1.553   1.955   1.925   2.330   1.944   2.330   1.925   1.955   1.553   1.374
   1.086   0.892   1.002   0.676   0.646   0.673   0.614   0.773   0.787   0.810
   0.825   0.927
   1.380   1.217   1.080   1.140   1.024   0.817   0.763   0.635   0.818   0.529
   0.871   1.014   0.828   1.091   1.410   1.561   1.684   2.194   1.863   2.194
   1.684   1.561   1.410   1.091   0.828   1.014   0.871   0.529   0.818   0.635
   0.763   0.817   1.024   1.140   1.080   1.217   1.380   1.217   1.080   1.140
   1.024   0.817   0.763   0.635   0.818   0.529   0.871   1.014   0.828   1.091
   1.410   1.561   1.684   2.194   1.863   2.194   1.684   1.561   1.410   1.091
   0.828   1.014   0.871   0.529   0.818   0.635   0.763   0.817   1.024   1.140
   1.080   1.217
   1.875   1.492   1.725   1.309   1.125   0.932   0.888   0.729   0.929   0.663
   0.757   0.812   0.683   0.966   1.336   1.152   1.318   1.564   1.388   1.564
   1.318   1.152   1.336   0.966   0.683   0.812   0.757   0.663   0.929   0.729
   0.888   0.932   1.125   1.309   1.725   1.492   1.875   1.492   1.725   1.309
   1.125   0.932   0.888   0.729   0.929   0.663   0.757   0.812   0.683   0.966
   1.336   1.152   1.318   1.564   1.388   1.564   1.318   1.152   1.336   0.966
   0.683   0.812   0.757   0.663   0.929   0.729   0.888   0.932   1.125   1.309
   1.725   1.492
   1.852   1.699   2.058   1.686   1.257   1.251   0.995   1.049   1.033   0.783
   0.609   0.705   0.565   0.836   1.115   1.024   1.080   1.072   1.203   1.072
   1.080   1.024   1.115   0.836   0.565   0.705   0.609   0.783   1.033   1.049
   0.995   1.251   1.257   1.686   2.058   1.699   1.852   1.699   2.058   1.686
   1.257   1.251   0.995   1.049   1.033   0.783   0.609   0.705   0.565   0.836
   1.115   1.024   1.080   1.072   1.203   1.072   1.080   1.024   1.115   0.836
   0.565   0.705   0.609   0.783   1.033   1.049   0.995   1.251   1.257   1.686
   2.058   1.699
   1.901   1.564   1.798   1.670   1.295   1.575   1.017   1.085   1.015   0.927
   0.628   0.820   0.885   0.864   1.090   0.729   0.867   0.983   1.288   0.983
   0.867   0.729   1.090   0.864   0.885   0.820   0.628   0.927   1.015   1.085
   1.017   1.575   1.295   1.670   1.798   1.564   1.901   1.564   1.798   1.670
   1.295   1.575   1.017   1.085   1.015   0.927   0.628   0.820   0.885   0.864
   1.090   0.729   0.867   0.983   1.288   0.983   0.867   0.729   1.090   0.864
   0.885   0.820   0.628   0.927   1.015   1.085   1.017   1.575   1.295   1.670
   1.798   1.564
   1.976   1.366   1.167   1.584   1.421   1.491   0.903   1.010   0.835   0.705
   0.647   0.554   0.868   0.662   0.916   0.530   0.598   0.660   0.860   0.660
   0.598   0.530   0.916   0.662   0.868   0.554   0.647   0.705   0.835   1.010
   0.903   1.491   1.421   1.584   1.167   1.366   1.976   1.366   1.167   1.584
   1.421   1.491   0.903   1.010   0.835   0.705   0.647   0.554   0.868   0.662
   0.916   0.530   0.598   0.660   0.860   0.660   0.598   0.530   0.916   0.662
   0.868   0.554   0.647   0.705   0.835   1.010   0.903   1.491   1.421   1.584
   1.167   1.366
   1.235   1.235   0.782   1.191   1.150   1.067   1.021   0.777   0.828   0.559
   0.782   0.361   0.709   0.379   0.551   0.608   0.331   0.411   0.297   0.411
   0.331   0.608   0.551   0.379   0.709   0.361   0.782   0.559   0.828   0.777
   1.021   1.067   1.150   1.191   0.782   1.235   1.235   1.235   0.782   1.191
   1.150   1.067   1.021   0.777   0.828   0.559   0.782   0.361   0.709   0.379
   0.551   0.608   0.331   0.411   0.297   0.411   0.331   0.608   0.551   0.379
   0.709   0.361   0.782   0.559   0.828   0.777   1.021   1.067   1.150   1.191
   0.782   1.235
   0.638   0.726   0.640   0.702   0.544   0.727   0.914   0.654   1.049   0.514
   1.047   0.512   0.795   0.625   0.485   0.517   0.329   0.572   0.193   0.572
   0.329   0.517   0.485   0.625   0.795   0.512   1.047   0.514   1.049   0.654
   0.914   0.727   0.544   0.702   0.640   0.726   0.638   0.726   0.640   0.702
   0.544   0.727   0.914   0.654   1.049   0.514   1.047   0.512   0.795   0.625
   0.485   0.517   0.329   0.572   0.193   0.572   0.329   0.517   0.485   0.625
   0.795   0.512   1.047   0.514   1.049   0.654   0.914   0.727   0.544   0.702
   0.640   0.726
 200       5.00   72    0 5.00   15    0
   2.900   2.900   2.900   2.900   2.900   2.900   2.900   2.900   2.900   2.900
   2.900   2.900   2.900   2.900   2.900   2.900   2.900   2.900   2.900   2.900
   2.900   2.900   2.900   2.900   2.900   2.900   2.900   2.900   2.900   2.900
   2.900   2.900   2.900   2.900   2.900   2.900   2.900   2.900   2.900   2.900
   2.900   2.900   2.900   2.900   2.900   2.900   2.900   2.900   2.900   2.900
   2.900   2.900   2.900   2.900   2.900   2.900   2.900   2.900   2.900   2.900
   2.900   2.900   2.900   2.900   2.900   2.900   2.900   2.900   2.900   2.900
   2.900   2.900
   2.498   2.485   2.389   2.355   2.090   1.974   2.000   2.402   2.615   2.264
   2.173   2.870   1.922   2.020   2.408   1.961   1.829   2.137   1.924   2.137
   1.829   1.961   2.408   2.020   1.922   2.870   2.173   2.264   2.615   2.402
   2.000   1.974   2.090   2.355   2.389   2.485   2.498   2.485   2.389   2.355
   2.090   1.974   2.000   2.402   2.615   2.264   2.173   2.870   1.922   2.020
   2.408   1.961   1.829   2.137   1.924   2.137   1.829   1.961   2.408   2.020
   1.922   2.870   2.173   2.264   2.615   2.402   2.000   1.974   2.090   2.355
   2.389   2.485
   1.515   1.911   1.674   1.747   2.083   1.787   1.565   1.818   2.181   1.581
   1.767   1.811   1.383   1.639   1.543   1.327   1.674   1.771   1.669   1.771
   1.674   1.327   1.543   1.639   1.383   1.811   1.767   1.581   2.181   1.818
   1.565   1.787   2.083   1.747   1.674   1.911   1.515   1.911   1.674   1.747
   2.083   1.787   1.565   1.818   2.181   1.581   1.767   1.811   1.383   1.639
   1.543   1.327   1.674   1.771   1.669   1.771   1.674   1.327   1.543   1.639
   1.383   1.811   1.767   1.581   2.181   1.818   1.565   1.787   2.083   1.747
   1.674   1.911
   1.488   1.599   1.641   1.438   1.816   1.373   1.462   1.359   1.621   1.282
   1.327   1.431   0.997   1.312   1.346   1.181   1.360   1.188   1.226   1.188
   1.360   1.181   1.346   1.312   0.997   1.431   1.327   1.282   1.621   1.359
   1.462   1.373   1.816   1.438   1.641   1.599   1.488   1.599   1.641   1.438
   1.816   1.373   1.462   1.359   1.621   1.282   1.327   1.431   0.997   1.312
   1.346   1.181   1.360   1.188   1.226   1.188   1.360   1.181   1.346   1.312
   0.997   1.431   1.327   1.282   1.621   1.359   1.462   1.373   1.816   1.438
   1.641   1.599
   1.569   1.787   1.668   1.605   1.671   1.249   1.704   1.151   1.341   1.186
   1.031   1.106   0.740   1.128   0.993   1.030   0.949   0.860   0.791   0.860
   0.949   1.030   0.993   1.128   0.740   1.106   1.031   1.186   1.341   1.151
   1.704   1.249   1.671   1.605   1.668   1.787   1.569   1.787   1.668   1.605
   1.671   1.249   1.704   1.151   1.341   1.186   1.031   1.106   0.740   1.128
   0.993   1.030   0.949   0.860   0.791   0.860   0.949   1.030   0.993   1.128
   0.740   1.106   1.031   1.186   1.341   1.151   1.704   1.249   1.671   1.605
   1.668   1.787
   1.537   1.945   1.605   1.562   1.657   1.558   1.612   1.288   1.268   1.176
   1.074   0.783   0.845   1.027   0.711   0.906   0.785   0.823   0.571   0.823
   0.785   0.906   0.711   1.027   0.845   0.783   1.074   1.176   1.268   1.288
   1.612   1.558   1.657   1.562   1.605   1.945   1.537   1.945   1.605   1.562
   1.657   1.558   1.612   1.288   1.268   1.176   1.074   0.783   0.845   1.027
   0.711   0.906   0.785   0.823   0.571   0.823   0.785   0.906   0.711   1.027
   0.845   0.783   1.074   1.176   1.268   1.288   1.612   1.558   1.657   1.562
   1.605   1.945
   1.563   1.662   1.669   1.272   1.660   1.827   1.391   1.273   1.066   1.119
   1.079   0.742   0.832   0.957   0.809   0.753   0.842   0.867   0.722   0.867
   0.842   0.753   0.809   0.957   0.832   0.742   1.079   1.119   1.066   1.273
   1.391   1.827   1.660   1.272   1.669   1.662   1.563   1.662   1.669   1.272
   1.660   1.827   1.391   1.273   1.066   1.119   1.079   0.742   0.832   0.957
   0.809   0.753   0.842   0.867   0.722   0.867   0.842   0.753   0.809   0.957
   0.832   0.742   1.079   1.119   1.066   1.273   1.391   1.827   1.660   1.272
   1.669   1.662
   1.316   1.233   1.324   1.227   1.498   1.349   1.173   1.127   0.858   0.965
   1.002   0.638   0.557   0.631   0.691   0.784   0.756   0.627   0.805   0.627
   0.756   0.784   0.691   0.631   0.557   0.638   1.002   0.965   0.858   1.127
   1.173   1.349   1.498   1.227   1.324   1.233   1.316   1.233   1.324   1.227
   1.498   1.349   1.173   1.127   0.858   0.965   1.002   0.638   0.557   0.631
   0.691   0.784   0.756   0.627   0.805   0.627   0.756   0.784   0.691   0.631
   0.557   0.638   1.002   0.965   0.858   1.127   1.173   1.349   1.498   1.227
   1.324   1.233
   0.859   0.718   0.844   0.964   0.900   0.824   0.957   1.023   0.968   0.787
   0.968   0.655   0.547   0.654   0.592   0.714   0.674   0.609   0.854   0.609
   0.674   0.714   0.592   0.654   0.547   0.655   0.968   0.787   0.968   1.023
   0.957   0.824   0.900   0.964   0.844   0.718   0.859   0.718   0.844   0.964
   0.900   0.824   0.957   1.023   0.968   0.787   0.968   0.655   0.547   0.654
   0.592   0.714   0.674   0.609   0.854   0.609   0.674   0.714   0.592   0.654
   0.547   0.655   0.968   0.787   0.968   1.023   0.957   0.824   0.900   0.964
   0.844   0.718
   0.442   0.380   0.508   0.506   0.527   0.767   0.694   0.782   1.045   0.706
   0.786   0.887   0.671   0.711   0.693   0.561   0.576   0.662   0.748   0.662
   0.576   0.561   0.693   0.711   0.671   0.887   0.786   0.706   1.045   0.782
   0.694   0.767   0.527   0.506   0.508   0.380   0.442   0.380   0.508   0.506
   0.527   0.767   0.694   0.782   1.045   0.706   0.786   0.887   0.671   0.711
   0.693   0.561   0.576   0.662   0.748   0.662   0.576   0.561   0.693   0.711
   0.671   0.887   0.786   0.706   1.045   0.782   0.694   0.767   0.527   0.506
   0.508   0.380
   0.253   0.409   0.298   0.335   0.486   0.658   0.476   0.644   0.832   0.775
   0.686   0.908   0.892   0.728   0.562   0.537   0.716   0.684   0.765   0.684
   0.716   0.537   0.562   0.728   0.892   0.908   0.686   0.775   0.832   0.644
   0.476   0.658   0.486   0.335   0.298   0.409   0.253   0.409   0.298   0.335
   0.486   0.658   0.476   0.644   0.832   0.775   0.686   0.908   0.892   0.728
   0.562   0.537   0.716   0.684   0.765   0.684   0.716   0.537   0.562   0.728
   0.892   0.908   0.686   0.775   0.832   0.644   0.476   0.658   0.486   0.335
   0.298   0.409
   0.179   0.456   0.334   0.342   0.545   0.538   0.507   0.663   0.705   0.792
   0.647   0.692   0.810   0.845   0.545   0.451   0.778   0.844   0.829   0.844
   0.778   0.451   0.545   0.845   0.810   0.692   0.647   0.792   0.705   0.663
   0.507   0.538   0.545   0.342   0.334   0.456   0.179   0.456   0.334   0.342
   0.545   0.538   0.507   0.663   0.705   0.792   0.647   0.692   0.810   0.845
   0.545   0.451   0.778   0.844   0.829   0.844   0.778   0.451   0.545   0.845
   0.810   0.692   0.647   0.792   0.705   0.663   0.507   0.538   0.545   0.342
   0.334   0.456
   0.394   0.410   0.272   0.376   0.459   0.514   0.493   0.691   0.931   1.040
   0.622   0.808   0.731   0.891   0.710   0.562   0.748   0.657   0.717   0.657
   0.748   0.562   0.710   0.891   0.731   0.808   0.622   1.040   0.931   0.691
   0.493   0.514   0.459   0.376   0.272   0.410   0.394   0.410   0.272   0.376
   0.459   0.514   0.493   0.691   0.931   1.040   0.622   0.808   0.731   0.891
   0.710   0.562   0.748   0.657   0.717   0.657   0.748   0.562   0.710   0.891
   0.731   0.808   0.622   1.040   0.931   0.691   0.493   0.514   0.459   0.376
   0.272   0.410
   0.523   0.360   0.297   0.265   0.641   0.771   0.650   1.039   1.045   1.345
   0.715   1.148   0.875   1.107   0.971   0.898   0.975   0.725   0.911   0.725
   0.975   0.898   0.971   1.107   0.875   1.148   0.715   1.345   1.045   1.039
   0.650   0.771   0.641   0.265   0.297   0.360   0.523   0.360   0.297   0.265
   0.641   0.771   0.650   1.039   1.045   1.345   0.715   1.148   0.875   1.107
   0.971   0.898   0.975   0.725   0.911   0.725   0.975   0.898   0.971   1.107
   0.875   1.148   0.715   1.345   1.045   1.039   0.650   0.771   0.641   0.265
   0.297   0.360
   0.530   0.389   0.514   0.503   0.819   0.837   0.763   1.126   0.874   1.098
   1.021   1.143   1.072   1.158   1.022   1.024   0.741   0.828   1.004   0.828
   0.741   1.024   1.022   1.158   1.072   1.143   1.021   1.098   0.874   1.126
   0.763   0.837   0.819   0.503   0.514   0.389   0.530   0.389   0.514   0.503
   0.819   0.837   0.763   1.126   0.874   1.098   1.021   1.143   1.072   1.158
   1.022   1.024   0.741   0.828   1.004   0.828   0.741   1.024   1.022   1.158
   1.072   1.143   1.021   1.098   0.874   1.126   0.763   0.837   0.819   0.503
   0.514   0.389
 111       5.00   72    0 5.00   15    0
   0.359   0.359   0.359   0.359   0.359   0.359   0.359   0.359   0.359   0.359
   0.359   0.359   0.359   0.359   0.359   0.359   0.359   0.359   0.359   0.359
   0.359   0.359   0.359   0.359   0.359   0.359   0.359   0.359   0.359   0.359
   0.359   0.359   0.359   0.359   0.359   0.359   0.359   0.359   0.359   0.359
   0.359   0.359   0.359   0.359   0.359   0.359   0.359   0.359   0.359   0.359
   0.359   0.359   0.359   0.359   0.359   0.359   0.359   0.359   0.359   0.359
   0.359   0.359   0.359   0.359   0.359   0.359   0.359   0.359   0.359   0.359
   0.359   0.359
   0.784   0.566   0.580   0.634   0.521   0.593   0.325   0.266   0.504   0.621
   0.412   0.483   0.504   0.333   0.496   0.507   0.325   0.389   0.233   0.389
   0.325   0.507   0.496   0.333   0.504   0.483   0.412   0.621   0.504   0.266
   0.325   0.593   0.521   0.634   0.580   0.566   0.784   0.566   0.580   0.634
   0.521   0.593   0.325   0.266   0.504   0.621   0.412   0.483   0.504   0.333
   0.496   0.507   0.325   0.389   0.233   0.389   0.325   0.507   0.496   0.333
   0.504   0.483   0.412   0.621   0.504   0.266   0.325   0.593   0.521   0.634
   0.580   0.566
   1.073   0.852   0.812   0.864   0.801   0.880   0.608   0.574   0.675   0.613
   0.471   0.711   0.500   0.406   0.397   0.535   0.326   0.428   0.376   0.428
   0.326   0.535   0.397   0.406   0.500   0.711   0.471   0.613   0.675   0.574
   0.608   0.880   0.801   0.864   0.812   0.852   1.073   0.852   0.812   0.864
   0.801   0.880   0.608   0.574   0.675   0.613   0.471   0.711   0.500   0.406
   0.397   0.535   0.326   0.428   0.376   0.428   0.326   0.535   0.397   0.406
   0.500   0.711   0.471   0.613   0.675   0.574   0.608   0.880   0.801   0.864
   0.812   0.852
   1.273   1.166   1.400   1.135   1.190   1.036   0.849   0.964   0.917   0.719
   0.533   0.804   0.687   0.628   0.432   0.551   0.407   0.356   0.547   0.356
   0.407   0.551   0.432   0.628   0.687   0.804   0.533   0.719   0.917   0.964
   0.849   1.036   1.190   1.135   1.400   1.166   1.273   1.166   1.400   1.135
   1.190   1.036   0.849   0.964   0.917   0.719   0.533   0.804   0.687   0.628
   0.432   0.551   0.407   0.356   0.547   0.356   0.407   0.551   0.432   0.628
   0.687   0.804   0.533   0.719   0.917   0.964   0.849   1.036   1.190   1.135
   1.400   1.166
   2.179   1.631   1.749   1.498   1.592   1.367   1.099   1.272   0.967   0.835
   0.627   0.798   0.719   0.607   0.503   0.506   0.515   0.416   0.633   0.416
   0.515   0.506   0.503   0.607   0.719   0.798   0.627   0.835   0.967   1.272
   1.099   1.367   1.592   1.498   1.749   1.631   2.179   1.631   1.749   1.498
   1.592   1.367   1.099   1.272   0.967   0.835   0.627   0.798   0.719   0.607
   0.503   0.506   0.515   0.416   0.633   0.416   0.515   0.506   0.503   0.607
   0.719   0.798   0.627   0.835   0.967   1.272   1.099   1.367   1.592   1.498
   1.749   1.631
   2.717   2.131   2.031   1.971   1.826   1.627   1.415   1.390   0.861   0.856
   0.788   0.830   0.743   0.487   0.525   0.404   0.524   0.484   0.598   0.484
   0.524   0.404   0.525   0.487   0.743   0.830   0.788   0.856   0.861   1.390
   1.415   1.627   1.826   1.971   2.031   2.131   2.717   2.131   2.031   1.971
   1.826   1.627   1.415   1.390   0.861   0.856   0.788   0.830   0.743   0.487
   0.525   0.404   0.524   0.484   0.598   0.484   0.524   0.404   0.525   0.487
   0.743   0.830   0.788   0.856   0.861   1.390   1.415   1.627   1.826   1.971
   2.031   2.131
   2.430   2.351   2.131   2.180   2.119   1.712   1.712   1.526   1.079   1.068
   0.908   0.931   0.764   0.624   0.535   0.471   0.495   0.563   0.612   0.563
   0.495   0.471   0.535   0.624   0.764   0.931   0.908   1.068   1.079   1.526
   1.712   1.712   2.119   2.180   2.131   2.351   2.430   2.351   2.131   2.180
   2.119   1.712   1.712   1.526   1.079   1.068   0.908   0.931   0.764   0.624
   0.535   0.471   0.495   0.563   0.612   0.563   0.495   0.471   0.535   0.624
   0.764   0.931   0.908   1.068   1.079   1.526   1.712   1.712   2.119   2.180
   2.131   2.351
   1.806   1.991   1.954   1.947   1.968   1.751   1.849   1.567   1.396   1.400
   1.027   1.104   0.983   0.964   0.614   0.580   0.545   0.722   0.622   0.722
   0.545   0.580   0.614   0.964   0.983   1.104   1.027   1.400   1.396   1.567
   1.849   1.751   1.968   1.947   1.954   1.991   1.806   1.991   1.954   1.947
   1.968   1.751   1.849   1.567   1.396   1.400   1.027   1.104   0.983   0.964
   0.614   0.580   0.545   0.722   0.622   0.722   0.545   0.580   0.614   0.964
   0.983   1.104   1.027   1.400   1.396   1.567   1.849   1.751   1.968   1.947
   1.954   1.991
   1.142   1.376   1.496   1.463   1.363   1.461   1.688   1.353   1.602   1.426
   1.395   1.285   1.374   1.080   0.707   0.687   0.638   0.860   0.748   0.860
   0.638   0.687   0.707   1.080   1.374   1.285   1.395   1.426   1.602   1.353
   1.688   1.461   1.363   1.463   1.496   1.376   1.142   1.376   1.496   1.463
   1.363   1.461   1.688   1.353   1.602   1.426   1.395   1.285   1.374   1.080
   0.707   0.687   0.638   0.860   0.748   0.860   0.638   0.687   0.707   1.080
   1.374   1.285   1.395   1.426   1.602   1.353   1.688   1.461   1.363   1.463
   1.496   1.376
   0.743   0.704   0.853   1.011   0.903   0.964   1.259   1.510   1.720   1.501
   1.751   1.607   1.507   1.297   1.030   0.930   0.863   1.026   0.850   1.026
   0.863   0.930   1.030   1.297   1.507   1.607   1.751   1.501   1.720   1.510
   1.259   0.964   0.903   1.011   0.853   0.704   0.743   0.704   0.853   1.011
   0.903   0.964   1.259   1.510   1.720   1.501   1.751   1.607   1.507   1.297
   1.030   0.930   0.863   1.026   0.850   1.026   0.863   0.930   1.030   1.297
   1.507   1.607   1.751   1.501   1.720   1.510   1.259   0.964   0.903   1.011
   0.853   0.704
   0.368   0.419   0.548   0.702   0.527   0.859   1.078   1.534   1.583   1.720
   1.914   1.785   1.490   1.398   1.438   1.209   1.151   1.216   0.953   1.216
   1.151   1.209   1.438   1.398   1.490   1.785   1.914   1.720   1.583   1.534
   1.078   0.859   0.527   0.702   0.548   0.419   0.368   0.419   0.548   0.702
   0.527   0.859   1.078   1.534   1.583   1.720   1.914   1.785   1.490   1.398
   1.438   1.209   1.151   1.216   0.953   1.216   1.151   1.209   1.438   1.398
   1.490   1.785   1.914   1.720   1.583   1.534   1.078   0.859   0.527   0.702
   0.548   0.419
   0.192   0.423   0.448   0.487   0.453   0.805   1.029   1.209   1.401   1.734
   1.661   1.487   1.393   1.169   1.389   1.193   1.101   1.315   1.183   1.315
   1.101   1.193   1.389   1.169   1.393   1.487   1.661   1.734   1.401   1.209
   1.029   0.805   0.453   0.487   0.448   0.423   0.192   0.423   0.448   0.487
   0.453   0.805   1.029   1.209   1.401   1.734   1.661   1.487   1.393   1.169
   1.389   1.193   1.101   1.315   1.183   1.315   1.101   1.193   1.389   1.169
   1.393   1.487   1.661   1.734   1.401   1.209   1.029   0.805   0.453   0.487
   0.448   0.423
   0.451   0.451   0.543   0.525   0.662   0.572   0.814   1.033   1.183   1.352
   1.344   1.391   1.256   0.999   1.463   1.076   1.114   1.173   1.172   1.173
   1.114   1.076   1.463   0.999   1.256   1.391   1.344   1.352   1.183   1.033
   0.814   0.572   0.662   0.525   0.543   0.451   0.451   0.451   0.543   0.525
   0.662   0.572   0.814   1.033   1.183   1.352   1.344   1.391   1.256   0.999
   1.463   1.076   1.114   1.173   1.172   1.173   1.114   1.076   1.463   0.999
   1.256   1.391   1.344   1.352   1.183   1.033   0.814   0.572   0.662   0.525
   0.543   0.451
   0.709   0.603   0.799   0.598   0.685   0.743   0.732   0.951   0.938   0.910
   1.059   1.220   1.222   1.085   1.375   0.929   1.184   1.287   1.174   1.287
   1.184   0.929   1.375   1.085   1.222   1.220   1.059   0.910   0.938   0.951
   0.732   0.743   0.685   0.598   0.799   0.603   0.709   0.603   0.799   0.598
   0.685   0.743   0.732   0.951   0.938   0.910   1.059   1.220   1.222   1.085
   1.375   0.929   1.184   1.287   1.174   1.287   1.184   0.929   1.375   1.085
   1.222   1.220   1.059   0.910   0.938   0.951   0.732   0.743   0.685   0.598
   0.799   0.603
   0.701   0.783   0.830   0.616   0.829   0.721   0.778   0.915   0.831   0.780
   0.753   0.976   1.011   1.115   1.046   1.030   1.172   1.503   1.237   1.503
   1.172   1.030   1.046   1.115   1.011   0.976   0.753   0.780   0.831   0.915
   0.778   0.721   0.829   0.616   0.830   0.783   0.701   0.783   0.830   0.616
   0.829   0.721   0.778   0.915   0.831   0.780   0.753   0.976   1.011   1.115
   1.046   1.030   1.172   1.503   1.237   1.503   1.172   1.030   1.046   1.115
   1.011   0.976   0.753   0.780   0.831   0.915   0.778   0.721   0.829   0.616
   0.830   0.783
  4  1      1.0813684E+00
  4  2     -9.8689545E-03
  4  3      2.9504476E-02
  6  1      4.1873130E-01
  6  2     -1.8693982E+00
  6  3      9.5463040E-01
  6  4     -3.5285494E-02
  8  1      5.1338639E-01
  8  2     -2.1175451E-01
  8  3      5.6587140E-01
  8  4     -9.5521935E-02
  8  5      1.7885683E-01
 10  1     -1.4914370E-01
 10  2     -2.0093468E-01
 10  3      5.1813089E-01
 10  4      6.8858969E-02
 10  5      1.6656576E-01
 10  6     -1.1499024E-01
 12  1      3.3985984E-01  4.1933564E-01
 12  2     -2.8259176E-01 -3.8433207E-01
 12  3      2.5282025E-01  3.7279905E-01
 12  4     -8.1159033E-02 -1.9523971E-01
 12  5      7.9456246E-02  2.3570644E-01
 12  6     -7.5131113E-03  4.1204300E-02
 12  7      4.7141884E-02  2.1124588E-01
 14  1      8.3324306E-02
 14  2     -2.3738534E-01
 14  3      2.5335714E-01
 14  4     -7.6268804E-02
 14  5      1.9778815E-01
 14  6      1.0144767E-01
 14  7      1.3638733E-02
 14  8      2.1699038E-01
 220       5.00   72    0 5.00   18    0
   1.324   1.324   1.325   1.327   1.330   1.333   1.337   1.341   1.346   1.351
   1.355   1.360   1.364   1.368   1.372   1.374   1.376   1.378   1.378   1.378
   1.376   1.374   1.372   1.368   1.364   1.360   1.355   1.351   1.346   1.341
   1.337   1.333   1.330   1.327   1.325   1.324   1.324   1.324   1.325   1.327
   1.330   1.333   1.337   1.341   1.346   1.351   1.355   1.360   1.364   1.368
   1.372   1.374   1.376   1.378   1.378   1.378   1.376   1.374   1.372   1.368
   1.364   1.360   1.355   1.351   1.346   1.341   1.337   1.333   1.330   1.327
   1.325   1.324
   1.001   1.004   1.012   1.026   1.046   1.070   1.098   1.131   1.166   1.203
   1.241   1.279   1.315   1.348   1.377   1.401   1.419   1.430   1.434   1.430
   1.419   1.401   1.377   1.348   1.315   1.279   1.241   1.203   1.166   1.131
   1.098   1.070   1.046   1.026   1.012   1.004   1.001   1.004   1.012   1.026
   1.046   1.070   1.098   1.131   1.166   1.203   1.241   1.279   1.315   1.348
   1.377   1.401   1.419   1.430   1.434   1.430   1.419   1.401   1.377   1.348
   1.315   1.279   1.241   1.203   1.166   1.131   1.098   1.070   1.046   1.026
   1.012   1.004
   0.582   0.586   0.600   0.624   0.658   0.701   0.755   0.818   0.890   0.970
   1.054   1.142   1.228   1.311   1.385   1.448   1.495   1.525   1.535   1.525
   1.495   1.448   1.385   1.311   1.228   1.142   1.054   0.970   0.890   0.818
   0.755   0.701   0.658   0.624   0.600   0.586   0.582   0.586   0.600   0.624
   0.658   0.701   0.755   0.818   0.890   0.970   1.054   1.142   1.228   1.311
   1.385   1.448   1.495   1.525   1.535   1.525   1.495   1.448   1.385   1.311
   1.228   1.142   1.054   0.970   0.890   0.818   0.755   0.701   0.658   0.624
   0.600   0.586
   0.311   0.315   0.326   0.345   0.376   0.418   0.476   0.549   0.639   0.745
   0.865   0.996   1.133   1.268   1.394   1.503   1.588   1.642   1.660   1.642
   1.588   1.503   1.394   1.268   1.133   0.996   0.865   0.745   0.639   0.549
   0.476   0.418   0.376   0.345   0.326   0.315   0.311   0.315   0.326   0.345
   0.376   0.418   0.476   0.549   0.639   0.745   0.865   0.996   1.133   1.268
   1.394   1.503   1.588   1.642   1.660   1.642   1.588   1.503   1.394   1.268
   1.133   0.996   0.865   0.745   0.639   0.549   0.476   0.418   0.376   0.345
   0.326   0.315
   0.263   0.263   0.265   0.271   0.284   0.311   0.353   0.416   0.501   0.609
   0.741   0.894   1.061   1.236   1.406   1.559   1.681   1.759   1.786   1.759
   1.681   1.559   1.406   1.236   1.061   0.894   0.741   0.609   0.501   0.416
   0.353   0.311   0.284   0.271   0.265   0.263   0.263   0.263   0.265   0.271
   0.284   0.311   0.353   0.416   0.501   0.609   0.741   0.894   1.061   1.236
   1.406   1.559   1.681   1.759   1.786   1.759   1.681   1.559   1.406   1.236
   1.061   0.894   0.741   0.609   0.501   0.416   0.353   0.311   0.284   0.271
   0.265   0.263
   0.358   0.355   0.346   0.337   0.335   0.345   0.373   0.422   0.492   0.587
   0.709   0.856   1.029   1.220   1.415   1.599   1.750   1.849   1.884   1.849
   1.750   1.599   1.415   1.220   1.029   0.856   0.709   0.587   0.492   0.422
   0.373   0.345   0.335   0.337   0.346   0.355   0.358   0.355   0.346   0.337
   0.335   0.345   0.373   0.422   0.492   0.587   0.709   0.856   1.029   1.220
   1.415   1.599   1.750   1.849   1.884   1.849   1.750   1.599   1.415   1.220
   1.029   0.856   0.709   0.587   0.492   0.422   0.373   0.345   0.335   0.337
   0.346   0.355
   0.527   0.518   0.496   0.470   0.452   0.450   0.470   0.510   0.568   0.644
   0.740   0.862   1.016   1.198   1.398   1.596   1.766   1.881   1.921   1.881
   1.766   1.596   1.398   1.198   1.016   0.862   0.740   0.644   0.568   0.510
   0.470   0.450   0.452   0.470   0.496   0.518   0.527   0.518   0.496   0.470
   0.452   0.450   0.470   0.510   0.568   0.644   0.740   0.862   1.016   1.198
   1.398   1.596   1.766   1.881   1.921   1.881   1.766   1.596   1.398   1.198
   1.016   0.862   0.740   0.644   0.568   0.510   0.470   0.450   0.452   0.470
   0.496   0.518
   0.798   0.779   0.731   0.671   0.621   0.597   0.601   0.628   0.668   0.717
   0.779   0.863   0.983   1.141   1.330   1.527   1.703   1.824   1.867   1.824
   1.703   1.527   1.330   1.141   0.983   0.863   0.779   0.717   0.668   0.628
   0.601   0.597   0.621   0.671   0.731   0.779   0.798   0.779   0.731   0.671
   0.621   0.597   0.601   0.628   0.668   0.717   0.779   0.863   0.983   1.141
   1.330   1.527   1.703   1.824   1.867   1.824   1.703   1.527   1.330   1.141
   0.983   0.863   0.779   0.717   0.668   0.628   0.601   0.597   0.621   0.671
   0.731   0.779
   1.208   1.175   1.087   0.975   0.872   0.800   0.764   0.755   0.759   0.768
   0.787   0.830   0.912   1.040   1.206   1.387   1.552   1.666   1.708   1.666
   1.552   1.387   1.206   1.040   0.912   0.830   0.787   0.768   0.759   0.755
   0.764   0.800   0.872   0.975   1.087   1.175   1.208   1.175   1.087   0.975
   0.872   0.800   0.764   0.755   0.759   0.768   0.787   0.830   0.912   1.040
   1.206   1.387   1.552   1.666   1.708   1.666   1.552   1.387   1.206   1.040
   0.912   0.830   0.787   0.768   0.759   0.755   0.764   0.800   0.872   0.975
   1.087   1.175
   1.675   1.629   1.506   1.344   1.186   1.057   0.964   0.896   0.843   0.800
   0.773   0.777   0.825   0.921   1.054   1.200   1.333   1.425   1.458   1.425
   1.333   1.200   1.054   0.921   0.825   0.777   0.773   0.800   0.843   0.896
   0.964   1.057   1.186   1.344   1.506   1.629   1.675   1.629   1.506   1.344
   1.186   1.057   0.964   0.896   0.843   0.800   0.773   0.777   0.825   0.921
   1.054   1.200   1.333   1.425   1.458   1.425   1.333   1.200   1.054   0.921
   0.825   0.777   0.773   0.800   0.843   0.896   0.964   1.057   1.186   1.344
   1.506   1.629
   2.001   1.951   1.819   1.644   1.465   1.305   1.167   1.044   0.932   0.837
   0.771   0.744   0.763   0.824   0.913   1.010   1.094   1.150   1.170   1.150
   1.094   1.010   0.913   0.824   0.763   0.744   0.771   0.837   0.932   1.044
   1.167   1.305   1.465   1.644   1.819   1.951   2.001   1.951   1.819   1.644
   1.465   1.305   1.167   1.044   0.932   0.837   0.771   0.744   0.763   0.824
   0.913   1.010   1.094   1.150   1.170   1.150   1.094   1.010   0.913   0.824
   0.763   0.744   0.771   0.837   0.932   1.044   1.167   1.305   1.465   1.644
   1.819   1.951
   2.025   1.984   1.876   1.736   1.593   1.453   1.310   1.161   1.015   0.891
   0.804   0.757   0.749   0.771   0.810   0.852   0.886   0.907   0.914   0.907
   0.886   0.852   0.810   0.771   0.749   0.757   0.804   0.891   1.015   1.161
   1.310   1.453   1.593   1.736   1.876   1.984   2.025   1.984   1.876   1.736
   1.593   1.453   1.310   1.161   1.015   0.891   0.804   0.757   0.749   0.771
   0.810   0.852   0.886   0.907   0.914   0.907   0.886   0.852   0.810   0.771
   0.749   0.757   0.804   0.891   1.015   1.161   1.310   1.453   1.593   1.736
   1.876   1.984
   1.759   1.732   1.665   1.589   1.520   1.445   1.341   1.208   1.068   0.949
   0.865   0.812   0.778   0.758   0.751   0.752   0.755   0.756   0.756   0.756
   0.755   0.752   0.751   0.758   0.778   0.812   0.865   0.949   1.068   1.208
   1.341   1.445   1.520   1.589   1.665   1.732   1.759   1.732   1.665   1.589
   1.520   1.445   1.341   1.208   1.068   0.949   0.865   0.812   0.778   0.758
   0.751   0.752   0.755   0.756   0.756   0.756   0.755   0.752   0.751   0.758
   0.778   0.812   0.865   0.949   1.068   1.208   1.341   1.445   1.520   1.589
   1.665   1.732
   1.360   1.341   1.305   1.287   1.296   1.300   1.260   1.173   1.073   0.992
   0.937   0.889   0.835   0.781   0.743   0.727   0.725   0.727   0.728   0.727
   0.725   0.727   0.743   0.781   0.835   0.889   0.937   0.992   1.073   1.173
   1.260   1.300   1.296   1.287   1.305   1.341   1.360   1.341   1.305   1.287
   1.296   1.300   1.260   1.173   1.073   0.992   0.937   0.889   0.835   0.781
   0.743   0.727   0.725   0.727   0.728   0.727   0.725   0.727   0.743   0.781
   0.835   0.889   0.937   0.992   1.073   1.173   1.260   1.300   1.296   1.287
   1.305   1.341
   0.993   0.972   0.940   0.950   1.015   1.088   1.114   1.086   1.042   1.020
   1.012   0.983   0.920   0.845   0.795   0.783   0.797   0.813   0.819   0.813
   0.797   0.783   0.795   0.845   0.920   0.983   1.012   1.020   1.042   1.086
   1.114   1.088   1.015   0.950   0.940   0.972   0.993   0.972   0.940   0.950
   1.015   1.088   1.114   1.086   1.042   1.020   1.012   0.983   0.920   0.845
   0.795   0.783   0.797   0.813   0.819   0.813   0.797   0.783   0.795   0.845
   0.920   0.983   1.012   1.020   1.042   1.086   1.114   1.088   1.015   0.950
   0.940   0.972
   0.730   0.699   0.651   0.663   0.760   0.886   0.968   0.993   1.007   1.046
   1.091   1.093   1.035   0.956   0.908   0.909   0.939   0.967   0.977   0.967
   0.939   0.909   0.908   0.956   1.035   1.093   1.091   1.046   1.007   0.993
   0.968   0.886   0.760   0.663   0.651   0.699   0.730   0.699   0.651   0.663
   0.760   0.886   0.968   0.993   1.007   1.046   1.091   1.093   1.035   0.956
   0.908   0.909   0.939   0.967   0.977   0.967   0.939   0.909   0.908   0.956
   1.035   1.093   1.091   1.046   1.007   0.993   0.968   0.886   0.760   0.663
   0.651   0.699
   0.567   0.526   0.456   0.460   0.576   0.739   0.863   0.929   0.988   1.077
   1.168   1.202   1.160   1.087   1.046   1.057   1.094   1.124   1.135   1.124
   1.094   1.057   1.046   1.087   1.160   1.202   1.168   1.077   0.988   0.929
   0.863   0.739   0.576   0.460   0.456   0.526   0.567   0.526   0.456   0.460
   0.576   0.739   0.863   0.929   0.988   1.077   1.168   1.202   1.160   1.087
   1.046   1.057   1.094   1.124   1.135   1.124   1.094   1.057   1.046   1.087
   1.160   1.202   1.168   1.077   0.988   0.929   0.863   0.739   0.576   0.460
   0.456   0.526
   0.488   0.439   0.356   0.355   0.480   0.664   0.812   0.900   0.983   1.100
   1.219   1.274   1.244   1.178   1.142   1.157   1.195   1.223   1.232   1.223
   1.195   1.157   1.142   1.178   1.244   1.274   1.219   1.100   0.983   0.900
   0.812   0.664   0.480   0.355   0.356   0.439   0.488   0.439   0.356   0.355
   0.480   0.664   0.812   0.900   0.983   1.100   1.219   1.274   1.244   1.178
   1.142   1.157   1.195   1.223   1.232   1.223   1.195   1.157   1.142   1.178
   1.244   1.274   1.219   1.100   0.983   0.900   0.812   0.664   0.480   0.355
   0.356   0.439
 200       5.00   72    0 5.00   18    0
   2.353   2.353   2.353   2.353   2.352   2.352   2.352   2.352   2.352   2.351
   2.351   2.351   2.351   2.350   2.350   2.350   2.350   2.350   2.350   2.350
   2.350   2.350   2.350   2.350   2.351   2.351   2.351   2.351   2.352   2.352
   2.352   2.352   2.352   2.353   2.353   2.353   2.353   2.353   2.353   2.353
   2.352   2.352   2.352   2.352   2.352   2.351   2.351   2.351   2.351   2.350
   2.350   2.350   2.350   2.350   2.350   2.350   2.350   2.350   2.350   2.350
   2.351   2.351   2.351   2.351   2.352   2.352   2.352   2.352   2.352   2.353
   2.353   2.353
   2.079   2.079   2.078   2.077   2.075   2.073   2.070   2.068   2.065   2.062
   2.059   2.056   2.054   2.051   2.049   2.048   2.047   2.046   2.046   2.046
   2.047   2.048   2.049   2.051   2.054   2.056   2.059   2.062   2.065   2.068
   2.070   2.073   2.075   2.077   2.078   2.079   2.079   2.079   2.078   2.077
   2.075   2.073   2.070   2.068   2.065   2.062   2.059   2.056   2.054   2.051
   2.049   2.048   2.047   2.046   2.046   2.046   2.047   2.048   2.049   2.051
   2.054   2.056   2.059   2.062   2.065   2.068   2.070   2.073   2.075   2.077
   2.078   2.079
   1.702   1.700   1.697   1.692   1.685   1.676   1.666   1.655   1.644   1.633
   1.623   1.613   1.604   1.597   1.591   1.586   1.583   1.581   1.580   1.581
   1.583   1.586   1.591   1.597   1.604   1.613   1.623   1.633   1.644   1.655
   1.666   1.676   1.685   1.692   1.697   1.700   1.702   1.700   1.697   1.692
   1.685   1.676   1.666   1.655   1.644   1.633   1.623   1.613   1.604   1.597
   1.591   1.586   1.583   1.581   1.580   1.581   1.583   1.586   1.591   1.597
   1.604   1.613   1.623   1.633   1.644   1.655   1.666   1.676   1.685   1.692
   1.697   1.700
   1.447   1.444   1.434   1.419   1.398   1.373   1.345   1.314   1.284   1.254
   1.228   1.204   1.185   1.170   1.158   1.150   1.144   1.141   1.140   1.141
   1.144   1.150   1.158   1.170   1.185   1.204   1.228   1.254   1.284   1.314
   1.345   1.373   1.398   1.419   1.434   1.444   1.447   1.444   1.434   1.419
   1.398   1.373   1.345   1.314   1.284   1.254   1.228   1.204   1.185   1.170
   1.158   1.150   1.144   1.141   1.140   1.141   1.144   1.150   1.158   1.170
   1.185   1.204   1.228   1.254   1.284   1.314   1.345   1.373   1.398   1.419
   1.434   1.444
   1.425   1.419   1.401   1.371   1.329   1.277   1.218   1.154   1.090   1.031
   0.978   0.936   0.903   0.879   0.863   0.854   0.848   0.845   0.844   0.845
   0.848   0.854   0.863   0.879   0.903   0.936   0.978   1.031   1.090   1.154
   1.218   1.277   1.329   1.371   1.401   1.419   1.425   1.419   1.401   1.371
   1.329   1.277   1.218   1.154   1.090   1.031   0.978   0.936   0.903   0.879
   0.863   0.854   0.848   0.845   0.844   0.845   0.848   0.854   0.863   0.879
   0.903   0.936   0.978   1.031   1.090   1.154   1.218   1.277   1.329   1.371
   1.401   1.419
   1.527   1.520   1.498   1.460   1.403   1.328   1.237   1.137   1.037   0.943
   0.864   0.801   0.756   0.728   0.712   0.704   0.702   0.702   0.703   0.702
   0.702   0.704   0.712   0.728   0.756   0.801   0.864   0.943   1.037   1.137
   1.237   1.328   1.403   1.460   1.498   1.520   1.527   1.520   1.498   1.460
   1.403   1.328   1.237   1.137   1.037   0.943   0.864   0.801   0.756   0.728
   0.712   0.704   0.702   0.702   0.703   0.702   0.702   0.704   0.712   0.728
   0.756   0.801   0.864   0.943   1.037   1.137   1.237   1.328   1.403   1.460
   1.498   1.520
   1.508   1.505   1.496   1.471   1.425   1.352   1.254   1.141   1.022   0.911
   0.816   0.743   0.693   0.664   0.651   0.648   0.652   0.656   0.658   0.656
   0.652   0.648   0.651   0.664   0.693   0.743   0.816   0.911   1.022   1.141
   1.254   1.352   1.425   1.471   1.496   1.505   1.508   1.505   1.496   1.471
   1.425   1.352   1.254   1.141   1.022   0.911   0.816   0.743   0.693   0.664
   0.651   0.648   0.652   0.656   0.658   0.656   0.652   0.648   0.651   0.664
   0.693   0.743   0.816   0.911   1.022   1.141   1.254   1.352   1.425   1.471
   1.496   1.505
   1.221   1.228   1.245   1.258   1.252   1.218   1.153   1.067   0.969   0.873
   0.788   0.720   0.672   0.644   0.634   0.637   0.648   0.659   0.663   0.659
   0.648   0.637   0.634   0.644   0.672   0.720   0.788   0.873   0.969   1.067
   1.153   1.218   1.252   1.258   1.245   1.228   1.221   1.228   1.245   1.258
   1.252   1.218   1.153   1.067   0.969   0.873   0.788   0.720   0.672   0.644
   0.634   0.637   0.648   0.659   0.663   0.659   0.648   0.637   0.634   0.644
   0.672   0.720   0.788   0.873   0.969   1.067   1.153   1.218   1.252   1.258
   1.245   1.228
   0.775   0.791   0.833   0.884   0.925   0.945   0.940   0.914   0.873   0.825
   0.775   0.726   0.684   0.655   0.645   0.654   0.675   0.696   0.704   0.696
   0.675   0.654   0.645   0.655   0.684   0.726   0.775   0.825   0.873   0.914
   0.940   0.945   0.925   0.884   0.833   0.791   0.775   0.791   0.833   0.884
   0.925   0.945   0.940   0.914   0.873   0.825   0.775   0.726   0.684   0.655
   0.645   0.654   0.675   0.696   0.704   0.696   0.675   0.654   0.645   0.655
   0.684   0.726   0.775   0.825   0.873   0.914   0.940   0.945   0.925   0.884
   0.833   0.791
   0.441   0.457   0.502   0.562   0.623   0.679   0.725   0.763   0.789   0.799
   0.791   0.764   0.728   0.696   0.684   0.697   0.729   0.762   0.775   0.762
   0.729   0.697   0.684   0.696   0.728   0.764   0.791   0.799   0.789   0.763
   0.725   0.679   0.623   0.562   0.502   0.457   0.441   0.457   0.502   0.562
   0.623   0.679   0.725   0.763   0.789   0.799   0.791   0.764   0.728   0.696
   0.684   0.697   0.729   0.762   0.775   0.762   0.729   0.697   0.684   0.696
   0.728   0.764   0.791   0.799   0.789   0.763   0.725   0.679   0.623   0.562
   0.502   0.457
   0.362   0.372   0.399   0.438   0.486   0.547   0.619   0.697   0.768   0.819
   0.840   0.831   0.800   0.766   0.747   0.757   0.791   0.828   0.844   0.828
   0.791   0.757   0.747   0.766   0.800   0.831   0.840   0.819   0.768   0.697
   0.619   0.547   0.486   0.438   0.399   0.372   0.362   0.372   0.399   0.438
   0.486   0.547   0.619   0.697   0.768   0.819   0.840   0.831   0.800   0.766
   0.747   0.757   0.791   0.828   0.844   0.828   0.791   0.757   0.747   0.766
   0.800   0.831   0.840   0.819   0.768   0.697   0.619   0.547   0.486   0.438
   0.399   0.372
   0.412   0.417   0.431   0.455   0.495   0.559   0.646   0.741   0.826   0.884
   0.913   0.914   0.894   0.860   0.828   0.816   0.830   0.854   0.866   0.854
   0.830   0.816   0.828   0.860   0.894   0.914   0.913   0.884   0.826   0.741
   0.646   0.559   0.495   0.455   0.431   0.417   0.412   0.417   0.431   0.455
   0.495   0.559   0.646   0.741   0.826   0.884   0.913   0.914   0.894   0.860
   0.828   0.816   0.830   0.854   0.866   0.854   0.830   0.816   0.828   0.860
   0.894   0.914   0.913   0.884   0.826   0.741   0.646   0.559   0.495   0.455
   0.431   0.417
   0.370   0.381   0.412   0.461   0.532   0.632   0.750   0.860   0.936   0.976
   0.994   1.004   1.002   0.973   0.921   0.870   0.840   0.835   0.837   0.835
   0.840   0.870   0.921   0.973   1.002   1.004   0.994   0.976   0.936   0.860
   0.750   0.632   0.532   0.461   0.412   0.381   0.370   0.381   0.412   0.461
   0.532   0.632   0.750   0.860   0.936   0.976   0.994   1.004   1.002   0.973
   0.921   0.870   0.840   0.835   0.837   0.835   0.840   0.870   0.921   0.973
   1.002   1.004   0.994   0.976   0.936   0.860   0.750   0.632   0.532   0.461
   0.412   0.381
   0.246   0.270   0.333   0.427   0.552   0.706   0.868   0.995   1.057   1.066
   1.066   1.085   1.105   1.087   1.017   0.925   0.858   0.829   0.823   0.829
   0.858   0.925   1.017   1.087   1.105   1.085   1.066   1.066   1.057   0.995
   0.868   0.706   0.552   0.427   0.333   0.270   0.246   0.270   0.333   0.427
   0.552   0.706   0.868   0.995   1.057   1.066   1.066   1.085   1.105   1.087
   1.017   0.925   0.858   0.829   0.823   0.829   0.858   0.925   1.017   1.087
   1.105   1.085   1.066   1.066   1.057   0.995   0.868   0.706   0.552   0.427
   0.333   0.270
   0.355   0.379   0.440   0.530   0.652   0.812   0.985   1.112   1.152   1.127
   1.105   1.128   1.169   1.164   1.091   0.993   0.931   0.919   0.923   0.919
   0.931   0.993   1.091   1.164   1.169   1.128   1.105   1.127   1.152   1.112
   0.985   0.812   0.652   0.530   0.440   0.379   0.355   0.379   0.440   0.530
   0.652   0.812   0.985   1.112   1.152   1.127   1.105   1.128   1.169   1.164
   1.091   0.993   0.931   0.919   0.923   0.919   0.931   0.993   1.091   1.164
   1.169   1.128   1.105   1.127   1.152   1.112   0.985   0.812   0.652   0.530
   0.440   0.379
   0.978   0.976   0.964   0.944   0.947   1.009   1.118   1.204   1.207   1.145
   1.097   1.115   1.166   1.175   1.122   1.068   1.078   1.138   1.173   1.138
   1.078   1.068   1.122   1.175   1.166   1.115   1.097   1.145   1.207   1.204
   1.118   1.009   0.947   0.944   0.964   0.976   0.978   0.976   0.964   0.944
   0.947   1.009   1.118   1.204   1.207   1.145   1.097   1.115   1.166   1.175
   1.122   1.068   1.078   1.138   1.173   1.138   1.078   1.068   1.122   1.175
   1.166   1.115   1.097   1.145   1.207   1.204   1.118   1.009   0.947   0.944
   0.964   0.976
   1.962   1.916   1.780   1.578   1.382   1.271   1.259   1.271   1.228   1.130
   1.056   1.060   1.109   1.129   1.113   1.135   1.253   1.415   1.492   1.415
   1.253   1.135   1.113   1.129   1.109   1.060   1.056   1.130   1.228   1.271
   1.259   1.271   1.382   1.578   1.780   1.916   1.962   1.916   1.780   1.578
   1.382   1.271   1.259   1.271   1.228   1.130   1.056   1.060   1.109   1.129
   1.113   1.135   1.253   1.415   1.492   1.415   1.253   1.135   1.113   1.129
   1.109   1.060   1.056   1.130   1.228   1.271   1.259   1.271   1.382   1.578
   1.780   1.916
   2.723   2.643   2.409   2.066   1.714   1.467   1.357   1.310   1.231   1.109
   1.018   1.011   1.055   1.081   1.093   1.174   1.374   1.610   1.717   1.610
   1.374   1.174   1.093   1.081   1.055   1.011   1.018   1.109   1.231   1.310
   1.357   1.467   1.714   2.066   2.409   2.643   2.723   2.643   2.409   2.066
   1.714   1.467   1.357   1.310   1.231   1.109   1.018   1.011   1.055   1.081
   1.093   1.174   1.374   1.610   1.717   1.610   1.374   1.174   1.093   1.081
   1.055   1.011   1.018   1.109   1.231   1.310   1.357   1.467   1.714   2.066
   2.409   2.643
 111       5.00   72    0 5.00   18    0
   0.317   0.317   0.317   0.316   0.315   0.313   0.312   0.310   0.308   0.306
   0.304   0.302   0.301   0.299   0.298   0.296   0.296   0.295   0.295   0.295
   0.296   0.296   0.298   0.299   0.301   0.302   0.304   0.306   0.308   0.310
   0.312   0.313   0.315   0.316   0.317   0.317   0.317   0.317   0.317   0.316
   0.315   0.313   0.312   0.310   0.308   0.306   0.304   0.302   0.301   0.299
   0.298   0.296   0.296   0.295   0.295   0.295   0.296   0.296   0.298   0.299
   0.301   0.302   0.304   0.306   0.308   0.310   0.312   0.313   0.315   0.316
   0.317   0.317
   0.446   0.444   0.440   0.432   0.422   0.410   0.396   0.381   0.365   0.348
   0.332   0.316   0.302   0.289   0.278   0.269   0.263   0.259   0.257   0.259
   0.263   0.269   0.278   0.289   0.302   0.316   0.332   0.348   0.365   0.381
   0.396   0.410   0.422   0.432   0.440   0.444   0.446   0.444   0.440   0.432
   0.422   0.410   0.396   0.381   0.365   0.348   0.332   0.316   0.302   0.289
   0.278   0.269   0.263   0.259   0.257   0.259   0.263   0.269   0.278   0.289
   0.302   0.316   0.332   0.348   0.365   0.381   0.396   0.410   0.422   0.432
   0.440   0.444
   0.695   0.691   0.677   0.656   0.628   0.594   0.555   0.514   0.472   0.430
   0.390   0.353   0.319   0.290   0.265   0.246   0.232   0.224   0.221   0.224
   0.232   0.246   0.265   0.290   0.319   0.353   0.390   0.430   0.472   0.514
   0.555   0.594   0.628   0.656   0.677   0.691   0.695   0.691   0.677   0.656
   0.628   0.594   0.555   0.514   0.472   0.430   0.390   0.353   0.319   0.290
   0.265   0.246   0.232   0.224   0.221   0.224   0.232   0.246   0.265   0.290
   0.319   0.353   0.390   0.430   0.472   0.514   0.555   0.594   0.628   0.656
   0.677   0.691
   1.064   1.054   1.026   0.982   0.923   0.853   0.777   0.697   0.617   0.542
   0.473   0.412   0.361   0.318   0.284   0.258   0.241   0.230   0.227   0.230
   0.241   0.258   0.284   0.318   0.361   0.412   0.473   0.542   0.617   0.697
   0.777   0.853   0.923   0.982   1.026   1.054   1.064   1.054   1.026   0.982
   0.923   0.853   0.777   0.697   0.617   0.542   0.473   0.412   0.361   0.318
   0.284   0.258   0.241   0.230   0.227   0.230   0.241   0.258   0.284   0.318
   0.361   0.412   0.473   0.542   0.617   0.697   0.777   0.853   0.923   0.982
   1.026   1.054
   1.523   1.507   1.459   1.384   1.284   1.167   1.040   0.909   0.784   0.670
   0.571   0.488   0.423   0.373   0.336   0.310   0.294   0.284   0.281   0.284
   0.294   0.310   0.336   0.373   0.423   0.488   0.571   0.670   0.784   0.909
   1.040   1.167   1.284   1.384   1.459   1.507   1.523   1.507   1.459   1.384
   1.284   1.167   1.040   0.909   0.784   0.670   0.571   0.488   0.423   0.373
   0.336   0.310   0.294   0.284   0.281   0.284   0.294   0.310   0.336   0.373
   0.423   0.488   0.571   0.670   0.784   0.909   1.040   1.167   1.284   1.384
   1.459   1.507
   1.942   1.922   1.861   1.764   1.633   1.477   1.306   1.131   0.965   0.816
   0.690   0.590   0.513   0.457   0.417   0.389   0.372   0.362   0.359   0.362
   0.372   0.389   0.417   0.457   0.513   0.590   0.690   0.816   0.965   1.131
   1.306   1.477   1.633   1.764   1.861   1.922   1.942   1.922   1.861   1.764
   1.633   1.477   1.306   1.131   0.965   0.816   0.690   0.590   0.513   0.457
   0.417   0.389   0.372   0.362   0.359   0.362   0.372   0.389   0.417   0.457
   0.513   0.590   0.690   0.816   0.965   1.131   1.306   1.477   1.633   1.764
   1.861   1.922
   2.101   2.084   2.034   1.949   1.829   1.681   1.512   1.335   1.163   1.007
   0.871   0.758   0.666   0.593   0.537   0.495   0.466   0.449   0.443   0.449
   0.466   0.495   0.537   0.593   0.666   0.758   0.871   1.007   1.163   1.335
   1.512   1.681   1.829   1.949   2.034   2.084   2.101   2.084   2.034   1.949
   1.829   1.681   1.512   1.335   1.163   1.007   0.871   0.758   0.666   0.593
   0.537   0.495   0.466   0.449   0.443   0.449   0.466   0.495   0.537   0.593
   0.666   0.758   0.871   1.007   1.163   1.335   1.512   1.681   1.829   1.949
   2.034   2.084
   1.841   1.839   1.828   1.804   1.758   1.688   1.598   1.492   1.379   1.263
   1.146   1.031   0.917   0.812   0.719   0.645   0.593   0.563   0.553   0.563
   0.593   0.645   0.719   0.812   0.917   1.031   1.146   1.263   1.379   1.492
   1.598   1.688   1.758   1.804   1.828   1.839   1.841   1.839   1.828   1.804
   1.758   1.688   1.598   1.492   1.379   1.263   1.146   1.031   0.917   0.812
   0.719   0.645   0.593   0.563   0.553   0.563   0.593   0.645   0.719   0.812
   0.917   1.031   1.146   1.263   1.379   1.492   1.598   1.688   1.758   1.804
   1.828   1.839
   1.251   1.266   1.309   1.368   1.432   1.492   1.540   1.572   1.580   1.554
   1.488   1.381   1.245   1.097   0.960   0.852   0.779   0.739   0.727   0.739
   0.779   0.852   0.960   1.097   1.245   1.381   1.488   1.554   1.580   1.572
   1.540   1.492   1.432   1.368   1.309   1.266   1.251   1.266   1.309   1.368
   1.432   1.492   1.540   1.572   1.580   1.554   1.488   1.381   1.245   1.097
   0.960   0.852   0.779   0.739   0.727   0.739   0.779   0.852   0.960   1.097
   1.245   1.381   1.488   1.554   1.580   1.572   1.540   1.492   1.432   1.368
   1.309   1.266
   0.645   0.671   0.745   0.862   1.012   1.187   1.376   1.556   1.702   1.783
   1.782   1.696   1.547   1.370   1.206   1.085   1.014   0.983   0.975   0.983
   1.014   1.085   1.206   1.370   1.547   1.696   1.782   1.783   1.702   1.556
   1.376   1.187   1.012   0.862   0.745   0.671   0.645   0.671   0.745   0.862
   1.012   1.187   1.376   1.556   1.702   1.783   1.782   1.696   1.547   1.370
   1.206   1.085   1.014   0.983   0.975   0.983   1.014   1.085   1.206   1.370
   1.547   1.696   1.782   1.783   1.702   1.556   1.376   1.187   1.012   0.862
   0.745   0.671
   0.318   0.340   0.408   0.523   0.690   0.911   1.173   1.445   1.682   1.839
   1.890   1.833   1.697   1.528   1.377   1.279   1.240   1.237   1.241   1.237
   1.240   1.279   1.377   1.528   1.697   1.833   1.890   1.839   1.682   1.445
   1.173   0.911   0.690   0.523   0.408   0.340   0.318   0.340   0.408   0.523
   0.690   0.911   1.173   1.445   1.682   1.839   1.890   1.833   1.697   1.528
   1.377   1.279   1.240   1.237   1.241   1.237   1.240   1.279   1.377   1.528
   1.697   1.833   1.890   1.839   1.682   1.445   1.173   0.911   0.690   0.523
   0.408   0.340
   0.305   0.317   0.353   0.426   0.553   0.744   0.994   1.266   1.509   1.678
   1.750   1.728   1.638   1.519   1.419   1.370   1.377   1.409   1.426   1.409
   1.377   1.370   1.419   1.519   1.638   1.728   1.750   1.678   1.509   1.266
   0.994   0.744   0.553   0.426   0.353   0.317   0.305   0.317   0.353   0.426
   0.553   0.744   0.994   1.266   1.509   1.678   1.750   1.728   1.638   1.519
   1.419   1.370   1.377   1.409   1.426   1.409   1.377   1.370   1.419   1.519
   1.638   1.728   1.750   1.678   1.509   1.266   0.994   0.744   0.553   0.426
   0.353   0.317
   0.416   0.421   0.440   0.477   0.553   0.684   0.868   1.069   1.243   1.362
   1.424   1.439   1.419   1.376   1.337   1.334   1.374   1.430   1.456   1.430
   1.374   1.334   1.337   1.376   1.419   1.439   1.424   1.362   1.243   1.069
   0.868   0.684   0.553   0.477   0.440   0.421   0.416   0.421   0.440   0.477
   0.553   0.684   0.868   1.069   1.243   1.362   1.424   1.439   1.419   1.376
   1.337   1.334   1.374   1.430   1.456   1.430   1.374   1.334   1.337   1.376
   1.419   1.439   1.424   1.362   1.243   1.069   0.868   0.684   0.553   0.477
   0.440   0.421
   0.498   0.509   0.536   0.569   0.617   0.695   0.801   0.907   0.981   1.023
   1.059   1.107   1.155   1.177   1.177   1.189   1.238   1.303   1.334   1.303
   1.238   1.189   1.177   1.177   1.155   1.107   1.059   1.023   0.981   0.907
   0.801   0.695   0.617   0.569   0.536   0.509   0.498   0.509   0.536   0.569
   0.617   0.695   0.801   0.907   0.981   1.023   1.059   1.107   1.155   1.177
   1.177   1.189   1.238   1.303   1.334   1.303   1.238   1.189   1.177   1.177
   1.155   1.107   1.059   1.023   0.981   0.907   0.801   0.695   0.617   0.569
   0.536   0.509
   0.619   0.638   0.680   0.714   0.735   0.761   0.797   0.818   0.804   0.777
   0.786   0.854   0.941   0.987   0.983   0.980   1.026   1.102   1.140   1.102
   1.026   0.980   0.983   0.987   0.941   0.854   0.786   0.777   0.804   0.818
   0.797   0.761   0.735   0.714   0.680   0.638   0.619   0.638   0.680   0.714
   0.735   0.761   0.797   0.818   0.804   0.777   0.786   0.854   0.941   0.987
   0.983   0.980   1.026   1.102   1.140   1.102   1.026   0.980   0.983   0.987
   0.941   0.854   0.786   0.777   0.804   0.818   0.797   0.761   0.735   0.714
   0.680   0.638
   0.938   0.956   0.986   0.982   0.939   0.888   0.850   0.805   0.734   0.664
   0.654   0.722   0.807   0.830   0.786   0.756   0.809   0.913   0.966   0.913
   0.809   0.756   0.786   0.830   0.807   0.722   0.654   0.664   0.734   0.805
   0.850   0.888   0.939   0.982   0.986   0.956   0.938   0.956   0.986   0.982
   0.939   0.888   0.850   0.805   0.734   0.664   0.654   0.722   0.807   0.830
   0.786   0.756   0.809   0.913   0.966   0.913   0.809   0.756   0.786   0.830
   0.807   0.722   0.654   0.664   0.734   0.805   0.850   0.888   0.939   0.982
   0.986   0.956
   1.432   1.437   1.423   1.342   1.198   1.047   0.932   0.838   0.737   0.648
   0.626   0.681   0.736   0.710   0.616   0.566   0.642   0.788   0.863   0.788
   0.642   0.566   0.616   0.710   0.736   0.681   0.626   0.648   0.737   0.838
   0.932   1.047   1.198   1.342   1.423   1.437   1.432   1.437   1.423   1.342
   1.198   1.047   0.932   0.838   0.737   0.648   0.626   0.681   0.736   0.710
   0.616   0.566   0.642   0.788   0.863   0.788   0.642   0.566   0.616   0.710
   0.736   0.681   0.626   0.648   0.737   0.838   0.932   1.047   1.198   1.342
   1.423   1.437
   1.822   1.815   1.760   1.613   1.388   1.162   0.993   0.871   0.758   0.664
   0.637   0.677   0.706   0.643   0.515   0.456   0.553   0.733   0.824   0.733
   0.553   0.456   0.515   0.643   0.706   0.677   0.637   0.664   0.758   0.871
   0.993   1.162   1.388   1.613   1.760   1.815   1.822   1.815   1.760   1.613
   1.388   1.162   0.993   0.871   0.758   0.664   0.637   0.677   0.706   0.643
   0.515   0.456   0.553   0.733   0.824   0.733   0.553   0.456   0.515   0.643
   0.706   0.677   0.637   0.664   0.758   0.871   0.993   1.162   1.388   1.613
   1.760   1.815
TEXTURE_INDEX=   1.5829
ERR_CF 220         1080     608   29.18   24.85
ERR_CF 200         1080     526   14.67   11.86
ERR_CF 111         1080     462   16.38    9.87
