TEXEVAL                                                                         
Analysis started on 11-Aug-19 10:23:38                                          
 LMAX=14LFMAX=03 CUBIC ORTHO   
 220      5.00 5.00
 200      5.00 5.00
 111      5.00 5.00
 220       5.00   72    0 5.00   15    0
   1.987   1.987   1.987   1.987   1.987   1.987   1.987   1.987   1.987   1.987
   1.987   1.987   1.987   1.987   1.987   1.987   1.987   1.987   1.987   1.987
   1.987   1.987   1.987   1.987   1.987   1.987   1.987   1.987   1.987   1.987
   1.987   1.987   1.987   1.987   1.987   1.987   1.987   1.987   1.987   1.987
   1.987   1.987   1.987   1.987   1.987   1.987   1.987   1.987   1.987   1.987
   1.987   1.987   1.987   1.987   1.987   1.987   1.987   1.987   1.987   1.987
   1.987   1.987   1.987   1.987   1.987   1.987   1.987   1.987   1.987   1.987
   1.987   1.987
   1.636   1.267   1.420   1.071   1.306   1.527   1.693   2.104   1.660   1.591
   2.030   1.709   2.087   2.365   2.111   2.583   2.065   2.303   1.675   2.303
   2.065   2.583   2.111   2.365   2.087   1.709   2.030   1.591   1.660   2.104
   1.693   1.527   1.306   1.071   1.420   1.267   1.636   1.267   1.420   1.071
   1.306   1.527   1.693   2.104   1.660   1.591   2.030   1.709   2.087   2.365
   2.111   2.583   2.065   2.303   1.675   2.303   2.065   2.583   2.111   2.365
   2.087   1.709   2.030   1.591   1.660   2.104   1.693   1.527   1.306   1.071
   1.420   1.267
   1.026   1.144   1.169   0.802   0.994   1.142   0.841   1.090   0.799   0.984
   1.674   1.519   1.229   1.944   2.128   2.144   2.114   2.422   2.089   2.422
   2.114   2.144   2.128   1.944   1.229   1.519   1.674   0.984   0.799   1.090
   0.841   1.142   0.994   0.802   1.169   1.144   1.026   1.144   1.169   0.802
   0.994   1.142   0.841   1.090   0.799   0.984   1.674   1.519   1.229   1.944
   2.128   2.144   2.114   2.422   2.089   2.422   2.114   2.144   2.128   1.944
   1.229   1.519   1.674   0.984   0.799   1.090   0.841   1.142   0.994   0.802
   1.169   1.144
   0.794   0.665   0.942   0.794   0.984   0.703   0.769   1.013   0.904   0.820
   1.032   1.244   1.186   1.403   1.789   1.722   2.068   2.199   2.421   2.199
   2.068   1.722   1.789   1.403   1.186   1.244   1.032   0.820   0.904   1.013
   0.769   0.703   0.984   0.794   0.942   0.665   0.794   0.665   0.942   0.794
   0.984   0.703   0.769   1.013   0.904   0.820   1.032   1.244   1.186   1.403
   1.789   1.722   2.068   2.199   2.421   2.199   2.068   1.722   1.789   1.403
   1.186   1.244   1.032   0.820   0.904   1.013   0.769   0.703   0.984   0.794
   0.942   0.665
   1.131   0.240   0.743   0.779   0.789   1.080   0.789   0.860   0.870   1.101
   0.776   0.984   1.324   1.012   1.281   1.695   2.019   1.927   2.248   1.927
   2.019   1.695   1.281   1.012   1.324   0.984   0.776   1.101   0.870   0.860
   0.789   1.080   0.789   0.779   0.743   0.240   1.131   0.240   0.743   0.779
   0.789   1.080   0.789   0.860   0.870   1.101   0.776   0.984   1.324   1.012
   1.281   1.695   2.019   1.927   2.248   1.927   2.019   1.695   1.281   1.012
   1.324   0.984   0.776   1.101   0.870   0.860   0.789   1.080   0.789   0.779
   0.743   0.240
   1.040   0.539   0.769   0.879   1.067   1.066   0.648   0.871   0.617   0.719
   0.734   1.136   1.293   1.227   1.393   1.765   2.133   1.454   1.645   1.454
   2.133   1.765   1.393   1.227   1.293   1.136   0.734   0.719   0.617   0.871
   0.648   1.066   1.067   0.879   0.769   0.539   1.040   0.539   0.769   0.879
   1.067   1.066   0.648   0.871   0.617   0.719   0.734   1.136   1.293   1.227
   1.393   1.765   2.133   1.454   1.645   1.454   2.133   1.765   1.393   1.227
   1.293   1.136   0.734   0.719   0.617   0.871   0.648   1.066   1.067   0.879
   0.769   0.539
   0.302   0.647   0.525   0.730   1.117   0.657   0.468   0.727   0.338   0.475
   0.653   1.014   1.268   1.195   1.395   1.992   1.559   1.179   1.754   1.179
   1.559   1.992   1.395   1.195   1.268   1.014   0.653   0.475   0.338   0.727
   0.468   0.657   1.117   0.730   0.525   0.647   0.302   0.647   0.525   0.730
   1.117   0.657   0.468   0.727   0.338   0.475   0.653   1.014   1.268   1.195
   1.395   1.992   1.559   1.179   1.754   1.179   1.559   1.992   1.395   1.195
   1.268   1.014   0.653   0.475   0.338   0.727   0.468   0.657   1.117   0.730
   0.525   0.647
   0.027   0.406   0.448   0.573   0.771   0.649   0.356   0.571   0.426   1.054
   0.631   0.445   1.380   1.015   1.314   1.636   1.083   1.192   1.892   1.192
   1.083   1.636   1.314   1.015   1.380   0.445   0.631   1.054   0.426   0.571
   0.356   0.649   0.771   0.573   0.448   0.406   0.027   0.406   0.448   0.573
   0.771   0.649   0.356   0.571   0.426   1.054   0.631   0.445   1.380   1.015
   1.314   1.636   1.083   1.192   1.892   1.192   1.083   1.636   1.314   1.015
   1.380   0.445   0.631   1.054   0.426   0.571   0.356   0.649   0.771   0.573
   0.448   0.406
   1.081   0.831   0.819   1.129   0.664   0.708   0.596   1.062   0.640   1.134
   0.565   0.416   1.049   1.135   1.233   1.328   0.738   1.197   1.513   1.197
   0.738   1.328   1.233   1.135   1.049   0.416   0.565   1.134   0.640   1.062
   0.596   0.708   0.664   1.129   0.819   0.831   1.081   0.831   0.819   1.129
   0.664   0.708   0.596   1.062   0.640   1.134   0.565   0.416   1.049   1.135
   1.233   1.328   0.738   1.197   1.513   1.197   0.738   1.328   1.233   1.135
   1.049   0.416   0.565   1.134   0.640   1.062   0.596   0.708   0.664   1.129
   0.819   0.831
   1.099   0.888   1.209   1.223   1.084   0.789   1.147   1.266   0.350   0.756
   0.497   0.473   0.588   1.524   0.725   1.739   0.917   1.129   1.608   1.129
   0.917   1.739   0.725   1.524   0.588   0.473   0.497   0.756   0.350   1.266
   1.147   0.789   1.084   1.223   1.209   0.888   1.099   0.888   1.209   1.223
   1.084   0.789   1.147   1.266   0.350   0.756   0.497   0.473   0.588   1.524
   0.725   1.739   0.917   1.129   1.608   1.129   0.917   1.739   0.725   1.524
   0.588   0.473   0.497   0.756   0.350   1.266   1.147   0.789   1.084   1.223
   1.209   0.888
   0.829   0.799   1.006   1.042   1.182   1.051   1.520   0.660   0.445   0.493
   0.546   0.285   0.615   1.829   1.033   1.468   0.926   1.308   1.786   1.308
   0.926   1.468   1.033   1.829   0.615   0.285   0.546   0.493   0.445   0.660
   1.520   1.051   1.182   1.042   1.006   0.799   0.829   0.799   1.006   1.042
   1.182   1.051   1.520   0.660   0.445   0.493   0.546   0.285   0.615   1.829
   1.033   1.468   0.926   1.308   1.786   1.308   0.926   1.468   1.033   1.829
   0.615   0.285   0.546   0.493   0.445   0.660   1.520   1.051   1.182   1.042
   1.006   0.799
   0.990   1.446   1.124   0.888   0.965   1.002   1.541   0.668   1.125   0.432
   0.714   0.559   0.362   1.643   0.862   0.597   0.925   1.087   0.797   1.087
   0.925   0.597   0.862   1.643   0.362   0.559   0.714   0.432   1.125   0.668
   1.541   1.002   0.965   0.888   1.124   1.446   0.990   1.446   1.124   0.888
   0.965   1.002   1.541   0.668   1.125   0.432   0.714   0.559   0.362   1.643
   0.862   0.597   0.925   1.087   0.797   1.087   0.925   0.597   0.862   1.643
   0.362   0.559   0.714   0.432   1.125   0.668   1.541   1.002   0.965   0.888
   1.124   1.446
   2.002   2.598   0.958   1.028   1.020   0.830   1.226   1.631   2.931   0.754
   0.746   1.057   0.334   1.157   0.255   0.608   1.704   1.418   0.266   1.418
   1.704   0.608   0.255   1.157   0.334   1.057   0.746   0.754   2.931   1.631
   1.226   0.830   1.020   1.028   0.958   2.598   2.002   2.598   0.958   1.028
   1.020   0.830   1.226   1.631   2.931   0.754   0.746   1.057   0.334   1.157
   0.255   0.608   1.704   1.418   0.266   1.418   1.704   0.608   0.255   1.157
   0.334   1.057   0.746   0.754   2.931   1.631   1.226   0.830   1.020   1.028
   0.958   2.598
   2.000   2.256   0.481   0.764   0.660   0.822   0.635   1.295   2.365   1.240
   1.202   0.888   1.774   2.403   0.671   0.793   1.274   1.646   0.457   1.646
   1.274   0.793   0.671   2.403   1.774   0.888   1.202   1.240   2.365   1.295
   0.635   0.822   0.660   0.764   0.481   2.256   2.000   2.256   0.481   0.764
   0.660   0.822   0.635   1.295   2.365   1.240   1.202   0.888   1.774   2.403
   0.671   0.793   1.274   1.646   0.457   1.646   1.274   0.793   0.671   2.403
   1.774   0.888   1.202   1.240   2.365   1.295   0.635   0.822   0.660   0.764
   0.481   2.256
   0.483   1.479   0.379   0.435   0.935   1.434   0.457   0.885   0.263   1.040
   2.116   0.814   1.828   2.368   1.117   0.717   1.484   1.096   0.190   1.096
   1.484   0.717   1.117   2.368   1.828   0.814   2.116   1.040   0.263   0.885
   0.457   1.434   0.935   0.435   0.379   1.479   0.483   1.479   0.379   0.435
   0.935   1.434   0.457   0.885   0.263   1.040   2.116   0.814   1.828   2.368
   1.117   0.717   1.484   1.096   0.190   1.096   1.484   0.717   1.117   2.368
   1.828   0.814   2.116   1.040   0.263   0.885   0.457   1.434   0.935   0.435
   0.379   1.479
 200       5.00   72    0 5.00   15    0
   1.571   1.571   1.571   1.571   1.571   1.571   1.571   1.571   1.571   1.571
   1.571   1.571   1.571   1.571   1.571   1.571   1.571   1.571   1.571   1.571
   1.571   1.571   1.571   1.571   1.571   1.571   1.571   1.571   1.571   1.571
   1.571   1.571   1.571   1.571   1.571   1.571   1.571   1.571   1.571   1.571
   1.571   1.571   1.571   1.571   1.571   1.571   1.571   1.571   1.571   1.571
   1.571   1.571   1.571   1.571   1.571   1.571   1.571   1.571   1.571   1.571
   1.571   1.571   1.571   1.571   1.571   1.571   1.571   1.571   1.571   1.571
   1.571   1.571
   1.666   1.222   1.419   1.293   1.507   1.632   1.437   1.466   1.328   1.232
   1.491   1.358   1.194   1.509   1.280   1.389   1.299   1.410   1.381   1.410
   1.299   1.389   1.280   1.509   1.194   1.358   1.491   1.232   1.328   1.466
   1.437   1.632   1.507   1.293   1.419   1.222   1.666   1.222   1.419   1.293
   1.507   1.632   1.437   1.466   1.328   1.232   1.491   1.358   1.194   1.509
   1.280   1.389   1.299   1.410   1.381   1.410   1.299   1.389   1.280   1.509
   1.194   1.358   1.491   1.232   1.328   1.466   1.437   1.632   1.507   1.293
   1.419   1.222
   1.958   1.426   1.428   1.539   1.563   1.541   1.403   1.243   1.224   1.346
   1.401   1.177   1.129   1.613   1.345   1.391   1.183   1.190   1.133   1.190
   1.183   1.391   1.345   1.613   1.129   1.177   1.401   1.346   1.224   1.243
   1.403   1.541   1.563   1.539   1.428   1.426   1.958   1.426   1.428   1.539
   1.563   1.541   1.403   1.243   1.224   1.346   1.401   1.177   1.129   1.613
   1.345   1.391   1.183   1.190   1.133   1.190   1.183   1.391   1.345   1.613
   1.129   1.177   1.401   1.346   1.224   1.243   1.403   1.541   1.563   1.539
   1.428   1.426
   1.506   1.558   1.409   1.656   1.550   1.307   1.057   1.212   1.230   1.068
   1.185   0.793   1.196   1.162   1.017   0.866   0.984   0.858   0.979   0.858
   0.984   0.866   1.017   1.162   1.196   0.793   1.185   1.068   1.230   1.212
   1.057   1.307   1.550   1.656   1.409   1.558   1.506   1.558   1.409   1.656
   1.550   1.307   1.057   1.212   1.230   1.068   1.185   0.793   1.196   1.162
   1.017   0.866   0.984   0.858   0.979   0.858   0.984   0.866   1.017   1.162
   1.196   0.793   1.185   1.068   1.230   1.212   1.057   1.307   1.550   1.656
   1.409   1.558
   1.313   1.738   1.712   1.689   1.510   1.442   1.131   1.276   1.007   0.755
   0.938   0.881   1.059   0.700   0.906   0.714   1.090   0.627   0.926   0.627
   1.090   0.714   0.906   0.700   1.059   0.881   0.938   0.755   1.007   1.276
   1.131   1.442   1.510   1.689   1.712   1.738   1.313   1.738   1.712   1.689
   1.510   1.442   1.131   1.276   1.007   0.755   0.938   0.881   1.059   0.700
   0.906   0.714   1.090   0.627   0.926   0.627   1.090   0.714   0.906   0.700
   1.059   0.881   0.938   0.755   1.007   1.276   1.131   1.442   1.510   1.689
   1.712   1.738
   1.796   1.967   1.509   1.589   1.600   1.228   1.273   1.106   0.944   0.967
   0.801   0.978   0.825   0.806   0.725   0.859   1.051   0.591   0.682   0.591
   1.051   0.859   0.725   0.806   0.825   0.978   0.801   0.967   0.944   1.106
   1.273   1.228   1.600   1.589   1.509   1.967   1.796   1.967   1.509   1.589
   1.600   1.228   1.273   1.106   0.944   0.967   0.801   0.978   0.825   0.806
   0.725   0.859   1.051   0.591   0.682   0.591   1.051   0.859   0.725   0.806
   0.825   0.978   0.801   0.967   0.944   1.106   1.273   1.228   1.600   1.589
   1.509   1.967
   1.748   1.632   1.029   1.539   1.501   1.133   1.166   1.079   0.943   1.109
   0.751   0.943   1.014   0.922   0.603   1.059   0.866   0.460   0.993   0.460
   0.866   1.059   0.603   0.922   1.014   0.943   0.751   1.109   0.943   1.079
   1.166   1.133   1.501   1.539   1.029   1.632   1.748   1.632   1.029   1.539
   1.501   1.133   1.166   1.079   0.943   1.109   0.751   0.943   1.014   0.922
   0.603   1.059   0.866   0.460   0.993   0.460   0.866   1.059   0.603   0.922
   1.014   0.943   0.751   1.109   0.943   1.079   1.166   1.133   1.501   1.539
   1.029   1.632
   1.242   0.777   0.833   1.244   0.837   1.115   1.128   0.972   0.910   0.804
   0.503   0.769   0.854   0.578   0.845   0.762   0.867   0.549   1.105   0.549
   0.867   0.762   0.845   0.578   0.854   0.769   0.503   0.804   0.910   0.972
   1.128   1.115   0.837   1.244   0.833   0.777   1.242   0.777   0.833   1.244
   0.837   1.115   1.128   0.972   0.910   0.804   0.503   0.769   0.854   0.578
   0.845   0.762   0.867   0.549   1.105   0.549   0.867   0.762   0.845   0.578
   0.854   0.769   0.503   0.804   0.910   0.972   1.128   1.115   0.837   1.244
   0.833   0.777
   0.731   0.549   0.616   0.802   0.516   0.474   0.751   0.693   0.596   0.487
   0.604   0.616   0.715   0.336   0.929   0.396   1.135   0.855   1.171   0.855
   1.135   0.396   0.929   0.336   0.715   0.616   0.604   0.487   0.596   0.693
   0.751   0.474   0.516   0.802   0.616   0.549   0.731   0.549   0.616   0.802
   0.516   0.474   0.751   0.693   0.596   0.487   0.604   0.616   0.715   0.336
   0.929   0.396   1.135   0.855   1.171   0.855   1.135   0.396   0.929   0.336
   0.715   0.616   0.604   0.487   0.596   0.693   0.751   0.474   0.516   0.802
   0.616   0.549
   0.456   0.696   0.846   0.649   0.936   0.510   0.833   0.729   0.269   0.544
   0.798   0.682   0.690   0.821   1.221   0.873   1.373   1.057   1.645   1.057
   1.373   0.873   1.221   0.821   0.690   0.682   0.798   0.544   0.269   0.729
   0.833   0.510   0.936   0.649   0.846   0.696   0.456   0.696   0.846   0.649
   0.936   0.510   0.833   0.729   0.269   0.544   0.798   0.682   0.690   0.821
   1.221   0.873   1.373   1.057   1.645   1.057   1.373   0.873   1.221   0.821
   0.690   0.682   0.798   0.544   0.269   0.729   0.833   0.510   0.936   0.649
   0.846   0.696
   0.701   0.528   0.825   0.536   0.695   0.709   1.137   0.928   0.744   0.861
   0.573   0.583   0.516   0.833   0.794   1.134   0.989   0.904   1.400   0.904
   0.989   1.134   0.794   0.833   0.516   0.583   0.573   0.861   0.744   0.928
   1.137   0.709   0.695   0.536   0.825   0.528   0.701   0.528   0.825   0.536
   0.695   0.709   1.137   0.928   0.744   0.861   0.573   0.583   0.516   0.833
   0.794   1.134   0.989   0.904   1.400   0.904   0.989   1.134   0.794   0.833
   0.516   0.583   0.573   0.861   0.744   0.928   1.137   0.709   0.695   0.536
   0.825   0.528
   0.592   0.460   0.581   0.368   0.270   0.323   0.558   0.805   0.881   0.779
   0.380   0.445   0.946   0.254   0.498   0.904   0.467   0.897   1.049   0.897
   0.467   0.904   0.498   0.254   0.946   0.445   0.380   0.779   0.881   0.805
   0.558   0.323   0.270   0.368   0.581   0.460   0.592   0.460   0.581   0.368
   0.270   0.323   0.558   0.805   0.881   0.779   0.380   0.445   0.946   0.254
   0.498   0.904   0.467   0.897   1.049   0.897   0.467   0.904   0.498   0.254
   0.946   0.445   0.380   0.779   0.881   0.805   0.558   0.323   0.270   0.368
   0.581   0.460
   0.879   0.870   0.641   0.592   0.431   0.306   0.509   0.464   1.419   1.014
   0.677   1.234   1.237   0.914   0.826   1.848   0.796   1.357   1.232   1.357
   0.796   1.848   0.826   0.914   1.237   1.234   0.677   1.014   1.419   0.464
   0.509   0.306   0.431   0.592   0.641   0.870   0.879   0.870   0.641   0.592
   0.431   0.306   0.509   0.464   1.419   1.014   0.677   1.234   1.237   0.914
   0.826   1.848   0.796   1.357   1.232   1.357   0.796   1.848   0.826   0.914
   1.237   1.234   0.677   1.014   1.419   0.464   0.509   0.306   0.431   0.592
   0.641   0.870
   0.712   1.052   0.371   0.899   0.826   0.760   0.769   0.645   1.168   1.543
   1.225   1.196   1.847   1.564   0.992   2.188   1.296   0.943   1.593   0.943
   1.296   2.188   0.992   1.564   1.847   1.196   1.225   1.543   1.168   0.645
   0.769   0.760   0.826   0.899   0.371   1.052   0.712   1.052   0.371   0.899
   0.826   0.760   0.769   0.645   1.168   1.543   1.225   1.196   1.847   1.564
   0.992   2.188   1.296   0.943   1.593   0.943   1.296   2.188   0.992   1.564
   1.847   1.196   1.225   1.543   1.168   0.645   0.769   0.760   0.826   0.899
   0.371   1.052
   1.010   0.765   0.399   1.315   0.644   0.619   0.974   1.105   0.165   0.905
   1.135   0.674   1.696   1.025   1.470   0.965   1.639   1.395   1.279   1.395
   1.639   0.965   1.470   1.025   1.696   0.674   1.135   0.905   0.165   1.105
   0.974   0.619   0.644   1.315   0.399   0.765   1.010   0.765   0.399   1.315
   0.644   0.619   0.974   1.105   0.165   0.905   1.135   0.674   1.696   1.025
   1.470   0.965   1.639   1.395   1.279   1.395   1.639   0.965   1.470   1.025
   1.696   0.674   1.135   0.905   0.165   1.105   0.974   0.619   0.644   1.315
   0.399   0.765
 111       5.00   72    0 5.00   15    0
   0.319   0.319   0.319   0.319   0.319   0.319   0.319   0.319   0.319   0.319
   0.319   0.319   0.319   0.319   0.319   0.319   0.319   0.319   0.319   0.319
   0.319   0.319   0.319   0.319   0.319   0.319   0.319   0.319   0.319   0.319
   0.319   0.319   0.319   0.319   0.319   0.319   0.319   0.319   0.319   0.319
   0.319   0.319   0.319   0.319   0.319   0.319   0.319   0.319   0.319   0.319
   0.319   0.319   0.319   0.319   0.319   0.319   0.319   0.319   0.319   0.319
   0.319   0.319   0.319   0.319   0.319   0.319   0.319   0.319   0.319   0.319
   0.319   0.319
   0.417   0.402   0.376   0.334   0.467   0.501   0.332   0.322   0.351   0.343
   0.332   0.298   0.335   0.487   0.335   0.342   0.469   0.387   0.282   0.387
   0.469   0.342   0.335   0.487   0.335   0.298   0.332   0.343   0.351   0.322
   0.332   0.501   0.467   0.334   0.376   0.402   0.417   0.402   0.376   0.334
   0.467   0.501   0.332   0.322   0.351   0.343   0.332   0.298   0.335   0.487
   0.335   0.342   0.469   0.387   0.282   0.387   0.469   0.342   0.335   0.487
   0.335   0.298   0.332   0.343   0.351   0.322   0.332   0.501   0.467   0.334
   0.376   0.402
   0.457   0.607   0.364   0.510   0.587   0.580   0.374   0.396   0.304   0.357
   0.325   0.453   0.446   0.485   0.361   0.348   0.475   0.413   0.338   0.413
   0.475   0.348   0.361   0.485   0.446   0.453   0.325   0.357   0.304   0.396
   0.374   0.580   0.587   0.510   0.364   0.607   0.457   0.607   0.364   0.510
   0.587   0.580   0.374   0.396   0.304   0.357   0.325   0.453   0.446   0.485
   0.361   0.348   0.475   0.413   0.338   0.413   0.475   0.348   0.361   0.485
   0.446   0.453   0.325   0.357   0.304   0.396   0.374   0.580   0.587   0.510
   0.364   0.607
   0.823   0.948   0.893   0.814   0.768   0.648   0.580   0.586   0.469   0.372
   0.378   0.485   0.514   0.390   0.455   0.462   0.454   0.333   0.398   0.333
   0.454   0.462   0.455   0.390   0.514   0.485   0.378   0.372   0.469   0.586
   0.580   0.648   0.768   0.814   0.893   0.948   0.823   0.948   0.893   0.814
   0.768   0.648   0.580   0.586   0.469   0.372   0.378   0.485   0.514   0.390
   0.455   0.462   0.454   0.333   0.398   0.333   0.454   0.462   0.455   0.390
   0.514   0.485   0.378   0.372   0.469   0.586   0.580   0.648   0.768   0.814
   0.893   0.948
   1.336   1.351   1.538   1.210   1.250   0.933   1.144   1.082   0.699   0.776
   0.748   0.480   0.629   0.352   0.449   0.486   0.493   0.377   0.588   0.377
   0.493   0.486   0.449   0.352   0.629   0.480   0.748   0.776   0.699   1.082
   1.144   0.933   1.250   1.210   1.538   1.351   1.336   1.351   1.538   1.210
   1.250   0.933   1.144   1.082   0.699   0.776   0.748   0.480   0.629   0.352
   0.449   0.486   0.493   0.377   0.588   0.377   0.493   0.486   0.449   0.352
   0.629   0.480   0.748   0.776   0.699   1.082   1.144   0.933   1.250   1.210
   1.538   1.351
   1.764   2.019   1.903   1.680   1.684   1.560   1.294   1.390   0.704   1.152
   0.978   0.668   0.734   0.457   0.392   0.598   0.431   0.460   0.624   0.460
   0.431   0.598   0.392   0.457   0.734   0.668   0.978   1.152   0.704   1.390
   1.294   1.560   1.684   1.680   1.903   2.019   1.764   2.019   1.903   1.680
   1.684   1.560   1.294   1.390   0.704   1.152   0.978   0.668   0.734   0.457
   0.392   0.598   0.431   0.460   0.624   0.460   0.431   0.598   0.392   0.457
   0.734   0.668   0.978   1.152   0.704   1.390   1.294   1.560   1.684   1.680
   1.903   2.019
   2.234   2.204   2.278   1.896   2.083   2.074   1.378   1.477   0.983   1.261
   1.041   0.928   0.668   0.739   0.660   0.597   0.438   0.580   0.474   0.580
   0.438   0.597   0.660   0.739   0.668   0.928   1.041   1.261   0.983   1.477
   1.378   2.074   2.083   1.896   2.278   2.204   2.234   2.204   2.278   1.896
   2.083   2.074   1.378   1.477   0.983   1.261   1.041   0.928   0.668   0.739
   0.660   0.597   0.438   0.580   0.474   0.580   0.438   0.597   0.660   0.739
   0.668   0.928   1.041   1.261   0.983   1.477   1.378   2.074   2.083   1.896
   2.278   2.204
   1.686   1.561   2.066   2.179   2.163   2.225   1.728   1.491   1.384   1.336
   0.942   1.165   0.846   0.970   0.705   0.516   0.736   0.808   0.459   0.808
   0.736   0.516   0.705   0.970   0.846   1.165   0.942   1.336   1.384   1.491
   1.728   2.225   2.163   2.179   2.066   1.561   1.686   1.561   2.066   2.179
   2.163   2.225   1.728   1.491   1.384   1.336   0.942   1.165   0.846   0.970
   0.705   0.516   0.736   0.808   0.459   0.808   0.736   0.516   0.705   0.970
   0.846   1.165   0.942   1.336   1.384   1.491   1.728   2.225   2.163   2.179
   2.066   1.561
   0.673   0.837   1.182   1.645   1.865   1.681   1.672   1.728   1.458   1.304
   1.068   1.375   1.097   1.202   0.608   0.810   1.090   1.078   0.586   1.078
   1.090   0.810   0.608   1.202   1.097   1.375   1.068   1.304   1.458   1.728
   1.672   1.681   1.865   1.645   1.182   0.837   0.673   0.837   1.182   1.645
   1.865   1.681   1.672   1.728   1.458   1.304   1.068   1.375   1.097   1.202
   0.608   0.810   1.090   1.078   0.586   1.078   1.090   0.810   0.608   1.202
   1.097   1.375   1.068   1.304   1.458   1.728   1.672   1.681   1.865   1.645
   1.182   0.837
   0.530   0.460   0.744   0.778   1.528   1.003   1.336   1.585   1.738   1.144
   1.570   1.626   1.657   1.368   1.253   1.215   1.175   1.209   1.185   1.209
   1.175   1.215   1.253   1.368   1.657   1.626   1.570   1.144   1.738   1.585
   1.336   1.003   1.528   0.778   0.744   0.460   0.530   0.460   0.744   0.778
   1.528   1.003   1.336   1.585   1.738   1.144   1.570   1.626   1.657   1.368
   1.253   1.215   1.175   1.209   1.185   1.209   1.175   1.215   1.253   1.368
   1.657   1.626   1.570   1.144   1.738   1.585   1.336   1.003   1.528   0.778
   0.744   0.460
   0.680   0.290   0.765   0.693   1.057   0.659   0.689   1.138   1.498   1.066
   1.665   1.430   1.605   1.305   1.194   1.241   1.018   1.010   1.100   1.010
   1.018   1.241   1.194   1.305   1.605   1.430   1.665   1.066   1.498   1.138
   0.689   0.659   1.057   0.693   0.765   0.290   0.680   0.290   0.765   0.693
   1.057   0.659   0.689   1.138   1.498   1.066   1.665   1.430   1.605   1.305
   1.194   1.241   1.018   1.010   1.100   1.010   1.018   1.241   1.194   1.305
   1.605   1.430   1.665   1.066   1.498   1.138   0.689   0.659   1.057   0.693
   0.765   0.290
   0.595   0.327   0.900   0.566   0.668   0.422   0.814   1.168   1.053   1.251
   1.430   1.328   0.994   0.882   0.969   1.195   0.842   1.093   0.676   1.093
   0.842   1.195   0.969   0.882   0.994   1.328   1.430   1.251   1.053   1.168
   0.814   0.422   0.668   0.566   0.900   0.327   0.595   0.327   0.900   0.566
   0.668   0.422   0.814   1.168   1.053   1.251   1.430   1.328   0.994   0.882
   0.969   1.195   0.842   1.093   0.676   1.093   0.842   1.195   0.969   0.882
   0.994   1.328   1.430   1.251   1.053   1.168   0.814   0.422   0.668   0.566
   0.900   0.327
   0.642   0.404   0.818   0.324   0.464   0.276   0.841   1.030   0.751   1.472
   1.269   1.730   0.830   0.387   1.320   1.134   0.699   0.925   0.432   0.925
   0.699   1.134   1.320   0.387   0.830   1.730   1.269   1.472   0.751   1.030
   0.841   0.276   0.464   0.324   0.818   0.404   0.642   0.404   0.818   0.324
   0.464   0.276   0.841   1.030   0.751   1.472   1.269   1.730   0.830   0.387
   1.320   1.134   0.699   0.925   0.432   0.925   0.699   1.134   1.320   0.387
   0.830   1.730   1.269   1.472   0.751   1.030   0.841   0.276   0.464   0.324
   0.818   0.404
   0.449   0.791   0.273   0.695   0.596   0.503   0.680   0.896   0.815   1.528
   1.404   1.013   1.185   0.434   1.301   1.227   1.058   1.117   0.469   1.117
   1.058   1.227   1.301   0.434   1.185   1.013   1.404   1.528   0.815   0.896
   0.680   0.503   0.596   0.695   0.273   0.791   0.449   0.791   0.273   0.695
   0.596   0.503   0.680   0.896   0.815   1.528   1.404   1.013   1.185   0.434
   1.301   1.227   1.058   1.117   0.469   1.117   1.058   1.227   1.301   0.434
   1.185   1.013   1.404   1.528   0.815   0.896   0.680   0.503   0.596   0.695
   0.273   0.791
   1.037   1.109   0.499   1.248   0.573   0.490   0.668   1.008   1.120   1.360
   1.224   0.518   1.218   1.010   1.574   1.080   1.137   1.037   0.445   1.037
   1.137   1.080   1.574   1.010   1.218   0.518   1.224   1.360   1.120   1.008
   0.668   0.490   0.573   1.248   0.499   1.109   1.037   1.109   0.499   1.248
   0.573   0.490   0.668   1.008   1.120   1.360   1.224   0.518   1.218   1.010
   1.574   1.080   1.137   1.037   0.445   1.037   1.137   1.080   1.574   1.010
   1.218   0.518   1.224   1.360   1.120   1.008   0.668   0.490   0.573   1.248
   0.499   1.109
  4  1      6.7671966E-01
  4  2     -1.2537632E-01
  4  3      4.6272645E-01
  6  1      7.7569478E-01
  6  2     -1.2913549E+00
  6  3      5.4225210E-01
  6  4      3.2950476E-02
  8  1     -1.3618308E-01
  8  2     -1.7771958E-01
  8  3      4.8797263E-01
  8  4     -6.1806860E-02
  8  5      2.7044270E-01
 10  1      1.3299544E-01
 10  2     -4.0196882E-01
 10  3      3.1017639E-01
 10  4     -1.1648530E-01
 10  5      1.7793598E-01
 10  6     -8.8130527E-02
 12  1      8.5078234E-02  1.1711345E-01
 12  2     -1.2460981E-01 -7.0361707E-01
 12  3      1.5657452E-02  3.9551204E-01
 12  4     -6.8972271E-02  1.5793111E-01
 12  5      3.2682794E-01 -4.0007011E-01
 12  6     -1.0134822E-01  5.6411133E-01
 12  7      5.7756241E-01  5.9888337E-01
 14  1     -7.0202965E-02
 14  2     -2.1105179E-02
 14  3      2.9846623E-02
 14  4     -2.5754779E-01
 14  5      1.9978822E-01
 14  6      2.4040360E-01
 14  7      7.6890412E-01
 14  8     -1.6834139E-01
 220       5.00   72    0 5.00   18    0
   1.240   1.240   1.241   1.243   1.246   1.250   1.254   1.258   1.263   1.268
   1.273   1.278   1.282   1.287   1.290   1.293   1.295   1.296   1.297   1.296
   1.295   1.293   1.290   1.287   1.282   1.278   1.273   1.268   1.263   1.258
   1.254   1.250   1.246   1.243   1.241   1.240   1.240   1.240   1.241   1.243
   1.246   1.250   1.254   1.258   1.263   1.268   1.273   1.278   1.282   1.287
   1.290   1.293   1.295   1.296   1.297   1.296   1.295   1.293   1.290   1.287
   1.282   1.278   1.273   1.268   1.263   1.258   1.254   1.250   1.246   1.243
   1.241   1.240
   1.003   1.006   1.015   1.030   1.050   1.076   1.106   1.139   1.176   1.214
   1.254   1.292   1.329   1.363   1.393   1.417   1.435   1.446   1.450   1.446
   1.435   1.417   1.393   1.363   1.329   1.292   1.254   1.214   1.176   1.139
   1.106   1.076   1.050   1.030   1.015   1.006   1.003   1.006   1.015   1.030
   1.050   1.076   1.106   1.139   1.176   1.214   1.254   1.292   1.329   1.363
   1.393   1.417   1.435   1.446   1.450   1.446   1.435   1.417   1.393   1.363
   1.329   1.292   1.254   1.214   1.176   1.139   1.106   1.076   1.050   1.030
   1.015   1.006
   0.703   0.708   0.723   0.748   0.783   0.827   0.882   0.946   1.018   1.096
   1.179   1.264   1.347   1.426   1.497   1.556   1.601   1.629   1.638   1.629
   1.601   1.556   1.497   1.426   1.347   1.264   1.179   1.096   1.018   0.946
   0.882   0.827   0.783   0.748   0.723   0.708   0.703   0.708   0.723   0.748
   0.783   0.827   0.882   0.946   1.018   1.096   1.179   1.264   1.347   1.426
   1.497   1.556   1.601   1.629   1.638   1.629   1.601   1.556   1.497   1.426
   1.347   1.264   1.179   1.096   1.018   0.946   0.882   0.827   0.783   0.748
   0.723   0.708
   0.535   0.538   0.548   0.565   0.592   0.630   0.681   0.746   0.827   0.922
   1.030   1.147   1.269   1.388   1.499   1.594   1.667   1.713   1.729   1.713
   1.667   1.594   1.499   1.388   1.269   1.147   1.030   0.922   0.827   0.746
   0.681   0.630   0.592   0.565   0.548   0.538   0.535   0.538   0.548   0.565
   0.592   0.630   0.681   0.746   0.827   0.922   1.030   1.147   1.269   1.388
   1.499   1.594   1.667   1.713   1.729   1.713   1.667   1.594   1.499   1.388
   1.269   1.147   1.030   0.922   0.827   0.746   0.681   0.630   0.592   0.565
   0.548   0.538
   0.552   0.551   0.547   0.542   0.541   0.548   0.568   0.604   0.662   0.743
   0.847   0.971   1.109   1.251   1.386   1.505   1.597   1.656   1.676   1.656
   1.597   1.505   1.386   1.251   1.109   0.971   0.847   0.743   0.662   0.604
   0.568   0.548   0.541   0.542   0.547   0.551   0.552   0.551   0.547   0.542
   0.541   0.548   0.568   0.604   0.662   0.743   0.847   0.971   1.109   1.251
   1.386   1.505   1.597   1.656   1.676   1.656   1.597   1.505   1.386   1.251
   1.109   0.971   0.847   0.743   0.662   0.604   0.568   0.548   0.541   0.542
   0.547   0.551
   0.661   0.655   0.638   0.613   0.585   0.559   0.543   0.544   0.568   0.623
   0.709   0.825   0.962   1.106   1.245   1.365   1.457   1.514   1.533   1.514
   1.457   1.365   1.245   1.106   0.962   0.825   0.709   0.623   0.568   0.544
   0.543   0.559   0.585   0.613   0.638   0.655   0.661   0.655   0.638   0.613
   0.585   0.559   0.543   0.544   0.568   0.623   0.709   0.825   0.962   1.106
   1.245   1.365   1.457   1.514   1.533   1.514   1.457   1.365   1.245   1.106
   0.962   0.825   0.709   0.623   0.568   0.544   0.543   0.559   0.585   0.613
   0.638   0.655
   0.744   0.736   0.713   0.681   0.644   0.607   0.574   0.554   0.556   0.591
   0.666   0.777   0.913   1.052   1.176   1.271   1.334   1.369   1.379   1.369
   1.334   1.271   1.176   1.052   0.913   0.777   0.666   0.591   0.556   0.554
   0.574   0.607   0.644   0.681   0.713   0.736   0.744   0.736   0.713   0.681
   0.644   0.607   0.574   0.554   0.556   0.591   0.666   0.777   0.913   1.052
   1.176   1.271   1.334   1.369   1.379   1.369   1.334   1.271   1.176   1.052
   0.913   0.777   0.666   0.591   0.556   0.554   0.574   0.607   0.644   0.681
   0.713   0.736
   0.794   0.784   0.760   0.732   0.704   0.677   0.647   0.616   0.599   0.617
   0.688   0.809   0.958   1.098   1.200   1.251   1.261   1.252   1.246   1.252
   1.261   1.251   1.200   1.098   0.958   0.809   0.688   0.617   0.599   0.616
   0.647   0.677   0.704   0.732   0.760   0.784   0.794   0.784   0.760   0.732
   0.704   0.677   0.647   0.616   0.599   0.617   0.688   0.809   0.958   1.098
   1.200   1.251   1.261   1.252   1.246   1.252   1.261   1.251   1.200   1.098
   0.958   0.809   0.688   0.617   0.599   0.616   0.647   0.677   0.704   0.732
   0.760   0.784
   0.912   0.898   0.865   0.836   0.824   0.816   0.791   0.737   0.676   0.652
   0.704   0.836   1.010   1.165   1.250   1.254   1.202   1.141   1.116   1.141
   1.202   1.254   1.250   1.165   1.010   0.836   0.704   0.652   0.676   0.737
   0.791   0.816   0.824   0.836   0.865   0.898   0.912   0.898   0.865   0.836
   0.824   0.816   0.791   0.737   0.676   0.652   0.704   0.836   1.010   1.165
   1.250   1.254   1.202   1.141   1.116   1.141   1.202   1.254   1.250   1.165
   1.010   0.836   0.704   0.652   0.676   0.737   0.791   0.816   0.824   0.836
   0.865   0.898
   1.187   1.158   1.095   1.048   1.046   1.061   1.036   0.936   0.791   0.678
   0.675   0.798   0.991   1.163   1.240   1.209   1.112   1.015   0.976   1.015
   1.112   1.209   1.240   1.163   0.991   0.798   0.675   0.678   0.791   0.936
   1.036   1.061   1.046   1.048   1.095   1.158   1.187   1.158   1.095   1.048
   1.046   1.061   1.036   0.936   0.791   0.678   0.675   0.798   0.991   1.163
   1.240   1.209   1.112   1.015   0.976   1.015   1.112   1.209   1.240   1.163
   0.991   0.798   0.675   0.678   0.791   0.936   1.036   1.061   1.046   1.048
   1.095   1.158
   1.571   1.515   1.393   1.303   1.303   1.350   1.340   1.200   0.958   0.732
   0.644   0.728   0.912   1.078   1.142   1.095   0.990   0.896   0.859   0.896
   0.990   1.095   1.142   1.078   0.912   0.728   0.644   0.732   0.958   1.200
   1.340   1.350   1.303   1.303   1.393   1.515   1.571   1.515   1.393   1.303
   1.303   1.350   1.340   1.200   0.958   0.732   0.644   0.728   0.912   1.078
   1.142   1.095   0.990   0.896   0.859   0.896   0.990   1.095   1.142   1.078
   0.912   0.728   0.644   0.732   0.958   1.200   1.340   1.350   1.303   1.303
   1.393   1.515
   1.888   1.796   1.593   1.440   1.435   1.532   1.577   1.447   1.160   0.859
   0.700   0.728   0.863   0.980   1.005   0.953   0.881   0.834   0.819   0.834
   0.881   0.953   1.005   0.980   0.863   0.728   0.700   0.859   1.160   1.447
   1.577   1.532   1.435   1.440   1.593   1.796   1.888   1.796   1.593   1.440
   1.435   1.532   1.577   1.447   1.160   0.859   0.700   0.728   0.863   0.980
   1.005   0.953   0.881   0.834   0.819   0.834   0.881   0.953   1.005   0.980
   0.863   0.728   0.700   0.859   1.160   1.447   1.577   1.532   1.435   1.440
   1.593   1.796
   1.958   1.832   1.554   1.336   1.324   1.478   1.615   1.569   1.334   1.051
   0.879   0.864   0.924   0.947   0.903   0.842   0.828   0.856   0.875   0.856
   0.828   0.842   0.903   0.947   0.924   0.864   0.879   1.051   1.334   1.569
   1.615   1.478   1.324   1.336   1.554   1.832   1.958   1.832   1.554   1.336
   1.324   1.478   1.615   1.569   1.334   1.051   0.879   0.864   0.924   0.947
   0.903   0.842   0.828   0.856   0.875   0.856   0.828   0.842   0.903   0.947
   0.924   0.864   0.879   1.051   1.334   1.569   1.615   1.478   1.324   1.336
   1.554   1.832
   1.724   1.588   1.282   1.036   1.018   1.207   1.428   1.504   1.400   1.226
   1.111   1.086   1.072   0.994   0.871   0.798   0.834   0.934   0.986   0.934
   0.834   0.798   0.871   0.994   1.072   1.086   1.111   1.226   1.400   1.504
   1.428   1.207   1.018   1.036   1.282   1.588   1.724   1.588   1.282   1.036
   1.018   1.207   1.428   1.504   1.400   1.226   1.111   1.086   1.072   0.994
   0.871   0.798   0.834   0.934   0.986   0.934   0.834   0.798   0.871   0.994
   1.072   1.086   1.111   1.226   1.400   1.504   1.428   1.207   1.018   1.036
   1.282   1.588
   1.286   1.177   0.931   0.728   0.712   0.888   1.128   1.289   1.321   1.285
   1.260   1.252   1.200   1.060   0.891   0.810   0.873   1.010   1.079   1.010
   0.873   0.810   0.891   1.060   1.200   1.252   1.260   1.285   1.321   1.289
   1.128   0.888   0.712   0.728   0.931   1.177   1.286   1.177   0.931   0.728
   0.712   0.888   1.128   1.289   1.321   1.285   1.260   1.252   1.200   1.060
   0.891   0.810   0.873   1.010   1.079   1.010   0.873   0.810   0.891   1.060
   1.200   1.252   1.260   1.285   1.321   1.289   1.128   0.888   0.712   0.728
   0.931   1.177
   0.817   0.773   0.672   0.588   0.592   0.703   0.874   1.032   1.133   1.191
   1.236   1.258   1.211   1.077   0.919   0.847   0.910   1.041   1.106   1.041
   0.910   0.847   0.919   1.077   1.211   1.258   1.236   1.191   1.133   1.032
   0.874   0.703   0.592   0.588   0.672   0.773   0.817   0.773   0.672   0.588
   0.592   0.703   0.874   1.032   1.133   1.191   1.236   1.258   1.211   1.077
   0.919   0.847   0.910   1.041   1.106   1.041   0.910   0.847   0.919   1.077
   1.211   1.258   1.236   1.191   1.133   1.032   0.874   0.703   0.592   0.588
   0.672   0.773
   0.458   0.493   0.570   0.636   0.670   0.696   0.747   0.830   0.923   1.009
   1.082   1.127   1.114   1.033   0.929   0.881   0.930   1.028   1.077   1.028
   0.930   0.881   0.929   1.033   1.114   1.127   1.082   1.009   0.923   0.830
   0.747   0.696   0.670   0.636   0.570   0.493   0.458   0.493   0.570   0.636
   0.670   0.696   0.747   0.830   0.923   1.009   1.082   1.127   1.114   1.033
   0.929   0.881   0.930   1.028   1.077   1.028   0.930   0.881   0.929   1.033
   1.114   1.127   1.082   1.009   0.923   0.830   0.747   0.696   0.670   0.636
   0.570   0.493
   0.273   0.361   0.561   0.732   0.789   0.756   0.716   0.727   0.788   0.867
   0.942   0.997   1.015   0.982   0.926   0.899   0.936   1.006   1.041   1.006
   0.936   0.899   0.926   0.982   1.015   0.997   0.942   0.867   0.788   0.727
   0.716   0.756   0.789   0.732   0.561   0.361   0.273   0.361   0.561   0.732
   0.789   0.756   0.716   0.727   0.788   0.867   0.942   0.997   1.015   0.982
   0.926   0.899   0.936   1.006   1.041   1.006   0.936   0.899   0.926   0.982
   1.015   0.997   0.942   0.867   0.788   0.727   0.716   0.756   0.789   0.732
   0.561   0.361
 200       5.00   72    0 5.00   18    0
   1.198   1.198   1.199   1.199   1.199   1.200   1.200   1.201   1.201   1.202
   1.202   1.203   1.203   1.204   1.204   1.205   1.205   1.205   1.205   1.205
   1.205   1.205   1.204   1.204   1.203   1.203   1.202   1.202   1.201   1.201
   1.200   1.200   1.199   1.199   1.199   1.198   1.198   1.198   1.199   1.199
   1.199   1.200   1.200   1.201   1.201   1.202   1.202   1.203   1.203   1.204
   1.204   1.205   1.205   1.205   1.205   1.205   1.205   1.205   1.204   1.204
   1.203   1.203   1.202   1.202   1.201   1.201   1.200   1.200   1.199   1.199
   1.199   1.198
   1.174   1.174   1.174   1.175   1.176   1.178   1.180   1.182   1.185   1.188
   1.191   1.194   1.198   1.201   1.204   1.206   1.208   1.209   1.209   1.209
   1.208   1.206   1.204   1.201   1.198   1.194   1.191   1.188   1.185   1.182
   1.180   1.178   1.176   1.175   1.174   1.174   1.174   1.174   1.174   1.175
   1.176   1.178   1.180   1.182   1.185   1.188   1.191   1.194   1.198   1.201
   1.204   1.206   1.208   1.209   1.209   1.209   1.208   1.206   1.204   1.201
   1.198   1.194   1.191   1.188   1.185   1.182   1.180   1.178   1.176   1.175
   1.174   1.174
   1.206   1.205   1.202   1.198   1.193   1.188   1.184   1.181   1.180   1.180
   1.182   1.184   1.188   1.191   1.194   1.196   1.198   1.200   1.200   1.200
   1.198   1.196   1.194   1.191   1.188   1.184   1.182   1.180   1.180   1.181
   1.184   1.188   1.193   1.198   1.202   1.205   1.206   1.205   1.202   1.198
   1.193   1.188   1.184   1.181   1.180   1.180   1.182   1.184   1.188   1.191
   1.194   1.196   1.198   1.200   1.200   1.200   1.198   1.196   1.194   1.191
   1.188   1.184   1.182   1.180   1.180   1.181   1.184   1.188   1.193   1.198
   1.202   1.205
   1.354   1.349   1.335   1.314   1.289   1.262   1.237   1.215   1.198   1.186
   1.179   1.174   1.171   1.168   1.165   1.161   1.158   1.156   1.155   1.156
   1.158   1.161   1.165   1.168   1.171   1.174   1.179   1.186   1.198   1.215
   1.237   1.262   1.289   1.314   1.335   1.349   1.354   1.349   1.335   1.314
   1.289   1.262   1.237   1.215   1.198   1.186   1.179   1.174   1.171   1.168
   1.165   1.161   1.158   1.156   1.155   1.156   1.158   1.161   1.165   1.168
   1.171   1.174   1.179   1.186   1.198   1.215   1.237   1.262   1.289   1.314
   1.335   1.349
   1.558   1.547   1.516   1.469   1.411   1.350   1.292   1.244   1.206   1.181
   1.164   1.152   1.141   1.129   1.113   1.096   1.081   1.070   1.066   1.070
   1.081   1.096   1.113   1.129   1.141   1.152   1.164   1.181   1.206   1.244
   1.292   1.350   1.411   1.469   1.516   1.547   1.558   1.547   1.516   1.469
   1.411   1.350   1.292   1.244   1.206   1.181   1.164   1.152   1.141   1.129
   1.113   1.096   1.081   1.070   1.066   1.070   1.081   1.096   1.113   1.129
   1.141   1.152   1.164   1.181   1.206   1.244   1.292   1.350   1.411   1.469
   1.516   1.547
   1.659   1.643   1.599   1.529   1.444   1.354   1.269   1.200   1.151   1.121
   1.106   1.097   1.087   1.070   1.046   1.017   0.990   0.970   0.963   0.970
   0.990   1.017   1.046   1.070   1.087   1.097   1.106   1.121   1.151   1.200
   1.269   1.354   1.444   1.529   1.599   1.643   1.659   1.643   1.599   1.529
   1.444   1.354   1.269   1.200   1.151   1.121   1.106   1.097   1.087   1.070
   1.046   1.017   0.990   0.970   0.963   0.970   0.990   1.017   1.046   1.070
   1.087   1.097   1.106   1.121   1.151   1.200   1.269   1.354   1.444   1.529
   1.599   1.643
   1.527   1.514   1.473   1.406   1.319   1.222   1.132   1.060   1.016   0.996
   0.995   0.999   1.000   0.993   0.975   0.951   0.925   0.907   0.900   0.907
   0.925   0.951   0.975   0.993   1.000   0.999   0.995   0.996   1.016   1.060
   1.132   1.222   1.319   1.406   1.473   1.514   1.527   1.514   1.473   1.406
   1.319   1.222   1.132   1.060   1.016   0.996   0.995   0.999   1.000   0.993
   0.975   0.951   0.925   0.907   0.900   0.907   0.925   0.951   0.975   0.993
   1.000   0.999   0.995   0.996   1.016   1.060   1.132   1.222   1.319   1.406
   1.473   1.514
   1.195   1.191   1.176   1.140   1.078   1.001   0.926   0.871   0.846   0.845
   0.858   0.874   0.888   0.899   0.907   0.911   0.913   0.912   0.911   0.912
   0.913   0.911   0.907   0.899   0.888   0.874   0.858   0.845   0.846   0.871
   0.926   1.001   1.078   1.140   1.176   1.191   1.195   1.191   1.176   1.140
   1.078   1.001   0.926   0.871   0.846   0.845   0.858   0.874   0.888   0.899
   0.907   0.911   0.913   0.912   0.911   0.912   0.913   0.911   0.907   0.899
   0.888   0.874   0.858   0.845   0.846   0.871   0.926   1.001   1.078   1.140
   1.176   1.191
   0.839   0.850   0.870   0.873   0.843   0.790   0.738   0.712   0.716   0.735
   0.753   0.762   0.774   0.800   0.842   0.892   0.935   0.963   0.972   0.963
   0.935   0.892   0.842   0.800   0.774   0.762   0.753   0.735   0.716   0.712
   0.738   0.790   0.843   0.873   0.870   0.850   0.839   0.850   0.870   0.873
   0.843   0.790   0.738   0.712   0.716   0.735   0.753   0.762   0.774   0.800
   0.842   0.892   0.935   0.963   0.972   0.963   0.935   0.892   0.842   0.800
   0.774   0.762   0.753   0.735   0.716   0.712   0.738   0.790   0.843   0.873
   0.870   0.850
   0.634   0.656   0.702   0.727   0.707   0.657   0.621   0.630   0.674   0.715
   0.723   0.704   0.691   0.719   0.791   0.880   0.954   0.997   1.010   0.997
   0.954   0.880   0.791   0.719   0.691   0.704   0.723   0.715   0.674   0.630
   0.621   0.657   0.707   0.727   0.702   0.656   0.634   0.656   0.702   0.727
   0.707   0.657   0.621   0.630   0.674   0.715   0.723   0.704   0.691   0.719
   0.791   0.880   0.954   0.997   1.010   0.997   0.954   0.880   0.791   0.719
   0.691   0.704   0.723   0.715   0.674   0.630   0.621   0.657   0.707   0.727
   0.702   0.656
   0.601   0.629   0.683   0.706   0.670   0.606   0.580   0.626   0.716   0.781
   0.773   0.713   0.669   0.695   0.785   0.887   0.951   0.972   0.974   0.972
   0.951   0.887   0.785   0.695   0.669   0.713   0.773   0.781   0.716   0.626
   0.580   0.606   0.670   0.706   0.683   0.629   0.601   0.629   0.683   0.706
   0.670   0.606   0.580   0.626   0.716   0.781   0.773   0.713   0.669   0.695
   0.785   0.887   0.951   0.972   0.974   0.972   0.951   0.887   0.785   0.695
   0.669   0.713   0.773   0.781   0.716   0.626   0.580   0.606   0.670   0.706
   0.683   0.629
   0.621   0.650   0.703   0.720   0.672   0.606   0.597   0.680   0.806   0.883
   0.860   0.773   0.718   0.755   0.859   0.946   0.961   0.922   0.897   0.922
   0.961   0.946   0.859   0.755   0.718   0.773   0.860   0.883   0.806   0.680
   0.597   0.606   0.672   0.720   0.703   0.650   0.621   0.650   0.703   0.720
   0.672   0.606   0.597   0.680   0.806   0.883   0.860   0.773   0.718   0.755
   0.859   0.946   0.961   0.922   0.897   0.922   0.961   0.946   0.859   0.755
   0.718   0.773   0.860   0.883   0.806   0.680   0.597   0.606   0.672   0.720
   0.703   0.650
   0.604   0.626   0.670   0.691   0.672   0.649   0.677   0.778   0.900   0.963
   0.930   0.851   0.821   0.889   1.006   1.070   1.028   0.931   0.881   0.931
   1.028   1.070   1.006   0.889   0.821   0.851   0.930   0.963   0.900   0.778
   0.677   0.649   0.672   0.691   0.670   0.626   0.604   0.626   0.670   0.691
   0.672   0.649   0.677   0.778   0.900   0.963   0.930   0.851   0.821   0.889
   1.006   1.070   1.028   0.931   0.881   0.931   1.028   1.070   1.006   0.889
   0.821   0.851   0.930   0.963   0.900   0.778   0.677   0.649   0.672   0.691
   0.670   0.626
   0.631   0.630   0.631   0.649   0.690   0.752   0.827   0.903   0.959   0.973
   0.947   0.918   0.943   1.036   1.149   1.199   1.151   1.056   1.008   1.056
   1.151   1.199   1.149   1.036   0.943   0.918   0.947   0.973   0.959   0.903
   0.827   0.752   0.690   0.649   0.631   0.630   0.631   0.630   0.631   0.649
   0.690   0.752   0.827   0.903   0.959   0.973   0.947   0.918   0.943   1.036
   1.149   1.199   1.151   1.056   1.008   1.056   1.151   1.199   1.149   1.036
   0.943   0.918   0.947   0.973   0.959   0.903   0.827   0.752   0.690   0.649
   0.631   0.630
   0.913   0.854   0.740   0.694   0.776   0.926   1.028   1.024   0.953   0.898
   0.907   0.968   1.046   1.118   1.179   1.228   1.258   1.271   1.273   1.271
   1.258   1.228   1.179   1.118   1.046   0.968   0.907   0.898   0.953   1.024
   1.028   0.926   0.776   0.694   0.740   0.854   0.913   0.854   0.740   0.694
   0.776   0.926   1.028   1.024   0.953   0.898   0.907   0.968   1.046   1.118
   1.179   1.228   1.258   1.271   1.273   1.271   1.258   1.228   1.179   1.118
   1.046   0.968   0.907   0.898   0.953   1.024   1.028   0.926   0.776   0.694
   0.740   0.854
   1.555   1.404   1.091   0.892   0.949   1.140   1.227   1.100   0.875   0.758
   0.835   1.006   1.111   1.093   1.043   1.093   1.277   1.491   1.586   1.491
   1.277   1.093   1.043   1.093   1.111   1.006   0.835   0.758   0.875   1.100
   1.227   1.140   0.949   0.892   1.091   1.404   1.555   1.404   1.091   0.892
   0.949   1.140   1.227   1.100   0.875   0.758   0.835   1.006   1.111   1.093
   1.043   1.093   1.277   1.491   1.586   1.491   1.277   1.093   1.043   1.093
   1.111   1.006   0.835   0.758   0.875   1.100   1.227   1.140   0.949   0.892
   1.091   1.404
   2.372   2.119   1.578   1.179   1.153   1.334   1.374   1.120   0.760   0.606
   0.764   1.036   1.139   0.994   0.807   0.854   1.207   1.646   1.843   1.646
   1.207   0.854   0.807   0.994   1.139   1.036   0.764   0.606   0.760   1.120
   1.374   1.334   1.153   1.179   1.578   2.119   2.372   2.119   1.578   1.179
   1.153   1.334   1.374   1.120   0.760   0.606   0.764   1.036   1.139   0.994
   0.807   0.854   1.207   1.646   1.843   1.646   1.207   0.854   0.807   0.994
   1.139   1.036   0.764   0.606   0.760   1.120   1.374   1.334   1.153   1.179
   1.578   2.119
   2.951   2.631   1.934   1.391   1.292   1.447   1.447   1.113   0.674   0.506
   0.721   1.054   1.145   0.908   0.624   0.667   1.130   1.716   1.981   1.716
   1.130   0.667   0.624   0.908   1.145   1.054   0.721   0.506   0.674   1.113
   1.447   1.447   1.292   1.391   1.934   2.631   2.951   2.631   1.934   1.391
   1.292   1.447   1.447   1.113   0.674   0.506   0.721   1.054   1.145   0.908
   0.624   0.667   1.130   1.716   1.981   1.716   1.130   0.667   0.624   0.908
   1.145   1.054   0.721   0.506   0.674   1.113   1.447   1.447   1.292   1.391
   1.934   2.631
 111       5.00   72    0 5.00   18    0
   0.289   0.290   0.290   0.291   0.292   0.294   0.295   0.297   0.299   0.301
   0.304   0.306   0.308   0.309   0.311   0.312   0.313   0.314   0.314   0.314
   0.313   0.312   0.311   0.309   0.308   0.306   0.304   0.301   0.299   0.297
   0.295   0.294   0.292   0.291   0.290   0.290   0.289   0.290   0.290   0.291
   0.292   0.294   0.295   0.297   0.299   0.301   0.304   0.306   0.308   0.309
   0.311   0.312   0.313   0.314   0.314   0.314   0.313   0.312   0.311   0.309
   0.308   0.306   0.304   0.301   0.299   0.297   0.295   0.294   0.292   0.291
   0.290   0.290
   0.261   0.262   0.265   0.270   0.276   0.284   0.294   0.305   0.318   0.332
   0.346   0.361   0.375   0.388   0.400   0.409   0.417   0.421   0.423   0.421
   0.417   0.409   0.400   0.388   0.375   0.361   0.346   0.332   0.318   0.305
   0.294   0.284   0.276   0.270   0.265   0.262   0.261   0.262   0.265   0.270
   0.276   0.284   0.294   0.305   0.318   0.332   0.346   0.361   0.375   0.388
   0.400   0.409   0.417   0.421   0.423   0.421   0.417   0.409   0.400   0.388
   0.375   0.361   0.346   0.332   0.318   0.305   0.294   0.284   0.276   0.270
   0.265   0.262
   0.376   0.375   0.373   0.371   0.369   0.369   0.373   0.380   0.392   0.408
   0.429   0.452   0.476   0.501   0.523   0.542   0.556   0.565   0.568   0.565
   0.556   0.542   0.523   0.501   0.476   0.452   0.429   0.408   0.392   0.380
   0.373   0.369   0.369   0.371   0.373   0.375   0.376   0.375   0.373   0.371
   0.369   0.369   0.373   0.380   0.392   0.408   0.429   0.452   0.476   0.501
   0.523   0.542   0.556   0.565   0.568   0.565   0.556   0.542   0.523   0.501
   0.476   0.452   0.429   0.408   0.392   0.380   0.373   0.369   0.369   0.371
   0.373   0.375
   0.786   0.778   0.756   0.723   0.682   0.640   0.601   0.571   0.551   0.543
   0.546   0.558   0.576   0.597   0.616   0.632   0.645   0.652   0.655   0.652
   0.645   0.632   0.616   0.597   0.576   0.558   0.546   0.543   0.551   0.571
   0.601   0.640   0.682   0.723   0.756   0.778   0.786   0.778   0.756   0.723
   0.682   0.640   0.601   0.571   0.551   0.543   0.546   0.558   0.576   0.597
   0.616   0.632   0.645   0.652   0.655   0.652   0.645   0.632   0.616   0.597
   0.576   0.558   0.546   0.543   0.551   0.571   0.601   0.640   0.682   0.723
   0.756   0.778
   1.424   1.405   1.353   1.272   1.171   1.060   0.952   0.856   0.779   0.726
   0.693   0.676   0.669   0.665   0.659   0.651   0.641   0.634   0.631   0.634
   0.641   0.651   0.659   0.665   0.669   0.676   0.693   0.726   0.779   0.856
   0.952   1.060   1.171   1.272   1.353   1.405   1.424   1.405   1.353   1.272
   1.171   1.060   0.952   0.856   0.779   0.726   0.693   0.676   0.669   0.665
   0.659   0.651   0.641   0.634   0.631   0.634   0.641   0.651   0.659   0.665
   0.669   0.676   0.693   0.726   0.779   0.856   0.952   1.060   1.171   1.272
   1.353   1.405
   1.985   1.961   1.892   1.781   1.637   1.473   1.306   1.152   1.024   0.929
   0.862   0.817   0.779   0.739   0.692   0.639   0.589   0.553   0.540   0.553
   0.589   0.639   0.692   0.739   0.779   0.817   0.862   0.929   1.024   1.152
   1.306   1.473   1.637   1.781   1.892   1.961   1.985   1.961   1.892   1.781
   1.637   1.473   1.306   1.152   1.024   0.929   0.862   0.817   0.779   0.739
   0.692   0.639   0.589   0.553   0.540   0.553   0.589   0.639   0.692   0.739
   0.779   0.817   0.862   0.929   1.024   1.152   1.306   1.473   1.637   1.781
   1.892   1.961
   2.132   2.118   2.075   1.994   1.873   1.718   1.545   1.376   1.231   1.120
   1.041   0.983   0.928   0.862   0.776   0.677   0.582   0.513   0.487   0.513
   0.582   0.677   0.776   0.862   0.928   0.983   1.041   1.120   1.231   1.376
   1.545   1.718   1.873   1.994   2.075   2.118   2.132   2.118   2.075   1.994
   1.873   1.718   1.545   1.376   1.231   1.120   1.041   0.983   0.928   0.862
   0.776   0.677   0.582   0.513   0.487   0.513   0.582   0.677   0.776   0.862
   0.928   0.983   1.041   1.120   1.231   1.376   1.545   1.718   1.873   1.994
   2.075   2.118
   1.758   1.772   1.804   1.823   1.802   1.729   1.616   1.488   1.370   1.276
   1.208   1.155   1.102   1.030   0.932   0.811   0.688   0.595   0.560   0.595
   0.688   0.811   0.932   1.030   1.102   1.155   1.208   1.276   1.370   1.488
   1.616   1.729   1.802   1.823   1.804   1.772   1.758   1.772   1.804   1.823
   1.802   1.729   1.616   1.488   1.370   1.276   1.208   1.155   1.102   1.030
   0.932   0.811   0.688   0.595   0.560   0.595   0.688   0.811   0.932   1.030
   1.102   1.155   1.208   1.276   1.370   1.488   1.616   1.729   1.802   1.823
   1.804   1.772
   1.080   1.129   1.255   1.398   1.504   1.547   1.533   1.489   1.435   1.383
   1.334   1.289   1.244   1.190   1.113   1.005   0.883   0.782   0.743   0.782
   0.883   1.005   1.113   1.190   1.244   1.289   1.334   1.383   1.435   1.489
   1.533   1.547   1.504   1.398   1.255   1.129   1.080   1.129   1.255   1.398
   1.504   1.547   1.533   1.489   1.435   1.383   1.334   1.289   1.244   1.190
   1.113   1.005   0.883   0.782   0.743   0.782   0.883   1.005   1.113   1.190
   1.244   1.289   1.334   1.383   1.435   1.489   1.533   1.547   1.504   1.398
   1.255   1.129
   0.476   0.549   0.733   0.951   1.133   1.257   1.338   1.397   1.435   1.437
   1.399   1.341   1.295   1.270   1.241   1.176   1.072   0.970   0.927   0.970
   1.072   1.176   1.241   1.270   1.295   1.341   1.399   1.437   1.435   1.397
   1.338   1.257   1.133   0.951   0.733   0.549   0.476   0.549   0.733   0.951
   1.133   1.257   1.338   1.397   1.435   1.437   1.399   1.341   1.295   1.270
   1.241   1.176   1.072   0.970   0.927   0.970   1.072   1.176   1.241   1.270
   1.295   1.341   1.399   1.437   1.435   1.397   1.338   1.257   1.133   0.951
   0.733   0.549
   0.211   0.281   0.453   0.648   0.810   0.941   1.083   1.246   1.388   1.446
   1.400   1.303   1.237   1.242   1.275   1.262   1.171   1.054   1.001   1.054
   1.171   1.262   1.275   1.242   1.237   1.303   1.400   1.446   1.388   1.246
   1.083   0.941   0.810   0.648   0.453   0.281   0.211   0.281   0.453   0.648
   0.810   0.941   1.083   1.246   1.388   1.446   1.400   1.303   1.237   1.242
   1.275   1.262   1.171   1.054   1.001   1.054   1.171   1.262   1.275   1.242
   1.237   1.303   1.400   1.446   1.388   1.246   1.083   0.941   0.810   0.648
   0.453   0.281
   0.279   0.324   0.426   0.521   0.587   0.673   0.843   1.094   1.330   1.430
   1.358   1.204   1.109   1.142   1.238   1.269   1.172   1.019   0.945   1.019
   1.172   1.269   1.238   1.142   1.109   1.204   1.358   1.430   1.330   1.094
   0.843   0.673   0.587   0.521   0.426   0.324   0.279   0.324   0.426   0.521
   0.587   0.673   0.843   1.094   1.330   1.430   1.358   1.204   1.109   1.142
   1.238   1.269   1.172   1.019   0.945   1.019   1.172   1.269   1.238   1.142
   1.109   1.204   1.358   1.430   1.330   1.094   0.843   0.673   0.587   0.521
   0.426   0.324
   0.490   0.503   0.520   0.508   0.483   0.524   0.706   1.006   1.289   1.401
   1.298   1.097   0.983   1.040   1.183   1.239   1.127   0.936   0.843   0.936
   1.127   1.239   1.183   1.040   0.983   1.097   1.298   1.401   1.289   1.006
   0.706   0.524   0.483   0.508   0.520   0.503   0.490   0.503   0.520   0.508
   0.483   0.524   0.706   1.006   1.289   1.401   1.298   1.097   0.983   1.040
   1.183   1.239   1.127   0.936   0.843   0.936   1.127   1.239   1.183   1.040
   0.983   1.097   1.298   1.401   1.289   1.006   0.706   0.524   0.483   0.508
   0.520   0.503
   0.677   0.664   0.623   0.558   0.511   0.551   0.727   1.005   1.257   1.344
   1.231   1.031   0.919   0.978   1.124   1.185   1.077   0.887   0.793   0.887
   1.077   1.185   1.124   0.978   0.919   1.031   1.231   1.344   1.257   1.005
   0.727   0.551   0.511   0.558   0.623   0.664   0.677   0.664   0.623   0.558
   0.511   0.551   0.727   1.005   1.257   1.344   1.231   1.031   0.919   0.978
   1.124   1.185   1.077   0.887   0.793   0.887   1.077   1.185   1.124   0.978
   0.919   1.031   1.231   1.344   1.257   1.005   0.727   0.551   0.511   0.558
   0.623   0.664
   0.824   0.793   0.723   0.667   0.670   0.748   0.888   1.054   1.187   1.228
   1.155   1.023   0.933   0.947   1.026   1.067   1.005   0.889   0.830   0.889
   1.005   1.067   1.026   0.947   0.933   1.023   1.155   1.228   1.187   1.054
   0.888   0.748   0.670   0.667   0.723   0.793   0.824   0.793   0.723   0.667
   0.670   0.748   0.888   1.054   1.187   1.228   1.155   1.023   0.933   0.947
   1.026   1.067   1.005   0.889   0.830   0.889   1.005   1.067   1.026   0.947
   0.933   1.023   1.155   1.228   1.187   1.054   0.888   0.748   0.670   0.667
   0.723   0.793
   1.001   0.952   0.863   0.840   0.923   1.043   1.104   1.086   1.046   1.042
   1.066   1.061   1.000   0.914   0.857   0.852   0.877   0.903   0.912   0.903
   0.877   0.852   0.857   0.914   1.000   1.061   1.066   1.042   1.046   1.086
   1.104   1.043   0.923   0.840   0.863   0.952   1.001   0.952   0.863   0.840
   0.923   1.043   1.104   1.086   1.046   1.042   1.066   1.061   1.000   0.914
   0.857   0.852   0.877   0.903   0.912   0.903   0.877   0.852   0.857   0.914
   1.000   1.061   1.066   1.042   1.046   1.086   1.104   1.043   0.923   0.840
   0.863   0.952
   1.220   1.153   1.039   1.038   1.182   1.322   1.286   1.073   0.863   0.833
   0.976   1.112   1.076   0.868   0.649   0.587   0.710   0.896   0.982   0.896
   0.710   0.587   0.649   0.868   1.076   1.112   0.976   0.833   0.863   1.073
   1.286   1.322   1.182   1.038   1.039   1.153   1.220   1.153   1.039   1.038
   1.182   1.322   1.286   1.073   0.863   0.833   0.976   1.112   1.076   0.868
   0.649   0.587   0.710   0.896   0.982   0.896   0.710   0.587   0.649   0.868
   1.076   1.112   0.976   0.833   0.863   1.073   1.286   1.322   1.182   1.038
   1.039   1.153
   1.385   1.304   1.169   1.174   1.347   1.489   1.383   1.045   0.731   0.692
   0.917   1.147   1.123   0.830   0.501   0.399   0.586   0.878   1.016   0.878
   0.586   0.399   0.501   0.830   1.123   1.147   0.917   0.692   0.731   1.045
   1.383   1.489   1.347   1.174   1.169   1.304   1.385   1.304   1.169   1.174
   1.347   1.489   1.383   1.045   0.731   0.692   0.917   1.147   1.123   0.830
   0.501   0.399   0.586   0.878   1.016   0.878   0.586   0.399   0.501   0.830
   1.123   1.147   0.917   0.692   0.731   1.045   1.383   1.489   1.347   1.174
   1.169   1.304
TEXTURE_INDEX=   1.4183
ERR_CF 220         1080     628   42.36   25.90
ERR_CF 200         1080     536   26.93   16.60
ERR_CF 111         1080     438   21.19   11.63
