TEXEVAL                                                                         
Analysis started on 11-Aug-19 10:11:50                                          
 LMAX=14LFMAX=03 CUBIC ORTHO   
 220      5.00 5.00
 200      5.00 5.00
 111      5.00 5.00
 220       5.00   72    0 5.00   15    0
   2.856   2.856   2.856   2.856   2.856   2.856   2.856   2.856   2.856   2.856
   2.856   2.856   2.856   2.856   2.856   2.856   2.856   2.856   2.856   2.856
   2.856   2.856   2.856   2.856   2.856   2.856   2.856   2.856   2.856   2.856
   2.856   2.856   2.856   2.856   2.856   2.856   2.856   2.856   2.856   2.856
   2.856   2.856   2.856   2.856   2.856   2.856   2.856   2.856   2.856   2.856
   2.856   2.856   2.856   2.856   2.856   2.856   2.856   2.856   2.856   2.856
   2.856   2.856   2.856   2.856   2.856   2.856   2.856   2.856   2.856   2.856
   2.856   2.856
   1.315   1.290   1.143   1.317   1.449   1.582   1.527   1.886   1.934   1.989
   2.089   2.400   2.232   2.771   2.986   3.382   3.346   3.441   3.543   3.441
   3.346   3.382   2.986   2.771   2.232   2.400   2.089   1.989   1.934   1.886
   1.527   1.582   1.449   1.317   1.143   1.290   1.315   1.290   1.143   1.317
   1.449   1.582   1.527   1.886   1.934   1.989   2.089   2.400   2.232   2.771
   2.986   3.382   3.346   3.441   3.543   3.441   3.346   3.382   2.986   2.771
   2.232   2.400   2.089   1.989   1.934   1.886   1.527   1.582   1.449   1.317
   1.143   1.290
   0.383   0.377   0.408   0.483   0.569   0.672   0.757   0.941   0.979   0.976
   1.260   1.718   1.551   2.003   2.837   3.121   3.342   3.534   3.753   3.534
   3.342   3.121   2.837   2.003   1.551   1.718   1.260   0.976   0.979   0.941
   0.757   0.672   0.569   0.483   0.408   0.377   0.383   0.377   0.408   0.483
   0.569   0.672   0.757   0.941   0.979   0.976   1.260   1.718   1.551   2.003
   2.837   3.121   3.342   3.534   3.753   3.534   3.342   3.121   2.837   2.003
   1.551   1.718   1.260   0.976   0.979   0.941   0.757   0.672   0.569   0.483
   0.408   0.377
   0.180   0.232   0.175   0.329   0.432   0.469   0.429   0.446   0.611   0.567
   0.750   1.075   1.163   1.550   2.361   2.728   2.993   3.627   4.210   3.627
   2.993   2.728   2.361   1.550   1.163   1.075   0.750   0.567   0.611   0.446
   0.429   0.469   0.432   0.329   0.175   0.232   0.180   0.232   0.175   0.329
   0.432   0.469   0.429   0.446   0.611   0.567   0.750   1.075   1.163   1.550
   2.361   2.728   2.993   3.627   4.210   3.627   2.993   2.728   2.361   1.550
   1.163   1.075   0.750   0.567   0.611   0.446   0.429   0.469   0.432   0.329
   0.175   0.232
   0.350   0.248   0.146   0.275   0.344   0.301   0.156   0.285   0.538   0.518
   0.689   0.741   0.907   1.152   1.782   2.473   2.730   3.138   3.755   3.138
   2.730   2.473   1.782   1.152   0.907   0.741   0.689   0.518   0.538   0.285
   0.156   0.301   0.344   0.275   0.146   0.248   0.350   0.248   0.146   0.275
   0.344   0.301   0.156   0.285   0.538   0.518   0.689   0.741   0.907   1.152
   1.782   2.473   2.730   3.138   3.755   3.138   2.730   2.473   1.782   1.152
   0.907   0.741   0.689   0.518   0.538   0.285   0.156   0.301   0.344   0.275
   0.146   0.248
   0.547   0.223   0.343   0.318   0.131   0.136   0.264   0.259   0.509   0.418
   0.646   0.692   0.748   1.029   1.281   2.013   2.532   2.435   2.814   2.435
   2.532   2.013   1.281   1.029   0.748   0.692   0.646   0.418   0.509   0.259
   0.264   0.136   0.131   0.318   0.343   0.223   0.547   0.223   0.343   0.318
   0.131   0.136   0.264   0.259   0.509   0.418   0.646   0.692   0.748   1.029
   1.281   2.013   2.532   2.435   2.814   2.435   2.532   2.013   1.281   1.029
   0.748   0.692   0.646   0.418   0.509   0.259   0.264   0.136   0.131   0.318
   0.343   0.223
   0.739   0.371   0.461   0.625   0.373   0.397   0.765   0.245   0.469   0.500
   0.502   0.533   0.902   1.122   1.294   1.754   2.439   2.270   2.674   2.270
   2.439   1.754   1.294   1.122   0.902   0.533   0.502   0.500   0.469   0.245
   0.765   0.397   0.373   0.625   0.461   0.371   0.739   0.371   0.461   0.625
   0.373   0.397   0.765   0.245   0.469   0.500   0.502   0.533   0.902   1.122
   1.294   1.754   2.439   2.270   2.674   2.270   2.439   1.754   1.294   1.122
   0.902   0.533   0.502   0.500   0.469   0.245   0.765   0.397   0.373   0.625
   0.461   0.371
   0.475   0.401   0.298   0.637   0.369   0.539   0.651   0.279   0.384   0.456
   0.385   0.617   1.062   0.848   1.173   1.653   1.867   2.325   1.906   2.325
   1.867   1.653   1.173   0.848   1.062   0.617   0.385   0.456   0.384   0.279
   0.651   0.539   0.369   0.637   0.298   0.401   0.475   0.401   0.298   0.637
   0.369   0.539   0.651   0.279   0.384   0.456   0.385   0.617   1.062   0.848
   1.173   1.653   1.867   2.325   1.906   2.325   1.867   1.653   1.173   0.848
   1.062   0.617   0.385   0.456   0.384   0.279   0.651   0.539   0.369   0.637
   0.298   0.401
   0.464   0.769   0.384   0.671   0.326   0.483   0.453   0.682   0.509   0.476
   0.526   0.822   1.019   0.680   1.189   1.303   1.289   1.893   0.918   1.893
   1.289   1.303   1.189   0.680   1.019   0.822   0.526   0.476   0.509   0.682
   0.453   0.483   0.326   0.671   0.384   0.769   0.464   0.769   0.384   0.671
   0.326   0.483   0.453   0.682   0.509   0.476   0.526   0.822   1.019   0.680
   1.189   1.303   1.289   1.893   0.918   1.893   1.289   1.303   1.189   0.680
   1.019   0.822   0.526   0.476   0.509   0.682   0.453   0.483   0.326   0.671
   0.384   0.769
   0.813   1.002   0.862   0.819   0.609   0.570   0.773   1.311   0.365   0.946
   0.900   0.744   1.164   1.104   1.340   1.497   1.513   1.371   1.105   1.371
   1.513   1.497   1.340   1.104   1.164   0.744   0.900   0.946   0.365   1.311
   0.773   0.570   0.609   0.819   0.862   1.002   0.813   1.002   0.862   0.819
   0.609   0.570   0.773   1.311   0.365   0.946   0.900   0.744   1.164   1.104
   1.340   1.497   1.513   1.371   1.105   1.371   1.513   1.497   1.340   1.104
   1.164   0.744   0.900   0.946   0.365   1.311   0.773   0.570   0.609   0.819
   0.862   1.002
   1.255   0.997   1.779   0.924   1.063   1.177   0.841   0.956   0.348   0.627
   0.829   0.580   1.033   1.048   0.706   1.029   1.171   0.882   0.988   0.882
   1.171   1.029   0.706   1.048   1.033   0.580   0.829   0.627   0.348   0.956
   0.841   1.177   1.063   0.924   1.779   0.997   1.255   0.997   1.779   0.924
   1.063   1.177   0.841   0.956   0.348   0.627   0.829   0.580   1.033   1.048
   0.706   1.029   1.171   0.882   0.988   0.882   1.171   1.029   0.706   1.048
   1.033   0.580   0.829   0.627   0.348   0.956   0.841   1.177   1.063   0.924
   1.779   0.997
   2.920   1.731   2.717   2.124   1.732   1.569   1.279   0.379   1.022   0.674
   0.574   1.180   1.208   0.947   0.475   0.472   0.550   0.417   0.355   0.417
   0.550   0.472   0.475   0.947   1.208   1.180   0.574   0.674   1.022   0.379
   1.279   1.569   1.732   2.124   2.717   1.731   2.920   1.731   2.717   2.124
   1.732   1.569   1.279   0.379   1.022   0.674   0.574   1.180   1.208   0.947
   0.475   0.472   0.550   0.417   0.355   0.417   0.550   0.472   0.475   0.947
   1.208   1.180   0.574   0.674   1.022   0.379   1.279   1.569   1.732   2.124
   2.717   1.731
   2.942   2.355   2.624   1.950   2.207   1.526   1.771   1.025   1.679   1.211
   0.577   1.546   1.209   0.944   0.797   0.854   0.454   0.653   0.197   0.653
   0.454   0.854   0.797   0.944   1.209   1.546   0.577   1.211   1.679   1.025
   1.771   1.526   2.207   1.950   2.624   2.355   2.942   2.355   2.624   1.950
   2.207   1.526   1.771   1.025   1.679   1.211   0.577   1.546   1.209   0.944
   0.797   0.854   0.454   0.653   0.197   0.653   0.454   0.854   0.797   0.944
   1.209   1.546   0.577   1.211   1.679   1.025   1.771   1.526   2.207   1.950
   2.624   2.355
   1.497   1.941   1.091   0.864   1.378   1.044   2.063   2.057   1.585   0.727
   0.533   1.340   0.498   0.733   0.838   0.833   1.010   0.906   0.202   0.906
   1.010   0.833   0.838   0.733   0.498   1.340   0.533   0.727   1.585   2.057
   2.063   1.044   1.378   0.864   1.091   1.941   1.497   1.941   1.091   0.864
   1.378   1.044   2.063   2.057   1.585   0.727   0.533   1.340   0.498   0.733
   0.838   0.833   1.010   0.906   0.202   0.906   1.010   0.833   0.838   0.733
   0.498   1.340   0.533   0.727   1.585   2.057   2.063   1.044   1.378   0.864
   1.091   1.941
   1.896   1.981   0.311   0.954   0.456   1.160   1.482   2.216   1.078   0.190
   0.953   1.455   1.293   1.777   0.880   0.764   1.391   1.355   0.722   1.355
   1.391   0.764   0.880   1.777   1.293   1.455   0.953   0.190   1.078   2.216
   1.482   1.160   0.456   0.954   0.311   1.981   1.896   1.981   0.311   0.954
   0.456   1.160   1.482   2.216   1.078   0.190   0.953   1.455   1.293   1.777
   0.880   0.764   1.391   1.355   0.722   1.355   1.391   0.764   0.880   1.777
   1.293   1.455   0.953   0.190   1.078   2.216   1.482   1.160   0.456   0.954
   0.311   1.981
 200       5.00   72    0 5.00   15    0
   0.555   0.555   0.555   0.555   0.555   0.555   0.555   0.555   0.555   0.555
   0.555   0.555   0.555   0.555   0.555   0.555   0.555   0.555   0.555   0.555
   0.555   0.555   0.555   0.555   0.555   0.555   0.555   0.555   0.555   0.555
   0.555   0.555   0.555   0.555   0.555   0.555   0.555   0.555   0.555   0.555
   0.555   0.555   0.555   0.555   0.555   0.555   0.555   0.555   0.555   0.555
   0.555   0.555   0.555   0.555   0.555   0.555   0.555   0.555   0.555   0.555
   0.555   0.555   0.555   0.555   0.555   0.555   0.555   0.555   0.555   0.555
   0.555   0.555
   0.806   0.763   0.754   0.703   0.640   0.697   0.759   0.690   0.698   0.649
   0.680   0.702   0.661   0.719   0.605   0.645   0.674   0.703   0.683   0.703
   0.674   0.645   0.605   0.719   0.661   0.702   0.680   0.649   0.698   0.690
   0.759   0.697   0.640   0.703   0.754   0.763   0.806   0.763   0.754   0.703
   0.640   0.697   0.759   0.690   0.698   0.649   0.680   0.702   0.661   0.719
   0.605   0.645   0.674   0.703   0.683   0.703   0.674   0.645   0.605   0.719
   0.661   0.702   0.680   0.649   0.698   0.690   0.759   0.697   0.640   0.703
   0.754   0.763
   0.954   0.908   1.012   0.835   0.774   0.854   0.864   0.834   0.817   0.730
   0.603   0.792   0.803   0.738   0.667   0.619   0.578   0.646   0.619   0.646
   0.578   0.619   0.667   0.738   0.803   0.792   0.603   0.730   0.817   0.834
   0.864   0.854   0.774   0.835   1.012   0.908   0.954   0.908   1.012   0.835
   0.774   0.854   0.864   0.834   0.817   0.730   0.603   0.792   0.803   0.738
   0.667   0.619   0.578   0.646   0.619   0.646   0.578   0.619   0.667   0.738
   0.803   0.792   0.603   0.730   0.817   0.834   0.864   0.854   0.774   0.835
   1.012   0.908
   0.998   1.036   1.278   1.176   1.040   1.076   1.105   0.961   0.803   0.804
   0.510   0.732   0.807   0.511   0.641   0.549   0.431   0.486   0.528   0.486
   0.431   0.549   0.641   0.511   0.807   0.732   0.510   0.804   0.803   0.961
   1.105   1.076   1.040   1.176   1.278   1.036   0.998   1.036   1.278   1.176
   1.040   1.076   1.105   0.961   0.803   0.804   0.510   0.732   0.807   0.511
   0.641   0.549   0.431   0.486   0.528   0.486   0.431   0.549   0.641   0.511
   0.807   0.732   0.510   0.804   0.803   0.961   1.105   1.076   1.040   1.176
   1.278   1.036
   1.652   1.749   1.683   1.753   1.414   1.456   1.442   1.238   1.048   0.831
   0.758   0.808   0.703   0.498   0.619   0.494   0.453   0.425   0.504   0.425
   0.453   0.494   0.619   0.498   0.703   0.808   0.758   0.831   1.048   1.238
   1.442   1.456   1.414   1.753   1.683   1.749   1.652   1.749   1.683   1.753
   1.414   1.456   1.442   1.238   1.048   0.831   0.758   0.808   0.703   0.498
   0.619   0.494   0.453   0.425   0.504   0.425   0.453   0.494   0.619   0.498
   0.703   0.808   0.758   0.831   1.048   1.238   1.442   1.456   1.414   1.753
   1.683   1.749
   2.303   2.496   2.441   2.146   2.074   1.750   1.764   1.690   1.396   1.065
   1.249   0.968   0.685   0.745   0.826   0.522   0.582   0.534   0.417   0.534
   0.582   0.522   0.826   0.745   0.685   0.968   1.249   1.065   1.396   1.690
   1.764   1.750   2.074   2.146   2.441   2.496   2.303   2.496   2.441   2.146
   2.074   1.750   1.764   1.690   1.396   1.065   1.249   0.968   0.685   0.745
   0.826   0.522   0.582   0.534   0.417   0.534   0.582   0.522   0.826   0.745
   0.685   0.968   1.249   1.065   1.396   1.690   1.764   1.750   2.074   2.146
   2.441   2.496
   1.828   1.962   2.229   1.969   1.876   1.673   2.026   1.939   1.488   1.452
   1.496   1.071   1.049   0.784   0.819   0.879   0.702   0.792   0.594   0.792
   0.702   0.879   0.819   0.784   1.049   1.071   1.496   1.452   1.488   1.939
   2.026   1.673   1.876   1.969   2.229   1.962   1.828   1.962   2.229   1.969
   1.876   1.673   2.026   1.939   1.488   1.452   1.496   1.071   1.049   0.784
   0.819   0.879   0.702   0.792   0.594   0.792   0.702   0.879   0.819   0.784
   1.049   1.071   1.496   1.452   1.488   1.939   2.026   1.673   1.876   1.969
   2.229   1.962
   0.875   1.061   1.085   1.420   1.150   1.118   1.533   1.624   1.326   1.658
   1.511   1.149   1.151   0.783   0.908   1.228   0.842   0.704   0.491   0.704
   0.842   1.228   0.908   0.783   1.151   1.149   1.511   1.658   1.326   1.624
   1.533   1.118   1.150   1.420   1.085   1.061   0.875   1.061   1.085   1.420
   1.150   1.118   1.533   1.624   1.326   1.658   1.511   1.149   1.151   0.783
   0.908   1.228   0.842   0.704   0.491   0.704   0.842   1.228   0.908   0.783
   1.151   1.149   1.511   1.658   1.326   1.624   1.533   1.118   1.150   1.420
   1.085   1.061
   0.549   0.709   0.683   0.846   0.825   0.660   0.672   0.908   0.997   1.273
   1.394   1.168   1.297   1.194   1.031   1.055   1.164   0.697   0.608   0.697
   1.164   1.055   1.031   1.194   1.297   1.168   1.394   1.273   0.997   0.908
   0.672   0.660   0.825   0.846   0.683   0.709   0.549   0.709   0.683   0.846
   0.825   0.660   0.672   0.908   0.997   1.273   1.394   1.168   1.297   1.194
   1.031   1.055   1.164   0.697   0.608   0.697   1.164   1.055   1.031   1.194
   1.297   1.168   1.394   1.273   0.997   0.908   0.672   0.660   0.825   0.846
   0.683   0.709
   0.555   0.612   0.657   0.585   0.433   0.522   0.503   0.507   0.620   0.928
   1.169   1.303   1.332   1.429   1.124   0.891   1.413   1.020   0.880   1.020
   1.413   0.891   1.124   1.429   1.332   1.303   1.169   0.928   0.620   0.507
   0.503   0.522   0.433   0.585   0.657   0.612   0.555   0.612   0.657   0.585
   0.433   0.522   0.503   0.507   0.620   0.928   1.169   1.303   1.332   1.429
   1.124   0.891   1.413   1.020   0.880   1.020   1.413   0.891   1.124   1.429
   1.332   1.303   1.169   0.928   0.620   0.507   0.503   0.522   0.433   0.585
   0.657   0.612
   0.559   0.515   0.871   0.634   0.229   0.598   0.855   0.474   0.772   0.883
   0.930   1.222   1.066   1.364   1.399   1.171   1.549   1.336   1.084   1.336
   1.549   1.171   1.399   1.364   1.066   1.222   0.930   0.883   0.772   0.474
   0.855   0.598   0.229   0.634   0.871   0.515   0.559   0.515   0.871   0.634
   0.229   0.598   0.855   0.474   0.772   0.883   0.930   1.222   1.066   1.364
   1.399   1.171   1.549   1.336   1.084   1.336   1.549   1.171   1.399   1.364
   1.066   1.222   0.930   0.883   0.772   0.474   0.855   0.598   0.229   0.634
   0.871   0.515
   0.354   0.244   0.980   0.456   0.275   0.444   1.281   0.353   0.671   0.803
   1.001   1.310   0.968   1.265   1.121   1.218   0.977   1.069   1.418   1.069
   0.977   1.218   1.121   1.265   0.968   1.310   1.001   0.803   0.671   0.353
   1.281   0.444   0.275   0.456   0.980   0.244   0.354   0.244   0.980   0.456
   0.275   0.444   1.281   0.353   0.671   0.803   1.001   1.310   0.968   1.265
   1.121   1.218   0.977   1.069   1.418   1.069   0.977   1.218   1.121   1.265
   0.968   1.310   1.001   0.803   0.671   0.353   1.281   0.444   0.275   0.456
   0.980   0.244
   0.000   0.126   0.567   0.301   0.273   0.159   0.797   0.149   0.247   0.791
   1.329   0.999   0.597   0.670   0.700   0.900   0.387   0.854   1.137   0.854
   0.387   0.900   0.700   0.670   0.597   0.999   1.329   0.791   0.247   0.149
   0.797   0.159   0.273   0.301   0.567   0.126   0.000   0.126   0.567   0.301
   0.273   0.159   0.797   0.149   0.247   0.791   1.329   0.999   0.597   0.670
   0.700   0.900   0.387   0.854   1.137   0.854   0.387   0.900   0.700   0.670
   0.597   0.999   1.329   0.791   0.247   0.149   0.797   0.159   0.273   0.301
   0.567   0.126
   0.180   0.287   0.266   0.408   0.516   0.156   0.281   0.041   0.159   1.069
   1.231   0.426   0.552   0.447   0.326   0.930   0.353   0.742   0.625   0.742
   0.353   0.930   0.326   0.447   0.552   0.426   1.231   1.069   0.159   0.041
   0.281   0.156   0.516   0.408   0.266   0.287   0.180   0.287   0.266   0.408
   0.516   0.156   0.281   0.041   0.159   1.069   1.231   0.426   0.552   0.447
   0.326   0.930   0.353   0.742   0.625   0.742   0.353   0.930   0.326   0.447
   0.552   0.426   1.231   1.069   0.159   0.041   0.281   0.156   0.516   0.408
   0.266   0.287
   1.482   0.420   0.585   1.152   0.722   0.594   1.360   0.978   0.240   1.909
   2.395   0.597   1.054   0.801   0.531   1.466   0.309   0.465   0.979   0.465
   0.309   1.466   0.531   0.801   1.054   0.597   2.395   1.909   0.240   0.978
   1.360   0.594   0.722   1.152   0.585   0.420   1.482   0.420   0.585   1.152
   0.722   0.594   1.360   0.978   0.240   1.909   2.395   0.597   1.054   0.801
   0.531   1.466   0.309   0.465   0.979   0.465   0.309   1.466   0.531   0.801
   1.054   0.597   2.395   1.909   0.240   0.978   1.360   0.594   0.722   1.152
   0.585   0.420
 111       5.00   72    0 5.00   15    0
   0.114   0.114   0.114   0.114   0.114   0.114   0.114   0.114   0.114   0.114
   0.114   0.114   0.114   0.114   0.114   0.114   0.114   0.114   0.114   0.114
   0.114   0.114   0.114   0.114   0.114   0.114   0.114   0.114   0.114   0.114
   0.114   0.114   0.114   0.114   0.114   0.114   0.114   0.114   0.114   0.114
   0.114   0.114   0.114   0.114   0.114   0.114   0.114   0.114   0.114   0.114
   0.114   0.114   0.114   0.114   0.114   0.114   0.114   0.114   0.114   0.114
   0.114   0.114   0.114   0.114   0.114   0.114   0.114   0.114   0.114   0.114
   0.114   0.114
   0.091   0.134   0.128   0.114   0.104   0.096   0.131   0.113   0.134   0.122
   0.102   0.108   0.122   0.112   0.094   0.128   0.118   0.104   0.129   0.104
   0.118   0.128   0.094   0.112   0.122   0.108   0.102   0.122   0.134   0.113
   0.131   0.096   0.104   0.114   0.128   0.134   0.091   0.134   0.128   0.114
   0.104   0.096   0.131   0.113   0.134   0.122   0.102   0.108   0.122   0.112
   0.094   0.128   0.118   0.104   0.129   0.104   0.118   0.128   0.094   0.112
   0.122   0.108   0.102   0.122   0.134   0.113   0.131   0.096   0.104   0.114
   0.128   0.134
   0.139   0.185   0.231   0.208   0.178   0.163   0.174   0.177   0.160   0.145
   0.136   0.139   0.159   0.126   0.155   0.146   0.134   0.116   0.179   0.116
   0.134   0.146   0.155   0.126   0.159   0.139   0.136   0.145   0.160   0.177
   0.174   0.163   0.178   0.208   0.231   0.185   0.139   0.185   0.231   0.208
   0.178   0.163   0.174   0.177   0.160   0.145   0.136   0.139   0.159   0.126
   0.155   0.146   0.134   0.116   0.179   0.116   0.134   0.146   0.155   0.126
   0.159   0.139   0.136   0.145   0.160   0.177   0.174   0.163   0.178   0.208
   0.231   0.185
   0.485   0.462   0.535   0.435   0.375   0.364   0.280   0.265   0.246   0.200
   0.149   0.168   0.186   0.139   0.176   0.143   0.168   0.151   0.196   0.151
   0.168   0.143   0.176   0.139   0.186   0.168   0.149   0.200   0.246   0.265
   0.280   0.364   0.375   0.435   0.535   0.462   0.485   0.462   0.535   0.435
   0.375   0.364   0.280   0.265   0.246   0.200   0.149   0.168   0.186   0.139
   0.176   0.143   0.168   0.151   0.196   0.151   0.168   0.143   0.176   0.139
   0.186   0.168   0.149   0.200   0.246   0.265   0.280   0.364   0.375   0.435
   0.535   0.462
   1.895   1.755   1.651   1.476   1.203   1.044   0.714   0.515   0.386   0.292
   0.237   0.217   0.190   0.149   0.151   0.132   0.126   0.179   0.150   0.179
   0.126   0.132   0.151   0.149   0.190   0.217   0.237   0.292   0.386   0.515
   0.714   1.044   1.203   1.476   1.651   1.755   1.895   1.755   1.651   1.476
   1.203   1.044   0.714   0.515   0.386   0.292   0.237   0.217   0.190   0.149
   0.151   0.132   0.126   0.179   0.150   0.179   0.126   0.132   0.151   0.149
   0.190   0.217   0.237   0.292   0.386   0.515   0.714   1.044   1.203   1.476
   1.651   1.755
   4.052   3.732   3.329   3.117   2.864   2.202   1.756   1.190   0.930   0.625
   0.431   0.405   0.335   0.284   0.249   0.214   0.210   0.196   0.201   0.196
   0.210   0.214   0.249   0.284   0.335   0.405   0.431   0.625   0.930   1.190
   1.756   2.202   2.864   3.117   3.329   3.732   4.052   3.732   3.329   3.117
   2.864   2.202   1.756   1.190   0.930   0.625   0.431   0.405   0.335   0.284
   0.249   0.214   0.210   0.196   0.201   0.196   0.210   0.214   0.249   0.284
   0.335   0.405   0.431   0.625   0.930   1.190   1.756   2.202   2.864   3.117
   3.329   3.732
   4.053   3.737   3.529   3.271   3.237   2.695   2.475   1.979   1.520   1.263
   0.804   0.777   0.525   0.522   0.438   0.306   0.322   0.278   0.330   0.278
   0.322   0.306   0.438   0.522   0.525   0.777   0.804   1.263   1.520   1.979
   2.475   2.695   3.237   3.271   3.529   3.737   4.053   3.737   3.529   3.271
   3.237   2.695   2.475   1.979   1.520   1.263   0.804   0.777   0.525   0.522
   0.438   0.306   0.322   0.278   0.330   0.278   0.322   0.306   0.438   0.522
   0.525   0.777   0.804   1.263   1.520   1.979   2.475   2.695   3.237   3.271
   3.529   3.737
   2.056   2.086   2.290   2.173   2.328   2.266   2.259   2.229   1.845   1.637
   1.205   1.214   0.727   0.805   0.722   0.444   0.398   0.449   0.420   0.449
   0.398   0.444   0.722   0.805   0.727   1.214   1.205   1.637   1.845   2.229
   2.259   2.266   2.328   2.173   2.290   2.086   2.056   2.086   2.290   2.173
   2.328   2.266   2.259   2.229   1.845   1.637   1.205   1.214   0.727   0.805
   0.722   0.444   0.398   0.449   0.420   0.449   0.398   0.444   0.722   0.805
   0.727   1.214   1.205   1.637   1.845   2.229   2.259   2.266   2.328   2.173
   2.290   2.086
   0.815   0.903   1.027   1.103   1.454   1.567   1.755   1.811   1.900   1.656
   1.582   1.365   1.122   1.050   0.887   0.808   0.525   0.649   0.648   0.649
   0.525   0.808   0.887   1.050   1.122   1.365   1.582   1.656   1.900   1.811
   1.755   1.567   1.454   1.103   1.027   0.903   0.815   0.903   1.027   1.103
   1.454   1.567   1.755   1.811   1.900   1.656   1.582   1.365   1.122   1.050
   0.887   0.808   0.525   0.649   0.648   0.649   0.525   0.808   0.887   1.050
   1.122   1.365   1.582   1.656   1.900   1.811   1.755   1.567   1.454   1.103
   1.027   0.903
   0.276   0.401   0.433   0.411   0.678   0.911   1.096   1.341   1.822   1.656
   1.580   1.405   1.505   1.124   0.862   0.880   0.720   0.756   0.776   0.756
   0.720   0.880   0.862   1.124   1.505   1.405   1.580   1.656   1.822   1.341
   1.096   0.911   0.678   0.411   0.433   0.401   0.276   0.401   0.433   0.411
   0.678   0.911   1.096   1.341   1.822   1.656   1.580   1.405   1.505   1.124
   0.862   0.880   0.720   0.756   0.776   0.756   0.720   0.880   0.862   1.124
   1.505   1.405   1.580   1.656   1.822   1.341   1.096   0.911   0.678   0.411
   0.433   0.401
   0.170   0.530   0.331   0.276   0.447   0.567   0.527   0.955   1.323   1.501
   1.409   1.374   1.372   1.319   1.228   1.098   1.026   1.101   1.218   1.101
   1.026   1.098   1.228   1.319   1.372   1.374   1.409   1.501   1.323   0.955
   0.527   0.567   0.447   0.276   0.331   0.530   0.170   0.530   0.331   0.276
   0.447   0.567   0.527   0.955   1.323   1.501   1.409   1.374   1.372   1.319
   1.228   1.098   1.026   1.101   1.218   1.101   1.026   1.098   1.228   1.319
   1.372   1.374   1.409   1.501   1.323   0.955   0.527   0.567   0.447   0.276
   0.331   0.530
   0.530   0.562   0.205   0.200   0.312   0.533   0.388   0.463   0.776   1.335
   1.170   0.986   1.065   1.505   1.558   1.337   1.355   1.285   1.058   1.285
   1.355   1.337   1.558   1.505   1.065   0.986   1.170   1.335   0.776   0.463
   0.388   0.533   0.312   0.200   0.205   0.562   0.530   0.562   0.205   0.200
   0.312   0.533   0.388   0.463   0.776   1.335   1.170   0.986   1.065   1.505
   1.558   1.337   1.355   1.285   1.058   1.285   1.355   1.337   1.558   1.505
   1.065   0.986   1.170   1.335   0.776   0.463   0.388   0.533   0.312   0.200
   0.205   0.562
   0.372   0.291   0.187   0.325   0.090   0.290   0.343   0.189   0.566   0.869
   0.710   0.596   1.154   1.447   1.388   1.222   1.125   0.943   0.738   0.943
   1.125   1.222   1.388   1.447   1.154   0.596   0.710   0.869   0.566   0.189
   0.343   0.290   0.090   0.325   0.187   0.291   0.372   0.291   0.187   0.325
   0.090   0.290   0.343   0.189   0.566   0.869   0.710   0.596   1.154   1.447
   1.388   1.222   1.125   0.943   0.738   0.943   1.125   1.222   1.388   1.447
   1.154   0.596   0.710   0.869   0.566   0.189   0.343   0.290   0.090   0.325
   0.187   0.291
   0.160   0.705   0.397   0.481   0.368   0.127   0.452   0.597   0.633   0.517
   0.676   1.090   1.005   1.675   1.495   1.517   0.773   1.177   1.204   1.177
   0.773   1.517   1.495   1.675   1.005   1.090   0.676   0.517   0.633   0.597
   0.452   0.127   0.368   0.481   0.397   0.705   0.160   0.705   0.397   0.481
   0.368   0.127   0.452   0.597   0.633   0.517   0.676   1.090   1.005   1.675
   1.495   1.517   0.773   1.177   1.204   1.177   0.773   1.517   1.495   1.675
   1.005   1.090   0.676   0.517   0.633   0.597   0.452   0.127   0.368   0.481
   0.397   0.705
   0.583   0.892   0.766   0.380   0.716   0.438   0.502   0.639   0.946   0.461
   0.697   1.097   0.757   1.403   1.339   1.279   0.595   0.952   1.210   0.952
   0.595   1.279   1.339   1.403   0.757   1.097   0.697   0.461   0.946   0.639
   0.502   0.438   0.716   0.380   0.766   0.892   0.583   0.892   0.766   0.380
   0.716   0.438   0.502   0.639   0.946   0.461   0.697   1.097   0.757   1.403
   1.339   1.279   0.595   0.952   1.210   0.952   0.595   1.279   1.339   1.403
   0.757   1.097   0.697   0.461   0.946   0.639   0.502   0.438   0.716   0.380
   0.766   0.892
  4  1      3.7981783E-01
  4  2     -2.7479976E-01
  4  3     -2.2206753E-02
  6  1      1.6888181E+00
  6  2     -2.6261177E+00
  6  3      7.1099496E-01
  6  4     -2.0870370E-01
  8  1      1.6755748E-01
  8  2      1.5058540E-01
  8  3      3.6966911E-01
  8  4      2.9063100E-01
  8  5      2.4305159E-01
 10  1      2.8922611E-01
 10  2     -3.3887174E-01
 10  3      7.3897088E-01
 10  4     -2.3325673E-01
 10  5     -7.5078438E-02
 10  6      3.8358082E-01
 12  1     -5.1845546E-02  7.5906265E-01
 12  2      1.5212612E-02 -1.6613960E+00
 12  3      1.7356900E-01  1.2890253E+00
 12  4      1.9042757E-01 -4.8370342E-01
 12  5     -9.1005454E-02  8.2920937E-02
 12  6     -3.6995659E-01  1.7856780E-01
 12  7     -6.9366379E-01  8.4066062E-01
 14  1     -5.9176448E-01
 14  2      1.3554099E-01
 14  3      1.2287344E-01
 14  4     -5.9419865E-02
 14  5      4.1747385E-02
 14  6     -2.4992485E-01
 14  7      3.7341114E-01
 14  8     -1.9969845E-01
 220       5.00   72    0 5.00   18    0
   2.099   2.100   2.102   2.107   2.113   2.120   2.128   2.138   2.148   2.158
   2.168   2.178   2.188   2.197   2.204   2.210   2.214   2.217   2.218   2.217
   2.214   2.210   2.204   2.197   2.188   2.178   2.168   2.158   2.148   2.138
   2.128   2.120   2.113   2.107   2.102   2.100   2.099   2.100   2.102   2.107
   2.113   2.120   2.128   2.138   2.148   2.158   2.168   2.178   2.188   2.197
   2.204   2.210   2.214   2.217   2.218   2.217   2.214   2.210   2.204   2.197
   2.188   2.178   2.168   2.158   2.148   2.138   2.128   2.120   2.113   2.107
   2.102   2.100
   1.464   1.471   1.489   1.519   1.560   1.611   1.672   1.741   1.816   1.896
   1.977   2.057   2.135   2.206   2.268   2.320   2.358   2.382   2.390   2.382
   2.358   2.320   2.268   2.206   2.135   2.057   1.977   1.896   1.816   1.741
   1.672   1.611   1.560   1.519   1.489   1.471   1.464   1.471   1.489   1.519
   1.560   1.611   1.672   1.741   1.816   1.896   1.977   2.057   2.135   2.206
   2.268   2.320   2.358   2.382   2.390   2.382   2.358   2.320   2.268   2.206
   2.135   2.057   1.977   1.896   1.816   1.741   1.672   1.611   1.560   1.519
   1.489   1.471
   0.644   0.653   0.680   0.726   0.791   0.875   0.980   1.104   1.246   1.404
   1.573   1.749   1.925   2.093   2.244   2.372   2.469   2.530   2.551   2.530
   2.469   2.372   2.244   2.093   1.925   1.749   1.573   1.404   1.246   1.104
   0.980   0.875   0.791   0.726   0.680   0.653   0.644   0.653   0.680   0.726
   0.791   0.875   0.980   1.104   1.246   1.404   1.573   1.749   1.925   2.093
   2.244   2.372   2.469   2.530   2.551   2.530   2.469   2.372   2.244   2.093
   1.925   1.749   1.573   1.404   1.246   1.104   0.980   0.875   0.791   0.726
   0.680   0.653
   0.150   0.154   0.167   0.192   0.232   0.291   0.376   0.489   0.636   0.815
   1.026   1.261   1.513   1.766   2.005   2.214   2.377   2.481   2.516   2.481
   2.377   2.214   2.005   1.766   1.513   1.261   1.026   0.815   0.636   0.489
   0.376   0.291   0.232   0.192   0.167   0.154   0.150   0.154   0.167   0.192
   0.232   0.291   0.376   0.489   0.636   0.815   1.026   1.261   1.513   1.766
   2.005   2.214   2.377   2.481   2.516   2.481   2.377   2.214   2.005   1.766
   1.513   1.261   1.026   0.815   0.636   0.489   0.376   0.291   0.232   0.192
   0.167   0.154
   0.134   0.130   0.120   0.105   0.093   0.090   0.104   0.148   0.229   0.357
   0.536   0.763   1.029   1.319   1.609   1.874   2.087   2.226   2.274   2.226
   2.087   1.874   1.609   1.319   1.029   0.763   0.536   0.357   0.229   0.148
   0.104   0.090   0.093   0.105   0.120   0.130   0.134   0.130   0.120   0.105
   0.093   0.090   0.104   0.148   0.229   0.357   0.536   0.763   1.029   1.319
   1.609   1.874   2.087   2.226   2.274   2.226   2.087   1.874   1.609   1.319
   1.029   0.763   0.536   0.357   0.229   0.148   0.104   0.090   0.093   0.105
   0.120   0.130
   0.318   0.313   0.299   0.275   0.244   0.208   0.176   0.157   0.165   0.214
   0.318   0.481   0.702   0.968   1.255   1.532   1.763   1.917   1.971   1.917
   1.763   1.532   1.255   0.968   0.702   0.481   0.318   0.214   0.165   0.157
   0.176   0.208   0.244   0.275   0.299   0.313   0.318   0.313   0.299   0.275
   0.244   0.208   0.176   0.157   0.165   0.214   0.318   0.481   0.702   0.968
   1.255   1.532   1.763   1.917   1.971   1.917   1.763   1.532   1.255   0.968
   0.702   0.481   0.318   0.214   0.165   0.157   0.176   0.208   0.244   0.275
   0.299   0.313
   0.344   0.349   0.361   0.376   0.388   0.392   0.385   0.372   0.362   0.370
   0.413   0.506   0.655   0.856   1.093   1.337   1.551   1.698   1.750   1.698
   1.551   1.337   1.093   0.856   0.655   0.506   0.413   0.370   0.362   0.372
   0.385   0.392   0.388   0.376   0.361   0.349   0.344   0.349   0.361   0.376
   0.388   0.392   0.385   0.372   0.362   0.370   0.413   0.506   0.655   0.856
   1.093   1.337   1.551   1.698   1.750   1.698   1.551   1.337   1.093   0.856
   0.655   0.506   0.413   0.370   0.362   0.372   0.385   0.392   0.388   0.376
   0.361   0.349
   0.201   0.214   0.252   0.311   0.383   0.456   0.520   0.567   0.597   0.622
   0.654   0.709   0.799   0.929   1.094   1.278   1.448   1.570   1.615   1.570
   1.448   1.278   1.094   0.929   0.799   0.709   0.654   0.622   0.597   0.567
   0.520   0.456   0.383   0.311   0.252   0.214   0.201   0.214   0.252   0.311
   0.383   0.456   0.520   0.567   0.597   0.622   0.654   0.709   0.799   0.929
   1.094   1.278   1.448   1.570   1.615   1.570   1.448   1.278   1.094   0.929
   0.799   0.709   0.654   0.622   0.597   0.567   0.520   0.456   0.383   0.311
   0.252   0.214
   0.280   0.282   0.295   0.330   0.393   0.477   0.566   0.647   0.714   0.770
   0.823   0.877   0.939   1.013   1.108   1.221   1.337   1.426   1.460   1.426
   1.337   1.221   1.108   1.013   0.939   0.877   0.823   0.770   0.714   0.647
   0.566   0.477   0.393   0.330   0.295   0.282   0.280   0.282   0.295   0.330
   0.393   0.477   0.566   0.647   0.714   0.770   0.823   0.877   0.939   1.013
   1.108   1.221   1.337   1.426   1.460   1.426   1.337   1.221   1.108   1.013
   0.939   0.877   0.823   0.770   0.714   0.647   0.566   0.477   0.393   0.330
   0.295   0.282
   0.953   0.919   0.837   0.751   0.699   0.689   0.705   0.727   0.752   0.790
   0.844   0.907   0.960   0.996   1.026   1.070   1.131   1.188   1.212   1.188
   1.131   1.070   1.026   0.996   0.960   0.907   0.844   0.790   0.752   0.727
   0.705   0.689   0.699   0.751   0.837   0.919   0.953   0.919   0.837   0.751
   0.699   0.689   0.705   0.727   0.752   0.790   0.844   0.907   0.960   0.996
   1.026   1.070   1.131   1.188   1.212   1.188   1.131   1.070   1.026   0.996
   0.960   0.907   0.844   0.790   0.752   0.727   0.705   0.689   0.699   0.751
   0.837   0.919
   2.088   2.003   1.789   1.540   1.335   1.192   1.082   0.970   0.866   0.804
   0.809   0.859   0.904   0.908   0.879   0.856   0.868   0.900   0.918   0.900
   0.868   0.856   0.879   0.908   0.904   0.859   0.809   0.804   0.866   0.970
   1.082   1.192   1.335   1.540   1.789   2.003   2.088   2.003   1.789   1.540
   1.335   1.192   1.082   0.970   0.866   0.804   0.809   0.859   0.904   0.908
   0.879   0.856   0.868   0.900   0.918   0.900   0.868   0.856   0.879   0.908
   0.904   0.859   0.809   0.804   0.866   0.970   1.082   1.192   1.335   1.540
   1.789   2.003
   3.015   2.887   2.572   2.221   1.949   1.766   1.593   1.368   1.111   0.909
   0.829   0.851   0.885   0.856   0.768   0.686   0.664   0.689   0.708   0.689
   0.664   0.686   0.768   0.856   0.885   0.851   0.829   0.909   1.111   1.368
   1.593   1.766   1.949   2.221   2.572   2.887   3.015   2.887   2.572   2.221
   1.949   1.766   1.593   1.368   1.111   0.909   0.829   0.851   0.885   0.856
   0.768   0.686   0.664   0.689   0.708   0.689   0.664   0.686   0.768   0.856
   0.885   0.851   0.829   0.909   1.111   1.368   1.593   1.766   1.949   2.221
   2.572   2.887
   3.060   2.916   2.580   2.255   2.080   2.025   1.940   1.708   1.362   1.054
   0.911   0.920   0.953   0.895   0.753   0.628   0.602   0.652   0.685   0.652
   0.602   0.628   0.753   0.895   0.953   0.920   0.911   1.054   1.362   1.708
   1.940   2.025   2.080   2.255   2.580   2.916   3.060   2.916   2.580   2.255
   2.080   2.025   1.940   1.708   1.362   1.054   0.911   0.920   0.953   0.895
   0.753   0.628   0.602   0.652   0.685   0.652   0.602   0.628   0.753   0.895
   0.953   0.920   0.911   1.054   1.362   1.708   1.940   2.025   2.080   2.255
   2.580   2.916
   2.173   2.040   1.754   1.556   1.594   1.787   1.903   1.771   1.435   1.109
   0.973   1.017   1.072   0.992   0.805   0.662   0.675   0.791   0.857   0.791
   0.675   0.662   0.805   0.992   1.072   1.017   0.973   1.109   1.435   1.771
   1.903   1.787   1.594   1.556   1.754   2.040   2.173   2.040   1.754   1.556
   1.594   1.787   1.903   1.771   1.435   1.109   0.973   1.017   1.072   0.992
   0.805   0.662   0.675   0.791   0.857   0.791   0.675   0.662   0.805   0.992
   1.072   1.017   0.973   1.109   1.435   1.771   1.903   1.787   1.594   1.556
   1.754   2.040
   1.003   0.888   0.670   0.605   0.837   1.247   1.548   1.536   1.271   1.009
   0.957   1.085   1.180   1.081   0.854   0.720   0.814   1.035   1.150   1.035
   0.814   0.720   0.854   1.081   1.180   1.085   0.957   1.009   1.271   1.536
   1.548   1.247   0.837   0.605   0.670   0.888   1.003   0.888   0.670   0.605
   0.837   1.247   1.548   1.536   1.271   1.009   0.957   1.085   1.180   1.081
   0.854   0.720   0.814   1.035   1.150   1.035   0.814   0.720   0.854   1.081
   1.180   1.085   0.957   1.009   1.271   1.536   1.548   1.247   0.837   0.605
   0.670   0.888
   0.314   0.211   0.026   0.015   0.313   0.789   1.144   1.181   0.979   0.815
   0.887   1.121   1.255   1.128   0.862   0.751   0.949   1.298   1.469   1.298
   0.949   0.751   0.862   1.128   1.255   1.121   0.887   0.815   0.979   1.181
   1.144   0.789   0.313   0.015   0.026   0.211   0.314   0.211   0.026   0.015
   0.313   0.789   1.144   1.181   0.979   0.815   0.887   1.121   1.255   1.128
   0.862   0.751   0.949   1.298   1.469   1.298   0.949   0.751   0.862   1.128
   1.255   1.121   0.887   0.815   0.979   1.181   1.144   0.789   0.313   0.015
   0.026   0.211
   0.321   0.217   0.022  -0.020   0.219   0.617   0.900   0.899   0.719   0.639
   0.823   1.146   1.305   1.143   0.840   0.752   1.046   1.509   1.732   1.509
   1.046   0.752   0.840   1.143   1.305   1.146   0.823   0.639   0.719   0.899
   0.900   0.617   0.219  -0.020   0.022   0.217   0.321   0.217   0.022  -0.020
   0.219   0.617   0.900   0.899   0.719   0.639   0.823   1.146   1.305   1.143
   0.840   0.752   1.046   1.509   1.732   1.509   1.046   0.752   0.840   1.143
   1.305   1.146   0.823   0.639   0.719   0.899   0.900   0.617   0.219  -0.020
   0.022   0.217
   0.586   0.476   0.259   0.168   0.328   0.629   0.821   0.765   0.582   0.544
   0.793   1.164   1.332   1.146   0.818   0.743   1.096   1.627   1.879   1.627
   1.096   0.743   0.818   1.146   1.332   1.164   0.793   0.544   0.582   0.765
   0.821   0.629   0.328   0.168   0.259   0.476   0.586   0.476   0.259   0.168
   0.328   0.629   0.821   0.765   0.582   0.544   0.793   1.164   1.332   1.146
   0.818   0.743   1.096   1.627   1.879   1.627   1.096   0.743   0.818   1.146
   1.332   1.164   0.793   0.544   0.582   0.765   0.821   0.629   0.328   0.168
   0.259   0.476
 200       5.00   72    0 5.00   18    0
   1.069   1.069   1.069   1.069   1.070   1.070   1.071   1.072   1.072   1.073
   1.074   1.075   1.075   1.076   1.076   1.077   1.077   1.077   1.077   1.077
   1.077   1.077   1.076   1.076   1.075   1.075   1.074   1.073   1.072   1.072
   1.071   1.070   1.070   1.069   1.069   1.069   1.069   1.069   1.069   1.069
   1.070   1.070   1.071   1.072   1.072   1.073   1.074   1.075   1.075   1.076
   1.076   1.077   1.077   1.077   1.077   1.077   1.077   1.077   1.076   1.076
   1.075   1.075   1.074   1.073   1.072   1.072   1.071   1.070   1.070   1.069
   1.069   1.069
   0.917   0.917   0.917   0.916   0.916   0.916   0.916   0.917   0.918   0.920
   0.922   0.925   0.928   0.931   0.934   0.936   0.938   0.940   0.940   0.940
   0.938   0.936   0.934   0.931   0.928   0.925   0.922   0.920   0.918   0.917
   0.916   0.916   0.916   0.916   0.917   0.917   0.917   0.917   0.917   0.916
   0.916   0.916   0.916   0.917   0.918   0.920   0.922   0.925   0.928   0.931
   0.934   0.936   0.938   0.940   0.940   0.940   0.938   0.936   0.934   0.931
   0.928   0.925   0.922   0.920   0.918   0.917   0.916   0.916   0.916   0.916
   0.917   0.917
   0.923   0.921   0.912   0.899   0.882   0.862   0.842   0.823   0.805   0.791
   0.780   0.772   0.767   0.765   0.764   0.765   0.766   0.767   0.767   0.767
   0.766   0.765   0.764   0.765   0.767   0.772   0.780   0.791   0.805   0.823
   0.842   0.862   0.882   0.899   0.912   0.921   0.923   0.921   0.912   0.899
   0.882   0.862   0.842   0.823   0.805   0.791   0.780   0.772   0.767   0.765
   0.764   0.765   0.766   0.767   0.767   0.767   0.766   0.765   0.764   0.765
   0.767   0.772   0.780   0.791   0.805   0.823   0.842   0.862   0.882   0.899
   0.912   0.921
   1.310   1.301   1.272   1.226   1.168   1.101   1.031   0.961   0.897   0.839
   0.790   0.751   0.720   0.696   0.680   0.668   0.660   0.656   0.654   0.656
   0.660   0.668   0.680   0.696   0.720   0.751   0.790   0.839   0.897   0.961
   1.031   1.101   1.168   1.226   1.272   1.301   1.310   1.301   1.272   1.226
   1.168   1.101   1.031   0.961   0.897   0.839   0.790   0.751   0.720   0.696
   0.680   0.668   0.660   0.656   0.654   0.656   0.660   0.668   0.680   0.696
   0.720   0.751   0.790   0.839   0.897   0.961   1.031   1.101   1.168   1.226
   1.272   1.301
   1.887   1.869   1.815   1.732   1.625   1.504   1.377   1.252   1.134   1.029
   0.937   0.859   0.793   0.739   0.694   0.658   0.631   0.615   0.609   0.615
   0.631   0.658   0.694   0.739   0.793   0.859   0.937   1.029   1.134   1.252
   1.377   1.504   1.625   1.732   1.815   1.869   1.887   1.869   1.815   1.732
   1.625   1.504   1.377   1.252   1.134   1.029   0.937   0.859   0.793   0.739
   0.694   0.658   0.631   0.615   0.609   0.615   0.631   0.658   0.694   0.739
   0.793   0.859   0.937   1.029   1.134   1.252   1.377   1.504   1.625   1.732
   1.815   1.869
   2.186   2.164   2.099   2.000   1.874   1.732   1.587   1.445   1.313   1.194
   1.089   0.995   0.909   0.830   0.755   0.688   0.634   0.598   0.586   0.598
   0.634   0.688   0.755   0.830   0.909   0.995   1.089   1.194   1.313   1.445
   1.587   1.732   1.874   2.000   2.099   2.164   2.186   2.164   2.099   2.000
   1.874   1.732   1.587   1.445   1.313   1.194   1.089   0.995   0.909   0.830
   0.755   0.688   0.634   0.598   0.586   0.598   0.634   0.688   0.755   0.830
   0.909   0.995   1.089   1.194   1.313   1.445   1.587   1.732   1.874   2.000
   2.099   2.164
   1.926   1.908   1.857   1.778   1.683   1.581   1.481   1.388   1.305   1.231
   1.162   1.092   1.017   0.932   0.840   0.745   0.660   0.601   0.580   0.601
   0.660   0.745   0.840   0.932   1.017   1.092   1.162   1.231   1.305   1.388
   1.481   1.581   1.683   1.778   1.857   1.908   1.926   1.908   1.857   1.778
   1.683   1.581   1.481   1.388   1.305   1.231   1.162   1.092   1.017   0.932
   0.840   0.745   0.660   0.601   0.580   0.601   0.660   0.745   0.840   0.932
   1.017   1.092   1.162   1.231   1.305   1.388   1.481   1.581   1.683   1.778
   1.857   1.908
   1.294   1.286   1.263   1.230   1.195   1.168   1.155   1.155   1.164   1.174
   1.175   1.161   1.125   1.062   0.973   0.865   0.758   0.678   0.648   0.678
   0.758   0.865   0.973   1.062   1.125   1.161   1.175   1.174   1.164   1.155
   1.155   1.168   1.195   1.230   1.263   1.286   1.294   1.286   1.263   1.230
   1.195   1.168   1.155   1.155   1.164   1.174   1.175   1.161   1.125   1.062
   0.973   0.865   0.758   0.678   0.648   0.678   0.758   0.865   0.973   1.062
   1.125   1.161   1.175   1.174   1.164   1.155   1.155   1.168   1.195   1.230
   1.263   1.286
   0.744   0.744   0.744   0.744   0.752   0.779   0.834   0.916   1.013   1.106
   1.177   1.221   1.233   1.211   1.151   1.056   0.947   0.858   0.824   0.858
   0.947   1.056   1.151   1.211   1.233   1.221   1.177   1.106   1.013   0.916
   0.834   0.779   0.752   0.744   0.744   0.744   0.744   0.744   0.744   0.744
   0.752   0.779   0.834   0.916   1.013   1.106   1.177   1.221   1.233   1.211
   1.151   1.056   0.947   0.858   0.824   0.858   0.947   1.056   1.151   1.211
   1.233   1.221   1.177   1.106   1.013   0.916   0.834   0.779   0.752   0.744
   0.744   0.744
   0.545   0.550   0.559   0.560   0.556   0.571   0.630   0.745   0.895   1.043
   1.158   1.233   1.278   1.297   1.284   1.230   1.145   1.065   1.032   1.065
   1.145   1.230   1.284   1.297   1.278   1.233   1.158   1.043   0.895   0.745
   0.630   0.571   0.556   0.560   0.559   0.550   0.545   0.550   0.559   0.560
   0.556   0.571   0.630   0.745   0.895   1.043   1.158   1.233   1.278   1.297
   1.284   1.230   1.145   1.065   1.032   1.065   1.145   1.230   1.284   1.297
   1.278   1.233   1.158   1.043   0.895   0.745   0.630   0.571   0.556   0.560
   0.559   0.550
   0.569   0.582   0.601   0.590   0.538   0.484   0.493   0.599   0.778   0.963
   1.095   1.164   1.201   1.236   1.267   1.266   1.224   1.166   1.139   1.166
   1.224   1.266   1.267   1.236   1.201   1.164   1.095   0.963   0.778   0.599
   0.493   0.484   0.538   0.590   0.601   0.582   0.569   0.582   0.601   0.590
   0.538   0.484   0.493   0.599   0.778   0.963   1.095   1.164   1.201   1.236
   1.267   1.266   1.224   1.166   1.139   1.166   1.224   1.266   1.267   1.236
   1.201   1.164   1.095   0.963   0.778   0.599   0.493   0.484   0.538   0.590
   0.601   0.582
   0.502   0.537   0.601   0.611   0.528   0.407   0.359   0.459   0.679   0.909
   1.046   1.071   1.049   1.052   1.094   1.134   1.132   1.099   1.079   1.099
   1.132   1.134   1.094   1.052   1.049   1.071   1.046   0.909   0.679   0.459
   0.359   0.407   0.528   0.611   0.601   0.537   0.502   0.537   0.601   0.611
   0.528   0.407   0.359   0.459   0.679   0.909   1.046   1.071   1.049   1.052
   1.094   1.134   1.132   1.099   1.079   1.099   1.132   1.134   1.094   1.052
   1.049   1.071   1.046   0.909   0.679   0.459   0.359   0.407   0.528   0.611
   0.601   0.537
   0.238   0.309   0.456   0.542   0.487   0.351   0.286   0.410   0.694   0.982
   1.120   1.077   0.954   0.877   0.891   0.941   0.959   0.937   0.920   0.937
   0.959   0.941   0.891   0.877   0.954   1.077   1.120   0.982   0.694   0.410
   0.286   0.351   0.487   0.542   0.456   0.309   0.238   0.309   0.456   0.542
   0.487   0.351   0.286   0.410   0.694   0.982   1.120   1.077   0.954   0.877
   0.891   0.941   0.959   0.937   0.920   0.937   0.959   0.941   0.891   0.877
   0.954   1.077   1.120   0.982   0.694   0.410   0.286   0.351   0.487   0.542
   0.456   0.309
   0.017   0.120   0.347   0.523   0.533   0.429   0.384   0.543   0.878   1.204
   1.329   1.211   0.984   0.823   0.794   0.835   0.851   0.824   0.803   0.824
   0.851   0.835   0.794   0.823   0.984   1.211   1.329   1.204   0.878   0.543
   0.384   0.429   0.533   0.523   0.347   0.120   0.017   0.120   0.347   0.523
   0.533   0.429   0.384   0.543   0.878   1.204   1.329   1.211   0.984   0.823
   0.794   0.835   0.851   0.824   0.803   0.824   0.851   0.835   0.794   0.823
   0.984   1.211   1.329   1.204   0.878   0.543   0.384   0.429   0.533   0.523
   0.347   0.120
   0.195   0.299   0.535   0.733   0.776   0.696   0.659   0.809   1.127   1.427
   1.510   1.335   1.052   0.858   0.824   0.868   0.880   0.838   0.809   0.838
   0.880   0.868   0.824   0.858   1.052   1.335   1.510   1.427   1.127   0.809
   0.659   0.696   0.776   0.733   0.535   0.299   0.195   0.299   0.535   0.733
   0.776   0.696   0.659   0.809   1.127   1.427   1.510   1.335   1.052   0.858
   0.824   0.868   0.880   0.838   0.809   0.838   0.880   0.868   0.824   0.858
   1.052   1.335   1.510   1.427   1.127   0.809   0.659   0.696   0.776   0.733
   0.535   0.299
   0.883   0.946   1.086   1.191   1.177   1.067   0.984   1.050   1.258   1.454
   1.466   1.266   1.004   0.863   0.890   0.978   1.000   0.948   0.912   0.948
   1.000   0.978   0.890   0.863   1.004   1.266   1.466   1.454   1.258   1.050
   0.984   1.067   1.177   1.191   1.086   0.946   0.883   0.946   1.086   1.191
   1.177   1.067   0.984   1.050   1.258   1.454   1.466   1.266   1.004   0.863
   0.890   0.978   1.000   0.948   0.912   0.948   1.000   0.978   0.890   0.863
   1.004   1.266   1.466   1.454   1.258   1.050   0.984   1.067   1.177   1.191
   1.086   0.946
   1.802   1.799   1.781   1.717   1.582   1.389   1.218   1.156   1.206   1.262
   1.197   1.001   0.812   0.780   0.913   1.072   1.122   1.069   1.029   1.069
   1.122   1.072   0.913   0.780   0.812   1.001   1.197   1.262   1.206   1.156
   1.218   1.389   1.582   1.717   1.781   1.799   1.802   1.799   1.781   1.717
   1.582   1.389   1.218   1.156   1.206   1.262   1.197   1.001   0.812   0.780
   0.913   1.072   1.122   1.069   1.029   1.069   1.122   1.072   0.913   0.780
   0.812   1.001   1.197   1.262   1.206   1.156   1.218   1.389   1.582   1.717
   1.781   1.799
   2.450   2.398   2.260   2.064   1.827   1.565   1.322   1.163   1.098   1.054
   0.938   0.755   0.630   0.685   0.900   1.115   1.189   1.139   1.097   1.139
   1.189   1.115   0.900   0.685   0.630   0.755   0.938   1.054   1.098   1.163
   1.322   1.565   1.827   2.064   2.260   2.398   2.450   2.398   2.260   2.064
   1.827   1.565   1.322   1.163   1.098   1.054   0.938   0.755   0.630   0.685
   0.900   1.115   1.189   1.139   1.097   1.139   1.189   1.115   0.900   0.685
   0.630   0.755   0.938   1.054   1.098   1.163   1.322   1.565   1.827   2.064
   2.260   2.398
 111       5.00   72    0 5.00   18    0
   0.496   0.497   0.498   0.499   0.501   0.504   0.507   0.511   0.514   0.518
   0.522   0.526   0.530   0.533   0.536   0.538   0.540   0.541   0.541   0.541
   0.540   0.538   0.536   0.533   0.530   0.526   0.522   0.518   0.514   0.511
   0.507   0.504   0.501   0.499   0.498   0.497   0.496   0.497   0.498   0.499
   0.501   0.504   0.507   0.511   0.514   0.518   0.522   0.526   0.530   0.533
   0.536   0.538   0.540   0.541   0.541   0.541   0.540   0.538   0.536   0.533
   0.530   0.526   0.522   0.518   0.514   0.511   0.507   0.504   0.501   0.499
   0.498   0.497
   0.169   0.171   0.174   0.181   0.190   0.202   0.217   0.235   0.256   0.279
   0.303   0.329   0.354   0.378   0.400   0.418   0.432   0.441   0.443   0.441
   0.432   0.418   0.400   0.378   0.354   0.329   0.303   0.279   0.256   0.235
   0.217   0.202   0.190   0.181   0.174   0.171   0.169   0.171   0.174   0.181
   0.190   0.202   0.217   0.235   0.256   0.279   0.303   0.329   0.354   0.378
   0.400   0.418   0.432   0.441   0.443   0.441   0.432   0.418   0.400   0.378
   0.354   0.329   0.303   0.279   0.256   0.235   0.217   0.202   0.190   0.181
   0.174   0.171
   0.127   0.123   0.113   0.098   0.081   0.064   0.051   0.044   0.046   0.058
   0.081   0.113   0.153   0.196   0.240   0.280   0.311   0.332   0.339   0.332
   0.311   0.280   0.240   0.196   0.153   0.113   0.081   0.058   0.046   0.044
   0.051   0.064   0.081   0.098   0.113   0.123   0.127   0.123   0.113   0.098
   0.081   0.064   0.051   0.044   0.046   0.058   0.081   0.113   0.153   0.196
   0.240   0.280   0.311   0.332   0.339   0.332   0.311   0.280   0.240   0.196
   0.153   0.113   0.081   0.058   0.046   0.044   0.051   0.064   0.081   0.098
   0.113   0.123
   0.887   0.869   0.817   0.734   0.630   0.512   0.391   0.278   0.182   0.111
   0.070   0.059   0.076   0.114   0.166   0.220   0.267   0.300   0.311   0.300
   0.267   0.220   0.166   0.114   0.076   0.059   0.070   0.111   0.182   0.278
   0.391   0.512   0.630   0.734   0.817   0.869   0.887   0.869   0.817   0.734
   0.630   0.512   0.391   0.278   0.182   0.111   0.070   0.059   0.076   0.114
   0.166   0.220   0.267   0.300   0.311   0.300   0.267   0.220   0.166   0.114
   0.076   0.059   0.070   0.111   0.182   0.278   0.391   0.512   0.630   0.734
   0.817   0.869
   2.227   2.191   2.087   1.920   1.703   1.450   1.180   0.912   0.665   0.456
   0.298   0.197   0.152   0.156   0.195   0.251   0.307   0.347   0.361   0.347
   0.307   0.251   0.195   0.156   0.152   0.197   0.298   0.456   0.665   0.912
   1.180   1.450   1.703   1.920   2.087   2.191   2.227   2.191   2.087   1.920
   1.703   1.450   1.180   0.912   0.665   0.456   0.298   0.197   0.152   0.156
   0.195   0.251   0.307   0.347   0.361   0.347   0.307   0.251   0.195   0.156
   0.152   0.197   0.298   0.456   0.665   0.912   1.180   1.450   1.703   1.920
   2.087   2.191
   3.285   3.242   3.118   2.917   2.648   2.326   1.968   1.595   1.233   0.906
   0.637   0.442   0.324   0.278   0.288   0.330   0.381   0.421   0.435   0.421
   0.381   0.330   0.288   0.278   0.324   0.442   0.637   0.906   1.233   1.595
   1.968   2.326   2.648   2.917   3.118   3.242   3.285   3.242   3.118   2.917
   2.648   2.326   1.968   1.595   1.233   0.906   0.637   0.442   0.324   0.278
   0.288   0.330   0.381   0.421   0.435   0.421   0.381   0.330   0.288   0.278
   0.324   0.442   0.637   0.906   1.233   1.595   1.968   2.326   2.648   2.917
   3.118   3.242
   3.315   3.287   3.204   3.065   2.872   2.624   2.327   1.990   1.632   1.282
   0.969   0.722   0.554   0.463   0.435   0.446   0.472   0.495   0.503   0.495
   0.472   0.446   0.435   0.463   0.554   0.722   0.969   1.282   1.632   1.990
   2.327   2.624   2.872   3.065   3.204   3.287   3.315   3.287   3.204   3.065
   2.872   2.624   2.327   1.990   1.632   1.282   0.969   0.722   0.554   0.463
   0.435   0.446   0.472   0.495   0.503   0.495   0.472   0.446   0.435   0.463
   0.554   0.722   0.969   1.282   1.632   1.990   2.327   2.624   2.872   3.065
   3.204   3.287
   2.340   2.340   2.341   2.338   2.321   2.274   2.178   2.018   1.795   1.531
   1.262   1.025   0.848   0.734   0.669   0.633   0.609   0.592   0.586   0.592
   0.609   0.633   0.669   0.734   0.848   1.025   1.262   1.531   1.795   2.018
   2.178   2.274   2.321   2.338   2.341   2.340   2.340   2.340   2.341   2.338
   2.321   2.274   2.178   2.018   1.795   1.531   1.262   1.025   0.848   0.734
   0.669   0.633   0.609   0.592   0.586   0.592   0.609   0.633   0.669   0.734
   0.848   1.025   1.262   1.531   1.795   2.018   2.178   2.274   2.321   2.338
   2.341   2.340
   1.067   1.090   1.160   1.277   1.433   1.600   1.739   1.807   1.779   1.662
   1.491   1.316   1.173   1.068   0.982   0.894   0.802   0.728   0.699   0.728
   0.802   0.894   0.982   1.068   1.173   1.316   1.491   1.662   1.779   1.807
   1.739   1.600   1.433   1.277   1.160   1.090   1.067   1.090   1.160   1.277
   1.433   1.600   1.739   1.807   1.779   1.662   1.491   1.316   1.173   1.068
   0.982   0.894   0.802   0.728   0.699   0.728   0.802   0.894   0.982   1.068
   1.173   1.316   1.491   1.662   1.779   1.807   1.739   1.600   1.433   1.277
   1.160   1.090
   0.235   0.257   0.332   0.475   0.693   0.967   1.252   1.486   1.617   1.634
   1.570   1.480   1.405   1.346   1.272   1.153   0.998   0.861   0.806   0.861
   0.998   1.153   1.272   1.346   1.405   1.480   1.570   1.634   1.617   1.486
   1.252   0.967   0.693   0.475   0.332   0.257   0.235   0.257   0.332   0.475
   0.693   0.967   1.252   1.486   1.617   1.634   1.570   1.480   1.405   1.346
   1.272   1.153   0.998   0.861   0.806   0.861   0.998   1.153   1.272   1.346
   1.405   1.480   1.570   1.634   1.617   1.486   1.252   0.967   0.693   0.475
   0.332   0.257
   0.048   0.049   0.066   0.135   0.287   0.527   0.820   1.100   1.304   1.402
   1.420   1.414   1.425   1.444   1.420   1.307   1.119   0.938   0.863   0.938
   1.119   1.307   1.420   1.444   1.425   1.414   1.420   1.402   1.304   1.100
   0.820   0.527   0.287   0.135   0.066   0.049   0.048   0.049   0.066   0.135
   0.287   0.527   0.820   1.100   1.304   1.402   1.420   1.414   1.425   1.444
   1.420   1.307   1.119   0.938   0.863   0.938   1.119   1.307   1.420   1.444
   1.425   1.414   1.420   1.402   1.304   1.100   0.820   0.527   0.287   0.135
   0.066   0.049
   0.197   0.173   0.120   0.089   0.129   0.265   0.478   0.714   0.912   1.039
   1.109   1.170   1.260   1.360   1.404   1.331   1.152   0.962   0.880   0.962
   1.152   1.331   1.404   1.360   1.260   1.170   1.109   1.039   0.912   0.714
   0.478   0.265   0.129   0.089   0.120   0.173   0.197   0.173   0.120   0.089
   0.129   0.265   0.478   0.714   0.912   1.039   1.109   1.170   1.260   1.360
   1.404   1.331   1.152   0.962   0.880   0.962   1.152   1.331   1.404   1.360
   1.260   1.170   1.109   1.039   0.912   0.714   0.478   0.265   0.129   0.089
   0.120   0.173
   0.329   0.290   0.199   0.117   0.102   0.171   0.308   0.471   0.622   0.742
   0.839   0.944   1.079   1.225   1.316   1.292   1.156   0.995   0.924   0.995
   1.156   1.292   1.316   1.225   1.079   0.944   0.839   0.742   0.622   0.471
   0.308   0.171   0.102   0.117   0.199   0.290   0.329   0.290   0.199   0.117
   0.102   0.171   0.308   0.471   0.622   0.742   0.839   0.944   1.079   1.225
   1.316   1.292   1.156   0.995   0.924   0.995   1.156   1.292   1.316   1.225
   1.079   0.944   0.839   0.742   0.622   0.471   0.308   0.171   0.102   0.117
   0.199   0.290
   0.418   0.367   0.258   0.182   0.197   0.290   0.405   0.502   0.581   0.664
   0.767   0.893   1.032   1.162   1.247   1.249   1.170   1.069   1.023   1.069
   1.170   1.249   1.247   1.162   1.032   0.893   0.767   0.664   0.581   0.502
   0.405   0.290   0.197   0.182   0.258   0.367   0.418   0.367   0.258   0.182
   0.197   0.290   0.405   0.502   0.581   0.664   0.767   0.893   1.032   1.162
   1.247   1.249   1.170   1.069   1.023   1.069   1.170   1.249   1.247   1.162
   1.032   0.893   0.767   0.664   0.581   0.502   0.405   0.290   0.197   0.182
   0.258   0.367
   0.711   0.630   0.467   0.381   0.455   0.622   0.752   0.779   0.752   0.762
   0.850   0.981   1.095   1.161   1.182   1.175   1.151   1.125   1.114   1.125
   1.151   1.175   1.182   1.161   1.095   0.981   0.850   0.762   0.752   0.779
   0.752   0.622   0.455   0.381   0.467   0.630   0.711   0.630   0.467   0.381
   0.455   0.622   0.752   0.779   0.752   0.762   0.850   0.981   1.095   1.161
   1.182   1.175   1.151   1.125   1.114   1.125   1.151   1.175   1.182   1.161
   1.095   0.981   0.850   0.762   0.752   0.779   0.752   0.622   0.455   0.381
   0.467   0.630
   1.376   1.232   0.936   0.759   0.840   1.062   1.195   1.127   0.953   0.854
   0.909   1.044   1.130   1.115   1.046   1.005   1.025   1.073   1.098   1.073
   1.025   1.005   1.046   1.115   1.130   1.044   0.909   0.854   0.953   1.127
   1.195   1.062   0.840   0.759   0.936   1.232   1.376   1.232   0.936   0.759
   0.840   1.062   1.195   1.127   0.953   0.854   0.909   1.044   1.130   1.115
   1.046   1.005   1.025   1.073   1.098   1.073   1.025   1.005   1.046   1.115
   1.130   1.044   0.909   0.854   0.953   1.127   1.195   1.062   0.840   0.759
   0.936   1.232
   2.236   2.011   1.535   1.201   1.224   1.450   1.555   1.375   1.046   0.829
   0.847   0.990   1.063   0.983   0.834   0.756   0.805   0.914   0.969   0.914
   0.805   0.756   0.834   0.983   1.063   0.990   0.847   0.829   1.046   1.375
   1.555   1.450   1.224   1.201   1.535   2.011   2.236   2.011   1.535   1.201
   1.224   1.450   1.555   1.375   1.046   0.829   0.847   0.990   1.063   0.983
   0.834   0.756   0.805   0.914   0.969   0.914   0.805   0.756   0.834   0.983
   1.063   0.990   0.847   0.829   1.046   1.375   1.555   1.450   1.224   1.201
   1.535   2.011
   2.849   2.567   1.958   1.501   1.460   1.667   1.740   1.482   1.049   0.755
   0.748   0.899   0.969   0.857   0.664   0.563   0.628   0.771   0.842   0.771
   0.628   0.563   0.664   0.857   0.969   0.899   0.748   0.755   1.049   1.482
   1.740   1.667   1.460   1.501   1.958   2.567   2.849   2.567   1.958   1.501
   1.460   1.667   1.740   1.482   1.049   0.755   0.748   0.899   0.969   0.857
   0.664   0.563   0.628   0.771   0.842   0.771   0.628   0.563   0.664   0.857
   0.969   0.899   0.748   0.755   1.049   1.482   1.740   1.667   1.460   1.501
   1.958   2.567
TEXTURE_INDEX=   2.1701
ERR_CF 220         1080     544   31.80   21.13
ERR_CF 200         1078     366   38.42   13.22
ERR_CF 111         1080     356   60.86   10.46
