TEXEVAL                                                                         
Analysis started on 11-Aug-19 10:31:20                                          
 LMAX=14LFMAX=03 CUBIC ORTHO   
 220      5.00 5.00
 200      5.00 5.00
 111      5.00 5.00
 220       5.00   72    0 5.00   15    0
   1.446   1.446   1.446   1.446   1.446   1.446   1.446   1.446   1.446   1.446
   1.446   1.446   1.446   1.446   1.446   1.446   1.446   1.446   1.446   1.446
   1.446   1.446   1.446   1.446   1.446   1.446   1.446   1.446   1.446   1.446
   1.446   1.446   1.446   1.446   1.446   1.446   1.446   1.446   1.446   1.446
   1.446   1.446   1.446   1.446   1.446   1.446   1.446   1.446   1.446   1.446
   1.446   1.446   1.446   1.446   1.446   1.446   1.446   1.446   1.446   1.446
   1.446   1.446   1.446   1.446   1.446   1.446   1.446   1.446   1.446   1.446
   1.446   1.446
   0.621   0.808   0.689   0.702   0.835   0.797   0.955   1.260   0.887   1.210
   1.303   1.393   1.114   1.301   1.408   1.190   1.517   1.409   1.569   1.409
   1.517   1.190   1.408   1.301   1.114   1.393   1.303   1.210   0.887   1.260
   0.955   0.797   0.835   0.702   0.689   0.808   0.621   0.808   0.689   0.702
   0.835   0.797   0.955   1.260   0.887   1.210   1.303   1.393   1.114   1.301
   1.408   1.190   1.517   1.409   1.569   1.409   1.517   1.190   1.408   1.301
   1.114   1.393   1.303   1.210   0.887   1.260   0.955   0.797   0.835   0.702
   0.689   0.808
   0.559   0.625   0.670   0.347   0.644   0.632   0.779   0.896   0.625   0.872
   0.798   0.952   1.024   1.183   1.151   1.311   1.579   0.970   1.419   0.970
   1.579   1.311   1.151   1.183   1.024   0.952   0.798   0.872   0.625   0.896
   0.779   0.632   0.644   0.347   0.670   0.625   0.559   0.625   0.670   0.347
   0.644   0.632   0.779   0.896   0.625   0.872   0.798   0.952   1.024   1.183
   1.151   1.311   1.579   0.970   1.419   0.970   1.579   1.311   1.151   1.183
   1.024   0.952   0.798   0.872   0.625   0.896   0.779   0.632   0.644   0.347
   0.670   0.625
   0.611   0.479   0.770   0.290   0.764   0.894   0.719   0.539   0.700   0.613
   0.639   0.932   0.821   1.266   1.421   1.500   1.233   1.146   1.532   1.146
   1.233   1.500   1.421   1.266   0.821   0.932   0.639   0.613   0.700   0.539
   0.719   0.894   0.764   0.290   0.770   0.479   0.611   0.479   0.770   0.290
   0.764   0.894   0.719   0.539   0.700   0.613   0.639   0.932   0.821   1.266
   1.421   1.500   1.233   1.146   1.532   1.146   1.233   1.500   1.421   1.266
   0.821   0.932   0.639   0.613   0.700   0.539   0.719   0.894   0.764   0.290
   0.770   0.479
   0.372   0.395   0.686   0.550   0.683   0.845   1.014   0.449   0.585   0.700
   0.896   0.978   0.883   1.116   1.648   1.264   1.104   1.242   1.432   1.242
   1.104   1.264   1.648   1.116   0.883   0.978   0.896   0.700   0.585   0.449
   1.014   0.845   0.683   0.550   0.686   0.395   0.372   0.395   0.686   0.550
   0.683   0.845   1.014   0.449   0.585   0.700   0.896   0.978   0.883   1.116
   1.648   1.264   1.104   1.242   1.432   1.242   1.104   1.264   1.648   1.116
   0.883   0.978   0.896   0.700   0.585   0.449   1.014   0.845   0.683   0.550
   0.686   0.395
   0.126   0.533   0.478   0.658   0.465   0.576   0.905   0.471   0.366   0.385
   0.783   0.578   0.729   0.702   1.039   0.872   1.200   0.971   1.414   0.971
   1.200   0.872   1.039   0.702   0.729   0.578   0.783   0.385   0.366   0.471
   0.905   0.576   0.465   0.658   0.478   0.533   0.126   0.533   0.478   0.658
   0.465   0.576   0.905   0.471   0.366   0.385   0.783   0.578   0.729   0.702
   1.039   0.872   1.200   0.971   1.414   0.971   1.200   0.872   1.039   0.702
   0.729   0.578   0.783   0.385   0.366   0.471   0.905   0.576   0.465   0.658
   0.478   0.533
   0.275   0.598   0.411   0.592   0.358   0.255   0.431   0.415   0.571   0.386
   0.530   0.350   0.933   0.762   0.704   1.042   1.277   0.720   1.127   0.720
   1.277   1.042   0.704   0.762   0.933   0.350   0.530   0.386   0.571   0.415
   0.431   0.255   0.358   0.592   0.411   0.598   0.275   0.598   0.411   0.592
   0.358   0.255   0.431   0.415   0.571   0.386   0.530   0.350   0.933   0.762
   0.704   1.042   1.277   0.720   1.127   0.720   1.277   1.042   0.704   0.762
   0.933   0.350   0.530   0.386   0.571   0.415   0.431   0.255   0.358   0.592
   0.411   0.598
   0.679   0.660   0.388   0.580   0.787   0.296   0.504   0.637   0.770   0.418
   0.503   0.654   0.933   1.040   1.034   1.102   1.272   0.681   0.907   0.681
   1.272   1.102   1.034   1.040   0.933   0.654   0.503   0.418   0.770   0.637
   0.504   0.296   0.787   0.580   0.388   0.660   0.679   0.660   0.388   0.580
   0.787   0.296   0.504   0.637   0.770   0.418   0.503   0.654   0.933   1.040
   1.034   1.102   1.272   0.681   0.907   0.681   1.272   1.102   1.034   1.040
   0.933   0.654   0.503   0.418   0.770   0.637   0.504   0.296   0.787   0.580
   0.388   0.660
   0.881   0.718   0.629   0.928   1.049   0.666   0.639   0.955   0.876   0.704
   0.723   0.922   0.713   1.006   1.340   0.913   1.125   1.058   0.872   1.058
   1.125   0.913   1.340   1.006   0.713   0.922   0.723   0.704   0.876   0.955
   0.639   0.666   1.049   0.928   0.629   0.718   0.881   0.718   0.629   0.928
   1.049   0.666   0.639   0.955   0.876   0.704   0.723   0.922   0.713   1.006
   1.340   0.913   1.125   1.058   0.872   1.058   1.125   0.913   1.340   1.006
   0.713   0.922   0.723   0.704   0.876   0.955   0.639   0.666   1.049   0.928
   0.629   0.718
   0.946   0.478   0.993   0.989   0.675   0.900   1.104   0.891   1.067   0.714
   0.545   0.535   0.784   0.776   0.777   0.581   0.545   0.881   0.658   0.881
   0.545   0.581   0.777   0.776   0.784   0.535   0.545   0.714   1.067   0.891
   1.104   0.900   0.675   0.989   0.993   0.478   0.946   0.478   0.993   0.989
   0.675   0.900   1.104   0.891   1.067   0.714   0.545   0.535   0.784   0.776
   0.777   0.581   0.545   0.881   0.658   0.881   0.545   0.581   0.777   0.776
   0.784   0.535   0.545   0.714   1.067   0.891   1.104   0.900   0.675   0.989
   0.993   0.478
   1.059   0.817   1.819   1.231   1.007   1.216   1.531   0.892   1.349   0.403
   1.154   0.591   0.877   0.753   0.405   0.815   0.511   0.860   0.659   0.860
   0.511   0.815   0.405   0.753   0.877   0.591   1.154   0.403   1.349   0.892
   1.531   1.216   1.007   1.231   1.819   0.817   1.059   0.817   1.819   1.231
   1.007   1.216   1.531   0.892   1.349   0.403   1.154   0.591   0.877   0.753
   0.405   0.815   0.511   0.860   0.659   0.860   0.511   0.815   0.405   0.753
   0.877   0.591   1.154   0.403   1.349   0.892   1.531   1.216   1.007   1.231
   1.819   0.817
   0.675   0.817   2.380   1.512   1.186   1.001   1.387   1.183   1.465   1.178
   1.473   1.191   0.955   0.680   0.454   1.062   0.586   1.223   0.425   1.223
   0.586   1.062   0.454   0.680   0.955   1.191   1.473   1.178   1.465   1.183
   1.387   1.001   1.186   1.512   2.380   0.817   0.675   0.817   2.380   1.512
   1.186   1.001   1.387   1.183   1.465   1.178   1.473   1.191   0.955   0.680
   0.454   1.062   0.586   1.223   0.425   1.223   0.586   1.062   0.454   0.680
   0.955   1.191   1.473   1.178   1.465   1.183   1.387   1.001   1.186   1.512
   2.380   0.817
   0.670   0.690   1.715   1.153   0.527   0.726   1.160   1.457   1.108   1.431
   0.681   1.514   1.226   0.425   0.721   1.408   0.175   1.072   0.000   1.072
   0.175   1.408   0.721   0.425   1.226   1.514   0.681   1.431   1.108   1.457
   1.160   0.726   0.527   1.153   1.715   0.690   0.670   0.690   1.715   1.153
   0.527   0.726   1.160   1.457   1.108   1.431   0.681   1.514   1.226   0.425
   0.721   1.408   0.175   1.072   0.000   1.072   0.175   1.408   0.721   0.425
   1.226   1.514   0.681   1.431   1.108   1.457   1.160   0.726   0.527   1.153
   1.715   0.690
   2.743   1.084   1.996   0.892   1.341   1.020   1.482   1.944   1.701   1.881
   1.371   1.495   1.227   0.354   1.415   1.392   1.151   1.102   0.414   1.102
   1.151   1.392   1.415   0.354   1.227   1.495   1.371   1.881   1.701   1.944
   1.482   1.020   1.341   0.892   1.996   1.084   2.743   1.084   1.996   0.892
   1.341   1.020   1.482   1.944   1.701   1.881   1.371   1.495   1.227   0.354
   1.415   1.392   1.151   1.102   0.414   1.102   1.151   1.392   1.415   0.354
   1.227   1.495   1.371   1.881   1.701   1.944   1.482   1.020   1.341   0.892
   1.996   1.084
   2.158   0.848   1.741   1.386   2.257   1.222   1.139   1.224   2.299   1.823
   1.471   1.305   0.826   0.641   1.678   1.324   1.616   1.200   0.538   1.200
   1.616   1.324   1.678   0.641   0.826   1.305   1.471   1.823   2.299   1.224
   1.139   1.222   2.257   1.386   1.741   0.848   2.158   0.848   1.741   1.386
   2.257   1.222   1.139   1.224   2.299   1.823   1.471   1.305   0.826   0.641
   1.678   1.324   1.616   1.200   0.538   1.200   1.616   1.324   1.678   0.641
   0.826   1.305   1.471   1.823   2.299   1.224   1.139   1.222   2.257   1.386
   1.741   0.848
 200       5.00   72    0 5.00   15    0
   2.405   2.405   2.405   2.405   2.405   2.405   2.405   2.405   2.405   2.405
   2.405   2.405   2.405   2.405   2.405   2.405   2.405   2.405   2.405   2.405
   2.405   2.405   2.405   2.405   2.405   2.405   2.405   2.405   2.405   2.405
   2.405   2.405   2.405   2.405   2.405   2.405   2.405   2.405   2.405   2.405
   2.405   2.405   2.405   2.405   2.405   2.405   2.405   2.405   2.405   2.405
   2.405   2.405   2.405   2.405   2.405   2.405   2.405   2.405   2.405   2.405
   2.405   2.405   2.405   2.405   2.405   2.405   2.405   2.405   2.405   2.405
   2.405   2.405
   2.506   2.252   2.211   1.980   1.869   2.025   2.136   2.531   1.903   2.317
   2.951   1.982   2.462   2.429   2.255   2.308   2.710   2.341   1.862   2.341
   2.710   2.308   2.255   2.429   2.462   1.982   2.951   2.317   1.903   2.531
   2.136   2.025   1.869   1.980   2.211   2.252   2.506   2.252   2.211   1.980
   1.869   2.025   2.136   2.531   1.903   2.317   2.951   1.982   2.462   2.429
   2.255   2.308   2.710   2.341   1.862   2.341   2.710   2.308   2.255   2.429
   2.462   1.982   2.951   2.317   1.903   2.531   2.136   2.025   1.869   1.980
   2.211   2.252
   2.273   1.636   2.003   1.583   1.615   1.875   1.607   1.589   1.588   2.250
   1.617   1.686   1.674   1.804   1.471   1.822   2.281   1.842   2.026   1.842
   2.281   1.822   1.471   1.804   1.674   1.686   1.617   2.250   1.588   1.589
   1.607   1.875   1.615   1.583   2.003   1.636   2.273   1.636   2.003   1.583
   1.615   1.875   1.607   1.589   1.588   2.250   1.617   1.686   1.674   1.804
   1.471   1.822   2.281   1.842   2.026   1.842   2.281   1.822   1.471   1.804
   1.674   1.686   1.617   2.250   1.588   1.589   1.607   1.875   1.615   1.583
   2.003   1.636
   1.578   1.791   1.409   1.714   1.703   1.854   1.517   1.396   1.630   1.831
   1.476   1.588   1.363   1.430   1.604   1.810   1.929   1.817   1.620   1.817
   1.929   1.810   1.604   1.430   1.363   1.588   1.476   1.831   1.630   1.396
   1.517   1.854   1.703   1.714   1.409   1.791   1.578   1.791   1.409   1.714
   1.703   1.854   1.517   1.396   1.630   1.831   1.476   1.588   1.363   1.430
   1.604   1.810   1.929   1.817   1.620   1.817   1.929   1.810   1.604   1.430
   1.363   1.588   1.476   1.831   1.630   1.396   1.517   1.854   1.703   1.714
   1.409   1.791
   1.971   1.805   1.537   1.824   2.211   1.736   1.648   1.462   1.304   1.213
   1.164   1.116   1.138   0.846   1.346   1.629   1.324   1.393   0.893   1.393
   1.324   1.629   1.346   0.846   1.138   1.116   1.164   1.213   1.304   1.462
   1.648   1.736   2.211   1.824   1.537   1.805   1.971   1.805   1.537   1.824
   2.211   1.736   1.648   1.462   1.304   1.213   1.164   1.116   1.138   0.846
   1.346   1.629   1.324   1.393   0.893   1.393   1.324   1.629   1.346   0.846
   1.138   1.116   1.164   1.213   1.304   1.462   1.648   1.736   2.211   1.824
   1.537   1.805
   2.323   1.413   1.564   1.803   2.236   1.365   1.377   1.303   1.161   0.991
   0.832   0.822   0.602   0.662   0.835   0.939   1.059   0.897   0.963   0.897
   1.059   0.939   0.835   0.662   0.602   0.822   0.832   0.991   1.161   1.303
   1.377   1.365   2.236   1.803   1.564   1.413   2.323   1.413   1.564   1.803
   2.236   1.365   1.377   1.303   1.161   0.991   0.832   0.822   0.602   0.662
   0.835   0.939   1.059   0.897   0.963   0.897   1.059   0.939   0.835   0.662
   0.602   0.822   0.832   0.991   1.161   1.303   1.377   1.365   2.236   1.803
   1.564   1.413
   1.549   1.401   1.512   2.112   1.692   1.173   1.116   0.945   1.094   1.016
   0.637   0.738   0.697   0.876   0.544   0.755   0.615   1.087   0.969   1.087
   0.615   0.755   0.544   0.876   0.697   0.738   0.637   1.016   1.094   0.945
   1.116   1.173   1.692   2.112   1.512   1.401   1.549   1.401   1.512   2.112
   1.692   1.173   1.116   0.945   1.094   1.016   0.637   0.738   0.697   0.876
   0.544   0.755   0.615   1.087   0.969   1.087   0.615   0.755   0.544   0.876
   0.697   0.738   0.637   1.016   1.094   0.945   1.116   1.173   1.692   2.112
   1.512   1.401
   0.940   0.989   0.927   1.421   0.931   0.841   0.663   0.718   0.506   0.740
   0.701   0.545   0.680   0.527   0.587   0.643   0.430   0.948   1.267   0.948
   0.430   0.643   0.587   0.527   0.680   0.545   0.701   0.740   0.506   0.718
   0.663   0.841   0.931   1.421   0.927   0.989   0.940   0.989   0.927   1.421
   0.931   0.841   0.663   0.718   0.506   0.740   0.701   0.545   0.680   0.527
   0.587   0.643   0.430   0.948   1.267   0.948   0.430   0.643   0.587   0.527
   0.680   0.545   0.701   0.740   0.506   0.718   0.663   0.841   0.931   1.421
   0.927   0.989
   0.796   0.996   0.318   0.384   0.475   0.455   0.507   0.598   0.160   0.518
   0.727   0.450   0.510   0.459   0.532   0.606   0.306   0.400   1.178   0.400
   0.306   0.606   0.532   0.459   0.510   0.450   0.727   0.518   0.160   0.598
   0.507   0.455   0.475   0.384   0.318   0.996   0.796   0.996   0.318   0.384
   0.475   0.455   0.507   0.598   0.160   0.518   0.727   0.450   0.510   0.459
   0.532   0.606   0.306   0.400   1.178   0.400   0.306   0.606   0.532   0.459
   0.510   0.450   0.727   0.518   0.160   0.598   0.507   0.455   0.475   0.384
   0.318   0.996
   0.491   1.091   0.491   0.261   0.432   0.616   0.646   0.506   0.534   0.366
   0.646   0.228   0.506   0.427   0.327   0.508   0.559   0.445   0.325   0.445
   0.559   0.508   0.327   0.427   0.506   0.228   0.646   0.366   0.534   0.506
   0.646   0.616   0.432   0.261   0.491   1.091   0.491   1.091   0.491   0.261
   0.432   0.616   0.646   0.506   0.534   0.366   0.646   0.228   0.506   0.427
   0.327   0.508   0.559   0.445   0.325   0.445   0.559   0.508   0.327   0.427
   0.506   0.228   0.646   0.366   0.534   0.506   0.646   0.616   0.432   0.261
   0.491   1.091
   0.906   0.914   0.720   0.634   0.461   0.633   0.831   0.860   1.128   0.181
   0.811   0.622   0.675   0.729   0.515   0.873   0.868   0.547   0.288   0.547
   0.868   0.873   0.515   0.729   0.675   0.622   0.811   0.181   1.128   0.860
   0.831   0.633   0.461   0.634   0.720   0.914   0.906   0.914   0.720   0.634
   0.461   0.633   0.831   0.860   1.128   0.181   0.811   0.622   0.675   0.729
   0.515   0.873   0.868   0.547   0.288   0.547   0.868   0.873   0.515   0.729
   0.675   0.622   0.811   0.181   1.128   0.860   0.831   0.633   0.461   0.634
   0.720   0.914
   0.577   0.769   0.643   0.989   0.568   0.256   0.888   0.900   0.852   0.586
   0.767   0.758   0.463   0.900   0.804   1.447   0.625   0.538   0.692   0.538
   0.625   1.447   0.804   0.900   0.463   0.758   0.767   0.586   0.852   0.900
   0.888   0.256   0.568   0.989   0.643   0.769   0.577   0.769   0.643   0.989
   0.568   0.256   0.888   0.900   0.852   0.586   0.767   0.758   0.463   0.900
   0.804   1.447   0.625   0.538   0.692   0.538   0.625   1.447   0.804   0.900
   0.463   0.758   0.767   0.586   0.852   0.900   0.888   0.256   0.568   0.989
   0.643   0.769
   0.562   0.389   0.569   0.893   0.824   0.960   0.713   0.784   0.371   1.169
   0.655   0.623   0.429   0.968   0.673   1.938   0.755   1.464   1.209   1.464
   0.755   1.938   0.673   0.968   0.429   0.623   0.655   1.169   0.371   0.784
   0.713   0.960   0.824   0.893   0.569   0.389   0.562   0.389   0.569   0.893
   0.824   0.960   0.713   0.784   0.371   1.169   0.655   0.623   0.429   0.968
   0.673   1.938   0.755   1.464   1.209   1.464   0.755   1.938   0.673   0.968
   0.429   0.623   0.655   1.169   0.371   0.784   0.713   0.960   0.824   0.893
   0.569   0.389
   0.939   0.726   1.859   0.723   0.720   1.633   0.549   0.750   0.975   0.665
   1.174   0.940   0.709   1.043   0.912   2.004   1.013   1.992   1.026   1.992
   1.013   2.004   0.912   1.043   0.709   0.940   1.174   0.665   0.975   0.750
   0.549   1.633   0.720   0.723   1.859   0.726   0.939   0.726   1.859   0.723
   0.720   1.633   0.549   0.750   0.975   0.665   1.174   0.940   0.709   1.043
   0.912   2.004   1.013   1.992   1.026   1.992   1.013   2.004   0.912   1.043
   0.709   0.940   1.174   0.665   0.975   0.750   0.549   1.633   0.720   0.723
   1.859   0.726
   1.731   0.549   2.136   0.283   0.729   1.564   1.173   0.800   0.755   0.472
   0.771   1.093   0.884   0.849   1.963   1.304   0.409   1.578   0.343   1.578
   0.409   1.304   1.963   0.849   0.884   1.093   0.771   0.472   0.755   0.800
   1.173   1.564   0.729   0.283   2.136   0.549   1.731   0.549   2.136   0.283
   0.729   1.564   1.173   0.800   0.755   0.472   0.771   1.093   0.884   0.849
   1.963   1.304   0.409   1.578   0.343   1.578   0.409   1.304   1.963   0.849
   0.884   1.093   0.771   0.472   0.755   0.800   1.173   1.564   0.729   0.283
   2.136   0.549
 111       5.00   72    0 5.00   15    0
   0.227   0.227   0.227   0.227   0.227   0.227   0.227   0.227   0.227   0.227
   0.227   0.227   0.227   0.227   0.227   0.227   0.227   0.227   0.227   0.227
   0.227   0.227   0.227   0.227   0.227   0.227   0.227   0.227   0.227   0.227
   0.227   0.227   0.227   0.227   0.227   0.227   0.227   0.227   0.227   0.227
   0.227   0.227   0.227   0.227   0.227   0.227   0.227   0.227   0.227   0.227
   0.227   0.227   0.227   0.227   0.227   0.227   0.227   0.227   0.227   0.227
   0.227   0.227   0.227   0.227   0.227   0.227   0.227   0.227   0.227   0.227
   0.227   0.227
   0.226   0.383   0.234   0.210   0.383   0.395   0.228   0.427   0.225   0.150
   0.214   0.257   0.341   0.264   0.258   0.314   0.195   0.345   0.177   0.345
   0.195   0.314   0.258   0.264   0.341   0.257   0.214   0.150   0.225   0.427
   0.228   0.395   0.383   0.210   0.234   0.383   0.226   0.383   0.234   0.210
   0.383   0.395   0.228   0.427   0.225   0.150   0.214   0.257   0.341   0.264
   0.258   0.314   0.195   0.345   0.177   0.345   0.195   0.314   0.258   0.264
   0.341   0.257   0.214   0.150   0.225   0.427   0.228   0.395   0.383   0.210
   0.234   0.383
   0.302   0.329   0.345   0.550   0.606   0.640   0.217   0.288   0.275   0.264
   0.321   0.300   0.485   0.491   0.286   0.362   0.401   0.368   0.380   0.368
   0.401   0.362   0.286   0.491   0.485   0.300   0.321   0.264   0.275   0.288
   0.217   0.640   0.606   0.550   0.345   0.329   0.302   0.329   0.345   0.550
   0.606   0.640   0.217   0.288   0.275   0.264   0.321   0.300   0.485   0.491
   0.286   0.362   0.401   0.368   0.380   0.368   0.401   0.362   0.286   0.491
   0.485   0.300   0.321   0.264   0.275   0.288   0.217   0.640   0.606   0.550
   0.345   0.329
   0.355   0.444   0.485   0.647   0.769   0.705   0.533   0.531   0.399   0.553
   0.538   0.252   0.517   0.637   0.476   0.421   0.553   0.421   0.308   0.421
   0.553   0.421   0.476   0.637   0.517   0.252   0.538   0.553   0.399   0.531
   0.533   0.705   0.769   0.647   0.485   0.444   0.355   0.444   0.485   0.647
   0.769   0.705   0.533   0.531   0.399   0.553   0.538   0.252   0.517   0.637
   0.476   0.421   0.553   0.421   0.308   0.421   0.553   0.421   0.476   0.637
   0.517   0.252   0.538   0.553   0.399   0.531   0.533   0.705   0.769   0.647
   0.485   0.444
   1.077   1.038   0.961   0.917   1.184   0.904   0.948   1.105   0.662   0.847
   0.674   0.330   0.505   0.566   0.567   0.353   0.528   0.540   0.110   0.540
   0.528   0.353   0.567   0.566   0.505   0.330   0.674   0.847   0.662   1.105
   0.948   0.904   1.184   0.917   0.961   1.038   1.077   1.038   0.961   0.917
   1.184   0.904   0.948   1.105   0.662   0.847   0.674   0.330   0.505   0.566
   0.567   0.353   0.528   0.540   0.110   0.540   0.528   0.353   0.567   0.566
   0.505   0.330   0.674   0.847   0.662   1.105   0.948   0.904   1.184   0.917
   0.961   1.038
   1.640   1.516   1.443   1.866   1.455   1.404   1.299   1.188   1.264   1.167
   0.871   0.662   0.739   0.685   0.600   0.356   0.573   0.723   0.371   0.723
   0.573   0.356   0.600   0.685   0.739   0.662   0.871   1.167   1.264   1.188
   1.299   1.404   1.455   1.866   1.443   1.516   1.640   1.516   1.443   1.866
   1.455   1.404   1.299   1.188   1.264   1.167   0.871   0.662   0.739   0.685
   0.600   0.356   0.573   0.723   0.371   0.723   0.573   0.356   0.600   0.685
   0.739   0.662   0.871   1.167   1.264   1.188   1.299   1.404   1.455   1.866
   1.443   1.516
   1.978   2.074   2.102   2.124   1.964   1.830   1.717   1.541   1.876   1.523
   1.476   1.162   1.091   0.889   0.764   0.738   0.851   0.745   0.692   0.745
   0.851   0.738   0.764   0.889   1.091   1.162   1.476   1.523   1.876   1.541
   1.717   1.830   1.964   2.124   2.102   2.074   1.978   2.074   2.102   2.124
   1.964   1.830   1.717   1.541   1.876   1.523   1.476   1.162   1.091   0.889
   0.764   0.738   0.851   0.745   0.692   0.745   0.851   0.738   0.764   0.889
   1.091   1.162   1.476   1.523   1.876   1.541   1.717   1.830   1.964   2.124
   2.102   2.074
   1.712   2.029   2.114   1.537   2.206   1.677   1.685   2.142   1.994   1.755
   1.717   1.408   1.222   0.914   1.128   0.966   0.866   0.721   0.625   0.721
   0.866   0.966   1.128   0.914   1.222   1.408   1.717   1.755   1.994   2.142
   1.685   1.677   2.206   1.537   2.114   2.029   1.712   2.029   2.114   1.537
   2.206   1.677   1.685   2.142   1.994   1.755   1.717   1.408   1.222   0.914
   1.128   0.966   0.866   0.721   0.625   0.721   0.866   0.966   1.128   0.914
   1.222   1.408   1.717   1.755   1.994   2.142   1.685   1.677   2.206   1.537
   2.114   2.029
   0.766   1.230   1.038   1.275   1.581   1.088   1.025   1.737   1.695   1.944
   1.289   1.178   1.036   0.934   0.866   0.901   0.882   0.817   0.663   0.817
   0.882   0.901   0.866   0.934   1.036   1.178   1.289   1.944   1.695   1.737
   1.025   1.088   1.581   1.275   1.038   1.230   0.766   1.230   1.038   1.275
   1.581   1.088   1.025   1.737   1.695   1.944   1.289   1.178   1.036   0.934
   0.866   0.901   0.882   0.817   0.663   0.817   0.882   0.901   0.866   0.934
   1.036   1.178   1.289   1.944   1.695   1.737   1.025   1.088   1.581   1.275
   1.038   1.230
   0.674   0.628   0.372   1.079   1.276   0.815   0.906   1.306   1.259   1.837
   0.970   1.202   1.214   1.262   0.676   0.925   1.077   0.999   0.736   0.999
   1.077   0.925   0.676   1.262   1.214   1.202   0.970   1.837   1.259   1.306
   0.906   0.815   1.276   1.079   0.372   0.628   0.674   0.628   0.372   1.079
   1.276   0.815   0.906   1.306   1.259   1.837   0.970   1.202   1.214   1.262
   0.676   0.925   1.077   0.999   0.736   0.999   1.077   0.925   0.676   1.262
   1.214   1.202   0.970   1.837   1.259   1.306   0.906   0.815   1.276   1.079
   0.372   0.628
   0.499   0.323   0.169   0.453   0.995   0.979   0.991   1.043   1.129   1.714
   1.001   1.327   1.455   1.875   0.734   0.785   1.069   1.065   0.626   1.065
   1.069   0.785   0.734   1.875   1.455   1.327   1.001   1.714   1.129   1.043
   0.991   0.979   0.995   0.453   0.169   0.323   0.499   0.323   0.169   0.453
   0.995   0.979   0.991   1.043   1.129   1.714   1.001   1.327   1.455   1.875
   0.734   0.785   1.069   1.065   0.626   1.065   1.069   0.785   0.734   1.875
   1.455   1.327   1.001   1.714   1.129   1.043   0.991   0.979   0.995   0.453
   0.169   0.323
   0.257   0.406   0.190   0.350   0.653   1.183   0.869   0.787   1.183   1.472
   1.003   1.646   1.194   1.390   0.977   0.828   1.219   1.086   0.587   1.086
   1.219   0.828   0.977   1.390   1.194   1.646   1.003   1.472   1.183   0.787
   0.869   1.183   0.653   0.350   0.190   0.406   0.257   0.406   0.190   0.350
   0.653   1.183   0.869   0.787   1.183   1.472   1.003   1.646   1.194   1.390
   0.977   0.828   1.219   1.086   0.587   1.086   1.219   0.828   0.977   1.390
   1.194   1.646   1.003   1.472   1.183   0.787   0.869   1.183   0.653   0.350
   0.190   0.406
   0.407   0.387   0.378   0.558   0.808   1.289   1.027   1.303   0.595   1.208
   1.514   1.891   1.312   0.731   1.245   0.771   1.139   0.952   0.698   0.952
   1.139   0.771   1.245   0.731   1.312   1.891   1.514   1.208   0.595   1.303
   1.027   1.289   0.808   0.558   0.378   0.387   0.407   0.387   0.378   0.558
   0.808   1.289   1.027   1.303   0.595   1.208   1.514   1.891   1.312   0.731
   1.245   0.771   1.139   0.952   0.698   0.952   1.139   0.771   1.245   0.731
   1.312   1.891   1.514   1.208   0.595   1.303   1.027   1.289   0.808   0.558
   0.378   0.387
   0.651   0.793   0.445   0.680   0.827   1.224   1.781   1.224   0.423   0.797
   1.419   1.496   1.756   1.270   0.827   0.997   1.159   1.045   0.839   1.045
   1.159   0.997   0.827   1.270   1.756   1.496   1.419   0.797   0.423   1.224
   1.781   1.224   0.827   0.680   0.445   0.793   0.651   0.793   0.445   0.680
   0.827   1.224   1.781   1.224   0.423   0.797   1.419   1.496   1.756   1.270
   0.827   0.997   1.159   1.045   0.839   1.045   1.159   0.997   0.827   1.270
   1.756   1.496   1.419   0.797   0.423   1.224   1.781   1.224   0.827   0.680
   0.445   0.793
   0.943   0.774   0.849   1.003   0.735   0.934   1.951   0.548   1.457   0.291
   1.076   1.479   1.258   1.505   0.926   1.396   1.178   0.742   0.616   0.742
   1.178   1.396   0.926   1.505   1.258   1.479   1.076   0.291   1.457   0.548
   1.951   0.934   0.735   1.003   0.849   0.774   0.943   0.774   0.849   1.003
   0.735   0.934   1.951   0.548   1.457   0.291   1.076   1.479   1.258   1.505
   0.926   1.396   1.178   0.742   0.616   0.742   1.178   1.396   0.926   1.505
   1.258   1.479   1.076   0.291   1.457   0.548   1.951   0.934   0.735   1.003
   0.849   0.774
  4  1      1.0382771E+00
  4  2      1.9805011E-02
  4  3      6.9673516E-01
  6  1      5.6869276E-01
  6  2     -1.1127394E+00
  6  3      3.7670134E-01
  6  4     -7.7241244E-02
  8  1     -2.7396522E-01
  8  2     -7.5428833E-02
  8  3      3.1297836E-01
  8  4     -1.2518541E-01
  8  5     -7.9874888E-02
 10  1      4.7198355E-01
 10  2     -2.9995197E-01
 10  3      4.5924734E-02
 10  4     -1.2662772E-01
 10  5     -1.0538585E-01
 10  6     -2.7776504E-01
 12  1      4.8309383E-01  1.5047212E-01
 12  2     -1.7819532E-01 -3.2669141E-01
 12  3      2.0812811E-01  1.1327754E-01
 12  4     -2.1629228E-02 -3.6935770E-02
 12  5      2.1496511E-01  2.5365341E-02
 12  6      8.9613503E-02  9.4970266E-02
 12  7     -2.8883942E-01 -7.5921918E-01
 14  1      1.0195875E-01
 14  2      3.3641957E-02
 14  3      1.0123510E-01
 14  4      2.8914508E-01
 14  5     -1.1555652E-01
 14  6     -6.2009460E-02
 14  7     -5.9088116E-01
 14  8     -7.2666742E-01
 220       5.00   72    0 5.00   18    0
   0.965   0.965   0.966   0.967   0.969   0.970   0.972   0.975   0.977   0.980
   0.982   0.985   0.987   0.989   0.991   0.992   0.993   0.994   0.994   0.994
   0.993   0.992   0.991   0.989   0.987   0.985   0.982   0.980   0.977   0.975
   0.972   0.970   0.969   0.967   0.966   0.965   0.965   0.965   0.966   0.967
   0.969   0.970   0.972   0.975   0.977   0.980   0.982   0.985   0.987   0.989
   0.991   0.992   0.993   0.994   0.994   0.994   0.993   0.992   0.991   0.989
   0.987   0.985   0.982   0.980   0.977   0.975   0.972   0.970   0.969   0.967
   0.966   0.965
   0.872   0.874   0.879   0.887   0.898   0.912   0.929   0.947   0.966   0.987
   1.008   1.028   1.047   1.065   1.080   1.092   1.102   1.107   1.109   1.107
   1.102   1.092   1.080   1.065   1.047   1.028   1.008   0.987   0.966   0.947
   0.929   0.912   0.898   0.887   0.879   0.874   0.872   0.874   0.879   0.887
   0.898   0.912   0.929   0.947   0.966   0.987   1.008   1.028   1.047   1.065
   1.080   1.092   1.102   1.107   1.109   1.107   1.102   1.092   1.080   1.065
   1.047   1.028   1.008   0.987   0.966   0.947   0.929   0.912   0.898   0.887
   0.879   0.874
   0.740   0.743   0.753   0.769   0.791   0.820   0.855   0.895   0.939   0.986
   1.034   1.082   1.128   1.170   1.207   1.237   1.259   1.273   1.277   1.273
   1.259   1.237   1.207   1.170   1.128   1.082   1.034   0.986   0.939   0.895
   0.855   0.820   0.791   0.769   0.753   0.743   0.740   0.743   0.753   0.769
   0.791   0.820   0.855   0.895   0.939   0.986   1.034   1.082   1.128   1.170
   1.207   1.237   1.259   1.273   1.277   1.273   1.259   1.237   1.207   1.170
   1.128   1.082   1.034   0.986   0.939   0.895   0.855   0.820   0.791   0.769
   0.753   0.743
   0.633   0.636   0.646   0.663   0.688   0.723   0.768   0.823   0.886   0.957
   1.032   1.107   1.180   1.246   1.303   1.349   1.383   1.403   1.410   1.403
   1.383   1.349   1.303   1.246   1.180   1.107   1.032   0.957   0.886   0.823
   0.768   0.723   0.688   0.663   0.646   0.636   0.633   0.636   0.646   0.663
   0.688   0.723   0.768   0.823   0.886   0.957   1.032   1.107   1.180   1.246
   1.303   1.349   1.383   1.403   1.410   1.403   1.383   1.349   1.303   1.246
   1.180   1.107   1.032   0.957   0.886   0.823   0.768   0.723   0.688   0.663
   0.646   0.636
   0.586   0.587   0.591   0.599   0.615   0.642   0.683   0.740   0.812   0.897
   0.990   1.085   1.176   1.258   1.327   1.379   1.416   1.438   1.445   1.438
   1.416   1.379   1.327   1.258   1.176   1.085   0.990   0.897   0.812   0.740
   0.683   0.642   0.615   0.599   0.591   0.587   0.586   0.587   0.591   0.599
   0.615   0.642   0.683   0.740   0.812   0.897   0.990   1.085   1.176   1.258
   1.327   1.379   1.416   1.438   1.445   1.438   1.416   1.379   1.327   1.258
   1.176   1.085   0.990   0.897   0.812   0.740   0.683   0.642   0.615   0.599
   0.591   0.587
   0.595   0.593   0.590   0.587   0.588   0.599   0.624   0.669   0.735   0.821
   0.921   1.025   1.126   1.215   1.286   1.337   1.370   1.387   1.392   1.387
   1.370   1.337   1.286   1.215   1.126   1.025   0.921   0.821   0.735   0.669
   0.624   0.599   0.588   0.587   0.590   0.593   0.595   0.593   0.590   0.587
   0.588   0.599   0.624   0.669   0.735   0.821   0.921   1.025   1.126   1.215
   1.286   1.337   1.370   1.387   1.392   1.387   1.370   1.337   1.286   1.215
   1.126   1.025   0.921   0.821   0.735   0.669   0.624   0.599   0.588   0.587
   0.590   0.593
   0.644   0.643   0.641   0.636   0.628   0.622   0.625   0.646   0.690   0.760
   0.851   0.954   1.058   1.150   1.224   1.274   1.303   1.317   1.321   1.317
   1.303   1.274   1.224   1.150   1.058   0.954   0.851   0.760   0.690   0.646
   0.625   0.622   0.628   0.636   0.641   0.643   0.644   0.643   0.641   0.636
   0.628   0.622   0.625   0.646   0.690   0.760   0.851   0.954   1.058   1.150
   1.224   1.274   1.303   1.317   1.321   1.317   1.303   1.274   1.224   1.150
   1.058   0.954   0.851   0.760   0.690   0.646   0.625   0.622   0.628   0.636
   0.641   0.643
   0.738   0.744   0.754   0.760   0.753   0.734   0.711   0.699   0.708   0.745
   0.809   0.895   0.994   1.091   1.174   1.233   1.267   1.282   1.286   1.282
   1.267   1.233   1.174   1.091   0.994   0.895   0.809   0.745   0.708   0.699
   0.711   0.734   0.753   0.760   0.754   0.744   0.738   0.744   0.754   0.760
   0.753   0.734   0.711   0.699   0.708   0.745   0.809   0.895   0.994   1.091
   1.174   1.233   1.267   1.282   1.286   1.282   1.267   1.233   1.174   1.091
   0.994   0.895   0.809   0.745   0.708   0.699   0.711   0.734   0.753   0.760
   0.754   0.744
   0.894   0.908   0.938   0.961   0.955   0.920   0.870   0.823   0.795   0.790
   0.812   0.864   0.943   1.040   1.133   1.204   1.245   1.262   1.265   1.262
   1.245   1.204   1.133   1.040   0.943   0.864   0.812   0.790   0.795   0.823
   0.870   0.920   0.955   0.961   0.938   0.908   0.894   0.908   0.938   0.961
   0.955   0.920   0.870   0.823   0.795   0.790   0.812   0.864   0.943   1.040
   1.133   1.204   1.245   1.262   1.265   1.262   1.245   1.204   1.133   1.040
   0.943   0.864   0.812   0.790   0.795   0.823   0.870   0.920   0.955   0.961
   0.938   0.908
   1.099   1.122   1.170   1.200   1.182   1.121   1.045   0.980   0.931   0.893
   0.866   0.865   0.906   0.986   1.078   1.149   1.182   1.186   1.184   1.186
   1.182   1.149   1.078   0.986   0.906   0.865   0.866   0.893   0.931   0.980
   1.045   1.121   1.182   1.200   1.170   1.122   1.099   1.122   1.170   1.200
   1.182   1.121   1.045   0.980   0.931   0.893   0.866   0.865   0.906   0.986
   1.078   1.149   1.182   1.186   1.184   1.186   1.182   1.149   1.078   0.986
   0.906   0.865   0.866   0.893   0.931   0.980   1.045   1.121   1.182   1.200
   1.170   1.122
   1.293   1.326   1.389   1.414   1.365   1.265   1.172   1.118   1.086   1.037
   0.962   0.894   0.880   0.929   1.004   1.053   1.053   1.023   1.007   1.023
   1.053   1.053   1.004   0.929   0.880   0.894   0.962   1.037   1.086   1.118
   1.172   1.265   1.365   1.414   1.389   1.326   1.293   1.326   1.389   1.414
   1.365   1.265   1.172   1.118   1.086   1.037   0.962   0.894   0.880   0.929
   1.004   1.053   1.053   1.023   1.007   1.023   1.053   1.053   1.004   0.929
   0.880   0.894   0.962   1.037   1.086   1.118   1.172   1.265   1.365   1.414
   1.389   1.326
   1.386   1.432   1.517   1.540   1.454   1.317   1.224   1.212   1.228   1.188
   1.072   0.938   0.869   0.889   0.946   0.964   0.915   0.838   0.801   0.838
   0.915   0.964   0.946   0.889   0.869   0.938   1.072   1.188   1.228   1.212
   1.224   1.317   1.454   1.540   1.517   1.432   1.386   1.432   1.517   1.540
   1.454   1.317   1.224   1.212   1.228   1.188   1.072   0.938   0.869   0.889
   0.946   0.964   0.915   0.838   0.801   0.838   0.915   0.964   0.946   0.889
   0.869   0.938   1.072   1.188   1.228   1.212   1.224   1.317   1.454   1.540
   1.517   1.432
   1.312   1.380   1.508   1.549   1.443   1.283   1.208   1.258   1.335   1.310
   1.157   0.973   0.876   0.893   0.949   0.947   0.858   0.743   0.690   0.743
   0.858   0.947   0.949   0.893   0.876   0.973   1.157   1.310   1.335   1.258
   1.208   1.283   1.443   1.549   1.508   1.380   1.312   1.380   1.508   1.549
   1.443   1.283   1.208   1.258   1.335   1.310   1.157   0.973   0.876   0.893
   0.949   0.947   0.858   0.743   0.690   0.743   0.858   0.947   0.949   0.893
   0.876   0.973   1.157   1.310   1.335   1.258   1.208   1.283   1.443   1.549
   1.508   1.380
   1.077   1.175   1.365   1.447   1.346   1.185   1.143   1.255   1.382   1.364
   1.186   0.983   0.896   0.940   1.013   1.009   0.909   0.786   0.731   0.786
   0.909   1.009   1.013   0.940   0.896   0.983   1.186   1.364   1.382   1.255
   1.143   1.185   1.346   1.447   1.365   1.175   1.077   1.175   1.365   1.447
   1.346   1.185   1.143   1.255   1.382   1.364   1.186   0.983   0.896   0.940
   1.013   1.009   0.909   0.786   0.731   0.786   0.909   1.009   1.013   0.940
   0.896   0.983   1.186   1.364   1.382   1.255   1.143   1.185   1.346   1.447
   1.365   1.175
   0.760   0.887   1.137   1.265   1.180   1.033   1.029   1.193   1.351   1.331
   1.147   0.966   0.924   1.005   1.086   1.079   0.990   0.892   0.851   0.892
   0.990   1.079   1.086   1.005   0.924   0.966   1.147   1.331   1.351   1.193
   1.029   1.033   1.180   1.265   1.137   0.887   0.760   0.887   1.137   1.265
   1.180   1.033   1.029   1.193   1.351   1.331   1.147   0.966   0.924   1.005
   1.086   1.079   0.990   0.892   0.851   0.892   0.990   1.079   1.086   1.005
   0.924   0.966   1.147   1.331   1.351   1.193   1.029   1.033   1.180   1.265
   1.137   0.887
   0.459   0.604   0.892   1.046   0.970   0.836   0.867   1.069   1.245   1.227
   1.062   0.933   0.950   1.051   1.108   1.073   0.996   0.941   0.923   0.941
   0.996   1.073   1.108   1.051   0.950   0.933   1.062   1.227   1.245   1.069
   0.867   0.836   0.970   1.046   0.892   0.604   0.459   0.604   0.892   1.046
   0.970   0.836   0.867   1.069   1.245   1.227   1.062   0.933   0.950   1.051
   1.108   1.073   0.996   0.941   0.923   0.941   0.996   1.073   1.108   1.051
   0.950   0.933   1.062   1.227   1.245   1.069   0.867   0.836   0.970   1.046
   0.892   0.604
   0.244   0.396   0.693   0.846   0.763   0.636   0.691   0.920   1.108   1.100
   0.969   0.903   0.970   1.066   1.069   0.984   0.908   0.892   0.898   0.892
   0.908   0.984   1.069   1.066   0.970   0.903   0.969   1.100   1.108   0.920
   0.691   0.636   0.763   0.846   0.693   0.396   0.244   0.396   0.693   0.846
   0.763   0.636   0.691   0.920   1.108   1.100   0.969   0.903   0.970   1.066
   1.069   0.984   0.908   0.892   0.898   0.892   0.908   0.984   1.069   1.066
   0.970   0.903   0.969   1.100   1.108   0.920   0.691   0.636   0.763   0.846
   0.693   0.396
   0.138   0.289   0.582   0.725   0.632   0.505   0.573   0.816   1.012   1.014
   0.911   0.885   0.980   1.064   1.022   0.896   0.815   0.820   0.840   0.820
   0.815   0.896   1.022   1.064   0.980   0.885   0.911   1.014   1.012   0.816
   0.573   0.505   0.632   0.725   0.582   0.289   0.138   0.289   0.582   0.725
   0.632   0.505   0.573   0.816   1.012   1.014   0.911   0.885   0.980   1.064
   1.022   0.896   0.815   0.820   0.840   0.820   0.815   0.896   1.022   1.064
   0.980   0.885   0.911   1.014   1.012   0.816   0.573   0.505   0.632   0.725
   0.582   0.289
 200       5.00   72    0 5.00   18    0
   1.498   1.498   1.498   1.498   1.498   1.498   1.499   1.499   1.499   1.500
   1.500   1.500   1.501   1.501   1.501   1.502   1.502   1.502   1.502   1.502
   1.502   1.502   1.501   1.501   1.501   1.500   1.500   1.500   1.499   1.499
   1.499   1.498   1.498   1.498   1.498   1.498   1.498   1.498   1.498   1.498
   1.498   1.498   1.499   1.499   1.499   1.500   1.500   1.500   1.501   1.501
   1.501   1.502   1.502   1.502   1.502   1.502   1.502   1.502   1.501   1.501
   1.501   1.500   1.500   1.500   1.499   1.499   1.499   1.498   1.498   1.498
   1.498   1.498
   1.441   1.441   1.441   1.441   1.441   1.441   1.442   1.442   1.443   1.444
   1.446   1.447   1.449   1.451   1.453   1.455   1.456   1.457   1.457   1.457
   1.456   1.455   1.453   1.451   1.449   1.447   1.446   1.444   1.443   1.442
   1.442   1.441   1.441   1.441   1.441   1.441   1.441   1.441   1.441   1.441
   1.441   1.441   1.442   1.442   1.443   1.444   1.446   1.447   1.449   1.451
   1.453   1.455   1.456   1.457   1.457   1.457   1.456   1.455   1.453   1.451
   1.449   1.447   1.446   1.444   1.443   1.442   1.442   1.441   1.441   1.441
   1.441   1.441
   1.430   1.429   1.426   1.421   1.414   1.405   1.396   1.387   1.379   1.372
   1.368   1.365   1.365   1.368   1.371   1.376   1.380   1.382   1.383   1.382
   1.380   1.376   1.371   1.368   1.365   1.365   1.368   1.372   1.379   1.387
   1.396   1.405   1.414   1.421   1.426   1.429   1.430   1.429   1.426   1.421
   1.414   1.405   1.396   1.387   1.379   1.372   1.368   1.365   1.365   1.368
   1.371   1.376   1.380   1.382   1.383   1.382   1.380   1.376   1.371   1.368
   1.365   1.365   1.368   1.372   1.379   1.387   1.396   1.405   1.414   1.421
   1.426   1.429
   1.540   1.537   1.526   1.508   1.484   1.454   1.421   1.385   1.350   1.318
   1.292   1.275   1.266   1.267   1.274   1.285   1.297   1.306   1.309   1.306
   1.297   1.285   1.274   1.267   1.266   1.275   1.292   1.318   1.350   1.385
   1.421   1.454   1.484   1.508   1.526   1.537   1.540   1.537   1.526   1.508
   1.484   1.454   1.421   1.385   1.350   1.318   1.292   1.275   1.266   1.267
   1.274   1.285   1.297   1.306   1.309   1.306   1.297   1.285   1.274   1.267
   1.266   1.275   1.292   1.318   1.350   1.385   1.421   1.454   1.484   1.508
   1.526   1.537
   1.706   1.700   1.680   1.648   1.604   1.549   1.485   1.414   1.341   1.272
   1.214   1.172   1.151   1.151   1.168   1.196   1.225   1.247   1.255   1.247
   1.225   1.196   1.168   1.151   1.151   1.172   1.214   1.272   1.341   1.414
   1.485   1.549   1.604   1.648   1.680   1.700   1.706   1.700   1.680   1.648
   1.604   1.549   1.485   1.414   1.341   1.272   1.214   1.172   1.151   1.151
   1.168   1.196   1.225   1.247   1.255   1.247   1.225   1.196   1.168   1.151
   1.151   1.172   1.214   1.272   1.341   1.414   1.485   1.549   1.604   1.648
   1.680   1.700
   1.754   1.745   1.717   1.674   1.618   1.549   1.469   1.378   1.282   1.186
   1.101   1.038   1.006   1.008   1.041   1.092   1.147   1.188   1.204   1.188
   1.147   1.092   1.041   1.008   1.006   1.038   1.101   1.186   1.282   1.378
   1.469   1.549   1.618   1.674   1.717   1.745   1.754   1.745   1.717   1.674
   1.618   1.549   1.469   1.378   1.282   1.186   1.101   1.038   1.006   1.008
   1.041   1.092   1.147   1.188   1.204   1.188   1.147   1.092   1.041   1.008
   1.006   1.038   1.101   1.186   1.282   1.378   1.469   1.549   1.618   1.674
   1.717   1.745
   1.560   1.546   1.507   1.452   1.392   1.330   1.266   1.195   1.114   1.025
   0.940   0.871   0.833   0.835   0.877   0.946   1.021   1.078   1.100   1.078
   1.021   0.946   0.877   0.835   0.833   0.871   0.940   1.025   1.114   1.195
   1.266   1.330   1.392   1.452   1.507   1.546   1.560   1.546   1.507   1.452
   1.392   1.330   1.266   1.195   1.114   1.025   0.940   0.871   0.833   0.835
   0.877   0.946   1.021   1.078   1.100   1.078   1.021   0.946   0.877   0.835
   0.833   0.871   0.940   1.025   1.114   1.195   1.266   1.330   1.392   1.452
   1.507   1.546
   1.186   1.161   1.099   1.024   0.961   0.923   0.903   0.886   0.859   0.813
   0.755   0.699   0.661   0.657   0.692   0.758   0.835   0.897   0.921   0.897
   0.835   0.758   0.692   0.657   0.661   0.699   0.755   0.813   0.859   0.886
   0.903   0.923   0.961   1.024   1.099   1.161   1.186   1.161   1.099   1.024
   0.961   0.923   0.903   0.886   0.859   0.813   0.755   0.699   0.661   0.657
   0.692   0.758   0.835   0.897   0.921   0.897   0.835   0.758   0.692   0.657
   0.661   0.699   0.755   0.813   0.859   0.886   0.903   0.923   0.961   1.024
   1.099   1.161
   0.841   0.802   0.706   0.602   0.536   0.524   0.554   0.595   0.622   0.624
   0.604   0.572   0.542   0.530   0.547   0.595   0.660   0.716   0.738   0.716
   0.660   0.595   0.547   0.530   0.542   0.572   0.604   0.624   0.622   0.595
   0.554   0.524   0.536   0.602   0.706   0.802   0.841   0.802   0.706   0.602
   0.536   0.524   0.554   0.595   0.622   0.624   0.604   0.572   0.542   0.530
   0.547   0.595   0.660   0.716   0.738   0.716   0.660   0.595   0.547   0.530
   0.542   0.572   0.604   0.624   0.622   0.595   0.554   0.524   0.536   0.602
   0.706   0.802
   0.711   0.657   0.528   0.402   0.341   0.357   0.418   0.478   0.515   0.529
   0.531   0.526   0.515   0.507   0.516   0.551   0.607   0.660   0.681   0.660
   0.607   0.551   0.516   0.507   0.515   0.526   0.531   0.529   0.515   0.478
   0.418   0.357   0.341   0.402   0.528   0.657   0.711   0.657   0.528   0.402
   0.341   0.357   0.418   0.478   0.515   0.529   0.531   0.526   0.515   0.507
   0.516   0.551   0.607   0.660   0.681   0.660   0.607   0.551   0.516   0.507
   0.515   0.526   0.531   0.529   0.515   0.478   0.418   0.357   0.341   0.402
   0.528   0.657
   0.794   0.730   0.585   0.461   0.430   0.480   0.547   0.574   0.559   0.537
   0.537   0.558   0.582   0.600   0.625   0.670   0.734   0.792   0.816   0.792
   0.734   0.670   0.625   0.600   0.582   0.558   0.537   0.537   0.559   0.574
   0.547   0.480   0.430   0.461   0.585   0.730   0.794   0.730   0.585   0.461
   0.430   0.480   0.547   0.574   0.559   0.537   0.537   0.558   0.582   0.600
   0.625   0.670   0.734   0.792   0.816   0.792   0.734   0.670   0.625   0.600
   0.582   0.558   0.537   0.537   0.559   0.574   0.547   0.480   0.430   0.461
   0.585   0.730
   0.929   0.861   0.718   0.626   0.649   0.741   0.798   0.763   0.669   0.597
   0.591   0.640   0.704   0.763   0.822   0.893   0.970   1.031   1.055   1.031
   0.970   0.893   0.822   0.763   0.704   0.640   0.591   0.597   0.669   0.763
   0.798   0.741   0.649   0.626   0.718   0.861   0.929   0.861   0.718   0.626
   0.649   0.741   0.798   0.763   0.669   0.597   0.591   0.640   0.704   0.763
   0.822   0.893   0.970   1.031   1.055   1.031   0.970   0.893   0.822   0.763
   0.704   0.640   0.591   0.597   0.669   0.763   0.798   0.741   0.649   0.626
   0.718   0.861
   0.972   0.904   0.774   0.721   0.797   0.920   0.959   0.872   0.734   0.650
   0.660   0.733   0.823   0.916   1.015   1.110   1.179   1.212   1.220   1.212
   1.179   1.110   1.015   0.916   0.823   0.733   0.660   0.650   0.734   0.872
   0.959   0.920   0.797   0.721   0.774   0.904   0.972   0.904   0.774   0.721
   0.797   0.920   0.959   0.872   0.734   0.650   0.660   0.733   0.823   0.916
   1.015   1.110   1.179   1.212   1.220   1.212   1.179   1.110   1.015   0.916
   0.823   0.733   0.660   0.650   0.734   0.872   0.959   0.920   0.797   0.721
   0.774   0.904
   0.953   0.889   0.771   0.740   0.832   0.940   0.941   0.831   0.715   0.686
   0.735   0.808   0.887   1.000   1.148   1.266   1.291   1.244   1.213   1.244
   1.291   1.266   1.148   1.000   0.887   0.808   0.735   0.686   0.715   0.831
   0.941   0.940   0.832   0.740   0.771   0.889   0.953   0.889   0.771   0.740
   0.832   0.940   0.941   0.831   0.715   0.686   0.735   0.808   0.887   1.000
   1.148   1.266   1.291   1.244   1.213   1.244   1.291   1.266   1.148   1.000
   0.887   0.808   0.735   0.686   0.715   0.831   0.941   0.940   0.832   0.740
   0.771   0.889
   1.050   0.991   0.885   0.850   0.897   0.919   0.839   0.717   0.675   0.741
   0.823   0.848   0.873   1.006   1.236   1.400   1.365   1.195   1.101   1.195
   1.365   1.400   1.236   1.006   0.873   0.848   0.823   0.741   0.675   0.717
   0.839   0.919   0.897   0.850   0.885   0.991   1.050   0.991   0.885   0.850
   0.897   0.919   0.839   0.717   0.675   0.741   0.823   0.848   0.873   1.006
   1.236   1.400   1.365   1.195   1.101   1.195   1.365   1.400   1.236   1.006
   0.873   0.848   0.823   0.741   0.675   0.717   0.839   0.919   0.897   0.850
   0.885   0.991
   1.389   1.342   1.253   1.197   1.149   1.021   0.811   0.661   0.696   0.850
   0.927   0.853   0.795   0.966   1.330   1.587   1.504   1.202   1.037   1.202
   1.504   1.587   1.330   0.966   0.795   0.853   0.927   0.850   0.696   0.661
   0.811   1.021   1.149   1.197   1.253   1.342   1.389   1.342   1.253   1.197
   1.149   1.021   0.811   0.661   0.696   0.850   0.927   0.853   0.795   0.966
   1.330   1.587   1.504   1.202   1.037   1.202   1.504   1.587   1.330   0.966
   0.795   0.853   0.927   0.850   0.696   0.661   0.811   1.021   1.149   1.197
   1.253   1.342
   1.880   1.848   1.780   1.702   1.551   1.260   0.906   0.709   0.790   0.992
   1.028   0.835   0.697   0.922   1.441   1.818   1.720   1.312   1.087   1.312
   1.720   1.818   1.441   0.922   0.697   0.835   1.028   0.992   0.790   0.709
   0.906   1.260   1.551   1.702   1.780   1.848   1.880   1.848   1.780   1.702
   1.551   1.260   0.906   0.709   0.790   0.992   1.028   0.835   0.697   0.922
   1.441   1.818   1.720   1.312   1.087   1.312   1.720   1.818   1.441   0.922
   0.697   0.835   1.028   0.992   0.790   0.709   0.906   1.260   1.551   1.702
   1.780   1.848
   2.246   2.225   2.174   2.083   1.866   1.468   1.018   0.783   0.879   1.095
   1.091   0.818   0.630   0.896   1.523   1.987   1.892   1.427   1.168   1.427
   1.892   1.987   1.523   0.896   0.630   0.818   1.091   1.095   0.879   0.783
   1.018   1.468   1.866   2.083   2.174   2.225   2.246   2.225   2.174   2.083
   1.866   1.468   1.018   0.783   0.879   1.095   1.091   0.818   0.630   0.896
   1.523   1.987   1.892   1.427   1.168   1.427   1.892   1.987   1.523   0.896
   0.630   0.818   1.091   1.095   0.879   0.783   1.018   1.468   1.866   2.083
   2.174   2.225
 111       5.00   72    0 5.00   18    0
   0.331   0.331   0.331   0.332   0.332   0.333   0.334   0.334   0.335   0.336
   0.337   0.338   0.339   0.339   0.340   0.340   0.341   0.341   0.341   0.341
   0.341   0.340   0.340   0.339   0.339   0.338   0.337   0.336   0.335   0.334
   0.334   0.333   0.332   0.332   0.331   0.331   0.331   0.331   0.331   0.332
   0.332   0.333   0.334   0.334   0.335   0.336   0.337   0.338   0.339   0.339
   0.340   0.340   0.341   0.341   0.341   0.341   0.341   0.340   0.340   0.339
   0.339   0.338   0.337   0.336   0.335   0.334   0.334   0.333   0.332   0.332
   0.331   0.331
   0.323   0.323   0.325   0.327   0.330   0.334   0.338   0.343   0.348   0.353
   0.357   0.362   0.366   0.370   0.373   0.375   0.377   0.378   0.379   0.378
   0.377   0.375   0.373   0.370   0.366   0.362   0.357   0.353   0.348   0.343
   0.338   0.334   0.330   0.327   0.325   0.323   0.323   0.323   0.325   0.327
   0.330   0.334   0.338   0.343   0.348   0.353   0.357   0.362   0.366   0.370
   0.373   0.375   0.377   0.378   0.379   0.378   0.377   0.375   0.373   0.370
   0.366   0.362   0.357   0.353   0.348   0.343   0.338   0.334   0.330   0.327
   0.325   0.323
   0.389   0.389   0.392   0.395   0.398   0.402   0.405   0.407   0.408   0.408
   0.407   0.406   0.406   0.405   0.405   0.406   0.406   0.407   0.407   0.407
   0.406   0.406   0.405   0.405   0.406   0.406   0.407   0.408   0.408   0.407
   0.405   0.402   0.398   0.395   0.392   0.389   0.389   0.389   0.392   0.395
   0.398   0.402   0.405   0.407   0.408   0.408   0.407   0.406   0.406   0.405
   0.405   0.406   0.406   0.407   0.407   0.407   0.406   0.406   0.405   0.405
   0.406   0.406   0.407   0.408   0.408   0.407   0.405   0.402   0.398   0.395
   0.392   0.389
   0.618   0.618   0.620   0.621   0.620   0.614   0.602   0.584   0.560   0.533
   0.503   0.476   0.452   0.433   0.420   0.413   0.409   0.408   0.408   0.408
   0.409   0.413   0.420   0.433   0.452   0.476   0.503   0.533   0.560   0.584
   0.602   0.614   0.620   0.621   0.620   0.618   0.618   0.618   0.620   0.621
   0.620   0.614   0.602   0.584   0.560   0.533   0.503   0.476   0.452   0.433
   0.420   0.413   0.409   0.408   0.408   0.408   0.409   0.413   0.420   0.433
   0.452   0.476   0.503   0.533   0.560   0.584   0.602   0.614   0.620   0.621
   0.620   0.618
   1.007   1.008   1.010   1.009   1.000   0.979   0.942   0.889   0.820   0.742
   0.662   0.588   0.526   0.481   0.453   0.439   0.436   0.436   0.437   0.436
   0.436   0.439   0.453   0.481   0.526   0.588   0.662   0.742   0.820   0.889
   0.942   0.979   1.000   1.009   1.010   1.008   1.007   1.008   1.010   1.009
   1.000   0.979   0.942   0.889   0.820   0.742   0.662   0.588   0.526   0.481
   0.453   0.439   0.436   0.436   0.437   0.436   0.436   0.439   0.453   0.481
   0.526   0.588   0.662   0.742   0.820   0.889   0.942   0.979   1.000   1.009
   1.010   1.008
   1.430   1.432   1.435   1.435   1.424   1.393   1.337   1.251   1.141   1.013
   0.882   0.762   0.664   0.597   0.560   0.549   0.553   0.561   0.564   0.561
   0.553   0.549   0.560   0.597   0.664   0.762   0.882   1.013   1.141   1.251
   1.337   1.393   1.424   1.435   1.435   1.432   1.430   1.432   1.435   1.435
   1.424   1.393   1.337   1.251   1.141   1.013   0.882   0.762   0.664   0.597
   0.560   0.549   0.553   0.561   0.564   0.561   0.553   0.549   0.560   0.597
   0.664   0.762   0.882   1.013   1.141   1.251   1.337   1.393   1.424   1.435
   1.435   1.432
   1.696   1.698   1.703   1.707   1.703   1.680   1.628   1.541   1.421   1.278
   1.128   0.989   0.876   0.799   0.759   0.750   0.760   0.774   0.780   0.774
   0.760   0.750   0.759   0.799   0.876   0.989   1.128   1.278   1.421   1.541
   1.628   1.680   1.703   1.707   1.703   1.698   1.696   1.698   1.703   1.707
   1.703   1.680   1.628   1.541   1.421   1.278   1.128   0.989   0.876   0.799
   0.759   0.750   0.760   0.774   0.780   0.774   0.760   0.750   0.759   0.799
   0.876   0.989   1.128   1.278   1.421   1.541   1.628   1.680   1.703   1.707
   1.703   1.698
   1.667   1.668   1.673   1.684   1.699   1.707   1.694   1.646   1.563   1.455
   1.335   1.218   1.118   1.042   0.995   0.975   0.974   0.982   0.986   0.982
   0.974   0.975   0.995   1.042   1.118   1.218   1.335   1.455   1.563   1.646
   1.694   1.707   1.699   1.684   1.673   1.668   1.667   1.668   1.673   1.684
   1.699   1.707   1.694   1.646   1.563   1.455   1.335   1.218   1.118   1.042
   0.995   0.975   0.974   0.982   0.986   0.982   0.974   0.975   0.995   1.042
   1.118   1.218   1.335   1.455   1.563   1.646   1.694   1.707   1.699   1.684
   1.673   1.668
   1.352   1.351   1.356   1.381   1.432   1.493   1.540   1.553   1.533   1.489
   1.436   1.378   1.314   1.246   1.182   1.133   1.104   1.093   1.090   1.093
   1.104   1.133   1.182   1.246   1.314   1.378   1.436   1.489   1.533   1.553
   1.540   1.493   1.432   1.381   1.356   1.351   1.352   1.351   1.356   1.381
   1.432   1.493   1.540   1.553   1.533   1.489   1.436   1.378   1.314   1.246
   1.182   1.133   1.104   1.093   1.090   1.093   1.104   1.133   1.182   1.246
   1.314   1.378   1.436   1.489   1.533   1.553   1.540   1.493   1.432   1.381
   1.356   1.351
   0.905   0.902   0.911   0.962   1.065   1.193   1.300   1.361   1.384   1.396
   1.414   1.426   1.410   1.353   1.270   1.190   1.135   1.108   1.100   1.108
   1.135   1.190   1.270   1.353   1.410   1.426   1.414   1.396   1.384   1.361
   1.300   1.193   1.065   0.962   0.911   0.902   0.905   0.902   0.911   0.962
   1.065   1.193   1.300   1.361   1.384   1.396   1.414   1.426   1.410   1.353
   1.270   1.190   1.135   1.108   1.100   1.108   1.135   1.190   1.270   1.353
   1.410   1.426   1.414   1.396   1.384   1.361   1.300   1.193   1.065   0.962
   0.911   0.902
   0.531   0.527   0.540   0.625   0.790   0.984   1.130   1.196   1.217   1.250
   1.319   1.391   1.416   1.369   1.274   1.180   1.120   1.096   1.092   1.096
   1.120   1.180   1.274   1.369   1.416   1.391   1.319   1.250   1.217   1.196
   1.130   0.984   0.790   0.625   0.540   0.527   0.531   0.527   0.540   0.625
   0.790   0.984   1.130   1.196   1.217   1.250   1.319   1.391   1.416   1.369
   1.274   1.180   1.120   1.096   1.092   1.096   1.120   1.180   1.274   1.369
   1.416   1.391   1.319   1.250   1.217   1.196   1.130   0.984   0.790   0.625
   0.540   0.527
   0.374   0.362   0.372   0.480   0.696   0.934   1.085   1.121   1.110   1.143
   1.244   1.352   1.390   1.337   1.235   1.147   1.106   1.101   1.104   1.101
   1.106   1.147   1.235   1.337   1.390   1.352   1.244   1.143   1.110   1.121
   1.085   0.934   0.696   0.480   0.372   0.362   0.374   0.362   0.372   0.480
   0.696   0.934   1.085   1.121   1.110   1.143   1.244   1.352   1.390   1.337
   1.235   1.147   1.106   1.101   1.104   1.101   1.106   1.147   1.235   1.337
   1.390   1.352   1.244   1.143   1.110   1.121   1.085   0.934   0.696   0.480
   0.372   0.362
   0.439   0.416   0.406   0.512   0.742   0.983   1.106   1.100   1.071   1.124
   1.254   1.364   1.373   1.288   1.178   1.105   1.081   1.083   1.086   1.083
   1.081   1.105   1.178   1.288   1.373   1.364   1.254   1.124   1.071   1.100
   1.106   0.983   0.742   0.512   0.406   0.416   0.439   0.416   0.406   0.512
   0.742   0.983   1.106   1.100   1.071   1.124   1.254   1.364   1.373   1.288
   1.178   1.105   1.081   1.083   1.086   1.083   1.081   1.105   1.178   1.288
   1.373   1.364   1.254   1.124   1.071   1.100   1.106   0.983   0.742   0.512
   0.406   0.416
   0.621   0.588   0.557   0.642   0.844   1.035   1.098   1.061   1.061   1.176
   1.336   1.406   1.337   1.200   1.093   1.043   1.012   0.979   0.962   0.979
   1.012   1.043   1.093   1.200   1.337   1.406   1.336   1.176   1.061   1.061
   1.098   1.035   0.844   0.642   0.557   0.588   0.621   0.588   0.557   0.642
   0.844   1.035   1.098   1.061   1.061   1.176   1.336   1.406   1.337   1.200
   1.093   1.043   1.012   0.979   0.962   0.979   1.012   1.043   1.093   1.200
   1.337   1.406   1.336   1.176   1.061   1.061   1.098   1.035   0.844   0.642
   0.557   0.588
   0.787   0.758   0.732   0.806   0.958   1.055   1.026   0.967   1.034   1.239
   1.413   1.395   1.211   1.031   0.969   0.965   0.905   0.786   0.722   0.786
   0.905   0.965   0.969   1.031   1.211   1.395   1.413   1.239   1.034   0.967
   1.026   1.055   0.958   0.806   0.732   0.758   0.787   0.758   0.732   0.806
   0.958   1.055   1.026   0.967   1.034   1.239   1.413   1.395   1.211   1.031
   0.969   0.965   0.905   0.786   0.722   0.786   0.905   0.965   0.969   1.031
   1.211   1.395   1.413   1.239   1.034   0.967   1.026   1.055   0.958   0.806
   0.732   0.758
   0.859   0.852   0.876   0.977   1.085   1.070   0.930   0.844   0.981   1.262
   1.415   1.269   0.960   0.776   0.817   0.901   0.808   0.574   0.449   0.574
   0.808   0.901   0.817   0.776   0.960   1.269   1.415   1.262   0.981   0.844
   0.930   1.070   1.085   0.977   0.876   0.852   0.859   0.852   0.876   0.977
   1.085   1.070   0.930   0.844   0.981   1.262   1.415   1.269   0.960   0.776
   0.817   0.901   0.808   0.574   0.449   0.574   0.808   0.901   0.817   0.776
   0.960   1.269   1.415   1.262   0.981   0.844   0.930   1.070   1.085   0.977
   0.876   0.852
   0.845   0.873   0.975   1.132   1.219   1.107   0.860   0.739   0.919   1.242
   1.344   1.066   0.656   0.500   0.677   0.870   0.759   0.421   0.237   0.421
   0.759   0.870   0.677   0.500   0.656   1.066   1.344   1.242   0.919   0.739
   0.860   1.107   1.219   1.132   0.975   0.873   0.845   0.873   0.975   1.132
   1.219   1.107   0.860   0.739   0.919   1.242   1.344   1.066   0.656   0.500
   0.677   0.870   0.759   0.421   0.237   0.421   0.759   0.870   0.677   0.500
   0.656   1.066   1.344   1.242   0.919   0.739   0.860   1.107   1.219   1.132
   0.975   0.873
   0.811   0.865   1.025   1.230   1.312   1.144   0.831   0.683   0.879   1.213
   1.273   0.910   0.443   0.318   0.593   0.864   0.749   0.350   0.130   0.350
   0.749   0.864   0.593   0.318   0.443   0.910   1.273   1.213   0.879   0.683
   0.831   1.144   1.312   1.230   1.025   0.865   0.811   0.865   1.025   1.230
   1.312   1.144   0.831   0.683   0.879   1.213   1.273   0.910   0.443   0.318
   0.593   0.864   0.749   0.350   0.130   0.350   0.749   0.864   0.593   0.318
   0.443   0.910   1.273   1.213   0.879   0.683   0.831   1.144   1.312   1.230
   1.025   0.865
TEXTURE_INDEX=   1.4186
ERR_CF 220         1078     486   36.56   20.86
ERR_CF 200         1080     524   31.05   23.97
ERR_CF 111         1080     420   27.78   14.86
