TEXEVAL                                                                         
Analysis started on 01-Aug-19 15:14:12                                          
 LMAX=14LFMAX= 3 CUBIC ANORTHIC
 220      5.00 5.00
 200      5.00 5.00
 111      5.00 5.00
 220       5.00   72    0 5.00   15    0
   6.932   6.932   6.932   6.932   6.932   6.932   6.932   6.932   6.932   6.932
   6.932   6.932   6.932   6.932   6.932   6.932   6.932   6.932   6.932   6.932
   6.932   6.932   6.932   6.932   6.932   6.932   6.932   6.932   6.932   6.932
   6.932   6.932   6.932   6.932   6.932   6.932   6.932   6.932   6.932   6.932
   6.932   6.932   6.932   6.932   6.932   6.932   6.932   6.932   6.932   6.932
   6.932   6.932   6.932   6.932   6.932   6.932   6.932   6.932   6.932   6.932
   6.932   6.932   6.932   6.932   6.932   6.932   6.932   6.932   6.932   6.932
   6.932   6.932
   6.157   6.013   5.893   5.220   5.565   5.128   5.153   4.955   4.869   4.740
   4.795   4.227   4.462   4.277   4.206   4.400   4.332   4.078   3.435   3.503
   3.301   3.101   3.055   2.603   2.925   2.732   2.565   2.422   2.462   2.603
   2.443   2.051   2.720   2.546   2.509   2.233   2.309   2.305   2.479   2.732
   2.800   2.760   3.108   3.052   3.549   3.611   4.025   4.368   4.537   4.765
   5.149   5.600   5.767   5.805   6.475   6.774   6.654   7.760   8.086   7.355
   8.817   7.777   8.200   8.006   7.643   7.541   7.675   7.629   8.079   7.573
   6.782   6.342
   2.784   2.255   2.378   1.878   2.197   2.143   2.329   2.002   1.774   2.092
   2.143   2.121   2.253   1.997   1.949   2.430   2.366   2.325   1.713   1.930
   1.566   1.398   1.393   0.990   1.244   1.248   1.108   0.967   0.985   1.084
   0.749   0.771   1.276   1.020   1.030   0.708   1.026   0.990   0.899   1.376
   1.444   1.039   1.349   1.436   1.234   1.647   1.834   2.020   2.315   2.074
   2.698   2.846   2.651   3.248   3.556   3.447   3.173   4.264   4.204   3.705
   4.572   4.087   4.474   3.668   3.500   3.583   3.418   3.319   3.364   2.909
   2.760   2.329
   1.032   0.535   0.790   0.535   0.763   0.864   1.001   0.685   0.507   0.658
   1.101   1.160   1.215   0.910   1.385   1.512   1.252   1.398   1.266   0.859
   0.813   0.686   0.668   0.594   0.553   0.640   0.516   0.297   0.384   0.316
   0.416   0.384   0.526   0.371   0.608   0.371   0.507   0.617   0.489   0.905
   0.676   0.581   0.850   1.124   0.723   0.567   0.836   0.864   0.992   0.814
   1.160   1.298   1.060   1.663   1.653   1.836   1.385   1.694   1.658   1.782
   1.804   1.680   1.794   1.100   1.160   1.370   1.357   1.210   1.242   1.005
   1.060   1.106
   0.318   0.210   0.358   0.556   0.404   0.282   0.467   0.374   0.228   0.222
   0.492   0.705   0.305   0.757   1.024   0.883   0.769   0.973   0.809   0.851
   0.557   0.586   0.670   0.381   0.302   0.427   0.267   0.007   0.076   0.099
   0.291   0.251   0.171   0.190   0.591   0.443   0.145   0.461   0.199   0.592
   0.448   0.609   0.508   0.599   0.396   0.168   0.347   0.450   0.485   0.423
   0.381   0.821   0.575   0.871   0.825   1.206   0.996   0.870   0.792   0.839
   0.798   0.547   0.478   0.190   0.438   0.625   0.520   0.365   0.631   0.434
   0.631   0.656
   0.532   0.239   0.643   0.389   0.469   0.127   0.302   0.380   0.141   0.286
   0.362   0.367   0.544   0.604   0.932   0.582   0.686   0.764   0.380   0.962
   0.554   0.617   0.667   0.469   0.169   0.168   0.365   0.000   0.197   0.266
   0.495   0.176   0.328   0.197   0.309   0.380   0.232   0.595   0.182   0.323
   0.756   0.281   0.412   0.273   0.093   0.371   0.308   0.191   0.343   0.362
   0.260   0.567   0.386   0.708   0.673   0.697   0.903   0.925   0.582   0.399
   0.428   0.393   0.358   0.162   0.317   0.458   0.286   0.245   0.281   0.419
   0.281   0.504
   0.789   0.664   0.635   0.309   0.461   0.539   0.741   0.539   0.469   0.392
   0.705   0.427   0.955   0.468   0.586   0.670   1.067   0.991   0.748   0.907
   0.503   0.705   0.420   0.420   0.176   0.286   0.315   0.000   0.315   0.468
   0.600   0.588   0.712   0.524   0.118   0.204   0.810   0.865   0.330   0.580
   0.970   0.411   0.545   0.239   0.504   0.656   0.775   0.058   0.434   0.538
   0.378   0.907   0.573   0.991   0.831   0.490   0.963   0.970   1.005   0.559
   0.601   0.274   0.364   0.281   0.337   0.462   0.517   0.573   0.286   0.789
   0.453   0.622
   0.629   0.763   0.387   0.715   0.438   0.587   0.704   0.891   0.739   0.387
   0.444   0.444   0.537   0.378   0.658   0.697   1.041   0.898   1.252   0.966
   0.885   0.748   0.244   0.193   0.295   0.715   0.244   0.379   0.345   0.226
   0.184   0.519   0.537   0.757   0.396   0.303   0.805   0.975   0.885   0.984
   0.823   0.739   0.268   0.202   0.435   0.715   0.805   0.160   0.429   0.202
   0.512   0.611   0.587   1.151   0.772   0.554   0.984   0.823   0.728   0.605
   0.748   0.077   0.480   0.193   0.369   0.495   0.462   0.537   0.614   0.882
   0.832   0.512
   0.699   0.227   0.444   0.708   0.861   0.638   0.465   0.636   0.606   0.321
   0.353   0.353   0.587   0.176   1.410   0.851   1.024   0.277   1.094   1.319
   1.145   0.902   0.281   0.598   0.454   0.830   0.281   0.379   0.321   0.486
   0.241   0.057   0.342   1.197   0.739   0.688   0.872   0.819   1.389   1.054
   0.484   0.545   0.057   0.526   0.363   0.463   0.321   0.125   0.566   0.339
   0.321   0.536   0.638   1.298   0.678   0.688   0.625   0.545   0.180   0.739
   0.473   0.095   0.311   0.230   0.648   0.404   0.209   0.342   0.606   1.075
   0.779   0.627
   0.824   0.377   1.276   0.580   0.961   0.612   0.414   0.156   0.731   0.095
   0.428   0.352   0.536   0.680   1.357   1.203   1.704   0.226   1.748   2.782
   1.218   1.279   1.063   1.052   0.504   0.475   0.156   0.000   0.169   0.763
   0.443   0.486   0.443   1.675   1.369   1.218   1.780   1.474   1.008   1.657
   0.760   0.367   0.033   0.702   0.339   0.335   0.095   0.453   0.339   0.414
   0.095   0.915   0.687   1.826   0.853   0.915   0.775   1.049   0.230   0.839
   0.169   0.095   0.183   0.156   0.523   0.655   0.183   0.367   0.278   0.947
   1.005   0.401
   0.823   1.558   1.769   0.634   1.181   0.150   0.124   0.000   0.597   0.000
   0.150   0.124   0.596   0.825   0.956   1.578   2.805   2.255   3.127   2.884
   1.843   2.691   1.617   1.427   0.226   1.255   0.427   0.521   0.596   0.301
   0.464   0.692   0.559   2.371   2.654   2.691   3.164   3.446   2.613   2.692
   2.068   0.860   0.804   0.917   0.521   0.540   0.333   0.974   0.000   0.784
   0.616   1.069   0.841   2.240   1.445   0.692   1.201   2.484   0.596   0.710
   0.074   0.616   0.860   0.239   0.898   0.377   0.483   0.577   0.427   0.634
   1.314   0.616
   2.540   3.200   3.075   1.890   1.900   0.865   0.108   0.519   0.202   0.000
   0.000   0.339   0.521   0.318   1.408   1.879   3.534   4.394   3.398   2.319
   2.529   3.146   1.229   0.898   1.096   1.354   0.427   0.521   0.521   0.173
   0.873   0.758   1.083   2.790   2.727   3.723   3.932   3.523   5.369   3.231
   2.444   1.344   2.246   0.789   1.271   0.296   0.333   0.925   0.634   0.998
   1.596   1.596   1.942   2.623   2.319   0.642   1.502   3.325   2.194   0.621
   0.634   1.135   0.710   0.527   1.187   0.288   0.737   1.062   1.408   1.775
   2.729   2.865
   5.472   4.875   4.624   4.414   2.162   2.081   0.229   0.519   0.058   0.469
   0.000   0.758   0.469   1.239   2.196   1.898   3.302   3.580   2.773   2.393
   3.105   3.172   1.287   0.917   1.565   1.388   0.768   0.917   1.215   0.493
   1.402   2.630   1.368   1.647   1.898   2.108   4.312   2.576   5.466   3.037
   1.152   1.253   2.657   0.642   1.070   1.124   0.171   1.172   1.402   0.907
   2.196   1.898   2.244   4.000   2.691   1.321   3.389   3.336   2.739   0.758
   0.955   0.989   0.469   0.288   1.056   1.802   0.724   1.850   2.643   4.149
   4.726   4.509
   4.204   3.418   2.260   3.228   1.248   1.215   0.171   0.000   0.000   0.841
   1.130   0.469   0.841   1.628   2.535   0.917   1.514   1.215   1.215   1.066
   2.414   1.961   0.768   0.917   0.469   1.777   2.088   0.917   1.397   0.320
   0.768   2.110   0.619   0.502   1.668   1.640   2.970   1.364   2.591   1.364
   0.171   0.619   1.777   0.469   0.882   1.066   0.543   0.768   0.950   0.801
   1.215   1.478   2.996   3.688   2.495   1.099   2.591   2.224   2.576   0.469
   0.692   0.469   0.469   0.000   0.950   1.514   0.320   1.777   1.663   2.707
   3.268   2.260
   1.008   1.526   0.000   0.392   0.203   0.000   0.493   0.493   0.000   0.628
   1.387   0.493   1.809   0.582   1.320   0.257   0.000   0.493   0.729   0.965
   0.772   0.493   0.000   0.729   0.257   0.818   2.049   0.965   0.439   0.493
   0.493   1.673   0.020   0.439   1.244   1.813   0.561   0.965   0.182   0.493
   0.257   0.000   0.561   0.020   0.561   0.493   0.628   0.257   0.439   0.911
   0.020   1.998   2.079   2.331   2.803   0.182   0.182   2.470   1.766   0.493
   0.628   0.729   0.257   0.020   0.182   0.729   0.020   1.290   0.729   0.493
   0.818   0.020
 200       5.00   72    0 5.00   15    0
   0.904   0.904   0.904   0.904   0.904   0.904   0.904   0.904   0.904   0.904
   0.904   0.904   0.904   0.904   0.904   0.904   0.904   0.904   0.904   0.904
   0.904   0.904   0.904   0.904   0.904   0.904   0.904   0.904   0.904   0.904
   0.904   0.904   0.904   0.904   0.904   0.904   0.904   0.904   0.904   0.904
   0.904   0.904   0.904   0.904   0.904   0.904   0.904   0.904   0.904   0.904
   0.904   0.904   0.904   0.904   0.904   0.904   0.904   0.904   0.904   0.904
   0.904   0.904   0.904   0.904   0.904   0.904   0.904   0.904   0.904   0.904
   0.904   0.904
   0.985   0.963   0.950   0.815   0.863   0.908   0.921   1.030   0.856   0.932
   0.955   0.933   0.853   0.878   0.926   0.898   0.959   0.916   0.809   0.887
   0.813   0.979   0.892   0.949   0.864   0.794   0.876   0.806   0.618   0.888
   0.833   0.808   0.774   0.891   0.682   0.747   0.773   0.824   0.676   0.725
   0.699   0.737   0.867   0.742   0.912   0.812   0.739   0.840   0.921   0.912
   0.903   0.881   0.799   1.045   1.128   0.901   1.087   1.094   1.099   1.063
   1.098   1.063   1.096   1.128   0.912   0.989   1.006   1.142   0.994   0.931
   0.730   1.013
   0.790   0.865   0.743   0.627   0.872   0.782   0.774   0.741   0.752   0.718
   0.825   0.842   0.743   0.984   0.733   0.844   0.846   0.972   0.787   0.889
   0.923   0.802   0.922   0.901   0.730   0.842   0.740   0.697   0.598   0.901
   0.834   0.739   0.701   0.866   0.623   0.715   0.718   0.668   0.653   0.728
   0.538   0.774   0.703   0.766   0.830   0.817   0.755   0.682   0.806   0.839
   0.926   0.692   0.847   1.078   1.138   0.882   1.040   1.002   1.078   0.999
   1.013   0.942   0.907   1.070   0.868   0.893   0.956   0.981   0.924   0.732
   0.690   0.824
   0.769   0.753   0.696   0.483   0.714   0.664   0.683   0.502   0.718   0.505
   0.775   0.597   0.705   1.013   0.741   0.893   0.835   1.019   0.899   1.173
   1.102   1.017   1.153   1.135   0.673   0.858   0.661   0.702   0.648   0.788
   0.762   0.626   0.762   0.830   0.782   0.610   0.807   0.674   0.677   0.648
   0.598   0.772   0.804   0.562   0.851   0.807   0.877   0.785   0.753   0.963
   1.064   0.804   0.924   0.908   1.038   0.870   0.969   0.947   0.984   0.934
   1.086   0.979   0.708   0.867   0.762   0.759   0.835   0.724   0.839   0.600
   0.737   0.709
   0.796   0.554   0.657   0.557   0.727   0.655   0.769   0.541   0.719   0.699
   0.903   0.633   0.749   1.022   1.068   1.051   0.883   0.804   1.034   1.066
   0.965   1.042   1.482   1.185   1.028   1.172   1.054   1.137   0.895   0.953
   0.895   0.774   0.966   1.021   1.026   0.652   0.905   0.796   0.830   0.348
   0.943   0.744   0.898   0.548   0.682   0.672   0.886   0.860   0.690   1.140
   1.241   0.969   0.961   0.784   1.075   0.909   1.094   0.963   1.152   0.961
   1.016   0.868   0.740   0.803   0.587   0.791   0.823   0.755   0.912   0.521
   0.751   0.654
   0.899   0.555   0.765   0.602   0.807   0.751   0.948   0.897   1.042   0.960
   1.353   0.933   0.998   0.875   0.970   0.746   0.616   0.611   0.831   0.602
   0.605   0.646   1.201   1.180   1.622   1.742   1.705   1.841   1.662   1.840
   0.937   1.133   1.177   0.893   1.057   0.860   0.787   0.713   0.893   0.591
   0.859   0.876   0.879   1.033   0.804   0.799   1.417   1.314   1.191   1.513
   1.274   1.118   1.075   0.858   0.816   0.844   1.117   1.089   1.088   1.054
   1.081   1.046   0.849   0.766   0.774   1.097   0.943   0.759   0.757   0.636
   0.805   0.417
   0.850   0.581   1.088   0.602   0.571   0.896   1.289   1.713   2.142   1.785
   2.101   1.295   1.269   0.560   0.597   0.312   0.235   0.385   0.452   0.447
   0.436   0.374   0.695   1.331   1.471   2.091   3.001   3.337   3.027   3.172
   1.501   1.419   1.166   0.695   0.752   0.711   0.355   0.560   0.643   0.850
   0.535   1.072   0.933   1.119   1.656   1.326   2.298   2.014   1.611   1.492
   1.114   1.088   0.887   0.705   0.384   0.695   0.835   0.923   0.798   1.124
   1.248   1.285   1.155   1.227   1.026   1.326   1.062   0.674   0.643   0.504
   0.736   0.472
   0.350   0.783   0.608   0.632   0.827   1.111   2.249   3.024   3.149   3.434
   2.529   1.917   1.159   0.656   0.534   0.361   0.411   0.092   0.240   0.318
   0.592   0.489   0.325   0.928   1.443   2.374   4.132   5.542   4.882   4.436
   2.362   1.765   1.342   0.676   0.586   0.515   0.186   0.433   0.592   0.377
   0.725   0.749   0.958   1.372   2.501   2.414   3.376   2.973   1.783   1.284
   0.972   0.779   0.510   0.337   0.254   0.485   0.626   0.485   0.588   1.055
   1.246   1.348   1.656   2.034   1.774   1.483   1.406   0.644   0.727   0.546
   0.644   0.574
   0.098   0.536   0.098   0.645   0.958   1.223   2.543   3.677   4.314   4.841
   3.104   2.440   0.685   0.773   0.412   0.354   0.368   0.000   0.410   0.145
   0.519   0.595   0.027   0.974   1.515   2.195   4.765   6.285   5.214   4.238
   2.093   1.655   0.933   0.703   0.412   0.345   0.322   0.186   0.519   0.277
   0.830   0.316   1.133   1.661   3.307   3.833   5.150   4.473   2.167   1.205
   1.032   0.627   0.186   0.091   0.233   0.436   0.651   0.739   0.512   0.988
   1.141   1.420   2.229   3.703   3.300   2.589   1.490   0.671   0.589   0.741
   0.747   0.424
   0.246   0.100   0.389   0.606   0.663   0.691   1.849   3.616   4.792   4.382
   3.378   2.096   0.835   0.654   0.246   0.331   0.360   0.000   0.388   0.027
   0.179   0.250   0.195   0.729   1.014   1.565   3.736   4.220   3.785   2.446
   1.432   0.852   0.274   0.426   0.098   0.000   0.426   0.053   0.274   0.250
   0.426   0.389   0.871   1.699   3.026   3.471   5.294   4.269   2.220   1.005
   1.119   0.588   0.338   0.005   0.174   0.445   0.501   0.843   0.711   0.710
   0.958   1.632   2.933   6.419   4.794   3.625   1.195   0.568   0.550   0.606
   0.549   0.174
   0.148   0.471   0.290   0.674   0.411   0.233   1.197   2.124   2.624   2.638
   1.886   1.948   0.756   0.542   0.579   0.209   0.530   0.252   0.233   0.317
   0.675   0.013   0.268   0.352   0.757   1.042   1.709   2.031   2.077   0.851
   0.708   0.519   0.352   0.113   0.431   0.013   0.363   0.245   0.100   0.000
   0.292   0.662   0.554   1.507   1.518   2.257   3.149   2.757   1.769   0.601
   0.528   0.650   0.338   0.078   0.133   0.388   0.100   0.423   0.399   0.195
   1.150   1.614   3.187   5.601   4.268   3.007   1.019   0.256   0.769   0.495
   0.280   0.000
   0.410   0.371   0.000   0.477   0.264   0.133   0.431   1.014   0.431   1.378
   0.795   1.643   0.133   0.516   0.695   0.132   0.192   0.252   0.397   0.312
   0.715   0.132   0.264   0.589   0.417   0.417   0.874   1.126   0.742   0.251
   0.133   0.490   0.735   0.059   0.431   0.278   0.119   0.192   0.000   0.410
   0.457   0.855   0.430   0.550   0.782   1.451   1.319   1.716   1.153   0.483
   0.046   0.795   0.000   0.483   0.543   0.192   0.118   0.689   0.424   0.000
   0.861   1.458   1.610   1.935   2.353   1.557   1.995   0.278   1.133   0.252
   0.133   0.118
   0.470   0.148   0.000   0.046   0.517   0.060   0.590   1.027   0.000   1.089
   0.483   0.793   0.590   0.501   0.413   0.444   0.060   0.060   0.264   0.237
   0.282   0.118   0.428   0.839   0.459   0.194   0.264   0.486   0.251   0.118
   0.000   0.267   0.543   0.106   0.237   0.264   0.459   0.502   0.060   0.410
   0.501   0.543   0.118   0.590   0.410   0.483   0.647   0.629   0.720   0.470
   0.046   0.483   0.148   0.410   0.470   0.000   0.709   0.556   0.912   0.325
   0.251   1.085   0.046   0.251   1.438   0.647   1.653   0.501   0.702   0.679
   0.000   0.355
   0.060   0.265   0.686   0.003   0.442   0.291   0.821   0.325   0.344   0.679
   0.230   0.695   1.390   0.581   0.379   0.669   0.291   0.291   0.458   0.237
   0.237   0.117   0.923   0.618   0.644   0.493   0.117   0.148   0.746   0.230
   0.000   0.493   0.291   0.060   0.467   0.000   0.416   0.618   0.177   0.117
   0.353   0.518   0.117   1.618   0.572   0.344   0.237   0.572   0.353   0.291
   0.000   0.000   0.265   0.230   0.291   0.230   1.162   0.000   0.618   0.442
   0.291   0.923   0.230   0.060   1.504   0.581   0.148   0.237   0.117   0.681
   0.458   0.240
   0.135   1.142   0.686   0.003   0.252   0.230   0.663   0.581   0.344   0.000
   0.230   0.742   0.800   0.344   0.514   0.344   0.959   0.230   1.632   0.000
   0.284   0.117   0.686   0.549   0.663   0.776   0.117   0.000   0.686   0.366
   0.729   0.344   0.230   0.432   0.514   0.284   0.003   0.117   0.400   0.117
   1.439   0.458   0.252   1.608   0.856   1.222   0.284   0.572   0.400   0.514
   0.000   0.135   0.117   0.230   0.230   0.366   0.707   0.729   0.117   0.117
   0.663   0.686   0.366   0.135   0.914   0.628   0.000   0.000   0.117   0.003
   0.594   0.435
 111       5.00   72    0 5.00   15    0
   0.065   0.065   0.065   0.065   0.065   0.065   0.065   0.065   0.065   0.065
   0.065   0.065   0.065   0.065   0.065   0.065   0.065   0.065   0.065   0.065
   0.065   0.065   0.065   0.065   0.065   0.065   0.065   0.065   0.065   0.065
   0.065   0.065   0.065   0.065   0.065   0.065   0.065   0.065   0.065   0.065
   0.065   0.065   0.065   0.065   0.065   0.065   0.065   0.065   0.065   0.065
   0.065   0.065   0.065   0.065   0.065   0.065   0.065   0.065   0.065   0.065
   0.065   0.065   0.065   0.065   0.065   0.065   0.065   0.065   0.065   0.065
   0.065   0.065
   0.071   0.057   0.115   0.094   0.085   0.078   0.068   0.075   0.050   0.078
   0.087   0.065   0.054   0.035   0.101   0.073   0.041   0.052   0.085   0.064
   0.052   0.075   0.059   0.066   0.043   0.050   0.109   0.049   0.017   0.092
   0.072   0.085   0.064   0.048   0.053   0.106   0.089   0.049   0.095   0.078
   0.066   0.086   0.107   0.071   0.062   0.083   0.040   0.119   0.046   0.104
   0.101   0.061   0.101   0.130   0.112   0.086   0.053   0.093   0.079   0.096
   0.099   0.099   0.080   0.067   0.147   0.078   0.077   0.085   0.094   0.050
   0.096   0.074
   0.087   0.075   0.081   0.107   0.125   0.136   0.025   0.080   0.055   0.100
   0.076   0.128   0.072   0.090   0.118   0.069   0.040   0.049   0.107   0.144
   0.140   0.127   0.101   0.065   0.068   0.062   0.157   0.096   0.045   0.122
   0.158   0.094   0.067   0.145   0.099   0.137   0.114   0.080   0.073   0.108
   0.084   0.098   0.081   0.069   0.088   0.129   0.077   0.104   0.069   0.131
   0.100   0.067   0.088   0.103   0.122   0.078   0.078   0.088   0.107   0.062
   0.099   0.143   0.104   0.045   0.168   0.089   0.062   0.109   0.088   0.066
   0.092   0.077
   0.137   0.100   0.154   0.151   0.195   0.201   0.088   0.085   0.083   0.130
   0.137   0.139   0.112   0.127   0.186   0.100   0.123   0.129   0.137   0.205
   0.265   0.194   0.217   0.207   0.215   0.221   0.352   0.230   0.201   0.283
   0.248   0.187   0.228   0.298   0.249   0.210   0.215   0.149   0.081   0.221
   0.200   0.160   0.126   0.134   0.142   0.205   0.151   0.167   0.109   0.136
   0.130   0.143   0.117   0.113   0.123   0.132   0.092   0.122   0.123   0.066
   0.117   0.184   0.166   0.110   0.137   0.129   0.144   0.159   0.110   0.123
   0.146   0.113
   0.324   0.296   0.299   0.233   0.286   0.311   0.328   0.225   0.378   0.320
   0.455   0.279   0.248   0.247   0.310   0.244   0.269   0.207   0.285   0.334
   0.437   0.399   0.463   0.480   0.579   0.785   1.006   0.865   0.898   1.042
   0.784   0.809   0.573   0.569   0.482   0.472   0.487   0.408   0.287   0.431
   0.454   0.248   0.434   0.382   0.384   0.423   0.404   0.457   0.303   0.309
   0.293   0.302   0.330   0.201   0.205   0.348   0.160   0.192   0.145   0.192
   0.238   0.297   0.224   0.199   0.225   0.210   0.278   0.282   0.234   0.318
   0.287   0.231
   0.640   0.725   0.609   0.610   0.828   1.007   1.193   1.363   1.599   1.515
   1.303   1.018   0.798   0.980   0.537   0.664   0.526   0.601   0.590   0.435
   0.732   0.806   1.002   1.420   1.700   2.419   3.013   3.788   3.343   3.221
   2.407   2.003   1.423   0.978   0.887   0.869   0.815   0.928   0.692   0.742
   0.905   0.738   1.027   1.296   1.398   1.533   1.846   1.608   1.411   1.053
   0.669   0.596   0.650   0.435   0.431   0.519   0.389   0.433   0.352   0.612
   0.585   0.756   0.519   0.691   0.851   0.798   0.632   0.685   0.800   0.688
   0.603   0.596
   1.010   1.408   1.231   1.414   1.687   2.431   3.404   3.926   4.575   4.637
   3.311   2.520   1.962   1.592   1.053   1.050   0.855   1.020   0.777   0.752
   0.973   1.208   1.384   2.238   3.027   4.341   4.926   6.276   5.641   4.740
   3.597   2.501   1.712   1.295   1.069   1.010   0.878   0.979   0.920   0.970
   1.160   1.430   1.727   2.457   3.118   3.689   4.817   4.560   3.702   2.717
   1.438   1.324   0.996   0.759   0.765   0.859   1.011   0.931   0.734   1.230
   1.427   2.135   2.001   2.723   2.411   2.434   1.860   1.644   1.695   1.407
   1.179   1.156
   0.931   1.510   1.596   1.623   1.988   2.900   4.308   5.072   6.675   5.906
   4.630   3.363   2.375   1.446   1.216   0.894   0.807   0.831   0.755   0.885
   0.787   0.867   1.239   1.727   2.465   3.541   4.087   4.869   4.576   3.532
   2.573   1.630   1.242   1.130   0.662   0.842   0.566   0.510   0.774   0.805
   0.823   1.305   1.586   2.719   3.448   4.394   5.969   5.293   4.454   3.414
   2.090   1.584   1.217   1.040   0.931   1.034   1.226   1.250   1.126   1.755
   2.436   3.756   4.663   5.398   4.565   4.079   3.088   2.214   2.171   1.723
   1.232   1.246
   0.714   0.926   1.151   1.141   1.439   1.966   2.740   3.228   4.601   3.669
   3.165   2.429   1.495   1.042   0.747   0.931   0.465   0.411   0.365   0.585
   0.601   0.314   0.734   0.764   1.146   1.661   2.399   2.848   2.340   1.808
   1.056   0.847   0.857   0.583   0.278   0.416   0.296   0.360   0.480   0.468
   0.583   0.775   0.972   1.786   2.056   2.850   3.654   3.170   2.904   2.040
   1.458   1.054   0.952   0.908   0.595   0.547   0.967   1.010   1.162   1.718
   2.183   3.350   4.691   5.261   4.538   3.342   2.448   1.702   1.407   1.229
   0.847   0.831
   0.512   0.458   0.698   0.828   0.891   1.063   1.305   1.527   2.029   1.850
   1.243   1.326   0.850   0.907   0.590   0.706   0.433   0.101   0.244   0.501
   0.635   0.326   0.384   0.473   0.774   1.053   1.466   1.798   1.437   1.253
   0.684   0.690   0.537   0.255   0.201   0.325   0.264   0.416   0.300   0.429
   0.640   0.484   0.726   0.949   1.168   1.519   1.821   1.780   1.617   0.923
   0.569   0.601   0.484   0.462   0.415   0.219   0.757   0.556   0.687   0.903
   1.117   1.709   2.444   2.623   2.409   1.427   1.228   0.902   0.577   0.739
   0.690   0.444
   0.380   0.214   0.491   0.375   0.613   0.929   0.807   1.112   1.345   1.367
   0.984   0.863   0.535   0.674   0.685   0.330   0.397   0.147   0.233   0.347
   0.419   0.446   0.385   0.502   0.624   0.779   0.896   1.195   1.001   1.035
   0.652   0.613   0.541   0.385   0.663   0.341   0.347   0.280   0.402   0.430
   0.386   0.313   0.447   0.774   0.912   1.151   1.528   1.223   0.807   0.729
   0.435   0.496   0.424   0.208   0.424   0.330   0.313   0.397   0.336   0.474
   0.458   0.718   1.345   1.173   1.340   0.729   0.790   0.397   0.674   0.341
   0.447   0.153
   0.258   0.513   0.188   0.326   0.416   0.777   0.853   0.867   1.130   1.067
   1.109   0.901   0.292   0.319   0.555   0.306   0.160   0.257   0.318   0.236
   0.437   0.258   0.319   0.451   0.645   0.859   0.749   1.192   0.548   0.846
   0.396   0.700   0.396   0.534   0.569   0.139   0.243   0.375   0.472   0.181
   0.105   0.188   0.222   0.382   0.444   1.261   1.026   1.185   0.354   0.970
   0.555   0.603   0.610   0.278   0.465   0.306   0.077   0.513   0.326   0.465
   0.236   0.596   0.887   1.019   1.109   0.728   0.631   0.368   0.541   0.278
   0.292   0.049
   0.172   0.593   0.344   0.318   0.214   0.299   0.890   0.646   1.029   0.812
   0.706   1.169   0.317   0.360   0.692   0.422   0.082   0.110   0.359   0.229
   0.708   0.434   0.360   0.420   0.387   0.881   0.524   0.932   0.482   0.593
   0.413   0.734   0.238   0.377   0.135   0.247   0.041   0.630   0.386   0.091
   0.125   0.041   0.204   0.388   0.204   1.089   0.961   1.160   0.482   0.845
   0.524   0.446   0.437   0.561   0.839   0.335   0.125   0.586   0.526   0.264
   0.317   0.637   0.655   1.152   0.837   0.952   0.446   0.552   0.404   0.517
   0.360   0.388
   0.401   0.183   0.478   0.011   0.557   0.205   0.445   0.270   0.718   0.784
   0.390   1.057   0.347   0.390   0.762   0.576   0.379   0.120   0.041   0.095
   0.510   0.434   0.554   0.237   0.230   0.674   0.237   0.587   0.303   0.347
   0.642   0.631   0.194   0.248   0.248   0.292   0.066   0.576   0.172   0.205
   0.150   0.339   0.521   0.521   0.194   0.838   1.002   0.685   0.915   0.500
   0.292   0.194   0.314   0.346   0.915   0.379   0.084   0.532   0.346   0.095
   0.511   0.215   0.696   0.707   0.412   0.740   0.303   0.587   0.259   0.423
   0.215   0.467
   0.619   0.181   0.344   0.011   0.580   0.584   0.011   0.011   0.380   0.710
   0.175   0.544   0.271   0.175   0.284   0.230   0.582   0.290   0.000   0.548
   0.584   0.170   0.508   0.602   0.230   0.284   0.088   0.307   0.096   0.271
   0.582   0.454   0.066   0.290   0.143   0.120   0.382   0.230   0.610   0.216
   0.235   0.582   0.490   0.418   0.162   0.838   0.710   0.584   0.782   0.454
   0.120   0.309   0.766   0.096   0.416   0.290   0.023   0.230   0.000   0.011
   0.362   0.243   0.783   0.474   0.235   0.175   0.344   0.380   0.000   0.657
   0.463   0.216
  4  0      1.6467413E-01  0.0000000E+00
  4  1     -9.5727341E-02 -1.7988627E-02
  4  2     -1.4283626E-02  7.3216303E-02
  4  3      1.2820973E-02 -1.7692778E-02
  4  4     -1.0678517E+00  2.1541084E-02
  6  0      3.4941790E+00  0.0000000E+00
  6  1      4.6295704E-01  3.3304410E-01
  6  2     -2.2014546E-01 -7.2999876E-02
  6  3     -2.8776767E-01  3.4544059E-01
  6  4      2.0822043E+00 -2.1710152E-01
  6  5      1.9322036E-01  1.4127175E-01
  6  6      1.1568549E-01 -1.1812905E-01
  8  0      1.7887876E+00  0.0000000E+00
  8  1      3.9394239E-01  3.5483903E-01
  8  2     -1.4449964E-01  8.5364754E-02
  8  3      1.5768672E-01 -3.8178230E-01
  8  4     -1.5939599E+00  9.6782274E-02
  8  5     -2.1839815E-01 -1.7321329E-01
  8  6      6.0562739E-02 -1.0298274E-01
  8  7     -1.1086612E-01  2.9680105E-03
  8  8      9.9032406E-01 -2.6251972E-01
 10  0      5.5086330E-01  0.0000000E+00
 10  1      4.0403040E-02  7.7529479E-02
 10  2      9.6270588E-02  6.6765263E-02
 10  3      3.0283613E-01 -2.9761435E-01
 10  4     -1.2513682E+00  1.5952796E-01
 10  5     -2.8494421E-01 -1.5736309E-01
 10  6      2.4839566E-02 -1.2929859E-02
 10  7     -3.2110277E-02  6.4667720E-02
 10  8      1.4393338E-01 -3.2146299E-02
 10  9     -1.3471042E-02  1.1654474E-01
 10 10     -2.1381747E-01  1.5855562E-01
 12  0     -8.4256246E-01  2.6429262E+00  0.0000000E+00  0.0000000E+00
 12  1     -2.6889754E-01  8.1028158E-01 -2.2976672E-01  4.8349517E-01
 12  2      1.1862590E-01 -3.9357310E-01 -8.4327661E-02  5.6764905E-02
 12  3      2.5166901E-02 -4.0522949E-01  7.1102845E-02  3.3156534E-01
 12  4      1.3028592E-01  9.3057554E-01  7.6502911E-02 -8.5449113E-02
 12  5      4.0825052E-02  3.8635967E-01  7.1063559E-02  2.7715581E-01
 12  6      2.0439728E-02 -6.5923823E-02 -7.4367088E-02  6.7085124E-02
 12  7     -1.8015630E-01 -2.3158160E-01  3.5646535E-01  3.2677360E-01
 12  8      1.0416849E+00  9.5489953E-01 -2.5875651E-01 -1.8421679E-01
 12  9      2.1093682E-01  2.1064679E-01  1.0487480E-01  8.0813820E-02
 12 10     -6.9688256E-02  1.1497407E-01  1.9245936E-01 -1.1615772E-01
 12 11     -1.0551600E-01  1.0737679E-01  5.9615271E-02  1.7521057E-01
 12 12      2.2657216E-01 -2.0715688E-02  4.2173729E-02  5.5416344E-03
 14  0      7.6717159E-01  0.0000000E+00
 14  1      3.6526404E-01  3.0092907E-01
 14  2      6.5658920E-03  1.3929784E-01
 14  3      4.2510183E-02 -2.2574083E-01
 14  4     -5.4351751E-01  4.7739771E-02
 14  5      1.7454822E-02 -1.6257039E-01
 14  6     -2.9308974E-02 -9.1257376E-02
 14  7      1.5589584E-01 -2.9484986E-01
 14  8     -6.5521932E-01  8.4038899E-02
 14  9     -1.4115947E-01 -5.4234145E-02
 14 10     -8.0039000E-04 -1.6306197E-01
 14 11     -1.5719797E-01  1.8095906E-01
 14 12      9.0348189E-02 -6.2401249E-02
 14 13     -1.4909446E-01  6.9486483E-02
 14 14      2.0568381E-01 -1.1891543E-01
 220       5.00   72    0 5.00   18    0
   5.791   5.760   5.725   5.689   5.650   5.610   5.568   5.525   5.481   5.437
   5.391   5.346   5.300   5.255   5.210   5.166   5.123   5.081   5.040   5.002
   4.966   4.932   4.900   4.872   4.847   4.826   4.808   4.794   4.784   4.779
   4.778   4.781   4.789   4.801   4.818   4.839   4.864   4.893   4.927   4.963
   5.004   5.047   5.093   5.142   5.192   5.244   5.297   5.350   5.404   5.457
   5.509   5.560   5.609   5.656   5.700   5.740   5.778   5.811   5.840   5.865
   5.886   5.902   5.913   5.920   5.922   5.920   5.913   5.902   5.887   5.868
   5.846   5.820
   4.804   4.727   4.648   4.569   4.490   4.411   4.332   4.254   4.176   4.097
   4.017   3.937   3.855   3.771   3.685   3.597   3.508   3.418   3.327   3.237
   3.148   3.062   2.979   2.901   2.830   2.765   2.709   2.662   2.624   2.597
   2.581   2.576   2.582   2.600   2.629   2.670   2.722   2.784   2.858   2.941
   3.034   3.137   3.248   3.366   3.492   3.624   3.760   3.900   4.043   4.186
   4.328   4.466   4.600   4.726   4.843   4.950   5.044   5.125   5.191   5.242
   5.277   5.298   5.304   5.296   5.275   5.242   5.200   5.148   5.089   5.024
   4.954   4.881
   2.599   2.522   2.451   2.387   2.329   2.278   2.235   2.197   2.164   2.135
   2.106   2.075   2.040   1.997   1.945   1.882   1.808   1.724   1.630   1.530
   1.425   1.318   1.213   1.112   1.018   0.933   0.859   0.798   0.749   0.713
   0.691   0.681   0.683   0.698   0.723   0.760   0.807   0.864   0.930   1.004
   1.088   1.179   1.278   1.386   1.503   1.629   1.765   1.910   2.064   2.226
   2.392   2.558   2.722   2.879   3.023   3.150   3.258   3.343   3.403   3.438
   3.449   3.436   3.403   3.352   3.287   3.212   3.128   3.039   2.949   2.858
   2.768   2.682
   0.671   0.632   0.599   0.573   0.556   0.549   0.557   0.579   0.616   0.665
   0.723   0.782   0.835   0.875   0.896   0.893   0.866   0.815   0.743   0.655
   0.556   0.452   0.348   0.249   0.159   0.081   0.020  -0.026  -0.055  -0.069
  -0.070  -0.062  -0.046  -0.025   0.001   0.031   0.065   0.102   0.140   0.177
   0.211   0.242   0.269   0.295   0.323   0.359   0.408   0.474   0.561   0.669
   0.794   0.932   1.075   1.215   1.343   1.450   1.532   1.582   1.601   1.587
   1.546   1.482   1.402   1.312   1.218   1.126   1.039   0.959   0.887   0.822
   0.765   0.715
   0.017   0.017   0.010  -0.005  -0.021  -0.033  -0.029  -0.003   0.053   0.140
   0.251   0.376   0.499   0.605   0.682   0.723   0.727   0.697   0.640   0.565
   0.479   0.388   0.296   0.210   0.133   0.072   0.033   0.017   0.024   0.049
   0.087   0.129   0.170   0.206   0.238   0.268   0.298   0.328   0.356   0.376
   0.379   0.361   0.318   0.255   0.180   0.105   0.045   0.012   0.016   0.058
   0.134   0.235   0.349   0.462   0.561   0.635   0.676   0.679   0.642   0.571
   0.475   0.366   0.256   0.158   0.080   0.025  -0.008  -0.021  -0.020  -0.012
   0.000   0.011
   0.395   0.410   0.401   0.367   0.311   0.244   0.184   0.149   0.158   0.217
   0.321   0.455   0.594   0.714   0.798   0.836   0.831   0.794   0.738   0.675
   0.610   0.546   0.479   0.410   0.342   0.285   0.250   0.246   0.276   0.332
   0.401   0.468   0.521   0.558   0.582   0.604   0.632   0.671   0.717   0.757
   0.778   0.763   0.705   0.605   0.476   0.341   0.222   0.143   0.114   0.137
   0.203   0.297   0.401   0.499   0.578   0.627   0.639   0.607   0.532   0.421
   0.287   0.153   0.040  -0.034  -0.060  -0.040   0.016   0.091   0.172   0.247
   0.311   0.361
   0.800   0.813   0.806   0.766   0.691   0.585   0.471   0.376   0.324   0.331
   0.395   0.496   0.608   0.702   0.756   0.764   0.733   0.679   0.624   0.580
   0.552   0.531   0.502   0.453   0.385   0.310   0.250   0.227   0.250   0.311
   0.388   0.457   0.501   0.517   0.517   0.517   0.535   0.576   0.637   0.703
   0.755   0.774   0.747   0.671   0.559   0.437   0.333   0.275   0.274   0.326
   0.414   0.516   0.612   0.690   0.748   0.782   0.787   0.755   0.680   0.564
   0.424   0.287   0.186   0.146   0.174   0.261   0.381   0.505   0.611   0.689
   0.740   0.775
   0.627   0.641   0.656   0.651   0.610   0.533   0.435   0.344   0.283   0.267
   0.297   0.362   0.442   0.515   0.565   0.582   0.567   0.532   0.493   0.468
   0.461   0.463   0.452   0.408   0.324   0.215   0.113   0.053   0.053   0.104
   0.178   0.244   0.284   0.297   0.299   0.307   0.326   0.355   0.386   0.414
   0.435   0.445   0.435   0.400   0.341   0.273   0.220   0.209   0.250   0.334
   0.435   0.525   0.588   0.623   0.643   0.660   0.675   0.672   0.634   0.549
   0.430   0.306   0.217   0.195   0.245   0.350   0.473   0.577   0.637   0.653
   0.642   0.627
   0.288   0.308   0.330   0.338   0.322   0.285   0.241   0.205   0.186   0.188
   0.212   0.260   0.339   0.450   0.583   0.717   0.820   0.872   0.869   0.827
   0.769   0.709   0.640   0.547   0.418   0.263   0.119   0.028   0.014   0.069
   0.163   0.260   0.349   0.439   0.542   0.651   0.734   0.754   0.693   0.572
   0.433   0.322   0.256   0.222   0.198   0.170   0.148   0.154   0.206   0.298
   0.400   0.476   0.508   0.500   0.481   0.476   0.492   0.509   0.499   0.440
   0.339   0.227   0.146   0.123   0.160   0.236   0.314   0.363   0.371   0.346
   0.311   0.287
   0.674   0.684   0.633   0.531   0.410   0.306   0.244   0.230   0.247   0.273
   0.303   0.359   0.481   0.701   1.016   1.373   1.689   1.884   1.917   1.805
   1.603   1.373   1.152   0.943   0.734   0.524   0.342   0.235   0.232   0.327
   0.483   0.667   0.877   1.135   1.448   1.769   2.000   2.040   1.851   1.492
   1.084   0.746   0.539   0.444   0.402   0.364   0.321   0.302   0.343   0.453
   0.601   0.738   0.819   0.838   0.816   0.787   0.764   0.733   0.671   0.566
   0.434   0.311   0.231   0.207   0.227   0.267   0.308   0.345   0.389   0.450
   0.530   0.614
   2.064   2.037   1.816   1.463   1.075   0.749   0.539   0.449   0.437   0.457
   0.491   0.572   0.765   1.120   1.632   2.216   2.736   3.059   3.111   2.908
   2.536   2.110   1.713   1.375   1.081   0.817   0.602   0.484   0.505   0.662
   0.909   1.204   1.549   1.982   2.515   3.066   3.470   3.559   3.267   2.686
   2.014   1.445   1.078   0.890   0.789   0.698   0.602   0.547   0.600   0.790
   1.085   1.403   1.658   1.801   1.834   1.785   1.676   1.510   1.287   1.029
   0.785   0.607   0.521   0.513   0.546   0.589   0.649   0.761   0.961   1.254
   1.595   1.896
   3.659   3.585   3.183   2.563   1.887   1.300   0.889   0.660   0.567   0.551
   0.587   0.700   0.953   1.387   1.984   2.643   3.214   3.560   3.605   3.362
   2.923   2.414   1.943   1.555   1.236   0.956   0.720   0.584   0.612   0.812
   1.126   1.486   1.880   2.359   2.958   3.602   4.099   4.235   3.922   3.261
   2.486   1.823   1.383   1.135   0.981   0.840   0.706   0.647   0.754   1.075
   1.570   2.124   2.598   2.900   3.007   2.945   2.745   2.423   2.001   1.538
   1.129   0.860   0.758   0.783   0.863   0.957   1.087   1.320   1.714   2.263
   2.874   3.392
   4.250   4.150   3.681   2.972   2.201   1.521   1.019   0.707   0.551   0.505
   0.544   0.680   0.941   1.337   1.830   2.330   2.737   2.970   2.991   2.809
   2.473   2.068   1.687   1.384   1.150   0.938   0.732   0.583   0.578   0.753
   1.050   1.367   1.661   1.987   2.422   2.941   3.381   3.532   3.293   2.747
   2.101   1.553   1.188   0.975   0.832   0.699   0.583   0.556   0.713   1.114
   1.722   2.403   2.987   3.356   3.488   3.425   3.201   2.823   2.303   1.711
   1.178   0.829   0.709   0.763   0.896   1.048   1.237   1.539   2.018   2.664
   3.370   3.958
   3.345   3.259   2.889   2.348   1.773   1.271   0.892   0.644   0.511   0.473
   0.515   0.635   0.828   1.072   1.318   1.512   1.628   1.679   1.684   1.637
   1.511   1.317   1.116   0.986   0.939   0.910   0.826   0.698   0.623   0.682
   0.847   1.011   1.100   1.157   1.292   1.547   1.823   1.951   1.833   1.519
   1.152   0.860   0.688   0.609   0.570   0.534   0.494   0.493   0.614   0.936
   1.450   2.036   2.523   2.801   2.876   2.821   2.677   2.411   1.987   1.446
   0.928   0.581   0.469   0.537   0.682   0.835   1.003   1.246   1.618   2.118
   2.666   3.122
   1.631   1.586   1.406   1.168   0.951   0.794   0.698   0.648   0.635   0.651
   0.685   0.727   0.773   0.807   0.798   0.724   0.612   0.538   0.555   0.633
   0.677   0.628   0.549   0.569   0.748   0.992   1.132   1.084   0.924   0.789
   0.735   0.696   0.590   0.437   0.343   0.382   0.505   0.590   0.557   0.435
   0.313   0.262   0.296   0.399   0.538   0.664   0.719   0.689   0.647   0.715
   0.950   1.272   1.526   1.618   1.589   1.548   1.536   1.481   1.290   0.965
   0.627   0.417   0.382   0.459   0.550   0.606   0.643   0.706   0.838   1.045
   1.296   1.519
   0.326   0.321   0.282   0.266   0.323   0.456   0.632   0.816   0.977   1.083
   1.094   1.002   0.843   0.667   0.498   0.332   0.184   0.115   0.168   0.293
   0.362   0.302   0.207   0.286   0.653   1.185   1.595   1.671   1.436   1.086
   0.788   0.569   0.370   0.181   0.062   0.062   0.136   0.183   0.149   0.073
   0.035   0.093   0.258   0.524   0.851   1.141   1.257   1.129   0.843   0.591
   0.514   0.580   0.641   0.596   0.496   0.461   0.532   0.624   0.631   0.554
   0.499   0.553   0.688   0.793   0.778   0.649   0.475   0.323   0.225   0.192
   0.219   0.280
   0.081   0.098   0.078   0.085   0.189   0.408   0.718   1.071   1.404   1.617
   1.615   1.375   0.995   0.635   0.401   0.291   0.255   0.275   0.354   0.443
   0.434   0.275   0.101   0.173   0.648   1.385   2.011   2.203   1.925   1.406
   0.915   0.575   0.374   0.277   0.284   0.383   0.495   0.520   0.430   0.293
   0.215   0.273   0.493   0.867   1.327   1.715   1.830   1.575   1.069   0.578
   0.311   0.264   0.280   0.233   0.144   0.108   0.155   0.220   0.257   0.330
   0.550   0.924   1.297   1.459   1.325   0.979   0.588   0.270   0.063  -0.038
  -0.043   0.016
   0.518   0.540   0.458   0.361   0.354   0.502   0.809   1.237   1.692   2.012
   2.028   1.689   1.138   0.634   0.361   0.321   0.390   0.465   0.522   0.545
   0.475   0.288   0.105   0.178   0.670   1.454   2.148   2.395   2.116   1.534
   0.954   0.557   0.366   0.344   0.452   0.632   0.782   0.802   0.682   0.511
   0.415   0.482   0.739   1.167   1.670   2.062   2.129   1.786   1.181   0.612
   0.306   0.265   0.331   0.365   0.350   0.327   0.291   0.210   0.135   0.232
   0.641   1.290   1.882   2.108   1.878   1.361   0.818   0.423   0.213   0.166
   0.244   0.392
 200       5.00   72    0 5.00   18    0
   0.634   0.640   0.647   0.654   0.661   0.669   0.677   0.685   0.694   0.702
   0.710   0.718   0.726   0.733   0.739   0.745   0.750   0.754   0.758   0.761
   0.763   0.765   0.766   0.766   0.766   0.765   0.765   0.763   0.762   0.761
   0.759   0.757   0.755   0.753   0.750   0.748   0.744   0.741   0.737   0.733
   0.729   0.724   0.718   0.712   0.706   0.700   0.694   0.687   0.680   0.674
   0.667   0.660   0.654   0.648   0.642   0.636   0.631   0.626   0.622   0.618
   0.615   0.613   0.611   0.610   0.610   0.610   0.611   0.613   0.616   0.619
   0.623   0.628
   0.681   0.688   0.696   0.706   0.718   0.733   0.751   0.773   0.798   0.826
   0.856   0.886   0.915   0.942   0.965   0.982   0.994   0.999   0.996   0.988
   0.973   0.953   0.931   0.907   0.883   0.862   0.844   0.831   0.823   0.821
   0.824   0.832   0.844   0.858   0.872   0.887   0.899   0.908   0.913   0.913
   0.910   0.902   0.891   0.878   0.864   0.849   0.835   0.821   0.809   0.798
   0.788   0.778   0.769   0.760   0.750   0.739   0.727   0.714   0.701   0.688
   0.676   0.666   0.658   0.653   0.650   0.649   0.650   0.654   0.658   0.663
   0.669   0.675
   0.853   0.825   0.793   0.761   0.733   0.715   0.710   0.721   0.748   0.791
   0.846   0.911   0.979   1.045   1.103   1.148   1.175   1.180   1.163   1.125
   1.067   0.995   0.915   0.833   0.756   0.688   0.635   0.601   0.588   0.596
   0.624   0.670   0.729   0.796   0.865   0.930   0.983   1.022   1.043   1.045
   1.032   1.006   0.971   0.935   0.901   0.874   0.858   0.854   0.863   0.882
   0.909   0.940   0.969   0.994   1.009   1.013   1.004   0.984   0.954   0.920
   0.885   0.854   0.831   0.818   0.815   0.823   0.837   0.854   0.869   0.880
   0.881   0.872
   0.974   0.891   0.790   0.687   0.592   0.520   0.475   0.463   0.481   0.529
   0.600   0.690   0.791   0.896   0.994   1.074   1.128   1.146   1.126   1.069
   0.981   0.873   0.756   0.643   0.543   0.461   0.400   0.363   0.351   0.365
   0.408   0.478   0.572   0.683   0.800   0.908   0.994   1.046   1.060   1.035
   0.979   0.901   0.815   0.735   0.670   0.630   0.619   0.639   0.688   0.764
   0.859   0.965   1.069   1.159   1.224   1.255   1.248   1.207   1.137   1.051
   0.962   0.884   0.827   0.799   0.802   0.833   0.884   0.944   1.000   1.039
   1.051   1.029
   0.906   0.788   0.649   0.516   0.412   0.351   0.335   0.352   0.388   0.432
   0.475   0.522   0.577   0.646   0.727   0.810   0.878   0.915   0.909   0.863
   0.791   0.714   0.656   0.631   0.640   0.670   0.702   0.719   0.710   0.682
   0.649   0.635   0.655   0.716   0.807   0.906   0.984   1.019   0.999   0.927
   0.820   0.701   0.592   0.508   0.457   0.437   0.443   0.472   0.524   0.603
   0.710   0.840   0.982   1.117   1.221   1.275   1.268   1.202   1.090   0.953
   0.813   0.692   0.605   0.560   0.561   0.605   0.683   0.781   0.881   0.960
   0.997   0.979
   0.704   0.596   0.482   0.411   0.420   0.517   0.675   0.842   0.961   0.992
   0.929   0.801   0.658   0.552   0.512   0.535   0.593   0.644   0.658   0.634
   0.600   0.606   0.701   0.904   1.196   1.516   1.785   1.929   1.912   1.746
   1.486   1.213   0.998   0.883   0.867   0.912   0.962   0.971   0.918   0.815
   0.701   0.618   0.599   0.645   0.732   0.819   0.867   0.857   0.798   0.724
   0.677   0.687   0.759   0.869   0.979   1.048   1.054   0.996   0.897   0.786
   0.688   0.615   0.565   0.530   0.507   0.498   0.513   0.560   0.632   0.711
   0.765   0.766
   0.555   0.481   0.422   0.463   0.668   1.039   1.504   1.937   2.204   2.217
   1.971   1.543   1.062   0.660   0.422   0.357   0.408   0.485   0.517   0.488
   0.449   0.502   0.743   1.216   1.879   2.598   3.196   3.513   3.463   3.073
   2.463   1.809   1.267   0.932   0.807   0.823   0.877   0.887   0.822   0.718
   0.649   0.695   0.897   1.230   1.606   1.906   2.025   1.918   1.616   1.216
   0.841   0.588   0.495   0.534   0.633   0.719   0.752   0.743   0.735   0.775
   0.881   1.026   1.150   1.191   1.117   0.949   0.744   0.578   0.497   0.502
   0.551   0.582
   0.568   0.514   0.470   0.571   0.929   1.556   2.337   3.058   3.495   3.499
   3.061   2.312   1.476   0.775   0.355   0.237   0.323   0.461   0.518   0.452
   0.338   0.333   0.603   1.237   2.180   3.234   4.119   4.578   4.475   3.855
   2.914   1.927   1.139   0.680   0.541   0.604   0.712   0.749   0.683   0.580
   0.566   0.763   1.226   1.900   2.622   3.177   3.381   3.154   2.557   1.774
   1.028   0.500   0.260   0.258   0.368   0.471   0.515   0.540   0.642   0.906
   1.343   1.859   2.295   2.490   2.362   1.949   1.392   0.873   0.536   0.421
   0.465   0.546
   0.660   0.599   0.500   0.553   0.927   1.660   2.616   3.521   4.081   4.100
   3.564   2.638   1.602   0.741   0.236   0.116   0.260   0.470   0.567   0.478
   0.278   0.157   0.331   0.932   1.920   3.072   4.053   4.548   4.394   3.650
   2.568   1.483   0.674   0.268   0.219   0.367   0.526   0.575   0.497   0.385
   0.394   0.676   1.297   2.187   3.140   3.873   4.138   3.828   3.027   1.987
   1.016   0.357   0.091   0.130   0.286   0.389   0.388   0.372   0.512   0.950
   1.699   2.601   3.382   3.769   3.615   2.968   2.054   1.178   0.585   0.364
   0.428   0.585
   0.664   0.589   0.417   0.366   0.638   1.296   2.210   3.105   3.681   3.742
   3.267   2.416   1.451   0.640   0.158   0.040   0.185   0.409   0.539   0.484
   0.290   0.117   0.169   0.589   1.369   2.323   3.148   3.546   3.367   2.676
   1.729   0.843   0.255   0.032   0.087   0.251   0.377   0.389   0.302   0.204
   0.227   0.501   1.094   1.953   2.889   3.623   3.895   3.585   2.779   1.737
   0.792   0.195   0.019   0.145   0.345   0.425   0.338   0.219   0.298   0.769
   1.655   2.764   3.757   4.286   4.153   3.403   2.303   1.230   0.497   0.228
   0.324   0.546
   0.512   0.443   0.261   0.157   0.312   0.782   1.467   2.151   2.612   2.709
   2.432   1.884   1.235   0.653   0.261   0.103   0.141   0.274   0.389   0.411
   0.339   0.250   0.262   0.473   0.902   1.452   1.934   2.146   1.982   1.500
   0.898   0.405   0.153   0.124   0.198   0.256   0.247   0.192   0.136   0.123
   0.196   0.413   0.828   1.431   2.108   2.659   2.878   2.655   2.047   1.255
   0.546   0.127   0.056   0.222   0.418   0.466   0.328   0.140   0.135   0.505
   1.286   2.307   3.252   3.789   3.718   3.060   2.051   1.042   0.340   0.077
   0.169   0.389
   0.295   0.255   0.150   0.098   0.196   0.462   0.825   1.173   1.414   1.508
   1.460   1.300   1.060   0.779   0.507   0.298   0.184   0.163   0.205   0.273
   0.345   0.412   0.476   0.547   0.643   0.765   0.875   0.901   0.789   0.567
   0.342   0.232   0.262   0.345   0.359   0.253   0.093  -0.007   0.017   0.139
   0.295   0.456   0.652   0.919   1.235   1.511   1.634   1.537   1.236   0.825
   0.438   0.197   0.155   0.264   0.400   0.440   0.349   0.210   0.182   0.402
   0.899   1.569   2.211   2.609   2.610   2.203   1.523   0.807   0.280   0.055
   0.085   0.217
   0.150   0.142   0.147   0.198   0.296   0.402   0.471   0.493   0.502   0.550
   0.658   0.786   0.856   0.812   0.664   0.473   0.306   0.195   0.147   0.170
   0.273   0.430   0.566   0.600   0.510   0.356   0.222   0.148   0.109   0.077
   0.077   0.152   0.293   0.402   0.370   0.188  -0.023  -0.110  -0.014   0.191
   0.381   0.489   0.533   0.562   0.594   0.620   0.628   0.621   0.597   0.540
   0.437   0.315   0.233   0.232   0.296   0.365   0.394   0.391   0.410   0.500
   0.671   0.898   1.135   1.317   1.373   1.255   0.978   0.632   0.336   0.170
   0.126   0.140
   0.146   0.152   0.219   0.333   0.435   0.456   0.373   0.229   0.120   0.131
   0.275   0.475   0.616   0.633   0.562   0.487   0.451   0.420   0.344   0.244
   0.211   0.307   0.473   0.565   0.490   0.300   0.139   0.094   0.128   0.150
   0.129   0.120   0.175   0.259   0.279   0.198   0.086   0.050   0.127   0.256
   0.356   0.405   0.427   0.429   0.378   0.264   0.149   0.126   0.226   0.365
   0.425   0.362   0.245   0.183   0.223   0.333   0.454   0.550   0.608   0.613
   0.553   0.455   0.387   0.404   0.490   0.568   0.563   0.474   0.357   0.267
   0.213   0.175
   0.300   0.296   0.332   0.411   0.493   0.532   0.512   0.464   0.443   0.485
   0.571   0.623   0.566   0.418   0.306   0.363   0.581   0.789   0.792   0.569
   0.309   0.232   0.382   0.601   0.717   0.717   0.727   0.825   0.927   0.873
   0.619   0.303   0.123   0.155   0.317   0.473   0.551   0.552   0.491   0.387
   0.295   0.306   0.458   0.660   0.745   0.626   0.392   0.229   0.235   0.337
   0.388   0.330   0.240   0.229   0.320   0.449   0.547   0.604   0.630   0.603
   0.491   0.321   0.190   0.186   0.293   0.402   0.416   0.340   0.258   0.239
   0.272   0.301
   0.630   0.601   0.525   0.480   0.523   0.675   0.924   1.217   1.477   1.629
   1.611   1.380   0.954   0.471   0.172   0.258   0.696   1.177   1.337   1.068
   0.614   0.353   0.469   0.840   1.230   1.539   1.827   2.125   2.283   2.088
   1.507   0.796   0.322   0.283   0.595   0.998   1.252   1.242   0.986   0.613
   0.346   0.395   0.802   1.358   1.730   1.716   1.390   0.999   0.722   0.557
   0.422   0.310   0.307   0.452   0.654   0.760   0.717   0.612   0.558   0.573
   0.599   0.611   0.661   0.788   0.923   0.919   0.708   0.394   0.178   0.182
   0.356   0.545
   1.136   1.074   0.847   0.629   0.609   0.907   1.508   2.239   2.848   3.128
   2.993   2.469   1.677   0.846   0.293   0.278   0.780   1.434   1.755   1.530
   0.990   0.604   0.675   1.146   1.761   2.350   2.899   3.373   3.572   3.249
   2.395   1.362   0.646   0.536   0.937   1.492   1.837   1.787   1.380   0.846
   0.526   0.702   1.401   2.320   3.003   3.150   2.789   2.171   1.531   0.974
   0.550   0.355   0.474   0.827   1.151   1.200   0.966   0.676   0.574   0.719
   1.006   1.334   1.682   2.016   2.188   2.010   1.457   0.770   0.306   0.269
   0.572   0.943
   1.682   1.597   1.228   0.829   0.709   1.083   1.939   2.996   3.849   4.190
   3.944   3.227   2.242   1.241   0.527   0.366   0.784   1.451   1.865   1.733
   1.219   0.783   0.785   1.240   1.918   2.626   3.298   3.855   4.071   3.696
   2.738   1.587   0.782   0.642   1.062   1.646   1.992   1.910   1.466   0.936
   0.691   1.011   1.899   3.023   3.900   4.189   3.858   3.111   2.190   1.297
   0.633   0.402   0.669   1.215   1.624   1.592   1.188   0.780   0.707   1.027
   1.575   2.181   2.777   3.281   3.486   3.163   2.320   1.303   0.601   0.495
   0.881   1.394
 111       5.00   72    0 5.00   18    0
   0.259   0.257   0.255   0.252   0.250   0.247   0.244   0.241   0.239   0.235
   0.232   0.229   0.225   0.221   0.217   0.213   0.209   0.204   0.199   0.194
   0.189   0.184   0.180   0.175   0.170   0.166   0.162   0.158   0.155   0.153
   0.151   0.149   0.149   0.149   0.150   0.151   0.153   0.156   0.159   0.162
   0.167   0.171   0.176   0.182   0.187   0.193   0.199   0.205   0.211   0.217
   0.222   0.228   0.233   0.238   0.243   0.248   0.252   0.255   0.259   0.261
   0.264   0.265   0.267   0.267   0.268   0.268   0.268   0.267   0.266   0.265
   0.263   0.261
   0.050   0.041   0.032   0.024   0.018   0.013   0.010   0.009   0.010   0.012
   0.015   0.019   0.022   0.025   0.025   0.024   0.020   0.013   0.003  -0.010
  -0.026  -0.044  -0.063  -0.084  -0.104  -0.124  -0.143  -0.160  -0.173  -0.184
  -0.191  -0.195  -0.196  -0.194  -0.189  -0.182  -0.173  -0.163  -0.152  -0.141
  -0.129  -0.117  -0.104  -0.091  -0.077  -0.062  -0.047  -0.031  -0.013   0.004
   0.021   0.038   0.054   0.069   0.082   0.093   0.102   0.109   0.113   0.116
   0.117   0.116   0.114   0.111   0.108   0.103   0.098   0.092   0.085   0.077
   0.069   0.060
  -0.204  -0.226  -0.247  -0.265  -0.279  -0.288  -0.290  -0.286  -0.276  -0.261
  -0.242  -0.222  -0.201  -0.180  -0.161  -0.145  -0.134  -0.128  -0.129  -0.135
  -0.147  -0.164  -0.185  -0.209  -0.235  -0.261  -0.287  -0.310  -0.330  -0.346
  -0.357  -0.362  -0.361  -0.356  -0.346  -0.335  -0.323  -0.312  -0.303  -0.297
  -0.294  -0.292  -0.291  -0.290  -0.286  -0.280  -0.269  -0.255  -0.237  -0.216
  -0.192  -0.168  -0.145  -0.124  -0.107  -0.096  -0.091  -0.092  -0.097  -0.106
  -0.116  -0.126  -0.134  -0.139  -0.142  -0.143  -0.144  -0.145  -0.149  -0.156
  -0.168  -0.185
  -0.153  -0.180  -0.203  -0.217  -0.219  -0.209  -0.189  -0.165  -0.142  -0.124
  -0.113  -0.108  -0.107  -0.105  -0.100  -0.090  -0.074  -0.053  -0.028   0.001
   0.033   0.069   0.107   0.146   0.182   0.210   0.227   0.228   0.213   0.185
   0.149   0.111   0.076   0.048   0.028   0.015   0.006  -0.003  -0.014  -0.027
  -0.041  -0.055  -0.067  -0.076  -0.083  -0.089  -0.094  -0.099  -0.103  -0.105
  -0.103  -0.099  -0.091  -0.084  -0.079  -0.080  -0.090  -0.106  -0.128  -0.152
  -0.174  -0.190  -0.197  -0.194  -0.182  -0.163  -0.141  -0.121  -0.107  -0.103
  -0.110  -0.128
   0.304   0.289   0.301   0.347   0.430   0.539   0.656   0.755   0.812   0.815
   0.760   0.660   0.535   0.412   0.309   0.241   0.213   0.224   0.271   0.352
   0.468   0.620   0.804   1.012   1.223   1.414   1.557   1.630   1.625   1.547
   1.414   1.252   1.089   0.944   0.827   0.740   0.677   0.631   0.601   0.585
   0.588   0.612   0.655   0.709   0.759   0.790   0.789   0.751   0.679   0.587
   0.489   0.400   0.330   0.280   0.247   0.225   0.208   0.195   0.185   0.182
   0.188   0.206   0.233   0.265   0.298   0.329   0.354   0.372   0.379   0.374
   0.356   0.330
   0.919   0.928   1.006   1.173   1.427   1.740   2.059   2.316   2.448   2.420
   2.233   1.923   1.553   1.190   0.889   0.679   0.565   0.537   0.580   0.689
   0.871   1.137   1.495   1.929   2.398   2.840   3.181   3.361   3.351   3.162
   2.840   2.455   2.073   1.745   1.493   1.317   1.201   1.131   1.103   1.123
   1.206   1.359   1.575   1.824   2.058   2.222   2.274   2.195   1.998   1.723
   1.422   1.145   0.927   0.780   0.697   0.666   0.673   0.712   0.784   0.887
   1.016   1.154   1.278   1.366   1.403   1.389   1.334   1.257   1.172   1.091
   1.017   0.956
   1.311   1.326   1.453   1.730   2.164   2.712   3.277   3.735   3.968   3.911
   3.567   3.012   2.367   1.755   1.268   0.945   0.775   0.719   0.737   0.814
   0.970   1.246   1.677   2.262   2.945   3.619   4.150   4.425   4.386   4.054
   3.516   2.896   2.313   1.846   1.521   1.320   1.203   1.142   1.132   1.198
   1.376   1.695   2.145   2.670   3.175   3.547   3.696   3.581   3.230   2.726
   2.180   1.692   1.326   1.098   0.991   0.975   1.031   1.156   1.360   1.644
   1.986   2.335   2.625   2.790   2.798   2.656   2.410   2.123   1.854   1.637
   1.477   1.368
   1.265   1.259   1.362   1.644   2.142   2.815   3.540   4.142   4.453   4.380
   3.935   3.229   2.434   1.716   1.187   0.880   0.753   0.727   0.730   0.733
   0.767   0.908   1.235   1.781   2.497   3.250   3.861   4.169   4.090   3.655
   2.992   2.274   1.653   1.214   0.961   0.842   0.789   0.758   0.749   0.810
   1.008   1.399   1.990   2.711   3.429   3.978   4.218   4.088   3.628   2.967
   2.270   1.681   1.277   1.059   0.983   0.996   1.076   1.244   1.536   1.974
   2.526   3.101   3.572   3.818   3.775   3.463   2.975   2.442   1.980   1.648
   1.445   1.329
   0.899   0.860   0.870   1.031   1.421   2.026   2.725   3.326   3.644   3.576
   3.144   2.477   1.759   1.155   0.763   0.594   0.584   0.633   0.653   0.602
   0.510   0.465   0.574   0.907   1.447   2.075   2.607   2.866   2.762   2.332
   1.725   1.127   0.682   0.442   0.373   0.390   0.412   0.399   0.360   0.351
   0.455   0.750   1.267   1.958   2.687   3.269   3.539   3.421   2.961   2.312
   1.664   1.167   0.883   0.778   0.772   0.793   0.829   0.932   1.184   1.636
   2.264   2.951   3.525   3.818   3.739   3.311   2.666   1.989   1.445   1.112
   0.969   0.927
   0.534   0.485   0.399   0.396   0.583   0.980   1.491   1.948   2.189   2.137
   1.825   1.370   0.916   0.573   0.391   0.360   0.425   0.515   0.565   0.532
   0.424   0.293   0.231   0.319   0.583   0.959   1.305   1.471   1.375   1.057
   0.654   0.324   0.161   0.160   0.244   0.329   0.366   0.344   0.281   0.211
   0.187   0.280   0.550   0.996   1.526   1.980   2.202   2.113   1.758   1.280
   0.847   0.579   0.494   0.526   0.574   0.566   0.507   0.475   0.579   0.892
   1.404   2.008   2.534   2.811   2.739   2.333   1.721   1.097   0.636   0.421
   0.414   0.493
   0.406   0.372   0.255   0.162   0.197   0.389   0.674   0.931   1.056   1.015
   0.855   0.660   0.500   0.401   0.353   0.340   0.352   0.387   0.436   0.474
   0.472   0.419   0.341   0.298   0.347   0.491   0.661   0.753   0.700   0.527
   0.341   0.253   0.293   0.401   0.486   0.503   0.474   0.444   0.426   0.392
   0.326   0.266   0.292   0.460   0.736   1.002   1.131   1.061   0.837   0.572
   0.381   0.322   0.375   0.464   0.504   0.452   0.328   0.207   0.181   0.309
   0.587   0.950   1.289   1.487   1.465   1.215   0.816   0.409   0.133   0.060
   0.159   0.315
   0.451   0.433   0.356   0.291   0.302   0.403   0.544   0.653   0.683   0.644
   0.590   0.568   0.580   0.587   0.543   0.442   0.324   0.247   0.252   0.338
   0.457   0.545   0.565   0.532   0.506   0.541   0.631   0.710   0.712   0.635
   0.555   0.546   0.608   0.654   0.604   0.471   0.356   0.354   0.453   0.551
   0.554   0.475   0.416   0.469   0.623   0.774   0.818   0.730   0.574   0.442
   0.391   0.417   0.475   0.513   0.496   0.422   0.320   0.234   0.198   0.223
   0.300   0.407   0.523   0.619   0.654   0.598   0.458   0.291   0.176   0.169
   0.260   0.380
   0.418   0.390   0.373   0.396   0.473   0.584   0.689   0.746   0.744   0.713
   0.700   0.723   0.753   0.735   0.636   0.475   0.308   0.191   0.158   0.215
   0.334   0.465   0.552   0.573   0.564   0.593   0.687   0.798   0.844   0.791
   0.693   0.629   0.602   0.534   0.358   0.126  -0.016   0.040   0.249   0.449
   0.518   0.487   0.493   0.630   0.848   1.000   0.987   0.837   0.665   0.564
   0.545   0.557   0.549   0.506   0.443   0.386   0.357   0.368   0.407   0.444
   0.449   0.425   0.409   0.435   0.496   0.551   0.560   0.521   0.469   0.438
   0.433   0.433
   0.213   0.148   0.160   0.248   0.376   0.507   0.610   0.668   0.685   0.685
   0.692   0.704   0.688   0.621   0.519   0.437   0.412   0.428   0.435   0.410
   0.379   0.376   0.394   0.398   0.386   0.406   0.497   0.626   0.694   0.643
   0.517   0.414   0.365   0.301   0.151  -0.043  -0.138  -0.042   0.169   0.315
   0.302   0.233   0.298   0.569   0.912   1.105   1.045   0.823   0.613   0.518
   0.513   0.518   0.492   0.447   0.407   0.383   0.378   0.403   0.460   0.527
   0.568   0.571   0.565   0.584   0.628   0.661   0.654   0.611   0.556   0.499
   0.424   0.321
   0.126   0.024   0.029   0.113   0.211   0.280   0.316   0.339   0.366   0.407
   0.461   0.505   0.503   0.460   0.448   0.564   0.828   1.122   1.271   1.190
   0.949   0.698   0.522   0.400   0.291   0.213   0.219   0.303   0.379   0.375
   0.326   0.340   0.458   0.595   0.640   0.591   0.566   0.639   0.722   0.651
   0.389   0.121   0.091   0.353   0.703   0.867   0.756   0.509   0.332   0.307
   0.372   0.444   0.506   0.579   0.646   0.647   0.555   0.421   0.333   0.337
   0.410   0.503   0.586   0.641   0.646   0.585   0.484   0.408   0.397   0.419
   0.394   0.281
   0.637   0.515   0.490   0.510   0.485   0.380   0.240   0.132   0.096   0.143
   0.263   0.412   0.532   0.610   0.736   1.049   1.584   2.167   2.513   2.448
   2.049   1.554   1.144   0.834   0.559   0.312   0.164   0.154   0.230   0.326
   0.468   0.747   1.183   1.643   1.949   2.055   2.061   2.052   1.962   1.646
   1.101   0.551   0.269   0.316   0.486   0.526   0.380   0.207   0.176   0.301
   0.485   0.672   0.892   1.163   1.388   1.405   1.152   0.745   0.385   0.210
   0.218   0.330   0.457   0.533   0.511   0.396   0.273   0.270   0.435   0.674
   0.820   0.785
   1.886   1.752   1.679   1.588   1.366   1.009   0.619   0.310   0.139   0.126
   0.270   0.533   0.822   1.063   1.312   1.725   2.387   3.141   3.647   3.648
   3.177   2.509   1.899   1.416   0.997   0.619   0.351   0.260   0.329   0.512
   0.835   1.376   2.116   2.861   3.373   3.567   3.552   3.457   3.256   2.818
   2.123   1.368   0.817   0.560   0.463   0.359   0.241   0.234   0.413   0.704
   0.995   1.287   1.673   2.155   2.544   2.582   2.187   1.533   0.914   0.521
   0.363   0.354   0.402   0.442   0.426   0.366   0.372   0.587   1.041   1.571
   1.932   2.006
   3.341   3.196   3.054   2.810   2.358   1.745   1.135   0.665   0.373   0.261
   0.350   0.636   1.027   1.393   1.716   2.131   2.769   3.536   4.101   4.155
   3.668   2.903   2.167   1.592   1.142   0.772   0.513   0.412   0.460   0.638
   0.998   1.623   2.482   3.346   3.935   4.140   4.083   3.942   3.737   3.347
   2.702   1.928   1.246   0.781   0.500   0.337   0.314   0.493   0.843   1.230
   1.570   1.936   2.466   3.125   3.641   3.702   3.233   2.460   1.709   1.162
   0.818   0.605   0.485   0.446   0.460   0.532   0.749   1.231   1.968   2.743
   3.272   3.432
TEXTURE_INDEX=   6.1842
ERR_CF 220         1061     458   71.62   23.97
ERR_CF 200         1050     257   52.79   24.48
ERR_CF 111         1077     235  110.53   20.13
