TEXEVAL                                                                         
Analysis started on 01-Aug-19 13:29:28                                          
 LMAX=14LFMAX=03 CUBIC ORTHO   
 220      5.00 5.00
 200      5.00 5.00
 111      5.00 5.00
 220       5.00   72    0 5.00   15    0
   2.067   2.067   2.067   2.067   2.067   2.067   2.067   2.067   2.067   2.067
   2.067   2.067   2.067   2.067   2.067   2.067   2.067   2.067   2.067   2.067
   2.067   2.067   2.067   2.067   2.067   2.067   2.067   2.067   2.067   2.067
   2.067   2.067   2.067   2.067   2.067   2.067   2.067   2.067   2.067   2.067
   2.067   2.067   2.067   2.067   2.067   2.067   2.067   2.067   2.067   2.067
   2.067   2.067   2.067   2.067   2.067   2.067   2.067   2.067   2.067   2.067
   2.067   2.067   2.067   2.067   2.067   2.067   2.067   2.067   2.067   2.067
   2.067   2.067
   1.711   1.451   1.458   1.536   1.509   1.669   1.708   1.945   1.744   1.847
   2.029   2.076   2.122   2.179   2.103   2.084   2.301   2.372   1.991   2.372
   2.301   2.084   2.103   2.179   2.122   2.076   2.029   1.847   1.744   1.945
   1.708   1.669   1.509   1.536   1.458   1.451   1.711   1.451   1.458   1.536
   1.509   1.669   1.708   1.945   1.744   1.847   2.029   2.076   2.122   2.179
   2.103   2.084   2.301   2.372   1.991   2.372   2.301   2.084   2.103   2.179
   2.122   2.076   2.029   1.847   1.744   1.945   1.708   1.669   1.509   1.536
   1.458   1.451
   0.701   0.676   0.576   0.615   0.809   0.850   0.840   1.044   0.967   1.137
   1.642   1.805   1.978   2.171   2.194   2.362   2.396   2.577   2.192   2.577
   2.396   2.362   2.194   2.171   1.978   1.805   1.642   1.137   0.967   1.044
   0.840   0.850   0.809   0.615   0.576   0.676   0.701   0.676   0.576   0.615
   0.809   0.850   0.840   1.044   0.967   1.137   1.642   1.805   1.978   2.171
   2.194   2.362   2.396   2.577   2.192   2.577   2.396   2.362   2.194   2.171
   1.978   1.805   1.642   1.137   0.967   1.044   0.840   0.850   0.809   0.615
   0.576   0.676
   0.277   0.320   0.225   0.265   0.326   0.382   0.385   0.410   0.414   0.640
   1.021   1.185   1.590   1.859   2.078   2.639   2.589   2.922   2.589   2.922
   2.589   2.639   2.078   1.859   1.590   1.185   1.021   0.640   0.414   0.410
   0.385   0.382   0.326   0.265   0.225   0.320   0.277   0.320   0.225   0.265
   0.326   0.382   0.385   0.410   0.414   0.640   1.021   1.185   1.590   1.859
   2.078   2.639   2.589   2.922   2.589   2.922   2.589   2.639   2.078   1.859
   1.590   1.185   1.021   0.640   0.414   0.410   0.385   0.382   0.326   0.265
   0.225   0.320
   0.247   0.205   0.220   0.203   0.140   0.225   0.319   0.203   0.285   0.388
   0.806   0.761   1.305   1.533   1.816   2.722   2.637   3.134   2.921   3.134
   2.637   2.722   1.816   1.533   1.305   0.761   0.806   0.388   0.285   0.203
   0.319   0.225   0.140   0.203   0.220   0.205   0.247   0.205   0.220   0.203
   0.140   0.225   0.319   0.203   0.285   0.388   0.806   0.761   1.305   1.533
   1.816   2.722   2.637   3.134   2.921   3.134   2.637   2.722   1.816   1.533
   1.305   0.761   0.806   0.388   0.285   0.203   0.319   0.225   0.140   0.203
   0.220   0.205
   0.178   0.169   0.154   0.128   0.048   0.196   0.210   0.242   0.264   0.533
   0.759   0.798   1.170   1.384   1.973   2.735   2.642   3.158   2.873   3.158
   2.642   2.735   1.973   1.384   1.170   0.798   0.759   0.533   0.264   0.242
   0.210   0.196   0.048   0.128   0.154   0.169   0.178   0.169   0.154   0.128
   0.048   0.196   0.210   0.242   0.264   0.533   0.759   0.798   1.170   1.384
   1.973   2.735   2.642   3.158   2.873   3.158   2.642   2.735   1.973   1.384
   1.170   0.798   0.759   0.533   0.264   0.242   0.210   0.196   0.048   0.128
   0.154   0.169
   0.170   0.100   0.102   0.089   0.133   0.240   0.173   0.279   0.293   0.562
   0.586   0.814   0.980   1.477   2.058   2.459   2.488   2.631   2.579   2.631
   2.488   2.459   2.058   1.477   0.980   0.814   0.586   0.562   0.293   0.279
   0.173   0.240   0.133   0.089   0.102   0.100   0.170   0.100   0.102   0.089
   0.133   0.240   0.173   0.279   0.293   0.562   0.586   0.814   0.980   1.477
   2.058   2.459   2.488   2.631   2.579   2.631   2.488   2.459   2.058   1.477
   0.980   0.814   0.586   0.562   0.293   0.279   0.173   0.240   0.133   0.089
   0.102   0.100
   0.138   0.188   0.223   0.359   0.243   0.242   0.307   0.264   0.378   0.392
   0.633   0.717   1.063   1.524   1.843   2.013   1.720   1.885   2.040   1.885
   1.720   2.013   1.843   1.524   1.063   0.717   0.633   0.392   0.378   0.264
   0.307   0.242   0.243   0.359   0.223   0.188   0.138   0.188   0.223   0.359
   0.243   0.242   0.307   0.264   0.378   0.392   0.633   0.717   1.063   1.524
   1.843   2.013   1.720   1.885   2.040   1.885   1.720   2.013   1.843   1.524
   1.063   0.717   0.633   0.392   0.378   0.264   0.307   0.242   0.243   0.359
   0.223   0.188
   0.279   0.646   0.445   0.646   0.480   0.507   0.412   0.460   0.552   0.741
   0.880   0.664   1.135   1.400   1.696   1.821   1.288   1.478   1.329   1.478
   1.288   1.821   1.696   1.400   1.135   0.664   0.880   0.741   0.552   0.460
   0.412   0.507   0.480   0.646   0.445   0.646   0.279   0.646   0.445   0.646
   0.480   0.507   0.412   0.460   0.552   0.741   0.880   0.664   1.135   1.400
   1.696   1.821   1.288   1.478   1.329   1.478   1.288   1.821   1.696   1.400
   1.135   0.664   0.880   0.741   0.552   0.460   0.412   0.507   0.480   0.646
   0.445   0.646
   0.936   1.211   0.616   0.605   0.896   0.680   0.478   0.590   0.382   0.682
   0.700   0.695   1.096   1.112   1.345   1.458   1.262   0.982   0.849   0.982
   1.262   1.458   1.345   1.112   1.096   0.695   0.700   0.682   0.382   0.590
   0.478   0.680   0.896   0.605   0.616   1.211   0.936   1.211   0.616   0.605
   0.896   0.680   0.478   0.590   0.382   0.682   0.700   0.695   1.096   1.112
   1.345   1.458   1.262   0.982   0.849   0.982   1.262   1.458   1.345   1.112
   1.096   0.695   0.700   0.682   0.382   0.590   0.478   0.680   0.896   0.605
   0.616   1.211
   2.632   2.488   1.748   1.715   1.350   0.871   0.500   0.711   0.138   0.388
   0.237   0.650   1.081   0.726   1.299   0.664   0.898   0.743   0.366   0.743
   0.898   0.664   1.299   0.726   1.081   0.650   0.237   0.388   0.138   0.711
   0.500   0.871   1.350   1.715   1.748   2.488   2.632   2.488   1.748   1.715
   1.350   0.871   0.500   0.711   0.138   0.388   0.237   0.650   1.081   0.726
   1.299   0.664   0.898   0.743   0.366   0.743   0.898   0.664   1.299   0.726
   1.081   0.650   0.237   0.388   0.138   0.711   0.500   0.871   1.350   1.715
   1.748   2.488
   3.419   3.484   2.914   2.197   1.567   1.226   0.907   0.952   0.506   0.480
   0.620   0.418   0.759   0.694   1.270   0.502   0.433   0.486   0.116   0.486
   0.433   0.502   1.270   0.694   0.759   0.418   0.620   0.480   0.506   0.952
   0.907   1.226   1.567   2.197   2.914   3.484   3.419   3.484   2.914   2.197
   1.567   1.226   0.907   0.952   0.506   0.480   0.620   0.418   0.759   0.694
   1.270   0.502   0.433   0.486   0.116   0.486   0.433   0.502   1.270   0.694
   0.759   0.418   0.620   0.480   0.506   0.952   0.907   1.226   1.567   2.197
   2.914   3.484
   4.743   4.126   2.523   1.865   1.720   1.311   1.568   1.270   0.798   0.766
   1.018   0.564   0.436   0.790   1.096   0.705   0.432   0.376   0.424   0.376
   0.432   0.705   1.096   0.790   0.436   0.564   1.018   0.766   0.798   1.270
   1.568   1.311   1.720   1.865   2.523   4.126   4.743   4.126   2.523   1.865
   1.720   1.311   1.568   1.270   0.798   0.766   1.018   0.564   0.436   0.790
   1.096   0.705   0.432   0.376   0.424   0.376   0.432   0.705   1.096   0.790
   0.436   0.564   1.018   0.766   0.798   1.270   1.568   1.311   1.720   1.865
   2.523   4.126
   3.845   3.677   1.946   1.362   1.244   1.773   1.541   1.566   1.365   1.235
   1.480   0.686   1.202   0.621   0.906   1.105   0.688   0.555   0.611   0.555
   0.688   1.105   0.906   0.621   1.202   0.686   1.480   1.235   1.365   1.566
   1.541   1.773   1.244   1.362   1.946   3.677   3.845   3.677   1.946   1.362
   1.244   1.773   1.541   1.566   1.365   1.235   1.480   0.686   1.202   0.621
   0.906   1.105   0.688   0.555   0.611   0.555   0.688   1.105   0.906   0.621
   1.202   0.686   1.480   1.235   1.365   1.566   1.541   1.773   1.244   1.362
   1.946   3.677
   0.930   1.432   1.106   0.267   0.904   1.582   0.802   0.954   1.489   1.975
   1.698   0.325   1.141   0.579   0.555   0.919   0.835   0.498   0.303   0.498
   0.835   0.919   0.555   0.579   1.141   0.325   1.698   1.975   1.489   0.954
   0.802   1.582   0.904   0.267   1.106   1.432   0.930   1.432   1.106   0.267
   0.904   1.582   0.802   0.954   1.489   1.975   1.698   0.325   1.141   0.579
   0.555   0.919   0.835   0.498   0.303   0.498   0.835   0.919   0.555   0.579
   1.141   0.325   1.698   1.975   1.489   0.954   0.802   1.582   0.904   0.267
   1.106   1.432
 200       5.00   72    0 5.00   15    0
   0.742   0.742   0.742   0.742   0.742   0.742   0.742   0.742   0.742   0.742
   0.742   0.742   0.742   0.742   0.742   0.742   0.742   0.742   0.742   0.742
   0.742   0.742   0.742   0.742   0.742   0.742   0.742   0.742   0.742   0.742
   0.742   0.742   0.742   0.742   0.742   0.742   0.742   0.742   0.742   0.742
   0.742   0.742   0.742   0.742   0.742   0.742   0.742   0.742   0.742   0.742
   0.742   0.742   0.742   0.742   0.742   0.742   0.742   0.742   0.742   0.742
   0.742   0.742   0.742   0.742   0.742   0.742   0.742   0.742   0.742   0.742
   0.742   0.742
   0.737   0.728   0.785   0.728   0.780   0.699   0.759   0.712   0.779   0.714
   0.828   0.774   0.781   0.739   0.781   0.678   0.751   0.749   0.769   0.749
   0.751   0.678   0.781   0.739   0.781   0.774   0.828   0.714   0.779   0.712
   0.759   0.699   0.780   0.728   0.785   0.728   0.737   0.728   0.785   0.728
   0.780   0.699   0.759   0.712   0.779   0.714   0.828   0.774   0.781   0.739
   0.781   0.678   0.751   0.749   0.769   0.749   0.751   0.678   0.781   0.739
   0.781   0.774   0.828   0.714   0.779   0.712   0.759   0.699   0.780   0.728
   0.785   0.728
   0.705   0.703   0.709   0.730   0.778   0.709   0.756   0.630   0.734   0.628
   0.733   0.675   0.713   0.653   0.697   0.620   0.688   0.662   0.647   0.662
   0.688   0.620   0.697   0.653   0.713   0.675   0.733   0.628   0.734   0.630
   0.756   0.709   0.778   0.730   0.709   0.703   0.705   0.703   0.709   0.730
   0.778   0.709   0.756   0.630   0.734   0.628   0.733   0.675   0.713   0.653
   0.697   0.620   0.688   0.662   0.647   0.662   0.688   0.620   0.697   0.653
   0.713   0.675   0.733   0.628   0.734   0.630   0.756   0.709   0.778   0.730
   0.709   0.703
   1.045   1.152   1.014   1.047   1.107   1.020   0.923   0.808   0.791   0.742
   0.755   0.654   0.582   0.649   0.637   0.624   0.673   0.652   0.552   0.652
   0.673   0.624   0.637   0.649   0.582   0.654   0.755   0.742   0.791   0.808
   0.923   1.020   1.107   1.047   1.014   1.152   1.045   1.152   1.014   1.047
   1.107   1.020   0.923   0.808   0.791   0.742   0.755   0.654   0.582   0.649
   0.637   0.624   0.673   0.652   0.552   0.652   0.673   0.624   0.637   0.649
   0.582   0.654   0.755   0.742   0.791   0.808   0.923   1.020   1.107   1.047
   1.014   1.152
   1.983   2.086   2.124   2.099   1.904   1.767   1.374   1.230   1.347   1.068
   0.911   0.663   0.586   0.711   0.605   0.653   0.607   0.690   0.515   0.690
   0.607   0.653   0.605   0.711   0.586   0.663   0.911   1.068   1.347   1.230
   1.374   1.767   1.904   2.099   2.124   2.086   1.983   2.086   2.124   2.099
   1.904   1.767   1.374   1.230   1.347   1.068   0.911   0.663   0.586   0.711
   0.605   0.653   0.607   0.690   0.515   0.690   0.607   0.653   0.605   0.711
   0.586   0.663   0.911   1.068   1.347   1.230   1.374   1.767   1.904   2.099
   2.124   2.086
   2.600   2.657   2.713   2.855   2.580   2.324   2.044   1.848   1.978   1.538
   1.165   0.971   0.808   0.815   0.661   0.521   0.598   0.522   0.520   0.522
   0.598   0.521   0.661   0.815   0.808   0.971   1.165   1.538   1.978   1.848
   2.044   2.324   2.580   2.855   2.713   2.657   2.600   2.657   2.713   2.855
   2.580   2.324   2.044   1.848   1.978   1.538   1.165   0.971   0.808   0.815
   0.661   0.521   0.598   0.522   0.520   0.522   0.598   0.521   0.661   0.815
   0.808   0.971   1.165   1.538   1.978   1.848   2.044   2.324   2.580   2.855
   2.713   2.657
   2.138   2.340   2.107   2.319   2.300   2.209   2.077   2.016   2.104   2.050
   1.608   1.515   1.117   0.869   0.700   0.603   0.746   0.509   0.513   0.509
   0.746   0.603   0.700   0.869   1.117   1.515   1.608   2.050   2.104   2.016
   2.077   2.209   2.300   2.319   2.107   2.340   2.138   2.340   2.107   2.319
   2.300   2.209   2.077   2.016   2.104   2.050   1.608   1.515   1.117   0.869
   0.700   0.603   0.746   0.509   0.513   0.509   0.746   0.603   0.700   0.869
   1.117   1.515   1.608   2.050   2.104   2.016   2.077   2.209   2.300   2.319
   2.107   2.340
   1.249   1.287   1.247   1.153   1.389   1.521   1.369   1.706   1.745   2.075
   1.832   1.826   1.404   0.959   0.892   0.600   0.756   0.677   0.458   0.677
   0.756   0.600   0.892   0.959   1.404   1.826   1.832   2.075   1.745   1.706
   1.369   1.521   1.389   1.153   1.247   1.287   1.249   1.287   1.247   1.153
   1.389   1.521   1.369   1.706   1.745   2.075   1.832   1.826   1.404   0.959
   0.892   0.600   0.756   0.677   0.458   0.677   0.756   0.600   0.892   0.959
   1.404   1.826   1.832   2.075   1.745   1.706   1.369   1.521   1.389   1.153
   1.247   1.287
   0.652   0.402   0.447   0.428   0.727   0.686   0.806   1.444   1.428   1.692
   1.801   1.730   1.676   1.191   1.187   0.780   0.686   0.678   0.562   0.678
   0.686   0.780   1.187   1.191   1.676   1.730   1.801   1.692   1.428   1.444
   0.806   0.686   0.727   0.428   0.447   0.402   0.652   0.402   0.447   0.428
   0.727   0.686   0.806   1.444   1.428   1.692   1.801   1.730   1.676   1.191
   1.187   0.780   0.686   0.678   0.562   0.678   0.686   0.780   1.187   1.191
   1.676   1.730   1.801   1.692   1.428   1.444   0.806   0.686   0.727   0.428
   0.447   0.402
   0.391   0.223   0.190   0.265   0.349   0.246   0.659   1.043   1.162   1.444
   1.672   1.685   1.822   1.278   1.309   1.157   0.730   0.706   0.785   0.706
   0.730   1.157   1.309   1.278   1.822   1.685   1.672   1.444   1.162   1.043
   0.659   0.246   0.349   0.265   0.190   0.223   0.391   0.223   0.190   0.265
   0.349   0.246   0.659   1.043   1.162   1.444   1.672   1.685   1.822   1.278
   1.309   1.157   0.730   0.706   0.785   0.706   0.730   1.157   1.309   1.278
   1.822   1.685   1.672   1.444   1.162   1.043   0.659   0.246   0.349   0.265
   0.190   0.223
   0.313   0.446   0.557   0.235   0.372   0.225   0.605   0.807   1.028   1.388
   1.424   1.623   1.599   1.451   1.242   1.177   0.718   0.814   0.933   0.814
   0.718   1.177   1.242   1.451   1.599   1.623   1.424   1.388   1.028   0.807
   0.605   0.225   0.372   0.235   0.557   0.446   0.313   0.446   0.557   0.235
   0.372   0.225   0.605   0.807   1.028   1.388   1.424   1.623   1.599   1.451
   1.242   1.177   0.718   0.814   0.933   0.814   0.718   1.177   1.242   1.451
   1.599   1.623   1.424   1.388   1.028   0.807   0.605   0.225   0.372   0.235
   0.557   0.446
   0.362   0.466   0.503   0.188   0.538   0.400   0.342   0.559   0.671   1.207
   1.367   1.192   1.667   1.488   0.927   1.012   0.743   0.588   0.758   0.588
   0.743   1.012   0.927   1.488   1.667   1.192   1.367   1.207   0.671   0.559
   0.342   0.400   0.538   0.188   0.503   0.466   0.362   0.466   0.503   0.188
   0.538   0.400   0.342   0.559   0.671   1.207   1.367   1.192   1.667   1.488
   0.927   1.012   0.743   0.588   0.758   0.588   0.743   1.012   0.927   1.488
   1.667   1.192   1.367   1.207   0.671   0.559   0.342   0.400   0.538   0.188
   0.503   0.466
   0.374   0.305   0.125   0.151   0.342   0.438   0.286   0.467   0.463   1.098
   1.791   1.307   1.847   0.879   0.620   0.664   0.542   0.148   0.258   0.148
   0.542   0.664   0.620   0.879   1.847   1.307   1.791   1.098   0.463   0.467
   0.286   0.438   0.342   0.151   0.125   0.305   0.374   0.305   0.125   0.151
   0.342   0.438   0.286   0.467   0.463   1.098   1.791   1.307   1.847   0.879
   0.620   0.664   0.542   0.148   0.258   0.148   0.542   0.664   0.620   0.879
   1.847   1.307   1.791   1.098   0.463   0.467   0.286   0.438   0.342   0.151
   0.125   0.305
   0.154   0.192   0.242   0.184   0.111   0.408   0.465   0.700   0.772   1.705
   1.838   1.459   1.167   0.526   0.372   0.333   0.415   0.290   0.034   0.290
   0.415   0.333   0.372   0.526   1.167   1.459   1.838   1.705   0.772   0.700
   0.465   0.408   0.111   0.184   0.242   0.192   0.154   0.192   0.242   0.184
   0.111   0.408   0.465   0.700   0.772   1.705   1.838   1.459   1.167   0.526
   0.372   0.333   0.415   0.290   0.034   0.290   0.415   0.333   0.372   0.526
   1.167   1.459   1.838   1.705   0.772   0.700   0.465   0.408   0.111   0.184
   0.242   0.192
   0.060   0.158   0.418   0.309   0.365   0.664   0.855   1.212   1.320   2.131
   1.789   0.829   0.626   0.693   0.357   0.663   0.325   0.647   0.673   0.647
   0.325   0.663   0.357   0.693   0.626   0.829   1.789   2.131   1.320   1.212
   0.855   0.664   0.365   0.309   0.418   0.158   0.060   0.158   0.418   0.309
   0.365   0.664   0.855   1.212   1.320   2.131   1.789   0.829   0.626   0.693
   0.357   0.663   0.325   0.647   0.673   0.647   0.325   0.663   0.357   0.693
   0.626   0.829   1.789   2.131   1.320   1.212   0.855   0.664   0.365   0.309
   0.418   0.158
 111       5.00   72    0 5.00   15    0
   0.190   0.190   0.190   0.190   0.190   0.190   0.190   0.190   0.190   0.190
   0.190   0.190   0.190   0.190   0.190   0.190   0.190   0.190   0.190   0.190
   0.190   0.190   0.190   0.190   0.190   0.190   0.190   0.190   0.190   0.190
   0.190   0.190   0.190   0.190   0.190   0.190   0.190   0.190   0.190   0.190
   0.190   0.190   0.190   0.190   0.190   0.190   0.190   0.190   0.190   0.190
   0.190   0.190   0.190   0.190   0.190   0.190   0.190   0.190   0.190   0.190
   0.190   0.190   0.190   0.190   0.190   0.190   0.190   0.190   0.190   0.190
   0.190   0.190
   0.277   0.262   0.295   0.280   0.243   0.248   0.234   0.227   0.235   0.230
   0.200   0.215   0.204   0.239   0.189   0.199   0.193   0.193   0.222   0.193
   0.193   0.199   0.189   0.239   0.204   0.215   0.200   0.230   0.235   0.227
   0.234   0.248   0.243   0.280   0.295   0.262   0.277   0.262   0.295   0.280
   0.243   0.248   0.234   0.227   0.235   0.230   0.200   0.215   0.204   0.239
   0.189   0.199   0.193   0.193   0.222   0.193   0.193   0.199   0.189   0.239
   0.204   0.215   0.200   0.230   0.235   0.227   0.234   0.248   0.243   0.280
   0.295   0.262
   0.656   0.601   0.633   0.583   0.440   0.451   0.393   0.313   0.316   0.243
   0.211   0.232   0.230   0.223   0.187   0.183   0.196   0.210   0.246   0.210
   0.196   0.183   0.187   0.223   0.230   0.232   0.211   0.243   0.316   0.313
   0.393   0.451   0.440   0.583   0.633   0.601   0.656   0.601   0.633   0.583
   0.440   0.451   0.393   0.313   0.316   0.243   0.211   0.232   0.230   0.223
   0.187   0.183   0.196   0.210   0.246   0.210   0.196   0.183   0.187   0.223
   0.230   0.232   0.211   0.243   0.316   0.313   0.393   0.451   0.440   0.583
   0.633   0.601
   1.954   1.939   1.763   1.612   1.184   1.027   0.753   0.548   0.486   0.348
   0.269   0.229   0.252   0.213   0.222   0.199   0.197   0.229   0.225   0.229
   0.197   0.199   0.222   0.213   0.252   0.229   0.269   0.348   0.486   0.548
   0.753   1.027   1.184   1.612   1.763   1.939   1.954   1.939   1.763   1.612
   1.184   1.027   0.753   0.548   0.486   0.348   0.269   0.229   0.252   0.213
   0.222   0.199   0.197   0.229   0.225   0.229   0.197   0.199   0.222   0.213
   0.252   0.229   0.269   0.348   0.486   0.548   0.753   1.027   1.184   1.612
   1.763   1.939
   3.673   3.763   3.474   2.996   2.400   1.838   1.397   1.063   0.815   0.548
   0.383   0.296   0.248   0.201   0.243   0.186   0.174   0.186   0.234   0.186
   0.174   0.186   0.243   0.201   0.248   0.296   0.383   0.548   0.815   1.063
   1.397   1.838   2.400   2.996   3.474   3.763   3.673   3.763   3.474   2.996
   2.400   1.838   1.397   1.063   0.815   0.548   0.383   0.296   0.248   0.201
   0.243   0.186   0.174   0.186   0.234   0.186   0.174   0.186   0.243   0.201
   0.248   0.296   0.383   0.548   0.815   1.063   1.397   1.838   2.400   2.996
   3.474   3.763
   5.027   4.796   4.454   3.686   3.221   2.429   1.998   1.538   1.300   0.855
   0.479   0.403   0.285   0.156   0.171   0.123   0.189   0.127   0.130   0.127
   0.189   0.123   0.171   0.156   0.285   0.403   0.479   0.855   1.300   1.538
   1.998   2.429   3.221   3.686   4.454   4.796   5.027   4.796   4.454   3.686
   3.221   2.429   1.998   1.538   1.300   0.855   0.479   0.403   0.285   0.156
   0.171   0.123   0.189   0.127   0.130   0.127   0.189   0.123   0.171   0.156
   0.285   0.403   0.479   0.855   1.300   1.538   1.998   2.429   3.221   3.686
   4.454   4.796
   4.565   4.067   3.876   3.451   3.130   2.501   2.159   1.864   1.528   1.187
   0.737   0.607   0.428   0.252   0.164   0.147   0.201   0.145   0.077   0.145
   0.201   0.147   0.164   0.252   0.428   0.607   0.737   1.187   1.528   1.864
   2.159   2.501   3.130   3.451   3.876   4.067   4.565   4.067   3.876   3.451
   3.130   2.501   2.159   1.864   1.528   1.187   0.737   0.607   0.428   0.252
   0.164   0.147   0.201   0.145   0.077   0.145   0.201   0.147   0.164   0.252
   0.428   0.607   0.737   1.187   1.528   1.864   2.159   2.501   3.130   3.451
   3.876   4.067
   2.449   2.298   2.335   2.322   2.358   2.213   2.128   2.101   1.641   1.404
   1.314   0.982   0.745   0.562   0.372   0.295   0.311   0.293   0.358   0.293
   0.311   0.295   0.372   0.562   0.745   0.982   1.314   1.404   1.641   2.101
   2.128   2.213   2.358   2.322   2.335   2.298   2.449   2.298   2.335   2.322
   2.358   2.213   2.128   2.101   1.641   1.404   1.314   0.982   0.745   0.562
   0.372   0.295   0.311   0.293   0.358   0.293   0.311   0.295   0.372   0.562
   0.745   0.982   1.314   1.404   1.641   2.101   2.128   2.213   2.358   2.322
   2.335   2.298
   1.065   1.040   1.030   1.046   1.322   1.558   1.851   1.893   1.677   1.477
   1.545   1.290   1.073   0.964   0.541   0.558   0.446   0.392   0.366   0.392
   0.446   0.558   0.541   0.964   1.073   1.290   1.545   1.477   1.677   1.893
   1.851   1.558   1.322   1.046   1.030   1.040   1.065   1.040   1.030   1.046
   1.322   1.558   1.851   1.893   1.677   1.477   1.545   1.290   1.073   0.964
   0.541   0.558   0.446   0.392   0.366   0.392   0.446   0.558   0.541   0.964
   1.073   1.290   1.545   1.477   1.677   1.893   1.851   1.558   1.322   1.046
   1.030   1.040
   0.520   0.437   0.468   0.486   0.727   0.800   1.245   1.410   1.414   1.394
   1.424   1.307   1.241   1.300   0.735   0.818   0.517   0.451   0.342   0.451
   0.517   0.818   0.735   1.300   1.241   1.307   1.424   1.394   1.414   1.410
   1.245   0.800   0.727   0.486   0.468   0.437   0.520   0.437   0.468   0.486
   0.727   0.800   1.245   1.410   1.414   1.394   1.424   1.307   1.241   1.300
   0.735   0.818   0.517   0.451   0.342   0.451   0.517   0.818   0.735   1.300
   1.241   1.307   1.424   1.394   1.414   1.410   1.245   0.800   0.727   0.486
   0.468   0.437
   0.342   0.306   0.349   0.381   0.451   0.532   0.702   0.901   1.107   1.177
   1.443   1.220   1.433   1.518   1.311   1.098   0.743   0.800   0.490   0.800
   0.743   1.098   1.311   1.518   1.433   1.220   1.443   1.177   1.107   0.901
   0.702   0.532   0.451   0.381   0.349   0.306   0.342   0.306   0.349   0.381
   0.451   0.532   0.702   0.901   1.107   1.177   1.443   1.220   1.433   1.518
   1.311   1.098   0.743   0.800   0.490   0.800   0.743   1.098   1.311   1.518
   1.433   1.220   1.443   1.177   1.107   0.901   0.702   0.532   0.451   0.381
   0.349   0.306
   0.363   0.442   0.263   0.319   0.271   0.329   0.352   0.463   0.686   0.781
   1.202   0.991   1.510   1.549   1.714   1.408   1.019   1.108   0.623   1.108
   1.019   1.408   1.714   1.549   1.510   0.991   1.202   0.781   0.686   0.463
   0.352   0.329   0.271   0.319   0.263   0.442   0.363   0.442   0.263   0.319
   0.271   0.329   0.352   0.463   0.686   0.781   1.202   0.991   1.510   1.549
   1.714   1.408   1.019   1.108   0.623   1.108   1.019   1.408   1.714   1.549
   1.510   0.991   1.202   0.781   0.686   0.463   0.352   0.329   0.271   0.319
   0.263   0.442
   0.478   0.650   0.095   0.217   0.306   0.174   0.272   0.311   0.446   0.406
   0.801   0.834   1.118   1.261   1.349   1.382   1.288   1.229   0.831   1.229
   1.288   1.382   1.349   1.261   1.118   0.834   0.801   0.406   0.446   0.311
   0.272   0.174   0.306   0.217   0.095   0.650   0.478   0.650   0.095   0.217
   0.306   0.174   0.272   0.311   0.446   0.406   0.801   0.834   1.118   1.261
   1.349   1.382   1.288   1.229   0.831   1.229   1.288   1.382   1.349   1.261
   1.118   0.834   0.801   0.406   0.446   0.311   0.272   0.174   0.306   0.217
   0.095   0.650
   0.441   0.800   0.380   0.416   0.467   0.250   0.377   0.575   0.506   0.341
   0.519   0.789   0.706   0.974   1.077   1.006   1.619   1.237   1.206   1.237
   1.619   1.006   1.077   0.974   0.706   0.789   0.519   0.341   0.506   0.575
   0.377   0.250   0.467   0.416   0.380   0.800   0.441   0.800   0.380   0.416
   0.467   0.250   0.377   0.575   0.506   0.341   0.519   0.789   0.706   0.974
   1.077   1.006   1.619   1.237   1.206   1.237   1.619   1.006   1.077   0.974
   0.706   0.789   0.519   0.341   0.506   0.575   0.377   0.250   0.467   0.416
   0.380   0.800
   0.590   0.791   0.515   0.446   0.400   0.229   0.265   0.519   0.474   0.604
   0.406   0.620   0.509   0.520   0.917   1.039   1.385   1.416   1.487   1.416
   1.385   1.039   0.917   0.520   0.509   0.620   0.406   0.604   0.474   0.519
   0.265   0.229   0.400   0.446   0.515   0.791   0.590   0.791   0.515   0.446
   0.400   0.229   0.265   0.519   0.474   0.604   0.406   0.620   0.509   0.520
   0.917   1.039   1.385   1.416   1.487   1.416   1.385   1.039   0.917   0.520
   0.509   0.620   0.406   0.604   0.474   0.519   0.265   0.229   0.400   0.446
   0.515   0.791
  4  1      1.5011441E-01
  4  2     -3.6437904E-01
  4  3     -9.9245578E-01
  6  1      1.6282280E+00
  6  2     -3.2866137E+00
  6  3      1.1311292E+00
  6  4      3.3946760E-01
  8  1     -1.6964450E-01
  8  2      4.1788776E-01
  8  3      1.0910857E-01
  8  4      1.0490614E+00
  8  5      8.7464970E-01
 10  1     -1.8400591E-01
 10  2     -3.1629746E-02
 10  3      8.6495225E-01
 10  4     -2.2397616E-02
 10  5     -5.6343294E-02
 10  6     -3.9278290E-01
 12  1      6.7802957E-02  8.1904543E-01
 12  2     -3.9993293E-01 -1.3918701E+00
 12  3      1.2548641E-01  1.8032356E+00
 12  4      7.9920154E-04 -5.8999255E-01
 12  5      1.5001999E-01 -3.6083262E-01
 12  6     -7.4979386E-01  6.6519436E-01
 12  7     -3.9697219E-01 -3.6499569E-02
 14  1     -6.4088378E-01
 14  2      3.5320027E-01
 14  3     -2.0977621E-01
 14  4     -2.2582962E-01
 14  5     -4.7570598E-01
 14  6     -1.0062712E-01
 14  7      7.5480719E-02
 14  8      2.1834478E-01
 220       5.00   72    0 5.00   18    0
   1.966   1.967   1.969   1.972   1.976   1.982   1.988   1.995   2.002   2.010
   2.017   2.025   2.032   2.038   2.043   2.048   2.051   2.053   2.054   2.053
   2.051   2.048   2.043   2.038   2.032   2.025   2.017   2.010   2.002   1.995
   1.988   1.982   1.976   1.972   1.969   1.967   1.966   1.967   1.969   1.972
   1.976   1.982   1.988   1.995   2.002   2.010   2.017   2.025   2.032   2.038
   2.043   2.048   2.051   2.053   2.054   2.053   2.051   2.048   2.043   2.038
   2.032   2.025   2.017   2.010   2.002   1.995   1.988   1.982   1.976   1.972
   1.969   1.967
   1.480   1.484   1.497   1.518   1.548   1.585   1.630   1.680   1.737   1.797
   1.859   1.921   1.982   2.038   2.087   2.129   2.159   2.178   2.185   2.178
   2.159   2.129   2.087   2.038   1.982   1.921   1.859   1.797   1.737   1.680
   1.630   1.585   1.548   1.518   1.497   1.484   1.480   1.484   1.497   1.518
   1.548   1.585   1.630   1.680   1.737   1.797   1.859   1.921   1.982   2.038
   2.087   2.129   2.159   2.178   2.185   2.178   2.159   2.129   2.087   2.038
   1.982   1.921   1.859   1.797   1.737   1.680   1.630   1.585   1.548   1.518
   1.497   1.484
   0.804   0.809   0.827   0.856   0.900   0.959   1.035   1.128   1.240   1.367
   1.508   1.658   1.811   1.960   2.096   2.212   2.301   2.357   2.376   2.357
   2.301   2.212   2.096   1.960   1.811   1.658   1.508   1.367   1.240   1.128
   1.035   0.959   0.900   0.856   0.827   0.809   0.804   0.809   0.827   0.856
   0.900   0.959   1.035   1.128   1.240   1.367   1.508   1.658   1.811   1.960
   2.096   2.212   2.301   2.357   2.376   2.357   2.301   2.212   2.096   1.960
   1.811   1.658   1.508   1.367   1.240   1.128   1.035   0.959   0.900   0.856
   0.827   0.809
   0.305   0.306   0.310   0.320   0.339   0.375   0.433   0.521   0.645   0.807
   1.007   1.238   1.491   1.751   1.999   2.217   2.387   2.496   2.533   2.496
   2.387   2.217   1.999   1.751   1.491   1.238   1.007   0.807   0.645   0.521
   0.433   0.375   0.339   0.320   0.310   0.306   0.305   0.306   0.310   0.320
   0.339   0.375   0.433   0.521   0.645   0.807   1.007   1.238   1.491   1.751
   1.999   2.217   2.387   2.496   2.533   2.496   2.387   2.217   1.999   1.751
   1.491   1.238   1.007   0.807   0.645   0.521   0.433   0.375   0.339   0.320
   0.310   0.306
   0.137   0.133   0.122   0.103   0.083   0.067   0.068   0.101   0.181   0.322
   0.530   0.801   1.122   1.469   1.813   2.122   2.367   2.524   2.578   2.524
   2.367   2.122   1.813   1.469   1.122   0.801   0.530   0.322   0.181   0.101
   0.068   0.067   0.083   0.103   0.122   0.133   0.137   0.133   0.122   0.103
   0.083   0.067   0.068   0.101   0.181   0.322   0.530   0.801   1.122   1.469
   1.813   2.122   2.367   2.524   2.578   2.524   2.367   2.122   1.813   1.469
   1.122   0.801   0.530   0.322   0.181   0.101   0.068   0.067   0.083   0.103
   0.122   0.133
   0.149   0.150   0.150   0.142   0.119   0.082   0.040   0.014   0.030   0.116
   0.288   0.548   0.878   1.250   1.625   1.962   2.227   2.396   2.454   2.396
   2.227   1.962   1.625   1.250   0.878   0.548   0.288   0.116   0.030   0.014
   0.040   0.082   0.119   0.142   0.150   0.150   0.149   0.150   0.150   0.142
   0.119   0.082   0.040   0.014   0.030   0.116   0.288   0.548   0.878   1.250
   1.625   1.962   2.227   2.396   2.454   2.396   2.227   1.962   1.625   1.250
   0.878   0.548   0.288   0.116   0.030   0.014   0.040   0.082   0.119   0.142
   0.150   0.150
   0.097   0.115   0.162   0.217   0.255   0.259   0.230   0.188   0.170   0.212
   0.343   0.565   0.860   1.187   1.503   1.771   1.969   2.087   2.126   2.087
   1.969   1.771   1.503   1.187   0.860   0.565   0.343   0.212   0.170   0.188
   0.230   0.259   0.255   0.217   0.162   0.115   0.097   0.115   0.162   0.217
   0.255   0.259   0.230   0.188   0.170   0.212   0.343   0.565   0.860   1.187
   1.503   1.771   1.969   2.087   2.126   2.087   1.969   1.771   1.503   1.187
   0.860   0.565   0.343   0.212   0.170   0.188   0.230   0.259   0.255   0.217
   0.162   0.115
  -0.005   0.027   0.114   0.228   0.333   0.401   0.419   0.403   0.391   0.428
   0.545   0.744   0.993   1.241   1.439   1.562   1.613   1.624   1.623   1.624
   1.613   1.562   1.439   1.241   0.993   0.744   0.545   0.428   0.391   0.403
   0.419   0.401   0.333   0.228   0.114   0.027  -0.005   0.027   0.114   0.228
   0.333   0.401   0.419   0.403   0.391   0.428   0.545   0.744   0.993   1.241
   1.439   1.562   1.613   1.624   1.623   1.624   1.613   1.562   1.439   1.241
   0.993   0.744   0.545   0.428   0.391   0.403   0.419   0.401   0.333   0.228
   0.114   0.027
   0.207   0.224   0.272   0.342   0.418   0.478   0.504   0.503   0.503   0.549
   0.673   0.871   1.099   1.286   1.372   1.341   1.232   1.118   1.071   1.118
   1.232   1.341   1.372   1.286   1.099   0.871   0.673   0.549   0.503   0.503
   0.504   0.478   0.418   0.342   0.272   0.224   0.207   0.224   0.272   0.342
   0.418   0.478   0.504   0.503   0.503   0.549   0.673   0.871   1.099   1.286
   1.372   1.341   1.232   1.118   1.071   1.118   1.232   1.341   1.372   1.286
   1.099   0.871   0.673   0.549   0.503   0.503   0.504   0.478   0.418   0.342
   0.272   0.224
   1.102   1.057   0.945   0.815   0.710   0.641   0.592   0.547   0.515   0.531
   0.633   0.822   1.048   1.220   1.258   1.142   0.929   0.728   0.647   0.728
   0.929   1.142   1.258   1.220   1.048   0.822   0.633   0.531   0.515   0.547
   0.592   0.641   0.710   0.815   0.945   1.057   1.102   1.057   0.945   0.815
   0.710   0.641   0.592   0.547   0.515   0.531   0.633   0.822   1.048   1.220
   1.258   1.142   0.929   0.728   0.647   0.728   0.929   1.142   1.258   1.220
   1.048   0.822   0.633   0.531   0.515   0.547   0.592   0.641   0.710   0.815
   0.945   1.057
   2.540   2.404   2.055   1.629   1.257   1.001   0.838   0.713   0.596   0.517
   0.528   0.659   0.868   1.056   1.116   1.003   0.770   0.544   0.450   0.544
   0.770   1.003   1.116   1.056   0.868   0.659   0.528   0.517   0.596   0.713
   0.838   1.001   1.257   1.629   2.055   2.404   2.540   2.404   2.055   1.629
   1.257   1.001   0.838   0.713   0.596   0.517   0.528   0.659   0.868   1.056
   1.116   1.003   0.770   0.544   0.450   0.544   0.770   1.003   1.116   1.056
   0.868   0.659   0.528   0.517   0.596   0.713   0.838   1.001   1.257   1.629
   2.055   2.404
   3.778   3.562   3.010   2.346   1.789   1.431   1.226   1.062   0.868   0.664
   0.535   0.550   0.701   0.890   0.991   0.927   0.731   0.522   0.433   0.522
   0.731   0.927   0.991   0.890   0.701   0.550   0.535   0.664   0.868   1.062
   1.226   1.431   1.789   2.346   3.010   3.562   3.778   3.562   3.010   2.346
   1.789   1.431   1.226   1.062   0.868   0.664   0.535   0.550   0.701   0.890
   0.991   0.927   0.731   0.522   0.433   0.522   0.731   0.927   0.991   0.890
   0.701   0.550   0.535   0.664   0.868   1.062   1.226   1.431   1.789   2.346
   3.010   3.562
   3.995   3.750   3.136   2.433   1.901   1.629   1.529   1.435   1.242   0.969
   0.725   0.617   0.672   0.813   0.914   0.884   0.729   0.551   0.474   0.551
   0.729   0.884   0.914   0.813   0.672   0.617   0.725   0.969   1.242   1.435
   1.529   1.629   1.901   2.433   3.136   3.750   3.995   3.750   3.136   2.433
   1.901   1.629   1.529   1.435   1.242   0.969   0.725   0.617   0.672   0.813
   0.914   0.884   0.729   0.551   0.474   0.551   0.729   0.884   0.914   0.813
   0.672   0.617   0.725   0.969   1.242   1.435   1.529   1.629   1.901   2.433
   3.136   3.750
   3.021   2.810   2.299   1.768   1.456   1.416   1.521   1.583   1.491   1.265
   1.009   0.835   0.791   0.837   0.885   0.853   0.734   0.596   0.536   0.596
   0.734   0.853   0.885   0.837   0.791   0.835   1.009   1.265   1.491   1.583
   1.521   1.416   1.456   1.768   2.299   2.810   3.021   2.810   2.299   1.768
   1.456   1.416   1.521   1.583   1.491   1.265   1.009   0.835   0.791   0.837
   0.885   0.853   0.734   0.596   0.536   0.596   0.734   0.853   0.885   0.837
   0.791   0.835   1.009   1.265   1.491   1.583   1.521   1.416   1.456   1.768
   2.299   2.810
   1.528   1.388   1.072   0.804   0.754   0.928   1.191   1.389   1.445   1.372
   1.229   1.081   0.971   0.912   0.887   0.859   0.806   0.747   0.720   0.747
   0.806   0.859   0.887   0.912   0.971   1.081   1.229   1.372   1.445   1.389
   1.191   0.928   0.754   0.804   1.072   1.388   1.528   1.388   1.072   0.804
   0.754   0.928   1.191   1.389   1.445   1.372   1.229   1.081   0.971   0.912
   0.887   0.859   0.806   0.747   0.720   0.747   0.806   0.859   0.887   0.912
   0.971   1.081   1.229   1.372   1.445   1.389   1.191   0.928   0.754   0.804
   1.072   1.388
   0.436   0.367   0.230   0.166   0.262   0.486   0.742   0.960   1.128   1.248
   1.295   1.243   1.113   0.976   0.909   0.936   1.018   1.096   1.126   1.096
   1.018   0.936   0.909   0.976   1.113   1.243   1.295   1.248   1.128   0.960
   0.742   0.486   0.262   0.166   0.230   0.367   0.436   0.367   0.230   0.166
   0.262   0.486   0.742   0.960   1.128   1.248   1.295   1.243   1.113   0.976
   0.909   0.936   1.018   1.096   1.126   1.096   1.018   0.936   0.909   0.976
   1.113   1.243   1.295   1.248   1.128   0.960   0.742   0.486   0.262   0.166
   0.230   0.367
   0.119   0.095   0.061   0.082   0.173   0.287   0.391   0.520   0.730   1.008
   1.240   1.300   1.179   1.004   0.941   1.069   1.326   1.569   1.667   1.569
   1.326   1.069   0.941   1.004   1.179   1.300   1.240   1.008   0.730   0.520
   0.391   0.287   0.173   0.082   0.061   0.095   0.119   0.095   0.061   0.082
   0.173   0.287   0.391   0.520   0.730   1.008   1.240   1.300   1.179   1.004
   0.941   1.069   1.326   1.569   1.667   1.569   1.326   1.069   0.941   1.004
   1.179   1.300   1.240   1.008   0.730   0.520   0.391   0.287   0.173   0.082
   0.061   0.095
   0.219   0.214   0.215   0.244   0.276   0.264   0.223   0.256   0.466   0.828
   1.169   1.301   1.194   1.008   0.966   1.176   1.560   1.920   2.065   1.920
   1.560   1.176   0.966   1.008   1.194   1.301   1.169   0.828   0.466   0.256
   0.223   0.264   0.276   0.244   0.215   0.214   0.219   0.214   0.215   0.244
   0.276   0.264   0.223   0.256   0.466   0.828   1.169   1.301   1.194   1.008
   0.966   1.176   1.560   1.920   2.065   1.920   1.560   1.176   0.966   1.008
   1.194   1.301   1.169   0.828   0.466   0.256   0.223   0.264   0.276   0.244
   0.215   0.214
 200       5.00   72    0 5.00   18    0
   0.958   0.958   0.959   0.960   0.962   0.964   0.967   0.970   0.973   0.976
   0.979   0.982   0.985   0.988   0.991   0.992   0.994   0.995   0.995   0.995
   0.994   0.992   0.991   0.988   0.985   0.982   0.979   0.976   0.973   0.970
   0.967   0.964   0.962   0.960   0.959   0.958   0.958   0.958   0.959   0.960
   0.962   0.964   0.967   0.970   0.973   0.976   0.979   0.982   0.985   0.988
   0.991   0.992   0.994   0.995   0.995   0.995   0.994   0.992   0.991   0.988
   0.985   0.982   0.979   0.976   0.973   0.970   0.967   0.964   0.962   0.960
   0.959   0.958
   0.669   0.670   0.673   0.678   0.686   0.696   0.708   0.722   0.739   0.758
   0.777   0.797   0.817   0.836   0.853   0.867   0.878   0.885   0.887   0.885
   0.878   0.867   0.853   0.836   0.817   0.797   0.777   0.758   0.739   0.722
   0.708   0.696   0.686   0.678   0.673   0.670   0.669   0.670   0.673   0.678
   0.686   0.696   0.708   0.722   0.739   0.758   0.777   0.797   0.817   0.836
   0.853   0.867   0.878   0.885   0.887   0.885   0.878   0.867   0.853   0.836
   0.817   0.797   0.777   0.758   0.739   0.722   0.708   0.696   0.686   0.678
   0.673   0.670
   0.611   0.608   0.600   0.588   0.575   0.561   0.551   0.545   0.545   0.553
   0.567   0.587   0.611   0.638   0.665   0.689   0.708   0.720   0.724   0.720
   0.708   0.689   0.665   0.638   0.611   0.587   0.567   0.553   0.545   0.545
   0.551   0.561   0.575   0.588   0.600   0.608   0.611   0.608   0.600   0.588
   0.575   0.561   0.551   0.545   0.545   0.553   0.567   0.587   0.611   0.638
   0.665   0.689   0.708   0.720   0.724   0.720   0.708   0.689   0.665   0.638
   0.611   0.587   0.567   0.553   0.545   0.545   0.551   0.561   0.575   0.588
   0.600   0.608
   1.169   1.155   1.115   1.053   0.976   0.891   0.806   0.725   0.655   0.599
   0.558   0.532   0.519   0.517   0.524   0.534   0.544   0.552   0.555   0.552
   0.544   0.534   0.524   0.517   0.519   0.532   0.558   0.599   0.655   0.725
   0.806   0.891   0.976   1.053   1.115   1.155   1.169   1.155   1.115   1.053
   0.976   0.891   0.806   0.725   0.655   0.599   0.558   0.532   0.519   0.517
   0.524   0.534   0.544   0.552   0.555   0.552   0.544   0.534   0.524   0.517
   0.519   0.532   0.558   0.599   0.655   0.725   0.806   0.891   0.976   1.053
   1.115   1.155
   2.056   2.030   1.955   1.839   1.695   1.535   1.372   1.213   1.063   0.925
   0.802   0.693   0.602   0.529   0.474   0.436   0.413   0.401   0.397   0.401
   0.413   0.436   0.474   0.529   0.602   0.693   0.802   0.925   1.063   1.213
   1.372   1.535   1.695   1.839   1.955   2.030   2.056   2.030   1.955   1.839
   1.695   1.535   1.372   1.213   1.063   0.925   0.802   0.693   0.602   0.529
   0.474   0.436   0.413   0.401   0.397   0.401   0.413   0.436   0.474   0.529
   0.602   0.693   0.802   0.925   1.063   1.213   1.372   1.535   1.695   1.839
   1.955   2.030
   2.539   2.508   2.421   2.293   2.141   1.981   1.823   1.668   1.512   1.348
   1.174   0.993   0.814   0.650   0.511   0.406   0.334   0.294   0.281   0.294
   0.334   0.406   0.511   0.650   0.814   0.993   1.174   1.348   1.512   1.668
   1.823   1.981   2.141   2.293   2.421   2.508   2.539   2.508   2.421   2.293
   2.141   1.981   1.823   1.668   1.512   1.348   1.174   0.993   0.814   0.650
   0.511   0.406   0.334   0.294   0.281   0.294   0.334   0.406   0.511   0.650
   0.814   0.993   1.174   1.348   1.512   1.668   1.823   1.981   2.141   2.293
   2.421   2.508
   2.172   2.148   2.083   1.998   1.917   1.856   1.818   1.788   1.740   1.649
   1.502   1.302   1.070   0.837   0.631   0.471   0.364   0.304   0.286   0.304
   0.364   0.471   0.631   0.837   1.070   1.302   1.502   1.649   1.740   1.788
   1.818   1.856   1.917   1.998   2.083   2.148   2.172   2.148   2.083   1.998
   1.917   1.856   1.818   1.788   1.740   1.649   1.502   1.302   1.070   0.837
   0.631   0.471   0.364   0.304   0.286   0.304   0.364   0.471   0.631   0.837
   1.070   1.302   1.502   1.649   1.740   1.788   1.818   1.856   1.917   1.998
   2.083   2.148
   1.245   1.231   1.199   1.175   1.190   1.263   1.390   1.543   1.672   1.728
   1.682   1.532   1.309   1.061   0.834   0.659   0.546   0.487   0.469   0.487
   0.546   0.659   0.834   1.061   1.309   1.532   1.682   1.728   1.672   1.543
   1.390   1.263   1.190   1.175   1.199   1.231   1.245   1.231   1.199   1.175
   1.190   1.263   1.390   1.543   1.672   1.728   1.682   1.532   1.309   1.061
   0.834   0.659   0.546   0.487   0.469   0.487   0.546   0.659   0.834   1.061
   1.309   1.532   1.682   1.728   1.672   1.543   1.390   1.263   1.190   1.175
   1.199   1.231
   0.457   0.448   0.430   0.430   0.483   0.618   0.839   1.119   1.400   1.611
   1.702   1.657   1.502   1.293   1.088   0.928   0.827   0.777   0.762   0.777
   0.827   0.928   1.088   1.293   1.502   1.657   1.702   1.611   1.400   1.119
   0.839   0.618   0.483   0.430   0.430   0.448   0.457   0.448   0.430   0.430
   0.483   0.618   0.839   1.119   1.400   1.611   1.702   1.657   1.502   1.293
   1.088   0.928   0.827   0.777   0.762   0.777   0.827   0.928   1.088   1.293
   1.502   1.657   1.702   1.611   1.400   1.119   0.839   0.618   0.483   0.430
   0.430   0.448
   0.225   0.215   0.189   0.161   0.163   0.240   0.425   0.716   1.065   1.391
   1.614   1.691   1.631   1.480   1.303   1.149   1.044   0.988   0.971   0.988
   1.044   1.149   1.303   1.480   1.631   1.691   1.614   1.391   1.065   0.716
   0.425   0.240   0.163   0.161   0.189   0.215   0.225   0.215   0.189   0.161
   0.163   0.240   0.425   0.716   1.065   1.391   1.614   1.691   1.631   1.480
   1.303   1.149   1.044   0.988   0.971   0.988   1.044   1.149   1.303   1.480
   1.631   1.691   1.614   1.391   1.065   0.716   0.425   0.240   0.163   0.161
   0.189   0.215
   0.373   0.366   0.336   0.270   0.184   0.139   0.212   0.442   0.800   1.193
   1.512   1.679   1.680   1.554   1.369   1.188   1.051   0.970   0.944   0.970
   1.051   1.188   1.369   1.554   1.680   1.679   1.512   1.193   0.800   0.442
   0.212   0.139   0.184   0.270   0.336   0.366   0.373   0.366   0.336   0.270
   0.184   0.139   0.212   0.442   0.800   1.193   1.512   1.679   1.680   1.554
   1.369   1.188   1.051   0.970   0.944   0.970   1.051   1.188   1.369   1.554
   1.680   1.679   1.512   1.193   0.800   0.442   0.212   0.139   0.184   0.270
   0.336   0.366
   0.454   0.463   0.464   0.403   0.276   0.158   0.163   0.364   0.736   1.164
   1.510   1.679   1.654   1.485   1.252   1.029   0.861   0.763   0.731   0.763
   0.861   1.029   1.252   1.485   1.654   1.679   1.510   1.164   0.736   0.364
   0.163   0.158   0.276   0.403   0.464   0.463   0.454   0.463   0.464   0.403
   0.276   0.158   0.163   0.364   0.736   1.164   1.510   1.679   1.654   1.485
   1.252   1.029   0.861   0.763   0.731   0.763   0.861   1.029   1.252   1.485
   1.654   1.679   1.510   1.164   0.736   0.364   0.163   0.158   0.276   0.403
   0.464   0.463
   0.276   0.312   0.374   0.377   0.296   0.218   0.276   0.545   0.967   1.391
   1.666   1.716   1.567   1.303   1.022   0.793   0.645   0.570   0.549   0.570
   0.645   0.793   1.022   1.303   1.567   1.716   1.666   1.391   0.967   0.545
   0.276   0.218   0.296   0.377   0.374   0.312   0.276   0.312   0.374   0.377
   0.296   0.218   0.276   0.545   0.967   1.391   1.666   1.716   1.567   1.303
   1.022   0.793   0.645   0.570   0.549   0.570   0.645   0.793   1.022   1.303
   1.567   1.716   1.666   1.391   0.967   0.545   0.276   0.218   0.296   0.377
   0.374   0.312
   0.061   0.119   0.238   0.314   0.325   0.367   0.573   0.972   1.444   1.796
   1.893   1.730   1.411   1.065   0.791   0.628   0.564   0.557   0.561   0.557
   0.564   0.628   0.791   1.065   1.411   1.730   1.893   1.796   1.444   0.972
   0.573   0.367   0.325   0.314   0.238   0.119   0.061   0.119   0.238   0.314
   0.325   0.367   0.573   0.972   1.444   1.796   1.893   1.730   1.411   1.065
   0.791   0.628   0.564   0.557   0.561   0.557   0.564   0.628   0.791   1.065
   1.411   1.730   1.893   1.796   1.444   0.972   0.573   0.367   0.325   0.314
   0.238   0.119
   0.154   0.214   0.338   0.433   0.497   0.645   0.988   1.487   1.943   2.135
   1.986   1.596   1.153   0.811   0.630   0.590   0.631   0.691   0.717   0.691
   0.631   0.590   0.630   0.811   1.153   1.596   1.986   2.135   1.943   1.487
   0.988   0.645   0.497   0.433   0.338   0.214   0.154   0.214   0.338   0.433
   0.497   0.645   0.988   1.487   1.943   2.135   1.986   1.596   1.153   0.811
   0.630   0.590   0.631   0.691   0.717   0.691   0.631   0.590   0.630   0.811
   1.153   1.596   1.986   2.135   1.943   1.487   0.988   0.645   0.497   0.433
   0.338   0.214
   0.652   0.690   0.758   0.789   0.818   0.983   1.370   1.869   2.214   2.188
   1.793   1.242   0.787   0.560   0.538   0.624   0.730   0.806   0.833   0.806
   0.730   0.624   0.538   0.560   0.787   1.242   1.793   2.188   2.214   1.869
   1.370   0.983   0.818   0.789   0.758   0.690   0.652   0.690   0.758   0.789
   0.818   0.983   1.370   1.869   2.214   2.188   1.793   1.242   0.787   0.560
   0.538   0.624   0.730   0.806   0.833   0.806   0.730   0.624   0.538   0.560
   0.787   1.242   1.793   2.188   2.214   1.869   1.370   0.983   0.818   0.789
   0.758   0.690
   1.318   1.324   1.306   1.225   1.157   1.260   1.601   2.018   2.206   1.966
   1.387   0.770   0.396   0.340   0.483   0.657   0.766   0.805   0.811   0.805
   0.766   0.657   0.483   0.340   0.396   0.770   1.387   1.966   2.206   2.018
   1.601   1.260   1.157   1.225   1.306   1.324   1.318   1.324   1.306   1.225
   1.157   1.260   1.601   2.018   2.206   1.966   1.387   0.770   0.396   0.340
   0.483   0.657   0.766   0.805   0.811   0.805   0.766   0.657   0.483   0.340
   0.396   0.770   1.387   1.966   2.206   2.018   1.601   1.260   1.157   1.225
   1.306   1.324
   1.781   1.763   1.682   1.517   1.367   1.405   1.687   2.024   2.097   1.727
   1.054   0.429   0.135   0.205   0.453   0.666   0.752   0.748   0.733   0.748
   0.752   0.666   0.453   0.205   0.135   0.429   1.054   1.727   2.097   2.024
   1.687   1.405   1.367   1.517   1.682   1.763   1.781   1.763   1.682   1.517
   1.367   1.405   1.687   2.024   2.097   1.727   1.054   0.429   0.135   0.205
   0.453   0.666   0.752   0.748   0.733   0.748   0.752   0.666   0.453   0.205
   0.135   0.429   1.054   1.727   2.097   2.024   1.687   1.405   1.367   1.517
   1.682   1.763
 111       5.00   72    0 5.00   18    0
   0.337   0.337   0.338   0.338   0.339   0.339   0.340   0.341   0.343   0.344
   0.345   0.346   0.348   0.349   0.350   0.351   0.351   0.352   0.352   0.352
   0.351   0.351   0.350   0.349   0.348   0.346   0.345   0.344   0.343   0.341
   0.340   0.339   0.339   0.338   0.338   0.337   0.337   0.337   0.338   0.338
   0.339   0.339   0.340   0.341   0.343   0.344   0.345   0.346   0.348   0.349
   0.350   0.351   0.351   0.352   0.352   0.352   0.351   0.351   0.350   0.349
   0.348   0.346   0.345   0.344   0.343   0.341   0.340   0.339   0.339   0.338
   0.338   0.337
   0.228   0.226   0.222   0.217   0.210   0.202   0.196   0.191   0.189   0.189
   0.192   0.199   0.207   0.216   0.226   0.235   0.243   0.248   0.249   0.248
   0.243   0.235   0.226   0.216   0.207   0.199   0.192   0.189   0.189   0.191
   0.196   0.202   0.210   0.217   0.222   0.226   0.228   0.226   0.222   0.217
   0.210   0.202   0.196   0.191   0.189   0.189   0.192   0.199   0.207   0.216
   0.226   0.235   0.243   0.248   0.249   0.248   0.243   0.235   0.226   0.216
   0.207   0.199   0.192   0.189   0.189   0.191   0.196   0.202   0.210   0.217
   0.222   0.226
   0.551   0.539   0.504   0.450   0.381   0.305   0.229   0.159   0.100   0.058
   0.033   0.027   0.036   0.057   0.085   0.115   0.141   0.158   0.164   0.158
   0.141   0.115   0.085   0.057   0.036   0.027   0.033   0.058   0.100   0.159
   0.229   0.305   0.381   0.450   0.504   0.539   0.551   0.539   0.504   0.450
   0.381   0.305   0.229   0.159   0.100   0.058   0.033   0.027   0.036   0.057
   0.085   0.115   0.141   0.158   0.164   0.158   0.141   0.115   0.085   0.057
   0.036   0.027   0.033   0.058   0.100   0.159   0.229   0.305   0.381   0.450
   0.504   0.539
   1.659   1.624   1.521   1.361   1.158   0.929   0.696   0.475   0.283   0.131
   0.027  -0.029  -0.041  -0.018   0.029   0.085   0.137   0.174   0.187   0.174
   0.137   0.085   0.029  -0.018  -0.041  -0.029   0.027   0.131   0.283   0.475
   0.696   0.929   1.158   1.361   1.521   1.624   1.659   1.624   1.521   1.361
   1.158   0.929   0.696   0.475   0.283   0.131   0.027  -0.029  -0.041  -0.018
   0.029   0.085   0.137   0.174   0.187   0.174   0.137   0.085   0.029  -0.018
  -0.041  -0.029   0.027   0.131   0.283   0.475   0.696   0.929   1.158   1.361
   1.521   1.624
   3.116   3.055   2.879   2.604   2.256   1.865   1.461   1.073   0.726   0.440
   0.226   0.089   0.025   0.023   0.067   0.134   0.202   0.252   0.270   0.252
   0.202   0.134   0.067   0.023   0.025   0.089   0.226   0.440   0.726   1.073
   1.461   1.865   2.256   2.604   2.879   3.055   3.116   3.055   2.879   2.604
   2.256   1.865   1.461   1.073   0.726   0.440   0.226   0.089   0.025   0.023
   0.067   0.134   0.202   0.252   0.270   0.252   0.202   0.134   0.067   0.023
   0.025   0.089   0.226   0.440   0.726   1.073   1.461   1.865   2.256   2.604
   2.879   3.055
   3.956   3.887   3.688   3.379   2.989   2.551   2.096   1.650   1.235   0.870
   0.572   0.349   0.209   0.144   0.143   0.182   0.236   0.280   0.297   0.280
   0.236   0.182   0.143   0.144   0.209   0.349   0.572   0.870   1.235   1.650
   2.096   2.551   2.989   3.379   3.688   3.887   3.956   3.887   3.688   3.379
   2.989   2.551   2.096   1.650   1.235   0.870   0.572   0.349   0.209   0.144
   0.143   0.182   0.236   0.280   0.297   0.280   0.236   0.182   0.143   0.144
   0.209   0.349   0.572   0.870   1.235   1.650   2.096   2.551   2.989   3.379
   3.688   3.887
   3.570   3.519   3.375   3.157   2.890   2.593   2.279   1.954   1.620   1.287
   0.972   0.694   0.475   0.325   0.242   0.214   0.217   0.230   0.237   0.230
   0.217   0.214   0.242   0.325   0.475   0.694   0.972   1.287   1.620   1.954
   2.279   2.593   2.890   3.157   3.375   3.519   3.570   3.519   3.375   3.157
   2.890   2.593   2.279   1.954   1.620   1.287   0.972   0.694   0.475   0.325
   0.242   0.214   0.217   0.230   0.237   0.230   0.217   0.214   0.242   0.325
   0.475   0.694   0.972   1.287   1.620   1.954   2.279   2.593   2.890   3.157
   3.375   3.519
   2.251   2.236   2.197   2.152   2.114   2.082   2.038   1.956   1.812   1.602
   1.342   1.066   0.807   0.592   0.428   0.315   0.242   0.201   0.188   0.201
   0.242   0.315   0.428   0.592   0.807   1.066   1.342   1.602   1.812   1.956
   2.038   2.082   2.114   2.152   2.197   2.236   2.251   2.236   2.197   2.152
   2.114   2.082   2.038   1.956   1.812   1.602   1.342   1.066   0.807   0.592
   0.428   0.315   0.242   0.201   0.188   0.201   0.242   0.315   0.428   0.592
   0.807   1.066   1.342   1.602   1.812   1.956   2.038   2.082   2.114   2.152
   2.197   2.236
   0.888   0.903   0.954   1.058   1.220   1.423   1.624   1.767   1.810   1.743
   1.588   1.384   1.168   0.959   0.762   0.578   0.419   0.308   0.267   0.308
   0.419   0.578   0.762   0.959   1.168   1.384   1.588   1.743   1.810   1.767
   1.624   1.423   1.220   1.058   0.954   0.903   0.888   0.903   0.954   1.058
   1.220   1.423   1.624   1.767   1.810   1.743   1.588   1.384   1.168   0.959
   0.762   0.578   0.419   0.308   0.267   0.308   0.419   0.578   0.762   0.959
   1.168   1.384   1.588   1.743   1.810   1.767   1.624   1.423   1.220   1.058
   0.954   0.903
   0.155   0.176   0.249   0.396   0.625   0.916   1.216   1.461   1.604   1.641
   1.606   1.538   1.458   1.351   1.193   0.979   0.743   0.555   0.483   0.555
   0.743   0.979   1.193   1.351   1.458   1.538   1.606   1.641   1.604   1.461
   1.216   0.916   0.625   0.396   0.249   0.176   0.155   0.176   0.249   0.396
   0.625   0.916   1.216   1.461   1.604   1.641   1.606   1.538   1.458   1.351
   1.193   0.979   0.743   0.555   0.483   0.555   0.743   0.979   1.193   1.351
   1.458   1.538   1.606   1.641   1.604   1.461   1.216   0.916   0.625   0.396
   0.249   0.176
   0.057   0.061   0.089   0.171   0.334   0.568   0.829   1.057   1.211   1.300
   1.368   1.457   1.558   1.614   1.558   1.367   1.095   0.856   0.761   0.856
   1.095   1.367   1.558   1.614   1.558   1.457   1.368   1.300   1.211   1.057
   0.829   0.568   0.334   0.171   0.089   0.061   0.057   0.061   0.089   0.171
   0.334   0.568   0.829   1.057   1.211   1.300   1.368   1.457   1.558   1.614
   1.558   1.367   1.095   0.856   0.761   0.856   1.095   1.367   1.558   1.614
   1.558   1.457   1.368   1.300   1.211   1.057   0.829   0.568   0.334   0.171
   0.089   0.061
   0.179   0.159   0.117   0.095   0.142   0.271   0.453   0.633   0.768   0.870
   0.993   1.182   1.420   1.622   1.692   1.587   1.362   1.142   1.051   1.142
   1.362   1.587   1.692   1.622   1.420   1.182   0.993   0.870   0.768   0.633
   0.453   0.271   0.142   0.095   0.117   0.159   0.179   0.159   0.117   0.095
   0.142   0.271   0.453   0.633   0.768   0.870   0.993   1.182   1.420   1.622
   1.692   1.587   1.362   1.142   1.051   1.142   1.362   1.587   1.692   1.622
   1.420   1.182   0.993   0.870   0.768   0.633   0.453   0.271   0.142   0.095
   0.117   0.159
   0.237   0.202   0.115   0.023  -0.012   0.049   0.194   0.362   0.493   0.584
   0.688   0.866   1.120   1.379   1.551   1.586   1.512   1.412   1.367   1.412
   1.512   1.586   1.551   1.379   1.120   0.866   0.688   0.584   0.493   0.362
   0.194   0.049  -0.012   0.023   0.115   0.202   0.237   0.202   0.115   0.023
  -0.012   0.049   0.194   0.362   0.493   0.584   0.688   0.866   1.120   1.379
   1.551   1.586   1.512   1.412   1.367   1.412   1.512   1.586   1.551   1.379
   1.120   0.866   0.688   0.584   0.493   0.362   0.194   0.049  -0.012   0.023
   0.115   0.202
   0.312   0.283   0.202   0.100   0.035   0.066   0.199   0.373   0.503   0.559
   0.585   0.655   0.808   1.018   1.235   1.424   1.570   1.667   1.701   1.667
   1.570   1.424   1.235   1.018   0.808   0.655   0.585   0.559   0.503   0.373
   0.199   0.066   0.035   0.100   0.202   0.283   0.312   0.283   0.202   0.100
   0.035   0.066   0.199   0.373   0.503   0.559   0.585   0.655   0.808   1.018
   1.235   1.424   1.570   1.667   1.701   1.667   1.570   1.424   1.235   1.018
   0.808   0.655   0.585   0.559   0.503   0.373   0.199   0.066   0.035   0.100
   0.202   0.283
   0.641   0.635   0.603   0.530   0.446   0.418   0.484   0.603   0.689   0.691
   0.634   0.586   0.601   0.701   0.896   1.189   1.537   1.832   1.950   1.832
   1.537   1.189   0.896   0.701   0.601   0.586   0.634   0.691   0.689   0.603
   0.484   0.418   0.446   0.530   0.603   0.635   0.641   0.635   0.603   0.530
   0.446   0.418   0.484   0.603   0.689   0.691   0.634   0.586   0.601   0.701
   0.896   1.189   1.537   1.832   1.950   1.832   1.537   1.189   0.896   0.701
   0.601   0.586   0.634   0.691   0.689   0.603   0.484   0.418   0.446   0.530
   0.603   0.635
   1.276   1.304   1.340   1.301   1.164   0.999   0.889   0.847   0.823   0.767
   0.679   0.588   0.523   0.519   0.640   0.945   1.395   1.817   1.992   1.817
   1.395   0.945   0.640   0.519   0.523   0.588   0.679   0.767   0.823   0.847
   0.889   0.999   1.164   1.301   1.340   1.304   1.276   1.304   1.340   1.301
   1.164   0.999   0.889   0.847   0.823   0.767   0.679   0.588   0.523   0.519
   0.640   0.945   1.395   1.817   1.992   1.817   1.395   0.945   0.640   0.519
   0.523   0.588   0.679   0.767   0.823   0.847   0.889   0.999   1.164   1.301
   1.340   1.304
   1.997   2.056   2.154   2.133   1.915   1.566   1.219   0.960   0.795   0.694
   0.634   0.588   0.525   0.461   0.491   0.735   1.184   1.643   1.838   1.643
   1.184   0.735   0.491   0.461   0.525   0.588   0.634   0.694   0.795   0.960
   1.219   1.566   1.915   2.133   2.154   2.056   1.997   2.056   2.154   2.133
   1.915   1.566   1.219   0.960   0.795   0.694   0.634   0.588   0.525   0.461
   0.491   0.735   1.184   1.643   1.838   1.643   1.184   0.735   0.491   0.461
   0.525   0.588   0.634   0.694   0.795   0.960   1.219   1.566   1.915   2.133
   2.154   2.056
   2.471   2.549   2.682   2.667   2.385   1.902   1.384   0.968   0.703   0.580
   0.560   0.574   0.544   0.459   0.429   0.609   1.023   1.473   1.670   1.473
   1.023   0.609   0.429   0.459   0.544   0.574   0.560   0.580   0.703   0.968
   1.384   1.902   2.385   2.667   2.682   2.549   2.471   2.549   2.682   2.667
   2.385   1.902   1.384   0.968   0.703   0.580   0.560   0.574   0.544   0.459
   0.429   0.609   1.023   1.473   1.670   1.473   1.023   0.609   0.429   0.459
   0.544   0.574   0.560   0.580   0.703   0.968   1.384   1.902   2.385   2.667
   2.682   2.549
TEXTURE_INDEX=   2.7759
ERR_CF 220         1080     538   26.52   11.53
ERR_CF 200         1080     374   27.11   10.44
ERR_CF 111         1080     364   31.28   11.12
