TEXEVAL                                                                         
Analysis started on 01-Aug-19 15:02:39                                          
 LMAX=14LFMAX= 3 CUBIC ANORTHIC
 220      5.00 5.00
 200      5.00 5.00
 111      5.00 5.00
 220       5.00   72    0 5.00   15    0
   6.803   6.803   6.803   6.803   6.803   6.803   6.803   6.803   6.803   6.803
   6.803   6.803   6.803   6.803   6.803   6.803   6.803   6.803   6.803   6.803
   6.803   6.803   6.803   6.803   6.803   6.803   6.803   6.803   6.803   6.803
   6.803   6.803   6.803   6.803   6.803   6.803   6.803   6.803   6.803   6.803
   6.803   6.803   6.803   6.803   6.803   6.803   6.803   6.803   6.803   6.803
   6.803   6.803   6.803   6.803   6.803   6.803   6.803   6.803   6.803   6.803
   6.803   6.803   6.803   6.803   6.803   6.803   6.803   6.803   6.803   6.803
   6.803   6.803
   2.475   2.847   2.912   2.941   3.050   3.291   3.273   3.752   3.704   3.784
   3.892   4.500   4.874   4.548   4.944   5.493   5.644   6.125   5.856   6.405
   6.260   6.596   6.092   5.885   5.813   5.864   5.770   5.603   4.987   4.897
   4.919   5.104   4.762   4.378   4.111   4.084   4.477   4.433   4.032   3.592
   3.762   3.804   4.449   4.468   4.167   4.487   4.539   4.593   4.110   3.997
   4.847   4.723   4.938   4.618   4.418   4.187   4.006   3.994   3.908   3.742
   3.912   3.358   3.189   3.504   3.149   2.875   2.864   2.871   2.653   2.707
   2.696   2.805
   0.772   1.086   1.056   0.847   1.041   1.243   1.344   1.256   1.506   1.669
   2.030   1.935   2.174   2.425   2.536   3.061   2.946   3.370   3.605   3.608
   3.580   3.776   2.877   2.967   2.788   3.078   2.923   2.542   2.138   2.198
   2.138   2.088   1.779   1.916   1.728   1.425   1.608   1.607   1.436   1.422
   1.523   1.438   1.768   1.642   1.534   1.858   1.748   1.966   1.887   2.054
   2.339   2.298   2.737   2.974   2.637   2.565   2.331   2.191   1.807   1.942
   1.811   1.823   1.558   1.521   1.526   1.332   1.183   1.191   1.193   0.942
   1.089   1.280
   0.543   0.460   0.469   0.468   0.408   0.673   0.760   0.593   0.724   0.773
   1.119   0.924   0.925   1.393   1.349   1.459   1.199   1.552   2.110   1.844
   1.987   1.759   1.563   1.632   1.483   1.300   1.404   1.097   1.145   1.130
   0.985   0.812   0.742   0.763   0.793   0.677   0.642   0.510   0.563   0.853
   0.785   0.717   0.753   0.810   0.693   0.804   0.719   0.860   1.076   1.478
   1.130   1.317   1.693   2.108   1.630   1.445   1.401   1.504   1.220   1.271
   0.949   0.974   0.705   0.703   0.718   0.632   0.533   0.612   0.673   0.586
   0.667   0.737
   0.367   0.362   0.632   0.445   0.362   0.682   0.560   0.331   0.383   0.679
   0.560   0.587   0.612   0.653   0.920   0.951   1.000   0.940   1.104   1.215
   1.311   1.158   1.134   0.925   0.967   0.550   0.810   0.571   0.524   0.757
   0.691   0.580   0.504   0.607   0.507   0.675   0.284   0.369   0.522   0.648
   0.473   0.380   0.517   0.609   0.602   0.298   0.448   0.632   0.897   1.048
   0.524   0.896   1.212   1.374   1.155   1.185   0.901   1.287   1.147   0.992
   0.824   0.642   0.341   0.346   0.483   0.159   0.368   0.292   0.232   0.627
   0.351   0.468
   0.170   0.413   0.809   0.186   0.514   0.684   0.354   0.000   0.159   0.530
   0.336   0.173   0.631   0.635   0.909   0.901   0.854   0.667   0.947   0.983
   0.988   1.155   0.856   0.577   0.408   0.584   0.445   0.299   0.274   0.458
   0.571   0.309   0.489   0.619   0.338   0.718   0.462   0.185   0.553   0.456
   0.259   0.332   0.407   0.305   0.298   0.308   0.255   0.480   0.549   0.601
   0.518   0.909   1.104   1.144   1.058   1.570   1.251   1.047   0.846   1.026
   0.553   0.524   0.349   0.252   0.525   0.086   0.272   0.412   0.074   0.749
   0.353   0.465
   0.313   0.562   0.767   0.607   0.783   0.560   0.236   0.225   0.345   0.427
   0.370   0.112   0.597   0.624   0.776   0.885   0.836   0.870   1.220   0.703
   0.860   1.109   0.905   0.797   0.291   0.610   0.543   0.408   0.224   0.284
   0.523   0.297   0.456   0.625   0.506   0.821   0.662   0.544   0.604   0.455
   0.141   0.566   0.502   0.139   0.209   0.346   0.117   0.355   0.172   0.690
   0.650   0.838   0.862   0.925   1.039   1.388   1.172   1.067   0.570   0.727
   0.439   0.253   0.435   0.551   0.459   0.068   0.202   0.426   0.274   0.654
   0.337   0.300
   0.569   0.776   0.748   0.766   0.833   0.413   0.176   0.242   0.554   0.354
   0.425   0.149   0.287   0.254   0.534   0.536   0.840   0.975   1.148   0.575
   0.836   0.849   0.963   0.878   0.347   0.730   0.546   0.470   0.282   0.233
   0.521   0.581   0.362   0.353   0.638   0.646   0.376   0.791   0.442   0.245
   0.283   0.665   0.565   0.511   0.387   0.278   0.332   0.218   0.329   0.923
   0.420   0.662   0.543   0.618   1.502   0.950   1.260   1.266   0.628   0.740
   0.302   0.364   0.284   0.544   0.446   0.256   0.197   0.402   0.344   0.372
   0.540   0.350
   0.936   0.891   0.816   0.276   0.823   0.833   0.132   0.258   0.337   0.158
   0.568   0.278   0.118   0.199   0.955   0.486   0.753   1.173   1.132   0.934
   0.413   1.077   1.331   1.204   0.287   0.782   0.338   0.384   0.429   0.064
   0.575   0.624   0.536   0.100   0.374   0.210   0.322   0.958   0.599   0.755
   0.532   0.364   0.298   0.644   0.272   0.360   0.553   0.291   0.787   0.873
   0.635   0.750   1.198   0.950   1.689   1.473   2.054   1.400   0.460   0.643
   0.061   0.374   0.488   0.652   0.843   0.615   0.239   0.282   0.502   0.399
   0.925   0.483
   0.911   0.825   1.176   0.744   1.266   1.248   0.457   0.343   0.266   0.425
   0.545   0.423   0.397   0.539   1.641   1.163   1.487   1.442   1.341   1.263
   1.135   1.059   1.667   1.081   0.867   0.639   0.558   0.337   0.525   0.064
   0.572   0.984   1.198   0.421   0.592   0.178   0.803   1.498   0.873   0.791
   0.606   0.576   0.360   0.562   0.495   0.694   0.392   0.703   0.482   0.745
   1.198   0.908   2.061   1.716   1.309   2.207   2.755   1.990   0.784   0.612
   0.714   0.518   0.922   0.547   0.789   0.454   0.335   0.713   0.827   0.898
   1.093   1.145
   1.825   1.400   2.396   2.035   1.566   1.456   1.357   0.133   0.963   0.493
   0.382   0.566   0.632   0.892   1.884   1.715   1.982   2.156   1.897   1.219
   1.548   1.238   1.120   1.058   0.917   0.516   0.576   0.365   0.343   0.166
   0.726   1.238   1.278   1.294   0.913   1.358   1.893   2.235   1.694   0.972
   1.078   0.996   1.024   1.348   0.594   0.510   0.139   0.613   0.302   0.723
   1.713   1.994   2.472   2.225   1.266   2.184   3.312   2.650   1.917   1.262
   1.615   0.966   0.919   0.051   0.095   0.095   0.356   0.860   1.434   1.546
   1.059   2.230
   3.444   3.855   3.921   2.872   1.984   2.537   2.075   0.318   1.106   0.121
   0.502   0.494   0.898   0.846   1.424   1.426   2.349   2.342   1.814   1.975
   2.133   2.182   0.946   1.122   0.202   0.407   0.466   0.263   0.443   1.053
   0.975   1.119   1.350   1.438   2.730   3.500   3.686   3.819   3.174   2.680
   1.865   1.495   0.998   1.437   0.747   0.065   0.000   0.427   0.734   1.197
   1.911   3.081   2.020   2.002   1.786   1.295   2.092   2.654   2.446   1.449
   1.177   0.797   0.438   0.142   0.000   0.388   0.568   0.488   2.293   2.168
   1.925   3.256
   4.300   4.882   3.874   1.893   1.979   1.964   1.892   1.033   0.446   0.286
   0.985   0.339   0.730   0.914   0.974   1.846   2.334   1.185   0.974   1.906
   3.120   3.058   1.717   1.568   0.257   0.620   0.268   0.604   0.743   0.887
   1.011   0.654   1.190   1.670   3.278   5.803   4.347   4.021   3.910   3.574
   2.800   2.007   0.947   0.925   0.912   0.172   0.386   0.646   0.517   0.931
   2.182   1.819   1.810   1.665   1.447   0.850   1.366   2.411   1.420   1.493
   1.051   0.561   0.000   0.235   0.243   0.602   0.422   1.223   2.121   2.476
   3.478   4.583
   3.073   3.247   1.678   0.429   0.760   0.755   1.272   1.200   0.587   0.942
   1.523   1.596   0.143   0.516   0.832   2.350   1.869   1.042   1.243   1.635
   2.272   2.788   2.503   2.532   0.257   0.561   0.013   1.737   0.300   0.437
   0.783   0.000   1.216   2.115   1.358   5.115   2.396   2.521   2.316   1.821
   2.482   1.022   0.804   1.244   1.798   0.583   0.896   1.269   0.248   0.864
   1.534   0.509   1.709   1.362   0.891   0.991   1.097   1.438   0.792   1.728
   2.305   0.329   0.747   0.259   0.826   0.323   0.329   1.218   1.118   1.481
   2.583   3.948
   0.692   1.039   0.130   0.000   0.000   0.699   1.289   1.175   1.784   0.656
   2.158   2.292   1.334   0.000   1.066   2.427   1.323   0.695   1.690   1.732
   1.036   1.419   1.606   2.038   0.857   0.916   0.000   2.055   0.675   1.475
   0.652   0.000   1.768   0.911   0.254   1.586   0.345   0.929   0.253   0.562
   0.747   0.311   0.752   1.199   2.433   0.653   0.867   0.973   1.338   2.507
   0.272   1.506   0.795   0.603   0.619   0.776   0.148   0.988   0.491   0.911
   1.531   0.000   0.747   0.979   1.144   0.108   0.380   0.272   0.584   0.291
   1.494   1.294
 200       5.00   72    0 5.00   15    0
   0.956   0.956   0.956   0.956   0.956   0.956   0.956   0.956   0.956   0.956
   0.956   0.956   0.956   0.956   0.956   0.956   0.956   0.956   0.956   0.956
   0.956   0.956   0.956   0.956   0.956   0.956   0.956   0.956   0.956   0.956
   0.956   0.956   0.956   0.956   0.956   0.956   0.956   0.956   0.956   0.956
   0.956   0.956   0.956   0.956   0.956   0.956   0.956   0.956   0.956   0.956
   0.956   0.956   0.956   0.956   0.956   0.956   0.956   0.956   0.956   0.956
   0.956   0.956   0.956   0.956   0.956   0.956   0.956   0.956   0.956   0.956
   0.956   0.956
   0.935   0.892   0.830   0.885   0.645   0.876   0.840   0.835   0.894   0.828
   0.859   0.898   0.834   0.970   0.788   1.004   0.991   0.871   0.980   0.973
   0.874   0.955   1.157   0.953   0.959   0.934   0.964   0.953   0.884   0.872
   1.048   0.958   0.935   1.012   0.943   0.882   0.943   0.972   0.921   0.910
   0.953   0.934   0.964   0.783   0.920   0.970   0.937   1.005   0.818   0.942
   1.060   0.916   0.837   0.977   0.855   0.820   0.879   0.938   0.816   0.893
   0.834   0.834   0.795   0.835   0.836   0.837   0.784   0.809   0.827   0.881
   0.919   0.804
   0.867   0.821   0.808   0.837   0.766   0.831   0.934   0.805   0.856   0.689
   0.872   0.687   0.629   0.873   0.713   0.879   0.976   0.940   0.794   0.908
   0.847   0.824   1.026   0.981   0.913   0.812   0.853   0.846   0.776   0.870
   1.012   0.863   0.897   0.804   0.985   0.906   1.069   0.901   0.918   0.955
   0.861   0.978   0.853   0.773   0.800   0.810   0.890   0.950   0.755   0.878
   0.815   0.788   0.849   0.839   0.754   0.800   0.779   0.757   0.867   0.830
   0.653   0.890   0.732   0.616   0.799   0.882   0.580   0.744   0.893   0.845
   0.868   0.796
   1.010   0.800   1.066   0.994   0.969   0.972   0.975   0.763   0.828   0.714
   0.887   0.700   0.640   0.728   0.582   0.665   0.885   0.838   0.756   0.856
   0.660   0.602   0.747   0.903   0.840   0.632   0.764   0.701   0.817   0.885
   0.883   0.917   0.950   0.728   1.025   1.087   1.098   1.118   1.018   0.953
   0.894   0.911   0.884   0.798   0.669   0.687   0.745   0.745   0.910   0.828
   0.638   0.699   0.915   0.812   0.745   0.726   0.759   0.834   0.830   0.765
   0.744   1.100   0.690   0.794   0.736   0.959   0.690   0.823   0.992   0.965
   1.036   1.029
   1.380   1.210   1.369   1.214   1.145   1.118   1.014   0.819   0.732   0.847
   0.820   0.696   0.771   0.539   0.470   0.586   0.583   0.719   0.742   0.827
   0.658   0.532   0.554   0.744   0.810   0.671   0.716   0.860   0.889   0.848
   0.886   0.911   1.139   1.032   1.177   1.290   1.360   1.373   1.065   1.082
   1.167   0.927   1.217   0.899   0.700   0.670   0.646   0.762   0.796   0.660
   0.600   0.568   0.694   0.744   0.784   0.615   0.559   0.836   0.611   0.701
   0.738   0.988   0.643   0.974   0.791   0.956   0.984   0.808   1.093   1.057
   1.292   1.312
   1.402   1.480   1.324   1.418   1.566   1.314   1.571   1.340   0.974   1.021
   0.920   0.700   0.850   0.633   0.615   0.805   0.479   0.634   0.469   0.702
   0.781   0.531   0.705   0.709   0.757   0.713   0.749   1.210   1.083   1.015
   1.250   1.411   1.424   1.256   1.501   1.317   1.643   1.332   1.287   1.533
   1.600   1.108   1.540   1.368   1.082   1.046   0.751   1.096   0.679   0.562
   0.648   0.439   0.530   0.581   0.790   0.646   0.350   0.685   0.552   0.523
   0.445   0.803   0.830   1.105   1.086   1.301   1.577   1.237   1.527   1.168
   1.447   1.407
   0.772   1.203   0.964   1.025   1.301   1.399   1.849   1.913   1.718   1.679
   1.345   1.139   1.179   0.762   0.666   0.825   0.544   0.458   0.230   0.427
   0.616   0.561   0.822   0.608   0.580   0.918   1.135   1.240   1.712   1.854
   1.649   1.799   1.468   1.003   1.415   1.260   1.105   0.897   1.123   1.455
   1.695   1.083   1.610   1.706   1.749   1.601   1.457   1.599   0.959   0.868
   0.530   0.446   0.515   0.295   0.763   0.567   0.532   0.438   0.574   0.373
   0.656   1.030   1.434   1.806   1.911   1.942   2.414   1.886   1.534   1.026
   1.027   0.972
   0.131   0.628   0.465   0.480   0.637   0.810   1.461   2.111   2.067   2.708
   2.585   2.102   1.962   1.060   0.814   0.720   0.473   0.495   0.394   0.413
   0.509   0.808   0.734   0.690   0.584   1.359   2.013   2.064   2.642   2.544
   2.026   1.413   1.140   0.704   0.865   0.852   0.473   0.474   0.837   0.788
   1.125   1.106   1.419   1.799   2.724   3.222   2.967   2.148   1.197   1.063
   0.538   0.487   0.401   0.309   0.525   0.364   1.012   0.448   0.521   0.850
   1.312   2.017   2.798   3.369   3.121   2.788   2.432   1.769   1.074   0.705
   0.691   0.613
   0.025   0.349   0.462   0.242   0.253   0.427   1.011   1.711   2.011   3.078
   3.872   3.582   2.591   1.696   0.857   0.917   0.404   0.579   0.482   0.592
   0.608   0.691   0.638   1.129   1.341   1.986   3.403   3.387   3.485   2.942
   1.727   1.194   0.860   0.600   0.386   0.235   0.188   0.210   0.896   0.366
   0.343   1.068   1.111   1.822   3.086   4.549   3.726   2.762   1.756   1.311
   0.567   0.468   0.556   0.400   0.308   0.191   0.751   0.520   0.673   0.957
   1.473   3.006   3.634   4.136   3.377   2.740   1.711   1.194   0.783   0.524
   0.572   0.450
   0.021   0.342   0.365   0.074   0.211   0.501   0.822   0.943   1.647   2.880
   3.748   3.844   2.539   2.237   0.988   0.830   0.330   0.462   0.154   0.723
   0.616   0.493   0.700   1.178   1.508   2.004   3.695   3.542   3.493   2.608
   1.315   1.054   0.593   0.761   0.175   0.047   0.186   0.022   0.782   0.273
   0.007   0.442   0.643   1.499   2.461   3.847   3.314   3.089   2.059   0.931
   0.724   0.481   0.486   0.116   0.345   0.315   0.232   0.689   0.770   0.688
   1.483   2.656   3.020   3.416   2.815   1.990   1.137   0.704   0.441   0.379
   0.322   0.162
   0.000   0.157   0.000   0.489   0.441   0.498   1.397   0.763   1.226   2.252
   2.447   2.404   2.111   1.953   0.893   0.727   0.371   0.591   0.373   0.715
   0.563   0.778   0.755   0.850   1.005   1.616   2.874   2.506   2.908   1.817
   1.385   1.065   0.524   0.560   0.225   0.110   0.279   0.241   0.445   0.276
   0.000   0.232   0.546   1.225   1.292   2.302   2.505   2.137   1.600   0.511
   0.787   0.893   0.337   0.288   0.416   0.561   0.661   0.716   0.757   0.782
   1.170   1.791   1.905   2.193   2.056   1.027   1.115   0.445   0.123   0.293
   0.322   0.064
   0.100   0.166   0.248   0.734   0.330   0.366   1.083   0.501   1.225   1.655
   1.428   1.054   1.535   1.050   0.282   0.439   0.562   0.553   0.346   0.487
   0.265   0.952   0.719   0.597   0.687   1.202   1.753   1.541   2.043   1.291
   1.010   0.929   0.323   0.528   0.617   0.373   0.366   0.403   0.366   0.240
   0.000   0.409   0.409   1.231   0.736   1.238   1.850   1.205   0.907   0.499
   0.481   1.098   0.628   0.564   0.242   0.402   1.029   0.379   0.644   0.601
   0.709   1.051   1.425   1.359   1.211   0.163   0.751   0.309   0.142   0.132
   0.251   0.163
   0.175   0.633   0.562   0.290   0.158   0.464   0.421   0.225   0.877   0.942
   1.166   0.872   0.895   0.347   0.022   0.230   0.361   0.327   0.075   0.709
   0.246   0.445   0.596   0.693   0.192   0.686   0.916   1.045   1.165   0.940
   0.564   1.008   0.459   0.459   0.502   0.542   0.234   0.200   0.297   0.499
   0.237   0.213   0.038   0.586   1.012   0.558   0.990   0.990   0.442   0.107
   0.504   0.452   0.718   0.530   0.032   0.222   0.913   0.415   0.879   1.004
   0.740   0.693   0.853   0.947   0.933   0.513   0.100   0.455   0.328   0.143
   0.486   0.495
   0.075   0.531   0.491   0.000   0.587   0.754   0.327   0.203   0.649   0.274
   1.767   1.059   1.050   0.386   0.001   0.307   0.000   0.563   0.142   1.238
   0.621   0.000   0.428   0.625   0.738   0.793   0.531   0.397   0.746   0.547
   0.731   0.713   0.757   0.111   0.199   0.326   0.001   0.137   0.342   0.787
   0.237   0.000   0.027   0.239   0.917   0.000   0.463   0.734   0.340   0.045
   0.824   0.342   0.776   0.365   0.209   0.143   0.425   0.260   1.014   1.532
   0.421   0.913   0.126   0.507   0.691   0.851   0.000   0.348   0.352   0.143
   0.509   0.331
   0.000   0.274   0.177   0.305   0.892   1.233   0.533   0.678   0.548   0.327
   1.743   0.463   0.727   0.386   0.550   0.283   0.549   0.534   0.143   1.348
   1.182   0.205   0.748   0.299   0.738   0.496   1.183   0.515   1.080   0.164
   1.393   0.023   0.302   0.111   0.490   0.265   0.321   0.528   0.346   0.430
   0.000   0.000   0.012   0.232   0.364   0.879   0.320   0.901   0.737   0.221
   0.838   0.719   0.496   0.273   0.310   0.000   0.735   0.701   0.580   1.374
   0.548   0.573   0.549   0.386   0.552   0.838   0.578   0.434   0.443   0.033
   0.215   0.004
 111       5.00   72    0 5.00   15    0
   0.092   0.092   0.092   0.092   0.092   0.092   0.092   0.092   0.092   0.092
   0.092   0.092   0.092   0.092   0.092   0.092   0.092   0.092   0.092   0.092
   0.092   0.092   0.092   0.092   0.092   0.092   0.092   0.092   0.092   0.092
   0.092   0.092   0.092   0.092   0.092   0.092   0.092   0.092   0.092   0.092
   0.092   0.092   0.092   0.092   0.092   0.092   0.092   0.092   0.092   0.092
   0.092   0.092   0.092   0.092   0.092   0.092   0.092   0.092   0.092   0.092
   0.092   0.092   0.092   0.092   0.092   0.092   0.092   0.092   0.092   0.092
   0.092   0.092
   0.113   0.104   0.107   0.097   0.106   0.060   0.093   0.096   0.061   0.078
   0.071   0.077   0.076   0.139   0.090   0.083   0.104   0.128   0.118   0.087
   0.104   0.089   0.088   0.133   0.127   0.103   0.106   0.105   0.116   0.132
   0.123   0.092   0.100   0.080   0.098   0.097   0.061   0.091   0.091   0.067
   0.082   0.087   0.079   0.100   0.102   0.107   0.134   0.128   0.060   0.067
   0.100   0.093   0.099   0.080   0.079   0.087   0.074   0.096   0.079   0.062
   0.083   0.100   0.089   0.072   0.105   0.086   0.112   0.069   0.072   0.073
   0.090   0.110
   0.116   0.155   0.156   0.104   0.105   0.121   0.127   0.114   0.075   0.095
   0.049   0.083   0.103   0.138   0.056   0.087   0.088   0.102   0.170   0.084
   0.121   0.094   0.104   0.120   0.098   0.119   0.143   0.129   0.158   0.119
   0.136   0.101   0.115   0.129   0.144   0.112   0.100   0.111   0.098   0.100
   0.141   0.119   0.170   0.087   0.086   0.128   0.075   0.102   0.085   0.107
   0.097   0.114   0.134   0.094   0.087   0.113   0.117   0.110   0.053   0.057
   0.117   0.168   0.093   0.080   0.126   0.143   0.152   0.161   0.119   0.092
   0.125   0.097
   0.270   0.280   0.319   0.311   0.361   0.342   0.289   0.207   0.192   0.187
   0.095   0.110   0.158   0.149   0.072   0.115   0.161   0.126   0.213   0.114
   0.164   0.167   0.136   0.140   0.147   0.172   0.175   0.170   0.213   0.159
   0.168   0.155   0.240   0.254   0.227   0.232   0.206   0.241   0.227   0.221
   0.241   0.141   0.255   0.148   0.163   0.153   0.121   0.135   0.133   0.218
   0.127   0.126   0.134   0.120   0.111   0.123   0.161   0.128   0.136   0.179
   0.153   0.170   0.130   0.194   0.192   0.226   0.294   0.324   0.248   0.306
   0.324   0.273
   0.903   0.645   0.820   0.688   0.945   0.902   0.652   0.570   0.547   0.449
   0.440   0.285   0.354   0.252   0.182   0.237   0.285   0.175   0.162   0.159
   0.167   0.141   0.120   0.177   0.211   0.211   0.289   0.257   0.347   0.391
   0.456   0.469   0.546   0.549   0.539   0.587   0.601   0.643   0.650   0.640
   0.621   0.426   0.521   0.520   0.436   0.342   0.326   0.354   0.251   0.290
   0.147   0.174   0.129   0.225   0.103   0.167   0.208   0.177   0.221   0.285
   0.217   0.273   0.355   0.538   0.676   0.729   0.789   0.824   0.803   0.911
   0.801   0.847
   1.555   1.318   1.453   1.367   1.749   1.678   1.672   1.751   1.705   1.532
   1.490   0.943   0.790   0.525   0.425   0.413   0.375   0.324   0.279   0.285
   0.287   0.187   0.288   0.415   0.391   0.406   0.667   0.856   0.961   1.313
   1.490   1.351   1.139   1.222   1.352   1.210   1.370   1.379   1.321   1.449
   1.536   1.553   1.674   1.769   1.676   1.386   1.037   0.891   0.655   0.537
   0.374   0.335   0.345   0.394   0.321   0.410   0.403   0.413   0.408   0.478
   0.660   0.873   1.228   1.805   2.463   2.492   2.246   2.138   1.924   1.823
   1.654   1.471
   1.795   1.659   1.788   1.770   2.054   2.355   2.879   3.263   3.848   3.765
   3.607   2.411   1.848   1.544   1.105   0.878   0.666   0.661   0.787   0.583
   0.586   0.615   0.804   0.992   1.071   1.522   1.985   2.697   2.930   3.449
   2.998   2.576   2.113   1.950   1.710   1.636   1.765   1.733   1.535   1.992
   2.170   2.692   3.189   3.886   4.030   3.978   2.967   2.205   1.625   1.230
   0.837   0.739   0.594   0.585   0.597   0.652   0.790   0.757   0.858   1.125
   1.333   2.144   2.880   4.057   4.670   4.749   4.072   3.506   2.550   2.149
   1.915   1.678
   1.371   1.104   1.355   1.201   1.461   2.058   2.607   3.154   4.243   4.410
   4.456   3.757   3.119   2.290   1.516   1.210   1.077   0.827   0.898   0.775
   1.015   1.107   1.277   1.338   1.807   2.428   3.131   4.380   4.411   4.370
   3.813   2.708   2.261   1.889   1.361   1.476   1.372   1.163   1.098   1.743
   1.936   2.383   3.170   4.116   4.820   4.928   4.337   3.002   2.117   1.651
   1.112   1.163   0.791   0.626   0.638   0.679   0.855   0.862   1.121   1.320
   1.451   2.820   3.324   4.765   4.512   4.402   3.849   2.985   1.970   1.505
   1.209   1.190
   0.661   0.554   0.729   0.551   0.994   1.216   1.470   2.157   2.539   2.881
   3.151   3.015   2.791   1.772   1.193   1.064   1.178   0.627   0.716   0.713
   1.007   0.997   1.198   1.475   1.755   1.962   2.758   3.437   3.738   2.971
   2.738   1.758   1.196   1.127   0.890   0.984   0.696   0.550   0.666   0.908
   1.115   1.519   1.993   2.261   3.333   3.585   3.267   2.319   1.796   1.268
   1.055   1.259   0.748   0.503   0.656   0.560   0.720   0.768   0.968   1.192
   1.081   2.041   2.303   3.099   2.574   2.387   2.143   1.644   1.227   0.727
   0.672   0.537
   0.324   0.504   0.367   0.396   0.547   0.685   0.766   1.281   1.291   1.500
   1.746   1.492   1.683   1.053   1.008   0.949   0.880   0.473   0.609   0.524
   0.586   0.846   0.863   1.182   1.191   1.372   1.844   1.849   2.388   1.457
   0.990   0.960   0.485   0.434   0.309   0.462   0.259   0.395   0.396   0.380
   0.639   0.927   1.014   1.216   1.940   2.237   1.707   1.600   1.095   0.806
   0.726   1.007   0.666   0.492   0.418   0.518   0.503   0.802   0.698   0.997
   0.888   1.204   1.354   1.818   1.531   1.469   1.311   1.059   0.787   0.322
   0.629   0.330
   0.104   0.392   0.174   0.378   0.153   0.498   0.519   0.609   0.947   1.118
   1.111   1.237   0.936   0.863   0.832   0.837   0.543   0.336   0.472   0.344
   0.284   0.842   0.643   0.459   0.774   0.854   1.083   1.468   1.270   0.824
   0.457   0.574   0.319   0.255   0.143   0.265   0.075   0.208   0.349   0.372
   0.459   0.522   0.534   0.820   1.265   1.436   1.191   1.103   0.450   0.902
   0.672   0.623   0.698   0.477   0.493   0.393   0.275   0.798   0.589   0.634
   0.707   0.889   0.753   1.307   1.151   1.237   0.910   0.577   0.299   0.218
   0.349   0.260
   0.239   0.255   0.117   0.372   0.110   0.538   0.438   0.597   0.633   1.107
   1.012   0.965   0.710   0.687   0.494   0.580   0.413   0.526   0.415   0.320
   0.453   0.781   0.440   0.081   0.613   0.641   0.987   1.297   1.152   0.865
   0.475   0.552   0.198   0.301   0.249   0.479   0.260   0.090   0.510   0.292
   0.486   0.326   0.331   0.714   0.877   1.400   0.949   0.803   0.830   0.796
   0.771   0.311   0.710   0.386   0.763   0.182   0.199   0.643   0.700   0.497
   0.662   0.909   0.895   0.846   1.056   0.856   0.620   0.631   0.176   0.172
   0.000   0.335
   0.300   0.122   0.113   0.316   0.215   0.261   0.167   0.390   0.155   0.717
   0.806   0.326   0.768   0.638   0.310   0.447   0.387   0.777   0.303   0.410
   0.599   0.659   0.296   0.440   0.560   0.839   0.747   0.755   1.152   0.812
   0.443   0.625   0.084   0.239   0.132   0.428   0.347   0.070   0.294   0.482
   0.391   0.122   0.084   0.739   0.708   0.798   0.388   0.610   1.172   0.842
   0.357   0.263   0.429   0.262   0.357   0.230   0.224   0.467   0.616   0.597
   0.941   0.640   0.989   0.489   0.687   0.632   0.318   0.457   0.139   0.171
   0.026   0.249
   0.253   0.078   0.113   0.303   0.183   0.029   0.181   0.063   0.185   0.661
   0.597   0.310   0.573   0.755   0.128   0.395   0.480   0.998   0.389   0.568
   0.658   0.484   0.399   0.975   0.354   0.536   0.797   0.358   0.705   0.439
   0.218   0.441   0.225   0.096   0.000   0.262   0.225   0.045   0.078   0.370
   0.078   0.017   0.154   0.483   0.421   0.450   0.219   0.558   0.856   0.622
   0.004   0.424   0.134   0.273   0.426   0.169   0.408   0.365   0.535   0.730
   0.585   0.215   0.623   0.150   0.198   0.816   0.113   0.154   0.181   0.106
   0.197   0.381
   0.904   0.380   0.200   0.637   0.368   0.178   0.345   0.070   0.176   0.590
   0.538   0.258   0.636   0.455   0.002   0.498   0.830   1.106   0.675   0.945
   1.056   0.258   0.461   0.677   0.089   0.137   0.764   0.523   0.532   0.277
   0.017   0.111   0.278   0.353   0.639   0.407   0.506   0.223   0.300   0.010
   0.078   0.000   0.493   0.694   0.309   0.513   0.295   0.367   0.334   0.013
   0.105   0.434   0.460   0.279   0.568   0.505   0.359   0.387   0.386   0.768
   0.216   0.288   0.501   0.538   0.866   0.952   0.387   0.215   0.542   0.092
   0.224   0.711
  4  0      1.5280423E-01  0.0000000E+00
  4  1     -2.7948544E-02  1.0759115E-02
  4  2     -5.9083500E-02  4.5290704E-02
  4  3     -4.5125072E-02 -7.1472312E-02
  4  4     -9.2266305E-01  1.2830046E-01
  6  0      3.2544828E+00  0.0000000E+00
  6  1     -1.9009426E-01 -1.6968828E-01
  6  2     -7.6362774E-01  1.2156669E-01
  6  3      5.6739483E-02 -1.7388615E-01
  6  4      1.8127803E+00 -3.2902608E-01
  6  5     -4.3614773E-02  1.4387382E-02
  6  6      2.9718534E-01  1.1055214E-01
  8  0      1.5528107E+00  0.0000000E+00
  8  1     -1.4385391E-01 -1.3144319E-01
  8  2      1.5585251E-01  6.2000717E-03
  8  3     -1.4229311E-02  1.0061392E-01
  8  4     -1.1159831E+00  2.0666587E-01
  8  5      1.4151673E-01  2.2762843E-02
  8  6      3.2121135E-01  4.1308543E-02
  8  7      8.3759248E-02  8.4812033E-02
  8  8      6.4779793E-01 -2.6654232E-01
 10  0      5.5233279E-01  0.0000000E+00
 10  1     -3.1380108E-02  1.0537338E-02
 10  2     -3.0879679E-02  4.6756245E-04
 10  3     -5.3931017E-02  1.3291611E-01
 10  4     -9.2501588E-01  1.7636074E-01
 10  5      4.9680054E-02  5.7749899E-02
 10  6     -2.4501528E-01  2.1817063E-02
 10  7     -9.0121376E-03  4.5133934E-02
 10  8      1.1685366E-01 -5.2919546E-03
 10  9      5.2932973E-02 -3.2472431E-02
 10 10     -4.9068594E-01  9.7999218E-02
 12  0     -4.3433256E-01  2.0896115E+00  0.0000000E+00  0.0000000E+00
 12  1      7.2981264E-02 -2.6735805E-01  1.0879347E-01 -3.0956326E-01
 12  2      2.0806416E-02 -9.5724504E-01 -6.2608243E-03  9.2891311E-02
 12  3      6.6172532E-02  4.1919561E-02  1.3333164E-03 -2.0785816E-01
 12  4      1.1183049E-01  1.0232768E+00 -1.4807511E-02 -1.9027699E-01
 12  5     -2.2435799E-02 -1.2958282E-01 -2.4989295E-02 -3.9696583E-02
 12  6     -7.1007518E-03 -2.3649187E-01 -3.0957105E-02  2.2824124E-01
 12  7      4.4006150E-02 -6.9757662E-02  1.4664184E-02 -2.9884393E-01
 12  8      7.3989552E-01  4.6927616E-01 -1.9433413E-01 -3.0139388E-01
 12  9     -6.6924623E-02 -2.0479360E-01  4.9957826E-02  1.6571677E-02
 12 10     -4.4130213E-01  4.7050041E-01  8.5617421E-04 -3.8112493E-02
 12 11      6.8688446E-02  2.5824637E-02  2.2153307E-01  5.0824380E-02
 12 12     -4.2052099E-02 -8.6416163E-02  1.1283696E-01  4.0199402E-01
 14  0      7.8291434E-01  0.0000000E+00
 14  1     -7.9057069E-02 -1.9126509E-01
 14  2      8.6237803E-02  3.5728166E-04
 14  3      1.2552995E-02  1.2736820E-02
 14  4     -5.2400735E-01  1.0333365E-01
 14  5      1.1573510E-01 -4.7283324E-02
 14  6      4.5907676E-01 -6.3920865E-02
 14  7      3.7261218E-03  4.6583779E-02
 14  8     -3.7208087E-01  1.7391087E-01
 14  9      1.3306172E-01 -7.3296034E-02
 14 10      1.2984262E-02 -9.6268830E-02
 14 11     -7.7991212E-02  1.9573068E-02
 14 12      4.6108850E-02  2.4266503E-02
 14 13      9.3738707E-02 -3.4250241E-02
 14 14      7.2106379E-02 -9.0059742E-02
 220       5.00   72    0 5.00   18    0
   4.559   4.575   4.594   4.614   4.637   4.661   4.686   4.712   4.739   4.766
   4.794   4.820   4.846   4.871   4.895   4.916   4.936   4.954   4.969   4.981
   4.991   4.999   5.003   5.005   5.004   5.001   4.995   4.987   4.977   4.966
   4.953   4.938   4.923   4.907   4.891   4.874   4.857   4.840   4.823   4.807
   4.791   4.775   4.760   4.745   4.731   4.718   4.704   4.691   4.678   4.666
   4.653   4.641   4.628   4.616   4.604   4.592   4.580   4.569   4.558   4.547
   4.538   4.529   4.522   4.516   4.512   4.510   4.510   4.512   4.517   4.524
   4.533   4.545
   2.924   2.963   3.013   3.073   3.141   3.218   3.301   3.390   3.483   3.578
   3.674   3.770   3.862   3.950   4.032   4.106   4.171   4.226   4.269   4.301
   4.320   4.327   4.323   4.307   4.280   4.244   4.200   4.148   4.092   4.031
   3.969   3.905   3.842   3.780   3.721   3.667   3.618   3.574   3.537   3.507
   3.484   3.468   3.459   3.456   3.458   3.464   3.473   3.483   3.493   3.501
   3.506   3.506   3.500   3.487   3.467   3.440   3.405   3.363   3.316   3.264
   3.209   3.153   3.098   3.045   2.996   2.954   2.919   2.893   2.877   2.872
   2.878   2.895
   1.082   1.125   1.181   1.250   1.332   1.425   1.530   1.645   1.768   1.899
   2.034   2.171   2.306   2.435   2.556   2.665   2.758   2.834   2.890   2.926
   2.939   2.932   2.903   2.856   2.792   2.714   2.626   2.530   2.431   2.331
   2.232   2.135   2.043   1.957   1.877   1.805   1.742   1.689   1.648   1.622
   1.611   1.615   1.637   1.673   1.725   1.787   1.859   1.935   2.011   2.084
   2.148   2.200   2.236   2.254   2.250   2.225   2.178   2.110   2.024   1.922
   1.810   1.691   1.570   1.454   1.347   1.252   1.174   1.113   1.071   1.047
   1.042   1.054
   0.120   0.150   0.182   0.216   0.254   0.300   0.357   0.428   0.515   0.618
   0.735   0.862   0.993   1.124   1.248   1.360   1.456   1.532   1.585   1.613
   1.615   1.589   1.537   1.462   1.367   1.261   1.149   1.038   0.936   0.846
   0.768   0.702   0.644   0.592   0.540   0.489   0.437   0.387   0.344   0.311
   0.294   0.298   0.326   0.379   0.457   0.557   0.675   0.804   0.938   1.069
   1.191   1.296   1.380   1.437   1.463   1.456   1.414   1.337   1.229   1.095
   0.942   0.779   0.618   0.466   0.334   0.226   0.146   0.094   0.067   0.062
   0.072   0.093
   0.215   0.228   0.219   0.191   0.150   0.107   0.071   0.054   0.062   0.101
   0.167   0.257   0.362   0.472   0.579   0.675   0.758   0.823   0.870   0.895
   0.895   0.865   0.802   0.709   0.592   0.463   0.339   0.235   0.163   0.128
   0.128   0.153   0.190   0.224   0.242   0.238   0.208   0.159   0.097   0.034
  -0.020  -0.055  -0.064  -0.043   0.011   0.095   0.206   0.336   0.477   0.621
   0.759   0.884   0.989   1.071   1.122   1.138   1.115   1.049   0.943   0.802
   0.637   0.464   0.300   0.160   0.056  -0.007  -0.029  -0.016   0.023   0.076
   0.132   0.181
   0.662   0.664   0.629   0.559   0.462   0.351   0.243   0.155   0.101   0.091
   0.124   0.192   0.283   0.379   0.470   0.546   0.610   0.663   0.710   0.747
   0.768   0.758   0.705   0.605   0.464   0.305   0.157   0.049   0.004   0.028
   0.114   0.238   0.373   0.489   0.566   0.592   0.569   0.506   0.420   0.326
   0.237   0.164   0.114   0.089   0.093   0.126   0.187   0.273   0.376   0.488
   0.600   0.706   0.802   0.885   0.948   0.985   0.985   0.939   0.844   0.708
   0.546   0.383   0.244   0.148   0.107   0.119   0.177   0.265   0.366   0.468
   0.558   0.625
   0.714   0.720   0.696   0.639   0.551   0.443   0.331   0.235   0.174   0.161
   0.199   0.279   0.381   0.482   0.564   0.621   0.658   0.692   0.737   0.796
   0.855   0.887   0.863   0.765   0.602   0.403   0.216   0.086   0.043   0.093
   0.219   0.385   0.550   0.679   0.750   0.756   0.707   0.624   0.530   0.444
   0.377   0.328   0.291   0.263   0.241   0.232   0.243   0.279   0.337   0.411
   0.491   0.569   0.645   0.718   0.785   0.836   0.854   0.821   0.728   0.584
   0.415   0.258   0.146   0.101   0.125   0.200   0.302   0.408   0.502   0.579
   0.640   0.686
   0.378   0.406   0.418   0.404   0.362   0.298   0.227   0.166   0.136   0.149
   0.214   0.320   0.447   0.564   0.646   0.683   0.688   0.690   0.720   0.791
   0.884   0.956   0.959   0.865   0.681   0.452   0.240   0.097   0.050   0.095
   0.201   0.329   0.442   0.513   0.528   0.487   0.405   0.308   0.227   0.185
   0.188   0.222   0.263   0.285   0.281   0.260   0.245   0.257   0.305   0.379
   0.463   0.544   0.619   0.692   0.766   0.829   0.857   0.820   0.704   0.522
   0.315   0.138   0.039   0.032   0.100   0.202   0.292   0.345   0.358   0.350
   0.344   0.353
   0.378   0.434   0.451   0.422   0.360   0.286   0.217   0.167   0.149   0.173
   0.248   0.372   0.523   0.667   0.766   0.802   0.786   0.758   0.764   0.827
   0.927   1.006   1.000   0.879   0.665   0.423   0.226   0.119   0.102   0.144
   0.205   0.261   0.306   0.338   0.351   0.329   0.266   0.173   0.086   0.043
   0.067   0.147   0.243   0.310   0.325   0.301   0.280   0.303   0.389   0.524
   0.672   0.804   0.910   0.999   1.085   1.161   1.194   1.141   0.979   0.726
   0.444   0.215   0.099   0.106   0.195   0.298   0.357   0.352   0.306   0.265
   0.264   0.310
   1.327   1.393   1.319   1.138   0.912   0.699   0.532   0.418   0.353   0.341
   0.391   0.510   0.682   0.871   1.026   1.107   1.115   1.090   1.088   1.140
   1.219   1.255   1.176   0.965   0.680   0.422   0.275   0.259   0.323   0.392
   0.428   0.447   0.503   0.629   0.807   0.964   1.022   0.948   0.779   0.598
   0.482   0.456   0.485   0.508   0.486   0.430   0.398   0.451   0.615   0.860
   1.121   1.336   1.485   1.589   1.679   1.763   1.803   1.739   1.528   1.192
   0.813   0.500   0.335   0.328   0.421   0.530   0.595   0.617   0.648   0.745
   0.926   1.147
   2.953   2.979   2.720   2.277   1.788   1.362   1.042   0.819   0.667   0.580
   0.571   0.664   0.856   1.109   1.357   1.536   1.622   1.648   1.674   1.734
   1.793   1.762   1.561   1.198   0.784   0.478   0.382   0.479   0.650   0.773
   0.814   0.855   1.025   1.392   1.897   2.370   2.625   2.567   2.242   1.796
   1.391   1.112   0.948   0.830   0.702   0.572   0.509   0.590   0.841   1.207
   1.583   1.872   2.041   2.126   2.193   2.272   2.326   2.271   2.040   1.642
   1.175   0.775   0.546   0.508   0.599   0.731   0.859   1.010   1.257   1.651
   2.155   2.642
   4.195   4.125   3.666   2.999   2.328   1.787   1.399   1.122   0.907   0.744
   0.664   0.711   0.903   1.209   1.550   1.837   2.019   2.114   2.189   2.283
   2.354   2.286   1.981   1.464   0.905   0.526   0.454   0.638   0.895   1.057
   1.103   1.179   1.481   2.099   2.921   3.680   4.097   4.033   3.553   2.868
   2.206   1.698   1.349   1.085   0.844   0.632   0.527   0.613   0.912   1.351
   1.789   2.099   2.237   2.259   2.267   2.323   2.397   2.383   2.180   1.779
   1.278   0.833   0.569   0.513   0.605   0.764   0.960   1.245   1.705   2.370
   3.147   3.830
   4.113   3.925   3.369   2.676   2.068   1.646   1.383   1.188   0.997   0.809
   0.675   0.659   0.805   1.098   1.468   1.807   2.038   2.165   2.262   2.389
   2.506   2.472   2.158   1.584   0.951   0.527   0.461   0.682   0.963   1.111
   1.119   1.175   1.506   2.199   3.105   3.916   4.333   4.233   3.711   3.000
   2.328   1.814   1.449   1.158   0.887   0.648   0.517   0.574   0.839   1.242
   1.642   1.901   1.969   1.909   1.848   1.875   1.970   2.015   1.885   1.549
   1.101   0.700   0.473   0.444   0.548   0.704   0.893   1.183   1.669   2.371
   3.171   3.830
   2.749   2.489   1.995   1.499   1.179   1.066   1.070   1.071   1.005   0.880
   0.745   0.666   0.702   0.882   1.171   1.468   1.672   1.762   1.818   1.932
   2.092   2.152   1.952   1.478   0.917   0.540   0.494   0.701   0.931   1.000
   0.921   0.886   1.106   1.636   2.320   2.886   3.116   2.964   2.555   2.082
   1.692   1.426   1.242   1.080   0.911   0.750   0.643   0.642   0.772   1.005
   1.254   1.411   1.419   1.319   1.224   1.231   1.335   1.426   1.378   1.156
   0.844   0.585   0.480   0.527   0.642   0.740   0.810   0.929   1.202   1.665
   2.215   2.641
   1.091   0.849   0.532   0.318   0.307   0.471   0.699   0.891   1.007   1.040
   0.989   0.871   0.752   0.727   0.838   1.022   1.155   1.172   1.139   1.178
   1.331   1.483   1.465   1.218   0.874   0.649   0.658   0.820   0.939   0.883
   0.698   0.560   0.617   0.870   1.176   1.354   1.322   1.136   0.932   0.816
   0.807   0.853   0.899   0.931   0.963   0.989   0.980   0.919   0.839   0.797
   0.822   0.875   0.884   0.829   0.763   0.763   0.845   0.937   0.946   0.848
   0.716   0.657   0.719   0.854   0.954   0.940   0.819   0.683   0.648   0.767
   0.977   1.130
   0.167   0.022  -0.109  -0.130  -0.013   0.196   0.442   0.709   0.997   1.254
   1.367   1.255   0.973   0.698   0.592   0.656   0.746   0.729   0.621   0.556
   0.636   0.813   0.945   0.948   0.880   0.867   0.958   1.064   1.046   0.856
   0.588   0.395   0.356   0.413   0.432   0.324   0.123  -0.046  -0.067   0.071
   0.279   0.457   0.592   0.754   0.999   1.273   1.428   1.340   1.039   0.698
   0.495   0.478   0.558   0.618   0.620   0.610   0.634   0.680   0.709   0.719
   0.765   0.902   1.110   1.291   1.330   1.177   0.882   0.561   0.327   0.231
   0.233   0.238
   0.163   0.129   0.122   0.155   0.203   0.244   0.324   0.544   0.953   1.434
   1.738   1.663   1.242   0.740   0.443   0.430   0.544   0.576   0.464   0.325
   0.301   0.421   0.605   0.776   0.935   1.117   1.294   1.361   1.228   0.928
   0.606   0.408   0.365   0.381   0.327   0.162  -0.036  -0.134  -0.063   0.122
   0.289   0.359   0.399   0.573   0.971   1.477   1.809   1.734   1.272   0.696
   0.324   0.281   0.451   0.622   0.672   0.627   0.574   0.564   0.604   0.704
   0.892   1.169   1.457   1.621   1.562   1.285   0.899   0.544   0.309   0.208
   0.190   0.187
   0.431   0.448   0.503   0.547   0.506   0.379   0.291   0.438   0.907   1.535
   1.971   1.926   1.415   0.763   0.345   0.304   0.482   0.614   0.569   0.420
   0.320   0.352   0.498   0.715   0.988   1.293   1.543   1.610   1.428   1.069
   0.707   0.490   0.446   0.483   0.484   0.412   0.324   0.308   0.391   0.497
   0.511   0.405   0.311   0.447   0.916   1.556   2.001   1.952   1.421   0.738
   0.292   0.245   0.456   0.655   0.686   0.584   0.475   0.453   0.533   0.710
   0.983   1.319   1.613   1.723   1.573   1.221   0.827   0.542   0.419   0.412
   0.436   0.440
 200       5.00   72    0 5.00   18    0
   0.713   0.711   0.708   0.706   0.704   0.703   0.702   0.701   0.700   0.700
   0.699   0.700   0.700   0.700   0.701   0.701   0.702   0.703   0.703   0.704
   0.704   0.705   0.705   0.706   0.706   0.706   0.707   0.707   0.708   0.709
   0.710   0.711   0.712   0.714   0.716   0.718   0.721   0.723   0.726   0.729
   0.733   0.736   0.740   0.743   0.747   0.751   0.754   0.757   0.760   0.763
   0.765   0.767   0.768   0.769   0.769   0.768   0.767   0.765   0.763   0.760
   0.757   0.754   0.750   0.746   0.742   0.738   0.734   0.731   0.727   0.723
   0.720   0.716
   0.758   0.755   0.752   0.747   0.742   0.737   0.733   0.730   0.729   0.731
   0.736   0.744   0.755   0.767   0.781   0.795   0.808   0.819   0.827   0.832
   0.833   0.830   0.825   0.817   0.808   0.798   0.789   0.781   0.775   0.772
   0.770   0.770   0.772   0.775   0.778   0.782   0.785   0.787   0.789   0.791
   0.794   0.798   0.803   0.810   0.820   0.833   0.848   0.866   0.884   0.902
   0.919   0.934   0.945   0.951   0.952   0.948   0.938   0.924   0.907   0.886
   0.865   0.844   0.824   0.807   0.792   0.781   0.773   0.767   0.764   0.762
   0.761   0.760
   0.891   0.898   0.892   0.875   0.849   0.816   0.780   0.746   0.718   0.701
   0.697   0.708   0.734   0.773   0.821   0.873   0.923   0.966   0.997   1.013
   1.013   0.996   0.968   0.931   0.892   0.855   0.826   0.807   0.800   0.806
   0.822   0.846   0.873   0.901   0.923   0.938   0.943   0.936   0.918   0.891
   0.859   0.825   0.794   0.770   0.757   0.757   0.773   0.802   0.844   0.893
   0.945   0.994   1.032   1.057   1.062   1.049   1.017   0.970   0.912   0.851
   0.793   0.742   0.704   0.681   0.675   0.683   0.704   0.735   0.772   0.810
   0.844   0.872
   1.100   1.117   1.105   1.066   1.001   0.917   0.822   0.723   0.631   0.556
   0.508   0.492   0.512   0.567   0.650   0.751   0.855   0.946   1.012   1.042
   1.034   0.991   0.922   0.841   0.761   0.696   0.656   0.646   0.667   0.716
   0.786   0.871   0.959   1.042   1.109   1.153   1.168   1.152   1.105   1.033
   0.943   0.842   0.742   0.651   0.578   0.532   0.516   0.535   0.585   0.661
   0.753   0.847   0.928   0.981   0.996   0.971   0.906   0.813   0.706   0.600
   0.510   0.448   0.419   0.426   0.465   0.530   0.615   0.711   0.811   0.906
   0.990   1.057
   1.268   1.284   1.271   1.228   1.156   1.059   0.942   0.811   0.674   0.541
   0.425   0.340   0.300   0.312   0.378   0.486   0.614   0.737   0.827   0.866
   0.847   0.779   0.682   0.580   0.498   0.453   0.452   0.494   0.571   0.673
   0.791   0.915   1.038   1.150   1.242   1.305   1.330   1.315   1.262   1.177
   1.071   0.954   0.833   0.715   0.605   0.507   0.432   0.389   0.387   0.430
   0.513   0.619   0.723   0.799   0.826   0.793   0.707   0.588   0.464   0.363
   0.306   0.303   0.351   0.438   0.549   0.668   0.785   0.894   0.994   1.085
   1.163   1.226
   1.249   1.254   1.251   1.243   1.230   1.216   1.195   1.159   1.091   0.983
   0.836   0.665   0.501   0.377   0.319   0.336   0.412   0.512   0.596   0.632
   0.608   0.540   0.463   0.414   0.424   0.497   0.618   0.757   0.887   0.986
   1.055   1.103   1.144   1.189   1.235   1.274   1.293   1.286   1.258   1.222
   1.194   1.183   1.184   1.178   1.141   1.055   0.921   0.758   0.605   0.499
   0.463   0.495   0.569   0.644   0.678   0.654   0.578   0.485   0.419   0.421
   0.507   0.668   0.869   1.067   1.223   1.315   1.344   1.328   1.293   1.261
   1.244   1.243
   1.018   1.007   1.011   1.042   1.121   1.259   1.450   1.655   1.817   1.878
   1.798   1.578   1.262   0.923   0.640   0.465   0.407   0.433   0.486   0.512
   0.496   0.461   0.461   0.550   0.751   1.039   1.349   1.599   1.726   1.710
   1.580   1.395   1.224   1.108   1.057   1.050   1.053   1.047   1.042   1.069
   1.169   1.358   1.618   1.886   2.075   2.111   1.962   1.654   1.267   0.900
   0.637   0.512   0.504   0.554   0.596   0.594   0.558   0.538   0.601   0.791
   1.109   1.504   1.888   2.168   2.284   2.221   2.018   1.744   1.473   1.258
   1.120   1.048
   0.712   0.688   0.665   0.682   0.798   1.059   1.467   1.966   2.447   2.782
   2.870   2.673   2.238   1.679   1.140   0.739   0.525   0.471   0.498   0.530
   0.534   0.545   0.641   0.895   1.321   1.851   2.350   2.673   2.723   2.490
   2.059   1.566   1.145   0.876   0.762   0.746   0.754   0.737   0.707   0.730
   0.892   1.249   1.780   2.379   2.882   3.130   3.035   2.617   1.998   1.355
   0.844   0.548   0.455   0.483   0.534   0.554   0.556   0.613   0.811   1.199
   1.748   2.352   2.864   3.145   3.123   2.815   2.320   1.775   1.304   0.980
   0.806   0.737
   0.502   0.464   0.381   0.323   0.391   0.667   1.179   1.868   2.596   3.179
   3.452   3.332   2.852   2.152   1.431   0.868   0.554   0.467   0.509   0.568
   0.594   0.633   0.788   1.155   1.742   2.439   3.051   3.380   3.310   2.858
   2.167   1.444   0.873   0.551   0.464   0.507   0.555   0.526   0.427   0.357
   0.456   0.834   1.496   2.318   3.075   3.533   3.540   3.098   2.357   1.550
   0.896   0.511   0.383   0.408   0.463   0.483   0.492   0.583   0.858   1.359
   2.033   2.729   3.254   3.450   3.254   2.727   2.028   1.349   0.838   0.558
   0.471   0.486
   0.424   0.368   0.244   0.130   0.130   0.339   0.801   1.479   2.245   2.907
   3.275   3.230   2.783   2.072   1.314   0.720   0.403   0.348   0.436   0.531
   0.569   0.600   0.751   1.134   1.754   2.478   3.085   3.360   3.200   2.650
   1.886   1.131   0.574   0.300   0.278   0.385   0.479   0.456   0.313   0.146
   0.120   0.381   0.974   1.797   2.618   3.171   3.271   2.895   2.194   1.418
   0.797   0.448   0.347   0.377   0.415   0.406   0.390   0.470   0.743   1.237
   1.879   2.508   2.934   3.011   2.703   2.102   1.395   0.782   0.396   0.259
   0.296   0.385
   0.360   0.293   0.201   0.136   0.149   0.293   0.611   1.099   1.683   2.221
   2.544   2.534   2.177   1.580   0.935   0.437   0.199   0.205   0.333   0.443
   0.471   0.470   0.575   0.894   1.426   2.038   2.525   2.715   2.546   2.083
   1.478   0.901   0.479   0.264   0.236   0.318   0.409   0.422   0.327   0.172
   0.079   0.186   0.572   1.189   1.859   2.349   2.479   2.218   1.693   1.116
   0.676   0.453   0.402   0.415   0.405   0.354   0.321   0.390   0.622   1.013
   1.489   1.926   2.188   2.176   1.879   1.384   0.852   0.445   0.245   0.231
   0.305   0.366
   0.201   0.133   0.148   0.235   0.353   0.480   0.642   0.875   1.178   1.482
   1.678   1.668   1.426   1.018   0.577   0.248   0.118   0.168   0.296   0.382
   0.380   0.349   0.407   0.635   1.012   1.420   1.715   1.809   1.702   1.461
   1.166   0.873   0.612   0.400   0.261   0.210   0.240   0.307   0.346   0.322
   0.266   0.268   0.423   0.748   1.151   1.471   1.571   1.424   1.121   0.812
   0.607   0.525   0.500   0.459   0.378   0.300   0.295   0.402   0.605   0.856
   1.100   1.289   1.384   1.344   1.157   0.869   0.579   0.388   0.331   0.353
   0.361   0.301
  -0.001  -0.061   0.058   0.292   0.515   0.642   0.686   0.722   0.803   0.917
   0.997   0.978   0.838   0.614   0.380   0.221   0.184   0.248   0.338   0.373
   0.337   0.293   0.329   0.479   0.696   0.883   0.975   0.980   0.954   0.943
   0.941   0.892   0.744   0.502   0.235   0.049   0.017   0.131   0.301   0.417
   0.429   0.380   0.369   0.461   0.634   0.790   0.840   0.769   0.649   0.568
   0.560   0.580   0.547   0.430   0.282   0.207   0.276   0.462   0.665   0.786
   0.805   0.776   0.756   0.745   0.698   0.588   0.457   0.380   0.382   0.401
   0.340   0.177
  -0.041  -0.105   0.033   0.299   0.534   0.634   0.621   0.591   0.607   0.655
   0.678   0.633   0.528   0.402   0.302   0.262   0.291   0.359   0.409   0.397
   0.338   0.293   0.322   0.418   0.512   0.540   0.503   0.469   0.508   0.624
   0.745   0.775   0.657   0.413   0.136  -0.055  -0.079   0.056   0.258   0.401
   0.418   0.342   0.274   0.289   0.379   0.462   0.471   0.417   0.377   0.417
   0.522   0.597   0.549   0.377   0.189   0.133   0.272   0.527   0.726   0.747
   0.615   0.472   0.446   0.529   0.598   0.549   0.404   0.283   0.268   0.313
   0.292   0.145
   0.251   0.156   0.211   0.382   0.541   0.610   0.626   0.673   0.772   0.857
   0.843   0.713   0.527   0.369   0.293   0.307   0.383   0.469   0.508   0.475
   0.401   0.350   0.364   0.420   0.460   0.457   0.448   0.493   0.600   0.705
   0.720   0.612   0.420   0.224   0.093   0.059   0.122   0.244   0.360   0.401
   0.356   0.285   0.284   0.395   0.558   0.658   0.625   0.505   0.415   0.445
   0.571   0.673   0.639   0.465   0.273   0.223   0.375   0.625   0.784   0.740
   0.567   0.468   0.587   0.850   1.023   0.923   0.594   0.273   0.166   0.267
   0.393   0.382
   0.839   0.695   0.617   0.648   0.730   0.826   0.972   1.205   1.464   1.604
   1.514   1.213   0.837   0.541   0.406   0.428   0.539   0.656   0.709   0.673
   0.584   0.507   0.483   0.508   0.568   0.683   0.890   1.164   1.381   1.382
   1.111   0.688   0.328   0.190   0.276   0.467   0.633   0.705   0.676   0.581
   0.488   0.492   0.666   0.985   1.307   1.452   1.342   1.064   0.803   0.707
   0.776   0.887   0.900   0.781   0.621   0.556   0.646   0.806   0.882   0.808
   0.705   0.799   1.195   1.722   2.017   1.821   1.222   0.599   0.318   0.441
   0.728   0.891
   1.469   1.292   1.105   1.028   1.084   1.275   1.617   2.072   2.488   2.652
   2.444   1.934   1.343   0.889   0.684   0.701   0.837   0.976   1.033   0.989
   0.880   0.767   0.695   0.695   0.818   1.139   1.671   2.266   2.630   2.505
   1.895   1.105   0.544   0.437   0.701   1.060   1.272   1.263   1.107   0.934
   0.868   1.010   1.395   1.930   2.398   2.567   2.347   1.864   1.373   1.086
   1.046   1.142   1.217   1.188   1.085   1.002   0.993   1.021   1.002   0.930
   0.957   1.296   1.996   2.792   3.219   2.955   2.113   1.189   0.689   0.760
   1.141   1.443
   1.832   1.670   1.431   1.291   1.341   1.618   2.117   2.738   3.257   3.421
   3.119   2.471   1.754   1.230   1.010   1.040   1.183   1.305   1.334   1.269
   1.151   1.025   0.923   0.899   1.066   1.554   2.358   3.220   3.704   3.481
   2.614   1.563   0.872   0.791   1.154   1.570   1.750   1.652   1.425   1.248
   1.253   1.515   2.035   2.689   3.229   3.395   3.090   2.454   1.779   1.320
   1.165   1.228   1.351   1.412   1.381   1.296   1.208   1.127   1.041   0.991
   1.127   1.628   2.499   3.438   3.945   3.672   2.723   1.626   0.958   0.941
   1.339   1.727
 111       5.00   72    0 5.00   18    0
   0.027   0.027   0.028   0.030   0.032   0.035   0.039   0.043   0.047   0.052
   0.057   0.062   0.068   0.072   0.077   0.081   0.085   0.088   0.090   0.092
   0.093   0.094   0.094   0.093   0.092   0.090   0.088   0.086   0.084   0.081
   0.079   0.077   0.075   0.074   0.073   0.072   0.072   0.073   0.074   0.075
   0.077   0.079   0.081   0.084   0.086   0.089   0.092   0.094   0.097   0.098
   0.100   0.100   0.101   0.100   0.099   0.097   0.094   0.090   0.086   0.082
   0.077   0.071   0.066   0.060   0.054   0.049   0.044   0.040   0.036   0.033
   0.030   0.028
  -0.219  -0.218  -0.213  -0.204  -0.191  -0.176  -0.157  -0.135  -0.111  -0.085
  -0.057  -0.029   0.000   0.028   0.053   0.075   0.094   0.107   0.115   0.117
   0.112   0.103   0.088   0.070   0.048   0.025   0.001  -0.023  -0.045  -0.066
  -0.083  -0.098  -0.110  -0.120  -0.126  -0.130  -0.131  -0.130  -0.126  -0.120
  -0.111  -0.100  -0.086  -0.068  -0.049  -0.027  -0.003   0.022   0.047   0.072
   0.093   0.112   0.126   0.135   0.137   0.133   0.122   0.106   0.084   0.058
   0.029  -0.002  -0.033  -0.064  -0.094  -0.122  -0.147  -0.168  -0.186  -0.200
  -0.210  -0.217
  -0.263  -0.261  -0.256  -0.249  -0.239  -0.228  -0.215  -0.199  -0.179  -0.156
  -0.127  -0.092  -0.053  -0.011   0.031   0.072   0.106   0.130   0.142   0.138
   0.120   0.088   0.046  -0.004  -0.057  -0.109  -0.155  -0.194  -0.224  -0.244
  -0.256  -0.260  -0.258  -0.253  -0.246  -0.238  -0.232  -0.228  -0.226  -0.225
  -0.224  -0.222  -0.218  -0.209  -0.194  -0.171  -0.139  -0.099  -0.052  -0.001
   0.052   0.101   0.142   0.171   0.186   0.184   0.166   0.135   0.093   0.045
  -0.005  -0.054  -0.098  -0.137  -0.170  -0.196  -0.217  -0.233  -0.245  -0.254
  -0.260  -0.263
   0.204   0.200   0.201   0.202   0.202   0.197   0.183   0.161   0.131   0.098
   0.068   0.045   0.036   0.042   0.063   0.093   0.127   0.154   0.166   0.158
   0.127   0.077   0.015  -0.051  -0.112  -0.158  -0.184  -0.190  -0.177  -0.148
  -0.109  -0.064  -0.019   0.023   0.061   0.091   0.114   0.129   0.136   0.134
   0.123   0.104   0.078   0.047   0.015  -0.012  -0.030  -0.031  -0.014   0.022
   0.073   0.133   0.190   0.235   0.259   0.260   0.239   0.201   0.158   0.119
   0.093   0.085   0.095   0.120   0.152   0.185   0.212   0.228   0.234   0.230
   0.221   0.212
   1.013   0.996   1.007   1.038   1.076   1.104   1.107   1.073   0.999   0.888
   0.750   0.604   0.467   0.356   0.282   0.245   0.237   0.245   0.251   0.243
   0.217   0.176   0.134   0.106   0.107   0.143   0.214   0.311   0.419   0.524
   0.614   0.684   0.734   0.768   0.793   0.816   0.841   0.873   0.911   0.951
   0.988   1.010   1.006   0.968   0.891   0.781   0.651   0.519   0.407   0.331
   0.299   0.305   0.334   0.368   0.390   0.390   0.371   0.349   0.343   0.375
   0.455   0.586   0.752   0.931   1.096   1.222   1.294   1.309   1.275   1.208
   1.130   1.060
   1.620   1.593   1.648   1.767   1.924   2.082   2.206   2.263   2.231   2.103
   1.886   1.607   1.302   1.013   0.774   0.606   0.509   0.468   0.459   0.459
   0.459   0.463   0.493   0.571   0.713   0.915   1.156   1.398   1.604   1.742
   1.801   1.787   1.723   1.636   1.554   1.500   1.488   1.528   1.623   1.768
   1.946   2.126   2.272   2.342   2.304   2.147   1.886   1.561   1.227   0.935
   0.723   0.601   0.554   0.551   0.558   0.557   0.551   0.565   0.636   0.793
   1.051   1.394   1.781   2.152   2.450   2.628   2.668   2.577   2.391   2.156
   1.923   1.735
   1.606   1.585   1.697   1.919   2.217   2.549   2.863   3.105   3.227   3.198
   3.007   2.676   2.253   1.802   1.390   1.068   0.860   0.759   0.733   0.750
   0.788   0.854   0.974   1.181   1.491   1.882   2.298   2.663   2.904   2.979
   2.887   2.669   2.385   2.099   1.859   1.694   1.621   1.648   1.785   2.033
   2.378   2.780   3.169   3.461   3.576   3.466   3.134   2.639   2.073   1.540
   1.121   0.851   0.720   0.680   0.679   0.684   0.696   0.749   0.895   1.176
   1.602   2.136   2.701   3.200   3.542   3.669   3.571   3.286   2.885   2.451
   2.059   1.767
   1.052   1.055   1.189   1.441   1.792   2.212   2.657   3.064   3.370   3.513
   3.459   3.205   2.790   2.285   1.779   1.357   1.072   0.933   0.909   0.951
   1.022   1.124   1.289   1.565   1.972   2.477   2.989   3.390   3.579   3.509
   3.208   2.764   2.284   1.858   1.536   1.327   1.223   1.220   1.332   1.586
   1.994   2.529   3.111   3.622   3.933   3.952   3.658   3.111   2.433   1.769
   1.236   0.891   0.725   0.682   0.691   0.707   0.729   0.796   0.969   1.295
   1.781   2.372   2.967   3.446   3.705   3.693   3.423   2.967   2.428   1.907
   1.482   1.193
   0.436   0.457   0.551   0.724   0.987   1.338   1.755   2.189   2.574   2.844
   2.944   2.848   2.568   2.155   1.693   1.279   0.993   0.864   0.867   0.941
   1.027   1.113   1.236   1.463   1.832   2.312   2.798   3.144   3.231   3.021
   2.573   2.017   1.493   1.097   0.854   0.728   0.665   0.638   0.665   0.803
   1.105   1.581   2.171   2.752   3.174   3.320   3.146   2.703   2.111   1.519
   1.047   0.753   0.624   0.603   0.624   0.644   0.661   0.712   0.849   1.115
   1.511   1.988   2.447   2.776   2.881   2.730   2.363   1.873   1.373   0.954
   0.661   0.496
   0.158   0.171   0.187   0.234   0.345   0.538   0.807   1.117   1.422   1.672
   1.828   1.862   1.762   1.539   1.239   0.938   0.721   0.638   0.679   0.777
   0.858   0.887   0.904   0.989   1.210   1.556   1.929   2.183   2.195   1.935
   1.480   0.976   0.570   0.341   0.279   0.306   0.330   0.305   0.251   0.241
   0.357   0.637   1.052   1.507   1.877   2.057   2.007   1.761   1.411   1.063
   0.795   0.635   0.566   0.550   0.552   0.557   0.568   0.604   0.686   0.834
   1.051   1.312   1.559   1.710   1.697   1.501   1.166   0.787   0.462   0.252
   0.159   0.144
   0.210   0.187   0.141   0.113   0.137   0.225   0.365   0.523   0.663   0.769
   0.845   0.898   0.921   0.888   0.787   0.642   0.518   0.478   0.534   0.633
   0.693   0.668   0.584   0.531   0.593   0.788   1.043   1.228   1.233   1.026
   0.678   0.321   0.079   0.008   0.077   0.197   0.277   0.275   0.210   0.146
   0.150   0.257   0.455   0.688   0.886   0.995   1.002   0.933   0.840   0.760
   0.708   0.665   0.612   0.545   0.484   0.459   0.485   0.546   0.615   0.673
   0.729   0.799   0.882   0.938   0.909   0.767   0.541   0.310   0.154   0.106
   0.137   0.188
   0.291   0.225   0.165   0.146   0.189   0.290   0.417   0.522   0.560   0.527
   0.466   0.441   0.480   0.555   0.603   0.589   0.538   0.511   0.543   0.609
   0.642   0.593   0.480   0.376   0.363   0.469   0.648   0.801   0.836   0.720
   0.497   0.265   0.114   0.084   0.144   0.229   0.285   0.297   0.288   0.292
   0.327   0.393   0.470   0.535   0.574   0.585   0.586   0.601   0.648   0.715
   0.766   0.753   0.656   0.504   0.368   0.321   0.383   0.511   0.622   0.663
   0.644   0.627   0.659   0.722   0.751   0.687   0.538   0.378   0.281   0.270
   0.304   0.322
   0.216   0.129   0.087   0.110   0.198   0.340   0.517   0.678   0.753   0.706
   0.575   0.456   0.434   0.513   0.622   0.686   0.686   0.660   0.650   0.659
   0.654   0.609   0.534   0.477   0.484   0.569   0.702   0.820   0.860   0.791
   0.636   0.458   0.321   0.247   0.216   0.193   0.169   0.166   0.216   0.321
   0.450   0.560   0.625   0.647   0.643   0.632   0.630   0.649   0.692   0.745
   0.774   0.734   0.605   0.419   0.255   0.201   0.286   0.456   0.609   0.669
   0.650   0.634   0.692   0.805   0.879   0.831   0.668   0.483   0.367   0.337
   0.336   0.299
   0.161   0.088   0.079   0.116   0.168   0.243   0.379   0.575   0.754   0.816
   0.734   0.586   0.490   0.509   0.614   0.729   0.797   0.811   0.785   0.734
   0.667   0.605   0.574   0.591   0.649   0.727   0.801   0.847   0.840   0.763
   0.631   0.489   0.378   0.303   0.232   0.139   0.045   0.009   0.072   0.214
   0.367   0.471   0.521   0.554   0.605   0.674   0.728   0.739   0.712   0.674
   0.647   0.626   0.581   0.494   0.391   0.333   0.365   0.470   0.575   0.614
   0.599   0.605   0.691   0.819   0.876   0.775   0.553   0.340   0.245   0.261
   0.289   0.252
   0.492   0.462   0.506   0.540   0.470   0.317   0.216   0.278   0.473   0.653
   0.690   0.585   0.452   0.411   0.506   0.694   0.897   1.034   1.053   0.949
   0.776   0.625   0.564   0.595   0.659   0.696   0.686   0.642   0.577   0.498
   0.420   0.381   0.399   0.442   0.443   0.363   0.250   0.195   0.249   0.362
   0.429   0.392   0.298   0.258   0.341   0.514   0.668   0.710   0.640   0.547
   0.539   0.661   0.858   1.016   1.051   0.967   0.837   0.730   0.656   0.590
   0.532   0.524   0.595   0.691   0.698   0.556   0.337   0.204   0.253   0.422
   0.555   0.561
   1.346   1.371   1.508   1.579   1.387   0.931   0.439   0.172   0.208   0.401
   0.535   0.508   0.389   0.333   0.461   0.783   1.201   1.545   1.666   1.514
   1.184   0.852   0.653   0.597   0.595   0.557   0.467   0.368   0.301   0.286
   0.347   0.507   0.754   1.001   1.129   1.096   0.991   0.956   1.044   1.145
   1.085   0.797   0.405   0.130   0.114   0.313   0.545   0.645   0.594   0.530
   0.638   1.004   1.535   2.005   2.201   2.060   1.694   1.281   0.947   0.717
   0.574   0.516   0.538   0.588   0.581   0.487   0.403   0.483   0.774   1.144
   1.382   1.410
   2.405   2.475   2.724   2.885   2.644   1.946   1.072   0.417   0.190   0.292
   0.463   0.510   0.440   0.421   0.633   1.136   1.809   2.394   2.636   2.436
   1.923   1.357   0.949   0.738   0.627   0.514   0.386   0.295   0.290   0.397
   0.640   1.033   1.526   1.968   2.194   2.174   2.068   2.085   2.269   2.425
   2.276   1.727   0.974   0.364   0.135   0.258   0.502   0.642   0.636   0.644
   0.895   1.495   2.316   3.044   3.363   3.158   2.572   1.884   1.318   0.944
   0.722   0.604   0.570   0.592   0.624   0.667   0.805   1.149   1.682   2.207
   2.493   2.493
   3.073   3.161   3.477   3.713   3.488   2.693   1.615   0.717   0.296   0.312
   0.494   0.597   0.583   0.617   0.919   1.581   2.464   3.241   3.576   3.339
   2.679   1.919   1.323   0.964   0.755   0.599   0.480   0.435   0.501   0.697
   1.057   1.603   2.258   2.821   3.089   3.052   2.933   3.001   3.288   3.517
   3.324   2.588   1.564   0.692   0.279   0.306   0.516   0.654   0.667   0.719
   1.047   1.758   2.709   3.547   3.914   3.670   2.975   2.157   1.494   1.068
   0.817   0.661   0.578   0.576   0.654   0.825   1.148   1.678   2.349   2.940
   3.225   3.188
TEXTURE_INDEX=   4.9300
ERR_CF 220         1069     509   48.80   21.32
ERR_CF 200         1062     289   45.68   16.80
ERR_CF 111         1074     256   72.92   15.68
