TEXEVAL                                                                         
Analysis started on 01-Aug-19 15:07:37                                          
 LMAX=14LFMAX= 3 CUBIC ANORTHIC
 220      5.00 5.00
 200      5.00 5.00
 111      5.00 5.00
 220       5.00   72    0 5.00   15    0
   3.560   3.560   3.560   3.560   3.560   3.560   3.560   3.560   3.560   3.560
   3.560   3.560   3.560   3.560   3.560   3.560   3.560   3.560   3.560   3.560
   3.560   3.560   3.560   3.560   3.560   3.560   3.560   3.560   3.560   3.560
   3.560   3.560   3.560   3.560   3.560   3.560   3.560   3.560   3.560   3.560
   3.560   3.560   3.560   3.560   3.560   3.560   3.560   3.560   3.560   3.560
   3.560   3.560   3.560   3.560   3.560   3.560   3.560   3.560   3.560   3.560
   3.560   3.560   3.560   3.560   3.560   3.560   3.560   3.560   3.560   3.560
   3.560   3.560
   2.283   2.464   2.209   2.291   2.397   2.206   2.245   2.071   1.939   2.057
   2.174   2.006   2.333   2.085   1.942   2.106   1.942   2.060   2.175   1.904
   1.975   2.046   1.891   1.604   1.972   1.720   1.962   1.829   1.713   1.690
   1.834   1.737   1.840   1.857   2.048   2.297   2.470   2.746   2.358   3.031
   2.904   3.328   3.097   3.560   4.039   4.224   4.759   4.322   5.221   5.135
   4.404   5.075   5.134   4.926   4.882   4.855   4.664   4.487   4.567   4.110
   3.990   3.768   3.594   3.501   3.416   3.151   3.084   2.725   2.963   2.693
   2.496   2.432
   1.125   0.966   1.128   1.086   1.031   1.094   1.009   1.029   0.864   1.151
   1.020   1.202   1.553   1.183   1.137   1.251   1.174   1.219   1.230   1.160
   1.171   1.134   0.995   0.805   0.938   0.790   0.776   0.719   0.728   0.791
   0.819   0.830   0.899   1.009   1.057   0.903   1.037   1.298   1.285   1.397
   1.341   1.809   1.733   2.036   2.348   2.390   2.657   2.669   2.803   3.415
   2.651   3.401   3.321   3.227   3.224   3.000   3.083   2.992   2.580   2.552
   2.534   2.377   2.042   2.265   1.743   1.774   1.892   1.531   1.719   1.515
   1.440   1.216
   0.647   0.656   0.624   0.524   0.433   0.498   0.598   0.544   0.398   0.555
   0.615   0.729   0.841   0.858   0.758   0.878   0.669   0.832   0.681   0.767
   0.758   0.598   0.595   0.575   0.564   0.550   0.293   0.396   0.424   0.447
   0.424   0.358   0.561   0.675   0.575   0.356   0.364   0.678   0.752   0.767
   0.869   1.092   0.992   1.120   1.103   1.106   1.357   1.314   1.251   1.661
   1.174   1.696   1.753   1.605   1.713   1.548   1.673   1.430   1.126   1.248
   1.134   1.105   1.297   1.043   0.861   0.712   1.011   0.958   0.894   0.989
   0.863   0.727
   0.407   0.595   0.319   0.325   0.223   0.279   0.362   0.279   0.215   0.279
   0.315   0.262   0.574   0.493   0.684   0.690   0.354   0.822   0.570   0.369
   0.507   0.410   0.277   0.269   0.304   0.440   0.275   0.332   0.343   0.146
   0.374   0.103   0.273   0.475   0.177   0.321   0.378   0.393   0.510   0.475
   0.532   0.706   0.536   0.484   0.535   0.677   0.778   0.568   0.587   0.600
   0.637   0.658   1.129   0.891   0.924   0.926   0.768   0.600   0.403   0.542
   0.529   0.333   0.605   0.494   0.511   0.340   0.376   0.663   0.481   0.610
   0.539   0.482
   0.491   0.514   0.186   0.444   0.242   0.225   0.121   0.290   0.326   0.182
   0.233   0.094   0.305   0.296   0.689   0.681   0.417   0.547   0.749   0.433
   0.209   0.248   0.246   0.107   0.121   0.265   0.170   0.191   0.174   0.142
   0.349   0.000   0.082   0.387   0.159   0.274   0.280   0.339   0.341   0.365
   0.408   0.345   0.296   0.107   0.345   0.329   0.475   0.248   0.190   0.391
   0.563   0.434   0.669   0.828   0.579   0.711   0.444   0.310   0.272   0.211
   0.326   0.121   0.229   0.225   0.308   0.243   0.186   0.323   0.264   0.601
   0.444   0.357
   0.883   0.452   0.405   0.531   0.514   0.296   0.314   0.283   0.413   0.279
   0.235   0.096   0.174   0.401   0.435   0.653   0.548   0.344   0.669   0.609
   0.131   0.127   0.248   0.153   0.235   0.142   0.162   0.034   0.183   0.213
   0.270   0.097   0.188   0.483   0.318   0.222   0.209   0.522   0.253   0.383
   0.426   0.327   0.121   0.153   0.301   0.109   0.431   0.179   0.244   0.374
   0.561   0.391   0.457   1.000   0.439   0.535   0.426   0.196   0.344   0.332
   0.186   0.209   0.213   0.270   0.335   0.192   0.379   0.305   0.280   0.644
   0.426   0.470
   0.856   0.522   0.341   0.442   0.626   0.211   0.378   0.195   0.326   0.268
   0.138   0.275   0.132   0.505   0.322   0.615   0.732   0.490   0.522   0.611
   0.607   0.264   0.275   0.290   0.458   0.130   0.406   0.288   0.438   0.169
   0.149   0.354   0.369   0.415   0.400   0.506   0.432   0.615   0.495   0.464
   0.242   0.453   0.352   0.290   0.300   0.132   0.268   0.317   0.253   0.285
   0.462   0.417   0.421   0.714   0.222   0.432   0.337   0.354   0.233   0.431
   0.130   0.337   0.169   0.311   0.248   0.071   0.347   0.231   0.505   0.848
   0.654   0.784
   0.849   0.880   0.404   0.455   0.384   0.443   0.353   0.277   0.468   0.067
   0.283   0.358   0.443   0.556   0.632   0.741   0.771   0.810   0.804   1.249
   1.147   0.601   0.473   0.410   0.473   0.270   0.626   0.428   0.428   0.391
   0.178   0.473   0.295   0.684   0.747   0.791   0.257   0.664   0.766   0.352
   0.321   0.403   0.683   0.257   0.315   0.328   0.092   0.295   0.308   0.646
   0.130   0.320   0.448   0.671   0.353   0.473   0.493   0.702   0.416   0.353
   0.155   0.340   0.429   0.162   0.124   0.217   0.589   0.143   0.632   0.949
   1.306   0.924
   1.416   0.707   0.941   0.865   0.588   0.743   0.255   0.277   0.374   0.146
   0.505   0.437   0.838   0.856   1.074   1.245   1.196   1.804   1.009   1.816
   1.966   1.642   0.978   0.930   0.457   0.381   0.752   0.286   0.428   0.487
   0.467   0.363   0.343   0.952   0.905   0.980   0.856   1.121   0.876   0.588
   1.111   0.372   0.809   0.305   0.599   0.581   0.077   0.343   0.230   0.819
   0.477   0.146   0.638   0.639   0.779   0.457   0.572   0.545   0.496   0.448
   0.456   0.514   0.572   0.146   0.124   0.457   0.858   0.381   1.121   0.932
   1.494   1.207
   1.921   1.094   1.638   1.638   1.237   0.518   0.359   0.400   0.658   0.565
   0.471   0.577   0.731   1.237   1.438   2.533   2.498   2.935   2.355   2.957
   3.512   2.653   2.062   1.073   0.424   0.894   0.624   0.447   0.648   0.435
   0.530   0.447   0.718   1.613   1.507   1.696   1.745   2.191   1.790   1.708
   1.804   0.788   0.896   0.600   0.683   0.589   0.235   0.541   0.411   1.048
   0.837   1.035   1.154   0.906   1.590   1.542   1.483   1.165   0.483   0.906
   0.966   0.577   0.600   0.388   0.576   0.659   0.989   1.365   1.662   2.708
   1.556   2.356
   3.461   2.695   2.740   2.668   1.739   0.921   0.737   0.823   0.960   0.724
   0.489   0.242   0.823   0.946   1.365   3.086   3.630   3.473   2.713   3.826
   3.642   2.733   2.615   0.593   0.273   1.176   0.476   0.318   0.521   0.548
   0.476   0.823   1.864   2.498   3.303   3.448   2.420   2.504   3.107   2.642
   2.262   0.973   1.589   0.359   0.823   0.823   0.561   0.895   1.098   0.946
   1.170   2.204   2.014   1.667   2.596   3.120   3.421   1.948   2.061   1.811
   1.634   0.692   0.881   0.692   1.287   0.940   0.960   2.295   2.118   5.155
   3.356   2.838
   3.773   4.429   2.680   2.887   2.125   0.812   0.917   0.875   0.566   0.752
   0.379   0.353   0.968   0.400   1.040   1.947   2.854   2.451   1.235   2.824
   2.557   2.320   1.667   1.332   0.629   0.968   0.866   0.557   0.328   0.472
   0.680   0.689   1.926   2.320   3.184   4.726   2.722   2.125   3.777   3.302
   2.785   1.010   1.989   0.000   0.968   1.248   0.638   0.854   1.464   0.773
   1.722   2.785   3.459   3.357   4.399   4.035   4.395   2.539   2.917   1.544
   1.638   1.175   1.620   0.616   1.256   1.527   1.125   1.896   1.989   4.536
   3.472   2.434
   2.086   3.509   1.476   2.703   1.098   0.189   0.774   0.353   0.731   1.154
   0.189   0.943   0.680   0.756   0.680   0.985   1.408   1.459   0.587   1.121
   1.570   1.358   0.469   1.806   1.129   1.154   0.632   1.247   0.401   0.283
   0.562   0.401   0.655   1.476   1.121   2.637   2.136   1.451   2.264   2.078
   1.587   0.985   1.172   0.235   0.680   1.078   0.968   0.731   1.552   1.721
   1.383   2.534   3.517   4.177   4.287   3.517   3.280   2.129   1.925   0.562
   0.539   0.960   1.098   0.166   0.917   1.121   0.935   0.960   1.527   2.391
   1.358   2.018
   0.739   0.827   0.471   1.744   0.030   0.589   0.235   0.178   0.471   1.181
   0.294   1.063   0.235   0.620   0.265   0.353   0.768   1.152   0.560   0.116
   0.502   0.383   0.116   1.181   0.620   1.329   1.062   1.329   0.412   0.441
   0.147   0.235   0.147   0.471   0.116   0.707   0.945   0.383   0.707   0.707
   0.294   0.353   0.678   0.707   1.297   1.121   0.739   0.502   0.827   1.507
   0.502   1.684   1.331   2.395   1.419   1.478   1.389   1.239   1.447   0.116
   0.325   0.855   0.000   0.030   0.649   0.589   0.116   0.235   0.739   0.857
   1.415   0.827
 200       5.00   72    0 5.00   15    0
   0.349   0.349   0.349   0.349   0.349   0.349   0.349   0.349   0.349   0.349
   0.349   0.349   0.349   0.349   0.349   0.349   0.349   0.349   0.349   0.349
   0.349   0.349   0.349   0.349   0.349   0.349   0.349   0.349   0.349   0.349
   0.349   0.349   0.349   0.349   0.349   0.349   0.349   0.349   0.349   0.349
   0.349   0.349   0.349   0.349   0.349   0.349   0.349   0.349   0.349   0.349
   0.349   0.349   0.349   0.349   0.349   0.349   0.349   0.349   0.349   0.349
   0.349   0.349   0.349   0.349   0.349   0.349   0.349   0.349   0.349   0.349
   0.349   0.349
   0.547   0.475   0.550   0.524   0.568   0.517   0.519   0.622   0.652   0.411
   0.581   0.518   0.539   0.546   0.558   0.514   0.511   0.597   0.474   0.563
   0.566   0.503   0.513   0.539   0.501   0.471   0.437   0.534   0.417   0.442
   0.475   0.454   0.432   0.477   0.452   0.480   0.485   0.433   0.468   0.500
   0.509   0.457   0.443   0.539   0.495   0.479   0.482   0.556   0.567   0.528
   0.489   0.587   0.581   0.559   0.608   0.620   0.665   0.591   0.632   0.594
   0.590   0.589   0.589   0.594   0.621   0.579   0.546   0.545   0.556   0.517
   0.595   0.558
   0.572   0.587   0.629   0.707   0.613   0.586   0.536   0.570   0.673   0.552
   0.681   0.662   0.693   0.710   0.634   0.671   0.649   0.765   0.701   0.613
   0.703   0.612   0.699   0.611   0.566   0.570   0.565   0.547   0.452   0.441
   0.575   0.443   0.473   0.519   0.513   0.556   0.446   0.400   0.486   0.543
   0.618   0.497   0.478   0.598   0.541   0.548   0.625   0.638   0.640   0.659
   0.614   0.744   0.719   0.705   0.850   0.836   0.700   0.828   0.801   0.801
   0.694   0.765   0.697   0.723   0.581   0.743   0.660   0.648   0.634   0.682
   0.625   0.691
   0.505   0.646   0.568   0.807   0.558   0.550   0.631   0.509   0.757   0.751
   0.768   0.821   0.833   0.992   0.812   0.809   0.796   0.910   0.970   0.668
   0.709   0.760   0.833   0.680   0.694   0.636   0.680   0.448   0.578   0.606
   0.462   0.446   0.413   0.426   0.523   0.556   0.464   0.488   0.480   0.643
   0.566   0.564   0.538   0.507   0.537   0.487   0.739   0.656   0.635   0.788
   0.857   0.886   0.855   0.754   0.955   0.907   0.719   0.722   0.766   0.811
   0.741   0.734   0.707   0.758   0.458   0.725   0.587   0.676   0.650   0.646
   0.548   0.680
   0.639   0.677   0.699   0.866   0.603   0.608   0.772   0.709   0.814   0.961
   1.055   1.085   0.931   1.140   0.986   0.744   0.635   0.738   0.776   0.623
   0.539   0.722   0.673   0.740   0.895   0.778   0.820   0.583   0.856   0.728
   0.685   0.683   0.339   0.364   0.536   0.632   0.486   0.510   0.528   0.679
   0.581   0.620   0.418   0.463   0.668   0.535   0.753   0.649   0.754   0.972
   0.985   0.875   0.974   0.729   0.967   0.896   0.840   0.753   0.779   0.855
   0.798   0.694   0.782   0.724   0.583   0.739   0.543   0.583   0.833   0.456
   0.490   0.750
   0.757   0.677   0.790   0.967   0.812   1.033   1.095   1.274   1.099   1.333
   1.685   1.510   1.111   1.041   0.836   0.695   0.428   0.351   0.471   0.440
   0.418   0.475   0.510   0.696   0.950   1.009   1.519   1.255   1.104   0.913
   1.037   0.700   0.509   0.703   0.504   0.546   0.492   0.531   0.491   0.685
   0.590   0.616   0.445   0.597   0.809   1.048   0.980   0.913   1.187   1.159
   0.981   0.871   0.911   0.671   0.766   0.804   0.635   0.963   0.978   0.833
   0.817   0.960   0.817   0.741   0.831   0.950   0.662   0.760   0.766   0.578
   0.576   0.796
   0.628   0.596   0.704   1.047   1.046   1.548   1.877   2.408   2.261   2.788
   2.415   1.444   1.159   0.829   0.554   0.602   0.468   0.247   0.225   0.253
   0.452   0.324   0.551   0.608   0.826   1.155   2.150   2.316   2.130   2.050
   1.398   0.870   0.784   0.938   0.541   0.455   0.580   0.458   0.608   0.458
   0.487   0.688   0.688   0.979   1.113   1.590   1.382   1.762   1.581   0.989
   1.069   0.861   0.676   0.490   0.560   0.503   0.509   0.759   0.970   0.909
   1.101   1.175   1.292   0.788   1.085   1.382   0.749   0.909   0.417   0.551
   0.644   0.650
   0.479   0.545   0.700   0.915   0.999   1.624   2.444   3.977   4.358   4.782
   3.123   1.707   0.963   0.723   0.288   0.297   0.486   0.224   0.073   0.232
   0.391   0.180   0.301   0.825   0.771   1.680   2.884   3.439   4.146   3.613
   1.955   1.507   0.918   0.839   0.554   0.545   0.554   0.473   0.555   0.487
   0.513   0.905   0.964   1.558   2.023   2.388   2.112   2.164   1.907   0.913
   0.864   0.775   0.463   0.386   0.522   0.347   0.463   0.731   0.689   0.872
   1.511   1.747   2.176   1.736   1.628   1.757   1.027   0.744   0.299   0.430
   0.494   0.423
   0.536   0.377   0.482   0.498   0.893   1.435   2.309   4.357   4.700   5.106
   3.165   1.953   0.897   0.522   0.108   0.254   0.411   0.317   0.068   0.332
   0.192   0.115   0.009   0.804   0.780   1.636   3.352   3.917   4.738   3.606
   2.546   1.315   0.855   0.823   0.431   0.494   0.290   0.510   0.352   0.706
   0.494   0.874   1.261   1.827   3.150   3.917   3.720   2.280   1.515   1.007
   0.447   0.495   0.372   0.251   0.478   0.258   0.419   0.514   0.541   0.744
   1.584   2.578   3.439   3.361   2.530   2.077   1.293   0.861   0.657   0.451
   0.278   0.309
   0.534   0.247   0.411   0.329   0.645   1.185   1.754   2.915   2.992   3.702
   2.617   1.702   1.080   0.441   0.184   0.429   0.487   0.364   0.096   0.223
   0.082   0.329   0.243   0.663   1.022   1.268   2.481   3.133   3.226   2.076
   1.952   0.839   0.675   0.781   0.311   0.805   0.082   0.311   0.193   0.340
   0.276   1.145   1.679   2.037   4.162   4.948   5.007   2.324   1.333   0.916
   0.258   0.482   0.399   0.141   0.505   0.129   0.299   0.217   0.528   0.516
   1.550   2.994   5.020   4.638   3.270   2.219   1.191   0.780   0.763   0.634
   0.247   0.346
   0.229   0.458   0.273   0.553   0.568   0.508   1.031   1.584   1.767   2.217
   1.774   1.569   0.980   0.715   0.561   0.398   0.568   0.155   0.251   0.082
   0.037   0.369   0.243   0.663   1.186   1.061   1.266   1.774   1.694   0.854
   0.633   0.870   0.457   0.553   0.317   0.714   0.229   0.133   0.237   0.487
   0.369   1.149   1.650   2.129   3.917   4.315   4.558   2.041   1.635   1.084
   0.140   0.545   0.516   0.096   0.464   0.082   0.148   0.539   0.612   0.509
   1.547   3.013   4.926   4.366   2.923   1.989   1.024   0.915   0.649   0.567
   0.458   0.192
   0.510   0.814   0.150   0.580   0.519   0.286   0.527   0.965   0.822   1.277
   0.711   1.400   0.789   0.564   0.482   0.576   0.822   0.060   0.260   0.059
   0.286   0.215   0.286   0.588   0.801   0.707   0.572   0.756   1.244   0.560
   0.666   0.691   0.215   0.478   0.568   0.359   0.387   0.068   0.514   1.006
   0.408   0.662   0.732   1.379   2.068   2.470   3.286   1.785   1.211   0.875
   0.240   0.260   0.453   0.060   0.342   0.330   0.322   0.834   0.490   0.744
   1.256   2.048   3.044   2.794   1.752   1.314   0.818   1.002   0.617   0.494
   0.408   0.203
   0.466   0.511   0.469   0.723   0.205   0.549   0.305   0.331   0.195   0.848
   0.633   1.119   0.803   0.359   0.205   1.067   1.093   0.060   0.314   0.224
   0.440   0.105   0.549   0.385   0.340   1.031   0.350   0.196   0.692   0.485
   0.829   0.286   0.105   0.495   0.639   0.395   0.404   0.269   0.440   0.820
   0.205   0.385   0.378   0.858   1.430   1.064   1.969   1.646   0.675   0.723
   0.350   0.205   0.250   0.105   0.414   0.549   0.241   0.848   0.469   0.540
   1.376   1.138   1.325   1.425   0.756   0.848   0.430   0.813   0.613   0.476
   0.205   0.514
   0.368   0.016   0.616   0.639   0.100   0.264   0.592   0.227   0.045   1.006
   0.779   0.584   0.866   0.577   0.397   0.732   0.904   0.227   0.717   0.365
   0.804   0.045   0.350   0.608   0.115   0.928   0.381   0.000   0.061   0.311
   0.545   0.045   0.061   0.209   0.983   0.170   0.365   0.209   0.452   0.264
   0.819   0.100   0.404   0.482   1.005   0.600   0.803   1.232   0.295   0.568
   0.154   0.327   0.467   0.624   0.279   0.420   0.509   0.725   0.404   0.209
   1.795   1.186   0.756   0.529   0.154   0.866   0.327   0.568   0.389   0.100
   0.100   0.404
   1.188   0.102   0.751   0.335   0.454   0.454   1.534   0.497   0.362   0.941
   0.751   0.427   0.984   0.368   0.659   0.632   1.372   0.589   1.237   0.610
   1.286   0.000   0.356   0.595   0.194   0.497   1.048   0.454   0.286   0.794
   0.772   0.362   0.194   0.454   1.173   0.928   0.610   0.637   0.476   0.454
   1.082   0.178   0.448   0.362   0.356   1.139   0.977   0.913   0.907   0.356
   0.454   0.497   0.368   1.400   0.286   0.518   0.687   0.567   0.540   0.000
   1.018   0.919   0.617   1.344   0.270   0.617   0.956   0.907   0.194   0.362
   0.729   0.356
 111       5.00   72    0 5.00   15    0
   0.019   0.019   0.019   0.019   0.019   0.019   0.019   0.019   0.019   0.019
   0.019   0.019   0.019   0.019   0.019   0.019   0.019   0.019   0.019   0.019
   0.019   0.019   0.019   0.019   0.019   0.019   0.019   0.019   0.019   0.019
   0.019   0.019   0.019   0.019   0.019   0.019   0.019   0.019   0.019   0.019
   0.019   0.019   0.019   0.019   0.019   0.019   0.019   0.019   0.019   0.019
   0.019   0.019   0.019   0.019   0.019   0.019   0.019   0.019   0.019   0.019
   0.019   0.019   0.019   0.019   0.019   0.019   0.019   0.019   0.019   0.019
   0.019   0.019
   0.028   0.033   0.052   0.035   0.041   0.033   0.038   0.030   0.050   0.064
   0.055   0.046   0.044   0.018   0.060   0.035   0.080   0.035   0.047   0.029
   0.036   0.049   0.015   0.046   0.047   0.029   0.030   0.037   0.031   0.032
   0.063   0.049   0.048   0.036   0.028   0.050   0.022   0.028   0.020   0.050
   0.016   0.030   0.040   0.033   0.045   0.024   0.040   0.048   0.031   0.027
   0.043   0.035   0.043   0.040   0.039   0.027   0.035   0.053   0.052   0.030
   0.017   0.025   0.046   0.042   0.053   0.033   0.052   0.027   0.034   0.021
   0.027   0.046
   0.058   0.065   0.083   0.044   0.065   0.066   0.070   0.059   0.098   0.088
   0.111   0.061   0.063   0.039   0.091   0.069   0.110   0.046   0.067   0.048
   0.066   0.054   0.020   0.060   0.050   0.061   0.090   0.052   0.068   0.072
   0.066   0.068   0.115   0.066   0.044   0.066   0.044   0.067   0.022   0.046
   0.022   0.048   0.057   0.056   0.046   0.055   0.045   0.057   0.037   0.038
   0.066   0.041   0.064   0.041   0.044   0.058   0.054   0.061   0.048   0.049
   0.034   0.035   0.041   0.056   0.066   0.047   0.054   0.063   0.077   0.018
   0.069   0.100
   0.098   0.119   0.122   0.064   0.128   0.179   0.180   0.174   0.177   0.201
   0.172   0.142   0.129   0.124   0.146   0.128   0.177   0.087   0.165   0.135
   0.137   0.130   0.098   0.161   0.128   0.148   0.224   0.142   0.170   0.141
   0.130   0.167   0.193   0.171   0.132   0.115   0.155   0.123   0.083   0.097
   0.080   0.109   0.070   0.114   0.028   0.109   0.068   0.076   0.046   0.077
   0.068   0.043   0.080   0.034   0.043   0.082   0.085   0.078   0.077   0.105
   0.108   0.056   0.053   0.100   0.115   0.127   0.091   0.104   0.101   0.082
   0.134   0.150
   0.274   0.304   0.295   0.255   0.485   0.506   0.535   0.520   0.565   0.695
   0.573   0.556   0.422   0.430   0.356   0.370   0.351   0.281   0.351   0.286
   0.355   0.368   0.351   0.396   0.461   0.429   0.617   0.560   0.606   0.534
   0.568   0.408   0.384   0.447   0.405   0.373   0.274   0.307   0.256   0.264
   0.213   0.211   0.267   0.209   0.191   0.176   0.244   0.170   0.145   0.150
   0.124   0.106   0.143   0.186   0.109   0.091   0.172   0.175   0.203   0.191
   0.225   0.175   0.231   0.268   0.207   0.267   0.204   0.285   0.161   0.285
   0.262   0.286
   0.717   0.702   0.805   0.900   1.344   1.518   1.938   2.106   2.319   2.388
   1.927   1.606   1.217   1.065   0.849   0.828   0.669   0.672   0.689   0.632
   0.722   0.929   0.875   1.084   1.574   1.686   2.327   2.286   2.684   2.262
   1.941   1.366   1.094   1.089   0.957   0.808   0.503   0.674   0.597   0.663
   0.529   0.454   0.669   0.629   0.732   0.552   0.648   0.497   0.544   0.398
   0.432   0.342   0.372   0.422   0.344   0.359   0.437   0.491   0.496   0.658
   0.677   0.804   0.869   1.014   0.776   0.952   0.762   0.727   0.567   0.692
   0.620   0.660
   1.128   1.143   1.348   1.535   1.825   2.506   3.112   3.809   4.252   4.410
   3.339   2.749   1.992   1.636   1.269   1.023   0.995   0.784   0.879   0.921
   0.982   1.310   1.207   1.996   2.562   3.439   4.773   5.131   5.487   4.606
   3.412   2.548   1.945   1.479   1.320   1.204   1.008   1.094   0.925   0.958
   1.054   1.065   1.452   1.564   1.871   2.227   2.350   1.755   1.789   1.532
   1.145   1.058   0.937   0.891   0.818   0.861   1.071   1.144   1.199   1.740
   2.202   3.025   3.391   3.122   2.662   2.293   1.714   1.498   1.398   1.147
   1.024   0.996
   1.066   1.074   1.315   1.373   1.675   2.291   2.670   3.404   3.802   4.040
   3.066   2.574   1.798   1.397   1.088   0.715   0.907   0.548   0.784   0.743
   0.845   1.010   1.132   1.747   2.165   3.380   4.507   5.128   5.296   4.597
   3.116   2.367   1.769   1.207   1.076   1.253   1.111   1.131   0.987   1.090
   1.450   1.677   2.064   2.166   3.316   4.359   4.540   3.845   3.421   2.934
   1.944   1.799   1.398   1.352   1.238   1.310   1.581   1.741   2.188   3.053
   4.498   5.574   5.836   5.571   4.115   3.071   2.057   1.789   1.625   1.154
   1.119   1.070
   0.649   0.689   0.912   0.888   1.285   1.363   1.542   1.994   2.152   2.034
   1.756   1.414   1.052   0.798   0.550   0.384   0.551   0.356   0.492   0.430
   0.503   0.504   0.769   0.887   1.184   2.008   2.325   2.764   2.811   2.362
   1.617   1.239   0.966   0.933   0.698   0.868   0.669   0.672   0.727   0.954
   1.086   1.417   1.550   1.901   2.879   3.860   4.180   3.981   3.227   2.633
   1.605   1.506   1.194   1.145   1.216   1.146   1.395   1.537   2.052   2.730
   4.263   4.714   4.830   4.583   3.142   2.313   1.610   1.275   1.033   0.787
   0.799   0.767
   0.425   0.513   0.640   0.651   0.821   0.689   0.723   1.237   1.172   1.119
   1.064   0.757   0.627   0.600   0.203   0.335   0.335   0.232   0.145   0.345
   0.196   0.350   0.391   0.519   0.680   0.940   1.095   1.443   1.367   0.782
   0.794   0.529   0.400   0.678   0.605   0.429   0.357   0.351   0.454   0.459
   0.560   0.703   0.818   1.315   1.453   1.979   2.351   2.188   1.796   1.482
   0.826   0.740   0.707   0.623   0.730   0.685   0.790   0.801   1.045   1.374
   1.997   2.125   2.525   2.051   1.628   1.311   0.891   0.679   0.564   0.458
   0.452   0.407
   0.384   0.512   0.368   0.466   0.601   0.440   0.782   0.923   0.936   0.989
   0.857   0.634   0.486   0.365   0.112   0.440   0.273   0.167   0.135   0.292
   0.105   0.302   0.286   0.453   0.522   0.414   0.805   1.064   1.018   0.493
   0.578   0.371   0.236   0.407   0.506   0.325   0.190   0.430   0.338   0.296
   0.440   0.516   0.375   0.785   1.133   1.101   1.222   1.222   0.920   0.726
   0.611   0.394   0.476   0.292   0.309   0.480   0.332   0.381   0.486   0.808
   0.838   1.104   1.170   1.353   0.880   0.956   0.457   0.552   0.466   0.332
   0.391   0.181
   0.250   0.426   0.209   0.369   0.533   0.451   0.697   0.836   0.865   0.799
   0.877   0.586   0.443   0.274   0.217   0.393   0.442   0.131   0.266   0.348
   0.229   0.229   0.258   0.516   0.344   0.492   0.861   0.873   0.652   0.516
   0.381   0.434   0.254   0.377   0.492   0.202   0.155   0.328   0.217   0.307
   0.328   0.361   0.299   0.615   0.972   0.972   0.865   0.996   0.467   0.332
   0.496   0.377   0.479   0.410   0.283   0.369   0.307   0.356   0.356   0.562
   0.635   0.685   0.840   1.021   0.570   0.787   0.508   0.594   0.557   0.373
   0.242   0.250
   0.350   0.463   0.572   0.245   0.612   0.509   0.530   0.791   0.714   0.870
   0.987   0.607   0.390   0.447   0.303   0.437   0.782   0.148   0.380   0.488
   0.282   0.541   0.339   0.457   0.360   0.550   0.750   0.648   0.447   0.560
   0.328   0.327   0.345   0.442   0.498   0.321   0.267   0.252   0.298   0.313
   0.593   0.304   0.488   0.616   0.807   1.023   1.003   0.693   0.530   0.510
   0.462   0.649   0.566   0.498   0.665   0.349   0.499   0.473   0.395   0.540
   0.740   0.706   1.122   0.962   0.839   0.709   0.627   0.359   0.705   0.292
   0.231   0.436
   0.649   0.572   0.766   0.475   0.792   0.429   0.565   0.507   0.727   0.753
   0.792   0.507   0.449   0.364   0.358   0.837   0.662   0.144   0.500   0.818
   0.488   0.617   0.339   0.442   0.371   0.364   0.442   0.321   0.397   0.513
   0.190   0.442   0.364   0.274   0.377   0.345   0.287   0.669   0.339   0.192
   0.507   0.753   0.364   0.649   0.617   0.992   0.675   0.462   0.727   0.533
   0.339   0.513   0.474   0.192   0.720   0.578   0.740   0.682   0.539   0.772
   0.559   0.688   0.817   0.869   1.031   0.831   0.669   0.559   0.423   0.339
   0.345   0.345
   0.636   0.767   0.745   1.016   0.614   0.442   0.474   0.703   0.592   0.767
   0.315   0.355   0.669   0.464   0.431   0.928   0.746   0.790   1.191   1.178
   0.821   0.474   0.681   0.332   0.540   0.203   0.377   0.343   0.153   0.691
   0.193   0.723   0.594   0.921   0.398   0.845   0.507   0.820   0.333   0.691
   0.356   0.896   0.464   0.810   0.387   1.015   0.377   0.822   0.679   0.746
   0.377   0.649   0.453   1.082   0.691   0.799   0.831   1.060   0.821   1.037
   0.572   0.746   0.398   0.528   1.168   0.983   0.734   0.744   0.149   0.550
   0.627   0.540
  4  0      6.7771641E-02  0.0000000E+00
  4  1      4.1903685E-02 -8.9022185E-03
  4  2      7.7071039E-02 -1.9375142E-01
  4  3     -5.1891079E-02  2.2366074E-02
  4  4     -1.0428005E+00  6.2497089E-02
  6  0      2.9490399E+00  0.0000000E+00
  6  1     -2.9154108E-02  5.8392667E-01
  6  2     -1.0147069E-01 -1.6356190E-01
  6  3     -2.8385432E-02  3.9347156E-01
  6  4      1.9462459E+00  1.3982368E-02
  6  5      4.8275357E-03  3.3111291E-01
  6  6     -4.4961146E-02  5.3434565E-02
  8  0      1.3703977E+00  0.0000000E+00
  8  1      6.4579642E-02  5.3033628E-01
  8  2     -2.1830073E-01 -9.5819845E-02
  8  3      5.2241567E-02 -4.9681239E-01
  8  4     -1.4953833E+00  4.3328363E-02
  8  5      2.6499212E-02 -3.1851586E-01
  8  6      7.6200980E-02  8.8965168E-02
  8  7     -7.2194884E-02 -1.3995054E-02
  8  8      1.2167898E+00  8.3256141E-02
 10  0      9.4628785E-01  0.0000000E+00
 10  1      6.5283236E-04  2.0052491E-01
 10  2      1.4477344E-01 -2.0075074E-01
 10  3      3.7818777E-03 -2.7055380E-01
 10  4     -1.1077931E+00 -2.8269037E-02
 10  5      9.1965741E-02 -3.4932383E-01
 10  6      2.5656455E-01 -1.3836881E-01
 10  7     -4.5513851E-02  1.6159024E-01
 10  8      9.7824534E-02 -1.1553260E-02
 10  9      5.0870307E-02 -8.0954357E-02
 10 10      2.2543849E-01 -8.7214761E-02
 12  0     -5.4092582E-01  1.7587323E+00  0.0000000E+00  0.0000000E+00
 12  1      2.5406030E-02  1.1355524E-02 -2.6889828E-01  7.8751922E-01
 12  2      1.2535407E-01 -3.7374379E-01 -1.8644069E-03 -1.4605359E-01
 12  3      5.1818454E-02 -2.7325153E-02  1.3227196E-01  4.0649601E-01
 12  4     -7.5121996E-02  7.4324046E-01  3.3369195E-02  4.2722017E-02
 12  5      1.6977527E-02  8.2503648E-03 -6.7149069E-03  2.6987704E-01
 12  6     -1.6486887E-01 -3.4650619E-02  8.9505813E-02 -1.7798193E-01
 12  7     -2.2262035E-02  3.8786013E-02  1.9642583E-01  3.7481360E-01
 12  8      9.9470291E-01  8.0076330E-01  8.0742263E-02  1.1438483E-01
 12  9      2.6003555E-02 -4.5865851E-02  2.6278165E-01  2.6877982E-01
 12 10     -4.2329900E-02 -2.6964802E-01 -1.2588169E-01 -1.9598254E-02
 12 11      5.2007332E-02 -1.5723709E-02 -2.3384443E-02 -1.9884213E-01
 12 12      1.9830062E-01 -4.2639985E-01  1.1054594E-01  1.3665761E-01
 14  0      6.3995873E-01  0.0000000E+00
 14  1      5.3327133E-02  4.4665005E-01
 14  2     -7.1501785E-03 -1.0810067E-01
 14  3      1.2512506E-01 -1.8573754E-01
 14  4     -5.3079966E-01  1.1958676E-02
 14  5      1.7954296E-03 -2.3349121E-01
 14  6     -6.9025042E-02  7.4063889E-02
 14  7      1.5325469E-02 -4.7053054E-01
 14  8     -4.8472495E-01  2.2141500E-02
 14  9     -2.0768829E-02 -1.5871805E-01
 14 10      6.1328845E-02  6.8737992E-02
 14 11      6.3369540E-02 -5.5736754E-02
 14 12      2.0232523E-02  2.0195217E-02
 14 13     -5.4479140E-02  9.3787761E-02
 14 14     -2.6453274E-01 -2.0407379E-01
 220       5.00   72    0 5.00   18    0
   4.352   4.309   4.268   4.227   4.188   4.150   4.114   4.080   4.048   4.018
   3.991   3.966   3.944   3.924   3.908   3.894   3.883   3.875   3.871   3.869
   3.871   3.876   3.885   3.897   3.913   3.931   3.954   3.979   4.008   4.039
   4.074   4.111   4.151   4.192   4.236   4.281   4.327   4.374   4.422   4.469
   4.515   4.561   4.605   4.648   4.688   4.725   4.759   4.790   4.817   4.841
   4.860   4.875   4.885   4.891   4.892   4.889   4.881   4.869   4.853   4.833
   4.809   4.782   4.752   4.719   4.683   4.645   4.606   4.565   4.523   4.481
   4.438   4.394
   3.186   3.097   3.014   2.935   2.861   2.792   2.728   2.670   2.616   2.567
   2.523   2.483   2.446   2.413   2.384   2.357   2.333   2.312   2.295   2.281
   2.271   2.265   2.265   2.271   2.284   2.304   2.333   2.370   2.417   2.474
   2.541   2.617   2.703   2.798   2.901   3.012   3.129   3.251   3.377   3.505
   3.633   3.761   3.885   4.005   4.119   4.226   4.323   4.409   4.484   4.547
   4.595   4.630   4.651   4.658   4.650   4.629   4.596   4.550   4.493   4.426
   4.350   4.267   4.177   4.082   3.984   3.883   3.780   3.677   3.574   3.473
   3.374   3.278
   1.620   1.546   1.479   1.419   1.366   1.321   1.283   1.253   1.230   1.213
   1.202   1.194   1.189   1.182   1.174   1.163   1.147   1.127   1.102   1.073
   1.041   1.007   0.974   0.944   0.919   0.901   0.893   0.896   0.913   0.945
   0.992   1.054   1.131   1.222   1.326   1.442   1.568   1.703   1.844   1.990
   2.139   2.287   2.434   2.576   2.711   2.838   2.954   3.056   3.144   3.216
   3.269   3.304   3.319   3.315   3.292   3.252   3.195   3.124   3.040   2.947
   2.847   2.740   2.630   2.518   2.406   2.294   2.185   2.079   1.976   1.879
   1.786   1.700
   0.572   0.543   0.516   0.491   0.470   0.454   0.447   0.451   0.467   0.495
   0.534   0.579   0.625   0.668   0.701   0.722   0.729   0.720   0.697   0.660
   0.612   0.555   0.491   0.424   0.357   0.296   0.244   0.207   0.185   0.183
   0.198   0.230   0.276   0.335   0.403   0.479   0.562   0.649   0.740   0.834
   0.928   1.022   1.115   1.205   1.293   1.378   1.459   1.535   1.603   1.662
   1.706   1.734   1.743   1.733   1.702   1.653   1.590   1.515   1.433   1.347
   1.260   1.176   1.095   1.020   0.950   0.886   0.826   0.772   0.723   0.679
   0.639   0.604
   0.364   0.369   0.365   0.350   0.326   0.300   0.279   0.274   0.293   0.338
   0.407   0.492   0.581   0.663   0.727   0.768   0.786   0.781   0.760   0.724
   0.677   0.620   0.552   0.476   0.396   0.318   0.248   0.196   0.166   0.160
   0.175   0.207   0.248   0.291   0.332   0.368   0.399   0.426   0.447   0.464
   0.475   0.479   0.478   0.476   0.477   0.488   0.512   0.552   0.602   0.658
   0.710   0.750   0.770   0.767   0.741   0.694   0.633   0.563   0.492   0.425
   0.367   0.322   0.290   0.273   0.266   0.269   0.277   0.289   0.303   0.318
   0.335   0.351
   0.603   0.623   0.621   0.590   0.532   0.457   0.382   0.327   0.310   0.340
   0.413   0.514   0.622   0.714   0.775   0.802   0.797   0.774   0.743   0.714
   0.689   0.662   0.627   0.581   0.522   0.457   0.397   0.355   0.342   0.359
   0.404   0.465   0.529   0.584   0.623   0.644   0.651   0.647   0.634   0.610
   0.569   0.510   0.435   0.353   0.278   0.228   0.216   0.245   0.309   0.393
   0.479   0.549   0.590   0.597   0.572   0.524   0.460   0.390   0.323   0.264
   0.221   0.196   0.193   0.210   0.245   0.291   0.342   0.393   0.441   0.486
   0.529   0.569
   0.728   0.751   0.749   0.711   0.632   0.521   0.401   0.302   0.250   0.260
   0.327   0.431   0.539   0.622   0.660   0.651   0.608   0.554   0.509   0.488
   0.489   0.502   0.514   0.510   0.487   0.448   0.405   0.373   0.368   0.395
   0.453   0.530   0.608   0.671   0.712   0.733   0.741   0.745   0.747   0.738
   0.706   0.640   0.541   0.425   0.317   0.247   0.235   0.287   0.388   0.512
   0.629   0.712   0.751   0.744   0.703   0.644   0.578   0.515   0.458   0.407
   0.365   0.334   0.322   0.332   0.365   0.415   0.473   0.529   0.577   0.619
   0.656   0.693
   0.619   0.633   0.632   0.601   0.532   0.431   0.318   0.221   0.169   0.178
   0.245   0.350   0.460   0.546   0.587   0.581   0.543   0.495   0.456   0.436
   0.435   0.442   0.448   0.446   0.430   0.402   0.366   0.330   0.307   0.307
   0.337   0.390   0.454   0.510   0.549   0.570   0.585   0.605   0.631   0.653
   0.648   0.601   0.510   0.396   0.293   0.238   0.253   0.335   0.462   0.595
   0.701   0.755   0.753   0.708   0.641   0.577   0.529   0.500   0.482   0.461
   0.428   0.384   0.340   0.312   0.312   0.343   0.397   0.458   0.512   0.553
   0.580   0.600
   0.681   0.650   0.607   0.552   0.481   0.400   0.319   0.258   0.231   0.251
   0.319   0.426   0.556   0.691   0.813   0.913   0.986   1.028   1.037   1.007
   0.938   0.837   0.724   0.620   0.542   0.490   0.449   0.406   0.359   0.321
   0.314   0.351   0.422   0.505   0.574   0.616   0.636   0.644   0.646   0.637
   0.600   0.525   0.418   0.304   0.218   0.190   0.229   0.319   0.430   0.529
   0.592   0.609   0.584   0.530   0.466   0.416   0.394   0.402   0.426   0.442
   0.428   0.376   0.301   0.231   0.197   0.220   0.300   0.417   0.537   0.632
   0.685   0.697
   1.325   1.200   1.043   0.875   0.717   0.584   0.489   0.436   0.423   0.444
   0.504   0.614   0.784   1.016   1.298   1.598   1.876   2.083   2.177   2.129
   1.937   1.638   1.299   0.996   0.783   0.666   0.612   0.573   0.524   0.485
   0.499   0.599   0.778   0.990   1.175   1.289   1.320   1.278   1.181   1.040
   0.865   0.671   0.483   0.333   0.249   0.237   0.279   0.345   0.412   0.471
   0.529   0.595   0.659   0.703   0.711   0.682   0.637   0.602   0.584   0.572
   0.542   0.479   0.386   0.296   0.255   0.307   0.467   0.712   0.985   1.217
   1.357   1.388
   2.410   2.186   1.879   1.530   1.186   0.895   0.694   0.588   0.554   0.565
   0.615   0.728   0.941   1.276   1.716   2.210   2.677   3.034   3.206   3.146
   2.851   2.375   1.822   1.317   0.955   0.761   0.684   0.650   0.619   0.621
   0.726   0.986   1.379   1.816   2.186   2.411   2.463   2.357   2.125   1.801
   1.427   1.054   0.738   0.522   0.418   0.405   0.435   0.468   0.501   0.570
   0.724   0.980   1.290   1.559   1.694   1.659   1.489   1.263   1.053   0.893
   0.776   0.677   0.582   0.504   0.490   0.601   0.873   1.286   1.756   2.169
   2.432   2.507
   3.248   2.993   2.608   2.118   1.585   1.102   0.755   0.572   0.517   0.529
   0.578   0.689   0.913   1.281   1.774   2.320   2.827   3.206   3.391   3.342
   3.052   2.559   1.960   1.388   0.964   0.730   0.636   0.593   0.559   0.585
   0.777   1.197   1.797   2.435   2.953   3.256   3.323   3.184   2.873   2.431
   1.914   1.403   0.984   0.711   0.588   0.570   0.592   0.613   0.653   0.790
   1.112   1.632   2.250   2.775   3.029   2.940   2.568   2.062   1.570   1.186
   0.933   0.785   0.701   0.660   0.685   0.844   1.193   1.724   2.337   2.879
   3.227   3.341
   3.181   3.009   2.701   2.227   1.633   1.057   0.646   0.460   0.445   0.494
   0.546   0.618   0.777   1.064   1.455   1.872   2.229   2.471   2.582   2.562
   2.400   2.090   1.667   1.228   0.891   0.712   0.645   0.590   0.503   0.465
   0.626   1.068   1.719   2.391   2.902   3.176   3.234   3.122   2.859   2.454
   1.949   1.434   1.011   0.745   0.634   0.627   0.660   0.697   0.771   0.979
   1.421   2.108   2.901   3.553   3.839   3.677   3.151   2.452   1.768   1.225
   0.877   0.708   0.656   0.656   0.694   0.830   1.151   1.670   2.282   2.812
   3.135   3.237
   2.199   2.180   2.078   1.779   1.300   0.811   0.512   0.473   0.594   0.708
   0.724   0.678   0.674   0.783   0.985   1.193   1.323   1.358   1.346   1.342
   1.345   1.297   1.158   0.970   0.838   0.826   0.875   0.850   0.684   0.481
   0.448   0.714   1.208   1.716   2.057   2.199   2.223   2.191   2.085   1.854
   1.504   1.124   0.820   0.652   0.607   0.633   0.681   0.732   0.817   1.020
   1.428   2.050   2.754   3.309   3.516   3.318   2.811   2.164   1.531   1.019
   0.696   0.572   0.583   0.617   0.615   0.632   0.793   1.157   1.626   2.011
   2.196   2.218
   0.966   1.075   1.172   1.083   0.805   0.540   0.511   0.750   1.074   1.240
   1.146   0.885   0.643   0.548   0.595   0.674   0.674   0.576   0.463   0.439
   0.525   0.641   0.699   0.711   0.790   1.009   1.272   1.363   1.147   0.736
   0.412   0.387   0.622   0.892   1.018   1.009   0.996   1.050   1.105   1.057
   0.889   0.699   0.600   0.615   0.689   0.753   0.781   0.786   0.806   0.900
   1.128   1.494   1.904   2.202   2.269   2.104   1.793   1.428   1.063   0.748
   0.563   0.559   0.676   0.753   0.674   0.496   0.411   0.548   0.829   1.043
   1.066   0.982
   0.238   0.377   0.545   0.553   0.420   0.384   0.662   1.208   1.723   1.893
   1.628   1.108   0.622   0.370   0.363   0.461   0.497   0.407   0.264   0.195
   0.250   0.358   0.427   0.486   0.685   1.115   1.629   1.900   1.696   1.118
   0.533   0.256   0.297   0.422   0.428   0.337   0.301   0.392   0.510   0.526
   0.446   0.411   0.536   0.787   1.015   1.100   1.033   0.888   0.750   0.677
   0.702   0.809   0.933   0.986   0.939   0.846   0.775   0.727   0.652   0.552
   0.533   0.693   0.967   1.125   0.980   0.599   0.261   0.192   0.348   0.482
   0.430   0.279
   0.219   0.307   0.410   0.373   0.264   0.359   0.849   1.606   2.230   2.362
   1.941   1.221   0.570   0.235   0.238   0.418   0.562   0.556   0.442   0.345
   0.334   0.355   0.334   0.331   0.544   1.093   1.795   2.229   2.072   1.410
   0.681   0.291   0.290   0.420   0.436   0.342   0.296   0.362   0.432   0.385
   0.283   0.331   0.658   1.153   1.544   1.625   1.395   1.012   0.655   0.430
   0.353   0.370   0.389   0.345   0.256   0.214   0.274   0.382   0.433   0.430
   0.524   0.853   1.322   1.609   1.448   0.909   0.369   0.161   0.280   0.446
   0.432   0.288
   0.487   0.518   0.530   0.407   0.260   0.378   0.929   1.733   2.358   2.447
   1.971   1.209   0.531   0.177   0.170   0.357   0.531   0.565   0.482   0.399
   0.386   0.390   0.333   0.284   0.464   1.019   1.770   2.262   2.134   1.461
   0.714   0.338   0.393   0.593   0.660   0.583   0.522   0.549   0.550   0.421
   0.269   0.361   0.842   1.541   2.075   2.148   1.751   1.125   0.562   0.243
   0.184   0.275   0.365   0.356   0.274   0.226   0.273   0.351   0.359   0.335
   0.481   0.951   1.605   2.030   1.889   1.258   0.582   0.278   0.384   0.602
   0.659   0.560
 200       5.00   72    0 5.00   18    0
   0.423   0.428   0.433   0.438   0.444   0.449   0.454   0.459   0.464   0.469
   0.474   0.478   0.482   0.485   0.487   0.489   0.489   0.489   0.489   0.487
   0.484   0.481   0.476   0.471   0.465   0.459   0.452   0.445   0.438   0.430
   0.423   0.415   0.408   0.400   0.393   0.386   0.380   0.373   0.367   0.362
   0.357   0.352   0.348   0.344   0.341   0.339   0.337   0.336   0.335   0.335
   0.335   0.336   0.338   0.340   0.342   0.345   0.348   0.352   0.356   0.360
   0.364   0.368   0.373   0.378   0.383   0.387   0.392   0.397   0.402   0.407
   0.412   0.418
   0.621   0.617   0.613   0.611   0.611   0.615   0.623   0.635   0.652   0.671
   0.694   0.718   0.742   0.766   0.787   0.804   0.816   0.822   0.822   0.815
   0.802   0.784   0.761   0.734   0.706   0.676   0.647   0.620   0.595   0.574
   0.556   0.541   0.530   0.522   0.515   0.510   0.505   0.501   0.495   0.490
   0.484   0.477   0.471   0.466   0.462   0.461   0.461   0.464   0.470   0.477
   0.487   0.497   0.509   0.521   0.532   0.543   0.553   0.562   0.571   0.579
   0.587   0.595   0.603   0.610   0.617   0.623   0.627   0.631   0.632   0.632
   0.630   0.626
   0.854   0.809   0.763   0.720   0.685   0.661   0.651   0.657   0.678   0.714
   0.760   0.816   0.876   0.936   0.991   1.038   1.071   1.088   1.087   1.068
   1.033   0.983   0.922   0.856   0.788   0.723   0.664   0.616   0.579   0.557
   0.548   0.553   0.571   0.597   0.629   0.662   0.693   0.717   0.733   0.740
   0.738   0.730   0.719   0.709   0.703   0.704   0.714   0.733   0.761   0.795
   0.833   0.871   0.905   0.933   0.953   0.964   0.966   0.961   0.951   0.940
   0.930   0.923   0.921   0.924   0.932   0.942   0.951   0.957   0.956   0.946
   0.925   0.894
   0.978   0.895   0.808   0.728   0.665   0.625   0.610   0.617   0.644   0.685
   0.738   0.800   0.867   0.937   1.005   1.065   1.108   1.129   1.123   1.089
   1.031   0.956   0.871   0.786   0.705   0.633   0.572   0.522   0.485   0.464
   0.460   0.477   0.515   0.574   0.647   0.724   0.797   0.855   0.892   0.904
   0.895   0.871   0.842   0.816   0.803   0.808   0.834   0.882   0.947   1.025
   1.107   1.183   1.246   1.288   1.303   1.292   1.257   1.204   1.142   1.078
   1.022   0.981   0.959   0.957   0.975   1.006   1.045   1.081   1.107   1.113
   1.093   1.047
   0.928   0.846   0.771   0.725   0.720   0.756   0.821   0.893   0.950   0.979
   0.977   0.954   0.925   0.908   0.910   0.928   0.950   0.961   0.948   0.907
   0.848   0.786   0.739   0.718   0.726   0.751   0.776   0.783   0.760   0.710
   0.644   0.584   0.550   0.556   0.600   0.672   0.751   0.817   0.854   0.858
   0.835   0.799   0.764   0.744   0.745   0.770   0.816   0.882   0.962   1.052
   1.145   1.231   1.296   1.330   1.325   1.279   1.199   1.098   0.991   0.892
   0.810   0.752   0.721   0.716   0.737   0.781   0.844   0.914   0.978   1.020
   1.027   0.994
   0.749   0.702   0.695   0.769   0.942   1.196   1.479   1.721   1.857   1.849
   1.701   1.458   1.185   0.950   0.793   0.721   0.709   0.714   0.701   0.660
   0.609   0.587   0.637   0.781   1.008   1.273   1.511   1.656   1.667   1.540
   1.311   1.043   0.803   0.638   0.566   0.570   0.613   0.657   0.675   0.668
   0.651   0.651   0.685   0.755   0.844   0.928   0.985   1.010   1.011   1.006
   1.010   1.026   1.045   1.046   1.015   0.948   0.857   0.764   0.694   0.658
   0.655   0.666   0.674   0.666   0.646   0.629   0.632   0.664   0.718   0.772
   0.802   0.792
   0.559   0.532   0.587   0.799   1.199   1.750   2.346   2.840   3.097   3.041
   2.683   2.122   1.506   0.982   0.639   0.492   0.483   0.519   0.523   0.468
   0.394   0.382   0.519   0.853   1.360   1.946   2.475   2.811   2.868   2.637
   2.188   1.644   1.139   0.768   0.565   0.500   0.508   0.521   0.511   0.493
   0.516   0.629   0.847   1.136   1.418   1.607   1.644   1.525   1.299   1.048
   0.844   0.723   0.674   0.653   0.619   0.556   0.488   0.464   0.528   0.690
   0.913   1.126   1.252   1.247   1.116   0.915   0.717   0.585   0.540   0.559
   0.591   0.593
   0.465   0.407   0.447   0.707   1.248   2.030   2.898   3.630   4.015   3.929
   3.387   2.544   1.631   0.876   0.418   0.269   0.326   0.434   0.463   0.374
   0.229   0.163   0.317   0.765   1.477   2.314   3.076   3.563   3.652   3.332
   2.707   1.959   1.279   0.801   0.560   0.499   0.511   0.504   0.453   0.412
   0.486   0.761   1.248   1.853   2.403   2.718   2.686   2.319   1.744   1.147
   0.689   0.444   0.379   0.396   0.396   0.341   0.278   0.310   0.528   0.953
   1.504   2.023   2.341   2.353   2.065   1.588   1.086   0.702   0.504   0.466
   0.498   0.510
   0.483   0.365   0.315   0.495   1.005   1.821   2.779   3.621   4.090   4.026
   3.437   2.498   1.485   0.671   0.218   0.130   0.268   0.436   0.475   0.345
   0.130  -0.001   0.117   0.570   1.316   2.198   2.994   3.492   3.563   3.204
   2.537   1.766   1.099   0.677   0.520   0.538   0.590   0.567   0.461   0.376
   0.476   0.893   1.632   2.538   3.337   3.750   3.616   2.974   2.043   1.130
   0.487   0.213   0.231   0.356   0.412   0.335   0.207   0.205   0.496   1.130
   1.986   2.812   3.336   3.383   2.956   2.224   1.439   0.830   0.506   0.439
   0.498   0.539
   0.534   0.387   0.254   0.299   0.640   1.281   2.096   2.858   3.327   3.340
   2.882   2.098   1.240   0.557   0.200   0.164   0.312   0.458   0.467   0.319
   0.107  -0.011   0.100   0.492   1.109   1.806   2.404   2.746   2.748   2.418
   1.863   1.252   0.759   0.494   0.460   0.556   0.637   0.599   0.450   0.323
   0.415   0.883   1.737   2.792   3.716   4.168   3.954   3.134   1.997   0.933
   0.249   0.043   0.188   0.426   0.523   0.395   0.158   0.055   0.320   1.030
   2.042   3.042   3.687   3.761   3.271   2.423   1.519   0.822   0.461   0.402
   0.497   0.576
   0.513   0.406   0.278   0.245   0.398   0.761   1.269   1.790   2.164   2.265
   2.053   1.602   1.072   0.637   0.402   0.361   0.416   0.449   0.390   0.256
   0.134   0.126   0.290   0.613   1.017   1.400   1.672   1.780   1.709   1.476
   1.136   0.779   0.506   0.384   0.413   0.515   0.580   0.536   0.396   0.275
   0.344   0.748   1.511   2.480   3.349   3.780   3.573   2.779   1.692   0.702
   0.108  -0.010   0.198   0.463   0.552   0.389   0.100  -0.062   0.146   0.803
   1.764   2.709   3.303   3.352   2.887   2.117   1.318   0.713   0.400   0.347
   0.434   0.520
   0.383   0.363   0.329   0.318   0.363   0.477   0.654   0.875   1.094   1.242
   1.263   1.151   0.961   0.775   0.649   0.578   0.514   0.416   0.290   0.185
   0.165   0.268   0.477   0.723   0.919   1.012   1.001   0.930   0.840   0.744
   0.635   0.515   0.415   0.371   0.387   0.429   0.448   0.418   0.351   0.301
   0.353   0.598   1.086   1.758   2.417   2.796   2.702   2.142   1.337   0.602
   0.172   0.095   0.245   0.421   0.462   0.325   0.106  -0.003   0.178   0.700
   1.427   2.098   2.462   2.417   2.038   1.504   0.991   0.608   0.387   0.309
   0.322   0.364
   0.232   0.282   0.342   0.397   0.422   0.400   0.356   0.350   0.427   0.570
   0.710   0.787   0.794   0.766   0.727   0.671   0.574   0.437   0.296   0.208
   0.209   0.304   0.455   0.593   0.650   0.597   0.472   0.354   0.301   0.316
   0.351   0.369   0.372   0.376   0.384   0.378   0.354   0.339   0.357   0.401
   0.444   0.499   0.638   0.926   1.317   1.641   1.708   1.460   1.020   0.601
   0.351   0.286   0.323   0.368   0.361   0.296   0.218   0.215   0.376   0.716
   1.128   1.432   1.499   1.339   1.074   0.834   0.662   0.529   0.400   0.286
   0.216   0.203
   0.219   0.267   0.325   0.396   0.440   0.415   0.333   0.278   0.322   0.453
   0.583   0.637   0.622   0.600   0.612   0.640   0.641   0.594   0.513   0.424
   0.344   0.292   0.286   0.322   0.363   0.363   0.316   0.258   0.229   0.232
   0.237   0.243   0.277   0.359   0.444   0.466   0.415   0.366   0.397   0.486
   0.524   0.441   0.312   0.302   0.489   0.771   0.945   0.901   0.705   0.515
   0.425   0.414   0.413   0.395   0.375   0.366   0.364   0.382   0.462   0.619
   0.781   0.828   0.707   0.499   0.353   0.346   0.416   0.440   0.366   0.252
   0.181   0.181
   0.455   0.414   0.346   0.342   0.410   0.491   0.561   0.666   0.839   1.014
   1.058   0.913   0.668   0.490   0.481   0.611   0.780   0.898   0.920   0.824
   0.620   0.380   0.229   0.263   0.463   0.713   0.883   0.917   0.823   0.633
   0.399   0.217   0.202   0.380   0.628   0.753   0.677   0.511   0.430   0.477
   0.521   0.426   0.239   0.155   0.298   0.566   0.727   0.653   0.441   0.288
   0.297   0.405   0.503   0.544   0.548   0.524   0.449   0.338   0.272   0.318
   0.438   0.503   0.435   0.303   0.244   0.304   0.390   0.385   0.292   0.229
   0.280   0.395
   0.904   0.713   0.438   0.308   0.406   0.662   1.003   1.413   1.843   2.131
   2.077   1.645   1.044   0.593   0.481   0.669   0.983   1.251   1.362   1.256
   0.950   0.586   0.405   0.590   1.117   1.748   2.202   2.312   2.067   1.555
   0.935   0.434   0.275   0.513   0.934   1.189   1.083   0.739   0.454   0.394
   0.470   0.512   0.506   0.602   0.882   1.183   1.227   0.909   0.428   0.108
   0.112   0.348   0.619   0.796   0.841   0.740   0.489   0.175  -0.015   0.076
   0.414   0.789   1.006   1.040   0.986   0.898   0.738   0.493   0.288   0.296
   0.544   0.830
   1.395   1.030   0.550   0.314   0.454   0.886   1.491   2.201   2.895   3.312
   3.177   2.469   1.517   0.784   0.545   0.748   1.147   1.500   1.650   1.520
   1.145   0.730   0.608   1.024   1.919   2.938   3.659   3.834   3.448   2.643
   1.661   0.833   0.481   0.707   1.246   1.615   1.495   0.992   0.499   0.321
   0.453   0.718   1.036   1.466   1.995   2.374   2.280   1.647   0.797   0.197
   0.095   0.389   0.799   1.100   1.182   1.006   0.600   0.143  -0.061   0.223
   0.939   1.763   2.343   2.533   2.379   1.977   1.401   0.797   0.423   0.489
   0.920   1.345
   1.719   1.209   0.602   0.318   0.495   1.015   1.736   2.581   3.407   3.892
   3.708   2.836   1.678   0.790   0.492   0.716   1.161   1.542   1.685   1.514
   1.082   0.632   0.548   1.103   2.214   3.455   4.334   4.569   4.155   3.256
   2.130   1.132   0.638   0.808   1.387   1.836   1.749   1.182   0.567   0.307
   0.483   0.940   1.551   2.286   3.040   3.502   3.324   2.475   1.354   0.520
   0.284   0.553   1.014   1.381   1.496   1.297   0.836   0.351   0.219   0.712
   1.751   2.922   3.759   4.016   3.707   2.974   2.009   1.100   0.601   0.713
   1.257   1.735
 111       5.00   72    0 5.00   18    0
   0.437   0.433   0.429   0.426   0.423   0.420   0.418   0.416   0.415   0.413
   0.412   0.411   0.410   0.409   0.409   0.408   0.408   0.408   0.407   0.407
   0.407   0.407   0.408   0.409   0.410   0.411   0.413   0.415   0.418   0.421
   0.424   0.428   0.433   0.437   0.442   0.448   0.453   0.459   0.464   0.470
   0.475   0.480   0.486   0.490   0.495   0.499   0.502   0.505   0.508   0.510
   0.512   0.513   0.513   0.513   0.512   0.510   0.508   0.506   0.503   0.499
   0.495   0.491   0.486   0.481   0.476   0.471   0.466   0.461   0.456   0.451
   0.446   0.441
   0.178   0.170   0.164   0.159   0.157   0.158   0.161   0.165   0.172   0.180
   0.188   0.196   0.203   0.209   0.213   0.214   0.213   0.209   0.202   0.192
   0.181   0.169   0.156   0.143   0.132   0.123   0.116   0.113   0.113   0.117
   0.124   0.136   0.150   0.167   0.186   0.206   0.227   0.247   0.266   0.284
   0.300   0.315   0.328   0.340   0.351   0.362   0.371   0.380   0.389   0.396
   0.402   0.407   0.410   0.411   0.410   0.406   0.399   0.391   0.380   0.367
   0.352   0.337   0.321   0.304   0.288   0.272   0.256   0.241   0.226   0.213
   0.200   0.188
  -0.049  -0.054  -0.057  -0.056  -0.050  -0.039  -0.022   0.000   0.025   0.052
   0.079   0.104   0.125   0.141   0.150   0.152   0.145   0.131   0.111   0.084
   0.053   0.020  -0.013  -0.046  -0.075  -0.101  -0.122  -0.137  -0.147  -0.149
  -0.143  -0.129  -0.108  -0.080  -0.048  -0.015   0.018   0.047   0.070   0.086
   0.095   0.099   0.098   0.097   0.096   0.097   0.102   0.111   0.124   0.138
   0.154   0.168   0.179   0.187   0.190   0.187   0.178   0.165   0.147   0.127
   0.104   0.081   0.059   0.039   0.021   0.007  -0.005  -0.014  -0.022  -0.029
  -0.036  -0.043
   0.040   0.055   0.074   0.101   0.137   0.183   0.234   0.287   0.335   0.375
   0.402   0.416   0.418   0.408   0.389   0.364   0.333   0.299   0.264   0.231
   0.205   0.186   0.178   0.179   0.185   0.191   0.192   0.182   0.161   0.131
   0.097   0.067   0.046   0.039   0.046   0.064   0.085   0.103   0.111   0.106
   0.088   0.060   0.029   0.000  -0.022  -0.034  -0.036  -0.029  -0.017  -0.002
   0.013   0.026   0.035   0.042   0.044   0.045   0.043   0.038   0.031   0.022
   0.009  -0.007  -0.023  -0.038  -0.050  -0.054  -0.051  -0.041  -0.025  -0.007
   0.010   0.026
   0.463   0.516   0.586   0.681   0.800   0.936   1.075   1.195   1.276   1.307
   1.283   1.212   1.110   0.994   0.879   0.775   0.689   0.623   0.581   0.567
   0.590   0.657   0.768   0.915   1.079   1.232   1.344   1.391   1.360   1.256
   1.098   0.917   0.743   0.603   0.508   0.457   0.437   0.429   0.419   0.397
   0.366   0.331   0.302   0.288   0.289   0.301   0.315   0.322   0.315   0.290
   0.251   0.204   0.158   0.124   0.108   0.118   0.153   0.210   0.279   0.348
   0.404   0.436   0.441   0.420   0.384   0.345   0.318   0.308   0.318   0.344
   0.380   0.419
   0.940   1.025   1.156   1.347   1.600   1.893   2.184   2.419   2.550   2.548
   2.413   2.175   1.881   1.584   1.322   1.118   0.974   0.883   0.841   0.855
   0.942   1.125   1.412   1.791   2.222   2.637   2.960   3.125   3.096   2.877
   2.513   2.077   1.649   1.291   1.039   0.894   0.829   0.809   0.803   0.800
   0.804   0.831   0.896   0.998   1.122   1.238   1.312   1.318   1.246   1.104
   0.918   0.718   0.540   0.412   0.359   0.392   0.515   0.714   0.962   1.219
   1.439   1.580   1.620   1.556   1.415   1.236   1.065   0.933   0.857   0.834
   0.847   0.884
   1.151   1.229   1.381   1.639   2.011   2.461   2.917   3.281   3.467   3.424
   3.158   2.730   2.234   1.767   1.397   1.146   0.999   0.921   0.887   0.901
   0.997   1.227   1.626   2.194   2.871   3.551   4.103   4.408   4.399   4.076
   3.513   2.831   2.165   1.622   1.256   1.065   0.999   1.000   1.023   1.061
   1.135   1.282   1.522   1.838   2.179   2.466   2.625   2.611   2.421   2.096
   1.699   1.301   0.964   0.735   0.645   0.712   0.941   1.317   1.797   2.308
   2.757   3.054   3.136   2.993   2.668   2.248   1.828   1.487   1.261   1.146
   1.109   1.116
   1.016   1.044   1.148   1.381   1.767   2.271   2.804   3.239   3.457   3.390
   3.046   2.511   1.919   1.402   1.043   0.856   0.790   0.773   0.751   0.721
   0.739   0.889   1.245   1.824   2.570   3.354   4.014   4.397   4.414   4.062
   3.429   2.668   1.942   1.380   1.041   0.903   0.894   0.933   0.972   1.021
   1.136   1.382   1.789   2.321   2.877   3.322   3.540   3.474   3.149   2.649
   2.088   1.569   1.161   0.901   0.805   0.886   1.159   1.624   2.247   2.942
   3.580   4.015   4.139   3.920   3.418   2.765   2.116   1.595   1.256   1.087
   1.028   1.015
   0.723   0.697   0.714   0.839   1.111   1.513   1.969   2.361   2.568   2.512
   2.197   1.709   1.188   0.772   0.541   0.489   0.540   0.593   0.578   0.493
   0.402   0.410   0.605   1.020   1.609   2.257   2.814   3.145   3.167   2.880
   2.363   1.754   1.201   0.815   0.632   0.614   0.675   0.729   0.738   0.737
   0.814   1.062   1.524   2.147   2.794   3.290   3.494   3.358   2.940   2.372
   1.802   1.336   1.016   0.837   0.775   0.826   1.018   1.390   1.948   2.633
   3.309   3.797   3.951   3.714   3.153   2.426   1.722   1.184   0.869   0.746
   0.730   0.737
   0.505   0.468   0.435   0.454   0.562   0.765   1.029   1.284   1.440   1.429
   1.234   0.913   0.574   0.329   0.241   0.291   0.401   0.477   0.459   0.354
   0.224   0.156   0.217   0.427   0.750   1.106   1.404   1.569   1.561   1.387
   1.100   0.783   0.525   0.385   0.373   0.445   0.527   0.553   0.506   0.429
   0.419   0.574   0.943   1.479   2.043   2.455   2.580   2.390   1.973   1.483
   1.063   0.792   0.665   0.627   0.615   0.606   0.636   0.778   1.095   1.578
   2.121   2.553   2.713   2.533   2.074   1.490   0.957   0.593   0.428   0.412
   0.463   0.506
   0.413   0.418   0.419   0.420   0.431   0.466   0.542   0.650   0.752   0.789
   0.722   0.565   0.385   0.262   0.236   0.290   0.363   0.395   0.366   0.296
   0.230   0.213   0.261   0.364   0.484   0.582   0.630   0.622   0.569   0.487
   0.400   0.331   0.301   0.321   0.377   0.440   0.473   0.454   0.383   0.288
   0.227   0.274   0.474   0.808   1.177   1.436   1.475   1.285   0.960   0.636
   0.420   0.343   0.367   0.423   0.445   0.400   0.311   0.254   0.318   0.543
   0.875   1.178   1.314   1.221   0.954   0.639   0.395   0.276   0.266   0.311
   0.362   0.397
   0.336   0.405   0.495   0.562   0.580   0.562   0.554   0.594   0.673   0.734
   0.716   0.611   0.471   0.368   0.332   0.338   0.339   0.313   0.275   0.262
   0.294   0.372   0.473   0.569   0.629   0.636   0.591   0.516   0.442   0.390
   0.371   0.383   0.419   0.457   0.473   0.453   0.405   0.357   0.329   0.314
   0.301   0.304   0.366   0.511   0.701   0.840   0.840   0.698   0.495   0.329
   0.251   0.247   0.279   0.319   0.346   0.334   0.267   0.169   0.113   0.167
   0.327   0.506   0.596   0.560   0.450   0.361   0.343   0.377   0.406   0.394
   0.352   0.320
   0.236   0.349   0.498   0.621   0.679   0.685   0.697   0.760   0.861   0.918
   0.856   0.683   0.489   0.373   0.354   0.376   0.373   0.334   0.304   0.322
   0.387   0.469   0.547   0.618   0.688   0.746   0.772   0.755   0.701   0.627
   0.557   0.514   0.506   0.510   0.480   0.392   0.279   0.218   0.258   0.368
   0.463   0.494   0.500   0.554   0.670   0.777   0.785   0.686   0.559   0.481
   0.452   0.419   0.355   0.304   0.322   0.398   0.458   0.447   0.398   0.396
   0.478   0.591   0.647   0.618   0.563   0.554   0.595   0.621   0.568   0.437
   0.293   0.213
   0.306   0.432   0.545   0.612   0.627   0.620   0.656   0.770   0.913   0.962
   0.829   0.564   0.335   0.285   0.411   0.581   0.673   0.676   0.660   0.672
   0.681   0.636   0.542   0.470   0.487   0.594   0.727   0.808   0.794   0.691
   0.551   0.445   0.426   0.471   0.494   0.420   0.274   0.173   0.219   0.385
   0.543   0.600   0.594   0.638   0.773   0.906   0.918   0.801   0.672   0.630
   0.646   0.608   0.478   0.353   0.363   0.515   0.681   0.737   0.691   0.660
   0.723   0.837   0.898   0.866   0.796   0.753   0.731   0.663   0.516   0.340
   0.224   0.218
   0.842   0.953   0.934   0.818   0.656   0.516   0.479   0.584   0.751   0.810
   0.651   0.371   0.216   0.367   0.765   1.173   1.397   1.438   1.420   1.410
   1.343   1.128   0.786   0.466   0.315   0.358   0.499   0.614   0.626   0.533
   0.400   0.336   0.422   0.634   0.829   0.854   0.695   0.499   0.433   0.513
   0.604   0.594   0.537   0.573   0.739   0.891   0.862   0.663   0.491   0.507
   0.656   0.743   0.664   0.531   0.528   0.687   0.849   0.848   0.701   0.578
   0.606   0.740   0.840   0.832   0.759   0.685   0.610   0.497   0.366   0.312
   0.410   0.626
   1.913   1.975   1.779   1.426   1.013   0.637   0.414   0.416   0.561   0.641
   0.517   0.307   0.316   0.738   1.444   2.077   2.383   2.402   2.348   2.328
   2.237   1.917   1.379   0.822   0.455   0.336   0.372   0.435   0.452   0.423
   0.403   0.491   0.773   1.219   1.643   1.817   1.670   1.358   1.102   0.973
   0.862   0.669   0.471   0.433   0.580   0.711   0.614   0.335   0.158   0.311
   0.704   1.029   1.087   0.980   0.943   1.046   1.118   0.972   0.642   0.354
   0.283   0.392   0.513   0.547   0.521   0.494   0.469   0.437   0.466   0.672
   1.088   1.574
   3.160   3.119   2.755   2.213   1.592   0.988   0.547   0.396   0.482   0.572
   0.491   0.355   0.505   1.142   2.074   2.847   3.163   3.113   3.002   2.983
   2.916   2.580   1.956   1.264   0.751   0.494   0.411   0.401   0.429   0.498
   0.634   0.898   1.362   2.009   2.646   2.997   2.924   2.552   2.121   1.751
   1.377   0.939   0.544   0.381   0.464   0.555   0.420   0.132   0.042   0.407
   1.086   1.659   1.847   1.747   1.655   1.688   1.677   1.409   0.911   0.440
   0.210   0.210   0.285   0.330   0.368   0.444   0.553   0.696   0.958   1.448
   2.136   2.796
   3.959   3.771   3.289   2.674   1.984   1.273   0.700   0.440   0.472   0.553
   0.470   0.331   0.498   1.192   2.196   3.006   3.298   3.191   3.042   3.025
   2.980   2.656   2.025   1.323   0.803   0.532   0.423   0.396   0.448   0.596
   0.837   1.192   1.729   2.468   3.249   3.781   3.861   3.538   3.026   2.474
   1.879   1.236   0.685   0.423   0.453   0.525   0.406   0.189   0.247   0.827
   1.734   2.479   2.737   2.623   2.481   2.474   2.435   2.120   1.527   0.907
   0.504   0.347   0.317   0.328   0.395   0.548   0.776   1.080   1.541   2.226
   3.038   3.702
TEXTURE_INDEX=   4.9812
ERR_CF 220         1077     434   49.69   21.58
ERR_CF 200         1076     206   41.67   21.62
ERR_CF 111         1080     237  235.07   16.95
