TEXEVAL                                                                         
Analysis started on 21-May-19 13:29:37                                          
 LMAX=16LFMAX=03 CUBIC ORTHO   
 220      5.00 5.00
 200      5.00 5.00
 111      5.00 5.00
 220       5.00   72    0 5.00   15    0
   2.207   2.207   2.207   2.207   2.207   2.207   2.207   2.207   2.207   2.207
   2.207   2.207   2.207   2.207   2.207   2.207   2.207   2.207   2.207   2.207
   2.207   2.207   2.207   2.207   2.207   2.207   2.207   2.207   2.207   2.207
   2.207   2.207   2.207   2.207   2.207   2.207   2.207   2.207   2.207   2.207
   2.207   2.207   2.207   2.207   2.207   2.207   2.207   2.207   2.207   2.207
   2.207   2.207   2.207   2.207   2.207   2.207   2.207   2.207   2.207   2.207
   2.207   2.207   2.207   2.207   2.207   2.207   2.207   2.207   2.207   2.207
   2.207   2.207
   0.766   0.784   0.758   0.735   0.885   0.904   0.942   1.053   1.145   1.314
   1.379   1.576   1.843   1.967   2.129   2.547   2.693   2.700   2.697   2.700
   2.693   2.547   2.129   1.967   1.843   1.576   1.379   1.314   1.145   1.053
   0.942   0.904   0.885   0.735   0.758   0.784   0.766   0.784   0.758   0.735
   0.885   0.904   0.942   1.053   1.145   1.314   1.379   1.576   1.843   1.967
   2.129   2.547   2.693   2.700   2.697   2.700   2.693   2.547   2.129   1.967
   1.843   1.576   1.379   1.314   1.145   1.053   0.942   0.904   0.885   0.735
   0.758   0.784
   0.259   0.269   0.283   0.294   0.332   0.387   0.408   0.507   0.696   0.780
   0.829   1.243   1.702   1.976   2.456   2.910   3.340   3.764   3.778   3.764
   3.340   2.910   2.456   1.976   1.702   1.243   0.829   0.780   0.696   0.507
   0.408   0.387   0.332   0.294   0.283   0.269   0.259   0.269   0.283   0.294
   0.332   0.387   0.408   0.507   0.696   0.780   0.829   1.243   1.702   1.976
   2.456   2.910   3.340   3.764   3.778   3.764   3.340   2.910   2.456   1.976
   1.702   1.243   0.829   0.780   0.696   0.507   0.408   0.387   0.332   0.294
   0.283   0.269
   0.236   0.182   0.151   0.154   0.204   0.311   0.315   0.359   0.472   0.561
   0.739   1.075   1.630   2.219   2.929   3.619   4.627   5.455   5.445   5.455
   4.627   3.619   2.929   2.219   1.630   1.075   0.739   0.561   0.472   0.359
   0.315   0.311   0.204   0.154   0.151   0.182   0.236   0.182   0.151   0.154
   0.204   0.311   0.315   0.359   0.472   0.561   0.739   1.075   1.630   2.219
   2.929   3.619   4.627   5.455   5.445   5.455   4.627   3.619   2.929   2.219
   1.630   1.075   0.739   0.561   0.472   0.359   0.315   0.311   0.204   0.154
   0.151   0.182
   0.188   0.142   0.123   0.121   0.132   0.206   0.232   0.329   0.428   0.502
   0.810   1.055   1.458   2.203   2.834   3.688   5.127   6.615   7.144   6.615
   5.127   3.688   2.834   2.203   1.458   1.055   0.810   0.502   0.428   0.329
   0.232   0.206   0.132   0.121   0.123   0.142   0.188   0.142   0.123   0.121
   0.132   0.206   0.232   0.329   0.428   0.502   0.810   1.055   1.458   2.203
   2.834   3.688   5.127   6.615   7.144   6.615   5.127   3.688   2.834   2.203
   1.458   1.055   0.810   0.502   0.428   0.329   0.232   0.206   0.132   0.121
   0.123   0.142
   0.087   0.060   0.058   0.051   0.086   0.144   0.136   0.264   0.448   0.462
   0.602   0.863   1.144   1.644   2.307   3.283   4.501   5.790   6.396   5.790
   4.501   3.283   2.307   1.644   1.144   0.863   0.602   0.462   0.448   0.264
   0.136   0.144   0.086   0.051   0.058   0.060   0.087   0.060   0.058   0.051
   0.086   0.144   0.136   0.264   0.448   0.462   0.602   0.863   1.144   1.644
   2.307   3.283   4.501   5.790   6.396   5.790   4.501   3.283   2.307   1.644
   1.144   0.863   0.602   0.462   0.448   0.264   0.136   0.144   0.086   0.051
   0.058   0.060
   0.161   0.130   0.107   0.065   0.104   0.137   0.166   0.241   0.411   0.445
   0.404   0.658   1.024   1.464   2.381   3.378   3.848   3.996   3.958   3.996
   3.848   3.378   2.381   1.464   1.024   0.658   0.404   0.445   0.411   0.241
   0.166   0.137   0.104   0.065   0.107   0.130   0.161   0.130   0.107   0.065
   0.104   0.137   0.166   0.241   0.411   0.445   0.404   0.658   1.024   1.464
   2.381   3.378   3.848   3.996   3.958   3.996   3.848   3.378   2.381   1.464
   1.024   0.658   0.404   0.445   0.411   0.241   0.166   0.137   0.104   0.065
   0.107   0.130
   0.417   0.367   0.294   0.245   0.240   0.271   0.311   0.260   0.406   0.439
   0.330   0.494   0.903   1.658   2.643   3.303   3.262   2.852   2.696   2.852
   3.262   3.303   2.643   1.658   0.903   0.494   0.330   0.439   0.406   0.260
   0.311   0.271   0.240   0.245   0.294   0.367   0.417   0.367   0.294   0.245
   0.240   0.271   0.311   0.260   0.406   0.439   0.330   0.494   0.903   1.658
   2.643   3.303   3.262   2.852   2.696   2.852   3.262   3.303   2.643   1.658
   0.903   0.494   0.330   0.439   0.406   0.260   0.311   0.271   0.240   0.245
   0.294   0.367
   0.732   0.670   0.476   0.416   0.331   0.250   0.327   0.261   0.310   0.350
   0.331   0.399   0.709   1.454   2.249   2.441   2.192   1.885   1.761   1.885
   2.192   2.441   2.249   1.454   0.709   0.399   0.331   0.350   0.310   0.261
   0.327   0.250   0.331   0.416   0.476   0.670   0.732   0.670   0.476   0.416
   0.331   0.250   0.327   0.261   0.310   0.350   0.331   0.399   0.709   1.454
   2.249   2.441   2.192   1.885   1.761   1.885   2.192   2.441   2.249   1.454
   0.709   0.399   0.331   0.350   0.310   0.261   0.327   0.250   0.331   0.416
   0.476   0.670
   1.317   1.186   0.815   0.571   0.443   0.394   0.344   0.227   0.183   0.247
   0.308   0.366   0.557   0.915   1.341   1.279   1.089   1.020   0.912   1.020
   1.089   1.279   1.341   0.915   0.557   0.366   0.308   0.247   0.183   0.227
   0.344   0.394   0.443   0.571   0.815   1.186   1.317   1.186   0.815   0.571
   0.443   0.394   0.344   0.227   0.183   0.247   0.308   0.366   0.557   0.915
   1.341   1.279   1.089   1.020   0.912   1.020   1.089   1.279   1.341   0.915
   0.557   0.366   0.308   0.247   0.183   0.227   0.344   0.394   0.443   0.571
   0.815   1.186
   2.628   2.399   1.799   1.243   0.742   0.587   0.500   0.323   0.211   0.192
   0.182   0.246   0.361   0.442   0.556   0.516   0.548   0.657   0.682   0.657
   0.548   0.516   0.556   0.442   0.361   0.246   0.182   0.192   0.211   0.323
   0.500   0.587   0.742   1.243   1.799   2.399   2.628   2.399   1.799   1.243
   0.742   0.587   0.500   0.323   0.211   0.192   0.182   0.246   0.361   0.442
   0.556   0.516   0.548   0.657   0.682   0.657   0.548   0.516   0.556   0.442
   0.361   0.246   0.182   0.192   0.211   0.323   0.500   0.587   0.742   1.243
   1.799   2.399
   4.604   4.141   3.077   2.146   1.243   1.055   0.968   0.615   0.461   0.385
   0.382   0.396   0.422   0.340   0.287   0.329   0.439   0.458   0.491   0.458
   0.439   0.329   0.287   0.340   0.422   0.396   0.382   0.385   0.461   0.615
   0.968   1.055   1.243   2.146   3.077   4.141   4.604   4.141   3.077   2.146
   1.243   1.055   0.968   0.615   0.461   0.385   0.382   0.396   0.422   0.340
   0.287   0.329   0.439   0.458   0.491   0.458   0.439   0.329   0.287   0.340
   0.422   0.396   0.382   0.385   0.461   0.615   0.968   1.055   1.243   2.146
   3.077   4.141
   4.088   3.700   2.945   2.427   2.035   1.730   1.195   0.886   0.825   0.558
   0.454   0.521   0.514   0.434   0.311   0.410   0.648   0.491   0.377   0.491
   0.648   0.410   0.311   0.434   0.514   0.521   0.454   0.558   0.825   0.886
   1.195   1.730   2.035   2.427   2.945   3.700   4.088   3.700   2.945   2.427
   2.035   1.730   1.195   0.886   0.825   0.558   0.454   0.521   0.514   0.434
   0.311   0.410   0.648   0.491   0.377   0.491   0.648   0.410   0.311   0.434
   0.514   0.521   0.454   0.558   0.825   0.886   1.195   1.730   2.035   2.427
   2.945   3.700
   1.960   1.792   1.711   1.786   1.828   1.633   1.386   1.441   1.345   1.018
   0.512   0.403   0.540   0.531   0.460   0.414   0.628   0.453   0.227   0.453
   0.628   0.414   0.460   0.531   0.540   0.403   0.512   1.018   1.345   1.441
   1.386   1.633   1.828   1.786   1.711   1.792   1.960   1.792   1.711   1.786
   1.828   1.633   1.386   1.441   1.345   1.018   0.512   0.403   0.540   0.531
   0.460   0.414   0.628   0.453   0.227   0.453   0.628   0.414   0.460   0.531
   0.540   0.403   0.512   1.018   1.345   1.441   1.386   1.633   1.828   1.786
   1.711   1.792
   0.843   1.140   1.149   0.989   1.115   1.067   1.217   1.424   1.469   1.540
   0.940   0.481   0.463   0.426   0.615   0.766   0.804   0.482   0.348   0.482
   0.804   0.766   0.615   0.426   0.463   0.481   0.940   1.540   1.469   1.424
   1.217   1.067   1.115   0.989   1.149   1.140   0.843   1.140   1.149   0.989
   1.115   1.067   1.217   1.424   1.469   1.540   0.940   0.481   0.463   0.426
   0.615   0.766   0.804   0.482   0.348   0.482   0.804   0.766   0.615   0.426
   0.463   0.481   0.940   1.540   1.469   1.424   1.217   1.067   1.115   0.989
   1.149   1.140
 200       5.00   72    0 5.00   15    0
   1.479   1.479   1.479   1.479   1.479   1.479   1.479   1.479   1.479   1.479
   1.479   1.479   1.479   1.479   1.479   1.479   1.479   1.479   1.479   1.479
   1.479   1.479   1.479   1.479   1.479   1.479   1.479   1.479   1.479   1.479
   1.479   1.479   1.479   1.479   1.479   1.479   1.479   1.479   1.479   1.479
   1.479   1.479   1.479   1.479   1.479   1.479   1.479   1.479   1.479   1.479
   1.479   1.479   1.479   1.479   1.479   1.479   1.479   1.479   1.479   1.479
   1.479   1.479   1.479   1.479   1.479   1.479   1.479   1.479   1.479   1.479
   1.479   1.479
   0.715   0.798   0.955   1.085   1.070   1.045   1.296   1.282   1.109   1.045
   1.225   1.325   1.164   1.425   1.526   1.370   1.277   1.323   1.507   1.323
   1.277   1.370   1.526   1.425   1.164   1.325   1.225   1.045   1.109   1.282
   1.296   1.045   1.070   1.085   0.955   0.798   0.715   0.798   0.955   1.085
   1.070   1.045   1.296   1.282   1.109   1.045   1.225   1.325   1.164   1.425
   1.526   1.370   1.277   1.323   1.507   1.323   1.277   1.370   1.526   1.425
   1.164   1.325   1.225   1.045   1.109   1.282   1.296   1.045   1.070   1.085
   0.955   0.798
   0.489   0.452   0.552   0.641   0.583   0.555   0.694   0.719   0.527   0.525
   0.738   0.873   0.866   0.831   0.858   0.854   0.836   0.887   0.949   0.887
   0.836   0.854   0.858   0.831   0.866   0.873   0.738   0.525   0.527   0.719
   0.694   0.555   0.583   0.641   0.552   0.452   0.489   0.452   0.552   0.641
   0.583   0.555   0.694   0.719   0.527   0.525   0.738   0.873   0.866   0.831
   0.858   0.854   0.836   0.887   0.949   0.887   0.836   0.854   0.858   0.831
   0.866   0.873   0.738   0.525   0.527   0.719   0.694   0.555   0.583   0.641
   0.552   0.452
   0.530   0.472   0.459   0.502   0.601   0.558   0.482   0.451   0.384   0.409
   0.562   0.543   0.598   0.748   0.633   0.570   0.644   0.692   0.670   0.692
   0.644   0.570   0.633   0.748   0.598   0.543   0.562   0.409   0.384   0.451
   0.482   0.558   0.601   0.502   0.459   0.472   0.530   0.472   0.459   0.502
   0.601   0.558   0.482   0.451   0.384   0.409   0.562   0.543   0.598   0.748
   0.633   0.570   0.644   0.692   0.670   0.692   0.644   0.570   0.633   0.748
   0.598   0.543   0.562   0.409   0.384   0.451   0.482   0.558   0.601   0.502
   0.459   0.472
   1.041   1.017   0.966   0.956   1.035   0.915   0.768   0.678   0.576   0.584
   0.646   0.466   0.448   0.618   0.509   0.541   0.581   0.601   0.665   0.601
   0.581   0.541   0.509   0.618   0.448   0.466   0.646   0.584   0.576   0.678
   0.768   0.915   1.035   0.956   0.966   1.017   1.041   1.017   0.966   0.956
   1.035   0.915   0.768   0.678   0.576   0.584   0.646   0.466   0.448   0.618
   0.509   0.541   0.581   0.601   0.665   0.601   0.581   0.541   0.509   0.618
   0.448   0.466   0.646   0.584   0.576   0.678   0.768   0.915   1.035   0.956
   0.966   1.017
   2.862   2.825   2.839   2.919   2.738   2.470   2.221   1.732   1.163   0.957
   0.798   0.527   0.387   0.462   0.594   0.596   0.464   0.550   0.743   0.550
   0.464   0.596   0.594   0.462   0.387   0.527   0.798   0.957   1.163   1.732
   2.221   2.470   2.738   2.919   2.839   2.825   2.862   2.825   2.839   2.919
   2.738   2.470   2.221   1.732   1.163   0.957   0.798   0.527   0.387   0.462
   0.594   0.596   0.464   0.550   0.743   0.550   0.464   0.596   0.594   0.462
   0.387   0.527   0.798   0.957   1.163   1.732   2.221   2.470   2.738   2.919
   2.839   2.825
   3.801   3.829   4.134   4.608   4.652   4.522   4.219   3.281   2.015   1.340
   1.020   0.739   0.549   0.542   0.608   0.584   0.584   0.619   0.570   0.619
   0.584   0.584   0.608   0.542   0.549   0.739   1.020   1.340   2.015   3.281
   4.219   4.522   4.652   4.608   4.134   3.829   3.801   3.829   4.134   4.608
   4.652   4.522   4.219   3.281   2.015   1.340   1.020   0.739   0.549   0.542
   0.608   0.584   0.584   0.619   0.570   0.619   0.584   0.584   0.608   0.542
   0.549   0.739   1.020   1.340   2.015   3.281   4.219   4.522   4.652   4.608
   4.134   3.829
   2.142   2.230   2.539   2.996   3.477   3.670   3.589   3.096   2.185   1.538
   1.212   0.907   0.644   0.551   0.560   0.599   0.717   0.718   0.591   0.718
   0.717   0.599   0.560   0.551   0.644   0.907   1.212   1.538   2.185   3.096
   3.589   3.670   3.477   2.996   2.539   2.230   2.142   2.230   2.539   2.996
   3.477   3.670   3.589   3.096   2.185   1.538   1.212   0.907   0.644   0.551
   0.560   0.599   0.717   0.718   0.591   0.718   0.717   0.599   0.560   0.551
   0.644   0.907   1.212   1.538   2.185   3.096   3.589   3.670   3.477   2.996
   2.539   2.230
   0.495   0.522   0.623   0.747   1.019   1.175   1.366   1.481   1.440   1.305
   1.060   0.895   0.672   0.579   0.561   0.633   0.693   0.704   0.761   0.704
   0.693   0.633   0.561   0.579   0.672   0.895   1.060   1.305   1.440   1.481
   1.366   1.175   1.019   0.747   0.623   0.522   0.495   0.522   0.623   0.747
   1.019   1.175   1.366   1.481   1.440   1.305   1.060   0.895   0.672   0.579
   0.561   0.633   0.693   0.704   0.761   0.704   0.693   0.633   0.561   0.579
   0.672   0.895   1.060   1.305   1.440   1.481   1.366   1.175   1.019   0.747
   0.623   0.522
   0.059   0.058   0.100   0.191   0.236   0.256   0.332   0.447   0.620   0.720
   0.763   0.884   0.831   0.736   0.524   0.472   0.559   0.808   1.112   0.808
   0.559   0.472   0.524   0.736   0.831   0.884   0.763   0.720   0.620   0.447
   0.332   0.256   0.236   0.191   0.100   0.058   0.059   0.058   0.100   0.191
   0.236   0.256   0.332   0.447   0.620   0.720   0.763   0.884   0.831   0.736
   0.524   0.472   0.559   0.808   1.112   0.808   0.559   0.472   0.524   0.736
   0.831   0.884   0.763   0.720   0.620   0.447   0.332   0.256   0.236   0.191
   0.100   0.058
   0.030   0.036   0.077   0.125   0.128   0.152   0.292   0.304   0.252   0.385
   0.738   1.398   1.849   1.539   0.885   0.638   0.662   0.749   1.087   0.749
   0.662   0.638   0.885   1.539   1.849   1.398   0.738   0.385   0.252   0.304
   0.292   0.152   0.128   0.125   0.077   0.036   0.030   0.036   0.077   0.125
   0.128   0.152   0.292   0.304   0.252   0.385   0.738   1.398   1.849   1.539
   0.885   0.638   0.662   0.749   1.087   0.749   0.662   0.638   0.885   1.539
   1.849   1.398   0.738   0.385   0.252   0.304   0.292   0.152   0.128   0.125
   0.077   0.036
   0.025   0.017   0.073   0.097   0.171   0.207   0.348   0.332   0.357   0.711
   1.121   2.402   3.040   2.276   1.431   0.820   0.646   0.573   0.834   0.573
   0.646   0.820   1.431   2.276   3.040   2.402   1.121   0.711   0.357   0.332
   0.348   0.207   0.171   0.097   0.073   0.017   0.025   0.017   0.073   0.097
   0.171   0.207   0.348   0.332   0.357   0.711   1.121   2.402   3.040   2.276
   1.431   0.820   0.646   0.573   0.834   0.573   0.646   0.820   1.431   2.276
   3.040   2.402   1.121   0.711   0.357   0.332   0.348   0.207   0.171   0.097
   0.073   0.017
   0.055   0.090   0.170   0.153   0.197   0.439   0.373   0.260   0.555   1.340
   2.119   3.192   3.135   1.935   1.318   0.690   0.462   0.485   0.602   0.485
   0.462   0.690   1.318   1.935   3.135   3.192   2.119   1.340   0.555   0.260
   0.373   0.439   0.197   0.153   0.170   0.090   0.055   0.090   0.170   0.153
   0.197   0.439   0.373   0.260   0.555   1.340   2.119   3.192   3.135   1.935
   1.318   0.690   0.462   0.485   0.602   0.485   0.462   0.690   1.318   1.935
   3.135   3.192   2.119   1.340   0.555   0.260   0.373   0.439   0.197   0.153
   0.170   0.090
   0.109   0.138   0.148   0.204   0.592   0.788   0.659   0.646   1.166   2.288
   3.055   2.752   1.857   0.969   0.725   0.717   0.518   0.232   0.200   0.232
   0.518   0.717   0.725   0.969   1.857   2.752   3.055   2.288   1.166   0.646
   0.659   0.788   0.592   0.204   0.148   0.138   0.109   0.138   0.148   0.204
   0.592   0.788   0.659   0.646   1.166   2.288   3.055   2.752   1.857   0.969
   0.725   0.717   0.518   0.232   0.200   0.232   0.518   0.717   0.725   0.969
   1.857   2.752   3.055   2.288   1.166   0.646   0.659   0.788   0.592   0.204
   0.148   0.138
   0.186   0.090   0.018   0.216   0.703   0.967   0.982   1.479   2.337   2.769
   2.570   1.378   0.512   0.393   0.651   0.714   0.497   0.311   0.277   0.311
   0.497   0.714   0.651   0.393   0.512   1.378   2.570   2.769   2.337   1.479
   0.982   0.967   0.703   0.216   0.018   0.090   0.186   0.090   0.018   0.216
   0.703   0.967   0.982   1.479   2.337   2.769   2.570   1.378   0.512   0.393
   0.651   0.714   0.497   0.311   0.277   0.311   0.497   0.714   0.651   0.393
   0.512   1.378   2.570   2.769   2.337   1.479   0.982   0.967   0.703   0.216
   0.018   0.090
 111       5.00   72    0 5.00   15    0
   0.031   0.031   0.031   0.031   0.031   0.031   0.031   0.031   0.031   0.031
   0.031   0.031   0.031   0.031   0.031   0.031   0.031   0.031   0.031   0.031
   0.031   0.031   0.031   0.031   0.031   0.031   0.031   0.031   0.031   0.031
   0.031   0.031   0.031   0.031   0.031   0.031   0.031   0.031   0.031   0.031
   0.031   0.031   0.031   0.031   0.031   0.031   0.031   0.031   0.031   0.031
   0.031   0.031   0.031   0.031   0.031   0.031   0.031   0.031   0.031   0.031
   0.031   0.031   0.031   0.031   0.031   0.031   0.031   0.031   0.031   0.031
   0.031   0.031
   0.159   0.146   0.118   0.105   0.120   0.112   0.085   0.061   0.065   0.060
   0.058   0.062   0.063   0.047   0.036   0.055   0.071   0.064   0.054   0.064
   0.071   0.055   0.036   0.047   0.063   0.062   0.058   0.060   0.065   0.061
   0.085   0.112   0.120   0.105   0.118   0.146   0.159   0.146   0.118   0.105
   0.120   0.112   0.085   0.061   0.065   0.060   0.058   0.062   0.063   0.047
   0.036   0.055   0.071   0.064   0.054   0.064   0.071   0.055   0.036   0.047
   0.063   0.062   0.058   0.060   0.065   0.061   0.085   0.112   0.120   0.105
   0.118   0.146
   0.579   0.600   0.512   0.435   0.394   0.284   0.218   0.180   0.167   0.129
   0.086   0.097   0.094   0.068   0.050   0.066   0.067   0.056   0.056   0.056
   0.067   0.066   0.050   0.068   0.094   0.097   0.086   0.129   0.167   0.180
   0.218   0.284   0.394   0.435   0.512   0.600   0.579   0.600   0.512   0.435
   0.394   0.284   0.218   0.180   0.167   0.129   0.086   0.097   0.094   0.068
   0.050   0.066   0.067   0.056   0.056   0.056   0.067   0.066   0.050   0.068
   0.094   0.097   0.086   0.129   0.167   0.180   0.218   0.284   0.394   0.435
   0.512   0.600
   3.581   3.396   2.843   2.372   1.834   1.152   0.718   0.465   0.313   0.245
   0.169   0.117   0.089   0.054   0.053   0.052   0.060   0.071   0.062   0.071
   0.060   0.052   0.053   0.054   0.089   0.117   0.169   0.245   0.313   0.465
   0.718   1.152   1.834   2.372   2.843   3.396   3.581   3.396   2.843   2.372
   1.834   1.152   0.718   0.465   0.313   0.245   0.169   0.117   0.089   0.054
   0.053   0.052   0.060   0.071   0.062   0.071   0.060   0.052   0.053   0.054
   0.089   0.117   0.169   0.245   0.313   0.465   0.718   1.152   1.834   2.372
   2.843   3.396
   8.407   7.845   6.684   5.385   3.994   2.632   1.695   1.092   0.670   0.513
   0.350   0.193   0.110   0.038   0.030   0.017   0.042   0.062   0.042   0.062
   0.042   0.017   0.030   0.038   0.110   0.193   0.350   0.513   0.670   1.092
   1.695   2.632   3.994   5.385   6.684   7.845   8.407   7.845   6.684   5.385
   3.994   2.632   1.695   1.092   0.670   0.513   0.350   0.193   0.110   0.038
   0.030   0.017   0.042   0.062   0.042   0.062   0.042   0.017   0.030   0.038
   0.110   0.193   0.350   0.513   0.670   1.092   1.695   2.632   3.994   5.385
   6.684   7.845
   7.224   7.020   6.190   4.909   3.856   2.846   2.033   1.415   0.968   0.764
   0.552   0.344   0.217   0.125   0.087   0.064   0.065   0.078   0.085   0.078
   0.065   0.064   0.087   0.125   0.217   0.344   0.552   0.764   0.968   1.415
   2.033   2.846   3.856   4.909   6.190   7.020   7.224   7.020   6.190   4.909
   3.856   2.846   2.033   1.415   0.968   0.764   0.552   0.344   0.217   0.125
   0.087   0.064   0.065   0.078   0.085   0.078   0.065   0.064   0.087   0.125
   0.217   0.344   0.552   0.764   0.968   1.415   2.033   2.846   3.856   4.909
   6.190   7.020
   3.133   3.280   3.004   2.386   2.130   1.847   1.453   1.176   0.975   0.752
   0.569   0.450   0.377   0.259   0.187   0.136   0.147   0.169   0.180   0.169
   0.147   0.136   0.187   0.259   0.377   0.450   0.569   0.752   0.975   1.176
   1.453   1.847   2.130   2.386   3.004   3.280   3.133   3.280   3.004   2.386
   2.130   1.847   1.453   1.176   0.975   0.752   0.569   0.450   0.377   0.259
   0.187   0.136   0.147   0.169   0.180   0.169   0.147   0.136   0.187   0.259
   0.377   0.450   0.569   0.752   0.975   1.176   1.453   1.847   2.130   2.386
   3.004   3.280
   1.562   1.693   1.585   1.336   1.456   1.302   1.053   1.167   1.143   0.874
   0.630   0.535   0.463   0.273   0.211   0.200   0.196   0.172   0.154   0.172
   0.196   0.200   0.211   0.273   0.463   0.535   0.630   0.874   1.143   1.167
   1.053   1.302   1.456   1.336   1.585   1.693   1.562   1.693   1.585   1.336
   1.456   1.302   1.053   1.167   1.143   0.874   0.630   0.535   0.463   0.273
   0.211   0.200   0.196   0.172   0.154   0.172   0.196   0.200   0.211   0.273
   0.463   0.535   0.630   0.874   1.143   1.167   1.053   1.302   1.456   1.336
   1.585   1.693
   0.611   0.654   0.730   0.822   1.011   0.956   1.029   1.403   1.487   1.291
   1.095   0.948   0.637   0.390   0.289   0.285   0.277   0.220   0.194   0.220
   0.277   0.285   0.289   0.390   0.637   0.948   1.095   1.291   1.487   1.403
   1.029   0.956   1.011   0.822   0.730   0.654   0.611   0.654   0.730   0.822
   1.011   0.956   1.029   1.403   1.487   1.291   1.095   0.948   0.637   0.390
   0.289   0.285   0.277   0.220   0.194   0.220   0.277   0.285   0.289   0.390
   0.637   0.948   1.095   1.291   1.487   1.403   1.029   0.956   1.011   0.822
   0.730   0.654
   0.319   0.246   0.320   0.449   0.428   0.501   0.888   1.407   1.775   2.084
   2.095   1.824   1.274   0.791   0.509   0.374   0.335   0.356   0.378   0.356
   0.335   0.374   0.509   0.791   1.274   1.824   2.095   2.084   1.775   1.407
   0.888   0.501   0.428   0.449   0.320   0.246   0.319   0.246   0.320   0.449
   0.428   0.501   0.888   1.407   1.775   2.084   2.095   1.824   1.274   0.791
   0.509   0.374   0.335   0.356   0.378   0.356   0.335   0.374   0.509   0.791
   1.274   1.824   2.095   2.084   1.775   1.407   0.888   0.501   0.428   0.449
   0.320   0.246
   0.184   0.127   0.117   0.169   0.211   0.250   0.513   0.955   1.666   2.527
   2.787   2.672   2.244   1.525   0.863   0.507   0.418   0.418   0.445   0.418
   0.418   0.507   0.863   1.525   2.244   2.672   2.787   2.527   1.666   0.955
   0.513   0.250   0.211   0.169   0.117   0.127   0.184   0.127   0.117   0.169
   0.211   0.250   0.513   0.955   1.666   2.527   2.787   2.672   2.244   1.525
   0.863   0.507   0.418   0.418   0.445   0.418   0.418   0.507   0.863   1.525
   2.244   2.672   2.787   2.527   1.666   0.955   0.513   0.250   0.211   0.169
   0.117   0.127
   0.189   0.092   0.068   0.089   0.107   0.159   0.275   0.592   1.229   1.893
   2.253   2.357   2.206   1.991   1.553   1.083   0.854   0.777   0.720   0.777
   0.854   1.083   1.553   1.991   2.206   2.357   2.253   1.893   1.229   0.592
   0.275   0.159   0.107   0.089   0.068   0.092   0.189   0.092   0.068   0.089
   0.107   0.159   0.275   0.592   1.229   1.893   2.253   2.357   2.206   1.991
   1.553   1.083   0.854   0.777   0.720   0.777   0.854   1.083   1.553   1.991
   2.206   2.357   2.253   1.893   1.229   0.592   0.275   0.159   0.107   0.089
   0.068   0.092
   0.132   0.178   0.187   0.105   0.136   0.206   0.236   0.498   0.858   1.232
   1.341   1.253   1.193   1.435   2.006   1.971   1.566   1.391   1.228   1.391
   1.566   1.971   2.006   1.435   1.193   1.253   1.341   1.232   0.858   0.498
   0.236   0.206   0.136   0.105   0.187   0.178   0.132   0.178   0.187   0.105
   0.136   0.206   0.236   0.498   0.858   1.232   1.341   1.253   1.193   1.435
   2.006   1.971   1.566   1.391   1.228   1.391   1.566   1.971   2.006   1.435
   1.193   1.253   1.341   1.232   0.858   0.498   0.236   0.206   0.136   0.105
   0.187   0.178
   0.149   0.217   0.244   0.176   0.164   0.204   0.242   0.405   0.629   0.817
   0.696   0.642   0.615   0.712   1.443   1.935   2.105   1.967   1.706   1.967
   2.105   1.935   1.443   0.712   0.615   0.642   0.696   0.817   0.629   0.405
   0.242   0.204   0.164   0.176   0.244   0.217   0.149   0.217   0.244   0.176
   0.164   0.204   0.242   0.405   0.629   0.817   0.696   0.642   0.615   0.712
   1.443   1.935   2.105   1.967   1.706   1.967   2.105   1.935   1.443   0.712
   0.615   0.642   0.696   0.817   0.629   0.405   0.242   0.204   0.164   0.176
   0.244   0.217
   0.311   0.340   0.263   0.215   0.235   0.178   0.281   0.432   0.477   0.436
   0.443   0.464   0.464   0.495   0.650   1.208   1.974   2.114   1.982   2.114
   1.974   1.208   0.650   0.495   0.464   0.464   0.443   0.436   0.477   0.432
   0.281   0.178   0.235   0.215   0.263   0.340   0.311   0.340   0.263   0.215
   0.235   0.178   0.281   0.432   0.477   0.436   0.443   0.464   0.464   0.495
   0.650   1.208   1.974   2.114   1.982   2.114   1.974   1.208   0.650   0.495
   0.464   0.464   0.443   0.436   0.477   0.432   0.281   0.178   0.235   0.215
   0.263   0.340
  4  1     -9.9481703E-02
  4  2      1.6402916E-01
  4  3     -7.8986630E-01
  6  1      1.0367873E+00
  6  2     -4.5741104E+00
  6  3      1.7650482E+00
  6  4     -2.8437457E-01
  8  1     -9.4754211E-01
  8  2     -1.3860228E-01
  8  3      1.4379486E+00
  8  4      8.0611955E-01
  8  5      8.9315111E-01
 10  1     -1.8879837E+00
 10  2      1.8297372E+00
 10  3      1.7666321E+00
 10  4      8.2847606E-01
 10  5      5.4949775E-01
 10  6     -2.5245033E-01
 12  1      1.0234157E+00  1.2906906E+00
 12  2     -5.1013177E-01 -1.8069363E+00
 12  3      1.6092308E-01  2.6745110E+00
 12  4     -1.0188274E+00 -1.7895766E+00
 12  5     -4.9754594E-01 -1.5374090E-02
 12  6     -9.4660904E-01  1.8336279E-02
 12  7      8.3704922E-02 -1.8530284E-01
 14  1     -4.3548778E-01
 14  2      2.9162594E-01
 14  3      1.2265915E-02
 14  4     -9.9519763E-01
 14  5     -6.5206344E-01
 14  6      4.1703287E-01
 14  7      1.7483803E-01
 14  8     -4.1167444E-01
 16  1     -2.8968313E-01 -1.1614960E+00
 16  2     -1.9190742E-01  1.6996317E+00
 16  3      7.0287850E-01 -1.1885423E+00
 16  4     -1.2022070E-01 -1.0631842E+00
 16  5     -6.9179267E-01  2.3094096E-01
 16  6      4.9468657E-01  9.4588977E-02
 16  7      9.3832785E-01  1.8889316E-01
 16  8      3.9183386E-01 -7.3270610E-02
 16  9      3.0905034E-01  2.3664716E-01
 220       5.00   72    0 5.00   18    0
   1.186   1.187   1.190   1.195   1.201   1.209   1.218   1.228   1.238   1.249
   1.261   1.271   1.282   1.291   1.299   1.306   1.311   1.314   1.315   1.314
   1.311   1.306   1.299   1.291   1.282   1.271   1.261   1.249   1.238   1.228
   1.218   1.209   1.201   1.195   1.190   1.187   1.186   1.187   1.190   1.195
   1.201   1.209   1.218   1.228   1.238   1.249   1.261   1.271   1.282   1.291
   1.299   1.306   1.311   1.314   1.315   1.314   1.311   1.306   1.299   1.291
   1.282   1.271   1.261   1.249   1.238   1.228   1.218   1.209   1.201   1.195
   1.190   1.187
   0.823   0.829   0.845   0.874   0.913   0.964   1.025   1.097   1.178   1.266
   1.360   1.455   1.549   1.637   1.716   1.783   1.833   1.864   1.874   1.864
   1.833   1.783   1.716   1.637   1.549   1.455   1.360   1.266   1.178   1.097
   1.025   0.964   0.913   0.874   0.845   0.829   0.823   0.829   0.845   0.874
   0.913   0.964   1.025   1.097   1.178   1.266   1.360   1.455   1.549   1.637
   1.716   1.783   1.833   1.864   1.874   1.864   1.833   1.783   1.716   1.637
   1.549   1.455   1.360   1.266   1.178   1.097   1.025   0.964   0.913   0.874
   0.845   0.829
   0.319   0.325   0.341   0.371   0.418   0.486   0.578   0.699   0.853   1.038
   1.254   1.493   1.746   1.999   2.236   2.443   2.603   2.704   2.739   2.704
   2.603   2.443   2.236   1.999   1.746   1.493   1.254   1.038   0.853   0.699
   0.578   0.486   0.418   0.371   0.341   0.325   0.319   0.325   0.341   0.371
   0.418   0.486   0.578   0.699   0.853   1.038   1.254   1.493   1.746   1.999
   2.236   2.443   2.603   2.704   2.739   2.704   2.603   2.443   2.236   1.999
   1.746   1.493   1.254   1.038   0.853   0.699   0.578   0.486   0.418   0.371
   0.341   0.325
  -0.032  -0.033  -0.035  -0.037  -0.032  -0.014   0.033   0.122   0.271   0.493
   0.793   1.169   1.603   2.069   2.529   2.943   3.272   3.484   3.557   3.484
   3.272   2.943   2.529   2.069   1.603   1.169   0.793   0.493   0.271   0.122
   0.033  -0.014  -0.032  -0.037  -0.035  -0.033  -0.032  -0.033  -0.035  -0.037
  -0.032  -0.014   0.033   0.122   0.271   0.493   0.793   1.169   1.603   2.069
   2.529   2.943   3.272   3.484   3.557   3.484   3.272   2.943   2.529   2.069
   1.603   1.169   0.793   0.493   0.271   0.122   0.033  -0.014  -0.032  -0.037
  -0.035  -0.033
  -0.103  -0.102  -0.104  -0.115  -0.142  -0.185  -0.229  -0.246  -0.199  -0.048
   0.238   0.665   1.219   1.855   2.512   3.120   3.611   3.930   4.040   3.930
   3.611   3.120   2.512   1.855   1.219   0.665   0.238  -0.048  -0.199  -0.246
  -0.229  -0.185  -0.142  -0.115  -0.104  -0.102  -0.103  -0.102  -0.104  -0.115
  -0.142  -0.185  -0.229  -0.246  -0.199  -0.048   0.238   0.665   1.219   1.855
   2.512   3.120   3.611   3.930   4.040   3.930   3.611   3.120   2.512   1.855
   1.219   0.665   0.238  -0.048  -0.199  -0.246  -0.229  -0.185  -0.142  -0.115
  -0.104  -0.102
  -0.041  -0.021   0.028   0.079   0.100   0.064  -0.029  -0.150  -0.239  -0.223
  -0.038   0.344   0.908   1.597   2.326   3.005   3.551   3.903   4.024   3.903
   3.551   3.005   2.326   1.597   0.908   0.344  -0.038  -0.223  -0.239  -0.150
  -0.029   0.064   0.100   0.079   0.028  -0.021  -0.041  -0.021   0.028   0.079
   0.100   0.064  -0.029  -0.150  -0.239  -0.223  -0.038   0.344   0.908   1.597
   2.326   3.005   3.551   3.903   4.024   3.903   3.551   3.005   2.326   1.597
   0.908   0.344  -0.038  -0.223  -0.239  -0.150  -0.029   0.064   0.100   0.079
   0.028  -0.021
  -0.051  -0.013   0.089   0.224   0.342   0.390   0.336   0.195   0.034  -0.049
   0.039   0.342   0.840   1.461   2.105   2.681   3.123   3.397   3.489   3.397
   3.123   2.681   2.105   1.461   0.840   0.342   0.039  -0.049   0.034   0.195
   0.336   0.390   0.342   0.224   0.089  -0.013  -0.051  -0.013   0.089   0.224
   0.342   0.390   0.336   0.195   0.034  -0.049   0.039   0.342   0.840   1.461
   2.105   2.681   3.123   3.397   3.489   3.397   3.123   2.681   2.105   1.461
   0.840   0.342   0.039  -0.049   0.034   0.195   0.336   0.390   0.342   0.224
   0.089  -0.013
  -0.027  -0.014   0.038   0.143   0.287   0.413   0.456   0.388   0.258   0.172
   0.233   0.489   0.905   1.389   1.843   2.198   2.434   2.562   2.602   2.562
   2.434   2.198   1.843   1.389   0.905   0.489   0.233   0.172   0.258   0.388
   0.456   0.413   0.287   0.143   0.038  -0.014  -0.027  -0.014   0.038   0.143
   0.287   0.413   0.456   0.388   0.258   0.172   0.233   0.489   0.905   1.389
   1.843   2.198   2.434   2.562   2.602   2.562   2.434   2.198   1.843   1.389
   0.905   0.489   0.233   0.172   0.258   0.388   0.456   0.413   0.287   0.143
   0.038  -0.014
   0.470   0.396   0.233   0.110   0.114   0.221   0.327   0.346   0.287   0.246
   0.327   0.562   0.894   1.224   1.470   1.610   1.666   1.679   1.679   1.679
   1.666   1.610   1.470   1.224   0.894   0.562   0.327   0.246   0.287   0.346
   0.327   0.221   0.114   0.110   0.233   0.396   0.470   0.396   0.233   0.110
   0.114   0.221   0.327   0.346   0.287   0.246   0.327   0.562   0.894   1.224
   1.470   1.610   1.666   1.679   1.679   1.679   1.666   1.610   1.470   1.224
   0.894   0.562   0.327   0.246   0.287   0.346   0.327   0.221   0.114   0.110
   0.233   0.396
   1.725   1.527   1.056   0.582   0.319   0.285   0.340   0.345   0.279   0.233
   0.301   0.493   0.729   0.912   1.002   1.021   1.018   1.017   1.018   1.017
   1.018   1.021   1.002   0.912   0.729   0.493   0.301   0.233   0.279   0.345
   0.340   0.285   0.319   0.582   1.056   1.527   1.725   1.527   1.056   0.582
   0.319   0.285   0.340   0.345   0.279   0.233   0.301   0.493   0.729   0.912
   1.002   1.021   1.018   1.017   1.018   1.017   1.018   1.021   1.002   0.912
   0.729   0.493   0.301   0.233   0.279   0.345   0.340   0.285   0.319   0.582
   1.056   1.527
   3.328   3.039   2.339   1.593   1.089   0.860   0.747   0.599   0.404   0.262
   0.256   0.366   0.495   0.564   0.571   0.572   0.606   0.662   0.689   0.662
   0.606   0.572   0.571   0.564   0.495   0.366   0.256   0.262   0.404   0.599
   0.747   0.860   1.089   1.593   2.339   3.039   3.328   3.039   2.339   1.593
   1.089   0.860   0.747   0.599   0.404   0.262   0.256   0.366   0.495   0.564
   0.571   0.572   0.606   0.662   0.689   0.662   0.606   0.572   0.571   0.564
   0.495   0.366   0.256   0.262   0.404   0.599   0.747   0.860   1.089   1.593
   2.339   3.039
   4.300   4.012   3.312   2.551   1.990   1.639   1.352   1.021   0.674   0.416
   0.305   0.308   0.340   0.347   0.340   0.359   0.422   0.499   0.534   0.499
   0.422   0.359   0.340   0.347   0.340   0.308   0.305   0.416   0.674   1.021
   1.352   1.639   1.990   2.551   3.312   4.012   4.300   4.012   3.312   2.551
   1.990   1.639   1.352   1.021   0.674   0.416   0.305   0.308   0.340   0.347
   0.340   0.359   0.422   0.499   0.534   0.499   0.422   0.359   0.340   0.347
   0.340   0.308   0.305   0.416   0.674   1.021   1.352   1.639   1.990   2.551
   3.312   4.012
   3.904   3.711   3.248   2.752   2.367   2.067   1.756   1.400   1.047   0.758
   0.554   0.427   0.366   0.357   0.375   0.393   0.399   0.397   0.395   0.397
   0.399   0.393   0.375   0.357   0.366   0.427   0.554   0.758   1.047   1.400
   1.756   2.067   2.367   2.752   3.248   3.711   3.904   3.711   3.248   2.752
   2.367   2.067   1.756   1.400   1.047   0.758   0.554   0.427   0.366   0.357
   0.375   0.393   0.399   0.397   0.395   0.397   0.399   0.393   0.375   0.357
   0.366   0.427   0.554   0.758   1.047   1.400   1.756   2.067   2.367   2.752
   3.248   3.711
   2.347   2.289   2.165   2.056   1.979   1.889   1.764   1.626   1.480   1.281
   1.009   0.734   0.573   0.560   0.609   0.603   0.507   0.385   0.331   0.385
   0.507   0.603   0.609   0.560   0.573   0.734   1.009   1.281   1.480   1.626
   1.764   1.889   1.979   2.056   2.165   2.289   2.347   2.289   2.165   2.056
   1.979   1.889   1.764   1.626   1.480   1.281   1.009   0.734   0.573   0.560
   0.609   0.603   0.507   0.385   0.331   0.385   0.507   0.603   0.609   0.560
   0.573   0.734   1.009   1.281   1.480   1.626   1.764   1.889   1.979   2.056
   2.165   2.289
   0.644   0.689   0.821   1.005   1.176   1.305   1.443   1.635   1.793   1.750
   1.453   1.071   0.839   0.824   0.890   0.877   0.758   0.620   0.562   0.620
   0.758   0.877   0.890   0.824   0.839   1.071   1.453   1.750   1.793   1.635
   1.443   1.305   1.176   1.005   0.821   0.689   0.644   0.689   0.821   1.005
   1.176   1.305   1.443   1.635   1.793   1.750   1.453   1.071   0.839   0.824
   0.890   0.877   0.758   0.620   0.562   0.620   0.758   0.877   0.890   0.824
   0.839   1.071   1.453   1.750   1.793   1.635   1.443   1.305   1.176   1.005
   0.821   0.689
  -0.255  -0.178   0.025   0.275   0.488   0.676   0.945   1.343   1.710   1.799
   1.555   1.201   1.004   1.011   1.081   1.112   1.129   1.171   1.197   1.171
   1.129   1.112   1.081   1.011   1.004   1.201   1.555   1.799   1.710   1.343
   0.945   0.676   0.488   0.275   0.025  -0.178  -0.255  -0.178   0.025   0.275
   0.488   0.676   0.945   1.343   1.710   1.799   1.555   1.201   1.004   1.011
   1.081   1.112   1.129   1.171   1.197   1.171   1.129   1.112   1.081   1.011
   1.004   1.201   1.555   1.799   1.710   1.343   0.945   0.676   0.488   0.275
   0.025  -0.178
  -0.214  -0.163  -0.036   0.095   0.168   0.229   0.424   0.808   1.208   1.368
   1.245   1.058   1.006   1.071   1.143   1.254   1.516   1.862   2.028   1.862
   1.516   1.254   1.143   1.071   1.006   1.058   1.245   1.368   1.208   0.808
   0.424   0.229   0.168   0.095  -0.036  -0.163  -0.214  -0.163  -0.036   0.095
   0.168   0.229   0.424   0.808   1.208   1.368   1.245   1.058   1.006   1.071
   1.143   1.254   1.516   1.862   2.028   1.862   1.516   1.254   1.143   1.071
   1.006   1.058   1.245   1.368   1.208   0.808   0.424   0.229   0.168   0.095
  -0.036  -0.163
   0.136   0.153   0.187   0.184   0.104   0.014   0.077   0.363   0.712   0.893
   0.878   0.853   0.942   1.062   1.137   1.312   1.764   2.346   2.620   2.346
   1.764   1.312   1.137   1.062   0.942   0.853   0.878   0.893   0.712   0.363
   0.077   0.014   0.104   0.184   0.187   0.153   0.136   0.153   0.187   0.184
   0.104   0.014   0.077   0.363   0.712   0.893   0.878   0.853   0.942   1.062
   1.137   1.312   1.764   2.346   2.620   2.346   1.764   1.312   1.137   1.062
   0.942   0.853   0.878   0.893   0.712   0.363   0.077   0.014   0.104   0.184
   0.187   0.153
 200       5.00   72    0 5.00   18    0
   1.238   1.238   1.239   1.241   1.242   1.245   1.247   1.250   1.254   1.257
   1.260   1.263   1.267   1.269   1.272   1.274   1.275   1.276   1.276   1.276
   1.275   1.274   1.272   1.269   1.267   1.263   1.260   1.257   1.254   1.250
   1.247   1.245   1.242   1.241   1.239   1.238   1.238   1.238   1.239   1.241
   1.242   1.245   1.247   1.250   1.254   1.257   1.260   1.263   1.267   1.269
   1.272   1.274   1.275   1.276   1.276   1.276   1.275   1.274   1.272   1.269
   1.267   1.263   1.260   1.257   1.254   1.250   1.247   1.245   1.242   1.241
   1.239   1.238
   0.853   0.854   0.859   0.867   0.879   0.894   0.912   0.933   0.957   0.983
   1.012   1.042   1.071   1.099   1.125   1.147   1.163   1.174   1.177   1.174
   1.163   1.147   1.125   1.099   1.071   1.042   1.012   0.983   0.957   0.933
   0.912   0.894   0.879   0.867   0.859   0.854   0.853   0.854   0.859   0.867
   0.879   0.894   0.912   0.933   0.957   0.983   1.012   1.042   1.071   1.099
   1.125   1.147   1.163   1.174   1.177   1.174   1.163   1.147   1.125   1.099
   1.071   1.042   1.012   0.983   0.957   0.933   0.912   0.894   0.879   0.867
   0.859   0.854
   0.311   0.313   0.318   0.327   0.339   0.354   0.374   0.401   0.435   0.479
   0.535   0.601   0.676   0.755   0.833   0.903   0.959   0.995   1.008   0.995
   0.959   0.903   0.833   0.755   0.676   0.601   0.535   0.479   0.435   0.401
   0.374   0.354   0.339   0.327   0.318   0.313   0.311   0.313   0.318   0.327
   0.339   0.354   0.374   0.401   0.435   0.479   0.535   0.601   0.676   0.755
   0.833   0.903   0.959   0.995   1.008   0.995   0.959   0.903   0.833   0.755
   0.676   0.601   0.535   0.479   0.435   0.401   0.374   0.354   0.339   0.327
   0.318   0.313
   0.219   0.221   0.226   0.228   0.222   0.204   0.174   0.137   0.105   0.089
   0.103   0.153   0.239   0.355   0.487   0.617   0.727   0.800   0.825   0.800
   0.727   0.617   0.487   0.355   0.239   0.153   0.103   0.089   0.105   0.137
   0.174   0.204   0.222   0.228   0.226   0.221   0.219   0.221   0.226   0.228
   0.222   0.204   0.174   0.137   0.105   0.089   0.103   0.153   0.239   0.355
   0.487   0.617   0.727   0.800   0.825   0.800   0.727   0.617   0.487   0.355
   0.239   0.153   0.103   0.089   0.105   0.137   0.174   0.204   0.222   0.228
   0.226   0.221
   1.097   1.106   1.126   1.137   1.114   1.037   0.898   0.706   0.488   0.282
   0.127   0.047   0.052   0.132   0.263   0.411   0.545   0.637   0.670   0.637
   0.545   0.411   0.263   0.132   0.052   0.047   0.127   0.282   0.488   0.706
   0.898   1.037   1.114   1.137   1.126   1.106   1.097   1.106   1.126   1.137
   1.114   1.037   0.898   0.706   0.488   0.282   0.127   0.047   0.052   0.132
   0.263   0.411   0.545   0.637   0.670   0.637   0.545   0.411   0.263   0.132
   0.052   0.047   0.127   0.282   0.488   0.706   0.898   1.037   1.114   1.137
   1.126   1.106
   2.521   2.546   2.604   2.658   2.655   2.544   2.299   1.928   1.479   1.024
   0.636   0.366   0.228   0.207   0.264   0.356   0.446   0.510   0.532   0.510
   0.446   0.356   0.264   0.207   0.228   0.366   0.636   1.024   1.479   1.928
   2.299   2.544   2.655   2.658   2.604   2.546   2.521   2.546   2.604   2.658
   2.655   2.544   2.299   1.928   1.479   1.024   0.636   0.366   0.228   0.207
   0.264   0.356   0.446   0.510   0.532   0.510   0.446   0.356   0.264   0.207
   0.228   0.366   0.636   1.024   1.479   1.928   2.299   2.544   2.655   2.658
   2.604   2.546
   3.215   3.251   3.346   3.462   3.530   3.472   3.227   2.790   2.222   1.628
   1.113   0.743   0.526   0.428   0.399   0.401   0.409   0.416   0.418   0.416
   0.409   0.401   0.399   0.428   0.526   0.743   1.113   1.628   2.222   2.790
   3.227   3.472   3.530   3.462   3.346   3.251   3.215   3.251   3.346   3.462
   3.530   3.472   3.227   2.790   2.222   1.628   1.113   0.743   0.526   0.428
   0.399   0.401   0.409   0.416   0.418   0.416   0.409   0.401   0.399   0.428
   0.526   0.743   1.113   1.628   2.222   2.790   3.227   3.472   3.530   3.462
   3.346   3.251
   2.414   2.440   2.526   2.677   2.847   2.935   2.836   2.510   2.020   1.500
   1.073   0.793   0.637   0.550   0.492   0.453   0.433   0.429   0.430   0.429
   0.433   0.453   0.492   0.550   0.637   0.793   1.073   1.500   2.020   2.510
   2.836   2.935   2.847   2.677   2.526   2.440   2.414   2.440   2.526   2.677
   2.847   2.935   2.836   2.510   2.020   1.500   1.073   0.793   0.637   0.550
   0.492   0.453   0.433   0.429   0.430   0.429   0.433   0.453   0.492   0.550
   0.637   0.793   1.073   1.500   2.020   2.510   2.836   2.935   2.847   2.677
   2.526   2.440
   0.859   0.847   0.860   0.986   1.232   1.480   1.568   1.424   1.130   0.846
   0.687   0.645   0.633   0.585   0.517   0.491   0.542   0.628   0.670   0.628
   0.542   0.491   0.517   0.585   0.633   0.645   0.687   0.846   1.130   1.424
   1.568   1.480   1.232   0.986   0.860   0.847   0.859   0.847   0.860   0.986
   1.232   1.480   1.568   1.424   1.130   0.846   0.687   0.645   0.633   0.585
   0.517   0.491   0.542   0.628   0.670   0.628   0.542   0.491   0.517   0.585
   0.633   0.645   0.687   0.846   1.130   1.424   1.568   1.480   1.232   0.986
   0.860   0.847
  -0.049  -0.107  -0.192  -0.135   0.112   0.404   0.542   0.476   0.354   0.372
   0.582   0.837   0.940   0.832   0.645   0.578   0.708   0.922   1.025   0.922
   0.708   0.578   0.645   0.832   0.940   0.837   0.582   0.372   0.354   0.476
   0.542   0.404   0.112  -0.135  -0.192  -0.107  -0.049  -0.107  -0.192  -0.135
   0.112   0.404   0.542   0.476   0.354   0.372   0.582   0.837   0.940   0.832
   0.645   0.578   0.708   0.922   1.025   0.922   0.708   0.578   0.645   0.832
   0.940   0.837   0.582   0.372   0.354   0.476   0.542   0.404   0.112  -0.135
  -0.192  -0.107
   0.106   0.026  -0.105  -0.098   0.081   0.251   0.239   0.102   0.110   0.470
   1.094   1.634   1.766   1.464   1.007   0.744   0.810   1.047   1.171   1.047
   0.810   0.744   1.007   1.464   1.766   1.634   1.094   0.470   0.110   0.102
   0.239   0.251   0.081  -0.098  -0.105   0.026   0.106   0.026  -0.105  -0.098
   0.081   0.251   0.239   0.102   0.110   0.470   1.094   1.634   1.766   1.464
   1.007   0.744   0.810   1.047   1.171   1.047   0.810   0.744   1.007   1.464
   1.766   1.634   1.094   0.470   0.110   0.102   0.239   0.251   0.081  -0.098
  -0.105   0.026
   0.465   0.408   0.330   0.372   0.492   0.492   0.286   0.097   0.288   0.999
   1.947   2.624   2.675   2.155   1.438   0.925   0.773   0.853   0.919   0.853
   0.773   0.925   1.438   2.155   2.675   2.624   1.947   0.999   0.288   0.097
   0.286   0.492   0.492   0.372   0.330   0.408   0.465   0.408   0.330   0.372
   0.492   0.492   0.286   0.097   0.288   0.999   1.947   2.624   2.675   2.155
   1.438   0.925   0.773   0.853   0.919   0.853   0.773   0.925   1.438   2.155
   2.675   2.624   1.947   0.999   0.288   0.097   0.286   0.492   0.492   0.372
   0.330   0.408
   0.245   0.237   0.281   0.442   0.607   0.581   0.387   0.355   0.818   1.730
   2.650   3.098   2.912   2.291   1.576   1.015   0.684   0.536   0.498   0.536
   0.684   1.015   1.576   2.291   2.912   3.098   2.650   1.730   0.818   0.355
   0.387   0.581   0.607   0.442   0.281   0.237   0.245   0.237   0.281   0.442
   0.607   0.581   0.387   0.355   0.818   1.730   2.650   3.098   2.912   2.291
   1.576   1.015   0.684   0.536   0.498   0.536   0.684   1.015   1.576   2.291
   2.912   3.098   2.650   1.730   0.818   0.355   0.387   0.581   0.607   0.442
   0.281   0.237
  -0.224  -0.205  -0.085   0.192   0.496   0.652   0.734   1.046   1.737   2.525
   2.929   2.739   2.181   1.627   1.249   0.973   0.697   0.448   0.343   0.448
   0.697   0.973   1.249   1.627   2.181   2.739   2.929   2.525   1.737   1.046
   0.734   0.652   0.496   0.192  -0.085  -0.205  -0.224  -0.205  -0.085   0.192
   0.496   0.652   0.734   1.046   1.737   2.525   2.929   2.739   2.181   1.627
   1.249   0.973   0.697   0.448   0.343   0.448   0.697   0.973   1.249   1.627
   2.181   2.739   2.929   2.525   1.737   1.046   0.734   0.652   0.496   0.192
  -0.085  -0.205
  -0.070  -0.099  -0.067   0.181   0.581   0.961   1.347   1.919   2.618   3.011
   2.706   1.844   1.004   0.637   0.698   0.838   0.816   0.678   0.601   0.678
   0.816   0.838   0.698   0.637   1.004   1.844   2.706   3.011   2.618   1.919
   1.347   0.961   0.581   0.181  -0.067  -0.099  -0.070  -0.099  -0.067   0.181
   0.581   0.961   1.347   1.919   2.618   3.011   2.706   1.844   1.004   0.637
   0.698   0.838   0.816   0.678   0.601   0.678   0.816   0.838   0.698   0.637
   1.004   1.844   2.706   3.011   2.618   1.919   1.347   0.961   0.581   0.181
  -0.067  -0.099
   0.944   0.788   0.536   0.539   0.844   1.245   1.657   2.153   2.611   2.630
   1.968   0.951   0.212   0.078   0.356   0.679   0.873   0.962   0.989   0.962
   0.873   0.679   0.356   0.078   0.212   0.951   1.968   2.630   2.611   2.153
   1.657   1.245   0.844   0.539   0.536   0.788   0.944   0.788   0.536   0.539
   0.844   1.245   1.657   2.153   2.611   2.630   1.968   0.951   0.212   0.078
   0.356   0.679   0.873   0.962   0.989   0.962   0.873   0.679   0.356   0.078
   0.212   0.951   1.968   2.630   2.611   2.153   1.657   1.245   0.844   0.539
   0.536   0.788
   2.222   1.908   1.286   0.917   0.952   1.129   1.251   1.374   1.493   1.383
   0.925   0.383   0.131   0.215   0.396   0.548   0.761   1.041   1.182   1.041
   0.761   0.548   0.396   0.215   0.131   0.383   0.925   1.383   1.493   1.374
   1.251   1.129   0.952   0.917   1.286   1.908   2.222   1.908   1.286   0.917
   0.952   1.129   1.251   1.374   1.493   1.383   0.925   0.383   0.131   0.215
   0.396   0.548   0.761   1.041   1.182   1.041   0.761   0.548   0.396   0.215
   0.131   0.383   0.925   1.383   1.493   1.374   1.251   1.129   0.952   0.917
   1.286   1.908
   3.039   2.615   1.733   1.084   0.881   0.815   0.630   0.411   0.296   0.223
   0.132   0.150   0.363   0.582   0.577   0.474   0.604   0.975   1.184   0.975
   0.604   0.474   0.577   0.582   0.363   0.150   0.132   0.223   0.296   0.411
   0.630   0.815   0.881   1.084   1.733   2.615   3.039   2.615   1.733   1.084
   0.881   0.815   0.630   0.411   0.296   0.223   0.132   0.150   0.363   0.582
   0.577   0.474   0.604   0.975   1.184   0.975   0.604   0.474   0.577   0.582
   0.363   0.150   0.132   0.223   0.296   0.411   0.630   0.815   0.881   1.084
   1.733   2.615
 111       5.00   72    0 5.00   18    0
   0.193   0.194   0.196   0.200   0.205   0.211   0.218   0.227   0.235   0.245
   0.254   0.263   0.272   0.280   0.287   0.293   0.297   0.300   0.301   0.300
   0.297   0.293   0.287   0.280   0.272   0.263   0.254   0.245   0.235   0.227
   0.218   0.211   0.205   0.200   0.196   0.194   0.193   0.194   0.196   0.200
   0.205   0.211   0.218   0.227   0.235   0.245   0.254   0.263   0.272   0.280
   0.287   0.293   0.297   0.300   0.301   0.300   0.297   0.293   0.287   0.280
   0.272   0.263   0.254   0.245   0.235   0.227   0.218   0.211   0.205   0.200
   0.196   0.194
  -0.155  -0.156  -0.161  -0.167  -0.171  -0.172  -0.167  -0.152  -0.128  -0.093
  -0.048   0.005   0.063   0.121   0.177   0.225   0.262   0.286   0.294   0.286
   0.262   0.225   0.177   0.121   0.063   0.005  -0.048  -0.093  -0.128  -0.152
  -0.167  -0.172  -0.171  -0.167  -0.161  -0.156  -0.155  -0.156  -0.161  -0.167
  -0.171  -0.172  -0.167  -0.152  -0.128  -0.093  -0.048   0.005   0.063   0.121
   0.177   0.225   0.262   0.286   0.294   0.286   0.262   0.225   0.177   0.121
   0.063   0.005  -0.048  -0.093  -0.128  -0.152  -0.167  -0.172  -0.171  -0.167
  -0.161  -0.156
   0.910   0.875   0.773   0.618   0.428   0.225   0.032  -0.130  -0.248  -0.312
  -0.323  -0.285  -0.209  -0.109  -0.001   0.101   0.184   0.238   0.256   0.238
   0.184   0.101  -0.001  -0.109  -0.209  -0.285  -0.323  -0.312  -0.248  -0.130
   0.032   0.225   0.428   0.618   0.773   0.875   0.910   0.875   0.773   0.618
   0.428   0.225   0.032  -0.130  -0.248  -0.312  -0.323  -0.285  -0.209  -0.109
  -0.001   0.101   0.184   0.238   0.256   0.238   0.184   0.101  -0.001  -0.109
  -0.209  -0.285  -0.323  -0.312  -0.248  -0.130   0.032   0.225   0.428   0.618
   0.773   0.875
   3.776   3.670   3.367   2.902   2.331   1.718   1.126   0.606   0.196  -0.088
  -0.249  -0.303  -0.277  -0.201  -0.103  -0.007   0.072   0.123   0.140   0.123
   0.072  -0.007  -0.103  -0.201  -0.277  -0.303  -0.249  -0.088   0.196   0.606
   1.126   1.718   2.331   2.902   3.367   3.670   3.776   3.670   3.367   2.902
   2.331   1.718   1.126   0.606   0.196  -0.088  -0.249  -0.303  -0.277  -0.201
  -0.103  -0.007   0.072   0.123   0.140   0.123   0.072  -0.007  -0.103  -0.201
  -0.277  -0.303  -0.249  -0.088   0.196   0.606   1.126   1.718   2.331   2.902
   3.367   3.670
   6.153   5.987   5.512   4.790   3.914   2.988   2.111   1.359   0.780   0.382
   0.146   0.033  -0.004  -0.007  -0.004  -0.008  -0.020  -0.033  -0.038  -0.033
  -0.020  -0.008  -0.004  -0.007  -0.004   0.033   0.146   0.382   0.780   1.359
   2.111   2.988   3.914   4.790   5.512   5.987   6.153   5.987   5.512   4.790
   3.914   2.988   2.111   1.359   0.780   0.382   0.146   0.033  -0.004  -0.007
  -0.004  -0.008  -0.020  -0.033  -0.038  -0.033  -0.020  -0.008  -0.004  -0.007
  -0.004   0.033   0.146   0.382   0.780   1.359   2.111   2.988   3.914   4.790
   5.512   5.987
   5.796   5.636   5.179   4.491   3.669   2.821   2.047   1.417   0.964   0.678
   0.520   0.436   0.376   0.303   0.206   0.093  -0.015  -0.093  -0.122  -0.093
  -0.015   0.093   0.206   0.303   0.376   0.436   0.520   0.678   0.964   1.417
   2.047   2.821   3.669   4.491   5.179   5.636   5.796   5.636   5.179   4.491
   3.669   2.821   2.047   1.417   0.964   0.678   0.520   0.436   0.376   0.303
   0.206   0.093  -0.015  -0.093  -0.122  -0.093  -0.015   0.093   0.206   0.303
   0.376   0.436   0.520   0.678   0.964   1.417   2.047   2.821   3.669   4.491
   5.179   5.636
   3.309   3.223   2.976   2.606   2.167   1.725   1.339   1.048   0.857   0.742
   0.665   0.591   0.500   0.392   0.279   0.179   0.102   0.055   0.039   0.055
   0.102   0.179   0.279   0.392   0.500   0.591   0.665   0.742   0.857   1.048
   1.339   1.725   2.167   2.606   2.976   3.223   3.309   3.223   2.976   2.606
   2.167   1.725   1.339   1.048   0.857   0.742   0.665   0.591   0.500   0.392
   0.279   0.179   0.102   0.055   0.039   0.055   0.102   0.179   0.279   0.392
   0.500   0.591   0.665   0.742   0.857   1.048   1.339   1.725   2.167   2.606
   2.976   3.223
   1.098   1.097   1.092   1.074   1.045   1.017   1.003   1.004   0.997   0.947
   0.826   0.642   0.435   0.265   0.176   0.177   0.237   0.304   0.332   0.304
   0.237   0.177   0.176   0.265   0.435   0.642   0.826   0.947   0.997   1.004
   1.003   1.017   1.045   1.074   1.092   1.097   1.098   1.097   1.092   1.074
   1.045   1.017   1.003   1.004   0.997   0.947   0.826   0.642   0.435   0.265
   0.176   0.177   0.237   0.304   0.332   0.304   0.237   0.177   0.176   0.265
   0.435   0.642   0.826   0.947   0.997   1.004   1.003   1.017   1.045   1.074
   1.092   1.097
   0.326   0.366   0.472   0.616   0.780   0.961   1.166   1.373   1.527   1.550
   1.395   1.082   0.706   0.387   0.215   0.203   0.296   0.402   0.448   0.402
   0.296   0.203   0.215   0.387   0.706   1.082   1.395   1.550   1.527   1.373
   1.166   0.961   0.780   0.616   0.472   0.366   0.326   0.366   0.472   0.616
   0.780   0.961   1.166   1.373   1.527   1.550   1.395   1.082   0.706   0.387
   0.215   0.203   0.296   0.402   0.448   0.402   0.296   0.203   0.215   0.387
   0.706   1.082   1.395   1.550   1.527   1.373   1.166   0.961   0.780   0.616
   0.472   0.366
   0.230   0.258   0.331   0.433   0.570   0.781   1.105   1.530   1.960   2.246
   2.266   2.001   1.549   1.071   0.694   0.466   0.359   0.322   0.313   0.322
   0.359   0.466   0.694   1.071   1.549   2.001   2.266   2.246   1.960   1.530
   1.105   0.781   0.570   0.433   0.331   0.258   0.230   0.258   0.331   0.433
   0.570   0.781   1.105   1.530   1.960   2.246   2.266   2.001   1.549   1.071
   0.694   0.466   0.359   0.322   0.313   0.322   0.359   0.466   0.694   1.071
   1.549   2.001   2.266   2.246   1.960   1.530   1.105   0.781   0.570   0.433
   0.331   0.258
   0.022   0.020   0.012   0.003   0.037   0.196   0.562   1.144   1.836   2.439
   2.762   2.723   2.391   1.919   1.439   1.013   0.659   0.410   0.318   0.410
   0.659   1.013   1.439   1.919   2.391   2.723   2.762   2.439   1.836   1.144
   0.562   0.196   0.037   0.003   0.012   0.020   0.022   0.020   0.012   0.003
   0.037   0.196   0.562   1.144   1.836   2.439   2.762   2.723   2.391   1.919
   1.439   1.013   0.659   0.410   0.318   0.410   0.659   1.013   1.439   1.919
   2.391   2.723   2.762   2.439   1.836   1.144   0.562   0.196   0.037   0.003
   0.012   0.020
  -0.085  -0.104  -0.155  -0.221  -0.252  -0.167   0.116   0.622   1.280   1.921
   2.363   2.511   2.413   2.189   1.925   1.626   1.292   1.001   0.881   1.001
   1.292   1.626   1.925   2.189   2.413   2.511   2.363   1.921   1.280   0.622
   0.116  -0.167  -0.252  -0.221  -0.155  -0.104  -0.085  -0.104  -0.155  -0.221
  -0.252  -0.167   0.116   0.622   1.280   1.921   2.363   2.511   2.413   2.189
   1.925   1.626   1.292   1.001   0.881   1.001   1.292   1.626   1.925   2.189
   2.413   2.511   2.363   1.921   1.280   0.622   0.116  -0.167  -0.252  -0.221
  -0.155  -0.104
   0.091   0.070   0.020  -0.029  -0.039   0.021   0.174   0.429   0.768   1.120
   1.385   1.515   1.574   1.677   1.850   1.995   2.003   1.906   1.846   1.906
   2.003   1.995   1.850   1.677   1.574   1.515   1.385   1.120   0.768   0.429
   0.174   0.021  -0.039  -0.029   0.020   0.070   0.091   0.070   0.020  -0.029
  -0.039   0.021   0.174   0.429   0.768   1.120   1.385   1.515   1.574   1.677
   1.850   1.995   2.003   1.906   1.846   1.906   2.003   1.995   1.850   1.677
   1.574   1.515   1.385   1.120   0.768   0.429   0.174   0.021  -0.039  -0.029
   0.020   0.070
   0.088   0.066   0.023   0.016   0.087   0.222   0.365   0.474   0.556   0.625
   0.655   0.640   0.679   0.925   1.412   1.962   2.343   2.488   2.510   2.488
   2.343   1.962   1.412   0.925   0.679   0.640   0.655   0.625   0.556   0.474
   0.365   0.222   0.087   0.016   0.023   0.066   0.088   0.066   0.023   0.016
   0.087   0.222   0.365   0.474   0.556   0.625   0.655   0.640   0.679   0.925
   1.412   1.962   2.343   2.488   2.510   2.488   2.343   1.962   1.412   0.925
   0.679   0.640   0.655   0.625   0.556   0.474   0.365   0.222   0.087   0.016
   0.023   0.066
  -0.089  -0.118  -0.176  -0.189  -0.089   0.113   0.323   0.460   0.532   0.577
   0.572   0.478   0.388   0.518   0.977   1.598   2.081   2.296   2.340   2.296
   2.081   1.598   0.977   0.518   0.388   0.478   0.572   0.577   0.532   0.460
   0.323   0.113  -0.089  -0.189  -0.176  -0.118  -0.089  -0.118  -0.176  -0.189
  -0.089   0.113   0.323   0.460   0.532   0.577   0.572   0.478   0.388   0.518
   0.977   1.598   2.081   2.296   2.340   2.296   2.081   1.598   0.977   0.518
   0.388   0.478   0.572   0.577   0.532   0.460   0.323   0.113  -0.089  -0.189
  -0.176  -0.118
   0.608   0.575   0.479   0.364   0.304   0.332   0.398   0.449   0.517   0.650
   0.768   0.725   0.541   0.461   0.682   1.094   1.407   1.496   1.490   1.496
   1.407   1.094   0.682   0.461   0.541   0.725   0.768   0.650   0.517   0.449
   0.398   0.332   0.304   0.364   0.479   0.575   0.608   0.575   0.479   0.364
   0.304   0.332   0.398   0.449   0.517   0.650   0.768   0.725   0.541   0.461
   0.682   1.094   1.407   1.496   1.490   1.496   1.407   1.094   0.682   0.461
   0.541   0.725   0.768   0.650   0.517   0.449   0.398   0.332   0.304   0.364
   0.479   0.575
   2.700   2.668   2.531   2.241   1.840   1.413   1.003   0.653   0.476   0.551
   0.750   0.807   0.629   0.434   0.459   0.642   0.725   0.632   0.555   0.632
   0.725   0.642   0.459   0.434   0.629   0.807   0.750   0.551   0.476   0.653
   1.003   1.413   1.840   2.241   2.531   2.668   2.700   2.668   2.531   2.241
   1.840   1.413   1.003   0.653   0.476   0.551   0.750   0.807   0.629   0.434
   0.459   0.642   0.725   0.632   0.555   0.632   0.725   0.642   0.459   0.434
   0.629   0.807   0.750   0.551   0.476   0.653   1.003   1.413   1.840   2.241
   2.531   2.668
   4.748   4.720   4.555   4.125   3.430   2.584   1.708   0.933   0.448   0.375
   0.568   0.685   0.552   0.346   0.303   0.379   0.334   0.129   0.007   0.129
   0.334   0.379   0.303   0.346   0.552   0.685   0.568   0.375   0.448   0.933
   1.708   2.584   3.430   4.125   4.555   4.720   4.748   4.720   4.555   4.125
   3.430   2.584   1.708   0.933   0.448   0.375   0.568   0.685   0.552   0.346
   0.303   0.379   0.334   0.129   0.007   0.129   0.334   0.379   0.303   0.346
   0.552   0.685   0.568   0.375   0.448   0.933   1.708   2.584   3.430   4.125
   4.555   4.720
TEXTURE_INDEX=   4.9104
ERR_CF 220         1080     458   41.47   22.91
ERR_CF 200         1080     390   52.71   15.67
ERR_CF 111         1080     320  115.90   14.49
