TEXEVAL                                                                         
Analysis started on 13-Nov-20 10:18:04                                          
 LMAX=14LFMAX=03 CUBIC ORTHO   
 220      5.00 5.00
 200      5.00 5.00
 111      5.00 5.00
 220       5.00   72    0 5.00   15    0
   0.776   0.776   0.776   0.776   0.776   0.776   0.776   0.776   0.776   0.776
   0.776   0.776   0.776   0.776   0.776   0.776   0.776   0.776   0.776   0.776
   0.776   0.776   0.776   0.776   0.776   0.776   0.776   0.776   0.776   0.776
   0.776   0.776   0.776   0.776   0.776   0.776   0.776   0.776   0.776   0.776
   0.776   0.776   0.776   0.776   0.776   0.776   0.776   0.776   0.776   0.776
   0.776   0.776   0.776   0.776   0.776   0.776   0.776   0.776   0.776   0.776
   0.776   0.776   0.776   0.776   0.776   0.776   0.776   0.776   0.776   0.776
   0.776   0.776
   0.164   0.237   0.306   0.730   0.326   0.240   0.537   0.418   0.943   1.043
   0.409   0.292   0.206   0.175   0.212   0.221   0.662   0.309   0.305   0.309
   0.662   0.221   0.212   0.175   0.206   0.292   0.409   1.043   0.943   0.418
   0.537   0.240   0.326   0.730   0.306   0.237   0.164   0.237   0.306   0.730
   0.326   0.240   0.537   0.418   0.943   1.043   0.409   0.292   0.206   0.175
   0.212   0.221   0.662   0.309   0.305   0.309   0.662   0.221   0.212   0.175
   0.206   0.292   0.409   1.043   0.943   0.418   0.537   0.240   0.326   0.730
   0.306   0.237
   0.189   0.324   0.413   0.762   0.341   0.171   0.372   1.335   0.362   2.063
   0.419   0.409   0.554   0.618   0.326   0.253   0.373   0.568   0.846   0.568
   0.373   0.253   0.326   0.618   0.554   0.409   0.419   2.063   0.362   1.335
   0.372   0.171   0.341   0.762   0.413   0.324   0.189   0.324   0.413   0.762
   0.341   0.171   0.372   1.335   0.362   2.063   0.419   0.409   0.554   0.618
   0.326   0.253   0.373   0.568   0.846   0.568   0.373   0.253   0.326   0.618
   0.554   0.409   0.419   2.063   0.362   1.335   0.372   0.171   0.341   0.762
   0.413   0.324
   0.194   0.294   0.552   1.425   0.351   0.284   0.756   1.229   0.248   2.014
   0.248   0.283   0.542   0.635   0.354   0.802   0.288   0.541   0.895   0.541
   0.288   0.802   0.354   0.635   0.542   0.283   0.248   2.014   0.248   1.229
   0.756   0.284   0.351   1.425   0.552   0.294   0.194   0.294   0.552   1.425
   0.351   0.284   0.756   1.229   0.248   2.014   0.248   0.283   0.542   0.635
   0.354   0.802   0.288   0.541   0.895   0.541   0.288   0.802   0.354   0.635
   0.542   0.283   0.248   2.014   0.248   1.229   0.756   0.284   0.351   1.425
   0.552   0.294
   0.128   0.279   0.493   2.082   0.478   0.468   0.930   0.253   0.764   0.603
   0.175   0.488   0.595   0.246   0.252   0.677   0.177   0.244   0.165   0.244
   0.177   0.677   0.252   0.246   0.595   0.488   0.175   0.603   0.764   0.253
   0.930   0.468   0.478   2.082   0.493   0.279   0.128   0.279   0.493   2.082
   0.478   0.468   0.930   0.253   0.764   0.603   0.175   0.488   0.595   0.246
   0.252   0.677   0.177   0.244   0.165   0.244   0.177   0.677   0.252   0.246
   0.595   0.488   0.175   0.603   0.764   0.253   0.930   0.468   0.478   2.082
   0.493   0.279
   0.285   0.239   1.866   2.284   0.395   0.510   1.027   2.811   0.916   1.052
   0.504   3.313   0.614   0.224   0.200   0.421   0.379   0.312   0.165   0.312
   0.379   0.421   0.200   0.224   0.614   3.313   0.504   1.052   0.916   2.811
   1.027   0.510   0.395   2.284   1.866   0.239   0.285   0.239   1.866   2.284
   0.395   0.510   1.027   2.811   0.916   1.052   0.504   3.313   0.614   0.224
   0.200   0.421   0.379   0.312   0.165   0.312   0.379   0.421   0.200   0.224
   0.614   3.313   0.504   1.052   0.916   2.811   1.027   0.510   0.395   2.284
   1.866   0.239
   1.770   1.766   2.395   4.667   0.453   0.476   0.829   3.375   1.120   1.322
   0.819   3.192   0.232   0.277   0.494   0.471   0.414   0.308   0.305   0.308
   0.414   0.471   0.494   0.277   0.232   3.192   0.819   1.322   1.120   3.375
   0.829   0.476   0.453   4.667   2.395   1.766   1.770   1.766   2.395   4.667
   0.453   0.476   0.829   3.375   1.120   1.322   0.819   3.192   0.232   0.277
   0.494   0.471   0.414   0.308   0.305   0.308   0.414   0.471   0.494   0.277
   0.232   3.192   0.819   1.322   1.120   3.375   0.829   0.476   0.453   4.667
   2.395   1.766
   1.819   1.802   0.967   3.747   0.950   1.265   0.641   1.172   0.942   2.063
   1.045   0.511   0.270   0.328   1.007   1.934   0.150   0.717   0.801   0.717
   0.150   1.934   1.007   0.328   0.270   0.511   1.045   2.063   0.942   1.172
   0.641   1.265   0.950   3.747   0.967   1.802   1.819   1.802   0.967   3.747
   0.950   1.265   0.641   1.172   0.942   2.063   1.045   0.511   0.270   0.328
   1.007   1.934   0.150   0.717   0.801   0.717   0.150   1.934   1.007   0.328
   0.270   0.511   1.045   2.063   0.942   1.172   0.641   1.265   0.950   3.747
   0.967   1.802
   0.334   0.162   0.827   0.890   1.009   1.642   0.886   1.237   0.626   2.050
   0.919   0.386   0.372   0.175   0.940   2.318   0.356   0.670   0.795   0.670
   0.356   2.318   0.940   0.175   0.372   0.386   0.919   2.050   0.626   1.237
   0.886   1.642   1.009   0.890   0.827   0.162   0.334   0.162   0.827   0.890
   1.009   1.642   0.886   1.237   0.626   2.050   0.919   0.386   0.372   0.175
   0.940   2.318   0.356   0.670   0.795   0.670   0.356   2.318   0.940   0.175
   0.372   0.386   0.919   2.050   0.626   1.237   0.886   1.642   1.009   0.890
   0.827   0.162
   1.950   0.544   0.731   2.380   2.528   1.209   1.038   1.200   1.076   2.002
   1.185   0.677   0.456   0.966   1.515   2.408   0.664   0.373   0.409   0.373
   0.664   2.408   1.515   0.966   0.456   0.677   1.185   2.002   1.076   1.200
   1.038   1.209   2.528   2.380   0.731   0.544   1.950   0.544   0.731   2.380
   2.528   1.209   1.038   1.200   1.076   2.002   1.185   0.677   0.456   0.966
   1.515   2.408   0.664   0.373   0.409   0.373   0.664   2.408   1.515   0.966
   0.456   0.677   1.185   2.002   1.076   1.200   1.038   1.209   2.528   2.380
   0.731   0.544
   1.995   0.598   0.813   2.214   2.761   0.687   0.936   0.693   1.308   1.403
   1.274   1.795   0.423   2.500   3.076   2.538   1.784   0.562   0.357   0.562
   1.784   2.538   3.076   2.500   0.423   1.795   1.274   1.403   1.308   0.693
   0.936   0.687   2.761   2.214   0.813   0.598   1.995   0.598   0.813   2.214
   2.761   0.687   0.936   0.693   1.308   1.403   1.274   1.795   0.423   2.500
   3.076   2.538   1.784   0.562   0.357   0.562   1.784   2.538   3.076   2.500
   0.423   1.795   1.274   1.403   1.308   0.693   0.936   0.687   2.761   2.214
   0.813   0.598
   0.045   0.440   0.974   0.442   0.716   0.230   0.511   0.446   1.014   0.386
   0.556   1.359   0.793   2.017   2.675   1.726   1.815   1.524   0.486   1.524
   1.815   1.726   2.675   2.017   0.793   1.359   0.556   0.386   1.014   0.446
   0.511   0.230   0.716   0.442   0.974   0.440   0.045   0.440   0.974   0.442
   0.716   0.230   0.511   0.446   1.014   0.386   0.556   1.359   0.793   2.017
   2.675   1.726   1.815   1.524   0.486   1.524   1.815   1.726   2.675   2.017
   0.793   1.359   0.556   0.386   1.014   0.446   0.511   0.230   0.716   0.442
   0.974   0.440
   0.000   0.778   0.566   0.438   0.387   0.244   0.588   0.434   0.289   0.591
   0.550   0.366   1.140   0.545   1.043   1.238   1.146   2.357   1.231   2.357
   1.146   1.238   1.043   0.545   1.140   0.366   0.550   0.591   0.289   0.434
   0.588   0.244   0.387   0.438   0.566   0.778   0.000   0.778   0.566   0.438
   0.387   0.244   0.588   0.434   0.289   0.591   0.550   0.366   1.140   0.545
   1.043   1.238   1.146   2.357   1.231   2.357   1.146   1.238   1.043   0.545
   1.140   0.366   0.550   0.591   0.289   0.434   0.588   0.244   0.387   0.438
   0.566   0.778
   0.031   0.731   0.840   0.191   0.753   0.341   0.763   1.385   0.090   0.639
   0.398   0.394   1.147   0.351   0.306   0.696   1.047   1.739   0.950   1.739
   1.047   0.696   0.306   0.351   1.147   0.394   0.398   0.639   0.090   1.385
   0.763   0.341   0.753   0.191   0.840   0.731   0.031   0.731   0.840   0.191
   0.753   0.341   0.763   1.385   0.090   0.639   0.398   0.394   1.147   0.351
   0.306   0.696   1.047   1.739   0.950   1.739   1.047   0.696   0.306   0.351
   1.147   0.394   0.398   0.639   0.090   1.385   0.763   0.341   0.753   0.191
   0.840   0.731
   0.638   0.430   1.265   0.286   1.602   0.754   1.555   1.092   0.323   0.973
   0.605   0.317   0.974   0.851   0.665   1.508   1.321   1.380   0.475   1.380
   1.321   1.508   0.665   0.851   0.974   0.317   0.605   0.973   0.323   1.092
   1.555   0.754   1.602   0.286   1.265   0.430   0.638   0.430   1.265   0.286
   1.602   0.754   1.555   1.092   0.323   0.973   0.605   0.317   0.974   0.851
   0.665   1.508   1.321   1.380   0.475   1.380   1.321   1.508   0.665   0.851
   0.974   0.317   0.605   0.973   0.323   1.092   1.555   0.754   1.602   0.286
   1.265   0.430
 200       5.00   72    0 5.00   15    0
   1.963   1.963   1.963   1.963   1.963   1.963   1.963   1.963   1.963   1.963
   1.963   1.963   1.963   1.963   1.963   1.963   1.963   1.963   1.963   1.963
   1.963   1.963   1.963   1.963   1.963   1.963   1.963   1.963   1.963   1.963
   1.963   1.963   1.963   1.963   1.963   1.963   1.963   1.963   1.963   1.963
   1.963   1.963   1.963   1.963   1.963   1.963   1.963   1.963   1.963   1.963
   1.963   1.963   1.963   1.963   1.963   1.963   1.963   1.963   1.963   1.963
   1.963   1.963   1.963   1.963   1.963   1.963   1.963   1.963   1.963   1.963
   1.963   1.963
   1.282   1.569   1.595   1.366   1.295   1.343   1.727   2.509   1.784   2.271
   2.642   3.335   4.315   4.476   2.677   1.857   1.934   2.067   1.704   2.067
   1.934   1.857   2.677   4.476   4.315   3.335   2.642   2.271   1.784   2.509
   1.727   1.343   1.295   1.366   1.595   1.569   1.282   1.569   1.595   1.366
   1.295   1.343   1.727   2.509   1.784   2.271   2.642   3.335   4.315   4.476
   2.677   1.857   1.934   2.067   1.704   2.067   1.934   1.857   2.677   4.476
   4.315   3.335   2.642   2.271   1.784   2.509   1.727   1.343   1.295   1.366
   1.595   1.569
   0.559   0.441   0.704   0.840   1.131   0.919   2.091   1.455   1.360   1.892
   2.407   2.401   2.265   6.566   1.574   1.262   1.056   1.555   1.525   1.555
   1.056   1.262   1.574   6.566   2.265   2.401   2.407   1.892   1.360   1.455
   2.091   0.919   1.131   0.840   0.704   0.441   0.559   0.441   0.704   0.840
   1.131   0.919   2.091   1.455   1.360   1.892   2.407   2.401   2.265   6.566
   1.574   1.262   1.056   1.555   1.525   1.555   1.056   1.262   1.574   6.566
   2.265   2.401   2.407   1.892   1.360   1.455   2.091   0.919   1.131   0.840
   0.704   0.441
   0.431   0.682   0.442   0.564   0.907   0.563   1.797   1.381   0.994   1.272
   1.409   1.176   1.870   6.520   2.189   1.528   1.186   1.973   1.022   1.973
   1.186   1.528   2.189   6.520   1.870   1.176   1.409   1.272   0.994   1.381
   1.797   0.563   0.907   0.564   0.442   0.682   0.431   0.682   0.442   0.564
   0.907   0.563   1.797   1.381   0.994   1.272   1.409   1.176   1.870   6.520
   2.189   1.528   1.186   1.973   1.022   1.973   1.186   1.528   2.189   6.520
   1.870   1.176   1.409   1.272   0.994   1.381   1.797   0.563   0.907   0.564
   0.442   0.682
   0.875   0.681   0.323   0.408   1.075   0.574   0.495   0.845   1.298   1.027
   0.360   0.387   1.242   2.335   1.649   1.204   1.217   2.243   4.094   2.243
   1.217   1.204   1.649   2.335   1.242   0.387   0.360   1.027   1.298   0.845
   0.495   0.574   1.075   0.408   0.323   0.681   0.875   0.681   0.323   0.408
   1.075   0.574   0.495   0.845   1.298   1.027   0.360   0.387   1.242   2.335
   1.649   1.204   1.217   2.243   4.094   2.243   1.217   1.204   1.649   2.335
   1.242   0.387   0.360   1.027   1.298   0.845   0.495   0.574   1.075   0.408
   0.323   0.681
   0.706   0.308   0.187   0.338   0.963   0.410   0.290   0.360   0.951   1.016
   1.258   0.420   0.507   0.821   0.392   0.560   0.875   0.888   3.734   0.888
   0.875   0.560   0.392   0.821   0.507   0.420   1.258   1.016   0.951   0.360
   0.290   0.410   0.963   0.338   0.187   0.308   0.706   0.308   0.187   0.338
   0.963   0.410   0.290   0.360   0.951   1.016   1.258   0.420   0.507   0.821
   0.392   0.560   0.875   0.888   3.734   0.888   0.875   0.560   0.392   0.821
   0.507   0.420   1.258   1.016   0.951   0.360   0.290   0.410   0.963   0.338
   0.187   0.308
   0.135   0.503   0.175   0.532   0.386   0.204   0.254   0.188   0.452   0.790
   1.292   0.615   0.359   0.914   0.622   1.375   0.420   0.650   0.666   0.650
   0.420   1.375   0.622   0.914   0.359   0.615   1.292   0.790   0.452   0.188
   0.254   0.204   0.386   0.532   0.175   0.503   0.135   0.503   0.175   0.532
   0.386   0.204   0.254   0.188   0.452   0.790   1.292   0.615   0.359   0.914
   0.622   1.375   0.420   0.650   0.666   0.650   0.420   1.375   0.622   0.914
   0.359   0.615   1.292   0.790   0.452   0.188   0.254   0.204   0.386   0.532
   0.175   0.503
   0.130   0.381   0.159   0.507   0.322   0.258   0.242   0.114   0.164   0.202
   0.215   0.404   0.529   0.454   0.608   1.293   0.229   0.479   1.028   0.479
   0.229   1.293   0.608   0.454   0.529   0.404   0.215   0.202   0.164   0.114
   0.242   0.258   0.322   0.507   0.159   0.381   0.130   0.381   0.159   0.507
   0.322   0.258   0.242   0.114   0.164   0.202   0.215   0.404   0.529   0.454
   0.608   1.293   0.229   0.479   1.028   0.479   0.229   1.293   0.608   0.454
   0.529   0.404   0.215   0.202   0.164   0.114   0.242   0.258   0.322   0.507
   0.159   0.381
   0.127   0.263   0.702   0.255   0.225   3.294   0.658   0.258   0.289   0.370
   0.256   0.333   0.635   0.211   0.258   0.401   0.234   0.313   0.792   0.313
   0.234   0.401   0.258   0.211   0.635   0.333   0.256   0.370   0.289   0.258
   0.658   3.294   0.225   0.255   0.702   0.263   0.127   0.263   0.702   0.255
   0.225   3.294   0.658   0.258   0.289   0.370   0.256   0.333   0.635   0.211
   0.258   0.401   0.234   0.313   0.792   0.313   0.234   0.401   0.258   0.211
   0.635   0.333   0.256   0.370   0.289   0.258   0.658   3.294   0.225   0.255
   0.702   0.263
   0.441   0.789   2.894   0.933   0.835   3.574   0.657   0.210   0.334   0.337
   0.380   0.265   0.189   0.370   0.353   0.504   0.317   0.247   0.213   0.247
   0.317   0.504   0.353   0.370   0.189   0.265   0.380   0.337   0.334   0.210
   0.657   3.574   0.835   0.933   2.894   0.789   0.441   0.789   2.894   0.933
   0.835   3.574   0.657   0.210   0.334   0.337   0.380   0.265   0.189   0.370
   0.353   0.504   0.317   0.247   0.213   0.247   0.317   0.504   0.353   0.370
   0.189   0.265   0.380   0.337   0.334   0.210   0.657   3.574   0.835   0.933
   2.894   0.789
   0.374   0.659   2.273   0.869   1.326   1.420   0.254   0.124   0.139   0.145
   0.193   0.005   0.066   0.213   0.249   0.440   0.346   0.112   0.221   0.112
   0.346   0.440   0.249   0.213   0.066   0.005   0.193   0.145   0.139   0.124
   0.254   1.420   1.326   0.869   2.273   0.659   0.374   0.659   2.273   0.869
   1.326   1.420   0.254   0.124   0.139   0.145   0.193   0.005   0.066   0.213
   0.249   0.440   0.346   0.112   0.221   0.112   0.346   0.440   0.249   0.213
   0.066   0.005   0.193   0.145   0.139   0.124   0.254   1.420   1.326   0.869
   2.273   0.659
   0.106   0.102   0.111   0.185   0.792   1.692   0.698   0.820   0.231   2.160
   0.126   0.087   0.381   0.090   0.274   0.211   0.232   0.217   1.419   0.217
   0.232   0.211   0.274   0.090   0.381   0.087   0.126   2.160   0.231   0.820
   0.698   1.692   0.792   0.185   0.111   0.102   0.106   0.102   0.111   0.185
   0.792   1.692   0.698   0.820   0.231   2.160   0.126   0.087   0.381   0.090
   0.274   0.211   0.232   0.217   1.419   0.217   0.232   0.211   0.274   0.090
   0.381   0.087   0.126   2.160   0.231   0.820   0.698   1.692   0.792   0.185
   0.111   0.102
   0.324   0.202   0.337   0.278   0.558   1.852   3.077   0.882   0.366   4.211
   0.639   0.350   1.479   0.448   0.373   0.233   0.387   0.294   1.610   0.294
   0.387   0.233   0.373   0.448   1.479   0.350   0.639   4.211   0.366   0.882
   3.077   1.852   0.558   0.278   0.337   0.202   0.324   0.202   0.337   0.278
   0.558   1.852   3.077   0.882   0.366   4.211   0.639   0.350   1.479   0.448
   0.373   0.233   0.387   0.294   1.610   0.294   0.387   0.233   0.373   0.448
   1.479   0.350   0.639   4.211   0.366   0.882   3.077   1.852   0.558   0.278
   0.337   0.202
   0.218   0.315   0.593   0.471   0.765   1.496   2.842   1.176   0.605   2.152
   0.633   0.537   1.905   0.962   0.595   0.776   0.367   0.105   0.467   0.105
   0.367   0.776   0.595   0.962   1.905   0.537   0.633   2.152   0.605   1.176
   2.842   1.496   0.765   0.471   0.593   0.315   0.218   0.315   0.593   0.471
   0.765   1.496   2.842   1.176   0.605   2.152   0.633   0.537   1.905   0.962
   0.595   0.776   0.367   0.105   0.467   0.105   0.367   0.776   0.595   0.962
   1.905   0.537   0.633   2.152   0.605   1.176   2.842   1.496   0.765   0.471
   0.593   0.315
   0.588   0.519   0.488   0.594   2.073   1.858   0.564   1.365   1.611   0.854
   1.048   2.393   1.595   1.172   0.477   0.787   0.366   0.418   0.550   0.418
   0.366   0.787   0.477   1.172   1.595   2.393   1.048   0.854   1.611   1.365
   0.564   1.858   2.073   0.594   0.488   0.519   0.588   0.519   0.488   0.594
   2.073   1.858   0.564   1.365   1.611   0.854   1.048   2.393   1.595   1.172
   0.477   0.787   0.366   0.418   0.550   0.418   0.366   0.787   0.477   1.172
   1.595   2.393   1.048   0.854   1.611   1.365   0.564   1.858   2.073   0.594
   0.488   0.519
 111       5.00   72    0 5.00   15    0
   0.153   0.153   0.153   0.153   0.153   0.153   0.153   0.153   0.153   0.153
   0.153   0.153   0.153   0.153   0.153   0.153   0.153   0.153   0.153   0.153
   0.153   0.153   0.153   0.153   0.153   0.153   0.153   0.153   0.153   0.153
   0.153   0.153   0.153   0.153   0.153   0.153   0.153   0.153   0.153   0.153
   0.153   0.153   0.153   0.153   0.153   0.153   0.153   0.153   0.153   0.153
   0.153   0.153   0.153   0.153   0.153   0.153   0.153   0.153   0.153   0.153
   0.153   0.153   0.153   0.153   0.153   0.153   0.153   0.153   0.153   0.153
   0.153   0.153
   0.127   0.167   0.503   0.246   0.173   0.282   0.890   0.317   0.551   0.243
   0.173   0.140   0.152   0.154   0.136   0.214   0.127   0.108   0.107   0.108
   0.127   0.214   0.136   0.154   0.152   0.140   0.173   0.243   0.551   0.317
   0.890   0.282   0.173   0.246   0.503   0.167   0.127   0.167   0.503   0.246
   0.173   0.282   0.890   0.317   0.551   0.243   0.173   0.140   0.152   0.154
   0.136   0.214   0.127   0.108   0.107   0.108   0.127   0.214   0.136   0.154
   0.152   0.140   0.173   0.243   0.551   0.317   0.890   0.282   0.173   0.246
   0.503   0.167
   0.166   0.160   0.459   0.265   0.359   0.945   1.321   0.271   0.145   0.132
   0.152   0.240   0.155   0.248   0.222   0.431   0.269   0.235   0.190   0.235
   0.269   0.431   0.222   0.248   0.155   0.240   0.152   0.132   0.145   0.271
   1.321   0.945   0.359   0.265   0.459   0.160   0.166   0.160   0.459   0.265
   0.359   0.945   1.321   0.271   0.145   0.132   0.152   0.240   0.155   0.248
   0.222   0.431   0.269   0.235   0.190   0.235   0.269   0.431   0.222   0.248
   0.155   0.240   0.152   0.132   0.145   0.271   1.321   0.945   0.359   0.265
   0.459   0.160
   0.117   0.105   0.122   0.155   0.299   0.814   0.610   0.187   0.119   0.150
   0.173   0.318   0.189   0.311   0.281   0.759   0.940   0.577   1.276   0.577
   0.940   0.759   0.281   0.311   0.189   0.318   0.173   0.150   0.119   0.187
   0.610   0.814   0.299   0.155   0.122   0.105   0.117   0.105   0.122   0.155
   0.299   0.814   0.610   0.187   0.119   0.150   0.173   0.318   0.189   0.311
   0.281   0.759   0.940   0.577   1.276   0.577   0.940   0.759   0.281   0.311
   0.189   0.318   0.173   0.150   0.119   0.187   0.610   0.814   0.299   0.155
   0.122   0.105
   0.077   0.342   0.242   0.136   0.140   0.188   0.215   0.193   0.185   0.157
   0.212   0.233   0.514   0.707   0.576   1.011   6.272   0.592   2.200   0.592
   6.272   1.011   0.576   0.707   0.514   0.233   0.212   0.157   0.185   0.193
   0.215   0.188   0.140   0.136   0.242   0.342   0.077   0.342   0.242   0.136
   0.140   0.188   0.215   0.193   0.185   0.157   0.212   0.233   0.514   0.707
   0.576   1.011   6.272   0.592   2.200   0.592   6.272   1.011   0.576   0.707
   0.514   0.233   0.212   0.157   0.185   0.193   0.215   0.188   0.140   0.136
   0.242   0.342
   0.269   0.469   0.381   0.275   0.225   0.764   0.298   0.244   0.363   0.679
   0.376   0.471   0.537   1.146   0.751   0.689   6.920   0.783   1.738   0.783
   6.920   0.689   0.751   1.146   0.537   0.471   0.376   0.679   0.363   0.244
   0.298   0.764   0.225   0.275   0.381   0.469   0.269   0.469   0.381   0.275
   0.225   0.764   0.298   0.244   0.363   0.679   0.376   0.471   0.537   1.146
   0.751   0.689   6.920   0.783   1.738   0.783   6.920   0.689   0.751   1.146
   0.537   0.471   0.376   0.679   0.363   0.244   0.298   0.764   0.225   0.275
   0.381   0.469
   0.329   0.377   0.305   0.306   0.279   0.736   0.260   0.224   0.400   0.748
   0.408   0.896   0.521   1.641   0.894   0.816   2.068   1.910   1.079   1.910
   2.068   0.816   0.894   1.641   0.521   0.896   0.408   0.748   0.400   0.224
   0.260   0.736   0.279   0.306   0.305   0.377   0.329   0.377   0.305   0.306
   0.279   0.736   0.260   0.224   0.400   0.748   0.408   0.896   0.521   1.641
   0.894   0.816   2.068   1.910   1.079   1.910   2.068   0.816   0.894   1.641
   0.521   0.896   0.408   0.748   0.400   0.224   0.260   0.736   0.279   0.306
   0.305   0.377
   0.502   0.456   0.300   0.475   0.460   1.227   0.922   1.119   0.818   0.836
   0.354   1.036   0.579   1.622   2.176   2.817   0.891   1.548   0.826   1.548
   0.891   2.817   2.176   1.622   0.579   1.036   0.354   0.836   0.818   1.119
   0.922   1.227   0.460   0.475   0.300   0.456   0.502   0.456   0.300   0.475
   0.460   1.227   0.922   1.119   0.818   0.836   0.354   1.036   0.579   1.622
   2.176   2.817   0.891   1.548   0.826   1.548   0.891   2.817   2.176   1.622
   0.579   1.036   0.354   0.836   0.818   1.119   0.922   1.227   0.460   0.475
   0.300   0.456
   1.173   0.403   0.287   0.546   0.783   1.430   1.532   2.613   1.673   1.019
   0.531   2.211   1.304   0.833   2.090   3.189   0.802   0.407   0.662   0.407
   0.802   3.189   2.090   0.833   1.304   2.211   0.531   1.019   1.673   2.613
   1.532   1.430   0.783   0.546   0.287   0.403   1.173   0.403   0.287   0.546
   0.783   1.430   1.532   2.613   1.673   1.019   0.531   2.211   1.304   0.833
   2.090   3.189   0.802   0.407   0.662   0.407   0.802   3.189   2.090   0.833
   1.304   2.211   0.531   1.019   1.673   2.613   1.532   1.430   0.783   0.546
   0.287   0.403
   1.541   3.955   0.527   1.068   1.472   1.329   1.028   1.772   1.230   0.507
   0.421   1.980   1.403   2.195   0.660   1.327   1.572   1.332   0.449   1.332
   1.572   1.327   0.660   2.195   1.403   1.980   0.421   0.507   1.230   1.772
   1.028   1.329   1.472   1.068   0.527   3.955   1.541   3.955   0.527   1.068
   1.472   1.329   1.028   1.772   1.230   0.507   0.421   1.980   1.403   2.195
   0.660   1.327   1.572   1.332   0.449   1.332   1.572   1.327   0.660   2.195
   1.403   1.980   0.421   0.507   1.230   1.772   1.028   1.329   1.472   1.068
   0.527   3.955
   1.479   4.093   0.927   1.527   2.370   2.987   4.895   0.710   0.370   0.359
   0.319   0.718   0.919   2.333   1.027   1.339   1.392   1.607   0.350   1.607
   1.392   1.339   1.027   2.333   0.919   0.718   0.319   0.359   0.370   0.710
   4.895   2.987   2.370   1.527   0.927   4.093   1.479   4.093   0.927   1.527
   2.370   2.987   4.895   0.710   0.370   0.359   0.319   0.718   0.919   2.333
   1.027   1.339   1.392   1.607   0.350   1.607   1.392   1.339   1.027   2.333
   0.919   0.718   0.319   0.359   0.370   0.710   4.895   2.987   2.370   1.527
   0.927   4.093
   2.737   1.161   0.779   1.101   1.995   2.538   8.723   1.436   0.427   0.912
   0.787   0.765   0.740   1.244   1.047   1.320   0.710   0.858   0.363   0.858
   0.710   1.320   1.047   1.244   0.740   0.765   0.787   0.912   0.427   1.436
   8.723   2.538   1.995   1.101   0.779   1.161   2.737   1.161   0.779   1.101
   1.995   2.538   8.723   1.436   0.427   0.912   0.787   0.765   0.740   1.244
   1.047   1.320   0.710   0.858   0.363   0.858   0.710   1.320   1.047   1.244
   0.740   0.765   0.787   0.912   0.427   1.436   8.723   2.538   1.995   1.101
   0.779   1.161
   2.425   1.194   1.275   1.209   1.323   0.789   4.777   1.729   0.920   0.877
   1.532   0.679   0.853   1.241   0.594   0.513   0.556   0.947   0.496   0.947
   0.556   0.513   0.594   1.241   0.853   0.679   1.532   0.877   0.920   1.729
   4.777   0.789   1.323   1.209   1.275   1.194   2.425   1.194   1.275   1.209
   1.323   0.789   4.777   1.729   0.920   0.877   1.532   0.679   0.853   1.241
   0.594   0.513   0.556   0.947   0.496   0.947   0.556   0.513   0.594   1.241
   0.853   0.679   1.532   0.877   0.920   1.729   4.777   0.789   1.323   1.209
   1.275   1.194
   0.730   0.783   1.809   1.284   1.177   0.467   0.930   0.985   0.814   0.393
   1.137   0.944   1.139   0.853   1.170   0.975   0.531   1.786   0.728   1.786
   0.531   0.975   1.170   0.853   1.139   0.944   1.137   0.393   0.814   0.985
   0.930   0.467   1.177   1.284   1.809   0.783   0.730   0.783   1.809   1.284
   1.177   0.467   0.930   0.985   0.814   0.393   1.137   0.944   1.139   0.853
   1.170   0.975   0.531   1.786   0.728   1.786   0.531   0.975   1.170   0.853
   1.139   0.944   1.137   0.393   0.814   0.985   0.930   0.467   1.177   1.284
   1.809   0.783
   0.326   0.603   1.013   1.036   1.336   0.307   0.304   0.265   0.633   0.268
   0.228   0.908   1.010   1.193   1.394   1.320   0.477   1.951   0.640   1.951
   0.477   1.320   1.394   1.193   1.010   0.908   0.228   0.268   0.633   0.265
   0.304   0.307   1.336   1.036   1.013   0.603   0.326   0.603   1.013   1.036
   1.336   0.307   0.304   0.265   0.633   0.268   0.228   0.908   1.010   1.193
   1.394   1.320   0.477   1.951   0.640   1.951   0.477   1.320   1.394   1.193
   1.010   0.908   0.228   0.268   0.633   0.265   0.304   0.307   1.336   1.036
   1.013   0.603
  4  1      1.6260388E+00
  4  2      1.4436159E-01
  4  3     -7.1041100E-01
  6  1     -5.1506543E-01
  6  2      1.6545009E+00
  6  3      3.1859297E-02
  6  4      2.2862014E-01
  8  1      6.7113535E-01
  8  2     -7.5130584E-01
  8  3      3.9216730E-01
  8  4     -6.6686374E-01
  8  5     -1.7085991E+00
 10  1     -4.0827675E-01
 10  2      7.9511682E-01
 10  3      6.1632734E-01
 10  4     -1.2676599E-01
 10  5     -8.2424851E-01
 10  6     -8.2017268E-02
 12  1     -1.5195473E-01  6.1519084E-02
 12  2      1.6876948E-01 -1.8743671E-01
 12  3     -2.4268382E-01  4.4393233E-02
 12  4      3.5721019E-01  6.6095068E-02
 12  5     -3.0511439E-01 -1.3100747E+00
 12  6     -4.9952062E-01  3.8843821E-01
 12  7     -9.7933900E-01  8.7625271E-02
 14  1      2.6718972E-01
 14  2      2.7919016E-01
 14  3     -1.2737844E+00
 14  4      8.3758190E-01
 14  5      1.9081080E-01
 14  6     -5.8185374E-01
 14  7     -1.5463209E+00
 14  8     -6.8164784E-02
 220       5.00   72    0 5.00   18    0
   0.811   0.811   0.811   0.811   0.810   0.810   0.809   0.808   0.808   0.807
   0.806   0.806   0.805   0.804   0.804   0.803   0.803   0.803   0.802   0.803
   0.803   0.803   0.804   0.804   0.805   0.806   0.806   0.807   0.808   0.808
   0.809   0.810   0.810   0.811   0.811   0.811   0.811   0.811   0.811   0.811
   0.810   0.810   0.809   0.808   0.808   0.807   0.806   0.806   0.805   0.804
   0.804   0.803   0.803   0.803   0.802   0.803   0.803   0.803   0.804   0.804
   0.805   0.806   0.806   0.807   0.808   0.808   0.809   0.810   0.810   0.811
   0.811   0.811
   0.745   0.745   0.745   0.746   0.746   0.745   0.743   0.741   0.736   0.731
   0.724   0.715   0.706   0.697   0.688   0.680   0.674   0.671   0.669   0.671
   0.674   0.680   0.688   0.697   0.706   0.715   0.724   0.731   0.736   0.741
   0.743   0.745   0.746   0.746   0.745   0.745   0.745   0.745   0.745   0.746
   0.746   0.745   0.743   0.741   0.736   0.731   0.724   0.715   0.706   0.697
   0.688   0.680   0.674   0.671   0.669   0.671   0.674   0.680   0.688   0.697
   0.706   0.715   0.724   0.731   0.736   0.741   0.743   0.745   0.746   0.746
   0.745   0.745
   0.684   0.686   0.691   0.698   0.706   0.714   0.719   0.720   0.715   0.703
   0.683   0.656   0.623   0.587   0.551   0.518   0.492   0.474   0.468   0.474
   0.492   0.518   0.551   0.587   0.623   0.656   0.683   0.703   0.715   0.720
   0.719   0.714   0.706   0.698   0.691   0.686   0.684   0.686   0.691   0.698
   0.706   0.714   0.719   0.720   0.715   0.703   0.683   0.656   0.623   0.587
   0.551   0.518   0.492   0.474   0.468   0.474   0.492   0.518   0.551   0.587
   0.623   0.656   0.683   0.703   0.715   0.720   0.719   0.714   0.706   0.698
   0.691   0.686
   0.764   0.766   0.772   0.782   0.794   0.806   0.816   0.819   0.814   0.795
   0.761   0.711   0.647   0.572   0.493   0.419   0.358   0.318   0.304   0.318
   0.358   0.419   0.493   0.572   0.647   0.711   0.761   0.795   0.814   0.819
   0.816   0.806   0.794   0.782   0.772   0.766   0.764   0.766   0.772   0.782
   0.794   0.806   0.816   0.819   0.814   0.795   0.761   0.711   0.647   0.572
   0.493   0.419   0.358   0.318   0.304   0.318   0.358   0.419   0.493   0.572
   0.647   0.711   0.761   0.795   0.814   0.819   0.816   0.806   0.794   0.782
   0.772   0.766
   1.088   1.084   1.073   1.056   1.035   1.014   0.992   0.971   0.948   0.919
   0.878   0.820   0.742   0.646   0.541   0.436   0.347   0.288   0.266   0.288
   0.347   0.436   0.541   0.646   0.742   0.820   0.878   0.919   0.948   0.971
   0.992   1.014   1.035   1.056   1.073   1.084   1.088   1.084   1.073   1.056
   1.035   1.014   0.992   0.971   0.948   0.919   0.878   0.820   0.742   0.646
   0.541   0.436   0.347   0.288   0.266   0.288   0.347   0.436   0.541   0.646
   0.742   0.820   0.878   0.919   0.948   0.971   0.992   1.014   1.035   1.056
   1.073   1.084
   1.568   1.554   1.512   1.445   1.356   1.255   1.153   1.063   0.991   0.938
   0.897   0.858   0.807   0.738   0.651   0.556   0.468   0.407   0.384   0.407
   0.468   0.556   0.651   0.738   0.807   0.858   0.897   0.938   0.991   1.063
   1.153   1.255   1.356   1.445   1.512   1.554   1.568   1.554   1.512   1.445
   1.356   1.255   1.153   1.063   0.991   0.938   0.897   0.858   0.807   0.738
   0.651   0.556   0.468   0.407   0.384   0.407   0.468   0.556   0.651   0.738
   0.807   0.858   0.897   0.938   0.991   1.063   1.153   1.255   1.356   1.445
   1.512   1.554
   1.896   1.885   1.844   1.762   1.634   1.464   1.273   1.092   0.946   0.853
   0.811   0.806   0.813   0.809   0.783   0.733   0.673   0.624   0.606   0.624
   0.673   0.733   0.783   0.809   0.813   0.806   0.811   0.853   0.946   1.092
   1.273   1.464   1.634   1.762   1.844   1.885   1.896   1.885   1.844   1.762
   1.634   1.464   1.273   1.092   0.946   0.853   0.811   0.806   0.813   0.809
   0.783   0.733   0.673   0.624   0.606   0.624   0.673   0.733   0.783   0.809
   0.813   0.806   0.811   0.853   0.946   1.092   1.273   1.464   1.634   1.762
   1.844   1.885
   1.776   1.796   1.834   1.843   1.778   1.622   1.397   1.153   0.943   0.806
   0.755   0.777   0.841   0.908   0.944   0.937   0.896   0.852   0.832   0.852
   0.896   0.937   0.944   0.908   0.841   0.777   0.755   0.806   0.943   1.153
   1.397   1.622   1.778   1.843   1.834   1.796   1.776   1.796   1.834   1.843
   1.778   1.622   1.397   1.153   0.943   0.806   0.755   0.777   0.841   0.908
   0.944   0.937   0.896   0.852   0.832   0.852   0.896   0.937   0.944   0.908
   0.841   0.777   0.755   0.806   0.943   1.153   1.397   1.622   1.778   1.843
   1.834   1.796
   1.223   1.299   1.484   1.674   1.764   1.705   1.518   1.271   1.040   0.883
   0.825   0.865   0.971   1.090   1.166   1.166   1.101   1.023   0.988   1.023
   1.101   1.166   1.166   1.090   0.971   0.865   0.825   0.883   1.040   1.271
   1.518   1.705   1.764   1.674   1.484   1.299   1.223   1.299   1.484   1.674
   1.764   1.705   1.518   1.271   1.040   0.883   0.825   0.865   0.971   1.090
   1.166   1.166   1.101   1.023   0.988   1.023   1.101   1.166   1.166   1.090
   0.971   0.865   0.825   0.883   1.040   1.271   1.518   1.705   1.764   1.674
   1.484   1.299
   0.598   0.726   1.042   1.386   1.609   1.642   1.519   1.321   1.129   0.995
   0.950   1.008   1.152   1.323   1.431   1.413   1.281   1.127   1.059   1.127
   1.281   1.413   1.431   1.323   1.152   1.008   0.950   0.995   1.129   1.321
   1.519   1.642   1.609   1.386   1.042   0.726   0.598   0.726   1.042   1.386
   1.609   1.642   1.519   1.321   1.129   0.995   0.950   1.008   1.152   1.323
   1.431   1.413   1.281   1.127   1.059   1.127   1.281   1.413   1.431   1.323
   1.152   1.008   0.950   0.995   1.129   1.321   1.519   1.642   1.609   1.386
   1.042   0.726
   0.283   0.424   0.764   1.121   1.338   1.373   1.288   1.170   1.068   0.994
   0.971   1.046   1.237   1.486   1.660   1.643   1.440   1.192   1.081   1.192
   1.440   1.643   1.660   1.486   1.237   1.046   0.971   0.994   1.068   1.170
   1.288   1.373   1.338   1.121   0.764   0.424   0.283   0.424   0.764   1.121
   1.338   1.373   1.288   1.170   1.068   0.994   0.971   1.046   1.237   1.486
   1.660   1.643   1.440   1.192   1.081   1.192   1.440   1.643   1.660   1.486
   1.237   1.046   0.971   0.994   1.068   1.170   1.288   1.373   1.338   1.121
   0.764   0.424
   0.329   0.436   0.681   0.902   0.987   0.953   0.897   0.883   0.894   0.879
   0.853   0.912   1.136   1.479   1.758   1.789   1.553   1.236   1.092   1.236
   1.553   1.789   1.758   1.479   1.136   0.912   0.853   0.879   0.894   0.883
   0.897   0.953   0.987   0.902   0.681   0.436   0.329   0.436   0.681   0.902
   0.987   0.953   0.897   0.883   0.894   0.879   0.853   0.912   1.136   1.479
   1.758   1.789   1.553   1.236   1.092   1.236   1.553   1.789   1.758   1.479
   1.136   0.912   0.853   0.879   0.894   0.883   0.897   0.953   0.987   0.902
   0.681   0.436
   0.476   0.530   0.636   0.688   0.646   0.581   0.593   0.698   0.802   0.804
   0.727   0.722   0.931   1.325   1.688   1.786   1.570   1.240   1.085   1.240
   1.570   1.786   1.688   1.325   0.931   0.722   0.727   0.804   0.802   0.698
   0.593   0.581   0.646   0.688   0.636   0.530   0.476   0.530   0.636   0.688
   0.646   0.581   0.593   0.698   0.802   0.804   0.727   0.722   0.931   1.325
   1.688   1.786   1.570   1.240   1.085   1.240   1.570   1.786   1.688   1.325
   0.931   0.722   0.727   0.804   0.802   0.698   0.593   0.581   0.646   0.688
   0.636   0.530
   0.513   0.526   0.538   0.513   0.467   0.474   0.589   0.768   0.886   0.851
   0.715   0.651   0.809   1.161   1.502   1.611   1.439   1.159   1.026   1.159
   1.439   1.611   1.502   1.161   0.809   0.651   0.715   0.851   0.886   0.768
   0.589   0.474   0.467   0.513   0.538   0.526   0.513   0.526   0.538   0.513
   0.467   0.474   0.589   0.768   0.886   0.851   0.715   0.651   0.809   1.161
   1.502   1.611   1.439   1.159   1.026   1.159   1.439   1.611   1.502   1.161
   0.809   0.651   0.715   0.851   0.886   0.768   0.589   0.474   0.467   0.513
   0.538   0.526
   0.538   0.532   0.522   0.532   0.592   0.713   0.863   0.970   0.970   0.871
   0.763   0.758   0.901   1.124   1.292   1.300   1.153   0.970   0.888   0.970
   1.153   1.300   1.292   1.124   0.901   0.758   0.763   0.871   0.970   0.970
   0.863   0.713   0.592   0.532   0.522   0.532   0.538   0.532   0.522   0.532
   0.592   0.713   0.863   0.970   0.970   0.871   0.763   0.758   0.901   1.124
   1.292   1.300   1.153   0.970   0.888   0.970   1.153   1.300   1.292   1.124
   0.901   0.758   0.763   0.871   0.970   0.970   0.863   0.713   0.592   0.532
   0.522   0.532
   0.801   0.788   0.788   0.867   1.030   1.185   1.203   1.039   0.791   0.641
   0.708   0.945   1.178   1.247   1.130   0.932   0.775   0.704   0.689   0.704
   0.775   0.932   1.130   1.247   1.178   0.945   0.708   0.641   0.791   1.039
   1.203   1.185   1.030   0.867   0.788   0.788   0.801   0.788   0.788   0.867
   1.030   1.185   1.203   1.039   0.791   0.641   0.708   0.945   1.178   1.247
   1.130   0.932   0.775   0.704   0.689   0.704   0.775   0.932   1.130   1.247
   1.178   0.945   0.708   0.641   0.791   1.039   1.203   1.185   1.030   0.867
   0.788   0.788
   1.320   1.300   1.299   1.409   1.598   1.670   1.423   0.879   0.337   0.168
   0.500   1.088   1.494   1.446   1.039   0.609   0.417   0.444   0.491   0.444
   0.417   0.609   1.039   1.446   1.494   1.088   0.500   0.168   0.337   0.879
   1.423   1.670   1.598   1.409   1.299   1.300   1.320   1.300   1.299   1.409
   1.598   1.670   1.423   0.879   0.337   0.168   0.500   1.088   1.494   1.446
   1.039   0.609   0.417   0.444   0.491   0.444   0.417   0.609   1.039   1.446
   1.494   1.088   0.500   0.168   0.337   0.879   1.423   1.670   1.598   1.409
   1.299   1.300
   1.763   1.735   1.721   1.829   1.997   1.966   1.502   0.679  -0.064  -0.234
   0.299   1.147   1.695   1.590   1.003   0.422   0.200   0.283   0.368   0.283
   0.200   0.422   1.003   1.590   1.695   1.147   0.299  -0.234  -0.064   0.679
   1.502   1.966   1.997   1.829   1.721   1.735   1.763   1.735   1.721   1.829
   1.997   1.966   1.502   0.679  -0.064  -0.234   0.299   1.147   1.695   1.590
   1.003   0.422   0.200   0.283   0.368   0.283   0.200   0.422   1.003   1.590
   1.695   1.147   0.299  -0.234  -0.064   0.679   1.502   1.966   1.997   1.829
   1.721   1.735
 200       5.00   72    0 5.00   18    0
   2.812   2.812   2.814   2.817   2.820   2.825   2.830   2.836   2.842   2.848
   2.854   2.861   2.867   2.872   2.877   2.880   2.883   2.885   2.885   2.885
   2.883   2.880   2.877   2.872   2.867   2.861   2.854   2.848   2.842   2.836
   2.830   2.825   2.820   2.817   2.814   2.812   2.812   2.812   2.814   2.817
   2.820   2.825   2.830   2.836   2.842   2.848   2.854   2.861   2.867   2.872
   2.877   2.880   2.883   2.885   2.885   2.885   2.883   2.880   2.877   2.872
   2.867   2.861   2.854   2.848   2.842   2.836   2.830   2.825   2.820   2.817
   2.814   2.812
   2.385   2.388   2.398   2.416   2.440   2.470   2.506   2.548   2.594   2.643
   2.695   2.747   2.797   2.844   2.886   2.921   2.947   2.963   2.968   2.963
   2.947   2.921   2.886   2.844   2.797   2.747   2.695   2.643   2.594   2.548
   2.506   2.470   2.440   2.416   2.398   2.388   2.385   2.388   2.398   2.416
   2.440   2.470   2.506   2.548   2.594   2.643   2.695   2.747   2.797   2.844
   2.886   2.921   2.947   2.963   2.968   2.963   2.947   2.921   2.886   2.844
   2.797   2.747   2.695   2.643   2.594   2.548   2.506   2.470   2.440   2.416
   2.398   2.388
   1.730   1.735   1.750   1.775   1.811   1.860   1.921   1.995   2.084   2.185
   2.296   2.416   2.538   2.657   2.767   2.861   2.933   2.979   2.994   2.979
   2.933   2.861   2.767   2.657   2.538   2.416   2.296   2.185   2.084   1.995
   1.921   1.860   1.811   1.775   1.750   1.735   1.730   1.735   1.750   1.775
   1.811   1.860   1.921   1.995   2.084   2.185   2.296   2.416   2.538   2.657
   2.767   2.861   2.933   2.979   2.994   2.979   2.933   2.861   2.767   2.657
   2.538   2.416   2.296   2.185   2.084   1.995   1.921   1.860   1.811   1.775
   1.750   1.735
   1.063   1.069   1.085   1.111   1.147   1.195   1.256   1.334   1.432   1.553
   1.696   1.861   2.040   2.225   2.402   2.559   2.681   2.760   2.787   2.760
   2.681   2.559   2.402   2.225   2.040   1.861   1.696   1.553   1.432   1.334
   1.256   1.195   1.147   1.111   1.085   1.069   1.063   1.069   1.085   1.111
   1.147   1.195   1.256   1.334   1.432   1.553   1.696   1.861   2.040   2.225
   2.402   2.559   2.681   2.760   2.787   2.760   2.681   2.559   2.402   2.225
   2.040   1.861   1.696   1.553   1.432   1.334   1.256   1.195   1.147   1.111
   1.085   1.069
   0.495   0.508   0.543   0.595   0.655   0.717   0.779   0.844   0.918   1.013
   1.134   1.285   1.462   1.653   1.844   2.017   2.154   2.242   2.273   2.242
   2.154   2.017   1.844   1.653   1.462   1.285   1.134   1.013   0.918   0.844
   0.779   0.717   0.655   0.595   0.543   0.508   0.495   0.508   0.543   0.595
   0.655   0.717   0.779   0.844   0.918   1.013   1.134   1.285   1.462   1.653
   1.844   2.017   2.154   2.242   2.273   2.242   2.154   2.017   1.844   1.653
   1.462   1.285   1.134   1.013   0.918   0.844   0.779   0.717   0.655   0.595
   0.543   0.508
   0.109   0.138   0.219   0.333   0.457   0.567   0.650   0.704   0.743   0.783
   0.842   0.930   1.044   1.171   1.296   1.404   1.485   1.534   1.550   1.534
   1.485   1.404   1.296   1.171   1.044   0.930   0.842   0.783   0.743   0.704
   0.650   0.567   0.457   0.333   0.219   0.138   0.109   0.138   0.219   0.333
   0.457   0.567   0.650   0.704   0.743   0.783   0.842   0.930   1.044   1.171
   1.296   1.404   1.485   1.534   1.550   1.534   1.485   1.404   1.296   1.171
   1.044   0.930   0.842   0.783   0.743   0.704   0.650   0.567   0.457   0.333
   0.219   0.138
   0.042   0.085   0.204   0.371   0.546   0.690   0.777   0.806   0.796   0.781
   0.786   0.822   0.875   0.922   0.942   0.928   0.893   0.857   0.843   0.857
   0.893   0.928   0.942   0.922   0.875   0.822   0.786   0.781   0.796   0.806
   0.777   0.690   0.546   0.371   0.204   0.085   0.042   0.085   0.204   0.371
   0.546   0.690   0.777   0.806   0.796   0.781   0.786   0.822   0.875   0.922
   0.942   0.928   0.893   0.857   0.843   0.857   0.893   0.928   0.942   0.922
   0.875   0.822   0.786   0.781   0.796   0.806   0.777   0.690   0.546   0.371
   0.204   0.085
   0.362   0.399   0.502   0.648   0.795   0.897   0.920   0.867   0.776   0.705
   0.696   0.746   0.814   0.845   0.801   0.684   0.536   0.414   0.366   0.414
   0.536   0.684   0.801   0.845   0.814   0.746   0.696   0.705   0.776   0.867
   0.920   0.897   0.795   0.648   0.502   0.399   0.362   0.399   0.502   0.648
   0.795   0.897   0.920   0.867   0.776   0.705   0.696   0.746   0.814   0.845
   0.801   0.684   0.536   0.414   0.366   0.414   0.536   0.684   0.801   0.845
   0.814   0.746   0.696   0.705   0.776   0.867   0.920   0.897   0.795   0.648
   0.502   0.399
   0.852   0.863   0.900   0.963   1.027   1.039   0.950   0.765   0.551   0.408
   0.400   0.516   0.671   0.764   0.737   0.600   0.415   0.264   0.206   0.264
   0.415   0.600   0.737   0.764   0.671   0.516   0.400   0.408   0.551   0.765
   0.950   1.039   1.027   0.963   0.900   0.863   0.852   0.863   0.900   0.963
   1.027   1.039   0.950   0.765   0.551   0.408   0.400   0.516   0.671   0.764
   0.737   0.600   0.415   0.264   0.206   0.264   0.415   0.600   0.737   0.764
   0.671   0.516   0.400   0.408   0.551   0.765   0.950   1.039   1.027   0.963
   0.900   0.863
   1.074   1.060   1.042   1.062   1.111   1.113   0.976   0.686   0.342   0.100
   0.065   0.218   0.436   0.585   0.603   0.520   0.408   0.325   0.295   0.325
   0.408   0.520   0.603   0.585   0.436   0.218   0.065   0.100   0.342   0.686
   0.976   1.113   1.111   1.062   1.042   1.060   1.074   1.060   1.042   1.062
   1.111   1.113   0.976   0.686   0.342   0.100   0.065   0.218   0.436   0.585
   0.603   0.520   0.408   0.325   0.295   0.325   0.408   0.520   0.603   0.585
   0.436   0.218   0.065   0.100   0.342   0.686   0.976   1.113   1.111   1.062
   1.042   1.060
   0.764   0.748   0.746   0.843   1.036   1.198   1.161   0.872   0.453   0.122
   0.024   0.133   0.297   0.383   0.374   0.351   0.382   0.452   0.489   0.452
   0.382   0.351   0.374   0.383   0.297   0.133   0.024   0.122   0.453   0.872
   1.161   1.198   1.036   0.843   0.746   0.748   0.764   0.748   0.746   0.843
   1.036   1.198   1.161   0.872   0.453   0.122   0.024   0.133   0.297   0.383
   0.374   0.351   0.382   0.452   0.489   0.452   0.382   0.351   0.374   0.383
   0.297   0.133   0.024   0.122   0.453   0.872   1.161   1.198   1.036   0.843
   0.746   0.748
   0.159   0.162   0.235   0.487   0.910   1.317   1.467   1.272   0.873   0.528
   0.394   0.417   0.424   0.317   0.170   0.144   0.308   0.546   0.658   0.546
   0.308   0.144   0.170   0.317   0.424   0.417   0.394   0.528   0.873   1.272
   1.467   1.317   0.910   0.487   0.235   0.162   0.159   0.162   0.235   0.487
   0.910   1.317   1.467   1.272   0.873   0.528   0.394   0.417   0.424   0.317
   0.170   0.144   0.308   0.546   0.658   0.546   0.308   0.144   0.170   0.317
   0.424   0.417   0.394   0.528   0.873   1.272   1.467   1.317   0.910   0.487
   0.235   0.162
  -0.199  -0.171  -0.025   0.337   0.885   1.407   1.652   1.544   1.241   0.996
   0.925   0.920   0.792   0.486   0.164   0.064   0.261   0.578   0.728   0.578
   0.261   0.064   0.164   0.486   0.792   0.920   0.925   0.996   1.241   1.544
   1.652   1.407   0.885   0.337  -0.025  -0.171  -0.199  -0.171  -0.025   0.337
   0.885   1.407   1.652   1.544   1.241   0.996   0.925   0.920   0.792   0.486
   0.164   0.064   0.261   0.578   0.728   0.578   0.261   0.064   0.164   0.486
   0.792   0.920   0.925   0.996   1.241   1.544   1.652   1.407   0.885   0.337
  -0.025  -0.171
  -0.036   0.023   0.225   0.593   1.052   1.425   1.555   1.444   1.260   1.189
   1.265   1.333   1.209   0.865   0.477   0.278   0.351   0.558   0.664   0.558
   0.351   0.278   0.477   0.865   1.209   1.333   1.265   1.189   1.260   1.444
   1.555   1.425   1.052   0.593   0.225   0.023  -0.036   0.023   0.225   0.593
   1.052   1.425   1.555   1.444   1.260   1.189   1.265   1.333   1.209   0.865
   0.477   0.278   0.351   0.558   0.664   0.558   0.351   0.278   0.477   0.865
   1.209   1.333   1.265   1.189   1.260   1.444   1.555   1.425   1.052   0.593
   0.225   0.023
   0.334   0.456   0.769   1.134   1.391   1.442   1.310   1.125   1.038   1.118
   1.308   1.473   1.498   1.354   1.102   0.834   0.621   0.492   0.450   0.492
   0.621   0.834   1.102   1.354   1.498   1.473   1.308   1.118   1.038   1.125
   1.310   1.442   1.391   1.134   0.769   0.456   0.334   0.456   0.769   1.134
   1.391   1.442   1.310   1.125   1.038   1.118   1.308   1.473   1.498   1.354
   1.102   0.834   0.621   0.492   0.450   0.492   0.621   0.834   1.102   1.354
   1.498   1.473   1.308   1.118   1.038   1.125   1.310   1.442   1.391   1.134
   0.769   0.456
   0.361   0.601   1.154   1.649   1.794   1.571   1.209   0.969   0.948   1.072
   1.231   1.402   1.621   1.845   1.902   1.614   1.009   0.382   0.114   0.382
   1.009   1.614   1.902   1.845   1.621   1.402   1.231   1.072   0.948   0.969
   1.209   1.571   1.794   1.649   1.154   0.601   0.361   0.601   1.154   1.649
   1.794   1.571   1.209   0.969   0.948   1.072   1.231   1.402   1.621   1.845
   1.902   1.614   1.009   0.382   0.114   0.382   1.009   1.614   1.902   1.845
   1.621   1.402   1.231   1.072   0.948   0.969   1.209   1.571   1.794   1.649
   1.154   0.601
  -0.098   0.289   1.168   1.931   2.134   1.812   1.362   1.136   1.159   1.225
   1.219   1.285   1.645   2.243   2.646   2.372   1.385   0.253  -0.245   0.253
   1.385   2.372   2.646   2.243   1.645   1.285   1.219   1.225   1.159   1.136
   1.362   1.812   2.134   1.931   1.168   0.289  -0.098   0.289   1.168   1.931
   2.134   1.812   1.362   1.136   1.159   1.225   1.219   1.285   1.645   2.243
   2.646   2.372   1.385   0.253  -0.245   0.253   1.385   2.372   2.646   2.243
   1.645   1.285   1.219   1.225   1.159   1.136   1.362   1.812   2.134   1.931
   1.168   0.289
  -0.595  -0.102   1.020   2.010   2.323   2.015   1.570   1.384   1.431   1.427
   1.266   1.221   1.642   2.469   3.095   2.837   1.613   0.163  -0.481   0.163
   1.613   2.837   3.095   2.469   1.642   1.221   1.266   1.427   1.431   1.384
   1.570   2.015   2.323   2.010   1.020  -0.102  -0.595  -0.102   1.020   2.010
   2.323   2.015   1.570   1.384   1.431   1.427   1.266   1.221   1.642   2.469
   3.095   2.837   1.613   0.163  -0.481   0.163   1.613   2.837   3.095   2.469
   1.642   1.221   1.266   1.427   1.431   1.384   1.570   2.015   2.323   2.010
   1.020  -0.102
 111       5.00   72    0 5.00   18    0
   0.294   0.294   0.295   0.296   0.297   0.298   0.300   0.302   0.304   0.307
   0.309   0.311   0.313   0.315   0.317   0.319   0.320   0.320   0.321   0.320
   0.320   0.319   0.317   0.315   0.313   0.311   0.309   0.307   0.304   0.302
   0.300   0.298   0.297   0.296   0.295   0.294   0.294   0.294   0.295   0.296
   0.297   0.298   0.300   0.302   0.304   0.307   0.309   0.311   0.313   0.315
   0.317   0.319   0.320   0.320   0.321   0.320   0.320   0.319   0.317   0.315
   0.313   0.311   0.309   0.307   0.304   0.302   0.300   0.298   0.297   0.296
   0.295   0.294
   0.361   0.361   0.361   0.362   0.363   0.367   0.372   0.382   0.394   0.411
   0.430   0.453   0.477   0.501   0.524   0.544   0.560   0.569   0.573   0.569
   0.560   0.544   0.524   0.501   0.477   0.453   0.430   0.411   0.394   0.382
   0.372   0.367   0.363   0.362   0.361   0.361   0.361   0.361   0.361   0.362
   0.363   0.367   0.372   0.382   0.394   0.411   0.430   0.453   0.477   0.501
   0.524   0.544   0.560   0.569   0.573   0.569   0.560   0.544   0.524   0.501
   0.477   0.453   0.430   0.411   0.394   0.382   0.372   0.367   0.363   0.362
   0.361   0.361
   0.517   0.512   0.497   0.476   0.450   0.426   0.408   0.401   0.410   0.438
   0.485   0.550   0.630   0.717   0.805   0.885   0.949   0.991   1.005   0.991
   0.949   0.885   0.805   0.717   0.630   0.550   0.485   0.438   0.410   0.401
   0.408   0.426   0.450   0.476   0.497   0.512   0.517   0.512   0.497   0.476
   0.450   0.426   0.408   0.401   0.410   0.438   0.485   0.550   0.630   0.717
   0.805   0.885   0.949   0.991   1.005   0.991   0.949   0.885   0.805   0.717
   0.630   0.550   0.485   0.438   0.410   0.401   0.408   0.426   0.450   0.476
   0.497   0.512
   0.665   0.653   0.618   0.564   0.495   0.420   0.351   0.300   0.279   0.300
   0.368   0.485   0.644   0.831   1.027   1.210   1.360   1.458   1.492   1.458
   1.360   1.210   1.027   0.831   0.644   0.485   0.368   0.300   0.279   0.300
   0.351   0.420   0.495   0.564   0.618   0.653   0.665   0.653   0.618   0.564
   0.495   0.420   0.351   0.300   0.279   0.300   0.368   0.485   0.644   0.831
   1.027   1.210   1.360   1.458   1.492   1.458   1.360   1.210   1.027   0.831
   0.644   0.485   0.368   0.300   0.279   0.300   0.351   0.420   0.495   0.564
   0.618   0.653
   0.591   0.584   0.563   0.524   0.464   0.385   0.296   0.215   0.162   0.162
   0.233   0.382   0.604   0.878   1.173   1.454   1.685   1.836   1.889   1.836
   1.685   1.454   1.173   0.878   0.604   0.382   0.233   0.162   0.162   0.215
   0.296   0.385   0.464   0.524   0.563   0.584   0.591   0.584   0.563   0.524
   0.464   0.385   0.296   0.215   0.162   0.162   0.233   0.382   0.604   0.878
   1.173   1.454   1.685   1.836   1.889   1.836   1.685   1.454   1.173   0.878
   0.604   0.382   0.233   0.162   0.162   0.215   0.296   0.385   0.464   0.524
   0.563   0.584
   0.223   0.242   0.294   0.356   0.404   0.415   0.385   0.326   0.270   0.254
   0.314   0.467   0.707   1.008   1.329   1.629   1.870   2.024   2.078   2.024
   1.870   1.629   1.329   1.008   0.707   0.467   0.314   0.254   0.270   0.326
   0.385   0.415   0.404   0.356   0.294   0.242   0.223   0.242   0.294   0.356
   0.404   0.415   0.385   0.326   0.270   0.254   0.314   0.467   0.707   1.008
   1.329   1.629   1.870   2.024   2.078   2.024   1.870   1.629   1.329   1.008
   0.707   0.467   0.314   0.254   0.270   0.326   0.385   0.415   0.404   0.356
   0.294   0.242
  -0.156  -0.103   0.042   0.239   0.436   0.580   0.642   0.630   0.583   0.563
   0.621   0.778   1.017   1.293   1.553   1.761   1.901   1.977   2.001   1.977
   1.901   1.761   1.553   1.293   1.017   0.778   0.621   0.563   0.583   0.630
   0.642   0.580   0.436   0.239   0.042  -0.103  -0.156  -0.103   0.042   0.239
   0.436   0.580   0.642   0.630   0.583   0.563   0.621   0.778   1.017   1.293
   1.553   1.761   1.901   1.977   2.001   1.977   1.901   1.761   1.553   1.293
   1.017   0.778   0.621   0.563   0.583   0.630   0.642   0.580   0.436   0.239
   0.042  -0.103
  -0.096  -0.030   0.153   0.414   0.684   0.888   0.976   0.949   0.869   0.829
   0.902   1.102   1.373   1.627   1.787   1.828   1.782   1.713   1.682   1.713
   1.782   1.828   1.787   1.627   1.373   1.102   0.902   0.829   0.869   0.949
   0.976   0.888   0.684   0.414   0.153  -0.030  -0.096  -0.030   0.153   0.414
   0.684   0.888   0.976   0.949   0.869   0.829   0.902   1.102   1.373   1.627
   1.787   1.828   1.782   1.713   1.682   1.713   1.782   1.828   1.787   1.627
   1.373   1.102   0.902   0.829   0.869   0.949   0.976   0.888   0.684   0.414
   0.153  -0.030
   0.556   0.598   0.728   0.933   1.162   1.321   1.329   1.183   0.975   0.855
   0.932   1.204   1.554   1.823   1.899   1.772   1.533   1.313   1.225   1.313
   1.533   1.772   1.899   1.823   1.554   1.204   0.932   0.855   0.975   1.183
   1.329   1.321   1.162   0.933   0.728   0.598   0.556   0.598   0.728   0.933
   1.162   1.321   1.329   1.183   0.975   0.855   0.932   1.204   1.554   1.823
   1.899   1.772   1.533   1.313   1.225   1.313   1.533   1.772   1.899   1.823
   1.554   1.204   0.932   0.855   0.975   1.183   1.329   1.321   1.162   0.933
   0.728   0.598
   1.433   1.429   1.453   1.555   1.720   1.828   1.740   1.424   1.013   0.738
   0.767   1.087   1.508   1.795   1.807   1.564   1.208   0.909   0.795   0.909
   1.208   1.564   1.807   1.795   1.508   1.087   0.767   0.738   1.013   1.424
   1.740   1.828   1.720   1.555   1.453   1.429   1.433   1.429   1.453   1.555
   1.720   1.828   1.740   1.424   1.013   0.738   0.767   1.087   1.508   1.795
   1.807   1.564   1.208   0.909   0.795   0.909   1.208   1.564   1.807   1.795
   1.508   1.087   0.767   0.738   1.013   1.424   1.740   1.828   1.720   1.555
   1.453   1.429
   1.980   1.931   1.862   1.913   2.108   2.282   2.196   1.763   1.156   0.703
   0.645   0.955   1.376   1.617   1.551   1.256   0.909   0.657   0.568   0.657
   0.909   1.256   1.551   1.617   1.376   0.955   0.645   0.703   1.156   1.763
   2.196   2.282   2.108   1.913   1.862   1.931   1.980   1.931   1.862   1.913
   2.108   2.282   2.196   1.763   1.156   0.703   0.645   0.955   1.376   1.617
   1.551   1.256   0.909   0.657   0.568   0.657   0.909   1.256   1.551   1.617
   1.376   0.955   0.645   0.703   1.156   1.763   2.196   2.282   2.108   1.913
   1.862   1.931
   1.982   1.898   1.769   1.826   2.135   2.471   2.488   2.038   1.328   0.775
   0.668   0.952   1.306   1.428   1.258   0.966   0.746   0.661   0.647   0.661
   0.746   0.966   1.258   1.428   1.306   0.952   0.668   0.775   1.328   2.038
   2.488   2.471   2.135   1.826   1.769   1.898   1.982   1.898   1.769   1.826
   2.135   2.471   2.488   2.038   1.328   0.775   0.668   0.952   1.306   1.428
   1.258   0.966   0.746   0.661   0.647   0.661   0.746   0.966   1.258   1.428
   1.306   0.952   0.668   0.775   1.328   2.038   2.488   2.471   2.135   1.826
   1.769   1.898
   1.698   1.583   1.396   1.435   1.798   2.231   2.331   1.920   1.235   0.732
   0.693   1.006   1.300   1.297   1.040   0.798   0.770   0.903   0.985   0.903
   0.770   0.798   1.040   1.297   1.300   1.006   0.693   0.732   1.235   1.920
   2.331   2.231   1.798   1.435   1.396   1.583   1.698   1.583   1.396   1.435
   1.798   2.231   2.331   1.920   1.235   0.732   0.693   1.006   1.300   1.297
   1.040   0.798   0.770   0.903   0.985   0.903   0.770   0.798   1.040   1.297
   1.300   1.006   0.693   0.732   1.235   1.920   2.331   2.231   1.798   1.435
   1.396   1.583
   1.471   1.336   1.091   1.040   1.297   1.634   1.684   1.309   0.752   0.432
   0.560   0.958   1.244   1.194   0.935   0.786   0.928   1.225   1.375   1.225
   0.928   0.786   0.935   1.194   1.244   0.958   0.560   0.432   0.752   1.309
   1.684   1.634   1.297   1.040   1.091   1.336   1.471   1.336   1.091   1.040
   1.297   1.634   1.684   1.309   0.752   0.432   0.560   0.958   1.244   1.194
   0.935   0.786   0.928   1.225   1.375   1.225   0.928   0.786   0.935   1.194
   1.244   0.958   0.560   0.432   0.752   1.309   1.684   1.634   1.297   1.040
   1.091   1.336
   1.321   1.203   0.965   0.834   0.896   0.995   0.900   0.557   0.182   0.076
   0.340   0.776   1.068   1.069   0.918   0.886   1.098   1.413   1.563   1.413
   1.098   0.886   0.918   1.069   1.068   0.776   0.340   0.076   0.182   0.557
   0.900   0.995   0.896   0.834   0.965   1.203   1.321   1.203   0.965   0.834
   0.896   0.995   0.900   0.557   0.182   0.076   0.340   0.776   1.068   1.069
   0.918   0.886   1.098   1.413   1.563   1.413   1.098   0.886   0.918   1.069
   1.068   0.776   0.340   0.076   0.182   0.557   0.900   0.995   0.896   0.834
   0.965   1.203
   1.016   0.973   0.880   0.803   0.748   0.648   0.442   0.176  -0.006   0.026
   0.271   0.591   0.827   0.921   0.947   1.018   1.176   1.350   1.426   1.350
   1.176   1.018   0.947   0.921   0.827   0.591   0.271   0.026  -0.006   0.176
   0.442   0.648   0.748   0.803   0.880   0.973   1.016   0.973   0.880   0.803
   0.748   0.648   0.442   0.176  -0.006   0.026   0.271   0.591   0.827   0.921
   0.947   1.018   1.176   1.350   1.426   1.350   1.176   1.018   0.947   0.921
   0.827   0.591   0.271   0.026  -0.006   0.176   0.442   0.648   0.748   0.803
   0.880   0.973
   0.492   0.560   0.713   0.831   0.815   0.658   0.452   0.313   0.294   0.359
   0.442   0.518   0.623   0.790   0.985   1.124   1.152   1.106   1.075   1.106
   1.152   1.124   0.985   0.790   0.623   0.518   0.442   0.359   0.294   0.313
   0.452   0.658   0.815   0.831   0.713   0.560   0.492   0.560   0.713   0.831
   0.815   0.658   0.452   0.313   0.294   0.359   0.442   0.518   0.623   0.790
   0.985   1.124   1.152   1.106   1.075   1.106   1.152   1.124   0.985   0.790
   0.623   0.518   0.442   0.359   0.294   0.313   0.452   0.658   0.815   0.831
   0.713   0.560
   0.048   0.202   0.550   0.850   0.924   0.795   0.638   0.603   0.679   0.729
   0.656   0.528   0.518   0.716   1.010   1.178   1.101   0.893   0.785   0.893
   1.101   1.178   1.010   0.716   0.518   0.528   0.656   0.729   0.679   0.603
   0.638   0.795   0.924   0.850   0.550   0.202   0.048   0.202   0.550   0.850
   0.924   0.795   0.638   0.603   0.679   0.729   0.656   0.528   0.518   0.716
   1.010   1.178   1.101   0.893   0.785   0.893   1.101   1.178   1.010   0.716
   0.518   0.528   0.656   0.729   0.679   0.603   0.638   0.795   0.924   0.850
   0.550   0.202
TEXTURE_INDEX=   2.2627
ERR_CF 220         1078     314   89.24   34.54
ERR_CF 200         1076     410   83.38   43.35
ERR_CF 111         1080     334   83.27   29.42
