TEXEVAL                                                                         
Analysis started on 23-Sep-19 11:10:54                                          
 LMAX=14LFMAX=03 CUBIC ORTHO   
 220      5.00 5.00
 200      5.00 5.00
 111      5.00 5.00
 220       5.00   72    0 5.00   15    0
   2.522   2.522   2.522   2.522   2.522   2.522   2.522   2.522   2.522   2.522
   2.522   2.522   2.522   2.522   2.522   2.522   2.522   2.522   2.522   2.522
   2.522   2.522   2.522   2.522   2.522   2.522   2.522   2.522   2.522   2.522
   2.522   2.522   2.522   2.522   2.522   2.522   2.522   2.522   2.522   2.522
   2.522   2.522   2.522   2.522   2.522   2.522   2.522   2.522   2.522   2.522
   2.522   2.522   2.522   2.522   2.522   2.522   2.522   2.522   2.522   2.522
   2.522   2.522   2.522   2.522   2.522   2.522   2.522   2.522   2.522   2.522
   2.522   2.522
   1.086   1.145   1.053   1.090   1.201   1.129   1.221   1.293   1.758   1.555
   1.987   2.085   2.438   2.681   2.824   3.146   3.315   3.370   3.057   3.370
   3.315   3.146   2.824   2.681   2.438   2.085   1.987   1.555   1.758   1.293
   1.221   1.129   1.201   1.090   1.053   1.145   1.086   1.145   1.053   1.090
   1.201   1.129   1.221   1.293   1.758   1.555   1.987   2.085   2.438   2.681
   2.824   3.146   3.315   3.370   3.057   3.370   3.315   3.146   2.824   2.681
   2.438   2.085   1.987   1.555   1.758   1.293   1.221   1.129   1.201   1.090
   1.053   1.145
   0.183   0.258   0.220   0.133   0.331   0.253   0.379   0.418   0.826   0.523
   0.957   1.142   1.504   1.866   2.356   2.891   3.258   3.857   3.387   3.857
   3.258   2.891   2.356   1.866   1.504   1.142   0.957   0.523   0.826   0.418
   0.379   0.253   0.331   0.133   0.220   0.258   0.183   0.258   0.220   0.133
   0.331   0.253   0.379   0.418   0.826   0.523   0.957   1.142   1.504   1.866
   2.356   2.891   3.258   3.857   3.387   3.857   3.258   2.891   2.356   1.866
   1.504   1.142   0.957   0.523   0.826   0.418   0.379   0.253   0.331   0.133
   0.220   0.258
   0.123   0.118   0.128   0.096   0.050   0.095   0.202   0.243   0.428   0.272
   0.481   0.491   0.909   1.321   1.825   2.052   2.596   3.591   3.885   3.591
   2.596   2.052   1.825   1.321   0.909   0.491   0.481   0.272   0.428   0.243
   0.202   0.095   0.050   0.096   0.128   0.118   0.123   0.118   0.128   0.096
   0.050   0.095   0.202   0.243   0.428   0.272   0.481   0.491   0.909   1.321
   1.825   2.052   2.596   3.591   3.885   3.591   2.596   2.052   1.825   1.321
   0.909   0.491   0.481   0.272   0.428   0.243   0.202   0.095   0.050   0.096
   0.128   0.118
   0.182   0.084   0.150   0.205   0.156   0.123   0.219   0.245   0.388   0.515
   0.487   0.550   0.732   1.050   1.222   1.515   1.948   2.814   3.421   2.814
   1.948   1.515   1.222   1.050   0.732   0.550   0.487   0.515   0.388   0.245
   0.219   0.123   0.156   0.205   0.150   0.084   0.182   0.084   0.150   0.205
   0.156   0.123   0.219   0.245   0.388   0.515   0.487   0.550   0.732   1.050
   1.222   1.515   1.948   2.814   3.421   2.814   1.948   1.515   1.222   1.050
   0.732   0.550   0.487   0.515   0.388   0.245   0.219   0.123   0.156   0.205
   0.150   0.084
   0.483   0.498   0.288   0.351   0.128   0.174   0.108   0.158   0.321   0.330
   0.498   0.572   0.557   0.907   1.028   1.662   2.088   2.324   2.095   2.324
   2.088   1.662   1.028   0.907   0.557   0.572   0.498   0.330   0.321   0.158
   0.108   0.174   0.128   0.351   0.288   0.498   0.483   0.498   0.288   0.351
   0.128   0.174   0.108   0.158   0.321   0.330   0.498   0.572   0.557   0.907
   1.028   1.662   2.088   2.324   2.095   2.324   2.088   1.662   1.028   0.907
   0.557   0.572   0.498   0.330   0.321   0.158   0.108   0.174   0.128   0.351
   0.288   0.498
   0.563   0.654   0.515   0.350   0.382   0.408   0.397   0.367   0.364   0.379
   0.767   0.573   0.838   0.905   1.406   2.044   2.055   1.517   1.177   1.517
   2.055   2.044   1.406   0.905   0.838   0.573   0.767   0.379   0.364   0.367
   0.397   0.408   0.382   0.350   0.515   0.654   0.563   0.654   0.515   0.350
   0.382   0.408   0.397   0.367   0.364   0.379   0.767   0.573   0.838   0.905
   1.406   2.044   2.055   1.517   1.177   1.517   2.055   2.044   1.406   0.905
   0.838   0.573   0.767   0.379   0.364   0.367   0.397   0.408   0.382   0.350
   0.515   0.654
   0.259   0.823   0.487   0.249   0.434   0.351   0.451   0.454   0.282   0.783
   0.882   0.982   1.101   0.817   1.420   1.844   1.597   1.184   0.303   1.184
   1.597   1.844   1.420   0.817   1.101   0.982   0.882   0.783   0.282   0.454
   0.451   0.351   0.434   0.249   0.487   0.823   0.259   0.823   0.487   0.249
   0.434   0.351   0.451   0.454   0.282   0.783   0.882   0.982   1.101   0.817
   1.420   1.844   1.597   1.184   0.303   1.184   1.597   1.844   1.420   0.817
   1.101   0.982   0.882   0.783   0.282   0.454   0.451   0.351   0.434   0.249
   0.487   0.823
   0.154   0.895   0.551   0.189   0.203   0.411   0.130   0.361   0.121   0.579
   0.658   0.720   0.911   0.870   0.993   1.146   0.857   0.991   0.421   0.991
   0.857   1.146   0.993   0.870   0.911   0.720   0.658   0.579   0.121   0.361
   0.130   0.411   0.203   0.189   0.551   0.895   0.154   0.895   0.551   0.189
   0.203   0.411   0.130   0.361   0.121   0.579   0.658   0.720   0.911   0.870
   0.993   1.146   0.857   0.991   0.421   0.991   0.857   1.146   0.993   0.870
   0.911   0.720   0.658   0.579   0.121   0.361   0.130   0.411   0.203   0.189
   0.551   0.895
   0.515   1.109   0.982   0.600   0.616   0.683   1.009   0.864   0.540   0.400
   1.389   1.084   1.087   1.486   1.164   0.774   0.692   0.726   0.621   0.726
   0.692   0.774   1.164   1.486   1.087   1.084   1.389   0.400   0.540   0.864
   1.009   0.683   0.616   0.600   0.982   1.109   0.515   1.109   0.982   0.600
   0.616   0.683   1.009   0.864   0.540   0.400   1.389   1.084   1.087   1.486
   1.164   0.774   0.692   0.726   0.621   0.726   0.692   0.774   1.164   1.486
   1.087   1.084   1.389   0.400   0.540   0.864   1.009   0.683   0.616   0.600
   0.982   1.109
   1.820   2.308   1.519   1.180   1.383   1.044   1.142   1.351   0.833   0.459
   1.379   1.487   1.506   1.446   1.384   0.604   0.482   0.854   1.104   0.854
   0.482   0.604   1.384   1.446   1.506   1.487   1.379   0.459   0.833   1.351
   1.142   1.044   1.383   1.180   1.519   2.308   1.820   2.308   1.519   1.180
   1.383   1.044   1.142   1.351   0.833   0.459   1.379   1.487   1.506   1.446
   1.384   0.604   0.482   0.854   1.104   0.854   0.482   0.604   1.384   1.446
   1.506   1.487   1.379   0.459   0.833   1.351   1.142   1.044   1.383   1.180
   1.519   2.308
   2.620   3.215   2.126   0.928   1.213   1.427   0.799   1.198   0.494   0.282
   0.420   0.554   1.309   1.071   1.640   0.548   0.149   0.573   1.201   0.573
   0.149   0.548   1.640   1.071   1.309   0.554   0.420   0.282   0.494   1.198
   0.799   1.427   1.213   0.928   2.126   3.215   2.620   3.215   2.126   0.928
   1.213   1.427   0.799   1.198   0.494   0.282   0.420   0.554   1.309   1.071
   1.640   0.548   0.149   0.573   1.201   0.573   0.149   0.548   1.640   1.071
   1.309   0.554   0.420   0.282   0.494   1.198   0.799   1.427   1.213   0.928
   2.126   3.215
   2.245   3.470   3.215   1.659   1.692   2.341   1.220   0.968   0.561   0.094
   0.854   0.534   1.777   1.945   2.600   1.692   0.601   0.785   0.905   0.785
   0.601   1.692   2.600   1.945   1.777   0.534   0.854   0.094   0.561   0.968
   1.220   2.341   1.692   1.659   3.215   3.470   2.245   3.470   3.215   1.659
   1.692   2.341   1.220   0.968   0.561   0.094   0.854   0.534   1.777   1.945
   2.600   1.692   0.601   0.785   0.905   0.785   0.601   1.692   2.600   1.945
   1.777   0.534   0.854   0.094   0.561   0.968   1.220   2.341   1.692   1.659
   3.215   3.470
   0.971   1.819   2.485   1.957   1.762   2.324   1.612   1.934   1.241   0.128
   0.821   0.743   1.590   1.906   1.895   1.906   0.631   1.246   1.522   1.246
   0.631   1.906   1.895   1.906   1.590   0.743   0.821   0.128   1.241   1.934
   1.612   2.324   1.762   1.957   2.485   1.819   0.971   1.819   2.485   1.957
   1.762   2.324   1.612   1.934   1.241   0.128   0.821   0.743   1.590   1.906
   1.895   1.906   0.631   1.246   1.522   1.246   0.631   1.906   1.895   1.906
   1.590   0.743   0.821   0.128   1.241   1.934   1.612   2.324   1.762   1.957
   2.485   1.819
   0.906   0.607   1.444   0.700   0.568   1.838   1.925   1.708   1.436   0.559
   0.298   0.612   0.948   1.707   0.893   1.271   1.168   1.119   1.097   1.119
   1.168   1.271   0.893   1.707   0.948   0.612   0.298   0.559   1.436   1.708
   1.925   1.838   0.568   0.700   1.444   0.607   0.906   0.607   1.444   0.700
   0.568   1.838   1.925   1.708   1.436   0.559   0.298   0.612   0.948   1.707
   0.893   1.271   1.168   1.119   1.097   1.119   1.168   1.271   0.893   1.707
   0.948   0.612   0.298   0.559   1.436   1.708   1.925   1.838   0.568   0.700
   1.444   0.607
 200       5.00   72    0 5.00   15    0
   0.530   0.530   0.530   0.530   0.530   0.530   0.530   0.530   0.530   0.530
   0.530   0.530   0.530   0.530   0.530   0.530   0.530   0.530   0.530   0.530
   0.530   0.530   0.530   0.530   0.530   0.530   0.530   0.530   0.530   0.530
   0.530   0.530   0.530   0.530   0.530   0.530   0.530   0.530   0.530   0.530
   0.530   0.530   0.530   0.530   0.530   0.530   0.530   0.530   0.530   0.530
   0.530   0.530   0.530   0.530   0.530   0.530   0.530   0.530   0.530   0.530
   0.530   0.530   0.530   0.530   0.530   0.530   0.530   0.530   0.530   0.530
   0.530   0.530
   0.590   0.592   0.469   0.509   0.551   0.533   0.463   0.467   0.457   0.499
   0.566   0.575   0.539   0.512   0.674   0.626   0.533   0.578   0.715   0.578
   0.533   0.626   0.674   0.512   0.539   0.575   0.566   0.499   0.457   0.467
   0.463   0.533   0.551   0.509   0.469   0.592   0.590   0.592   0.469   0.509
   0.551   0.533   0.463   0.467   0.457   0.499   0.566   0.575   0.539   0.512
   0.674   0.626   0.533   0.578   0.715   0.578   0.533   0.626   0.674   0.512
   0.539   0.575   0.566   0.499   0.457   0.467   0.463   0.533   0.551   0.509
   0.469   0.592
   0.484   0.473   0.325   0.483   0.480   0.559   0.505   0.553   0.420   0.395
   0.537   0.491   0.553   0.525   0.642   0.617   0.501   0.489   0.831   0.489
   0.501   0.617   0.642   0.525   0.553   0.491   0.537   0.395   0.420   0.553
   0.505   0.559   0.480   0.483   0.325   0.473   0.484   0.473   0.325   0.483
   0.480   0.559   0.505   0.553   0.420   0.395   0.537   0.491   0.553   0.525
   0.642   0.617   0.501   0.489   0.831   0.489   0.501   0.617   0.642   0.525
   0.553   0.491   0.537   0.395   0.420   0.553   0.505   0.559   0.480   0.483
   0.325   0.473
   0.536   0.633   0.515   0.754   0.467   0.600   0.684   0.610   0.451   0.383
   0.617   0.494   0.525   0.529   0.562   0.550   0.641   0.623   0.772   0.623
   0.641   0.550   0.562   0.529   0.525   0.494   0.617   0.383   0.451   0.610
   0.684   0.600   0.467   0.754   0.515   0.633   0.536   0.633   0.515   0.754
   0.467   0.600   0.684   0.610   0.451   0.383   0.617   0.494   0.525   0.529
   0.562   0.550   0.641   0.623   0.772   0.623   0.641   0.550   0.562   0.529
   0.525   0.494   0.617   0.383   0.451   0.610   0.684   0.600   0.467   0.754
   0.515   0.633
   0.818   0.961   0.991   1.137   0.756   0.659   0.636   0.534   0.554   0.604
   0.592   0.437   0.481   0.403   0.491   0.592   0.541   0.696   0.452   0.696
   0.541   0.592   0.491   0.403   0.481   0.437   0.592   0.604   0.554   0.534
   0.636   0.659   0.756   1.137   0.991   0.961   0.818   0.961   0.991   1.137
   0.756   0.659   0.636   0.534   0.554   0.604   0.592   0.437   0.481   0.403
   0.491   0.592   0.541   0.696   0.452   0.696   0.541   0.592   0.491   0.403
   0.481   0.437   0.592   0.604   0.554   0.534   0.636   0.659   0.756   1.137
   0.991   0.961
   1.229   1.409   1.617   1.708   1.321   1.361   1.185   1.083   1.064   0.966
   0.620   0.369   0.506   0.282   0.392   0.494   0.415   0.634   0.359   0.634
   0.415   0.494   0.392   0.282   0.506   0.369   0.620   0.966   1.064   1.083
   1.185   1.361   1.321   1.708   1.617   1.409   1.229   1.409   1.617   1.708
   1.321   1.361   1.185   1.083   1.064   0.966   0.620   0.369   0.506   0.282
   0.392   0.494   0.415   0.634   0.359   0.634   0.415   0.494   0.392   0.282
   0.506   0.369   0.620   0.966   1.064   1.083   1.185   1.361   1.321   1.708
   1.617   1.409
   0.928   1.173   1.561   1.473   1.261   1.562   1.912   1.957   1.708   1.525
   1.123   0.714   0.731   0.605   0.514   0.631   0.559   0.461   0.262   0.461
   0.559   0.631   0.514   0.605   0.731   0.714   1.123   1.525   1.708   1.957
   1.912   1.562   1.261   1.473   1.561   1.173   0.928   1.173   1.561   1.473
   1.261   1.562   1.912   1.957   1.708   1.525   1.123   0.714   0.731   0.605
   0.514   0.631   0.559   0.461   0.262   0.461   0.559   0.631   0.514   0.605
   0.731   0.714   1.123   1.525   1.708   1.957   1.912   1.562   1.261   1.473
   1.561   1.173
   0.250   0.360   0.878   0.447   0.564   0.595   1.228   1.755   1.834   1.936
   1.684   1.193   1.103   1.206   0.840   0.881   0.551   0.366   0.216   0.366
   0.551   0.881   0.840   1.206   1.103   1.193   1.684   1.936   1.834   1.755
   1.228   0.595   0.564   0.447   0.878   0.360   0.250   0.360   0.878   0.447
   0.564   0.595   1.228   1.755   1.834   1.936   1.684   1.193   1.103   1.206
   0.840   0.881   0.551   0.366   0.216   0.366   0.551   0.881   0.840   1.206
   1.103   1.193   1.684   1.936   1.834   1.755   1.228   0.595   0.564   0.447
   0.878   0.360
   0.235   0.298   0.336   0.045   0.273   0.086   0.295   0.868   1.058   1.336
   1.590   1.484   1.486   0.913   0.770   0.533   0.494   0.496   0.478   0.496
   0.494   0.533   0.770   0.913   1.486   1.484   1.590   1.336   1.058   0.868
   0.295   0.086   0.273   0.045   0.336   0.298   0.235   0.298   0.336   0.045
   0.273   0.086   0.295   0.868   1.058   1.336   1.590   1.484   1.486   0.913
   0.770   0.533   0.494   0.496   0.478   0.496   0.494   0.533   0.770   0.913
   1.486   1.484   1.590   1.336   1.058   0.868   0.295   0.086   0.273   0.045
   0.336   0.298
   0.337   0.234   0.080   0.000   0.147   0.111   0.206   0.401   0.269   0.361
   1.101   1.283   1.334   0.569   0.553   0.499   0.417   0.326   0.262   0.326
   0.417   0.499   0.553   0.569   1.334   1.283   1.101   0.361   0.269   0.401
   0.206   0.111   0.147   0.000   0.080   0.234   0.337   0.234   0.080   0.000
   0.147   0.111   0.206   0.401   0.269   0.361   1.101   1.283   1.334   0.569
   0.553   0.499   0.417   0.326   0.262   0.326   0.417   0.499   0.553   0.569
   1.334   1.283   1.101   0.361   0.269   0.401   0.206   0.111   0.147   0.000
   0.080   0.234
   0.129   0.305   0.393   0.103   0.120   0.088   0.383   0.325   0.568   0.337
   1.188   1.524   1.283   0.679   0.755   1.075   0.231   0.332   0.229   0.332
   0.231   1.075   0.755   0.679   1.283   1.524   1.188   0.337   0.568   0.325
   0.383   0.088   0.120   0.103   0.393   0.305   0.129   0.305   0.393   0.103
   0.120   0.088   0.383   0.325   0.568   0.337   1.188   1.524   1.283   0.679
   0.755   1.075   0.231   0.332   0.229   0.332   0.231   1.075   0.755   0.679
   1.283   1.524   1.188   0.337   0.568   0.325   0.383   0.088   0.120   0.103
   0.393   0.305
   0.163   0.524   0.393   0.118   0.418   0.428   0.451   0.344   0.467   0.487
   0.975   1.479   1.457   0.419   0.604   0.970   0.558   0.675   0.321   0.675
   0.558   0.970   0.604   0.419   1.457   1.479   0.975   0.487   0.467   0.344
   0.451   0.428   0.418   0.118   0.393   0.524   0.163   0.524   0.393   0.118
   0.418   0.428   0.451   0.344   0.467   0.487   0.975   1.479   1.457   0.419
   0.604   0.970   0.558   0.675   0.321   0.675   0.558   0.970   0.604   0.419
   1.457   1.479   0.975   0.487   0.467   0.344   0.451   0.428   0.418   0.118
   0.393   0.524
   0.163   0.674   0.277   0.127   0.591   0.693   0.568   0.693   0.485   0.368
   0.407   0.858   0.921   0.493   0.272   0.660   0.794   0.489   0.341   0.489
   0.794   0.660   0.272   0.493   0.921   0.858   0.407   0.368   0.485   0.693
   0.568   0.693   0.591   0.127   0.277   0.674   0.163   0.674   0.277   0.127
   0.591   0.693   0.568   0.693   0.485   0.368   0.407   0.858   0.921   0.493
   0.272   0.660   0.794   0.489   0.341   0.489   0.794   0.660   0.272   0.493
   0.921   0.858   0.407   0.368   0.485   0.693   0.568   0.693   0.591   0.127
   0.277   0.674
   0.055   0.599   0.876   1.015   0.741   0.719   0.977   1.638   1.077   0.889
   0.721   0.692   0.479   0.805   0.382   0.896   0.984   0.971   0.497   0.971
   0.984   0.896   0.382   0.805   0.479   0.692   0.721   0.889   1.077   1.638
   0.977   0.719   0.741   1.015   0.876   0.599   0.055   0.599   0.876   1.015
   0.741   0.719   0.977   1.638   1.077   0.889   0.721   0.692   0.479   0.805
   0.382   0.896   0.984   0.971   0.497   0.971   0.984   0.896   0.382   0.805
   0.479   0.692   0.721   0.889   1.077   1.638   0.977   0.719   0.741   1.015
   0.876   0.599
   1.392   1.201   1.731   2.534   0.948   1.496   1.339   1.985   1.057   1.754
   1.820   1.577   1.759   1.804   1.057   2.035   1.294   1.654   1.294   1.654
   1.294   2.035   1.057   1.804   1.759   1.577   1.820   1.754   1.057   1.985
   1.339   1.496   0.948   2.534   1.731   1.201   1.392   1.201   1.731   2.534
   0.948   1.496   1.339   1.985   1.057   1.754   1.820   1.577   1.759   1.804
   1.057   2.035   1.294   1.654   1.294   1.654   1.294   2.035   1.057   1.804
   1.759   1.577   1.820   1.754   1.057   1.985   1.339   1.496   0.948   2.534
   1.731   1.201
 111       5.00   72    0 5.00   15    0
   0.191   0.191   0.191   0.191   0.191   0.191   0.191   0.191   0.191   0.191
   0.191   0.191   0.191   0.191   0.191   0.191   0.191   0.191   0.191   0.191
   0.191   0.191   0.191   0.191   0.191   0.191   0.191   0.191   0.191   0.191
   0.191   0.191   0.191   0.191   0.191   0.191   0.191   0.191   0.191   0.191
   0.191   0.191   0.191   0.191   0.191   0.191   0.191   0.191   0.191   0.191
   0.191   0.191   0.191   0.191   0.191   0.191   0.191   0.191   0.191   0.191
   0.191   0.191   0.191   0.191   0.191   0.191   0.191   0.191   0.191   0.191
   0.191   0.191
   0.118   0.126   0.184   0.135   0.133   0.140   0.156   0.187   0.150   0.181
   0.138   0.196   0.196   0.147   0.219   0.147   0.188   0.190   0.232   0.190
   0.188   0.147   0.219   0.147   0.196   0.196   0.138   0.181   0.150   0.187
   0.156   0.140   0.133   0.135   0.184   0.126   0.118   0.126   0.184   0.135
   0.133   0.140   0.156   0.187   0.150   0.181   0.138   0.196   0.196   0.147
   0.219   0.147   0.188   0.190   0.232   0.190   0.188   0.147   0.219   0.147
   0.196   0.196   0.138   0.181   0.150   0.187   0.156   0.140   0.133   0.135
   0.184   0.126
   0.150   0.138   0.236   0.218   0.211   0.187   0.161   0.189   0.190   0.165
   0.193   0.157   0.192   0.202   0.256   0.194   0.268   0.267   0.256   0.267
   0.268   0.194   0.256   0.202   0.192   0.157   0.193   0.165   0.190   0.189
   0.161   0.187   0.211   0.218   0.236   0.138   0.150   0.138   0.236   0.218
   0.211   0.187   0.161   0.189   0.190   0.165   0.193   0.157   0.192   0.202
   0.256   0.194   0.268   0.267   0.256   0.267   0.268   0.194   0.256   0.202
   0.192   0.157   0.193   0.165   0.190   0.189   0.161   0.187   0.211   0.218
   0.236   0.138
   0.744   0.636   0.606   0.601   0.593   0.424   0.311   0.381   0.309   0.249
   0.264   0.160   0.136   0.249   0.293   0.241   0.315   0.331   0.318   0.331
   0.315   0.241   0.293   0.249   0.136   0.160   0.264   0.249   0.309   0.381
   0.311   0.424   0.593   0.601   0.606   0.636   0.744   0.636   0.606   0.601
   0.593   0.424   0.311   0.381   0.309   0.249   0.264   0.160   0.136   0.249
   0.293   0.241   0.315   0.331   0.318   0.331   0.315   0.241   0.293   0.249
   0.136   0.160   0.264   0.249   0.309   0.381   0.311   0.424   0.593   0.601
   0.606   0.636
   3.405   2.961   2.469   2.071   1.666   1.039   0.723   0.570   0.366   0.228
   0.188   0.095   0.034   0.254   0.290   0.124   0.223   0.267   0.296   0.267
   0.223   0.124   0.290   0.254   0.034   0.095   0.188   0.228   0.366   0.570
   0.723   1.039   1.666   2.071   2.469   2.961   3.405   2.961   2.469   2.071
   1.666   1.039   0.723   0.570   0.366   0.228   0.188   0.095   0.034   0.254
   0.290   0.124   0.223   0.267   0.296   0.267   0.223   0.124   0.290   0.254
   0.034   0.095   0.188   0.228   0.366   0.570   0.723   1.039   1.666   2.071
   2.469   2.961
   5.307   5.091   4.468   3.956   3.277   2.378   1.756   1.254   0.726   0.340
   0.314   0.132   0.123   0.179   0.251   0.145   0.163   0.161   0.166   0.161
   0.163   0.145   0.251   0.179   0.123   0.132   0.314   0.340   0.726   1.254
   1.756   2.378   3.277   3.956   4.468   5.091   5.307   5.091   4.468   3.956
   3.277   2.378   1.756   1.254   0.726   0.340   0.314   0.132   0.123   0.179
   0.251   0.145   0.163   0.161   0.166   0.161   0.163   0.145   0.251   0.179
   0.123   0.132   0.314   0.340   0.726   1.254   1.756   2.378   3.277   3.956
   4.468   5.091
   4.254   3.984   3.688   3.593   3.555   3.087   2.566   2.205   1.805   1.291
   0.600   0.313   0.299   0.206   0.217   0.196   0.177   0.113   0.080   0.113
   0.177   0.196   0.217   0.206   0.299   0.313   0.600   1.291   1.805   2.205
   2.566   3.087   3.555   3.593   3.688   3.984   4.254   3.984   3.688   3.593
   3.555   3.087   2.566   2.205   1.805   1.291   0.600   0.313   0.299   0.206
   0.217   0.196   0.177   0.113   0.080   0.113   0.177   0.196   0.217   0.206
   0.299   0.313   0.600   1.291   1.805   2.205   2.566   3.087   3.555   3.593
   3.688   3.984
   2.326   1.996   2.152   1.783   2.395   2.296   2.320   2.657   2.464   1.965
   1.307   0.820   0.519   0.477   0.282   0.210   0.345   0.223   0.122   0.223
   0.345   0.210   0.282   0.477   0.519   0.820   1.307   1.965   2.464   2.657
   2.320   2.296   2.395   1.783   2.152   1.996   2.326   1.996   2.152   1.783
   2.395   2.296   2.320   2.657   2.464   1.965   1.307   0.820   0.519   0.477
   0.282   0.210   0.345   0.223   0.122   0.223   0.345   0.210   0.282   0.477
   0.519   0.820   1.307   1.965   2.464   2.657   2.320   2.296   2.395   1.783
   2.152   1.996
   0.891   1.015   1.154   0.885   1.258   1.512   1.851   2.745   2.586   2.109
   1.928   1.146   0.948   0.860   0.647   0.438   0.530   0.437   0.497   0.437
   0.530   0.438   0.647   0.860   0.948   1.146   1.928   2.109   2.586   2.745
   1.851   1.512   1.258   0.885   1.154   1.015   0.891   1.015   1.154   0.885
   1.258   1.512   1.851   2.745   2.586   2.109   1.928   1.146   0.948   0.860
   0.647   0.438   0.530   0.437   0.497   0.437   0.530   0.438   0.647   0.860
   0.948   1.146   1.928   2.109   2.586   2.745   1.851   1.512   1.258   0.885
   1.154   1.015
   0.893   0.777   0.313   0.685   0.824   1.112   1.326   1.942   2.004   2.052
   2.047   1.492   1.763   1.505   0.946   0.546   0.493   0.549   1.086   0.549
   0.493   0.546   0.946   1.505   1.763   1.492   2.047   2.052   2.004   1.942
   1.326   1.112   0.824   0.685   0.313   0.777   0.893   0.777   0.313   0.685
   0.824   1.112   1.326   1.942   2.004   2.052   2.047   1.492   1.763   1.505
   0.946   0.546   0.493   0.549   1.086   0.549   0.493   0.546   0.946   1.505
   1.763   1.492   2.047   2.052   2.004   1.942   1.326   1.112   0.824   0.685
   0.313   0.777
   0.754   0.593   0.294   0.438   0.653   0.733   0.650   0.954   1.510   1.696
   1.296   1.486   1.742   1.497   0.994   0.551   0.683   0.647   0.902   0.647
   0.683   0.551   0.994   1.497   1.742   1.486   1.296   1.696   1.510   0.954
   0.650   0.733   0.653   0.438   0.294   0.593   0.754   0.593   0.294   0.438
   0.653   0.733   0.650   0.954   1.510   1.696   1.296   1.486   1.742   1.497
   0.994   0.551   0.683   0.647   0.902   0.647   0.683   0.551   0.994   1.497
   1.742   1.486   1.296   1.696   1.510   0.954   0.650   0.733   0.653   0.438
   0.294   0.593
   0.913   0.594   0.580   0.263   0.364   0.675   0.468   0.470   1.314   1.519
   0.976   1.038   1.278   1.191   1.348   1.118   1.009   0.637   0.810   0.637
   1.009   1.118   1.348   1.191   1.278   1.038   0.976   1.519   1.314   0.470
   0.468   0.675   0.364   0.263   0.580   0.594   0.913   0.594   0.580   0.263
   0.364   0.675   0.468   0.470   1.314   1.519   0.976   1.038   1.278   1.191
   1.348   1.118   1.009   0.637   0.810   0.637   1.009   1.118   1.348   1.191
   1.278   1.038   0.976   1.519   1.314   0.470   0.468   0.675   0.364   0.263
   0.580   0.594
   0.808   0.579   0.363   0.151   0.250   0.386   0.270   0.203   0.589   1.151
   0.812   0.583   1.010   0.745   1.085   1.273   1.350   1.121   1.007   1.121
   1.350   1.273   1.085   0.745   1.010   0.583   0.812   1.151   0.589   0.203
   0.270   0.386   0.250   0.151   0.363   0.579   0.808   0.579   0.363   0.151
   0.250   0.386   0.270   0.203   0.589   1.151   0.812   0.583   1.010   0.745
   1.085   1.273   1.350   1.121   1.007   1.121   1.350   1.273   1.085   0.745
   1.010   0.583   0.812   1.151   0.589   0.203   0.270   0.386   0.250   0.151
   0.363   0.579
   0.235   0.355   0.004   0.130   0.332   0.132   0.086   0.102   0.354   0.532
   0.318   0.178   0.425   0.132   0.724   0.934   1.179   0.965   0.683   0.965
   1.179   0.934   0.724   0.132   0.425   0.178   0.318   0.532   0.354   0.102
   0.086   0.132   0.332   0.130   0.004   0.355   0.235   0.355   0.004   0.130
   0.332   0.132   0.086   0.102   0.354   0.532   0.318   0.178   0.425   0.132
   0.724   0.934   1.179   0.965   0.683   0.965   1.179   0.934   0.724   0.132
   0.425   0.178   0.318   0.532   0.354   0.102   0.086   0.132   0.332   0.130
   0.004   0.355
   0.612   0.847   0.249   0.700   1.210   0.907   0.437   0.760   0.993   0.849
   1.309   0.435   0.916   0.579   1.732   1.508   1.569   0.989   0.234   0.989
   1.569   1.508   1.732   0.579   0.916   0.435   1.309   0.849   0.993   0.760
   0.437   0.907   1.210   0.700   0.249   0.847   0.612   0.847   0.249   0.700
   1.210   0.907   0.437   0.760   0.993   0.849   1.309   0.435   0.916   0.579
   1.732   1.508   1.569   0.989   0.234   0.989   1.569   1.508   1.732   0.579
   0.916   0.435   1.309   0.849   0.993   0.760   0.437   0.907   1.210   0.700
   0.249   0.847
  4  1      7.4827719E-01
  4  2     -7.1095404E-01
  4  3     -2.1681726E-01
  6  1      1.8310611E+00
  6  2     -2.3768673E+00
  6  3      9.6258552E-01
  6  4      2.8183185E-01
  8  1     -2.5909722E-01
  8  2     -1.4579867E-01
  8  3     -3.1893425E-01
  8  4      6.8768585E-01
  8  5     -4.6176153E-01
 10  1     -3.5045261E-01
 10  2     -3.9509142E-01
 10  3      8.7495276E-01
 10  4     -2.7527015E-01
 10  5      1.2874076E-01
 10  6     -1.0817081E-01
 12  1     -4.2362447E-01  6.5710041E-01
 12  2     -3.5081414E-01 -1.7565576E+00
 12  3     -6.8333185E-02  1.7984895E+00
 12  4      1.1023665E-01 -7.4535843E-01
 12  5     -1.1430482E-01  4.0670695E-01
 12  6     -4.5193800E-01  6.0043208E-01
 12  7      3.1218991E-01  6.5589725E-01
 14  1     -7.2573265E-01
 14  2      6.5437859E-02
 14  3     -3.3396107E-01
 14  4      3.8927526E-01
 14  5     -2.0509436E-01
 14  6     -1.4958096E-02
 14  7      7.1533917E-01
 14  8     -8.8755417E-01
 220       5.00   72    0 5.00   18    0
   1.961   1.962   1.964   1.969   1.974   1.981   1.990   1.999   2.008   2.018
   2.028   2.038   2.048   2.056   2.063   2.069   2.073   2.076   2.077   2.076
   2.073   2.069   2.063   2.056   2.048   2.038   2.028   2.018   2.008   1.999
   1.990   1.981   1.974   1.969   1.964   1.962   1.961   1.962   1.964   1.969
   1.974   1.981   1.990   1.999   2.008   2.018   2.028   2.038   2.048   2.056
   2.063   2.069   2.073   2.076   2.077   2.076   2.073   2.069   2.063   2.056
   2.048   2.038   2.028   2.018   2.008   1.999   1.990   1.981   1.974   1.969
   1.964   1.962
   1.371   1.377   1.395   1.423   1.463   1.512   1.571   1.637   1.710   1.787
   1.866   1.945   2.020   2.090   2.151   2.201   2.239   2.262   2.270   2.262
   2.239   2.201   2.151   2.090   2.020   1.945   1.866   1.787   1.710   1.637
   1.571   1.512   1.463   1.423   1.395   1.377   1.371   1.377   1.395   1.423
   1.463   1.512   1.571   1.637   1.710   1.787   1.866   1.945   2.020   2.090
   2.151   2.201   2.239   2.262   2.270   2.262   2.239   2.201   2.151   2.090
   2.020   1.945   1.866   1.787   1.710   1.637   1.571   1.512   1.463   1.423
   1.395   1.377
   0.624   0.632   0.656   0.696   0.755   0.832   0.929   1.047   1.183   1.336
   1.502   1.674   1.847   2.013   2.163   2.289   2.385   2.445   2.465   2.445
   2.385   2.289   2.163   2.013   1.847   1.674   1.502   1.336   1.183   1.047
   0.929   0.832   0.755   0.696   0.656   0.632   0.624   0.632   0.656   0.696
   0.755   0.832   0.929   1.047   1.183   1.336   1.502   1.674   1.847   2.013
   2.163   2.289   2.385   2.445   2.465   2.445   2.385   2.289   2.163   2.013
   1.847   1.674   1.502   1.336   1.183   1.047   0.929   0.832   0.755   0.696
   0.656   0.632
   0.217   0.217   0.221   0.230   0.252   0.293   0.360   0.461   0.598   0.772
   0.981   1.217   1.470   1.724   1.964   2.172   2.334   2.437   2.472   2.437
   2.334   2.172   1.964   1.724   1.470   1.217   0.981   0.772   0.598   0.461
   0.360   0.293   0.252   0.230   0.221   0.217   0.217   0.217   0.221   0.230
   0.252   0.293   0.360   0.461   0.598   0.772   0.981   1.217   1.470   1.724
   1.964   2.172   2.334   2.437   2.472   2.437   2.334   2.172   1.964   1.724
   1.470   1.217   0.981   0.772   0.598   0.461   0.360   0.293   0.252   0.230
   0.221   0.217
   0.287   0.275   0.244   0.199   0.151   0.113   0.098   0.121   0.192   0.319
   0.503   0.739   1.015   1.312   1.605   1.870   2.080   2.215   2.262   2.215
   2.080   1.870   1.605   1.312   1.015   0.739   0.503   0.319   0.192   0.121
   0.098   0.113   0.151   0.199   0.244   0.275   0.287   0.275   0.244   0.199
   0.151   0.113   0.098   0.121   0.192   0.319   0.503   0.739   1.015   1.312
   1.605   1.870   2.080   2.215   2.262   2.215   2.080   1.870   1.605   1.312
   1.015   0.739   0.503   0.319   0.192   0.121   0.098   0.113   0.151   0.199
   0.244   0.275
   0.521   0.506   0.463   0.399   0.322   0.243   0.177   0.135   0.134   0.186
   0.299   0.476   0.710   0.982   1.268   1.537   1.756   1.901   1.951   1.901
   1.756   1.537   1.268   0.982   0.710   0.476   0.299   0.186   0.134   0.135
   0.177   0.243   0.322   0.399   0.463   0.506   0.521   0.506   0.463   0.399
   0.322   0.243   0.177   0.135   0.134   0.186   0.299   0.476   0.710   0.982
   1.268   1.537   1.756   1.901   1.951   1.901   1.756   1.537   1.268   0.982
   0.710   0.476   0.299   0.186   0.134   0.135   0.177   0.243   0.322   0.399
   0.463   0.506
   0.519   0.514   0.501   0.484   0.465   0.446   0.424   0.403   0.387   0.391
   0.432   0.522   0.666   0.856   1.074   1.290   1.474   1.598   1.642   1.598
   1.474   1.290   1.074   0.856   0.666   0.522   0.432   0.391   0.387   0.403
   0.424   0.446   0.465   0.484   0.501   0.514   0.519   0.514   0.501   0.484
   0.465   0.446   0.424   0.403   0.387   0.391   0.432   0.522   0.666   0.856
   1.074   1.290   1.474   1.598   1.642   1.598   1.474   1.290   1.074   0.856
   0.666   0.522   0.432   0.391   0.387   0.403   0.424   0.446   0.465   0.484
   0.501   0.514
   0.279   0.284   0.304   0.351   0.428   0.526   0.622   0.692   0.724   0.728
   0.724   0.738   0.787   0.875   0.993   1.123   1.240   1.322   1.352   1.322
   1.240   1.123   0.993   0.875   0.787   0.738   0.724   0.728   0.724   0.692
   0.622   0.526   0.428   0.351   0.304   0.284   0.279   0.284   0.304   0.351
   0.428   0.526   0.622   0.692   0.724   0.728   0.724   0.738   0.787   0.875
   0.993   1.123   1.240   1.322   1.352   1.322   1.240   1.123   0.993   0.875
   0.787   0.738   0.724   0.728   0.724   0.692   0.622   0.526   0.428   0.351
   0.304   0.284
   0.298   0.285   0.265   0.282   0.368   0.519   0.693   0.837   0.917   0.935
   0.917   0.897   0.892   0.908   0.940   0.982   1.025   1.059   1.071   1.059
   1.025   0.982   0.940   0.908   0.892   0.897   0.917   0.935   0.917   0.837
   0.693   0.519   0.368   0.282   0.265   0.285   0.298   0.285   0.265   0.282
   0.368   0.519   0.693   0.837   0.917   0.935   0.917   0.897   0.892   0.908
   0.940   0.982   1.025   1.059   1.071   1.059   1.025   0.982   0.940   0.908
   0.892   0.897   0.917   0.935   0.917   0.837   0.693   0.519   0.368   0.282
   0.265   0.285
   1.077   1.002   0.825   0.653   0.581   0.632   0.753   0.865   0.916   0.914
   0.896   0.893   0.905   0.914   0.904   0.882   0.861   0.850   0.847   0.850
   0.861   0.882   0.904   0.914   0.905   0.893   0.896   0.914   0.916   0.865
   0.753   0.632   0.581   0.653   0.825   1.002   1.077   1.002   0.825   0.653
   0.581   0.632   0.753   0.865   0.916   0.914   0.896   0.893   0.905   0.914
   0.904   0.882   0.861   0.850   0.847   0.850   0.861   0.882   0.904   0.914
   0.905   0.893   0.896   0.914   0.916   0.865   0.753   0.632   0.581   0.653
   0.825   1.002
   2.480   2.320   1.923   1.474   1.146   0.997   0.961   0.933   0.861   0.777
   0.751   0.807   0.903   0.966   0.955   0.888   0.813   0.764   0.748   0.764
   0.813   0.888   0.955   0.966   0.903   0.807   0.751   0.777   0.861   0.933
   0.961   0.997   1.146   1.474   1.923   2.320   2.480   2.320   1.923   1.474
   1.146   0.997   0.961   0.933   0.861   0.777   0.751   0.807   0.903   0.966
   0.955   0.888   0.813   0.764   0.748   0.764   0.813   0.888   0.955   0.966
   0.903   0.807   0.751   0.777   0.861   0.933   0.961   0.997   1.146   1.474
   1.923   2.320
   3.637   3.420   2.875   2.247   1.760   1.483   1.322   1.146   0.911   0.706
   0.653   0.780   0.986   1.121   1.112   0.999   0.872   0.793   0.769   0.793
   0.872   0.999   1.112   1.121   0.986   0.780   0.653   0.706   0.911   1.146
   1.322   1.483   1.760   2.247   2.875   3.420   3.637   3.420   2.875   2.247
   1.760   1.483   1.322   1.146   0.911   0.706   0.653   0.780   0.986   1.121
   1.112   0.999   0.872   0.793   0.769   0.793   0.872   0.999   1.112   1.121
   0.986   0.780   0.653   0.706   0.911   1.146   1.322   1.483   1.760   2.247
   2.875   3.420
   3.635   3.432   2.929   2.371   1.973   1.778   1.650   1.427   1.083   0.772
   0.683   0.861   1.148   1.323   1.285   1.107   0.933   0.840   0.816   0.840
   0.933   1.107   1.285   1.323   1.148   0.861   0.683   0.772   1.083   1.427
   1.650   1.778   1.973   2.371   2.929   3.432   3.635   3.432   2.929   2.371
   1.973   1.778   1.650   1.427   1.083   0.772   0.683   0.861   1.148   1.323
   1.285   1.107   0.933   0.840   0.816   0.840   0.933   1.107   1.285   1.323
   1.148   0.861   0.683   0.772   1.083   1.427   1.650   1.778   1.973   2.371
   2.929   3.432
   2.375   2.258   1.983   1.721   1.617   1.670   1.719   1.583   1.243   0.895
   0.788   0.985   1.297   1.452   1.345   1.098   0.903   0.830   0.822   0.830
   0.903   1.098   1.345   1.452   1.297   0.985   0.788   0.895   1.243   1.583
   1.719   1.670   1.617   1.721   1.983   2.258   2.375   2.258   1.983   1.721
   1.617   1.670   1.719   1.583   1.243   0.895   0.788   0.985   1.297   1.452
   1.345   1.098   0.903   0.830   0.822   0.830   0.903   1.098   1.345   1.452
   1.297   0.985   0.788   0.895   1.243   1.583   1.719   1.670   1.617   1.721
   1.983   2.258
   0.728   0.726   0.735   0.799   0.971   1.235   1.457   1.468   1.237   0.951
   0.870   1.073   1.360   1.451   1.262   0.973   0.808   0.806   0.835   0.806
   0.808   0.973   1.262   1.451   1.360   1.073   0.870   0.951   1.237   1.468
   1.457   1.235   0.971   0.799   0.735   0.726   0.728   0.726   0.735   0.799
   0.971   1.235   1.457   1.468   1.237   0.951   0.870   1.073   1.360   1.451
   1.262   0.973   0.808   0.806   0.835   0.806   0.808   0.973   1.262   1.451
   1.360   1.073   0.870   0.951   1.237   1.468   1.457   1.235   0.971   0.799
   0.735   0.726
  -0.239  -0.154   0.046   0.270   0.494   0.746   0.992   1.111   1.037   0.889
   0.887   1.104   1.351   1.370   1.122   0.839   0.762   0.875   0.955   0.875
   0.762   0.839   1.122   1.370   1.351   1.104   0.887   0.889   1.037   1.111
   0.992   0.746   0.494   0.270   0.046  -0.154  -0.239  -0.154   0.046   0.270
   0.494   0.746   0.992   1.111   1.037   0.889   0.887   1.104   1.351   1.370
   1.122   0.839   0.762   0.875   0.955   0.875   0.762   0.839   1.122   1.370
   1.351   1.104   0.887   0.889   1.037   1.111   0.992   0.746   0.494   0.270
   0.046  -0.154
  -0.224  -0.103   0.149   0.332   0.386   0.423   0.541   0.686   0.752   0.761
   0.861   1.106   1.324   1.294   1.022   0.783   0.817   1.052   1.187   1.052
   0.817   0.783   1.022   1.294   1.324   1.106   0.861   0.761   0.752   0.686
   0.541   0.423   0.386   0.332   0.149  -0.103  -0.224  -0.103   0.149   0.332
   0.386   0.423   0.541   0.686   0.752   0.761   0.861   1.106   1.324   1.294
   1.022   0.783   0.817   1.052   1.187   1.052   0.817   0.783   1.022   1.294
   1.324   1.106   0.861   0.761   0.752   0.686   0.541   0.423   0.386   0.332
   0.149  -0.103
   0.156   0.281   0.516   0.600   0.467   0.295   0.276   0.407   0.550   0.663
   0.836   1.104   1.311   1.258   0.985   0.785   0.898   1.213   1.381   1.213
   0.898   0.785   0.985   1.258   1.311   1.104   0.836   0.663   0.550   0.407
   0.276   0.295   0.467   0.600   0.516   0.281   0.156   0.281   0.516   0.600
   0.467   0.295   0.276   0.407   0.550   0.663   0.836   1.104   1.311   1.258
   0.985   0.785   0.898   1.213   1.381   1.213   0.898   0.785   0.985   1.258
   1.311   1.104   0.836   0.663   0.550   0.407   0.276   0.295   0.467   0.600
   0.516   0.281
 200       5.00   72    0 5.00   18    0
   1.039   1.039   1.040   1.042   1.044   1.047   1.050   1.053   1.057   1.061
   1.065   1.069   1.073   1.076   1.079   1.082   1.083   1.084   1.085   1.084
   1.083   1.082   1.079   1.076   1.073   1.069   1.065   1.061   1.057   1.053
   1.050   1.047   1.044   1.042   1.040   1.039   1.039   1.039   1.040   1.042
   1.044   1.047   1.050   1.053   1.057   1.061   1.065   1.069   1.073   1.076
   1.079   1.082   1.083   1.084   1.085   1.084   1.083   1.082   1.079   1.076
   1.073   1.069   1.065   1.061   1.057   1.053   1.050   1.047   1.044   1.042
   1.040   1.039
   0.824   0.826   0.831   0.841   0.854   0.871   0.891   0.914   0.940   0.967
   0.995   1.023   1.050   1.075   1.098   1.117   1.131   1.139   1.142   1.139
   1.131   1.117   1.098   1.075   1.050   1.023   0.995   0.967   0.940   0.914
   0.891   0.871   0.854   0.841   0.831   0.826   0.824   0.826   0.831   0.841
   0.854   0.871   0.891   0.914   0.940   0.967   0.995   1.023   1.050   1.075
   1.098   1.117   1.131   1.139   1.142   1.139   1.131   1.117   1.098   1.075
   1.050   1.023   0.995   0.967   0.940   0.914   0.891   0.871   0.854   0.841
   0.831   0.826
   0.759   0.760   0.764   0.772   0.783   0.797   0.817   0.842   0.873   0.909
   0.951   0.996   1.044   1.092   1.138   1.177   1.207   1.227   1.233   1.227
   1.207   1.177   1.138   1.092   1.044   0.996   0.951   0.909   0.873   0.842
   0.817   0.797   0.783   0.772   0.764   0.760   0.759   0.760   0.764   0.772
   0.783   0.797   0.817   0.842   0.873   0.909   0.951   0.996   1.044   1.092
   1.138   1.177   1.207   1.227   1.233   1.227   1.207   1.177   1.138   1.092
   1.044   0.996   0.951   0.909   0.873   0.842   0.817   0.797   0.783   0.772
   0.764   0.760
   1.090   1.088   1.082   1.073   1.061   1.047   1.033   1.020   1.012   1.011
   1.021   1.041   1.073   1.114   1.159   1.204   1.241   1.266   1.275   1.266
   1.241   1.204   1.159   1.114   1.073   1.041   1.021   1.011   1.012   1.020
   1.033   1.047   1.061   1.073   1.082   1.088   1.090   1.088   1.082   1.073
   1.061   1.047   1.033   1.020   1.012   1.011   1.021   1.041   1.073   1.114
   1.159   1.204   1.241   1.266   1.275   1.266   1.241   1.204   1.159   1.114
   1.073   1.041   1.021   1.011   1.012   1.020   1.033   1.047   1.061   1.073
   1.082   1.088
   1.576   1.575   1.569   1.556   1.535   1.502   1.456   1.398   1.331   1.261
   1.196   1.143   1.109   1.094   1.099   1.116   1.137   1.154   1.161   1.154
   1.137   1.116   1.099   1.094   1.109   1.143   1.196   1.261   1.331   1.398
   1.456   1.502   1.535   1.556   1.569   1.575   1.576   1.575   1.569   1.556
   1.535   1.502   1.456   1.398   1.331   1.261   1.196   1.143   1.109   1.094
   1.099   1.116   1.137   1.154   1.161   1.154   1.137   1.116   1.099   1.094
   1.109   1.143   1.196   1.261   1.331   1.398   1.456   1.502   1.535   1.556
   1.569   1.575
   1.715   1.721   1.738   1.761   1.779   1.784   1.766   1.718   1.638   1.528
   1.398   1.263   1.138   1.035   0.962   0.917   0.895   0.886   0.885   0.886
   0.895   0.917   0.962   1.035   1.138   1.263   1.398   1.528   1.638   1.718
   1.766   1.784   1.779   1.761   1.738   1.721   1.715   1.721   1.738   1.761
   1.779   1.784   1.766   1.718   1.638   1.528   1.398   1.263   1.138   1.035
   0.962   0.917   0.895   0.886   0.885   0.886   0.895   0.917   0.962   1.035
   1.138   1.263   1.398   1.528   1.638   1.718   1.766   1.784   1.779   1.761
   1.738   1.721
   1.290   1.308   1.358   1.434   1.526   1.619   1.697   1.742   1.738   1.674
   1.554   1.391   1.207   1.027   0.871   0.749   0.666   0.618   0.603   0.618
   0.666   0.749   0.871   1.027   1.207   1.391   1.554   1.674   1.738   1.742
   1.697   1.619   1.526   1.434   1.358   1.308   1.290   1.308   1.358   1.434
   1.526   1.619   1.697   1.742   1.738   1.674   1.554   1.391   1.207   1.027
   0.871   0.749   0.666   0.618   0.603   0.618   0.666   0.749   0.871   1.027
   1.207   1.391   1.554   1.674   1.738   1.742   1.697   1.619   1.526   1.434
   1.358   1.308
   0.617   0.637   0.698   0.795   0.925   1.083   1.259   1.430   1.567   1.638
   1.623   1.522   1.356   1.156   0.954   0.773   0.632   0.542   0.511   0.542
   0.632   0.773   0.954   1.156   1.356   1.522   1.623   1.638   1.567   1.430
   1.259   1.083   0.925   0.795   0.698   0.637   0.617   0.637   0.698   0.795
   0.925   1.083   1.259   1.430   1.567   1.638   1.623   1.522   1.356   1.156
   0.954   0.773   0.632   0.542   0.511   0.542   0.632   0.773   0.954   1.156
   1.356   1.522   1.623   1.638   1.567   1.430   1.259   1.083   0.925   0.795
   0.698   0.637
   0.191   0.203   0.238   0.293   0.376   0.504   0.693   0.936   1.198   1.422
   1.559   1.585   1.511   1.363   1.176   0.979   0.801   0.675   0.629   0.675
   0.801   0.979   1.176   1.363   1.511   1.585   1.559   1.422   1.198   0.936
   0.693   0.504   0.376   0.293   0.238   0.203   0.191   0.203   0.238   0.293
   0.376   0.504   0.693   0.936   1.198   1.422   1.559   1.585   1.511   1.363
   1.176   0.979   0.801   0.675   0.629   0.675   0.801   0.979   1.176   1.363
   1.511   1.585   1.559   1.422   1.198   0.936   0.693   0.504   0.376   0.293
   0.238   0.203
   0.174   0.179   0.184   0.173   0.151   0.158   0.251   0.461   0.761   1.078
   1.332   1.477   1.511   1.457   1.337   1.168   0.981   0.829   0.770   0.829
   0.981   1.168   1.337   1.457   1.511   1.477   1.332   1.078   0.761   0.461
   0.251   0.158   0.151   0.173   0.184   0.179   0.174   0.179   0.184   0.173
   0.151   0.158   0.251   0.461   0.761   1.078   1.332   1.477   1.511   1.457
   1.337   1.168   0.981   0.829   0.770   0.829   0.981   1.168   1.337   1.457
   1.511   1.477   1.332   1.078   0.761   0.461   0.251   0.158   0.151   0.173
   0.184   0.179
   0.300   0.315   0.335   0.307   0.211   0.091   0.044   0.148   0.401   0.723
   1.007   1.195   1.291   1.319   1.282   1.165   0.985   0.813   0.741   0.813
   0.985   1.165   1.282   1.319   1.291   1.195   1.007   0.723   0.401   0.148
   0.044   0.091   0.211   0.307   0.335   0.315   0.300   0.315   0.335   0.307
   0.211   0.091   0.044   0.148   0.401   0.723   1.007   1.195   1.291   1.319
   1.282   1.165   0.985   0.813   0.741   0.813   0.985   1.165   1.282   1.319
   1.291   1.195   1.007   0.723   0.401   0.148   0.044   0.091   0.211   0.307
   0.335   0.315
   0.257   0.300   0.389   0.430   0.359   0.199   0.062   0.070   0.253   0.529
   0.775   0.927   1.009   1.067   1.092   1.029   0.859   0.667   0.581   0.667
   0.859   1.029   1.092   1.067   1.009   0.927   0.775   0.529   0.253   0.070
   0.062   0.199   0.359   0.430   0.389   0.300   0.257   0.300   0.389   0.430
   0.359   0.199   0.062   0.070   0.253   0.529   0.775   0.927   1.009   1.067
   1.092   1.029   0.859   0.667   0.581   0.667   0.859   1.029   1.092   1.067
   1.009   0.927   0.775   0.529   0.253   0.070   0.062   0.199   0.359   0.430
   0.389   0.300
   0.071   0.136   0.294   0.447   0.493   0.408   0.280   0.248   0.383   0.620
   0.819   0.906   0.927   0.962   1.011   0.984   0.824   0.615   0.517   0.615
   0.824   0.984   1.011   0.962   0.927   0.906   0.819   0.620   0.383   0.248
   0.280   0.408   0.493   0.447   0.294   0.136   0.071   0.136   0.294   0.447
   0.493   0.408   0.280   0.248   0.383   0.620   0.819   0.906   0.927   0.962
   1.011   0.984   0.824   0.615   0.517   0.615   0.824   0.984   1.011   0.962
   0.927   0.906   0.819   0.620   0.383   0.248   0.280   0.408   0.493   0.447
   0.294   0.136
   0.058   0.109   0.262   0.483   0.676   0.740   0.682   0.632   0.720   0.928
   1.111   1.161   1.119   1.104   1.145   1.138   0.995   0.784   0.681   0.784
   0.995   1.138   1.145   1.104   1.119   1.161   1.111   0.928   0.720   0.632
   0.682   0.740   0.676   0.483   0.262   0.109   0.058   0.109   0.262   0.483
   0.676   0.740   0.682   0.632   0.720   0.928   1.111   1.161   1.119   1.104
   1.145   1.138   0.995   0.784   0.681   0.784   0.995   1.138   1.145   1.104
   1.119   1.161   1.111   0.928   0.720   0.632   0.682   0.740   0.676   0.483
   0.262   0.109
   0.467   0.453   0.490   0.687   0.997   1.219   1.218   1.091   1.053   1.191
   1.374   1.433   1.362   1.296   1.309   1.317   1.208   1.022   0.928   1.022
   1.208   1.317   1.309   1.296   1.362   1.433   1.374   1.191   1.053   1.091
   1.218   1.219   0.997   0.687   0.490   0.453   0.467   0.453   0.490   0.687
   0.997   1.219   1.218   1.091   1.053   1.191   1.374   1.433   1.362   1.296
   1.309   1.317   1.208   1.022   0.928   1.022   1.208   1.317   1.309   1.296
   1.362   1.433   1.374   1.191   1.053   1.091   1.218   1.219   0.997   0.687
   0.490   0.453
   1.220   1.107   0.948   1.048   1.433   1.780   1.776   1.467   1.185   1.167
   1.327   1.418   1.349   1.243   1.224   1.247   1.191   1.058   0.984   1.058
   1.191   1.247   1.224   1.243   1.349   1.418   1.327   1.167   1.185   1.467
   1.776   1.780   1.433   1.048   0.948   1.107   1.220   1.107   0.948   1.048
   1.433   1.780   1.776   1.467   1.185   1.167   1.327   1.418   1.349   1.243
   1.224   1.247   1.191   1.058   0.984   1.058   1.191   1.247   1.224   1.243
   1.349   1.418   1.327   1.167   1.185   1.467   1.776   1.780   1.433   1.048
   0.948   1.107
   1.996   1.786   1.431   1.419   1.847   2.278   2.223   1.679   1.096   0.872
   0.976   1.094   1.039   0.906   0.859   0.898   0.898   0.825   0.778   0.825
   0.898   0.898   0.859   0.906   1.039   1.094   0.976   0.872   1.096   1.679
   2.223   2.278   1.847   1.419   1.431   1.786   1.996   1.786   1.431   1.419
   1.847   2.278   2.223   1.679   1.096   0.872   0.976   1.094   1.039   0.906
   0.859   0.898   0.898   0.825   0.778   0.825   0.898   0.898   0.859   0.906
   1.039   1.094   0.976   0.872   1.096   1.679   2.223   2.278   1.847   1.419
   1.431   1.786
   2.470   2.200   1.726   1.645   2.095   2.567   2.465   1.754   0.959   0.585
   0.640   0.769   0.724   0.576   0.514   0.562   0.600   0.568   0.537   0.568
   0.600   0.562   0.514   0.576   0.724   0.769   0.640   0.585   0.959   1.754
   2.465   2.567   2.095   1.645   1.726   2.200   2.470   2.200   1.726   1.645
   2.095   2.567   2.465   1.754   0.959   0.585   0.640   0.769   0.724   0.576
   0.514   0.562   0.600   0.568   0.537   0.568   0.600   0.562   0.514   0.576
   0.724   0.769   0.640   0.585   0.959   1.754   2.465   2.567   2.095   1.645
   1.726   2.200
 111       5.00   72    0 5.00   18    0
  -0.213  -0.213  -0.212  -0.210  -0.208  -0.205  -0.202  -0.198  -0.194  -0.190
  -0.186  -0.182  -0.178  -0.174  -0.171  -0.169  -0.167  -0.166  -0.165  -0.166
  -0.167  -0.169  -0.171  -0.174  -0.178  -0.182  -0.186  -0.190  -0.194  -0.198
  -0.202  -0.205  -0.208  -0.210  -0.212  -0.213  -0.213  -0.213  -0.212  -0.210
  -0.208  -0.205  -0.202  -0.198  -0.194  -0.190  -0.186  -0.182  -0.178  -0.174
  -0.171  -0.169  -0.167  -0.166  -0.165  -0.166  -0.167  -0.169  -0.171  -0.174
  -0.178  -0.182  -0.186  -0.190  -0.194  -0.198  -0.202  -0.205  -0.208  -0.210
  -0.212  -0.213
  -0.373  -0.372  -0.370  -0.365  -0.359  -0.349  -0.336  -0.319  -0.298  -0.273
  -0.245  -0.215  -0.184  -0.153  -0.125  -0.100  -0.082  -0.070  -0.066  -0.070
  -0.082  -0.100  -0.125  -0.153  -0.184  -0.215  -0.245  -0.273  -0.298  -0.319
  -0.336  -0.349  -0.359  -0.365  -0.370  -0.372  -0.373  -0.372  -0.370  -0.365
  -0.359  -0.349  -0.336  -0.319  -0.298  -0.273  -0.245  -0.215  -0.184  -0.153
  -0.125  -0.100  -0.082  -0.070  -0.066  -0.070  -0.082  -0.100  -0.125  -0.153
  -0.184  -0.215  -0.245  -0.273  -0.298  -0.319  -0.336  -0.349  -0.359  -0.365
  -0.370  -0.372
  -0.114  -0.121  -0.140  -0.169  -0.204  -0.240  -0.271  -0.291  -0.296  -0.283
  -0.250  -0.199  -0.133  -0.058   0.019   0.089   0.147   0.184   0.197   0.184
   0.147   0.089   0.019  -0.058  -0.133  -0.199  -0.250  -0.283  -0.296  -0.291
  -0.271  -0.240  -0.204  -0.169  -0.140  -0.121  -0.114  -0.121  -0.140  -0.169
  -0.204  -0.240  -0.271  -0.291  -0.296  -0.283  -0.250  -0.199  -0.133  -0.058
   0.019   0.089   0.147   0.184   0.197   0.184   0.147   0.089   0.019  -0.058
  -0.133  -0.199  -0.250  -0.283  -0.296  -0.291  -0.271  -0.240  -0.204  -0.169
  -0.140  -0.121
   0.962   0.937   0.866   0.754   0.611   0.450   0.285   0.134   0.012  -0.069
  -0.099  -0.077  -0.005   0.105   0.237   0.370   0.483   0.560   0.587   0.560
   0.483   0.370   0.237   0.105  -0.005  -0.077  -0.099  -0.069   0.012   0.134
   0.285   0.450   0.611   0.754   0.866   0.937   0.962   0.937   0.866   0.754
   0.611   0.450   0.285   0.134   0.012  -0.069  -0.099  -0.077  -0.005   0.105
   0.237   0.370   0.483   0.560   0.587   0.560   0.483   0.370   0.237   0.105
  -0.005  -0.077  -0.099  -0.069   0.012   0.134   0.285   0.450   0.611   0.754
   0.866   0.937
   2.454   2.414   2.295   2.104   1.851   1.554   1.232   0.910   0.614   0.370
   0.203   0.125   0.140   0.238   0.393   0.572   0.736   0.851   0.893   0.851
   0.736   0.572   0.393   0.238   0.140   0.125   0.203   0.370   0.614   0.910
   1.232   1.554   1.851   2.104   2.295   2.414   2.454   2.414   2.295   2.104
   1.851   1.554   1.232   0.910   0.614   0.370   0.203   0.125   0.140   0.238
   0.393   0.572   0.736   0.851   0.893   0.851   0.736   0.572   0.393   0.238
   0.140   0.125   0.203   0.370   0.614   0.910   1.232   1.554   1.851   2.104
   2.295   2.414
   3.414   3.376   3.262   3.073   2.815   2.493   2.118   1.710   1.295   0.907
   0.584   0.359   0.253   0.267   0.379   0.549   0.723   0.853   0.900   0.853
   0.723   0.549   0.379   0.267   0.253   0.359   0.584   0.907   1.295   1.710
   2.118   2.493   2.815   3.073   3.262   3.376   3.414   3.376   3.262   3.073
   2.815   2.493   2.118   1.710   1.295   0.907   0.584   0.359   0.253   0.267
   0.379   0.549   0.723   0.853   0.900   0.853   0.723   0.549   0.379   0.267
   0.253   0.359   0.584   0.907   1.295   1.710   2.118   2.493   2.815   3.073
   3.262   3.376
   3.221   3.205   3.156   3.071   2.943   2.762   2.516   2.201   1.824   1.409
   0.999   0.646   0.397   0.276   0.279   0.370   0.495   0.598   0.638   0.598
   0.495   0.370   0.279   0.276   0.397   0.646   0.999   1.409   1.824   2.201
   2.516   2.762   2.943   3.071   3.156   3.205   3.221   3.205   3.156   3.071
   2.943   2.762   2.516   2.201   1.824   1.409   0.999   0.646   0.397   0.276
   0.279   0.370   0.495   0.598   0.638   0.598   0.495   0.370   0.279   0.276
   0.397   0.646   0.999   1.409   1.824   2.201   2.516   2.762   2.943   3.071
   3.156   3.205
   2.146   2.155   2.184   2.230   2.288   2.337   2.345   2.274   2.094   1.801
   1.427   1.032   0.688   0.446   0.321   0.294   0.322   0.360   0.377   0.360
   0.322   0.294   0.321   0.446   0.688   1.032   1.427   1.801   2.094   2.274
   2.345   2.337   2.288   2.230   2.184   2.155   2.146   2.155   2.184   2.230
   2.288   2.337   2.345   2.274   2.094   1.801   1.427   1.032   0.688   0.446
   0.321   0.294   0.322   0.360   0.377   0.360   0.322   0.294   0.321   0.446
   0.688   1.032   1.427   1.801   2.094   2.274   2.345   2.337   2.288   2.230
   2.184   2.155
   1.027   1.045   1.104   1.215   1.387   1.611   1.850   2.040   2.114   2.026
   1.786   1.453   1.112   0.830   0.633   0.507   0.429   0.383   0.367   0.383
   0.429   0.507   0.633   0.830   1.112   1.453   1.786   2.026   2.114   2.040
   1.850   1.611   1.387   1.215   1.104   1.045   1.027   1.045   1.104   1.215
   1.387   1.611   1.850   2.040   2.114   2.026   1.786   1.453   1.112   0.830
   0.633   0.507   0.429   0.383   0.367   0.383   0.429   0.507   0.633   0.830
   1.112   1.453   1.786   2.026   2.114   2.040   1.850   1.611   1.387   1.215
   1.104   1.045
   0.475   0.482   0.514   0.593   0.750   1.002   1.330   1.668   1.920   2.007
   1.915   1.700   1.456   1.247   1.080   0.926   0.770   0.641   0.589   0.641
   0.770   0.926   1.080   1.247   1.456   1.700   1.915   2.007   1.920   1.668
   1.330   1.002   0.750   0.593   0.514   0.482   0.475   0.482   0.514   0.593
   0.750   1.002   1.330   1.668   1.920   2.007   1.915   1.700   1.456   1.247
   1.080   0.926   0.770   0.641   0.589   0.641   0.770   0.926   1.080   1.247
   1.456   1.700   1.915   2.007   1.920   1.668   1.330   1.002   0.750   0.593
   0.514   0.482
   0.439   0.432   0.418   0.424   0.488   0.652   0.925   1.258   1.553   1.711
   1.704   1.595   1.486   1.431   1.393   1.291   1.101   0.901   0.815   0.901
   1.101   1.291   1.393   1.431   1.486   1.595   1.704   1.711   1.553   1.258
   0.925   0.652   0.488   0.424   0.418   0.432   0.439   0.432   0.418   0.424
   0.488   0.652   0.925   1.258   1.553   1.711   1.704   1.595   1.486   1.431
   1.393   1.291   1.101   0.901   0.815   0.901   1.101   1.291   1.393   1.431
   1.486   1.595   1.704   1.711   1.553   1.258   0.925   0.652   0.488   0.424
   0.418   0.432
   0.489   0.478   0.447   0.415   0.409   0.470   0.629   0.866   1.104   1.244
   1.251   1.195   1.197   1.306   1.436   1.435   1.249   0.997   0.880   0.997
   1.249   1.435   1.436   1.306   1.197   1.195   1.251   1.244   1.104   0.866
   0.629   0.470   0.409   0.415   0.447   0.478   0.489   0.478   0.447   0.415
   0.409   0.470   0.629   0.866   1.104   1.244   1.251   1.195   1.197   1.306
   1.436   1.435   1.249   0.997   0.880   0.997   1.249   1.435   1.436   1.306
   1.197   1.195   1.251   1.244   1.104   0.866   0.629   0.470   0.409   0.415
   0.447   0.478
   0.379   0.370   0.351   0.340   0.343   0.370   0.441   0.570   0.725   0.826
   0.824   0.782   0.835   1.049   1.312   1.415   1.259   0.983   0.848   0.983
   1.259   1.415   1.312   1.049   0.835   0.782   0.824   0.826   0.725   0.570
   0.441   0.370   0.343   0.340   0.351   0.370   0.379   0.370   0.351   0.340
   0.343   0.370   0.441   0.570   0.725   0.826   0.824   0.782   0.835   1.049
   1.312   1.415   1.259   0.983   0.848   0.983   1.259   1.415   1.312   1.049
   0.835   0.782   0.824   0.826   0.725   0.570   0.441   0.370   0.343   0.340
   0.351   0.370
   0.265   0.246   0.226   0.260   0.340   0.407   0.431   0.458   0.533   0.622
   0.649   0.622   0.666   0.884   1.195   1.371   1.272   1.019   0.886   1.019
   1.272   1.371   1.195   0.884   0.666   0.622   0.649   0.622   0.533   0.458
   0.431   0.407   0.340   0.260   0.226   0.246   0.265   0.246   0.226   0.260
   0.340   0.407   0.431   0.458   0.533   0.622   0.649   0.622   0.666   0.884
   1.195   1.371   1.272   1.019   0.886   1.019   1.272   1.371   1.195   0.884
   0.666   0.622   0.649   0.622   0.533   0.458   0.431   0.407   0.340   0.260
   0.226   0.246
   0.450   0.396   0.323   0.376   0.553   0.690   0.668   0.557   0.523   0.615
   0.718   0.732   0.725   0.850   1.114   1.328   1.321   1.150   1.049   1.150
   1.321   1.328   1.114   0.850   0.725   0.732   0.718   0.615   0.523   0.557
   0.668   0.690   0.553   0.376   0.323   0.396   0.450   0.396   0.323   0.376
   0.553   0.690   0.668   0.557   0.523   0.615   0.718   0.732   0.725   0.850
   1.114   1.328   1.321   1.150   1.049   1.150   1.321   1.328   1.114   0.850
   0.725   0.732   0.718   0.615   0.523   0.557   0.668   0.690   0.553   0.376
   0.323   0.396
   1.014   0.903   0.729   0.763   1.018   1.213   1.107   0.793   0.588   0.657
   0.850   0.921   0.845   0.817   0.969   1.199   1.312   1.275   1.231   1.275
   1.312   1.199   0.969   0.817   0.845   0.921   0.850   0.657   0.588   0.793
   1.107   1.213   1.018   0.763   0.729   0.903   1.014   0.903   0.729   0.763
   1.018   1.213   1.107   0.793   0.588   0.657   0.850   0.921   0.845   0.817
   0.969   1.199   1.312   1.275   1.231   1.275   1.312   1.199   0.969   0.817
   0.845   0.921   0.850   0.657   0.588   0.793   1.107   1.213   1.018   0.763
   0.729   0.903
   1.723   1.552   1.269   1.263   1.570   1.796   1.580   1.036   0.627   0.640
   0.898   1.021   0.879   0.696   0.727   0.961   1.196   1.303   1.321   1.303
   1.196   0.961   0.727   0.696   0.879   1.021   0.898   0.640   0.627   1.036
   1.580   1.796   1.570   1.263   1.269   1.552   1.723   1.552   1.269   1.263
   1.570   1.796   1.580   1.036   0.627   0.640   0.898   1.021   0.879   0.696
   0.727   0.961   1.196   1.303   1.321   1.303   1.196   0.961   0.727   0.696
   0.879   1.021   0.898   0.640   0.627   1.036   1.580   1.796   1.570   1.263
   1.269   1.552
   2.205   1.997   1.644   1.609   1.943   2.179   1.884   1.183   0.629   0.591
   0.879   1.030   0.848   0.569   0.522   0.759   1.071   1.271   1.330   1.271
   1.071   0.759   0.522   0.569   0.848   1.030   0.879   0.591   0.629   1.183
   1.884   2.179   1.943   1.609   1.644   1.997   2.205   1.997   1.644   1.609
   1.943   2.179   1.884   1.183   0.629   0.591   0.879   1.030   0.848   0.569
   0.522   0.759   1.071   1.271   1.330   1.271   1.071   0.759   0.522   0.569
   0.848   1.030   0.879   0.591   0.629   1.183   1.884   2.179   1.943   1.609
   1.644   1.997
TEXTURE_INDEX=   2.4293
ERR_CF 220         1080     528   53.07   23.20
ERR_CF 200         1076     246   73.15   23.38
ERR_CF 111         1076     316   87.57   14.52
