TEXEVAL                                                                         
Analysis started on 23-Sep-19 11:21:20                                          
 LMAX=14LFMAX=03 CUBIC ORTHO   
 220      5.00 5.00
 200      5.00 5.00
 111      5.00 5.00
 220       5.00   72    0 5.00   15    0
   1.834   1.834   1.834   1.834   1.834   1.834   1.834   1.834   1.834   1.834
   1.834   1.834   1.834   1.834   1.834   1.834   1.834   1.834   1.834   1.834
   1.834   1.834   1.834   1.834   1.834   1.834   1.834   1.834   1.834   1.834
   1.834   1.834   1.834   1.834   1.834   1.834   1.834   1.834   1.834   1.834
   1.834   1.834   1.834   1.834   1.834   1.834   1.834   1.834   1.834   1.834
   1.834   1.834   1.834   1.834   1.834   1.834   1.834   1.834   1.834   1.834
   1.834   1.834   1.834   1.834   1.834   1.834   1.834   1.834   1.834   1.834
   1.834   1.834
   1.041   0.953   0.986   1.191   1.194   0.917   1.206   1.121   1.138   1.366
   1.502   1.510   1.465   1.903   1.731   1.886   1.996   2.237   2.186   2.237
   1.996   1.886   1.731   1.903   1.465   1.510   1.502   1.366   1.138   1.121
   1.206   0.917   1.194   1.191   0.986   0.953   1.041   0.953   0.986   1.191
   1.194   0.917   1.206   1.121   1.138   1.366   1.502   1.510   1.465   1.903
   1.731   1.886   1.996   2.237   2.186   2.237   1.996   1.886   1.731   1.903
   1.465   1.510   1.502   1.366   1.138   1.121   1.206   0.917   1.194   1.191
   0.986   0.953
   0.371   0.358   0.518   0.683   0.516   0.444   0.524   0.702   0.643   0.971
   1.075   1.095   0.962   1.703   1.391   2.109   2.177   2.370   2.027   2.370
   2.177   2.109   1.391   1.703   0.962   1.095   1.075   0.971   0.643   0.702
   0.524   0.444   0.516   0.683   0.518   0.358   0.371   0.358   0.518   0.683
   0.516   0.444   0.524   0.702   0.643   0.971   1.075   1.095   0.962   1.703
   1.391   2.109   2.177   2.370   2.027   2.370   2.177   2.109   1.391   1.703
   0.962   1.095   1.075   0.971   0.643   0.702   0.524   0.444   0.516   0.683
   0.518   0.358
   0.168   0.437   0.372   0.688   0.437   0.294   0.536   0.553   0.560   0.868
   0.763   0.856   1.027   1.331   1.628   1.974   2.219   2.827   2.184   2.827
   2.219   1.974   1.628   1.331   1.027   0.856   0.763   0.868   0.560   0.553
   0.536   0.294   0.437   0.688   0.372   0.437   0.168   0.437   0.372   0.688
   0.437   0.294   0.536   0.553   0.560   0.868   0.763   0.856   1.027   1.331
   1.628   1.974   2.219   2.827   2.184   2.827   2.219   1.974   1.628   1.331
   1.027   0.856   0.763   0.868   0.560   0.553   0.536   0.294   0.437   0.688
   0.372   0.437
   0.075   0.723   0.456   0.431   0.312   0.295   0.615   0.414   0.405   0.604
   0.347   1.071   0.945   1.208   2.075   1.756   2.369   3.138   2.442   3.138
   2.369   1.756   2.075   1.208   0.945   1.071   0.347   0.604   0.405   0.414
   0.615   0.295   0.312   0.431   0.456   0.723   0.075   0.723   0.456   0.431
   0.312   0.295   0.615   0.414   0.405   0.604   0.347   1.071   0.945   1.208
   2.075   1.756   2.369   3.138   2.442   3.138   2.369   1.756   2.075   1.208
   0.945   1.071   0.347   0.604   0.405   0.414   0.615   0.295   0.312   0.431
   0.456   0.723
   0.227   0.667   0.728   0.530   0.146   0.200   0.302   0.383   0.334   0.474
   0.189   0.893   0.880   1.178   2.128   2.028   2.150   2.357   2.415   2.357
   2.150   2.028   2.128   1.178   0.880   0.893   0.189   0.474   0.334   0.383
   0.302   0.200   0.146   0.530   0.728   0.667   0.227   0.667   0.728   0.530
   0.146   0.200   0.302   0.383   0.334   0.474   0.189   0.893   0.880   1.178
   2.128   2.028   2.150   2.357   2.415   2.357   2.150   2.028   2.128   1.178
   0.880   0.893   0.189   0.474   0.334   0.383   0.302   0.200   0.146   0.530
   0.728   0.667
   0.324   0.258   0.645   0.546   0.573   0.466   0.286   0.583   0.468   0.792
   0.271   0.608   1.103   1.398   1.640   2.428   1.759   1.754   2.136   1.754
   1.759   2.428   1.640   1.398   1.103   0.608   0.271   0.792   0.468   0.583
   0.286   0.466   0.573   0.546   0.645   0.258   0.324   0.258   0.645   0.546
   0.573   0.466   0.286   0.583   0.468   0.792   0.271   0.608   1.103   1.398
   1.640   2.428   1.759   1.754   2.136   1.754   1.759   2.428   1.640   1.398
   1.103   0.608   0.271   0.792   0.468   0.583   0.286   0.466   0.573   0.546
   0.645   0.258
   0.715   0.363   0.710   0.611   0.747   0.594   0.627   0.898   0.640   0.740
   0.764   0.444   1.309   1.560   1.878   2.076   1.627   1.820   2.257   1.820
   1.627   2.076   1.878   1.560   1.309   0.444   0.764   0.740   0.640   0.898
   0.627   0.594   0.747   0.611   0.710   0.363   0.715   0.363   0.710   0.611
   0.747   0.594   0.627   0.898   0.640   0.740   0.764   0.444   1.309   1.560
   1.878   2.076   1.627   1.820   2.257   1.820   1.627   2.076   1.878   1.560
   1.309   0.444   0.764   0.740   0.640   0.898   0.627   0.594   0.747   0.611
   0.710   0.363
   1.117   0.657   0.713   0.621   0.412   0.851   0.566   0.852   0.643   0.665
   0.818   0.551   1.264   1.430   1.608   1.243   1.257   0.996   1.475   0.996
   1.257   1.243   1.608   1.430   1.264   0.551   0.818   0.665   0.643   0.852
   0.566   0.851   0.412   0.621   0.713   0.657   1.117   0.657   0.713   0.621
   0.412   0.851   0.566   0.852   0.643   0.665   0.818   0.551   1.264   1.430
   1.608   1.243   1.257   0.996   1.475   0.996   1.257   1.243   1.608   1.430
   1.264   0.551   0.818   0.665   0.643   0.852   0.566   0.851   0.412   0.621
   0.713   0.657
   0.889   1.100   1.046   1.137   0.292   1.136   0.833   1.075   1.345   1.022
   0.673   0.638   0.854   1.269   1.279   1.295   1.331   0.751   0.716   0.751
   1.331   1.295   1.279   1.269   0.854   0.638   0.673   1.022   1.345   1.075
   0.833   1.136   0.292   1.137   1.046   1.100   0.889   1.100   1.046   1.137
   0.292   1.136   0.833   1.075   1.345   1.022   0.673   0.638   0.854   1.269
   1.279   1.295   1.331   0.751   0.716   0.751   1.331   1.295   1.279   1.269
   0.854   0.638   0.673   1.022   1.345   1.075   0.833   1.136   0.292   1.137
   1.046   1.100
   1.565   2.099   1.435   1.497   1.252   1.150   0.943   1.017   1.156   0.633
   0.670   0.497   0.604   0.486   1.088   1.237   1.124   1.073   0.928   1.073
   1.124   1.237   1.088   0.486   0.604   0.497   0.670   0.633   1.156   1.017
   0.943   1.150   1.252   1.497   1.435   2.099   1.565   2.099   1.435   1.497
   1.252   1.150   0.943   1.017   1.156   0.633   0.670   0.497   0.604   0.486
   1.088   1.237   1.124   1.073   0.928   1.073   1.124   1.237   1.088   0.486
   0.604   0.497   0.670   0.633   1.156   1.017   0.943   1.150   1.252   1.497
   1.435   2.099
   2.329   3.996   1.698   1.589   2.480   1.883   0.375   0.554   0.095   0.718
   0.705   0.479   0.465   0.293   1.074   1.102   1.183   0.485   0.588   0.485
   1.183   1.102   1.074   0.293   0.465   0.479   0.705   0.718   0.095   0.554
   0.375   1.883   2.480   1.589   1.698   3.996   2.329   3.996   1.698   1.589
   2.480   1.883   0.375   0.554   0.095   0.718   0.705   0.479   0.465   0.293
   1.074   1.102   1.183   0.485   0.588   0.485   1.183   1.102   1.074   0.293
   0.465   0.479   0.705   0.718   0.095   0.554   0.375   1.883   2.480   1.589
   1.698   3.996
   2.490   4.410   1.681   2.071   1.392   1.246   1.238   0.893   0.382   0.810
   1.085   0.575   0.338   0.809   1.245   0.880   1.016   0.172   0.246   0.172
   1.016   0.880   1.245   0.809   0.338   0.575   1.085   0.810   0.382   0.893
   1.238   1.246   1.392   2.071   1.681   4.410   2.490   4.410   1.681   2.071
   1.392   1.246   1.238   0.893   0.382   0.810   1.085   0.575   0.338   0.809
   1.245   0.880   1.016   0.172   0.246   0.172   1.016   0.880   1.245   0.809
   0.338   0.575   1.085   0.810   0.382   0.893   1.238   1.246   1.392   2.071
   1.681   4.410
   1.338   1.939   0.854   1.158   0.252   0.296   1.353   0.868   1.376   0.846
   1.158   0.376   1.180   0.516   1.293   0.974   0.681   0.583   0.000   0.583
   0.681   0.974   1.293   0.516   1.180   0.376   1.158   0.846   1.376   0.868
   1.353   0.296   0.252   1.158   0.854   1.939   1.338   1.939   0.854   1.158
   0.252   0.296   1.353   0.868   1.376   0.846   1.158   0.376   1.180   0.516
   1.293   0.974   0.681   0.583   0.000   0.583   0.681   0.974   1.293   0.516
   1.180   0.376   1.158   0.846   1.376   0.868   1.353   0.296   0.252   1.158
   0.854   1.939
   0.000   0.711   3.127   1.329   1.341   0.463   0.223   1.106   1.542   1.659
   1.367   0.810   1.529   0.797   2.499   0.793   1.114   1.590   0.025   1.590
   1.114   0.793   2.499   0.797   1.529   0.810   1.367   1.659   1.542   1.106
   0.223   0.463   1.341   1.329   3.127   0.711   0.000   0.711   3.127   1.329
   1.341   0.463   0.223   1.106   1.542   1.659   1.367   0.810   1.529   0.797
   2.499   0.793   1.114   1.590   0.025   1.590   1.114   0.793   2.499   0.797
   1.529   0.810   1.367   1.659   1.542   1.106   0.223   0.463   1.341   1.329
   3.127   0.711
 200       5.00   72    0 5.00   15    0
   0.681   0.681   0.681   0.681   0.681   0.681   0.681   0.681   0.681   0.681
   0.681   0.681   0.681   0.681   0.681   0.681   0.681   0.681   0.681   0.681
   0.681   0.681   0.681   0.681   0.681   0.681   0.681   0.681   0.681   0.681
   0.681   0.681   0.681   0.681   0.681   0.681   0.681   0.681   0.681   0.681
   0.681   0.681   0.681   0.681   0.681   0.681   0.681   0.681   0.681   0.681
   0.681   0.681   0.681   0.681   0.681   0.681   0.681   0.681   0.681   0.681
   0.681   0.681   0.681   0.681   0.681   0.681   0.681   0.681   0.681   0.681
   0.681   0.681
   0.788   0.672   0.812   0.765   0.852   0.591   0.691   0.646   0.702   0.634
   0.631   0.588   0.613   0.687   0.584   0.441   0.584   0.600   0.535   0.600
   0.584   0.441   0.584   0.687   0.613   0.588   0.631   0.634   0.702   0.646
   0.691   0.591   0.852   0.765   0.812   0.672   0.788   0.672   0.812   0.765
   0.852   0.591   0.691   0.646   0.702   0.634   0.631   0.588   0.613   0.687
   0.584   0.441   0.584   0.600   0.535   0.600   0.584   0.441   0.584   0.687
   0.613   0.588   0.631   0.634   0.702   0.646   0.691   0.591   0.852   0.765
   0.812   0.672
   0.996   0.868   0.735   0.873   0.932   0.605   0.706   0.617   0.641   0.607
   0.496   0.486   0.527   0.590   0.495   0.334   0.461   0.536   0.359   0.536
   0.461   0.334   0.495   0.590   0.527   0.486   0.496   0.607   0.641   0.617
   0.706   0.605   0.932   0.873   0.735   0.868   0.996   0.868   0.735   0.873
   0.932   0.605   0.706   0.617   0.641   0.607   0.496   0.486   0.527   0.590
   0.495   0.334   0.461   0.536   0.359   0.536   0.461   0.334   0.495   0.590
   0.527   0.486   0.496   0.607   0.641   0.617   0.706   0.605   0.932   0.873
   0.735   0.868
   1.138   1.173   1.274   0.921   0.970   0.731   0.842   0.612   0.565   0.697
   0.712   0.531   0.361   0.620   0.652   0.342   0.467   0.520   0.497   0.520
   0.467   0.342   0.652   0.620   0.361   0.531   0.712   0.697   0.565   0.612
   0.842   0.731   0.970   0.921   1.274   1.173   1.138   1.173   1.274   0.921
   0.970   0.731   0.842   0.612   0.565   0.697   0.712   0.531   0.361   0.620
   0.652   0.342   0.467   0.520   0.497   0.520   0.467   0.342   0.652   0.620
   0.361   0.531   0.712   0.697   0.565   0.612   0.842   0.731   0.970   0.921
   1.274   1.173
   1.670   1.585   2.009   1.319   1.372   1.117   1.282   0.861   0.758   0.871
   0.998   0.705   0.408   0.465   0.623   0.465   0.368   0.486   0.833   0.486
   0.368   0.465   0.623   0.465   0.408   0.705   0.998   0.871   0.758   0.861
   1.282   1.117   1.372   1.319   2.009   1.585   1.670   1.585   2.009   1.319
   1.372   1.117   1.282   0.861   0.758   0.871   0.998   0.705   0.408   0.465
   0.623   0.465   0.368   0.486   0.833   0.486   0.368   0.465   0.623   0.465
   0.408   0.705   0.998   0.871   0.758   0.861   1.282   1.117   1.372   1.319
   2.009   1.585
   2.011   2.507   2.445   1.856   1.903   1.390   1.659   1.469   0.972   1.043
   0.814   0.529   0.300   0.329   0.304   0.420   0.127   0.423   0.576   0.423
   0.127   0.420   0.304   0.329   0.300   0.529   0.814   1.043   0.972   1.469
   1.659   1.390   1.903   1.856   2.445   2.507   2.011   2.507   2.445   1.856
   1.903   1.390   1.659   1.469   0.972   1.043   0.814   0.529   0.300   0.329
   0.304   0.420   0.127   0.423   0.576   0.423   0.127   0.420   0.304   0.329
   0.300   0.529   0.814   1.043   0.972   1.469   1.659   1.390   1.903   1.856
   2.445   2.507
   2.317   2.796   2.366   1.731   1.876   1.670   1.682   2.277   1.541   1.437
   0.769   0.416   0.780   0.679   0.265   0.449   0.484   0.393   0.210   0.393
   0.484   0.449   0.265   0.679   0.780   0.416   0.769   1.437   1.541   2.277
   1.682   1.670   1.876   1.731   2.366   2.796   2.317   2.796   2.366   1.731
   1.876   1.670   1.682   2.277   1.541   1.437   0.769   0.416   0.780   0.679
   0.265   0.449   0.484   0.393   0.210   0.393   0.484   0.449   0.265   0.679
   0.780   0.416   0.769   1.437   1.541   2.277   1.682   1.670   1.876   1.731
   2.366   2.796
   1.825   1.373   1.207   0.772   1.133   1.436   1.430   2.404   1.609   1.260
   0.885   0.566   0.987   0.889   0.391   0.321   0.602   0.337   0.280   0.337
   0.602   0.321   0.391   0.889   0.987   0.566   0.885   1.260   1.609   2.404
   1.430   1.436   1.133   0.772   1.207   1.373   1.825   1.373   1.207   0.772
   1.133   1.436   1.430   2.404   1.609   1.260   0.885   0.566   0.987   0.889
   0.391   0.321   0.602   0.337   0.280   0.337   0.602   0.321   0.391   0.889
   0.987   0.566   0.885   1.260   1.609   2.404   1.430   1.436   1.133   0.772
   1.207   1.373
   0.834   0.285   0.348   0.215   0.474   0.655   0.830   1.340   0.904   0.785
   1.400   0.931   0.789   0.643   0.416   0.372   0.249   0.470   0.153   0.470
   0.249   0.372   0.416   0.643   0.789   0.931   1.400   0.785   0.904   1.340
   0.830   0.655   0.474   0.215   0.348   0.285   0.834   0.285   0.348   0.215
   0.474   0.655   0.830   1.340   0.904   0.785   1.400   0.931   0.789   0.643
   0.416   0.372   0.249   0.470   0.153   0.470   0.249   0.372   0.416   0.643
   0.789   0.931   1.400   0.785   0.904   1.340   0.830   0.655   0.474   0.215
   0.348   0.285
   0.803   0.377   0.405   0.243   0.301   0.501   0.827   0.511   0.540   1.080
   1.816   0.790   0.783   0.685   0.619   0.620   0.404   0.442   0.000   0.442
   0.404   0.620   0.619   0.685   0.783   0.790   1.816   1.080   0.540   0.511
   0.827   0.501   0.301   0.243   0.405   0.377   0.803   0.377   0.405   0.243
   0.301   0.501   0.827   0.511   0.540   1.080   1.816   0.790   0.783   0.685
   0.619   0.620   0.404   0.442   0.000   0.442   0.404   0.620   0.619   0.685
   0.783   0.790   1.816   1.080   0.540   0.511   0.827   0.501   0.301   0.243
   0.405   0.377
   1.089   0.390   0.313   0.104   0.487   0.674   0.600   0.297   0.637   0.916
   1.417   0.917   0.750   0.723   0.884   0.594   0.479   0.097   0.000   0.097
   0.479   0.594   0.884   0.723   0.750   0.917   1.417   0.916   0.637   0.297
   0.600   0.674   0.487   0.104   0.313   0.390   1.089   0.390   0.313   0.104
   0.487   0.674   0.600   0.297   0.637   0.916   1.417   0.917   0.750   0.723
   0.884   0.594   0.479   0.097   0.000   0.097   0.479   0.594   0.884   0.723
   0.750   0.917   1.417   0.916   0.637   0.297   0.600   0.674   0.487   0.104
   0.313   0.390
   1.339   0.681   0.211   0.166   0.659   0.482   0.252   0.221   1.152   0.863
   0.934   1.112   1.681   0.307   1.284   1.438   0.474   0.163   0.333   0.163
   0.474   1.438   1.284   0.307   1.681   1.112   0.934   0.863   1.152   0.221
   0.252   0.482   0.659   0.166   0.211   0.681   1.339   0.681   0.211   0.166
   0.659   0.482   0.252   0.221   1.152   0.863   0.934   1.112   1.681   0.307
   1.284   1.438   0.474   0.163   0.333   0.163   0.474   1.438   1.284   0.307
   1.681   1.112   0.934   0.863   1.152   0.221   0.252   0.482   0.659   0.166
   0.211   0.681
   0.666   0.974   0.763   0.755   0.828   0.053   0.743   0.578   1.033   1.391
   1.556   1.192   1.662   1.069   1.125   1.707   0.828   0.614   0.751   0.614
   0.828   1.707   1.125   1.069   1.662   1.192   1.556   1.391   1.033   0.578
   0.743   0.053   0.828   0.755   0.763   0.974   0.666   0.974   0.763   0.755
   0.828   0.053   0.743   0.578   1.033   1.391   1.556   1.192   1.662   1.069
   1.125   1.707   0.828   0.614   0.751   0.614   0.828   1.707   1.125   1.069
   1.662   1.192   1.556   1.391   1.033   0.578   0.743   0.053   0.828   0.755
   0.763   0.974
   0.484   1.230   1.076   0.984   0.706   0.815   1.246   0.415   1.810   1.982
   1.327   1.678   0.860   1.288   0.919   1.580   0.771   1.596   0.549   1.596
   0.771   1.580   0.919   1.288   0.860   1.678   1.327   1.982   1.810   0.415
   1.246   0.815   0.706   0.984   1.076   1.230   0.484   1.230   1.076   0.984
   0.706   0.815   1.246   0.415   1.810   1.982   1.327   1.678   0.860   1.288
   0.919   1.580   0.771   1.596   0.549   1.596   0.771   1.580   0.919   1.288
   0.860   1.678   1.327   1.982   1.810   0.415   1.246   0.815   0.706   0.984
   1.076   1.230
   0.835   1.572   1.407   1.032   0.214   1.397   1.253   0.988   2.081   2.997
   0.735   2.609   1.185   0.685   1.154   1.343   0.395   1.497   1.294   1.497
   0.395   1.343   1.154   0.685   1.185   2.609   0.735   2.997   2.081   0.988
   1.253   1.397   0.214   1.032   1.407   1.572   0.835   1.572   1.407   1.032
   0.214   1.397   1.253   0.988   2.081   2.997   0.735   2.609   1.185   0.685
   1.154   1.343   0.395   1.497   1.294   1.497   0.395   1.343   1.154   0.685
   1.185   2.609   0.735   2.997   2.081   0.988   1.253   1.397   0.214   1.032
   1.407   1.572
 111       5.00   72    0 5.00   15    0
   0.318   0.318   0.318   0.318   0.318   0.318   0.318   0.318   0.318   0.318
   0.318   0.318   0.318   0.318   0.318   0.318   0.318   0.318   0.318   0.318
   0.318   0.318   0.318   0.318   0.318   0.318   0.318   0.318   0.318   0.318
   0.318   0.318   0.318   0.318   0.318   0.318   0.318   0.318   0.318   0.318
   0.318   0.318   0.318   0.318   0.318   0.318   0.318   0.318   0.318   0.318
   0.318   0.318   0.318   0.318   0.318   0.318   0.318   0.318   0.318   0.318
   0.318   0.318   0.318   0.318   0.318   0.318   0.318   0.318   0.318   0.318
   0.318   0.318
   0.392   0.332   0.323   0.401   0.412   0.326   0.345   0.368   0.314   0.325
   0.290   0.292   0.304   0.258   0.261   0.312   0.323   0.306   0.223   0.306
   0.323   0.312   0.261   0.258   0.304   0.292   0.290   0.325   0.314   0.368
   0.345   0.326   0.412   0.401   0.323   0.332   0.392   0.332   0.323   0.401
   0.412   0.326   0.345   0.368   0.314   0.325   0.290   0.292   0.304   0.258
   0.261   0.312   0.323   0.306   0.223   0.306   0.323   0.312   0.261   0.258
   0.304   0.292   0.290   0.325   0.314   0.368   0.345   0.326   0.412   0.401
   0.323   0.332
   0.513   0.519   0.490   0.520   0.543   0.502   0.387   0.452   0.393   0.386
   0.304   0.282   0.301   0.231   0.231   0.349   0.261   0.226   0.205   0.226
   0.261   0.349   0.231   0.231   0.301   0.282   0.304   0.386   0.393   0.452
   0.387   0.502   0.543   0.520   0.490   0.519   0.513   0.519   0.490   0.520
   0.543   0.502   0.387   0.452   0.393   0.386   0.304   0.282   0.301   0.231
   0.231   0.349   0.261   0.226   0.205   0.226   0.261   0.349   0.231   0.231
   0.301   0.282   0.304   0.386   0.393   0.452   0.387   0.502   0.543   0.520
   0.490   0.519
   1.369   1.447   1.224   1.141   1.000   0.892   0.665   0.598   0.539   0.459
   0.434   0.419   0.351   0.345   0.280   0.310   0.253   0.292   0.335   0.292
   0.253   0.310   0.280   0.345   0.351   0.419   0.434   0.459   0.539   0.598
   0.665   0.892   1.000   1.141   1.224   1.447   1.369   1.447   1.224   1.141
   1.000   0.892   0.665   0.598   0.539   0.459   0.434   0.419   0.351   0.345
   0.280   0.310   0.253   0.292   0.335   0.292   0.253   0.310   0.280   0.345
   0.351   0.419   0.434   0.459   0.539   0.598   0.665   0.892   1.000   1.141
   1.224   1.447
   3.123   3.256   2.728   2.159   1.986   1.397   1.164   0.896   0.729   0.515
   0.402   0.427   0.311   0.403   0.261   0.200   0.207   0.336   0.344   0.336
   0.207   0.200   0.261   0.403   0.311   0.427   0.402   0.515   0.729   0.896
   1.164   1.397   1.986   2.159   2.728   3.256   3.123   3.256   2.728   2.159
   1.986   1.397   1.164   0.896   0.729   0.515   0.402   0.427   0.311   0.403
   0.261   0.200   0.207   0.336   0.344   0.336   0.207   0.200   0.261   0.403
   0.311   0.427   0.402   0.515   0.729   0.896   1.164   1.397   1.986   2.159
   2.728   3.256
   4.188   4.304   3.812   3.291   2.699   2.035   1.676   1.301   1.003   0.846
   0.653   0.403   0.215   0.374   0.316   0.222   0.129   0.337   0.251   0.337
   0.129   0.222   0.316   0.374   0.215   0.403   0.653   0.846   1.003   1.301
   1.676   2.035   2.699   3.291   3.812   4.304   4.188   4.304   3.812   3.291
   2.699   2.035   1.676   1.301   1.003   0.846   0.653   0.403   0.215   0.374
   0.316   0.222   0.129   0.337   0.251   0.337   0.129   0.222   0.316   0.374
   0.215   0.403   0.653   0.846   1.003   1.301   1.676   2.035   2.699   3.291
   3.812   4.304
   3.574   3.390   3.152   2.808   2.428   2.259   2.013   1.606   1.492   1.188
   1.263   0.553   0.359   0.557   0.461   0.350   0.228   0.317   0.373   0.317
   0.228   0.350   0.461   0.557   0.359   0.553   1.263   1.188   1.492   1.606
   2.013   2.259   2.428   2.808   3.152   3.390   3.574   3.390   3.152   2.808
   2.428   2.259   2.013   1.606   1.492   1.188   1.263   0.553   0.359   0.557
   0.461   0.350   0.228   0.317   0.373   0.317   0.228   0.350   0.461   0.557
   0.359   0.553   1.263   1.188   1.492   1.606   2.013   2.259   2.428   2.808
   3.152   3.390
   2.352   1.685   1.821   1.544   1.823   1.818   1.835   1.700   1.802   1.483
   1.709   0.820   0.764   0.982   0.519   0.439   0.351   0.437   0.404   0.437
   0.351   0.439   0.519   0.982   0.764   0.820   1.709   1.483   1.802   1.700
   1.835   1.818   1.823   1.544   1.821   1.685   2.352   1.685   1.821   1.544
   1.823   1.818   1.835   1.700   1.802   1.483   1.709   0.820   0.764   0.982
   0.519   0.439   0.351   0.437   0.404   0.437   0.351   0.439   0.519   0.982
   0.764   0.820   1.709   1.483   1.802   1.700   1.835   1.818   1.823   1.544
   1.821   1.685
   1.397   0.842   0.926   1.167   1.269   1.358   1.302   1.572   1.541   1.583
   1.864   1.292   1.788   1.355   0.731   0.660   0.497   0.570   0.191   0.570
   0.497   0.660   0.731   1.355   1.788   1.292   1.864   1.583   1.541   1.572
   1.302   1.358   1.269   1.167   0.926   0.842   1.397   0.842   0.926   1.167
   1.269   1.358   1.302   1.572   1.541   1.583   1.864   1.292   1.788   1.355
   0.731   0.660   0.497   0.570   0.191   0.570   0.497   0.660   0.731   1.355
   1.788   1.292   1.864   1.583   1.541   1.572   1.302   1.358   1.269   1.167
   0.926   0.842
   0.763   0.835   0.503   0.872   0.709   1.051   0.611   1.286   1.289   1.474
   1.633   1.811   2.088   1.777   1.290   0.835   0.981   0.615   0.729   0.615
   0.981   0.835   1.290   1.777   2.088   1.811   1.633   1.474   1.289   1.286
   0.611   1.051   0.709   0.872   0.503   0.835   0.763   0.835   0.503   0.872
   0.709   1.051   0.611   1.286   1.289   1.474   1.633   1.811   2.088   1.777
   1.290   0.835   0.981   0.615   0.729   0.615   0.981   0.835   1.290   1.777
   2.088   1.811   1.633   1.474   1.289   1.286   0.611   1.051   0.709   0.872
   0.503   0.835
   0.370   0.534   0.283   0.590   0.393   0.713   0.094   0.780   0.900   1.112
   1.225   1.578   1.629   1.570   1.475   0.833   0.890   0.626   0.898   0.626
   0.890   0.833   1.475   1.570   1.629   1.578   1.225   1.112   0.900   0.780
   0.094   0.713   0.393   0.590   0.283   0.534   0.370   0.534   0.283   0.590
   0.393   0.713   0.094   0.780   0.900   1.112   1.225   1.578   1.629   1.570
   1.475   0.833   0.890   0.626   0.898   0.626   0.890   0.833   1.475   1.570
   1.629   1.578   1.225   1.112   0.900   0.780   0.094   0.713   0.393   0.590
   0.283   0.534
   0.241   0.287   0.121   0.425   0.176   0.466   0.320   0.503   0.403   0.781
   0.861   0.855   1.174   1.166   1.436   0.954   0.802   0.831   1.152   0.831
   0.802   0.954   1.436   1.166   1.174   0.855   0.861   0.781   0.403   0.503
   0.320   0.466   0.176   0.425   0.121   0.287   0.241   0.287   0.121   0.425
   0.176   0.466   0.320   0.503   0.403   0.781   0.861   0.855   1.174   1.166
   1.436   0.954   0.802   0.831   1.152   0.831   0.802   0.954   1.436   1.166
   1.174   0.855   0.861   0.781   0.403   0.503   0.320   0.466   0.176   0.425
   0.121   0.287
   0.689   0.195   0.288   0.547   0.024   0.485   0.538   0.478   0.480   0.676
   0.578   0.699   0.642   1.430   1.412   1.352   1.140   1.093   2.288   1.093
   1.140   1.352   1.412   1.430   0.642   0.699   0.578   0.676   0.480   0.478
   0.538   0.485   0.024   0.547   0.288   0.195   0.689   0.195   0.288   0.547
   0.024   0.485   0.538   0.478   0.480   0.676   0.578   0.699   0.642   1.430
   1.412   1.352   1.140   1.093   2.288   1.093   1.140   1.352   1.412   1.430
   0.642   0.699   0.578   0.676   0.480   0.478   0.538   0.485   0.024   0.547
   0.288   0.195
   1.124   0.897   0.879   0.671   0.357   0.673   0.498   0.441   0.663   0.480
   0.405   1.072   0.861   1.140   1.366   1.171   1.639   1.312   2.737   1.312
   1.639   1.171   1.366   1.140   0.861   1.072   0.405   0.480   0.663   0.441
   0.498   0.673   0.357   0.671   0.879   0.897   1.124   0.897   0.879   0.671
   0.357   0.673   0.498   0.441   0.663   0.480   0.405   1.072   0.861   1.140
   1.366   1.171   1.639   1.312   2.737   1.312   1.639   1.171   1.366   1.140
   0.861   1.072   0.405   0.480   0.663   0.441   0.498   0.673   0.357   0.671
   0.879   0.897
   1.140   1.683   1.282   0.387   0.576   0.559   0.448   0.882   1.118   0.452
   0.185   0.699   1.367   0.654   1.342   0.983   1.762   1.528   2.569   1.528
   1.762   0.983   1.342   0.654   1.367   0.699   0.185   0.452   1.118   0.882
   0.448   0.559   0.576   0.387   1.282   1.683   1.140   1.683   1.282   0.387
   0.576   0.559   0.448   0.882   1.118   0.452   0.185   0.699   1.367   0.654
   1.342   0.983   1.762   1.528   2.569   1.528   1.762   0.983   1.342   0.654
   1.367   0.699   0.185   0.452   1.118   0.882   0.448   0.559   0.576   0.387
   1.282   1.683
  4  1      3.9204712E-01
  4  2      6.5692493E-02
  4  3     -7.2091729E-01
  6  1      9.8867172E-01
  6  2     -2.5036870E+00
  6  3      8.3004017E-01
  6  4      1.6754214E-01
  8  1     -6.1431228E-01
  8  2      1.3957727E-01
  8  3      2.4789594E-04
  8  4      7.7676952E-01
  8  5      7.9804318E-01
 10  1     -2.4125680E-02
 10  2      5.5043610E-02
 10  3      6.3290461E-01
 10  4      3.8028892E-01
 10  5     -5.6686118E-02
 10  6     -1.9909630E-01
 12  1      3.0946503E-01  2.3623052E-01
 12  2     -1.3710298E-01 -1.1777436E+00
 12  3      1.4567475E-01  1.6027537E+00
 12  4     -1.4812468E-01 -2.1276564E-01
 12  5     -4.8444628E-02 -2.1866067E-01
 12  6     -1.7173860E-01  6.2745580E-01
 12  7     -7.6262681E-01 -1.1988864E+00
 14  1     -3.3563911E-02
 14  2      2.8460808E-01
 14  3     -8.7825174E-03
 14  4      9.7096923E-02
 14  5     -6.0242954E-01
 14  6      1.5482897E-01
 14  7     -5.3395893E-01
 14  8      6.4096456E-02
 220       5.00   72    0 5.00   18    0
   1.213   1.214   1.216   1.219   1.223   1.227   1.233   1.240   1.246   1.254
   1.261   1.268   1.274   1.280   1.285   1.289   1.292   1.294   1.295   1.294
   1.292   1.289   1.285   1.280   1.274   1.268   1.261   1.254   1.246   1.240
   1.233   1.227   1.223   1.219   1.216   1.214   1.213   1.214   1.216   1.219
   1.223   1.227   1.233   1.240   1.246   1.254   1.261   1.268   1.274   1.280
   1.285   1.289   1.292   1.294   1.295   1.294   1.292   1.289   1.285   1.280
   1.274   1.268   1.261   1.254   1.246   1.240   1.233   1.227   1.223   1.219
   1.216   1.214
   0.922   0.926   0.938   0.957   0.984   1.018   1.059   1.106   1.158   1.214
   1.271   1.329   1.385   1.437   1.484   1.522   1.550   1.568   1.574   1.568
   1.550   1.522   1.484   1.437   1.385   1.329   1.271   1.214   1.158   1.106
   1.059   1.018   0.984   0.957   0.938   0.926   0.922   0.926   0.938   0.957
   0.984   1.018   1.059   1.106   1.158   1.214   1.271   1.329   1.385   1.437
   1.484   1.522   1.550   1.568   1.574   1.568   1.550   1.522   1.484   1.437
   1.385   1.329   1.271   1.214   1.158   1.106   1.059   1.018   0.984   0.957
   0.938   0.926
   0.579   0.583   0.597   0.621   0.657   0.707   0.774   0.858   0.959   1.076
   1.205   1.344   1.484   1.621   1.745   1.851   1.931   1.981   1.999   1.981
   1.931   1.851   1.745   1.621   1.484   1.344   1.205   1.076   0.959   0.858
   0.774   0.707   0.657   0.621   0.597   0.583   0.579   0.583   0.597   0.621
   0.657   0.707   0.774   0.858   0.959   1.076   1.205   1.344   1.484   1.621
   1.745   1.851   1.931   1.981   1.999   1.981   1.931   1.851   1.745   1.621
   1.484   1.344   1.205   1.076   0.959   0.858   0.774   0.707   0.657   0.621
   0.597   0.583
   0.430   0.428   0.422   0.417   0.420   0.439   0.482   0.557   0.669   0.820
   1.005   1.219   1.448   1.679   1.897   2.085   2.230   2.321   2.352   2.321
   2.230   2.085   1.897   1.679   1.448   1.219   1.005   0.820   0.669   0.557
   0.482   0.439   0.420   0.417   0.422   0.428   0.430   0.428   0.422   0.417
   0.420   0.439   0.482   0.557   0.669   0.820   1.005   1.219   1.448   1.679
   1.897   2.085   2.230   2.321   2.352   2.321   2.230   2.085   1.897   1.679
   1.448   1.219   1.005   0.820   0.669   0.557   0.482   0.439   0.420   0.417
   0.422   0.428
   0.497   0.485   0.451   0.403   0.350   0.308   0.291   0.316   0.397   0.539
   0.741   0.993   1.279   1.574   1.855   2.098   2.285   2.403   2.443   2.403
   2.285   2.098   1.855   1.574   1.279   0.993   0.741   0.539   0.397   0.316
   0.291   0.308   0.350   0.403   0.451   0.485   0.497   0.485   0.451   0.403
   0.350   0.308   0.291   0.316   0.397   0.539   0.741   0.993   1.279   1.574
   1.855   2.098   2.285   2.403   2.443   2.403   2.285   2.098   1.855   1.574
   1.279   0.993   0.741   0.539   0.397   0.316   0.291   0.308   0.350   0.403
   0.451   0.485
   0.566   0.553   0.516   0.457   0.384   0.310   0.253   0.234   0.274   0.386
   0.572   0.820   1.107   1.403   1.677   1.906   2.074   2.176   2.210   2.176
   2.074   1.906   1.677   1.403   1.107   0.820   0.572   0.386   0.274   0.234
   0.253   0.310   0.384   0.457   0.516   0.553   0.566   0.553   0.516   0.457
   0.384   0.310   0.253   0.234   0.274   0.386   0.572   0.820   1.107   1.403
   1.677   1.906   2.074   2.176   2.210   2.176   2.074   1.906   1.677   1.403
   1.107   0.820   0.572   0.386   0.274   0.234   0.253   0.310   0.384   0.457
   0.516   0.553
   0.449   0.450   0.448   0.438   0.414   0.378   0.341   0.324   0.350   0.439
   0.599   0.817   1.064   1.304   1.502   1.640   1.719   1.755   1.764   1.755
   1.719   1.640   1.502   1.304   1.064   0.817   0.599   0.439   0.350   0.324
   0.341   0.378   0.414   0.438   0.448   0.450   0.449   0.450   0.448   0.438
   0.414   0.378   0.341   0.324   0.350   0.439   0.599   0.817   1.064   1.304
   1.502   1.640   1.719   1.755   1.764   1.755   1.719   1.640   1.502   1.304
   1.064   0.817   0.599   0.439   0.350   0.324   0.341   0.378   0.414   0.438
   0.448   0.450
   0.249   0.266   0.310   0.367   0.420   0.459   0.482   0.502   0.540   0.621
   0.757   0.940   1.140   1.310   1.412   1.431   1.389   1.332   1.307   1.332
   1.389   1.431   1.412   1.310   1.140   0.940   0.757   0.621   0.540   0.502
   0.482   0.459   0.420   0.367   0.310   0.266   0.249   0.266   0.310   0.367
   0.420   0.459   0.482   0.502   0.540   0.621   0.757   0.940   1.140   1.310
   1.412   1.431   1.389   1.332   1.307   1.332   1.389   1.431   1.412   1.310
   1.140   0.940   0.757   0.621   0.540   0.502   0.482   0.459   0.420   0.367
   0.310   0.266
   0.339   0.352   0.389   0.443   0.503   0.563   0.615   0.659   0.703   0.766
   0.868   1.014   1.182   1.318   1.368   1.309   1.175   1.040   0.985   1.040
   1.175   1.309   1.368   1.318   1.182   1.014   0.868   0.766   0.703   0.659
   0.615   0.563   0.503   0.443   0.389   0.352   0.339   0.352   0.389   0.443
   0.503   0.563   0.615   0.659   0.703   0.766   0.868   1.014   1.182   1.318
   1.368   1.309   1.175   1.040   0.985   1.040   1.175   1.309   1.368   1.318
   1.182   1.014   0.868   0.766   0.703   0.659   0.615   0.563   0.503   0.443
   0.389   0.352
   1.007   0.984   0.922   0.842   0.774   0.738   0.738   0.755   0.770   0.781
   0.814   0.902   1.045   1.194   1.267   1.211   1.050   0.878   0.805   0.878
   1.050   1.211   1.267   1.194   1.045   0.902   0.814   0.781   0.770   0.755
   0.738   0.738   0.774   0.842   0.922   0.984   1.007   0.984   0.922   0.842
   0.774   0.738   0.738   0.755   0.770   0.781   0.814   0.902   1.045   1.194
   1.267   1.211   1.050   0.878   0.805   0.878   1.050   1.211   1.267   1.194
   1.045   0.902   0.814   0.781   0.770   0.755   0.738   0.738   0.774   0.842
   0.922   0.984
   2.086   2.006   1.788   1.492   1.200   0.986   0.878   0.839   0.805   0.737
   0.662   0.652   0.754   0.933   1.076   1.082   0.943   0.764   0.683   0.764
   0.943   1.082   1.076   0.933   0.754   0.652   0.662   0.737   0.805   0.839
   0.878   0.986   1.200   1.492   1.788   2.006   2.086   2.006   1.788   1.492
   1.200   0.986   0.878   0.839   0.805   0.737   0.662   0.652   0.754   0.933
   1.076   1.082   0.943   0.764   0.683   0.764   0.943   1.082   1.076   0.933
   0.754   0.652   0.662   0.737   0.805   0.839   0.878   0.986   1.200   1.492
   1.788   2.006
   2.963   2.844   2.513   2.051   1.579   1.222   1.037   0.977   0.926   0.795
   0.605   0.472   0.503   0.689   0.893   0.957   0.838   0.647   0.557   0.647
   0.838   0.957   0.893   0.689   0.503   0.472   0.605   0.795   0.926   0.977
   1.037   1.222   1.579   2.051   2.513   2.844   2.963   2.844   2.513   2.051
   1.579   1.222   1.037   0.977   0.926   0.795   0.605   0.472   0.503   0.689
   0.893   0.957   0.838   0.647   0.557   0.647   0.838   0.957   0.893   0.689
   0.503   0.472   0.605   0.795   0.926   0.977   1.037   1.222   1.579   2.051
   2.513   2.844
   3.042   2.934   2.622   2.165   1.682   1.318   1.159   1.158   1.163   1.036
   0.779   0.540   0.484   0.638   0.852   0.928   0.794   0.572   0.465   0.572
   0.794   0.928   0.852   0.638   0.484   0.540   0.779   1.036   1.163   1.158
   1.159   1.318   1.682   2.165   2.622   2.934   3.042   2.934   2.622   2.165
   1.682   1.318   1.159   1.158   1.163   1.036   0.779   0.540   0.484   0.638
   0.852   0.928   0.794   0.572   0.465   0.572   0.794   0.928   0.852   0.638
   0.484   0.540   0.779   1.036   1.163   1.158   1.159   1.318   1.682   2.165
   2.622   2.934
   2.261   2.211   2.050   1.771   1.444   1.203   1.158   1.281   1.406   1.361
   1.116   0.827   0.697   0.791   0.973   1.028   0.868   0.617   0.498   0.617
   0.868   1.028   0.973   0.791   0.697   0.827   1.116   1.361   1.406   1.281
   1.158   1.203   1.444   1.771   2.050   2.211   2.261   2.211   2.050   1.771
   1.444   1.203   1.158   1.281   1.406   1.361   1.116   0.827   0.697   0.791
   0.973   1.028   0.868   0.617   0.498   0.617   0.868   1.028   0.973   0.791
   0.697   0.827   1.116   1.361   1.406   1.281   1.158   1.203   1.444   1.771
   2.050   2.211
   1.153   1.176   1.201   1.150   1.021   0.925   0.990   1.226   1.481   1.560
   1.394   1.114   0.940   0.976   1.121   1.175   1.037   0.812   0.703   0.812
   1.037   1.175   1.121   0.976   0.940   1.114   1.394   1.560   1.481   1.226
   0.990   0.925   1.021   1.150   1.201   1.176   1.153   1.176   1.201   1.150
   1.021   0.925   0.990   1.226   1.481   1.560   1.394   1.114   0.940   0.976
   1.121   1.175   1.037   0.812   0.703   0.812   1.037   1.175   1.121   0.976
   0.940   1.114   1.394   1.560   1.481   1.226   0.990   0.925   1.021   1.150
   1.201   1.176
   0.381   0.450   0.592   0.677   0.653   0.609   0.697   0.970   1.308   1.499
   1.432   1.196   1.002   0.995   1.132   1.243   1.214   1.094   1.027   1.094
   1.214   1.243   1.132   0.995   1.002   1.196   1.432   1.499   1.308   0.970
   0.697   0.609   0.653   0.677   0.592   0.450   0.381   0.450   0.592   0.677
   0.653   0.609   0.697   0.970   1.308   1.499   1.432   1.196   1.002   0.995
   1.132   1.243   1.214   1.094   1.027   1.094   1.214   1.243   1.132   0.995
   1.002   1.196   1.432   1.499   1.308   0.970   0.697   0.609   0.653   0.677
   0.592   0.450
   0.182   0.260   0.420   0.512   0.465   0.366   0.390   0.628   0.985   1.247
   1.257   1.061   0.859   0.829   0.987   1.199   1.328   1.354   1.347   1.354
   1.328   1.199   0.987   0.829   0.859   1.061   1.257   1.247   0.985   0.628
   0.390   0.366   0.465   0.512   0.420   0.260   0.182   0.260   0.420   0.512
   0.465   0.366   0.390   0.628   0.985   1.247   1.257   1.061   0.859   0.829
   0.987   1.199   1.328   1.354   1.347   1.354   1.328   1.199   0.987   0.829
   0.859   1.061   1.257   1.247   0.985   0.628   0.390   0.366   0.465   0.512
   0.420   0.260
   0.272   0.342   0.477   0.526   0.417   0.244   0.196   0.386   0.735   1.024
   1.073   0.899   0.692   0.654   0.835   1.125   1.371   1.505   1.542   1.505
   1.371   1.125   0.835   0.654   0.692   0.899   1.073   1.024   0.735   0.386
   0.196   0.244   0.417   0.526   0.477   0.342   0.272   0.342   0.477   0.526
   0.417   0.244   0.196   0.386   0.735   1.024   1.073   0.899   0.692   0.654
   0.835   1.125   1.371   1.505   1.542   1.505   1.371   1.125   0.835   0.654
   0.692   0.899   1.073   1.024   0.735   0.386   0.196   0.244   0.417   0.526
   0.477   0.342
 200       5.00   72    0 5.00   18    0
   0.777   0.777   0.777   0.778   0.780   0.781   0.783   0.785   0.787   0.790
   0.792   0.794   0.796   0.798   0.800   0.801   0.802   0.803   0.803   0.803
   0.802   0.801   0.800   0.798   0.796   0.794   0.792   0.790   0.787   0.785
   0.783   0.781   0.780   0.778   0.777   0.777   0.777   0.777   0.777   0.778
   0.780   0.781   0.783   0.785   0.787   0.790   0.792   0.794   0.796   0.798
   0.800   0.801   0.802   0.803   0.803   0.803   0.802   0.801   0.800   0.798
   0.796   0.794   0.792   0.790   0.787   0.785   0.783   0.781   0.780   0.778
   0.777   0.777
   0.724   0.725   0.727   0.730   0.736   0.743   0.751   0.761   0.772   0.785
   0.798   0.812   0.826   0.839   0.850   0.860   0.868   0.872   0.874   0.872
   0.868   0.860   0.850   0.839   0.826   0.812   0.798   0.785   0.772   0.761
   0.751   0.743   0.736   0.730   0.727   0.725   0.724   0.725   0.727   0.730
   0.736   0.743   0.751   0.761   0.772   0.785   0.798   0.812   0.826   0.839
   0.850   0.860   0.868   0.872   0.874   0.872   0.868   0.860   0.850   0.839
   0.826   0.812   0.798   0.785   0.772   0.761   0.751   0.743   0.736   0.730
   0.727   0.725
   0.864   0.862   0.857   0.850   0.841   0.831   0.823   0.817   0.815   0.817
   0.824   0.835   0.850   0.868   0.886   0.904   0.918   0.927   0.930   0.927
   0.918   0.904   0.886   0.868   0.850   0.835   0.824   0.817   0.815   0.817
   0.823   0.831   0.841   0.850   0.857   0.862   0.864   0.862   0.857   0.850
   0.841   0.831   0.823   0.817   0.815   0.817   0.824   0.835   0.850   0.868
   0.886   0.904   0.918   0.927   0.930   0.927   0.918   0.904   0.886   0.868
   0.850   0.835   0.824   0.817   0.815   0.817   0.823   0.831   0.841   0.850
   0.857   0.862
   1.348   1.340   1.316   1.277   1.227   1.168   1.105   1.042   0.982   0.930
   0.888   0.859   0.844   0.841   0.849   0.862   0.877   0.888   0.892   0.888
   0.877   0.862   0.849   0.841   0.844   0.859   0.888   0.930   0.982   1.042
   1.105   1.168   1.227   1.277   1.316   1.340   1.348   1.340   1.316   1.277
   1.227   1.168   1.105   1.042   0.982   0.930   0.888   0.859   0.844   0.841
   0.849   0.862   0.877   0.888   0.892   0.888   0.877   0.862   0.849   0.841
   0.844   0.859   0.888   0.930   0.982   1.042   1.105   1.168   1.227   1.277
   1.316   1.340
   1.961   1.946   1.904   1.836   1.747   1.641   1.521   1.393   1.260   1.129
   1.008   0.903   0.823   0.771   0.745   0.741   0.750   0.760   0.764   0.760
   0.750   0.741   0.745   0.771   0.823   0.903   1.008   1.129   1.260   1.393
   1.521   1.641   1.747   1.836   1.904   1.946   1.961   1.946   1.904   1.836
   1.747   1.641   1.521   1.393   1.260   1.129   1.008   0.903   0.823   0.771
   0.745   0.741   0.750   0.760   0.764   0.760   0.750   0.741   0.745   0.771
   0.823   0.903   1.008   1.129   1.260   1.393   1.521   1.641   1.747   1.836
   1.904   1.946
   2.248   2.233   2.192   2.128   2.045   1.947   1.831   1.696   1.538   1.360
   1.171   0.988   0.828   0.708   0.635   0.605   0.605   0.615   0.620   0.615
   0.605   0.605   0.635   0.708   0.828   0.988   1.171   1.360   1.538   1.696
   1.831   1.947   2.045   2.128   2.192   2.233   2.248   2.233   2.192   2.128
   2.045   1.947   1.831   1.696   1.538   1.360   1.171   0.988   0.828   0.708
   0.635   0.605   0.605   0.615   0.620   0.615   0.605   0.605   0.635   0.708
   0.828   0.988   1.171   1.360   1.538   1.696   1.831   1.947   2.045   2.128
   2.192   2.233
   1.942   1.934   1.912   1.887   1.864   1.845   1.818   1.767   1.673   1.524
   1.325   1.098   0.876   0.691   0.568   0.510   0.501   0.513   0.520   0.513
   0.501   0.510   0.568   0.691   0.876   1.098   1.325   1.524   1.673   1.767
   1.818   1.845   1.864   1.887   1.912   1.934   1.942   1.934   1.912   1.887
   1.864   1.845   1.818   1.767   1.673   1.524   1.325   1.098   0.876   0.691
   0.568   0.510   0.501   0.513   0.520   0.513   0.501   0.510   0.568   0.691
   0.876   1.098   1.325   1.524   1.673   1.767   1.818   1.845   1.864   1.887
   1.912   1.934
   1.230   1.227   1.225   1.241   1.288   1.368   1.464   1.546   1.578   1.530
   1.394   1.187   0.948   0.726   0.562   0.475   0.452   0.461   0.469   0.461
   0.452   0.475   0.562   0.726   0.948   1.187   1.394   1.530   1.578   1.546
   1.464   1.368   1.288   1.241   1.225   1.227   1.230   1.227   1.225   1.241
   1.288   1.368   1.464   1.546   1.578   1.530   1.394   1.187   0.948   0.726
   0.562   0.475   0.452   0.461   0.469   0.461   0.452   0.475   0.562   0.726
   0.948   1.187   1.394   1.530   1.578   1.546   1.464   1.368   1.288   1.241
   1.225   1.227
   0.589   0.584   0.579   0.600   0.669   0.794   0.960   1.135   1.279   1.353
   1.334   1.216   1.027   0.813   0.627   0.507   0.456   0.447   0.450   0.447
   0.456   0.507   0.627   0.813   1.027   1.216   1.334   1.353   1.279   1.135
   0.960   0.794   0.669   0.600   0.579   0.584   0.589   0.584   0.579   0.600
   0.669   0.794   0.960   1.135   1.279   1.353   1.334   1.216   1.027   0.813
   0.627   0.507   0.456   0.447   0.450   0.447   0.456   0.507   0.627   0.813
   1.027   1.216   1.334   1.353   1.279   1.135   0.960   0.794   0.669   0.600
   0.579   0.584
   0.365   0.350   0.318   0.300   0.327   0.414   0.553   0.729   0.914   1.080
   1.188   1.206   1.123   0.962   0.776   0.620   0.522   0.479   0.469   0.479
   0.522   0.620   0.776   0.962   1.123   1.206   1.188   1.080   0.914   0.729
   0.553   0.414   0.327   0.300   0.318   0.350   0.365   0.350   0.318   0.300
   0.327   0.414   0.553   0.729   0.914   1.080   1.188   1.206   1.123   0.962
   0.776   0.620   0.522   0.479   0.469   0.479   0.522   0.620   0.776   0.962
   1.123   1.206   1.188   1.080   0.914   0.729   0.553   0.414   0.327   0.300
   0.318   0.350
   0.520   0.491   0.419   0.344   0.304   0.317   0.386   0.508   0.678   0.883
   1.085   1.226   1.256   1.164   0.990   0.802   0.654   0.570   0.544   0.570
   0.654   0.802   0.990   1.164   1.256   1.226   1.085   0.883   0.678   0.508
   0.386   0.317   0.304   0.344   0.419   0.491   0.520   0.491   0.419   0.344
   0.304   0.317   0.386   0.508   0.678   0.883   1.085   1.226   1.256   1.164
   0.990   0.802   0.654   0.570   0.544   0.570   0.654   0.802   0.990   1.164
   1.256   1.226   1.085   0.883   0.678   0.508   0.386   0.317   0.304   0.344
   0.419   0.491
   0.749   0.707   0.601   0.482   0.400   0.384   0.436   0.551   0.721   0.934
   1.156   1.331   1.402   1.343   1.182   0.982   0.807   0.695   0.658   0.695
   0.807   0.982   1.182   1.343   1.402   1.331   1.156   0.934   0.721   0.551
   0.436   0.384   0.400   0.482   0.601   0.707   0.749   0.707   0.601   0.482
   0.400   0.384   0.436   0.551   0.721   0.934   1.156   1.331   1.402   1.343
   1.182   0.982   0.807   0.695   0.658   0.695   0.807   0.982   1.182   1.343
   1.402   1.331   1.156   0.934   0.721   0.551   0.436   0.384   0.400   0.482
   0.601   0.707
   0.805   0.758   0.638   0.504   0.423   0.448   0.589   0.812   1.059   1.274
   1.422   1.490   1.475   1.387   1.240   1.066   0.903   0.789   0.748   0.789
   0.903   1.066   1.240   1.387   1.475   1.490   1.422   1.274   1.059   0.812
   0.589   0.448   0.423   0.504   0.638   0.758   0.805   0.758   0.638   0.504
   0.423   0.448   0.589   0.812   1.059   1.274   1.422   1.490   1.475   1.387
   1.240   1.066   0.903   0.789   0.748   0.789   0.903   1.066   1.240   1.387
   1.475   1.490   1.422   1.274   1.059   0.812   0.589   0.448   0.423   0.504
   0.638   0.758
   0.687   0.656   0.567   0.451   0.385   0.466   0.742   1.152   1.543   1.760
   1.751   1.583   1.379   1.226   1.124   1.029   0.915   0.809   0.765   0.809
   0.915   1.029   1.124   1.226   1.379   1.583   1.751   1.760   1.543   1.152
   0.742   0.466   0.385   0.451   0.567   0.656   0.687   0.656   0.567   0.451
   0.385   0.466   0.742   1.152   1.543   1.760   1.751   1.583   1.379   1.226
   1.124   1.029   0.915   0.809   0.765   0.809   0.915   1.029   1.124   1.226
   1.379   1.583   1.751   1.760   1.543   1.152   0.742   0.466   0.385   0.451
   0.567   0.656
   0.574   0.590   0.598   0.541   0.463   0.522   0.856   1.413   1.937   2.143
   1.938   1.489   1.085   0.906   0.918   0.957   0.903   0.787   0.726   0.787
   0.903   0.957   0.918   0.906   1.085   1.489   1.938   2.143   1.937   1.413
   0.856   0.522   0.463   0.541   0.598   0.590   0.574   0.590   0.598   0.541
   0.463   0.522   0.856   1.413   1.937   2.143   1.938   1.489   1.085   0.906
   0.918   0.957   0.903   0.787   0.726   0.787   0.903   0.957   0.918   0.906
   1.085   1.489   1.938   2.143   1.937   1.413   0.856   0.522   0.463   0.541
   0.598   0.590
   0.605   0.702   0.875   0.916   0.783   0.700   0.936   1.505   2.083   2.251
   1.867   1.190   0.666   0.557   0.762   0.966   0.955   0.792   0.698   0.792
   0.955   0.966   0.762   0.557   0.666   1.190   1.867   2.251   2.083   1.505
   0.936   0.700   0.783   0.916   0.875   0.702   0.605   0.702   0.875   0.916
   0.783   0.700   0.936   1.505   2.083   2.251   1.867   1.190   0.666   0.557
   0.762   0.966   0.955   0.792   0.698   0.792   0.955   0.966   0.762   0.557
   0.666   1.190   1.867   2.251   2.083   1.505   0.936   0.700   0.783   0.916
   0.875   0.702
   0.759   0.947   1.308   1.459   1.254   0.961   0.992   1.458   2.006   2.122
   1.613   0.807   0.265   0.296   0.719   1.078   1.085   0.852   0.716   0.852
   1.085   1.078   0.719   0.296   0.265   0.807   1.613   2.122   2.006   1.458
   0.992   0.961   1.254   1.459   1.308   0.947   0.759   0.947   1.308   1.459
   1.254   0.961   0.992   1.458   2.006   2.122   1.613   0.807   0.265   0.296
   0.719   1.078   1.085   0.852   0.716   0.852   1.085   1.078   0.719   0.296
   0.265   0.807   1.613   2.122   2.006   1.458   0.992   0.961   1.254   1.459
   1.308   0.947
   0.899   1.147   1.635   1.862   1.605   1.158   1.024   1.385   1.886   1.962
   1.394   0.540   0.023   0.168   0.738   1.192   1.201   0.916   0.749   0.916
   1.201   1.192   0.738   0.168   0.023   0.540   1.394   1.962   1.886   1.385
   1.024   1.158   1.605   1.862   1.635   1.147   0.899   1.147   1.635   1.862
   1.605   1.158   1.024   1.385   1.886   1.962   1.394   0.540   0.023   0.168
   0.738   1.192   1.201   0.916   0.749   0.916   1.201   1.192   0.738   0.168
   0.023   0.540   1.394   1.962   1.886   1.385   1.024   1.158   1.605   1.862
   1.635   1.147
 111       5.00   72    0 5.00   18    0
   0.121   0.121   0.122   0.122   0.123   0.124   0.126   0.127   0.128   0.130
   0.132   0.133   0.135   0.136   0.138   0.139   0.139   0.140   0.140   0.140
   0.139   0.139   0.138   0.136   0.135   0.133   0.132   0.130   0.128   0.127
   0.126   0.124   0.123   0.122   0.122   0.121   0.121   0.121   0.122   0.122
   0.123   0.124   0.126   0.127   0.128   0.130   0.132   0.133   0.135   0.136
   0.138   0.139   0.139   0.140   0.140   0.140   0.139   0.139   0.138   0.136
   0.135   0.133   0.132   0.130   0.128   0.127   0.126   0.124   0.123   0.122
   0.122   0.121
   0.215   0.214   0.213   0.211   0.209   0.208   0.207   0.208   0.211   0.217
   0.225   0.234   0.245   0.256   0.267   0.276   0.284   0.288   0.290   0.288
   0.284   0.276   0.267   0.256   0.245   0.234   0.225   0.217   0.211   0.208
   0.207   0.208   0.209   0.211   0.213   0.214   0.215   0.214   0.213   0.211
   0.209   0.208   0.207   0.208   0.211   0.217   0.225   0.234   0.245   0.256
   0.267   0.276   0.284   0.288   0.290   0.288   0.284   0.276   0.267   0.256
   0.245   0.234   0.225   0.217   0.211   0.208   0.207   0.208   0.209   0.211
   0.213   0.214
   0.638   0.630   0.607   0.572   0.528   0.479   0.431   0.388   0.354   0.332
   0.323   0.327   0.342   0.365   0.393   0.420   0.443   0.459   0.464   0.459
   0.443   0.420   0.393   0.365   0.342   0.327   0.323   0.332   0.354   0.388
   0.431   0.479   0.528   0.572   0.607   0.630   0.638   0.630   0.607   0.572
   0.528   0.479   0.431   0.388   0.354   0.332   0.323   0.327   0.342   0.365
   0.393   0.420   0.443   0.459   0.464   0.459   0.443   0.420   0.393   0.365
   0.342   0.327   0.323   0.332   0.354   0.388   0.431   0.479   0.528   0.572
   0.607   0.630
   1.502   1.477   1.404   1.290   1.146   0.985   0.821   0.667   0.534   0.431
   0.362   0.329   0.329   0.355   0.399   0.449   0.494   0.525   0.537   0.525
   0.494   0.449   0.399   0.355   0.329   0.329   0.362   0.431   0.534   0.667
   0.821   0.985   1.146   1.290   1.404   1.477   1.502   1.477   1.404   1.290
   1.146   0.985   0.821   0.667   0.534   0.431   0.362   0.329   0.329   0.355
   0.399   0.449   0.494   0.525   0.537   0.525   0.494   0.449   0.399   0.355
   0.329   0.329   0.362   0.431   0.534   0.667   0.821   0.985   1.146   1.290
   1.404   1.477
   2.505   2.459   2.327   2.121   1.863   1.575   1.281   1.001   0.753   0.548
   0.397   0.302   0.261   0.269   0.312   0.374   0.436   0.482   0.498   0.482
   0.436   0.374   0.312   0.269   0.261   0.302   0.397   0.548   0.753   1.001
   1.281   1.575   1.863   2.121   2.327   2.459   2.505   2.459   2.327   2.121
   1.863   1.575   1.281   1.001   0.753   0.548   0.397   0.302   0.261   0.269
   0.312   0.374   0.436   0.482   0.498   0.482   0.436   0.374   0.312   0.269
   0.261   0.302   0.397   0.548   0.753   1.001   1.281   1.575   1.863   2.121
   2.327   2.459
   3.082   3.024   2.859   2.608   2.300   1.965   1.630   1.312   1.024   0.773
   0.566   0.410   0.310   0.267   0.275   0.318   0.374   0.420   0.437   0.420
   0.374   0.318   0.275   0.267   0.310   0.410   0.566   0.773   1.024   1.312
   1.630   1.965   2.300   2.608   2.859   3.024   3.082   3.024   2.859   2.608
   2.300   1.965   1.630   1.312   1.024   0.773   0.566   0.410   0.310   0.267
   0.275   0.318   0.374   0.420   0.437   0.420   0.374   0.318   0.275   0.267
   0.310   0.410   0.566   0.773   1.024   1.312   1.630   1.965   2.300   2.608
   2.859   3.024
   2.869   2.815   2.664   2.446   2.199   1.953   1.726   1.520   1.326   1.136
   0.944   0.759   0.596   0.474   0.403   0.383   0.396   0.418   0.428   0.418
   0.396   0.383   0.403   0.474   0.596   0.759   0.944   1.136   1.326   1.520
   1.726   1.953   2.199   2.446   2.664   2.815   2.869   2.815   2.664   2.446
   2.199   1.953   1.726   1.520   1.326   1.136   0.944   0.759   0.596   0.474
   0.403   0.383   0.396   0.418   0.428   0.418   0.396   0.383   0.403   0.474
   0.596   0.759   0.944   1.136   1.326   1.520   1.726   1.953   2.199   2.446
   2.664   2.815
   2.023   1.984   1.883   1.757   1.648   1.583   1.565   1.572   1.570   1.525
   1.420   1.256   1.055   0.853   0.683   0.567   0.504   0.480   0.474   0.480
   0.504   0.567   0.683   0.853   1.055   1.256   1.420   1.525   1.570   1.572
   1.565   1.583   1.648   1.757   1.883   1.984   2.023   1.984   1.883   1.757
   1.648   1.583   1.565   1.572   1.570   1.525   1.420   1.256   1.055   0.853
   0.683   0.567   0.504   0.480   0.474   0.480   0.504   0.567   0.683   0.853
   1.055   1.256   1.420   1.525   1.570   1.572   1.565   1.583   1.648   1.757
   1.883   1.984
   1.070   1.048   1.000   0.969   0.998   1.103   1.270   1.460   1.626   1.729
   1.742   1.655   1.479   1.248   1.008   0.802   0.657   0.575   0.550   0.575
   0.657   0.802   1.008   1.248   1.479   1.655   1.742   1.729   1.626   1.460
   1.270   1.103   0.998   0.969   1.000   1.048   1.070   1.048   1.000   0.969
   0.998   1.103   1.270   1.460   1.626   1.729   1.742   1.655   1.479   1.248
   1.008   0.802   0.657   0.575   0.550   0.575   0.657   0.802   1.008   1.248
   1.479   1.655   1.742   1.729   1.626   1.460   1.270   1.103   0.998   0.969
   1.000   1.048
   0.467   0.454   0.437   0.462   0.567   0.752   0.984   1.219   1.429   1.598
   1.710   1.744   1.677   1.511   1.279   1.038   0.840   0.716   0.674   0.716
   0.840   1.038   1.279   1.511   1.677   1.744   1.710   1.598   1.429   1.219
   0.984   0.752   0.567   0.462   0.437   0.454   0.467   0.454   0.437   0.462
   0.567   0.752   0.984   1.219   1.429   1.598   1.710   1.744   1.677   1.511
   1.279   1.038   0.840   0.716   0.674   0.716   0.840   1.038   1.279   1.511
   1.677   1.744   1.710   1.598   1.429   1.219   0.984   0.752   0.567   0.462
   0.437   0.454
   0.303   0.287   0.267   0.298   0.415   0.596   0.785   0.941   1.067   1.199
   1.357   1.516   1.612   1.593   1.460   1.264   1.075   0.947   0.902   0.947
   1.075   1.264   1.460   1.593   1.612   1.516   1.357   1.199   1.067   0.941
   0.785   0.596   0.415   0.298   0.267   0.287   0.303   0.287   0.267   0.298
   0.415   0.596   0.785   0.941   1.067   1.199   1.357   1.516   1.612   1.593
   1.460   1.264   1.075   0.947   0.902   0.947   1.075   1.264   1.460   1.593
   1.612   1.516   1.357   1.199   1.067   0.941   0.785   0.596   0.415   0.298
   0.267   0.287
   0.373   0.344   0.292   0.294   0.389   0.544   0.678   0.738   0.748   0.790
   0.929   1.155   1.385   1.526   1.539   1.457   1.348   1.266   1.237   1.266
   1.348   1.457   1.539   1.526   1.385   1.155   0.929   0.790   0.748   0.738
   0.678   0.544   0.389   0.294   0.292   0.344   0.373   0.344   0.292   0.294
   0.389   0.544   0.678   0.738   0.748   0.790   0.929   1.155   1.385   1.526
   1.539   1.457   1.348   1.266   1.237   1.266   1.348   1.457   1.539   1.526
   1.385   1.155   0.929   0.790   0.748   0.738   0.678   0.544   0.389   0.294
   0.292   0.344
   0.472   0.426   0.334   0.289   0.353   0.499   0.635   0.685   0.652   0.623
   0.690   0.878   1.130   1.355   1.496   1.555   1.569   1.571   1.571   1.571
   1.569   1.555   1.496   1.355   1.130   0.878   0.690   0.623   0.652   0.685
   0.635   0.499   0.353   0.289   0.334   0.426   0.472   0.426   0.334   0.289
   0.353   0.499   0.635   0.685   0.652   0.623   0.690   0.878   1.130   1.355
   1.496   1.555   1.569   1.571   1.571   1.571   1.569   1.555   1.496   1.355
   1.130   0.878   0.690   0.623   0.652   0.685   0.635   0.499   0.353   0.289
   0.334   0.426
   0.579   0.532   0.426   0.344   0.357   0.474   0.636   0.755   0.783   0.744
   0.714   0.762   0.906   1.110   1.322   1.501   1.633   1.714   1.742   1.714
   1.633   1.501   1.322   1.110   0.906   0.762   0.714   0.744   0.783   0.755
   0.636   0.474   0.357   0.344   0.426   0.532   0.579   0.532   0.426   0.344
   0.357   0.474   0.636   0.755   0.783   0.744   0.714   0.762   0.906   1.110
   1.322   1.501   1.633   1.714   1.742   1.714   1.633   1.501   1.322   1.110
   0.906   0.762   0.714   0.744   0.783   0.755   0.636   0.474   0.357   0.344
   0.426   0.532
   0.797   0.782   0.732   0.648   0.570   0.565   0.670   0.838   0.966   0.968
   0.853   0.724   0.697   0.822   1.059   1.314   1.511   1.623   1.657   1.623
   1.511   1.314   1.059   0.822   0.697   0.724   0.853   0.968   0.966   0.838
   0.670   0.565   0.570   0.648   0.732   0.782   0.797   0.782   0.732   0.648
   0.570   0.565   0.670   0.838   0.966   0.968   0.853   0.724   0.697   0.822
   1.059   1.314   1.511   1.623   1.657   1.623   1.511   1.314   1.059   0.822
   0.697   0.724   0.853   0.968   0.966   0.838   0.670   0.565   0.570   0.648
   0.732   0.782
   1.172   1.228   1.315   1.280   1.075   0.827   0.724   0.829   1.012   1.069
   0.910   0.644   0.478   0.542   0.794   1.083   1.276   1.354   1.368   1.354
   1.276   1.083   0.794   0.542   0.478   0.644   0.910   1.069   1.012   0.829
   0.724   0.827   1.075   1.280   1.315   1.228   1.172   1.228   1.315   1.280
   1.075   0.827   0.724   0.829   1.012   1.069   0.910   0.644   0.478   0.542
   0.794   1.083   1.276   1.354   1.368   1.354   1.276   1.083   0.794   0.542
   0.478   0.644   0.910   1.069   1.012   0.829   0.724   0.827   1.075   1.280
   1.315   1.228
   1.600   1.743   2.004   2.050   1.716   1.176   0.778   0.724   0.894   0.989
   0.825   0.497   0.270   0.325   0.606   0.903   1.048   1.051   1.029   1.051
   1.048   0.903   0.606   0.325   0.270   0.497   0.825   0.989   0.894   0.724
   0.778   1.176   1.716   2.050   2.004   1.743   1.600   1.743   2.004   2.050
   1.716   1.176   0.778   0.724   0.894   0.989   0.825   0.497   0.270   0.325
   0.606   0.903   1.048   1.051   1.029   1.051   1.048   0.903   0.606   0.325
   0.270   0.497   0.825   0.989   0.894   0.724   0.778   1.176   1.716   2.050
   2.004   1.743
   1.887   2.091   2.475   2.584   2.168   1.426   0.811   0.621   0.756   0.868
   0.714   0.374   0.139   0.209   0.518   0.814   0.916   0.859   0.810   0.859
   0.916   0.814   0.518   0.209   0.139   0.374   0.714   0.868   0.756   0.621
   0.811   1.426   2.168   2.584   2.475   2.091   1.887   2.091   2.475   2.584
   2.168   1.426   0.811   0.621   0.756   0.868   0.714   0.374   0.139   0.209
   0.518   0.814   0.916   0.859   0.810   0.859   0.916   0.814   0.518   0.209
   0.139   0.374   0.714   0.868   0.756   0.621   0.811   1.426   2.168   2.584
   2.475   2.091
TEXTURE_INDEX=   2.1071
ERR_CF 220         1076     548   43.26   20.33
ERR_CF 200         1076     308   48.29   22.07
ERR_CF 111         1080     360   38.11   14.60
