TEXEVAL                                                                         
Analysis started on 16-Sep-19 15:24:10                                          
 LMAX=14LFMAX=03 CUBIC ORTHO   
 220      5.00 5.00
 200      5.00 5.00
 111      5.00 5.00
 220       5.00   72    0 5.00   15    0
   1.836   1.836   1.836   1.836   1.836   1.836   1.836   1.836   1.836   1.836
   1.836   1.836   1.836   1.836   1.836   1.836   1.836   1.836   1.836   1.836
   1.836   1.836   1.836   1.836   1.836   1.836   1.836   1.836   1.836   1.836
   1.836   1.836   1.836   1.836   1.836   1.836   1.836   1.836   1.836   1.836
   1.836   1.836   1.836   1.836   1.836   1.836   1.836   1.836   1.836   1.836
   1.836   1.836   1.836   1.836   1.836   1.836   1.836   1.836   1.836   1.836
   1.836   1.836   1.836   1.836   1.836   1.836   1.836   1.836   1.836   1.836
   1.836   1.836
   0.813   1.043   0.983   1.121   1.018   1.105   1.167   1.317   1.476   1.386
   1.376   1.559   1.717   1.814   2.173   2.160   2.108   1.974   2.207   1.974
   2.108   2.160   2.173   1.814   1.717   1.559   1.376   1.386   1.476   1.317
   1.167   1.105   1.018   1.121   0.983   1.043   0.813   1.043   0.983   1.121
   1.018   1.105   1.167   1.317   1.476   1.386   1.376   1.559   1.717   1.814
   2.173   2.160   2.108   1.974   2.207   1.974   2.108   2.160   2.173   1.814
   1.717   1.559   1.376   1.386   1.476   1.317   1.167   1.105   1.018   1.121
   0.983   1.043
   0.343   0.423   0.311   0.553   0.458   0.576   0.630   0.624   0.737   0.809
   1.111   1.260   1.275   1.367   2.060   1.835   2.201   1.943   2.247   1.943
   2.201   1.835   2.060   1.367   1.275   1.260   1.111   0.809   0.737   0.624
   0.630   0.576   0.458   0.553   0.311   0.423   0.343   0.423   0.311   0.553
   0.458   0.576   0.630   0.624   0.737   0.809   1.111   1.260   1.275   1.367
   2.060   1.835   2.201   1.943   2.247   1.943   2.201   1.835   2.060   1.367
   1.275   1.260   1.111   0.809   0.737   0.624   0.630   0.576   0.458   0.553
   0.311   0.423
   0.293   0.269   0.180   0.332   0.356   0.368   0.463   0.383   0.401   0.539
   0.733   0.997   0.837   1.133   1.709   1.650   2.355   2.291   2.582   2.291
   2.355   1.650   1.709   1.133   0.837   0.997   0.733   0.539   0.401   0.383
   0.463   0.368   0.356   0.332   0.180   0.269   0.293   0.269   0.180   0.332
   0.356   0.368   0.463   0.383   0.401   0.539   0.733   0.997   0.837   1.133
   1.709   1.650   2.355   2.291   2.582   2.291   2.355   1.650   1.709   1.133
   0.837   0.997   0.733   0.539   0.401   0.383   0.463   0.368   0.356   0.332
   0.180   0.269
   0.424   0.331   0.208   0.151   0.243   0.271   0.429   0.384   0.270   0.352
   0.479   0.673   0.545   0.905   1.258   1.605   2.249   2.093   2.650   2.093
   2.249   1.605   1.258   0.905   0.545   0.673   0.479   0.352   0.270   0.384
   0.429   0.271   0.243   0.151   0.208   0.331   0.424   0.331   0.208   0.151
   0.243   0.271   0.429   0.384   0.270   0.352   0.479   0.673   0.545   0.905
   1.258   1.605   2.249   2.093   2.650   2.093   2.249   1.605   1.258   0.905
   0.545   0.673   0.479   0.352   0.270   0.384   0.429   0.271   0.243   0.151
   0.208   0.331
   0.403   0.246   0.234   0.134   0.314   0.220   0.392   0.423   0.174   0.171
   0.553   0.498   0.480   0.836   0.951   1.168   1.883   1.818   2.710   1.818
   1.883   1.168   0.951   0.836   0.480   0.498   0.553   0.171   0.174   0.423
   0.392   0.220   0.314   0.134   0.234   0.246   0.403   0.246   0.234   0.134
   0.314   0.220   0.392   0.423   0.174   0.171   0.553   0.498   0.480   0.836
   0.951   1.168   1.883   1.818   2.710   1.818   1.883   1.168   0.951   0.836
   0.480   0.498   0.553   0.171   0.174   0.423   0.392   0.220   0.314   0.134
   0.234   0.246
   0.198   0.157   0.241   0.330   0.569   0.317   0.354   0.356   0.118   0.188
   0.600   0.712   0.511   0.939   0.958   1.524   1.491   1.734   2.057   1.734
   1.491   1.524   0.958   0.939   0.511   0.712   0.600   0.188   0.118   0.356
   0.354   0.317   0.569   0.330   0.241   0.157   0.198   0.157   0.241   0.330
   0.569   0.317   0.354   0.356   0.118   0.188   0.600   0.712   0.511   0.939
   0.958   1.524   1.491   1.734   2.057   1.734   1.491   1.524   0.958   0.939
   0.511   0.712   0.600   0.188   0.118   0.356   0.354   0.317   0.569   0.330
   0.241   0.157
   0.432   0.448   0.554   0.305   0.482   0.463   0.938   0.447   0.346   0.679
   0.467   0.779   1.028   0.935   1.106   1.931   1.532   1.669   1.073   1.669
   1.532   1.931   1.106   0.935   1.028   0.779   0.467   0.679   0.346   0.447
   0.938   0.463   0.482   0.305   0.554   0.448   0.432   0.448   0.554   0.305
   0.482   0.463   0.938   0.447   0.346   0.679   0.467   0.779   1.028   0.935
   1.106   1.931   1.532   1.669   1.073   1.669   1.532   1.931   1.106   0.935
   1.028   0.779   0.467   0.679   0.346   0.447   0.938   0.463   0.482   0.305
   0.554   0.448
   1.054   1.008   0.770   0.346   0.499   0.525   1.111   0.416   0.416   0.733
   0.431   0.724   1.190   0.858   0.780   1.551   1.487   1.458   1.145   1.458
   1.487   1.551   0.780   0.858   1.190   0.724   0.431   0.733   0.416   0.416
   1.111   0.525   0.499   0.346   0.770   1.008   1.054   1.008   0.770   0.346
   0.499   0.525   1.111   0.416   0.416   0.733   0.431   0.724   1.190   0.858
   0.780   1.551   1.487   1.458   1.145   1.458   1.487   1.551   0.780   0.858
   1.190   0.724   0.431   0.733   0.416   0.416   1.111   0.525   0.499   0.346
   0.770   1.008
   1.409   0.911   0.701   1.170   0.688   0.589   0.391   0.421   0.362   0.323
   0.659   0.773   0.680   0.800   0.652   1.435   0.765   1.569   1.271   1.569
   0.765   1.435   0.652   0.800   0.680   0.773   0.659   0.323   0.362   0.421
   0.391   0.589   0.688   1.170   0.701   0.911   1.409   0.911   0.701   1.170
   0.688   0.589   0.391   0.421   0.362   0.323   0.659   0.773   0.680   0.800
   0.652   1.435   0.765   1.569   1.271   1.569   0.765   1.435   0.652   0.800
   0.680   0.773   0.659   0.323   0.362   0.421   0.391   0.589   0.688   1.170
   0.701   0.911
   1.725   0.501   1.048   1.417   0.538   1.191   0.096   0.501   0.539   0.235
   0.501   0.309   0.619   0.607   0.858   1.798   0.293   1.141   0.704   1.141
   0.293   1.798   0.858   0.607   0.619   0.309   0.501   0.235   0.539   0.501
   0.096   1.191   0.538   1.417   1.048   0.501   1.725   0.501   1.048   1.417
   0.538   1.191   0.096   0.501   0.539   0.235   0.501   0.309   0.619   0.607
   0.858   1.798   0.293   1.141   0.704   1.141   0.293   1.798   0.858   0.607
   0.619   0.309   0.501   0.235   0.539   0.501   0.096   1.191   0.538   1.417
   1.048   0.501
   2.181   1.287   1.635   2.050   1.427   2.280   0.416   0.417   1.158   0.321
   0.611   0.740   0.853   0.652   1.027   1.457   0.996   0.715   0.061   0.715
   0.996   1.457   1.027   0.652   0.853   0.740   0.611   0.321   1.158   0.417
   0.416   2.280   1.427   2.050   1.635   1.287   2.181   1.287   1.635   2.050
   1.427   2.280   0.416   0.417   1.158   0.321   0.611   0.740   0.853   0.652
   1.027   1.457   0.996   0.715   0.061   0.715   0.996   1.457   1.027   0.652
   0.853   0.740   0.611   0.321   1.158   0.417   0.416   2.280   1.427   2.050
   1.635   1.287
   1.357   2.887   2.925   2.201   2.548   2.727   0.839   0.827   2.193   1.045
   1.754   0.740   1.116   0.499   0.991   1.727   1.804   2.032   1.769   2.032
   1.804   1.727   0.991   0.499   1.116   0.740   1.754   1.045   2.193   0.827
   0.839   2.727   2.548   2.201   2.925   2.887   1.357   2.887   2.925   2.201
   2.548   2.727   0.839   0.827   2.193   1.045   1.754   0.740   1.116   0.499
   0.991   1.727   1.804   2.032   1.769   2.032   1.804   1.727   0.991   0.499
   1.116   0.740   1.754   1.045   2.193   0.827   0.839   2.727   2.548   2.201
   2.925   2.887
   0.197   1.792   2.369   0.696   1.732   2.421   0.927   0.691   1.411   1.121
   1.239   0.729   0.896   0.458   1.666   1.772   0.992   1.758   1.885   1.758
   0.992   1.772   1.666   0.458   0.896   0.729   1.239   1.121   1.411   0.691
   0.927   2.421   1.732   0.696   2.369   1.792   0.197   1.792   2.369   0.696
   1.732   2.421   0.927   0.691   1.411   1.121   1.239   0.729   0.896   0.458
   1.666   1.772   0.992   1.758   1.885   1.758   0.992   1.772   1.666   0.458
   0.896   0.729   1.239   1.121   1.411   0.691   0.927   2.421   1.732   0.696
   2.369   1.792
   0.815   1.630   0.842   0.328   1.374   1.749   1.099   0.770   1.718   1.799
   0.567   1.561   1.408   0.966   2.440   1.454   0.124   1.931   0.212   1.931
   0.124   1.454   2.440   0.966   1.408   1.561   0.567   1.799   1.718   0.770
   1.099   1.749   1.374   0.328   0.842   1.630   0.815   1.630   0.842   0.328
   1.374   1.749   1.099   0.770   1.718   1.799   0.567   1.561   1.408   0.966
   2.440   1.454   0.124   1.931   0.212   1.931   0.124   1.454   2.440   0.966
   1.408   1.561   0.567   1.799   1.718   0.770   1.099   1.749   1.374   0.328
   0.842   1.630
 200       5.00   72    0 5.00   15    0
   0.825   0.825   0.825   0.825   0.825   0.825   0.825   0.825   0.825   0.825
   0.825   0.825   0.825   0.825   0.825   0.825   0.825   0.825   0.825   0.825
   0.825   0.825   0.825   0.825   0.825   0.825   0.825   0.825   0.825   0.825
   0.825   0.825   0.825   0.825   0.825   0.825   0.825   0.825   0.825   0.825
   0.825   0.825   0.825   0.825   0.825   0.825   0.825   0.825   0.825   0.825
   0.825   0.825   0.825   0.825   0.825   0.825   0.825   0.825   0.825   0.825
   0.825   0.825   0.825   0.825   0.825   0.825   0.825   0.825   0.825   0.825
   0.825   0.825
   0.862   0.944   0.833   0.828   0.821   0.895   0.819   0.864   0.785   0.951
   0.841   0.829   0.761   0.753   0.798   0.824   0.869   0.713   0.885   0.713
   0.869   0.824   0.798   0.753   0.761   0.829   0.841   0.951   0.785   0.864
   0.819   0.895   0.821   0.828   0.833   0.944   0.862   0.944   0.833   0.828
   0.821   0.895   0.819   0.864   0.785   0.951   0.841   0.829   0.761   0.753
   0.798   0.824   0.869   0.713   0.885   0.713   0.869   0.824   0.798   0.753
   0.761   0.829   0.841   0.951   0.785   0.864   0.819   0.895   0.821   0.828
   0.833   0.944
   0.731   0.937   0.811   0.973   0.827   0.823   0.737   0.811   0.707   0.899
   0.733   0.808   0.756   0.742   0.735   0.655   0.863   0.764   0.873   0.764
   0.863   0.655   0.735   0.742   0.756   0.808   0.733   0.899   0.707   0.811
   0.737   0.823   0.827   0.973   0.811   0.937   0.731   0.937   0.811   0.973
   0.827   0.823   0.737   0.811   0.707   0.899   0.733   0.808   0.756   0.742
   0.735   0.655   0.863   0.764   0.873   0.764   0.863   0.655   0.735   0.742
   0.756   0.808   0.733   0.899   0.707   0.811   0.737   0.823   0.827   0.973
   0.811   0.937
   0.958   0.981   0.884   1.164   0.944   0.892   0.933   0.923   0.838   0.735
   0.702   0.718   0.647   0.544   0.617   0.683   0.721   0.702   0.632   0.702
   0.721   0.683   0.617   0.544   0.647   0.718   0.702   0.735   0.838   0.923
   0.933   0.892   0.944   1.164   0.884   0.981   0.958   0.981   0.884   1.164
   0.944   0.892   0.933   0.923   0.838   0.735   0.702   0.718   0.647   0.544
   0.617   0.683   0.721   0.702   0.632   0.702   0.721   0.683   0.617   0.544
   0.647   0.718   0.702   0.735   0.838   0.923   0.933   0.892   0.944   1.164
   0.884   0.981
   1.249   1.282   1.266   1.288   1.060   1.254   1.119   1.071   1.002   0.825
   0.760   0.472   0.238   0.326   0.464   0.486   0.421   0.569   0.298   0.569
   0.421   0.486   0.464   0.326   0.238   0.472   0.760   0.825   1.002   1.071
   1.119   1.254   1.060   1.288   1.266   1.282   1.249   1.282   1.266   1.288
   1.060   1.254   1.119   1.071   1.002   0.825   0.760   0.472   0.238   0.326
   0.464   0.486   0.421   0.569   0.298   0.569   0.421   0.486   0.464   0.326
   0.238   0.472   0.760   0.825   1.002   1.071   1.119   1.254   1.060   1.288
   1.266   1.282
   1.512   1.490   1.591   1.524   1.303   1.609   1.274   1.063   1.159   0.813
   0.826   0.683   0.365   0.389   0.429   0.421   0.243   0.302   0.222   0.302
   0.243   0.421   0.429   0.389   0.365   0.683   0.826   0.813   1.159   1.063
   1.274   1.609   1.303   1.524   1.591   1.490   1.512   1.490   1.591   1.524
   1.303   1.609   1.274   1.063   1.159   0.813   0.826   0.683   0.365   0.389
   0.429   0.421   0.243   0.302   0.222   0.302   0.243   0.421   0.429   0.389
   0.365   0.683   0.826   0.813   1.159   1.063   1.274   1.609   1.303   1.524
   1.591   1.490
   1.455   1.276   1.345   1.358   1.436   1.729   1.301   1.162   1.225   0.838
   0.555   0.826   0.715   0.828   0.348   0.652   0.239   0.292   0.258   0.292
   0.239   0.652   0.348   0.828   0.715   0.826   0.555   0.838   1.225   1.162
   1.301   1.729   1.436   1.358   1.345   1.276   1.455   1.276   1.345   1.358
   1.436   1.729   1.301   1.162   1.225   0.838   0.555   0.826   0.715   0.828
   0.348   0.652   0.239   0.292   0.258   0.292   0.239   0.652   0.348   0.828
   0.715   0.826   0.555   0.838   1.225   1.162   1.301   1.729   1.436   1.358
   1.345   1.276
   0.889   1.198   0.740   0.701   1.191   1.396   1.280   1.440   1.222   0.976
   0.592   0.691   0.778   0.919   0.391   0.527   0.379   0.608   0.759   0.608
   0.379   0.527   0.391   0.919   0.778   0.691   0.592   0.976   1.222   1.440
   1.280   1.396   1.191   0.701   0.740   1.198   0.889   1.198   0.740   0.701
   1.191   1.396   1.280   1.440   1.222   0.976   0.592   0.691   0.778   0.919
   0.391   0.527   0.379   0.608   0.759   0.608   0.379   0.527   0.391   0.919
   0.778   0.691   0.592   0.976   1.222   1.440   1.280   1.396   1.191   0.701
   0.740   1.198
   0.274   0.859   0.322   0.440   0.563   0.628   0.740   1.040   0.903   0.813
   1.075   0.657   0.910   0.590   0.575   0.327   0.419   0.522   0.620   0.522
   0.419   0.327   0.575   0.590   0.910   0.657   1.075   0.813   0.903   1.040
   0.740   0.628   0.563   0.440   0.322   0.859   0.274   0.859   0.322   0.440
   0.563   0.628   0.740   1.040   0.903   0.813   1.075   0.657   0.910   0.590
   0.575   0.327   0.419   0.522   0.620   0.522   0.419   0.327   0.575   0.590
   0.910   0.657   1.075   0.813   0.903   1.040   0.740   0.628   0.563   0.440
   0.322   0.859
   0.005   0.319   0.179   0.746   0.289   0.317   0.301   0.590   0.519   0.829
   1.418   0.388   1.245   0.654   0.452   0.884   0.503   0.451   0.336   0.451
   0.503   0.884   0.452   0.654   1.245   0.388   1.418   0.829   0.519   0.590
   0.301   0.317   0.289   0.746   0.179   0.319   0.005   0.319   0.179   0.746
   0.289   0.317   0.301   0.590   0.519   0.829   1.418   0.388   1.245   0.654
   0.452   0.884   0.503   0.451   0.336   0.451   0.503   0.884   0.452   0.654
   1.245   0.388   1.418   0.829   0.519   0.590   0.301   0.317   0.289   0.746
   0.179   0.319
   0.005   0.225   0.092   0.502   0.588   0.406   0.454   0.396   0.375   0.855
   0.854   0.438   1.223   0.415   0.651   0.736   0.360   0.539   0.299   0.539
   0.360   0.736   0.651   0.415   1.223   0.438   0.854   0.855   0.375   0.396
   0.454   0.406   0.588   0.502   0.092   0.225   0.005   0.225   0.092   0.502
   0.588   0.406   0.454   0.396   0.375   0.855   0.854   0.438   1.223   0.415
   0.651   0.736   0.360   0.539   0.299   0.539   0.360   0.736   0.651   0.415
   1.223   0.438   0.854   0.855   0.375   0.396   0.454   0.406   0.588   0.502
   0.092   0.225
   0.244   0.421   0.122   0.078   1.183   0.339   0.752   0.234   0.780   0.448
   0.602   0.944   0.878   0.466   0.714   0.570   0.259   0.690   0.566   0.690
   0.259   0.570   0.714   0.466   0.878   0.944   0.602   0.448   0.780   0.234
   0.752   0.339   1.183   0.078   0.122   0.421   0.244   0.421   0.122   0.078
   1.183   0.339   0.752   0.234   0.780   0.448   0.602   0.944   0.878   0.466
   0.714   0.570   0.259   0.690   0.566   0.690   0.259   0.570   0.714   0.466
   0.878   0.944   0.602   0.448   0.780   0.234   0.752   0.339   1.183   0.078
   0.122   0.421
   0.742   0.418   0.244   0.610   1.149   0.450   1.158   0.571   1.747   1.091
   0.875   1.267   1.189   1.355   0.803   0.983   1.009   1.392   1.455   1.392
   1.009   0.983   0.803   1.355   1.189   1.267   0.875   1.091   1.747   0.571
   1.158   0.450   1.149   0.610   0.244   0.418   0.742   0.418   0.244   0.610
   1.149   0.450   1.158   0.571   1.747   1.091   0.875   1.267   1.189   1.355
   0.803   0.983   1.009   1.392   1.455   1.392   1.009   0.983   0.803   1.355
   1.189   1.267   0.875   1.091   1.747   0.571   1.158   0.450   1.149   0.610
   0.244   0.418
   0.498   0.878   0.385   0.726   0.796   1.198   1.132   0.862   2.087   1.578
   0.933   1.900   1.313   1.470   0.938   0.874   0.961   1.871   1.138   1.871
   0.961   0.874   0.938   1.470   1.313   1.900   0.933   1.578   2.087   0.862
   1.132   1.198   0.796   0.726   0.385   0.878   0.498   0.878   0.385   0.726
   0.796   1.198   1.132   0.862   2.087   1.578   0.933   1.900   1.313   1.470
   0.938   0.874   0.961   1.871   1.138   1.871   0.961   0.874   0.938   1.470
   1.313   1.900   0.933   1.578   2.087   0.862   1.132   1.198   0.796   0.726
   0.385   0.878
   0.978   2.115   0.970   1.533   0.893   1.784   1.491   1.055   1.872   2.102
   1.935   2.040   1.220   0.981   1.097   0.557   0.688   1.888   1.227   1.888
   0.688   0.557   1.097   0.981   1.220   2.040   1.935   2.102   1.872   1.055
   1.491   1.784   0.893   1.533   0.970   2.115   0.978   2.115   0.970   1.533
   0.893   1.784   1.491   1.055   1.872   2.102   1.935   2.040   1.220   0.981
   1.097   0.557   0.688   1.888   1.227   1.888   0.688   0.557   1.097   0.981
   1.220   2.040   1.935   2.102   1.872   1.055   1.491   1.784   0.893   1.533
   0.970   2.115
 111       5.00   72    0 5.00   15    0
   0.124   0.124   0.124   0.124   0.124   0.124   0.124   0.124   0.124   0.124
   0.124   0.124   0.124   0.124   0.124   0.124   0.124   0.124   0.124   0.124
   0.124   0.124   0.124   0.124   0.124   0.124   0.124   0.124   0.124   0.124
   0.124   0.124   0.124   0.124   0.124   0.124   0.124   0.124   0.124   0.124
   0.124   0.124   0.124   0.124   0.124   0.124   0.124   0.124   0.124   0.124
   0.124   0.124   0.124   0.124   0.124   0.124   0.124   0.124   0.124   0.124
   0.124   0.124   0.124   0.124   0.124   0.124   0.124   0.124   0.124   0.124
   0.124   0.124
   0.178   0.222   0.254   0.175   0.204   0.212   0.190   0.218   0.195   0.233
   0.161   0.232   0.223   0.228   0.163   0.203   0.201   0.172   0.184   0.172
   0.201   0.203   0.163   0.228   0.223   0.232   0.161   0.233   0.195   0.218
   0.190   0.212   0.204   0.175   0.254   0.222   0.178   0.222   0.254   0.175
   0.204   0.212   0.190   0.218   0.195   0.233   0.161   0.232   0.223   0.228
   0.163   0.203   0.201   0.172   0.184   0.172   0.201   0.203   0.163   0.228
   0.223   0.232   0.161   0.233   0.195   0.218   0.190   0.212   0.204   0.175
   0.254   0.222
   0.371   0.420   0.460   0.338   0.368   0.435   0.239   0.341   0.335   0.269
   0.208   0.297   0.303   0.320   0.203   0.264   0.264   0.219   0.227   0.219
   0.264   0.264   0.203   0.320   0.303   0.297   0.208   0.269   0.335   0.341
   0.239   0.435   0.368   0.338   0.460   0.420   0.371   0.420   0.460   0.338
   0.368   0.435   0.239   0.341   0.335   0.269   0.208   0.297   0.303   0.320
   0.203   0.264   0.264   0.219   0.227   0.219   0.264   0.264   0.203   0.320
   0.303   0.297   0.208   0.269   0.335   0.341   0.239   0.435   0.368   0.338
   0.460   0.420
   1.112   0.959   1.013   0.853   0.728   0.833   0.421   0.563   0.463   0.396
   0.311   0.309   0.400   0.327   0.296   0.328   0.304   0.308   0.262   0.308
   0.304   0.328   0.296   0.327   0.400   0.309   0.311   0.396   0.463   0.563
   0.421   0.833   0.728   0.853   1.013   0.959   1.112   0.959   1.013   0.853
   0.728   0.833   0.421   0.563   0.463   0.396   0.311   0.309   0.400   0.327
   0.296   0.328   0.304   0.308   0.262   0.308   0.304   0.328   0.296   0.327
   0.400   0.309   0.311   0.396   0.463   0.563   0.421   0.833   0.728   0.853
   1.013   0.959
   2.613   2.683   2.295   1.952   1.779   1.601   1.191   0.942   0.668   0.682
   0.432   0.426   0.450   0.210   0.368   0.310   0.326   0.356   0.281   0.356
   0.326   0.310   0.368   0.210   0.450   0.426   0.432   0.682   0.668   0.942
   1.191   1.601   1.779   1.952   2.295   2.683   2.613   2.683   2.295   1.952
   1.779   1.601   1.191   0.942   0.668   0.682   0.432   0.426   0.450   0.210
   0.368   0.310   0.326   0.356   0.281   0.356   0.326   0.310   0.368   0.210
   0.450   0.426   0.432   0.682   0.668   0.942   1.191   1.601   1.779   1.952
   2.295   2.683
   3.822   3.998   3.537   3.198   2.814   2.324   1.953   1.555   1.073   0.987
   0.590   0.590   0.376   0.335   0.398   0.340   0.270   0.276   0.408   0.276
   0.270   0.340   0.398   0.335   0.376   0.590   0.590   0.987   1.073   1.555
   1.953   2.324   2.814   3.198   3.537   3.998   3.822   3.998   3.537   3.198
   2.814   2.324   1.953   1.555   1.073   0.987   0.590   0.590   0.376   0.335
   0.398   0.340   0.270   0.276   0.408   0.276   0.270   0.340   0.398   0.335
   0.376   0.590   0.590   0.987   1.073   1.555   1.953   2.324   2.814   3.198
   3.537   3.998
   3.550   3.271   3.306   3.360   3.132   2.549   2.377   1.916   1.719   1.423
   1.005   0.774   0.526   0.377   0.310   0.492   0.250   0.363   0.314   0.363
   0.250   0.492   0.310   0.377   0.526   0.774   1.005   1.423   1.719   1.916
   2.377   2.549   3.132   3.360   3.306   3.271   3.550   3.271   3.306   3.360
   3.132   2.549   2.377   1.916   1.719   1.423   1.005   0.774   0.526   0.377
   0.310   0.492   0.250   0.363   0.314   0.363   0.250   0.492   0.310   0.377
   0.526   0.774   1.005   1.423   1.719   1.916   2.377   2.549   3.132   3.360
   3.306   3.271
   2.279   2.015   2.202   2.318   2.442   2.206   2.601   2.303   2.158   1.740
   1.381   1.132   0.956   0.590   0.374   0.474   0.314   0.758   0.301   0.758
   0.314   0.474   0.374   0.590   0.956   1.132   1.381   1.740   2.158   2.303
   2.601   2.206   2.442   2.318   2.202   2.015   2.279   2.015   2.202   2.318
   2.442   2.206   2.601   2.303   2.158   1.740   1.381   1.132   0.956   0.590
   0.374   0.474   0.314   0.758   0.301   0.758   0.314   0.474   0.374   0.590
   0.956   1.132   1.381   1.740   2.158   2.303   2.601   2.206   2.442   2.318
   2.202   2.015
   1.075   1.006   0.974   1.244   1.148   1.536   1.831   2.012   1.872   1.903
   1.519   1.440   1.250   0.973   0.687   0.440   0.362   0.663   0.566   0.663
   0.362   0.440   0.687   0.973   1.250   1.440   1.519   1.903   1.872   2.012
   1.831   1.536   1.148   1.244   0.974   1.006   1.075   1.006   0.974   1.244
   1.148   1.536   1.831   2.012   1.872   1.903   1.519   1.440   1.250   0.973
   0.687   0.440   0.362   0.663   0.566   0.663   0.362   0.440   0.687   0.973
   1.250   1.440   1.519   1.903   1.872   2.012   1.831   1.536   1.148   1.244
   0.974   1.006
   0.701   0.509   0.337   0.754   0.535   1.052   1.360   1.406   1.805   1.695
   1.875   2.121   1.612   1.267   0.877   0.899   0.502   0.626   0.352   0.626
   0.502   0.899   0.877   1.267   1.612   2.121   1.875   1.695   1.805   1.406
   1.360   1.052   0.535   0.754   0.337   0.509   0.701   0.509   0.337   0.754
   0.535   1.052   1.360   1.406   1.805   1.695   1.875   2.121   1.612   1.267
   0.877   0.899   0.502   0.626   0.352   0.626   0.502   0.899   0.877   1.267
   1.612   2.121   1.875   1.695   1.805   1.406   1.360   1.052   0.535   0.754
   0.337   0.509
   0.390   0.381   0.476   0.531   0.362   0.565   0.979   0.905   1.682   1.425
   2.036   2.243   2.045   1.788   0.982   1.153   0.661   0.882   0.195   0.882
   0.661   1.153   0.982   1.788   2.045   2.243   2.036   1.425   1.682   0.905
   0.979   0.565   0.362   0.531   0.476   0.381   0.390   0.381   0.476   0.531
   0.362   0.565   0.979   0.905   1.682   1.425   2.036   2.243   2.045   1.788
   0.982   1.153   0.661   0.882   0.195   0.882   0.661   1.153   0.982   1.788
   2.045   2.243   2.036   1.425   1.682   0.905   0.979   0.565   0.362   0.531
   0.476   0.381
   0.000   0.316   0.523   0.304   0.264   0.322   0.666   0.631   0.971   1.269
   1.705   1.751   1.700   1.665   1.561   1.217   0.655   0.798   0.953   0.798
   0.655   1.217   1.561   1.665   1.700   1.751   1.705   1.269   0.971   0.631
   0.666   0.322   0.264   0.304   0.523   0.316   0.000   0.316   0.523   0.304
   0.264   0.322   0.666   0.631   0.971   1.269   1.705   1.751   1.700   1.665
   1.561   1.217   0.655   0.798   0.953   0.798   0.655   1.217   1.561   1.665
   1.700   1.751   1.705   1.269   0.971   0.631   0.666   0.322   0.264   0.304
   0.523   0.316
   0.377   0.388   0.399   0.119   0.409   0.299   0.598   0.969   0.637   0.866
   1.276   1.666   1.459   0.842   1.505   1.175   1.012   1.006   1.030   1.006
   1.012   1.175   1.505   0.842   1.459   1.666   1.276   0.866   0.637   0.969
   0.598   0.299   0.409   0.119   0.399   0.388   0.377   0.388   0.399   0.119
   0.409   0.299   0.598   0.969   0.637   0.866   1.276   1.666   1.459   0.842
   1.505   1.175   1.012   1.006   1.030   1.006   1.012   1.175   1.505   0.842
   1.459   1.666   1.276   0.866   0.637   0.969   0.598   0.299   0.409   0.119
   0.399   0.388
   0.377   0.273   0.397   0.040   0.427   0.116   0.170   0.521   0.442   1.016
   0.926   1.291   1.297   0.288   1.147   0.899   1.509   0.663   0.478   0.663
   1.509   0.899   1.147   0.288   1.297   1.291   0.926   1.016   0.442   0.521
   0.170   0.116   0.427   0.040   0.397   0.273   0.377   0.273   0.397   0.040
   0.427   0.116   0.170   0.521   0.442   1.016   0.926   1.291   1.297   0.288
   1.147   0.899   1.509   0.663   0.478   0.663   1.509   0.899   1.147   0.288
   1.297   1.291   0.926   1.016   0.442   0.521   0.170   0.116   0.427   0.040
   0.397   0.273
   0.061   0.337   0.275   0.109   0.175   0.000   0.328   0.091   0.139   0.905
   0.724   0.480   0.892   0.221   0.820   0.435   1.293   0.353   0.765   0.353
   1.293   0.435   0.820   0.221   0.892   0.480   0.724   0.905   0.139   0.091
   0.328   0.000   0.175   0.109   0.275   0.337   0.061   0.337   0.275   0.109
   0.175   0.000   0.328   0.091   0.139   0.905   0.724   0.480   0.892   0.221
   0.820   0.435   1.293   0.353   0.765   0.353   1.293   0.435   0.820   0.221
   0.892   0.480   0.724   0.905   0.139   0.091   0.328   0.000   0.175   0.109
   0.275   0.337
  4  1      6.7685052E-01
  4  2     -2.6267997E-01
  4  3      2.1079698E-02
  6  1      1.3547983E+00
  6  2     -2.1981141E+00
  6  3      1.2704894E+00
  6  4     -4.8384620E-01
  8  1     -4.7947263E-01
  8  2     -3.2803673E-02
  8  3      3.2385124E-01
  8  4     -6.7820689E-02
  8  5      4.9038766E-01
 10  1     -6.1751846E-01
 10  2     -2.7748209E-01
 10  3      7.5867003E-01
 10  4     -8.2702956E-02
 10  5      9.0815868E-02
 10  6      2.1313720E-01
 12  1     -2.5050516E-01  8.1646642E-01
 12  2     -3.7967132E-02 -1.0572436E+00
 12  3      1.3058393E-01  1.1345402E+00
 12  4     -9.8392935E-02 -5.6654925E-01
 12  5     -2.3712906E-01 -7.9284933E-02
 12  6     -1.8848134E-01 -4.0701268E-01
 12  7      3.9279952E-01 -6.3396265E-01
 14  1     -3.3239018E-01
 14  2      2.2179927E-01
 14  3      1.8554318E-02
 14  4     -3.7279869E-02
 14  5     -2.7814451E-01
 14  6     -8.2306920E-02
 14  7     -3.1102264E-01
 14  8     -1.5401277E-01
 220       5.00   72    0 5.00   18    0
   1.768   1.769   1.771   1.773   1.777   1.782   1.788   1.794   1.801   1.807
   1.814   1.821   1.827   1.833   1.838   1.842   1.845   1.847   1.847   1.847
   1.845   1.842   1.838   1.833   1.827   1.821   1.814   1.807   1.801   1.794
   1.788   1.782   1.777   1.773   1.771   1.769   1.768   1.769   1.771   1.773
   1.777   1.782   1.788   1.794   1.801   1.807   1.814   1.821   1.827   1.833
   1.838   1.842   1.845   1.847   1.847   1.847   1.845   1.842   1.838   1.833
   1.827   1.821   1.814   1.807   1.801   1.794   1.788   1.782   1.777   1.773
   1.771   1.769
   1.269   1.273   1.285   1.304   1.331   1.365   1.406   1.452   1.502   1.556
   1.612   1.667   1.720   1.769   1.813   1.849   1.876   1.892   1.898   1.892
   1.876   1.849   1.813   1.769   1.720   1.667   1.612   1.556   1.502   1.452
   1.406   1.365   1.331   1.304   1.285   1.273   1.269   1.273   1.285   1.304
   1.331   1.365   1.406   1.452   1.502   1.556   1.612   1.667   1.720   1.769
   1.813   1.849   1.876   1.892   1.898   1.892   1.876   1.849   1.813   1.769
   1.720   1.667   1.612   1.556   1.502   1.452   1.406   1.365   1.331   1.304
   1.285   1.273
   0.635   0.640   0.657   0.686   0.727   0.782   0.851   0.935   1.034   1.145
   1.266   1.394   1.523   1.647   1.761   1.857   1.930   1.976   1.992   1.976
   1.930   1.857   1.761   1.647   1.523   1.394   1.266   1.145   1.034   0.935
   0.851   0.782   0.727   0.686   0.657   0.640   0.635   0.640   0.657   0.686
   0.727   0.782   0.851   0.935   1.034   1.145   1.266   1.394   1.523   1.647
   1.761   1.857   1.930   1.976   1.992   1.976   1.930   1.857   1.761   1.647
   1.523   1.394   1.266   1.145   1.034   0.935   0.851   0.782   0.727   0.686
   0.657   0.640
   0.281   0.282   0.288   0.299   0.320   0.356   0.410   0.488   0.594   0.729
   0.892   1.079   1.281   1.486   1.682   1.854   1.987   2.072   2.102   2.072
   1.987   1.854   1.682   1.486   1.281   1.079   0.892   0.729   0.594   0.488
   0.410   0.356   0.320   0.299   0.288   0.282   0.281   0.282   0.288   0.299
   0.320   0.356   0.410   0.488   0.594   0.729   0.892   1.079   1.281   1.486
   1.682   1.854   1.987   2.072   2.102   2.072   1.987   1.854   1.682   1.486
   1.281   1.079   0.892   0.729   0.594   0.488   0.410   0.356   0.320   0.299
   0.288   0.282
   0.324   0.320   0.309   0.292   0.274   0.261   0.262   0.289   0.351   0.459
   0.616   0.819   1.060   1.321   1.582   1.818   2.007   2.129   2.171   2.129
   2.007   1.818   1.582   1.321   1.060   0.819   0.616   0.459   0.351   0.289
   0.262   0.261   0.274   0.292   0.309   0.320   0.324   0.320   0.309   0.292
   0.274   0.261   0.262   0.289   0.351   0.459   0.616   0.819   1.060   1.321
   1.582   1.818   2.007   2.129   2.171   2.129   2.007   1.818   1.582   1.321
   1.060   0.819   0.616   0.459   0.351   0.289   0.262   0.261   0.274   0.292
   0.309   0.320
   0.524   0.521   0.511   0.490   0.457   0.414   0.370   0.339   0.340   0.390
   0.501   0.676   0.908   1.179   1.462   1.728   1.944   2.085   2.135   2.085
   1.944   1.728   1.462   1.179   0.908   0.676   0.501   0.390   0.340   0.339
   0.370   0.414   0.457   0.490   0.511   0.521   0.524   0.521   0.511   0.490
   0.457   0.414   0.370   0.339   0.340   0.390   0.501   0.676   0.908   1.179
   1.462   1.728   1.944   2.085   2.135   2.085   1.944   1.728   1.462   1.179
   0.908   0.676   0.501   0.390   0.340   0.339   0.370   0.414   0.457   0.490
   0.511   0.521
   0.571   0.579   0.597   0.612   0.611   0.584   0.537   0.484   0.447   0.449
   0.510   0.636   0.826   1.063   1.322   1.570   1.777   1.913   1.961   1.913
   1.777   1.570   1.322   1.063   0.826   0.636   0.510   0.449   0.447   0.484
   0.537   0.584   0.611   0.612   0.597   0.579   0.571   0.579   0.597   0.612
   0.611   0.584   0.537   0.484   0.447   0.449   0.510   0.636   0.826   1.063
   1.322   1.570   1.777   1.913   1.961   1.913   1.777   1.570   1.322   1.063
   0.826   0.636   0.510   0.449   0.447   0.484   0.537   0.584   0.611   0.612
   0.597   0.579
   0.448   0.468   0.520   0.579   0.619   0.624   0.598   0.555   0.518   0.509
   0.544   0.632   0.772   0.955   1.162   1.365   1.536   1.650   1.691   1.650
   1.536   1.365   1.162   0.955   0.772   0.632   0.544   0.509   0.518   0.555
   0.598   0.624   0.619   0.579   0.520   0.468   0.448   0.468   0.520   0.579
   0.619   0.624   0.598   0.555   0.518   0.509   0.544   0.632   0.772   0.955
   1.162   1.365   1.536   1.650   1.691   1.650   1.536   1.365   1.162   0.955
   0.772   0.632   0.544   0.509   0.518   0.555   0.598   0.624   0.619   0.579
   0.520   0.468
   0.483   0.505   0.557   0.609   0.631   0.615   0.575   0.533   0.510   0.514
   0.548   0.613   0.712   0.844   0.999   1.159   1.298   1.392   1.425   1.392
   1.298   1.159   0.999   0.844   0.712   0.613   0.548   0.514   0.510   0.533
   0.575   0.615   0.631   0.609   0.557   0.505   0.483   0.505   0.557   0.609
   0.631   0.615   0.575   0.533   0.510   0.514   0.548   0.613   0.712   0.844
   0.999   1.159   1.298   1.392   1.425   1.392   1.298   1.159   0.999   0.844
   0.712   0.613   0.548   0.514   0.510   0.533   0.575   0.615   0.631   0.609
   0.557   0.505
   0.999   1.007   1.013   0.983   0.896   0.766   0.638   0.552   0.522   0.531
   0.558   0.595   0.651   0.742   0.867   1.009   1.138   1.226   1.258   1.226
   1.138   1.009   0.867   0.742   0.651   0.595   0.558   0.531   0.522   0.552
   0.638   0.766   0.896   0.983   1.013   1.007   0.999   1.007   1.013   0.983
   0.896   0.766   0.638   0.552   0.522   0.531   0.558   0.595   0.651   0.742
   0.867   1.009   1.138   1.226   1.258   1.226   1.138   1.009   0.867   0.742
   0.651   0.595   0.558   0.531   0.522   0.552   0.638   0.766   0.896   0.983
   1.013   1.007
   1.884   1.877   1.829   1.693   1.456   1.166   0.907   0.743   0.678   0.664
   0.650   0.627   0.624   0.676   0.791   0.940   1.079   1.174   1.207   1.174
   1.079   0.940   0.791   0.676   0.624   0.627   0.650   0.664   0.678   0.743
   0.907   1.166   1.456   1.693   1.829   1.877   1.884   1.877   1.829   1.693
   1.456   1.166   0.907   0.743   0.678   0.664   0.650   0.627   0.624   0.676
   0.791   0.940   1.079   1.174   1.207   1.174   1.079   0.940   0.791   0.676
   0.624   0.627   0.650   0.664   0.678   0.743   0.907   1.166   1.456   1.693
   1.829   1.877
   2.567   2.564   2.517   2.347   2.028   1.634   1.288   1.076   0.985   0.930
   0.844   0.728   0.646   0.661   0.775   0.938   1.084   1.175   1.204   1.175
   1.084   0.938   0.775   0.661   0.646   0.728   0.844   0.930   0.985   1.076
   1.288   1.634   2.028   2.347   2.517   2.564   2.567   2.564   2.517   2.347
   2.028   1.634   1.288   1.076   0.985   0.930   0.844   0.728   0.646   0.661
   0.775   0.938   1.084   1.175   1.204   1.175   1.084   0.938   0.775   0.661
   0.646   0.728   0.844   0.930   0.985   1.076   1.288   1.634   2.028   2.347
   2.517   2.564
   2.473   2.509   2.553   2.474   2.214   1.851   1.537   1.366   1.302   1.227
   1.065   0.850   0.694   0.681   0.800   0.964   1.090   1.150   1.164   1.150
   1.090   0.964   0.800   0.681   0.694   0.850   1.065   1.227   1.302   1.366
   1.537   1.851   2.214   2.474   2.553   2.509   2.473   2.509   2.553   2.474
   2.214   1.851   1.537   1.366   1.302   1.227   1.065   0.850   0.694   0.681
   0.800   0.964   1.090   1.150   1.164   1.150   1.090   0.964   0.800   0.681
   0.694   0.850   1.065   1.227   1.302   1.366   1.537   1.851   2.214   2.474
   2.553   2.509
   1.580   1.673   1.861   1.958   1.862   1.648   1.479   1.443   1.473   1.420
   1.211   0.926   0.725   0.709   0.841   0.994   1.073   1.076   1.065   1.076
   1.073   0.994   0.841   0.709   0.725   0.926   1.211   1.420   1.473   1.443
   1.479   1.648   1.862   1.958   1.861   1.673   1.580   1.673   1.861   1.958
   1.862   1.648   1.479   1.443   1.473   1.420   1.211   0.926   0.725   0.709
   0.841   0.994   1.073   1.076   1.065   1.076   1.073   0.994   0.841   0.709
   0.725   0.926   1.211   1.420   1.473   1.443   1.479   1.648   1.862   1.958
   1.861   1.673
   0.472   0.610   0.913   1.155   1.212   1.158   1.163   1.300   1.459   1.461
   1.242   0.927   0.720   0.730   0.888   1.033   1.061   1.003   0.965   1.003
   1.061   1.033   0.888   0.730   0.720   0.927   1.242   1.461   1.459   1.300
   1.163   1.158   1.212   1.155   0.913   0.610   0.472   0.610   0.913   1.155
   1.212   1.158   1.163   1.300   1.459   1.461   1.242   0.927   0.720   0.730
   0.888   1.033   1.061   1.003   0.965   1.003   1.061   1.033   0.888   0.730
   0.720   0.927   1.242   1.461   1.459   1.300   1.163   1.158   1.212   1.155
   0.913   0.610
  -0.168  -0.021   0.301   0.568   0.663   0.680   0.802   1.076   1.348   1.408
   1.199   0.882   0.695   0.747   0.943   1.093   1.092   0.994   0.938   0.994
   1.092   1.093   0.943   0.747   0.695   0.882   1.199   1.408   1.348   1.076
   0.802   0.680   0.663   0.568   0.301  -0.021  -0.168  -0.021   0.301   0.568
   0.663   0.680   0.802   1.076   1.348   1.408   1.199   0.882   0.695   0.747
   0.943   1.093   1.092   0.994   0.938   0.994   1.092   1.093   0.943   0.747
   0.695   0.882   1.199   1.408   1.348   1.076   0.802   0.680   0.663   0.568
   0.301  -0.021
  -0.161  -0.038   0.221   0.403   0.423   0.413   0.564   0.907   1.248   1.346
   1.147   0.836   0.672   0.764   0.999   1.168   1.165   1.055   0.992   1.055
   1.165   1.168   0.999   0.764   0.672   0.836   1.147   1.346   1.248   0.907
   0.564   0.413   0.423   0.403   0.221  -0.038  -0.161  -0.038   0.221   0.403
   0.423   0.413   0.564   0.907   1.248   1.346   1.147   0.836   0.672   0.764
   0.999   1.168   1.165   1.055   0.992   1.055   1.165   1.168   0.999   0.764
   0.672   0.836   1.147   1.346   1.248   0.907   0.564   0.413   0.423   0.403
   0.221  -0.038
   0.082   0.180   0.372   0.462   0.396   0.332   0.472   0.835   1.201   1.315
   1.120   0.813   0.662   0.777   1.036   1.223   1.227   1.119   1.056   1.119
   1.227   1.223   1.036   0.777   0.662   0.813   1.120   1.315   1.201   0.835
   0.472   0.332   0.396   0.462   0.372   0.180   0.082   0.180   0.372   0.462
   0.396   0.332   0.472   0.835   1.201   1.315   1.120   0.813   0.662   0.777
   1.036   1.223   1.227   1.119   1.056   1.119   1.227   1.223   1.036   0.777
   0.662   0.813   1.120   1.315   1.201   0.835   0.472   0.332   0.396   0.462
   0.372   0.180
 200       5.00   72    0 5.00   18    0
   1.100   1.100   1.100   1.101   1.101   1.102   1.103   1.105   1.106   1.107
   1.108   1.110   1.111   1.112   1.113   1.114   1.114   1.115   1.115   1.115
   1.114   1.114   1.113   1.112   1.111   1.110   1.108   1.107   1.106   1.105
   1.103   1.102   1.101   1.101   1.100   1.100   1.100   1.100   1.100   1.101
   1.101   1.102   1.103   1.105   1.106   1.107   1.108   1.110   1.111   1.112
   1.113   1.114   1.114   1.115   1.115   1.115   1.114   1.114   1.113   1.112
   1.111   1.110   1.108   1.107   1.106   1.105   1.103   1.102   1.101   1.101
   1.100   1.100
   0.996   0.997   0.998   1.000   1.002   1.005   1.010   1.015   1.021   1.027
   1.034   1.042   1.049   1.056   1.062   1.068   1.072   1.074   1.075   1.074
   1.072   1.068   1.062   1.056   1.049   1.042   1.034   1.027   1.021   1.015
   1.010   1.005   1.002   1.000   0.998   0.997   0.996   0.997   0.998   1.000
   1.002   1.005   1.010   1.015   1.021   1.027   1.034   1.042   1.049   1.056
   1.062   1.068   1.072   1.074   1.075   1.074   1.072   1.068   1.062   1.056
   1.049   1.042   1.034   1.027   1.021   1.015   1.010   1.005   1.002   1.000
   0.998   0.997
   1.022   1.020   1.016   1.010   1.002   0.993   0.984   0.976   0.971   0.968
   0.968   0.971   0.976   0.984   0.992   1.000   1.007   1.012   1.013   1.012
   1.007   1.000   0.992   0.984   0.976   0.971   0.968   0.968   0.971   0.976
   0.984   0.993   1.002   1.010   1.016   1.020   1.022   1.020   1.016   1.010
   1.002   0.993   0.984   0.976   0.971   0.968   0.968   0.971   0.976   0.984
   0.992   1.000   1.007   1.012   1.013   1.012   1.007   1.000   0.992   0.984
   0.976   0.971   0.968   0.968   0.971   0.976   0.984   0.993   1.002   1.010
   1.016   1.020
   1.330   1.324   1.307   1.280   1.244   1.202   1.156   1.109   1.063   1.022
   0.988   0.962   0.946   0.938   0.936   0.940   0.945   0.949   0.951   0.949
   0.945   0.940   0.936   0.938   0.946   0.962   0.988   1.022   1.063   1.109
   1.156   1.202   1.244   1.280   1.307   1.324   1.330   1.324   1.307   1.280
   1.244   1.202   1.156   1.109   1.063   1.022   0.988   0.962   0.946   0.938
   0.936   0.940   0.945   0.949   0.951   0.949   0.945   0.940   0.936   0.938
   0.946   0.962   0.988   1.022   1.063   1.109   1.156   1.202   1.244   1.280
   1.307   1.324
   1.750   1.741   1.715   1.672   1.614   1.542   1.459   1.368   1.273   1.181
   1.095   1.023   0.967   0.928   0.907   0.898   0.898   0.901   0.902   0.901
   0.898   0.898   0.907   0.928   0.967   1.023   1.095   1.181   1.273   1.368
   1.459   1.542   1.614   1.672   1.715   1.741   1.750   1.741   1.715   1.672
   1.614   1.542   1.459   1.368   1.273   1.181   1.095   1.023   0.967   0.928
   0.907   0.898   0.898   0.901   0.902   0.901   0.898   0.898   0.907   0.928
   0.967   1.023   1.095   1.181   1.273   1.368   1.459   1.542   1.614   1.672
   1.715   1.741
   1.908   1.903   1.887   1.858   1.815   1.755   1.676   1.579   1.465   1.342
   1.218   1.103   1.008   0.938   0.894   0.873   0.868   0.870   0.871   0.870
   0.868   0.873   0.894   0.938   1.008   1.103   1.218   1.342   1.465   1.579
   1.676   1.755   1.815   1.858   1.887   1.903   1.908   1.903   1.887   1.858
   1.815   1.755   1.676   1.579   1.465   1.342   1.218   1.103   1.008   0.938
   0.894   0.873   0.868   0.870   0.871   0.870   0.868   0.873   0.894   0.938
   1.008   1.103   1.218   1.342   1.465   1.579   1.676   1.755   1.815   1.858
   1.887   1.903
   1.598   1.604   1.619   1.640   1.657   1.661   1.641   1.591   1.509   1.400
   1.276   1.149   1.035   0.945   0.886   0.857   0.848   0.850   0.852   0.850
   0.848   0.857   0.886   0.945   1.035   1.149   1.276   1.400   1.509   1.591
   1.641   1.661   1.657   1.640   1.619   1.604   1.598   1.604   1.619   1.640
   1.657   1.661   1.641   1.591   1.509   1.400   1.276   1.149   1.035   0.945
   0.886   0.857   0.848   0.850   0.852   0.850   0.848   0.857   0.886   0.945
   1.035   1.149   1.276   1.400   1.509   1.591   1.641   1.661   1.657   1.640
   1.619   1.604
   0.984   1.003   1.057   1.136   1.226   1.308   1.365   1.385   1.366   1.311
   1.229   1.132   1.033   0.946   0.881   0.843   0.829   0.828   0.829   0.828
   0.829   0.843   0.881   0.946   1.033   1.132   1.229   1.311   1.366   1.385
   1.365   1.308   1.226   1.136   1.057   1.003   0.984   1.003   1.057   1.136
   1.226   1.308   1.365   1.385   1.366   1.311   1.229   1.132   1.033   0.946
   0.881   0.843   0.829   0.828   0.829   0.828   0.829   0.843   0.881   0.946
   1.033   1.132   1.229   1.311   1.366   1.385   1.365   1.308   1.226   1.136
   1.057   1.003
   0.436   0.463   0.539   0.652   0.781   0.901   0.994   1.054   1.084   1.094
   1.086   1.058   1.008   0.943   0.877   0.828   0.802   0.794   0.793   0.794
   0.802   0.828   0.877   0.943   1.008   1.058   1.086   1.094   1.084   1.054
   0.994   0.901   0.781   0.652   0.539   0.463   0.436   0.463   0.539   0.652
   0.781   0.901   0.994   1.054   1.084   1.094   1.086   1.058   1.008   0.943
   0.877   0.828   0.802   0.794   0.793   0.794   0.802   0.828   0.877   0.943
   1.008   1.058   1.086   1.094   1.084   1.054   0.994   0.901   0.781   0.652
   0.539   0.463
   0.187   0.213   0.287   0.394   0.511   0.609   0.673   0.714   0.757   0.820
   0.899   0.962   0.979   0.940   0.869   0.803   0.766   0.755   0.754   0.755
   0.766   0.803   0.869   0.940   0.979   0.962   0.899   0.820   0.757   0.714
   0.673   0.609   0.511   0.394   0.287   0.213   0.187   0.213   0.287   0.394
   0.511   0.609   0.673   0.714   0.757   0.820   0.899   0.962   0.979   0.940
   0.869   0.803   0.766   0.755   0.754   0.755   0.766   0.803   0.869   0.940
   0.979   0.962   0.899   0.820   0.757   0.714   0.673   0.609   0.511   0.394
   0.287   0.213
   0.179   0.198   0.254   0.336   0.418   0.470   0.480   0.476   0.509   0.614
   0.771   0.915   0.977   0.942   0.851   0.772   0.742   0.750   0.759   0.750
   0.742   0.772   0.851   0.942   0.977   0.915   0.771   0.614   0.509   0.476
   0.480   0.470   0.418   0.336   0.254   0.198   0.179   0.198   0.254   0.336
   0.418   0.470   0.480   0.476   0.509   0.614   0.771   0.915   0.977   0.942
   0.851   0.772   0.742   0.750   0.759   0.750   0.742   0.772   0.851   0.942
   0.977   0.915   0.771   0.614   0.509   0.476   0.480   0.470   0.418   0.336
   0.254   0.198
   0.232   0.241   0.276   0.339   0.410   0.453   0.449   0.434   0.477   0.619
   0.824   0.995   1.042   0.960   0.828   0.750   0.765   0.831   0.866   0.831
   0.765   0.750   0.828   0.960   1.042   0.995   0.824   0.619   0.477   0.434
   0.449   0.453   0.410   0.339   0.276   0.241   0.232   0.241   0.276   0.339
   0.410   0.453   0.449   0.434   0.477   0.619   0.824   0.995   1.042   0.960
   0.828   0.750   0.765   0.831   0.866   0.831   0.765   0.750   0.828   0.960
   1.042   0.995   0.824   0.619   0.477   0.434   0.449   0.453   0.410   0.339
   0.276   0.241
   0.285   0.282   0.293   0.349   0.445   0.537   0.591   0.629   0.717   0.890
   1.097   1.221   1.179   1.001   0.817   0.760   0.856   1.009   1.081   1.009
   0.856   0.760   0.817   1.001   1.179   1.221   1.097   0.890   0.717   0.629
   0.591   0.537   0.445   0.349   0.293   0.282   0.285   0.282   0.293   0.349
   0.445   0.537   0.591   0.629   0.717   0.890   1.097   1.221   1.179   1.001
   0.817   0.760   0.856   1.009   1.081   1.009   0.856   0.760   0.817   1.001
   1.179   1.221   1.097   0.890   0.717   0.629   0.591   0.537   0.445   0.349
   0.293   0.282
   0.460   0.438   0.409   0.441   0.556   0.711   0.849   0.968   1.112   1.298
   1.460   1.485   1.322   1.046   0.828   0.809   0.987   1.218   1.321   1.218
   0.987   0.809   0.828   1.046   1.322   1.485   1.460   1.298   1.112   0.968
   0.849   0.711   0.556   0.441   0.409   0.438   0.460   0.438   0.409   0.441
   0.556   0.711   0.849   0.968   1.112   1.298   1.460   1.485   1.322   1.046
   0.828   0.809   0.987   1.218   1.321   1.218   0.987   0.809   0.828   1.046
   1.322   1.485   1.460   1.298   1.112   0.968   0.849   0.711   0.556   0.441
   0.409   0.438
   0.895   0.844   0.743   0.699   0.769   0.920   1.085   1.238   1.398   1.563
   1.660   1.596   1.355   1.049   0.850   0.876   1.092   1.342   1.450   1.342
   1.092   0.876   0.850   1.049   1.355   1.596   1.660   1.563   1.398   1.238
   1.085   0.920   0.769   0.699   0.743   0.844   0.895   0.844   0.743   0.699
   0.769   0.920   1.085   1.238   1.398   1.563   1.660   1.596   1.355   1.049
   0.850   0.876   1.092   1.342   1.450   1.342   1.092   0.876   0.850   1.049
   1.355   1.596   1.660   1.563   1.398   1.238   1.085   0.920   0.769   0.699
   0.743   0.844
   1.564   1.475   1.274   1.099   1.037   1.078   1.161   1.255   1.365   1.477
   1.521   1.429   1.211   0.978   0.863   0.927   1.116   1.307   1.385   1.307
   1.116   0.927   0.863   0.978   1.211   1.429   1.521   1.477   1.365   1.255
   1.161   1.078   1.037   1.099   1.274   1.475   1.564   1.475   1.274   1.099
   1.037   1.078   1.161   1.255   1.365   1.477   1.521   1.429   1.211   0.978
   0.863   0.927   1.116   1.307   1.385   1.307   1.116   0.927   0.863   0.978
   1.211   1.429   1.521   1.477   1.365   1.255   1.161   1.078   1.037   1.099
   1.274   1.475
   2.252   2.127   1.826   1.503   1.270   1.139   1.069   1.041   1.060   1.109
   1.128   1.069   0.951   0.857   0.857   0.947   1.066   1.153   1.183   1.153
   1.066   0.947   0.857   0.857   0.951   1.069   1.128   1.109   1.060   1.041
   1.069   1.139   1.270   1.503   1.826   2.127   2.252   2.127   1.826   1.503
   1.270   1.139   1.069   1.041   1.060   1.109   1.128   1.069   0.951   0.857
   0.857   0.947   1.066   1.153   1.183   1.153   1.066   0.947   0.857   0.857
   0.951   1.069   1.128   1.109   1.060   1.041   1.069   1.139   1.270   1.503
   1.826   2.127
   2.687   2.540   2.174   1.753   1.399   1.139   0.950   0.823   0.770   0.777
   0.792   0.775   0.746   0.763   0.845   0.948   1.009   1.016   1.010   1.016
   1.009   0.948   0.845   0.763   0.746   0.775   0.792   0.777   0.770   0.823
   0.950   1.139   1.399   1.753   2.174   2.540   2.687   2.540   2.174   1.753
   1.399   1.139   0.950   0.823   0.770   0.777   0.792   0.775   0.746   0.763
   0.845   0.948   1.009   1.016   1.010   1.016   1.009   0.948   0.845   0.763
   0.746   0.775   0.792   0.777   0.770   0.823   0.950   1.139   1.399   1.753
   2.174   2.540
 111       5.00   72    0 5.00   18    0
  -0.204  -0.204  -0.203  -0.202  -0.200  -0.199  -0.196  -0.194  -0.191  -0.189
  -0.186  -0.183  -0.181  -0.179  -0.177  -0.175  -0.174  -0.173  -0.173  -0.173
  -0.174  -0.175  -0.177  -0.179  -0.181  -0.183  -0.186  -0.189  -0.191  -0.194
  -0.196  -0.199  -0.200  -0.202  -0.203  -0.204  -0.204  -0.204  -0.203  -0.202
  -0.200  -0.199  -0.196  -0.194  -0.191  -0.189  -0.186  -0.183  -0.181  -0.179
  -0.177  -0.175  -0.174  -0.173  -0.173  -0.173  -0.174  -0.175  -0.177  -0.179
  -0.181  -0.183  -0.186  -0.189  -0.191  -0.194  -0.196  -0.199  -0.200  -0.202
  -0.203  -0.204
  -0.206  -0.205  -0.204  -0.201  -0.196  -0.190  -0.182  -0.171  -0.158  -0.144
  -0.127  -0.109  -0.092  -0.074  -0.058  -0.044  -0.034  -0.028  -0.025  -0.028
  -0.034  -0.044  -0.058  -0.074  -0.092  -0.109  -0.127  -0.144  -0.158  -0.171
  -0.182  -0.190  -0.196  -0.201  -0.204  -0.205  -0.206  -0.205  -0.204  -0.201
  -0.196  -0.190  -0.182  -0.171  -0.158  -0.144  -0.127  -0.109  -0.092  -0.074
  -0.058  -0.044  -0.034  -0.028  -0.025  -0.028  -0.034  -0.044  -0.058  -0.074
  -0.092  -0.109  -0.127  -0.144  -0.158  -0.171  -0.182  -0.190  -0.196  -0.201
  -0.204  -0.205
   0.145   0.140   0.128   0.108   0.084   0.060   0.037   0.020   0.011   0.012
   0.023   0.044   0.073   0.107   0.143   0.176   0.202   0.220   0.226   0.220
   0.202   0.176   0.143   0.107   0.073   0.044   0.023   0.012   0.011   0.020
   0.037   0.060   0.084   0.108   0.128   0.140   0.145   0.140   0.128   0.108
   0.084   0.060   0.037   0.020   0.011   0.012   0.023   0.044   0.073   0.107
   0.143   0.176   0.202   0.220   0.226   0.220   0.202   0.176   0.143   0.107
   0.073   0.044   0.023   0.012   0.011   0.020   0.037   0.060   0.084   0.108
   0.128   0.140
   1.070   1.052   1.001   0.920   0.818   0.703   0.585   0.475   0.381   0.311
   0.269   0.255   0.269   0.304   0.352   0.404   0.450   0.481   0.492   0.481
   0.450   0.404   0.352   0.304   0.269   0.255   0.269   0.311   0.381   0.475
   0.585   0.703   0.818   0.920   1.001   1.052   1.070   1.052   1.001   0.920
   0.818   0.703   0.585   0.475   0.381   0.311   0.269   0.255   0.269   0.304
   0.352   0.404   0.450   0.481   0.492   0.481   0.450   0.404   0.352   0.304
   0.269   0.255   0.269   0.311   0.381   0.475   0.585   0.703   0.818   0.920
   1.001   1.052
   2.251   2.218   2.122   1.970   1.776   1.552   1.315   1.083   0.869   0.689
   0.553   0.467   0.432   0.442   0.486   0.547   0.608   0.653   0.669   0.653
   0.608   0.547   0.486   0.442   0.432   0.467   0.553   0.689   0.869   1.083
   1.315   1.552   1.776   1.970   2.122   2.218   2.251   2.218   2.122   1.970
   1.776   1.552   1.315   1.083   0.869   0.689   0.553   0.467   0.432   0.442
   0.486   0.547   0.608   0.653   0.669   0.653   0.608   0.547   0.486   0.442
   0.432   0.467   0.553   0.689   0.869   1.083   1.315   1.552   1.776   1.970
   2.122   2.218
   2.991   2.953   2.843   2.669   2.443   2.179   1.891   1.595   1.306   1.040
   0.814   0.643   0.536   0.495   0.509   0.560   0.622   0.672   0.691   0.672
   0.622   0.560   0.509   0.495   0.536   0.643   0.814   1.040   1.306   1.595
   1.891   2.179   2.443   2.669   2.843   2.953   2.991   2.953   2.843   2.669
   2.443   2.179   1.891   1.595   1.306   1.040   0.814   0.643   0.536   0.495
   0.509   0.560   0.622   0.672   0.691   0.672   0.622   0.560   0.509   0.495
   0.536   0.643   0.814   1.040   1.306   1.595   1.891   2.179   2.443   2.669
   2.843   2.953
   2.813   2.788   2.716   2.602   2.455   2.279   2.074   1.842   1.585   1.316
   1.052   0.818   0.636   0.522   0.478   0.490   0.532   0.573   0.590   0.573
   0.532   0.490   0.478   0.522   0.636   0.818   1.052   1.316   1.585   1.842
   2.074   2.279   2.455   2.602   2.716   2.788   2.813   2.788   2.716   2.602
   2.455   2.279   2.074   1.842   1.585   1.316   1.052   0.818   0.636   0.522
   0.478   0.490   0.532   0.573   0.590   0.573   0.532   0.490   0.478   0.522
   0.636   0.818   1.052   1.316   1.585   1.842   2.074   2.279   2.455   2.602
   2.716   2.788
   1.880   1.880   1.883   1.892   1.906   1.917   1.905   1.847   1.729   1.548
   1.317   1.066   0.829   0.639   0.516   0.461   0.454   0.467   0.475   0.467
   0.454   0.461   0.516   0.639   0.829   1.066   1.317   1.548   1.729   1.847
   1.905   1.917   1.906   1.892   1.883   1.880   1.880   1.880   1.883   1.892
   1.906   1.917   1.905   1.847   1.729   1.548   1.317   1.066   0.829   0.639
   0.516   0.461   0.454   0.467   0.475   0.467   0.454   0.461   0.516   0.639
   0.829   1.066   1.317   1.548   1.729   1.847   1.905   1.917   1.906   1.892
   1.883   1.880
   0.828   0.851   0.924   1.050   1.222   1.420   1.605   1.740   1.793   1.748
   1.611   1.400   1.153   0.911   0.710   0.574   0.501   0.472   0.465   0.472
   0.501   0.574   0.710   0.911   1.153   1.400   1.611   1.748   1.793   1.740
   1.605   1.420   1.222   1.050   0.924   0.851   0.828   0.851   0.924   1.050
   1.222   1.420   1.605   1.740   1.793   1.748   1.611   1.400   1.153   0.911
   0.710   0.574   0.501   0.472   0.465   0.472   0.501   0.574   0.710   0.911
   1.153   1.400   1.611   1.748   1.793   1.740   1.605   1.420   1.222   1.050
   0.924   0.851
   0.210   0.242   0.344   0.521   0.767   1.055   1.342   1.589   1.763   1.847
   1.832   1.717   1.517   1.270   1.023   0.823   0.690   0.621   0.601   0.621
   0.690   0.823   1.023   1.270   1.517   1.717   1.832   1.847   1.763   1.589
   1.342   1.055   0.767   0.521   0.344   0.242   0.210   0.242   0.344   0.521
   0.767   1.055   1.342   1.589   1.763   1.847   1.832   1.717   1.517   1.270
   1.023   0.823   0.690   0.621   0.601   0.621   0.690   0.823   1.023   1.270
   1.517   1.717   1.832   1.847   1.763   1.589   1.342   1.055   0.767   0.521
   0.344   0.242
   0.104   0.130   0.214   0.368   0.588   0.850   1.117   1.364   1.578   1.748
   1.852   1.857   1.749   1.546   1.305   1.087   0.934   0.853   0.828   0.853
   0.934   1.087   1.305   1.546   1.749   1.857   1.852   1.748   1.578   1.364
   1.117   0.850   0.588   0.368   0.214   0.130   0.104   0.130   0.214   0.368
   0.588   0.850   1.117   1.364   1.578   1.748   1.852   1.857   1.749   1.546
   1.305   1.087   0.934   0.853   0.828   0.853   0.934   1.087   1.305   1.546
   1.749   1.857   1.852   1.748   1.578   1.364   1.117   0.850   0.588   0.368
   0.214   0.130
   0.221   0.231   0.273   0.364   0.506   0.679   0.861   1.047   1.245   1.455
   1.640   1.743   1.724   1.590   1.401   1.226   1.110   1.056   1.041   1.056
   1.110   1.226   1.401   1.590   1.724   1.743   1.640   1.455   1.245   1.047
   0.861   0.679   0.506   0.364   0.273   0.231   0.221   0.231   0.273   0.364
   0.506   0.679   0.861   1.047   1.245   1.455   1.640   1.743   1.724   1.590
   1.401   1.226   1.110   1.056   1.041   1.056   1.110   1.226   1.401   1.590
   1.724   1.743   1.640   1.455   1.245   1.047   0.861   0.679   0.506   0.364
   0.273   0.231
   0.302   0.298   0.298   0.327   0.392   0.482   0.588   0.720   0.897   1.111
   1.317   1.447   1.465   1.389   1.279   1.193   1.154   1.149   1.152   1.149
   1.154   1.193   1.279   1.389   1.465   1.447   1.317   1.111   0.897   0.720
   0.588   0.482   0.392   0.327   0.298   0.298   0.302   0.298   0.298   0.327
   0.392   0.482   0.588   0.720   0.897   1.111   1.317   1.447   1.465   1.389
   1.279   1.193   1.154   1.149   1.152   1.149   1.154   1.193   1.279   1.389
   1.465   1.447   1.317   1.111   0.897   0.720   0.588   0.482   0.392   0.327
   0.298   0.298
   0.373   0.359   0.330   0.308   0.311   0.341   0.406   0.523   0.695   0.892
   1.050   1.124   1.118   1.080   1.058   1.067   1.093   1.115   1.123   1.115
   1.093   1.067   1.058   1.080   1.118   1.124   1.050   0.892   0.695   0.523
   0.406   0.341   0.311   0.308   0.330   0.359   0.373   0.359   0.330   0.308
   0.311   0.341   0.406   0.523   0.695   0.892   1.050   1.124   1.118   1.080
   1.058   1.067   1.093   1.115   1.123   1.115   1.093   1.067   1.058   1.080
   1.118   1.124   1.050   0.892   0.695   0.523   0.406   0.341   0.311   0.308
   0.330   0.359
   0.643   0.622   0.567   0.494   0.423   0.383   0.409   0.524   0.699   0.859
   0.927   0.898   0.843   0.844   0.912   0.989   1.013   0.987   0.968   0.987
   1.013   0.989   0.912   0.844   0.843   0.898   0.927   0.859   0.699   0.524
   0.409   0.383   0.423   0.494   0.567   0.622   0.643   0.622   0.567   0.494
   0.423   0.383   0.409   0.524   0.699   0.859   0.927   0.898   0.843   0.844
   0.912   0.989   1.013   0.987   0.968   0.987   1.013   0.989   0.912   0.844
   0.843   0.898   0.927   0.859   0.699   0.524   0.409   0.383   0.423   0.494
   0.567   0.622
   1.215   1.188   1.104   0.962   0.782   0.629   0.579   0.666   0.830   0.942
   0.914   0.790   0.711   0.779   0.941   1.040   0.977   0.820   0.739   0.820
   0.977   1.040   0.941   0.779   0.711   0.790   0.914   0.942   0.830   0.666
   0.579   0.629   0.782   0.962   1.104   1.188   1.215   1.188   1.104   0.962
   0.782   0.629   0.579   0.666   0.830   0.942   0.914   0.790   0.711   0.779
   0.941   1.040   0.977   0.820   0.739   0.820   0.977   1.040   0.941   0.779
   0.711   0.790   0.914   0.942   0.830   0.666   0.579   0.629   0.782   0.962
   1.104   1.188
   1.920   1.887   1.772   1.552   1.249   0.957   0.800   0.832   0.966   1.033
   0.934   0.755   0.693   0.850   1.098   1.186   0.992   0.669   0.512   0.669
   0.992   1.186   1.098   0.850   0.693   0.755   0.934   1.033   0.966   0.832
   0.800   0.957   1.249   1.552   1.772   1.887   1.920   1.887   1.772   1.552
   1.249   0.957   0.800   0.832   0.966   1.033   0.934   0.755   0.693   0.850
   1.098   1.186   0.992   0.669   0.512   0.669   0.992   1.186   1.098   0.850
   0.693   0.755   0.934   1.033   0.966   0.832   0.800   0.957   1.249   1.552
   1.772   1.887
   2.409   2.372   2.236   1.964   1.575   1.184   0.947   0.931   1.039   1.078
   0.945   0.748   0.713   0.935   1.238   1.309   1.019   0.580   0.371   0.580
   1.019   1.309   1.238   0.935   0.713   0.748   0.945   1.078   1.039   0.931
   0.947   1.184   1.575   1.964   2.236   2.372   2.409   2.372   2.236   1.964
   1.575   1.184   0.947   0.931   1.039   1.078   0.945   0.748   0.713   0.935
   1.238   1.309   1.019   0.580   0.371   0.580   1.019   1.309   1.238   0.935
   0.713   0.748   0.945   1.078   1.039   0.931   0.947   1.184   1.575   1.964
   2.236   2.372
TEXTURE_INDEX=   1.9847
ERR_CF 220         1080     500   49.92   20.02
ERR_CF 200         1076     276   46.83   25.54
ERR_CF 111         1074     346   66.84   10.73
