TEXEVAL                                                                         
Analysis started on 16-Sep-19 15:25:21                                          
 LMAX=14LFMAX=03 CUBIC ORTHO   
 220      5.00 5.00
 200      5.00 5.00
 111      5.00 5.00
 220       5.00   72    0 5.00   15    0
   1.907   1.907   1.907   1.907   1.907   1.907   1.907   1.907   1.907   1.907
   1.907   1.907   1.907   1.907   1.907   1.907   1.907   1.907   1.907   1.907
   1.907   1.907   1.907   1.907   1.907   1.907   1.907   1.907   1.907   1.907
   1.907   1.907   1.907   1.907   1.907   1.907   1.907   1.907   1.907   1.907
   1.907   1.907   1.907   1.907   1.907   1.907   1.907   1.907   1.907   1.907
   1.907   1.907   1.907   1.907   1.907   1.907   1.907   1.907   1.907   1.907
   1.907   1.907   1.907   1.907   1.907   1.907   1.907   1.907   1.907   1.907
   1.907   1.907
   0.923   1.087   1.069   1.131   1.214   1.173   1.062   1.072   1.522   1.500
   1.430   1.659   1.844   1.804   1.961   2.227   2.241   2.255   2.072   2.255
   2.241   2.227   1.961   1.804   1.844   1.659   1.430   1.500   1.522   1.072
   1.062   1.173   1.214   1.131   1.069   1.087   0.923   1.087   1.069   1.131
   1.214   1.173   1.062   1.072   1.522   1.500   1.430   1.659   1.844   1.804
   1.961   2.227   2.241   2.255   2.072   2.255   2.241   2.227   1.961   1.804
   1.844   1.659   1.430   1.500   1.522   1.072   1.062   1.173   1.214   1.131
   1.069   1.087
   0.503   0.590   0.500   0.543   0.520   0.489   0.741   0.568   0.904   1.030
   1.017   1.132   1.219   1.633   1.803   1.906   2.241   2.381   2.091   2.381
   2.241   1.906   1.803   1.633   1.219   1.132   1.017   1.030   0.904   0.568
   0.741   0.489   0.520   0.543   0.500   0.590   0.503   0.590   0.500   0.543
   0.520   0.489   0.741   0.568   0.904   1.030   1.017   1.132   1.219   1.633
   1.803   1.906   2.241   2.381   2.091   2.381   2.241   1.906   1.803   1.633
   1.219   1.132   1.017   1.030   0.904   0.568   0.741   0.489   0.520   0.543
   0.500   0.590
   0.481   0.403   0.365   0.307   0.202   0.375   0.513   0.307   0.426   0.529
   0.518   0.752   0.828   1.416   1.468   1.389   1.985   2.096   2.473   2.096
   1.985   1.389   1.468   1.416   0.828   0.752   0.518   0.529   0.426   0.307
   0.513   0.375   0.202   0.307   0.365   0.403   0.481   0.403   0.365   0.307
   0.202   0.375   0.513   0.307   0.426   0.529   0.518   0.752   0.828   1.416
   1.468   1.389   1.985   2.096   2.473   2.096   1.985   1.389   1.468   1.416
   0.828   0.752   0.518   0.529   0.426   0.307   0.513   0.375   0.202   0.307
   0.365   0.403
   0.243   0.256   0.243   0.249   0.175   0.446   0.256   0.249   0.192   0.280
   0.180   0.540   0.621   1.199   1.079   0.948   1.729   1.720   2.787   1.720
   1.729   0.948   1.079   1.199   0.621   0.540   0.180   0.280   0.192   0.249
   0.256   0.446   0.175   0.249   0.243   0.256   0.243   0.256   0.243   0.249
   0.175   0.446   0.256   0.249   0.192   0.280   0.180   0.540   0.621   1.199
   1.079   0.948   1.729   1.720   2.787   1.720   1.729   0.948   1.079   1.199
   0.621   0.540   0.180   0.280   0.192   0.249   0.256   0.446   0.175   0.249
   0.243   0.256
   0.262   0.191   0.127   0.186   0.236   0.219   0.254   0.246   0.309   0.370
   0.412   0.473   0.437   1.083   1.074   0.951   1.532   1.894   2.193   1.894
   1.532   0.951   1.074   1.083   0.437   0.473   0.412   0.370   0.309   0.246
   0.254   0.219   0.236   0.186   0.127   0.191   0.262   0.191   0.127   0.186
   0.236   0.219   0.254   0.246   0.309   0.370   0.412   0.473   0.437   1.083
   1.074   0.951   1.532   1.894   2.193   1.894   1.532   0.951   1.074   1.083
   0.437   0.473   0.412   0.370   0.309   0.246   0.254   0.219   0.236   0.186
   0.127   0.191
   0.610   0.459   0.285   0.295   0.428   0.302   0.498   0.329   0.713   0.536
   0.800   0.634   0.446   1.013   1.130   1.285   1.339   1.996   1.708   1.996
   1.339   1.285   1.130   1.013   0.446   0.634   0.800   0.536   0.713   0.329
   0.498   0.302   0.428   0.295   0.285   0.459   0.610   0.459   0.285   0.295
   0.428   0.302   0.498   0.329   0.713   0.536   0.800   0.634   0.446   1.013
   1.130   1.285   1.339   1.996   1.708   1.996   1.339   1.285   1.130   1.013
   0.446   0.634   0.800   0.536   0.713   0.329   0.498   0.302   0.428   0.295
   0.285   0.459
   0.833   0.804   0.653   0.557   0.426   0.485   0.812   0.470   0.504   0.570
   0.808   0.586   0.705   0.771   1.212   1.233   1.460   1.423   1.875   1.423
   1.460   1.233   1.212   0.771   0.705   0.586   0.808   0.570   0.504   0.470
   0.812   0.485   0.426   0.557   0.653   0.804   0.833   0.804   0.653   0.557
   0.426   0.485   0.812   0.470   0.504   0.570   0.808   0.586   0.705   0.771
   1.212   1.233   1.460   1.423   1.875   1.423   1.460   1.233   1.212   0.771
   0.705   0.586   0.808   0.570   0.504   0.470   0.812   0.485   0.426   0.557
   0.653   0.804
   1.121   0.736   0.619   0.423   0.359   0.279   0.553   0.376   0.341   0.724
   0.460   0.567   0.552   0.338   1.200   0.815   1.034   1.145   1.756   1.145
   1.034   0.815   1.200   0.338   0.552   0.567   0.460   0.724   0.341   0.376
   0.553   0.279   0.359   0.423   0.619   0.736   1.121   0.736   0.619   0.423
   0.359   0.279   0.553   0.376   0.341   0.724   0.460   0.567   0.552   0.338
   1.200   0.815   1.034   1.145   1.756   1.145   1.034   0.815   1.200   0.338
   0.552   0.567   0.460   0.724   0.341   0.376   0.553   0.279   0.359   0.423
   0.619   0.736
   1.019   1.175   0.520   0.565   0.317   0.186   0.414   0.304   0.421   0.698
   0.510   0.784   0.343   0.514   0.900   0.463   0.475   1.083   1.550   1.083
   0.475   0.463   0.900   0.514   0.343   0.784   0.510   0.698   0.421   0.304
   0.414   0.186   0.317   0.565   0.520   1.175   1.019   1.175   0.520   0.565
   0.317   0.186   0.414   0.304   0.421   0.698   0.510   0.784   0.343   0.514
   0.900   0.463   0.475   1.083   1.550   1.083   0.475   0.463   0.900   0.514
   0.343   0.784   0.510   0.698   0.421   0.304   0.414   0.186   0.317   0.565
   0.520   1.175
   1.735   1.879   0.970   1.093   0.388   0.707   0.935   0.929   0.275   0.917
   0.579   0.707   0.747   1.175   0.337   0.421   0.933   0.679   1.324   0.679
   0.933   0.421   0.337   1.175   0.747   0.707   0.579   0.917   0.275   0.929
   0.935   0.707   0.388   1.093   0.970   1.879   1.735   1.879   0.970   1.093
   0.388   0.707   0.935   0.929   0.275   0.917   0.579   0.707   0.747   1.175
   0.337   0.421   0.933   0.679   1.324   0.679   0.933   0.421   0.337   1.175
   0.747   0.707   0.579   0.917   0.275   0.929   0.935   0.707   0.388   1.093
   0.970   1.879
   3.080   2.281   1.548   1.691   0.687   1.552   1.275   1.970   0.767   1.134
   1.423   1.019   0.948   0.913   0.239   0.667   1.110   0.420   1.174   0.420
   1.110   0.667   0.239   0.913   0.948   1.019   1.423   1.134   0.767   1.970
   1.275   1.552   0.687   1.691   1.548   2.281   3.080   2.281   1.548   1.691
   0.687   1.552   1.275   1.970   0.767   1.134   1.423   1.019   0.948   0.913
   0.239   0.667   1.110   0.420   1.174   0.420   1.110   0.667   0.239   0.913
   0.948   1.019   1.423   1.134   0.767   1.970   1.275   1.552   0.687   1.691
   1.548   2.281
   2.953   2.161   2.877   2.044   0.825   2.287   1.298   1.928   1.116   0.895
   1.839   0.912   0.872   1.230   0.410   0.934   0.459   0.224   1.303   0.224
   0.459   0.934   0.410   1.230   0.872   0.912   1.839   0.895   1.116   1.928
   1.298   2.287   0.825   2.044   2.877   2.161   2.953   2.161   2.877   2.044
   0.825   2.287   1.298   1.928   1.116   0.895   1.839   0.912   0.872   1.230
   0.410   0.934   0.459   0.224   1.303   0.224   0.459   0.934   0.410   1.230
   0.872   0.912   1.839   0.895   1.116   1.928   1.298   2.287   0.825   2.044
   2.877   2.161
   1.860   1.069   2.147   1.607   1.572   2.186   1.222   1.093   0.807   0.611
   1.679   1.124   0.920   1.769   0.603   2.527   0.692   0.838   1.093   0.838
   0.692   2.527   0.603   1.769   0.920   1.124   1.679   0.611   0.807   1.093
   1.222   2.186   1.572   1.607   2.147   1.069   1.860   1.069   2.147   1.607
   1.572   2.186   1.222   1.093   0.807   0.611   1.679   1.124   0.920   1.769
   0.603   2.527   0.692   0.838   1.093   0.838   0.692   2.527   0.603   1.769
   0.920   1.124   1.679   0.611   0.807   1.093   1.222   2.186   1.572   1.607
   2.147   1.069
   0.635   1.038   0.529   1.286   1.156   1.129   1.119   1.993   0.843   1.398
   1.433   1.177   0.537   0.990   1.367   2.887   1.728   2.140   1.058   2.140
   1.728   2.887   1.367   0.990   0.537   1.177   1.433   1.398   0.843   1.993
   1.119   1.129   1.156   1.286   0.529   1.038   0.635   1.038   0.529   1.286
   1.156   1.129   1.119   1.993   0.843   1.398   1.433   1.177   0.537   0.990
   1.367   2.887   1.728   2.140   1.058   2.140   1.728   2.887   1.367   0.990
   0.537   1.177   1.433   1.398   0.843   1.993   1.119   1.129   1.156   1.286
   0.529   1.038
 200       5.00   72    0 5.00   15    0
   1.201   1.201   1.201   1.201   1.201   1.201   1.201   1.201   1.201   1.201
   1.201   1.201   1.201   1.201   1.201   1.201   1.201   1.201   1.201   1.201
   1.201   1.201   1.201   1.201   1.201   1.201   1.201   1.201   1.201   1.201
   1.201   1.201   1.201   1.201   1.201   1.201   1.201   1.201   1.201   1.201
   1.201   1.201   1.201   1.201   1.201   1.201   1.201   1.201   1.201   1.201
   1.201   1.201   1.201   1.201   1.201   1.201   1.201   1.201   1.201   1.201
   1.201   1.201   1.201   1.201   1.201   1.201   1.201   1.201   1.201   1.201
   1.201   1.201
   1.114   1.244   1.020   1.216   1.213   1.146   1.080   1.039   1.252   1.089
   1.159   1.070   0.932   1.123   1.217   1.055   1.025   1.152   1.198   1.152
   1.025   1.055   1.217   1.123   0.932   1.070   1.159   1.089   1.252   1.039
   1.080   1.146   1.213   1.216   1.020   1.244   1.114   1.244   1.020   1.216
   1.213   1.146   1.080   1.039   1.252   1.089   1.159   1.070   0.932   1.123
   1.217   1.055   1.025   1.152   1.198   1.152   1.025   1.055   1.217   1.123
   0.932   1.070   1.159   1.089   1.252   1.039   1.080   1.146   1.213   1.216
   1.020   1.244
   1.172   0.967   0.957   1.234   1.021   1.013   1.069   0.807   0.919   0.998
   0.969   0.908   0.853   1.032   0.941   0.770   0.888   0.948   1.062   0.948
   0.888   0.770   0.941   1.032   0.853   0.908   0.969   0.998   0.919   0.807
   1.069   1.013   1.021   1.234   0.957   0.967   1.172   0.967   0.957   1.234
   1.021   1.013   1.069   0.807   0.919   0.998   0.969   0.908   0.853   1.032
   0.941   0.770   0.888   0.948   1.062   0.948   0.888   0.770   0.941   1.032
   0.853   0.908   0.969   0.998   0.919   0.807   1.069   1.013   1.021   1.234
   0.957   0.967
   0.990   1.013   1.067   1.264   1.149   1.154   1.101   0.854   0.828   0.844
   1.154   0.696   0.635   0.717   0.622   0.615   0.817   0.480   0.938   0.480
   0.817   0.615   0.622   0.717   0.635   0.696   1.154   0.844   0.828   0.854
   1.101   1.154   1.149   1.264   1.067   1.013   0.990   1.013   1.067   1.264
   1.149   1.154   1.101   0.854   0.828   0.844   1.154   0.696   0.635   0.717
   0.622   0.615   0.817   0.480   0.938   0.480   0.817   0.615   0.622   0.717
   0.635   0.696   1.154   0.844   0.828   0.854   1.101   1.154   1.149   1.264
   1.067   1.013
   1.476   1.768   1.467   1.333   1.487   1.405   1.379   0.960   0.999   0.992
   1.352   0.506   0.663   0.608   0.424   0.616   0.795   0.440   0.487   0.440
   0.795   0.616   0.424   0.608   0.663   0.506   1.352   0.992   0.999   0.960
   1.379   1.405   1.487   1.333   1.467   1.768   1.476   1.768   1.467   1.333
   1.487   1.405   1.379   0.960   0.999   0.992   1.352   0.506   0.663   0.608
   0.424   0.616   0.795   0.440   0.487   0.440   0.795   0.616   0.424   0.608
   0.663   0.506   1.352   0.992   0.999   0.960   1.379   1.405   1.487   1.333
   1.467   1.768
   1.609   2.127   1.695   1.416   1.642   1.636   2.006   1.346   1.298   1.124
   1.162   0.673   0.781   0.668   0.382   0.574   0.702   0.605   0.196   0.605
   0.702   0.574   0.382   0.668   0.781   0.673   1.162   1.124   1.298   1.346
   2.006   1.636   1.642   1.416   1.695   2.127   1.609   2.127   1.695   1.416
   1.642   1.636   2.006   1.346   1.298   1.124   1.162   0.673   0.781   0.668
   0.382   0.574   0.702   0.605   0.196   0.605   0.702   0.574   0.382   0.668
   0.781   0.673   1.162   1.124   1.298   1.346   2.006   1.636   1.642   1.416
   1.695   2.127
   1.253   1.314   1.271   1.540   1.250   1.733   1.713   2.169   1.365   1.184
   1.001   0.637   0.717   0.446   0.332   0.418   0.537   0.648   0.251   0.648
   0.537   0.418   0.332   0.446   0.717   0.637   1.001   1.184   1.365   2.169
   1.713   1.733   1.250   1.540   1.271   1.314   1.253   1.314   1.271   1.540
   1.250   1.733   1.713   2.169   1.365   1.184   1.001   0.637   0.717   0.446
   0.332   0.418   0.537   0.648   0.251   0.648   0.537   0.418   0.332   0.446
   0.717   0.637   1.001   1.184   1.365   2.169   1.713   1.733   1.250   1.540
   1.271   1.314
   1.010   0.592   0.790   1.058   0.891   1.419   1.161   2.021   1.383   0.915
   1.461   0.735   1.080   0.972   0.491   0.841   0.768   0.922   0.876   0.922
   0.768   0.841   0.491   0.972   1.080   0.735   1.461   0.915   1.383   2.021
   1.161   1.419   0.891   1.058   0.790   0.592   1.010   0.592   0.790   1.058
   0.891   1.419   1.161   2.021   1.383   0.915   1.461   0.735   1.080   0.972
   0.491   0.841   0.768   0.922   0.876   0.922   0.768   0.841   0.491   0.972
   1.080   0.735   1.461   0.915   1.383   2.021   1.161   1.419   0.891   1.058
   0.790   0.592
   0.382   0.596   0.603   0.518   0.729   1.081   1.093   1.061   1.255   0.879
   1.216   0.835   1.338   1.244   0.923   1.128   0.934   0.656   0.867   0.656
   0.934   1.128   0.923   1.244   1.338   0.835   1.216   0.879   1.255   1.061
   1.093   1.081   0.729   0.518   0.603   0.596   0.382   0.596   0.603   0.518
   0.729   1.081   1.093   1.061   1.255   0.879   1.216   0.835   1.338   1.244
   0.923   1.128   0.934   0.656   0.867   0.656   0.934   1.128   0.923   1.244
   1.338   0.835   1.216   0.879   1.255   1.061   1.093   1.081   0.729   0.518
   0.603   0.596
   0.054   0.300   0.602   0.646   0.491   0.798   0.904   0.927   0.590   1.482
   0.963   0.676   0.963   0.625   1.237   0.664   0.864   0.444   0.602   0.444
   0.864   0.664   1.237   0.625   0.963   0.676   0.963   1.482   0.590   0.927
   0.904   0.798   0.491   0.646   0.602   0.300   0.054   0.300   0.602   0.646
   0.491   0.798   0.904   0.927   0.590   1.482   0.963   0.676   0.963   0.625
   1.237   0.664   0.864   0.444   0.602   0.444   0.864   0.664   1.237   0.625
   0.963   0.676   0.963   1.482   0.590   0.927   0.904   0.798   0.491   0.646
   0.602   0.300
   0.000   0.189   0.764   0.624   0.249   0.282   0.518   0.865   0.762   0.904
   1.309   0.788   0.919   0.621   1.005   0.224   0.843   0.413   0.620   0.413
   0.843   0.224   1.005   0.621   0.919   0.788   1.309   0.904   0.762   0.865
   0.518   0.282   0.249   0.624   0.764   0.189   0.000   0.189   0.764   0.624
   0.249   0.282   0.518   0.865   0.762   0.904   1.309   0.788   0.919   0.621
   1.005   0.224   0.843   0.413   0.620   0.413   0.843   0.224   1.005   0.621
   0.919   0.788   1.309   0.904   0.762   0.865   0.518   0.282   0.249   0.624
   0.764   0.189
   0.235   0.104   0.457   0.242   0.118   0.651   0.570   0.597   0.833   0.363
   1.324   0.681   0.893   0.803   0.636   0.498   0.635   0.324   0.605   0.324
   0.635   0.498   0.636   0.803   0.893   0.681   1.324   0.363   0.833   0.597
   0.570   0.651   0.118   0.242   0.457   0.104   0.235   0.104   0.457   0.242
   0.118   0.651   0.570   0.597   0.833   0.363   1.324   0.681   0.893   0.803
   0.636   0.498   0.635   0.324   0.605   0.324   0.635   0.498   0.636   0.803
   0.893   0.681   1.324   0.363   0.833   0.597   0.570   0.651   0.118   0.242
   0.457   0.104
   0.353   0.762   0.952   0.527   0.455   1.048   1.369   0.911   0.910   1.190
   1.391   1.193   1.117   1.013   1.334   1.082   0.499   1.293   0.588   1.293
   0.499   1.082   1.334   1.013   1.117   1.193   1.391   1.190   0.910   0.911
   1.369   1.048   0.455   0.527   0.952   0.762   0.353   0.762   0.952   0.527
   0.455   1.048   1.369   0.911   0.910   1.190   1.391   1.193   1.117   1.013
   1.334   1.082   0.499   1.293   0.588   1.293   0.499   1.082   1.334   1.013
   1.117   1.193   1.391   1.190   0.910   0.911   1.369   1.048   0.455   0.527
   0.952   0.762
   0.573   1.084   1.244   1.329   0.593   0.907   1.507   1.381   1.280   1.848
   0.938   1.310   1.332   0.543   1.842   0.857   1.124   1.726   1.005   1.726
   1.124   0.857   1.842   0.543   1.332   1.310   0.938   1.848   1.280   1.381
   1.507   0.907   0.593   1.329   1.244   1.084   0.573   1.084   1.244   1.329
   0.593   0.907   1.507   1.381   1.280   1.848   0.938   1.310   1.332   0.543
   1.842   0.857   1.124   1.726   1.005   1.726   1.124   0.857   1.842   0.543
   1.332   1.310   0.938   1.848   1.280   1.381   1.507   0.907   0.593   1.329
   1.244   1.084
   1.399   1.162   0.954   1.219   1.331   1.822   0.784   2.087   0.963   1.549
   1.398   2.220   2.068   0.226   0.973   0.840   2.305   1.379   2.322   1.379
   2.305   0.840   0.973   0.226   2.068   2.220   1.398   1.549   0.963   2.087
   0.784   1.822   1.331   1.219   0.954   1.162   1.399   1.162   0.954   1.219
   1.331   1.822   0.784   2.087   0.963   1.549   1.398   2.220   2.068   0.226
   0.973   0.840   2.305   1.379   2.322   1.379   2.305   0.840   0.973   0.226
   2.068   2.220   1.398   1.549   0.963   2.087   0.784   1.822   1.331   1.219
   0.954   1.162
 111       5.00   72    0 5.00   15    0
   0.148   0.148   0.148   0.148   0.148   0.148   0.148   0.148   0.148   0.148
   0.148   0.148   0.148   0.148   0.148   0.148   0.148   0.148   0.148   0.148
   0.148   0.148   0.148   0.148   0.148   0.148   0.148   0.148   0.148   0.148
   0.148   0.148   0.148   0.148   0.148   0.148   0.148   0.148   0.148   0.148
   0.148   0.148   0.148   0.148   0.148   0.148   0.148   0.148   0.148   0.148
   0.148   0.148   0.148   0.148   0.148   0.148   0.148   0.148   0.148   0.148
   0.148   0.148   0.148   0.148   0.148   0.148   0.148   0.148   0.148   0.148
   0.148   0.148
   0.218   0.128   0.217   0.195   0.185   0.212   0.228   0.145   0.199   0.151
   0.216   0.165   0.184   0.163   0.201   0.201   0.173   0.193   0.172   0.193
   0.173   0.201   0.201   0.163   0.184   0.165   0.216   0.151   0.199   0.145
   0.228   0.212   0.185   0.195   0.217   0.128   0.218   0.128   0.217   0.195
   0.185   0.212   0.228   0.145   0.199   0.151   0.216   0.165   0.184   0.163
   0.201   0.201   0.173   0.193   0.172   0.193   0.173   0.201   0.201   0.163
   0.184   0.165   0.216   0.151   0.199   0.145   0.228   0.212   0.185   0.195
   0.217   0.128
   0.400   0.335   0.397   0.307   0.300   0.416   0.315   0.192   0.255   0.205
   0.271   0.225   0.201   0.235   0.272   0.355   0.244   0.218   0.220   0.218
   0.244   0.355   0.272   0.235   0.201   0.225   0.271   0.205   0.255   0.192
   0.315   0.416   0.300   0.307   0.397   0.335   0.400   0.335   0.397   0.307
   0.300   0.416   0.315   0.192   0.255   0.205   0.271   0.225   0.201   0.235
   0.272   0.355   0.244   0.218   0.220   0.218   0.244   0.355   0.272   0.235
   0.201   0.225   0.271   0.205   0.255   0.192   0.315   0.416   0.300   0.307
   0.397   0.335
   0.908   0.908   0.818   0.690   0.586   0.719   0.521   0.413   0.354   0.248
   0.274   0.220   0.266   0.247   0.247   0.358   0.256   0.284   0.267   0.284
   0.256   0.358   0.247   0.247   0.266   0.220   0.274   0.248   0.354   0.413
   0.521   0.719   0.586   0.690   0.818   0.908   0.908   0.908   0.818   0.690
   0.586   0.719   0.521   0.413   0.354   0.248   0.274   0.220   0.266   0.247
   0.247   0.358   0.256   0.284   0.267   0.284   0.256   0.358   0.247   0.247
   0.266   0.220   0.274   0.248   0.354   0.413   0.521   0.719   0.586   0.690
   0.818   0.908
   2.237   1.861   2.111   1.676   1.418   1.354   0.975   0.922   0.549   0.353
   0.298   0.236   0.273   0.349   0.265   0.273   0.300   0.200   0.208   0.200
   0.300   0.273   0.265   0.349   0.273   0.236   0.298   0.353   0.549   0.922
   0.975   1.354   1.418   1.676   2.111   1.861   2.237   1.861   2.111   1.676
   1.418   1.354   0.975   0.922   0.549   0.353   0.298   0.236   0.273   0.349
   0.265   0.273   0.300   0.200   0.208   0.200   0.300   0.273   0.265   0.349
   0.273   0.236   0.298   0.353   0.549   0.922   0.975   1.354   1.418   1.676
   2.111   1.861
   3.953   3.099   3.251   2.922   2.397   2.017   1.734   1.283   1.134   0.664
   0.366   0.213   0.239   0.250   0.320   0.172   0.245   0.182   0.141   0.182
   0.245   0.172   0.320   0.250   0.239   0.213   0.366   0.664   1.134   1.283
   1.734   2.017   2.397   2.922   3.251   3.099   3.953   3.099   3.251   2.922
   2.397   2.017   1.734   1.283   1.134   0.664   0.366   0.213   0.239   0.250
   0.320   0.172   0.245   0.182   0.141   0.182   0.245   0.172   0.320   0.250
   0.239   0.213   0.366   0.664   1.134   1.283   1.734   2.017   2.397   2.922
   3.251   3.099
   3.282   2.904   2.658   2.886   2.606   2.239   1.821   1.454   1.634   1.171
   0.505   0.422   0.206   0.133   0.449   0.143   0.194   0.184   0.221   0.184
   0.194   0.143   0.449   0.133   0.206   0.422   0.505   1.171   1.634   1.454
   1.821   2.239   2.606   2.886   2.658   2.904   3.282   2.904   2.658   2.886
   2.606   2.239   1.821   1.454   1.634   1.171   0.505   0.422   0.206   0.133
   0.449   0.143   0.194   0.184   0.221   0.184   0.194   0.143   0.449   0.133
   0.206   0.422   0.505   1.171   1.634   1.454   1.821   2.239   2.606   2.886
   2.658   2.904
   1.540   1.509   1.278   1.680   2.329   2.211   1.482   1.702   1.567   1.574
   1.046   0.972   0.672   0.477   0.719   0.418   0.300   0.157   0.295   0.157
   0.300   0.418   0.719   0.477   0.672   0.972   1.046   1.574   1.567   1.702
   1.482   2.211   2.329   1.680   1.278   1.509   1.540   1.509   1.278   1.680
   2.329   2.211   1.482   1.702   1.567   1.574   1.046   0.972   0.672   0.477
   0.719   0.418   0.300   0.157   0.295   0.157   0.300   0.418   0.719   0.477
   0.672   0.972   1.046   1.574   1.567   1.702   1.482   2.211   2.329   1.680
   1.278   1.509
   0.950   0.641   0.920   0.878   1.435   1.471   1.272   1.656   1.621   1.581
   1.554   1.420   1.303   0.744   1.056   0.614   0.304   0.248   0.479   0.248
   0.304   0.614   1.056   0.744   1.303   1.420   1.554   1.581   1.621   1.656
   1.272   1.471   1.435   0.878   0.920   0.641   0.950   0.641   0.920   0.878
   1.435   1.471   1.272   1.656   1.621   1.581   1.554   1.420   1.303   0.744
   1.056   0.614   0.304   0.248   0.479   0.248   0.304   0.614   1.056   0.744
   1.303   1.420   1.554   1.581   1.621   1.656   1.272   1.471   1.435   0.878
   0.920   0.641
   0.575   0.362   0.728   0.601   0.334   0.525   0.727   1.181   1.631   1.424
   1.122   1.430   1.403   0.916   0.815   0.515   0.479   0.522   0.450   0.522
   0.479   0.515   0.815   0.916   1.403   1.430   1.122   1.424   1.631   1.181
   0.727   0.525   0.334   0.601   0.728   0.362   0.575   0.362   0.728   0.601
   0.334   0.525   0.727   1.181   1.631   1.424   1.122   1.430   1.403   0.916
   0.815   0.515   0.479   0.522   0.450   0.522   0.479   0.515   0.815   0.916
   1.403   1.430   1.122   1.424   1.631   1.181   0.727   0.525   0.334   0.601
   0.728   0.362
   0.225   0.234   0.268   0.437   0.084   0.186   0.455   0.752   1.238   1.796
   1.053   1.541   1.495   1.080   0.913   0.507   0.799   0.924   0.299   0.924
   0.799   0.507   0.913   1.080   1.495   1.541   1.053   1.796   1.238   0.752
   0.455   0.186   0.084   0.437   0.268   0.234   0.225   0.234   0.268   0.437
   0.084   0.186   0.455   0.752   1.238   1.796   1.053   1.541   1.495   1.080
   0.913   0.507   0.799   0.924   0.299   0.924   0.799   0.507   0.913   1.080
   1.495   1.541   1.053   1.796   1.238   0.752   0.455   0.186   0.084   0.437
   0.268   0.234
   0.690   0.276   0.312   0.399   0.324   0.137   0.516   0.505   0.970   1.797
   1.238   1.841   1.263   1.627   1.519   0.974   1.148   1.093   0.309   1.093
   1.148   0.974   1.519   1.627   1.263   1.841   1.238   1.797   0.970   0.505
   0.516   0.137   0.324   0.399   0.312   0.276   0.690   0.276   0.312   0.399
   0.324   0.137   0.516   0.505   0.970   1.797   1.238   1.841   1.263   1.627
   1.519   0.974   1.148   1.093   0.309   1.093   1.148   0.974   1.519   1.627
   1.263   1.841   1.238   1.797   0.970   0.505   0.516   0.137   0.324   0.399
   0.312   0.276
   0.863   0.936   0.480   0.728   0.588   0.455   0.462   0.739   1.130   1.247
   1.511   1.439   0.968   2.132   1.520   1.423   1.717   1.582   0.663   1.582
   1.717   1.423   1.520   2.132   0.968   1.439   1.511   1.247   1.130   0.739
   0.462   0.455   0.588   0.728   0.480   0.936   0.863   0.936   0.480   0.728
   0.588   0.455   0.462   0.739   1.130   1.247   1.511   1.439   0.968   2.132
   1.520   1.423   1.717   1.582   0.663   1.582   1.717   1.423   1.520   2.132
   0.968   1.439   1.511   1.247   1.130   0.739   0.462   0.455   0.588   0.728
   0.480   0.936
   0.432   1.020   0.399   0.903   0.701   0.442   0.550   0.892   1.214   1.342
   1.362   1.353   0.850   1.534   1.094   1.586   2.057   2.004   1.032   2.004
   2.057   1.586   1.094   1.534   0.850   1.353   1.362   1.342   1.214   0.892
   0.550   0.442   0.701   0.903   0.399   1.020   0.432   1.020   0.399   0.903
   0.701   0.442   0.550   0.892   1.214   1.342   1.362   1.353   0.850   1.534
   1.094   1.586   2.057   2.004   1.032   2.004   2.057   1.586   1.094   1.534
   0.850   1.353   1.362   1.342   1.214   0.892   0.550   0.442   0.701   0.903
   0.399   1.020
   0.696   0.553   0.498   0.898   0.682   0.245   0.516   0.697   0.752   0.822
   0.553   1.057   0.878   0.864   1.306   1.106   1.320   1.376   0.593   1.376
   1.320   1.106   1.306   0.864   0.878   1.057   0.553   0.822   0.752   0.697
   0.516   0.245   0.682   0.898   0.498   0.553   0.696   0.553   0.498   0.898
   0.682   0.245   0.516   0.697   0.752   0.822   0.553   1.057   0.878   0.864
   1.306   1.106   1.320   1.376   0.593   1.376   1.320   1.106   1.306   0.864
   0.878   1.057   0.553   0.822   0.752   0.697   0.516   0.245   0.682   0.898
   0.498   0.553
  4  1      3.2616717E-01
  4  2     -1.9928727E-01
  4  3     -1.3742260E-01
  6  1      9.4432326E-01
  6  2     -2.0987386E+00
  6  3      8.9222534E-01
  6  4     -2.3192559E-01
  8  1     -5.9090395E-01
  8  2      7.6479477E-02
  8  3      7.0961321E-02
  8  4      8.1343592E-02
  8  5      6.1181524E-01
 10  1     -4.4219665E-01
 10  2     -2.2131389E-01
 10  3      5.9932607E-01
 10  4      6.5146065E-02
 10  5      2.0115727E-01
 10  6      2.2842589E-01
 12  1     -2.8127687E-01  8.8014834E-01
 12  2     -2.8759833E-02 -1.2561747E+00
 12  3      9.1317579E-03  6.2305518E-01
 12  4     -1.9667089E-01 -8.5925391E-01
 12  5     -3.0631208E-01  5.4177951E-01
 12  6     -1.3409649E-01  9.8909873E-02
 12  7      1.2141572E+00 -3.9040193E-01
 14  1      2.0444824E-01
 14  2      3.9269374E-01
 14  3     -2.9003470E-02
 14  4      5.4409141E-02
 14  5      5.2675142E-02
 14  6     -1.1089598E-01
 14  7      5.8180331E-01
 14  8      2.7182340E-01
 220       5.00   72    0 5.00   18    0
   1.749   1.750   1.752   1.755   1.759   1.763   1.769   1.775   1.782   1.789
   1.796   1.802   1.809   1.814   1.819   1.823   1.826   1.828   1.829   1.828
   1.826   1.823   1.819   1.814   1.809   1.802   1.796   1.789   1.782   1.775
   1.769   1.763   1.759   1.755   1.752   1.750   1.749   1.750   1.752   1.755
   1.759   1.763   1.769   1.775   1.782   1.789   1.796   1.802   1.809   1.814
   1.819   1.823   1.826   1.828   1.829   1.828   1.826   1.823   1.819   1.814
   1.809   1.802   1.796   1.789   1.782   1.775   1.769   1.763   1.759   1.755
   1.752   1.750
   1.163   1.167   1.180   1.201   1.231   1.267   1.309   1.357   1.408   1.462
   1.517   1.572   1.623   1.670   1.712   1.746   1.771   1.786   1.792   1.786
   1.771   1.746   1.712   1.670   1.623   1.572   1.517   1.462   1.408   1.357
   1.309   1.267   1.231   1.201   1.180   1.167   1.163   1.167   1.180   1.201
   1.231   1.267   1.309   1.357   1.408   1.462   1.517   1.572   1.623   1.670
   1.712   1.746   1.771   1.786   1.792   1.786   1.771   1.746   1.712   1.670
   1.623   1.572   1.517   1.462   1.408   1.357   1.309   1.267   1.231   1.201
   1.180   1.167
   0.447   0.455   0.478   0.516   0.570   0.638   0.720   0.814   0.918   1.031
   1.150   1.271   1.389   1.501   1.601   1.685   1.749   1.788   1.801   1.788
   1.749   1.685   1.601   1.501   1.389   1.271   1.150   1.031   0.918   0.814
   0.720   0.638   0.570   0.516   0.478   0.455   0.447   0.455   0.478   0.516
   0.570   0.638   0.720   0.814   0.918   1.031   1.150   1.271   1.389   1.501
   1.601   1.685   1.749   1.788   1.801   1.788   1.749   1.685   1.601   1.501
   1.389   1.271   1.150   1.031   0.918   0.814   0.720   0.638   0.570   0.516
   0.478   0.455
   0.104   0.111   0.134   0.172   0.226   0.296   0.383   0.488   0.610   0.748
   0.902   1.067   1.239   1.409   1.568   1.707   1.814   1.883   1.906   1.883
   1.814   1.707   1.568   1.409   1.239   1.067   0.902   0.748   0.610   0.488
   0.383   0.296   0.226   0.172   0.134   0.111   0.104   0.111   0.134   0.172
   0.226   0.296   0.383   0.488   0.610   0.748   0.902   1.067   1.239   1.409
   1.568   1.707   1.814   1.883   1.906   1.883   1.814   1.707   1.568   1.409
   1.239   1.067   0.902   0.748   0.610   0.488   0.383   0.296   0.226   0.172
   0.134   0.111
   0.248   0.253   0.267   0.292   0.326   0.371   0.429   0.500   0.589   0.699
   0.832   0.991   1.173   1.370   1.570   1.754   1.905   2.003   2.038   2.003
   1.905   1.754   1.570   1.370   1.173   0.991   0.832   0.699   0.589   0.500
   0.429   0.371   0.326   0.292   0.267   0.253   0.248   0.253   0.267   0.292
   0.326   0.371   0.429   0.500   0.589   0.699   0.832   0.991   1.173   1.370
   1.570   1.754   1.905   2.003   2.038   2.003   1.905   1.754   1.570   1.370
   1.173   0.991   0.832   0.699   0.589   0.500   0.429   0.371   0.326   0.292
   0.267   0.253
   0.560   0.563   0.573   0.589   0.610   0.636   0.664   0.694   0.729   0.776
   0.845   0.948   1.093   1.279   1.492   1.708   1.897   2.026   2.071   2.026
   1.897   1.708   1.492   1.279   1.093   0.948   0.845   0.776   0.729   0.694
   0.664   0.636   0.610   0.589   0.573   0.563   0.560   0.563   0.573   0.589
   0.610   0.636   0.664   0.694   0.729   0.776   0.845   0.948   1.093   1.279
   1.492   1.708   1.897   2.026   2.071   2.026   1.897   1.708   1.492   1.279
   1.093   0.948   0.845   0.776   0.729   0.694   0.664   0.636   0.610   0.589
   0.573   0.563
   0.663   0.665   0.673   0.690   0.719   0.755   0.791   0.816   0.825   0.823
   0.825   0.854   0.935   1.080   1.284   1.520   1.742   1.901   1.959   1.901
   1.742   1.520   1.284   1.080   0.935   0.854   0.825   0.823   0.825   0.816
   0.791   0.755   0.719   0.690   0.673   0.665   0.663   0.665   0.673   0.690
   0.719   0.755   0.791   0.816   0.825   0.823   0.825   0.854   0.935   1.080
   1.284   1.520   1.742   1.901   1.959   1.901   1.742   1.520   1.284   1.080
   0.935   0.854   0.825   0.823   0.825   0.816   0.791   0.755   0.719   0.690
   0.673   0.665
   0.541   0.535   0.525   0.528   0.557   0.616   0.690   0.756   0.792   0.788
   0.757   0.730   0.748   0.842   1.022   1.262   1.508   1.694   1.762   1.694
   1.508   1.262   1.022   0.842   0.748   0.730   0.757   0.788   0.792   0.756
   0.690   0.616   0.557   0.528   0.525   0.535   0.541   0.535   0.525   0.528
   0.557   0.616   0.690   0.756   0.792   0.788   0.757   0.730   0.748   0.842
   1.022   1.262   1.508   1.694   1.762   1.694   1.508   1.262   1.022   0.842
   0.748   0.730   0.757   0.788   0.792   0.756   0.690   0.616   0.557   0.528
   0.525   0.535
   0.567   0.539   0.470   0.404   0.383   0.425   0.519   0.627   0.708   0.736
   0.712   0.662   0.636   0.681   0.821   1.043   1.291   1.485   1.559   1.485
   1.291   1.043   0.821   0.681   0.636   0.662   0.712   0.736   0.708   0.627
   0.519   0.425   0.383   0.404   0.470   0.539   0.567   0.539   0.470   0.404
   0.383   0.425   0.519   0.627   0.708   0.736   0.712   0.662   0.636   0.681
   0.821   1.043   1.291   1.485   1.559   1.485   1.291   1.043   0.821   0.681
   0.636   0.662   0.712   0.736   0.708   0.627   0.519   0.425   0.383   0.404
   0.470   0.539
   1.091   1.026   0.862   0.673   0.536   0.491   0.535   0.625   0.711   0.756
   0.745   0.695   0.645   0.646   0.732   0.904   1.115   1.290   1.357   1.290
   1.115   0.904   0.732   0.646   0.645   0.695   0.745   0.756   0.711   0.625
   0.535   0.491   0.536   0.673   0.862   1.026   1.091   1.026   0.862   0.673
   0.536   0.491   0.535   0.625   0.711   0.756   0.745   0.695   0.645   0.646
   0.732   0.904   1.115   1.290   1.357   1.290   1.115   0.904   0.732   0.646
   0.645   0.695   0.745   0.756   0.711   0.625   0.535   0.491   0.536   0.673
   0.862   1.026
   1.992   1.895   1.645   1.338   1.075   0.911   0.844   0.839   0.853   0.856
   0.832   0.780   0.722   0.692   0.721   0.819   0.956   1.077   1.125   1.077
   0.956   0.819   0.721   0.692   0.722   0.780   0.832   0.856   0.853   0.839
   0.844   0.911   1.075   1.338   1.645   1.895   1.992   1.895   1.645   1.338
   1.075   0.911   0.844   0.839   0.853   0.856   0.832   0.780   0.722   0.692
   0.721   0.819   0.956   1.077   1.125   1.077   0.956   0.819   0.721   0.692
   0.722   0.780   0.832   0.856   0.853   0.839   0.844   0.911   1.075   1.338
   1.645   1.895
   2.681   2.581   2.319   1.990   1.687   1.454   1.288   1.164   1.063   0.977
   0.903   0.838   0.783   0.748   0.746   0.777   0.828   0.873   0.892   0.873
   0.828   0.777   0.746   0.748   0.783   0.838   0.903   0.977   1.063   1.164
   1.288   1.454   1.687   1.990   2.319   2.581   2.681   2.581   2.319   1.990
   1.687   1.454   1.288   1.164   1.063   0.977   0.903   0.838   0.783   0.748
   0.746   0.777   0.828   0.873   0.892   0.873   0.828   0.777   0.746   0.748
   0.783   0.838   0.903   0.977   1.063   1.164   1.288   1.454   1.687   1.990
   2.319   2.581
   2.595   2.532   2.367   2.157   1.950   1.759   1.579   1.400   1.225   1.066
   0.932   0.837   0.790   0.788   0.809   0.820   0.803   0.772   0.757   0.772
   0.803   0.820   0.809   0.788   0.790   0.837   0.932   1.066   1.225   1.400
   1.579   1.759   1.950   2.157   2.367   2.532   2.595   2.532   2.367   2.157
   1.950   1.759   1.579   1.400   1.225   1.066   0.932   0.837   0.790   0.788
   0.809   0.820   0.803   0.772   0.757   0.772   0.803   0.820   0.809   0.788
   0.790   0.837   0.932   1.066   1.225   1.400   1.579   1.759   1.950   2.157
   2.367   2.532
   1.727   1.731   1.739   1.736   1.704   1.633   1.531   1.413   1.282   1.129
   0.960   0.818   0.764   0.817   0.920   0.975   0.931   0.835   0.786   0.835
   0.931   0.975   0.920   0.817   0.764   0.818   0.960   1.129   1.282   1.413
   1.531   1.633   1.704   1.736   1.739   1.731   1.727   1.731   1.739   1.736
   1.704   1.633   1.531   1.413   1.282   1.129   0.960   0.818   0.764   0.817
   0.920   0.975   0.931   0.835   0.786   0.835   0.931   0.975   0.920   0.817
   0.764   0.818   0.960   1.129   1.282   1.413   1.531   1.633   1.704   1.736
   1.739   1.731
   0.655   0.729   0.904   1.078   1.172   1.185   1.183   1.219   1.261   1.219
   1.049   0.831   0.726   0.823   1.037   1.182   1.145   0.998   0.918   0.998
   1.145   1.182   1.037   0.823   0.726   0.831   1.049   1.219   1.261   1.219
   1.183   1.185   1.172   1.078   0.904   0.729   0.655   0.729   0.904   1.078
   1.172   1.185   1.183   1.219   1.261   1.219   1.049   0.831   0.726   0.823
   1.037   1.182   1.145   0.998   0.918   0.998   1.145   1.182   1.037   0.823
   0.726   0.831   1.049   1.219   1.261   1.219   1.183   1.185   1.172   1.078
   0.904   0.729
   0.036   0.154   0.420   0.649   0.723   0.695   0.734   0.943   1.228   1.364
   1.212   0.888   0.678   0.775   1.089   1.332   1.314   1.121   1.012   1.121
   1.314   1.332   1.089   0.775   0.678   0.888   1.212   1.364   1.228   0.943
   0.734   0.695   0.723   0.649   0.420   0.154   0.036   0.154   0.420   0.649
   0.723   0.695   0.734   0.943   1.228   1.364   1.212   0.888   0.678   0.775
   1.089   1.332   1.314   1.121   1.012   1.121   1.314   1.332   1.089   0.775
   0.678   0.888   1.212   1.364   1.228   0.943   0.734   0.695   0.723   0.649
   0.420   0.154
   0.032   0.164   0.439   0.608   0.542   0.370   0.374   0.712   1.220   1.529
   1.397   0.958   0.619   0.680   1.054   1.371   1.365   1.133   0.997   1.133
   1.365   1.371   1.054   0.680   0.619   0.958   1.397   1.529   1.220   0.712
   0.374   0.370   0.542   0.608   0.439   0.164   0.032   0.164   0.439   0.608
   0.542   0.370   0.374   0.712   1.220   1.529   1.397   0.958   0.619   0.680
   1.054   1.371   1.365   1.133   0.997   1.133   1.365   1.371   1.054   0.680
   0.619   0.958   1.397   1.529   1.220   0.712   0.374   0.370   0.542   0.608
   0.439   0.164
   0.256   0.387   0.639   0.732   0.536   0.235   0.189   0.589   1.228   1.642
   1.519   1.004   0.575   0.600   0.997   1.350   1.348   1.091   0.940   1.091
   1.348   1.350   0.997   0.600   0.575   1.004   1.519   1.642   1.228   0.589
   0.189   0.235   0.536   0.732   0.639   0.387   0.256   0.387   0.639   0.732
   0.536   0.235   0.189   0.589   1.228   1.642   1.519   1.004   0.575   0.600
   0.997   1.350   1.348   1.091   0.940   1.091   1.348   1.350   0.997   0.600
   0.575   1.004   1.519   1.642   1.228   0.589   0.189   0.235   0.536   0.732
   0.639   0.387
 200       5.00   72    0 5.00   18    0
   0.606   0.607   0.607   0.608   0.610   0.611   0.613   0.616   0.618   0.620
   0.623   0.625   0.627   0.629   0.631   0.632   0.633   0.634   0.634   0.634
   0.633   0.632   0.631   0.629   0.627   0.625   0.623   0.620   0.618   0.616
   0.613   0.611   0.610   0.608   0.607   0.607   0.606   0.607   0.607   0.608
   0.610   0.611   0.613   0.616   0.618   0.620   0.623   0.625   0.627   0.629
   0.631   0.632   0.633   0.634   0.634   0.634   0.633   0.632   0.631   0.629
   0.627   0.625   0.623   0.620   0.618   0.616   0.613   0.611   0.610   0.608
   0.607   0.607
   0.657   0.658   0.661   0.667   0.675   0.685   0.697   0.709   0.723   0.737
   0.751   0.765   0.779   0.791   0.801   0.810   0.816   0.820   0.821   0.820
   0.816   0.810   0.801   0.791   0.779   0.765   0.751   0.737   0.723   0.709
   0.697   0.685   0.675   0.667   0.661   0.658   0.657   0.658   0.661   0.667
   0.675   0.685   0.697   0.709   0.723   0.737   0.751   0.765   0.779   0.791
   0.801   0.810   0.816   0.820   0.821   0.820   0.816   0.810   0.801   0.791
   0.779   0.765   0.751   0.737   0.723   0.709   0.697   0.685   0.675   0.667
   0.661   0.658
   0.857   0.858   0.861   0.865   0.871   0.878   0.885   0.893   0.900   0.908
   0.916   0.925   0.934   0.944   0.953   0.961   0.967   0.971   0.972   0.971
   0.967   0.961   0.953   0.944   0.934   0.925   0.916   0.908   0.900   0.893
   0.885   0.878   0.871   0.865   0.861   0.858   0.857   0.858   0.861   0.865
   0.871   0.878   0.885   0.893   0.900   0.908   0.916   0.925   0.934   0.944
   0.953   0.961   0.967   0.971   0.972   0.971   0.967   0.961   0.953   0.944
   0.934   0.925   0.916   0.908   0.900   0.893   0.885   0.878   0.871   0.865
   0.861   0.858
   1.230   1.230   1.229   1.225   1.217   1.201   1.178   1.148   1.112   1.072
   1.032   0.996   0.966   0.943   0.927   0.917   0.912   0.911   0.910   0.911
   0.912   0.917   0.927   0.943   0.966   0.996   1.032   1.072   1.112   1.148
   1.178   1.201   1.217   1.225   1.229   1.230   1.230   1.230   1.229   1.225
   1.217   1.201   1.178   1.148   1.112   1.072   1.032   0.996   0.966   0.943
   0.927   0.917   0.912   0.911   0.910   0.911   0.912   0.917   0.927   0.943
   0.966   0.996   1.032   1.072   1.112   1.148   1.178   1.201   1.217   1.225
   1.229   1.230
   1.599   1.601   1.605   1.605   1.594   1.562   1.507   1.427   1.327   1.213
   1.098   0.989   0.897   0.824   0.773   0.741   0.722   0.713   0.711   0.713
   0.722   0.741   0.773   0.824   0.897   0.989   1.098   1.213   1.327   1.427
   1.507   1.562   1.594   1.605   1.605   1.601   1.599   1.601   1.605   1.605
   1.594   1.562   1.507   1.427   1.327   1.213   1.098   0.989   0.897   0.824
   0.773   0.741   0.722   0.713   0.711   0.713   0.722   0.741   0.773   0.824
   0.897   0.989   1.098   1.213   1.327   1.427   1.507   1.562   1.594   1.605
   1.605   1.601
   1.691   1.704   1.736   1.774   1.799   1.792   1.741   1.642   1.501   1.333
   1.158   0.994   0.855   0.751   0.681   0.640   0.619   0.611   0.609   0.611
   0.619   0.640   0.681   0.751   0.855   0.994   1.158   1.333   1.501   1.642
   1.741   1.792   1.799   1.774   1.736   1.704   1.691   1.704   1.736   1.774
   1.799   1.792   1.741   1.642   1.501   1.333   1.158   0.994   0.855   0.751
   0.681   0.640   0.619   0.611   0.609   0.611   0.619   0.640   0.681   0.751
   0.855   0.994   1.158   1.333   1.501   1.642   1.741   1.792   1.799   1.774
   1.736   1.704
   1.391   1.420   1.498   1.602   1.698   1.756   1.755   1.687   1.560   1.393
   1.214   1.047   0.912   0.816   0.758   0.729   0.717   0.713   0.712   0.713
   0.717   0.729   0.758   0.816   0.912   1.047   1.214   1.393   1.560   1.687
   1.755   1.756   1.698   1.602   1.498   1.420   1.391   1.420   1.498   1.602
   1.698   1.756   1.755   1.687   1.560   1.393   1.214   1.047   0.912   0.816
   0.758   0.729   0.717   0.713   0.712   0.713   0.717   0.729   0.758   0.816
   0.912   1.047   1.214   1.393   1.560   1.687   1.755   1.756   1.698   1.602
   1.498   1.420
   0.870   0.912   1.024   1.177   1.331   1.451   1.511   1.504   1.437   1.328
   1.204   1.091   1.006   0.952   0.923   0.907   0.896   0.887   0.883   0.887
   0.896   0.907   0.923   0.952   1.006   1.091   1.204   1.328   1.437   1.504
   1.511   1.451   1.331   1.177   1.024   0.912   0.870   0.912   1.024   1.177
   1.331   1.451   1.511   1.504   1.437   1.328   1.204   1.091   1.006   0.952
   0.923   0.907   0.896   0.887   0.883   0.887   0.896   0.907   0.923   0.952
   1.006   1.091   1.204   1.328   1.437   1.504   1.511   1.451   1.331   1.177
   1.024   0.912
   0.444   0.485   0.594   0.740   0.887   1.009   1.095   1.140   1.148   1.126
   1.091   1.058   1.038   1.031   1.022   1.000   0.964   0.929   0.915   0.929
   0.964   1.000   1.022   1.031   1.038   1.058   1.091   1.126   1.148   1.140
   1.095   1.009   0.887   0.740   0.594   0.485   0.444   0.485   0.594   0.740
   0.887   1.009   1.095   1.140   1.148   1.126   1.091   1.058   1.038   1.031
   1.022   1.000   0.964   0.929   0.915   0.929   0.964   1.000   1.022   1.031
   1.038   1.058   1.091   1.126   1.148   1.140   1.095   1.009   0.887   0.740
   0.594   0.485
   0.305   0.333   0.402   0.484   0.555   0.616   0.680   0.753   0.830   0.895
   0.942   0.976   1.004   1.020   1.011   0.962   0.884   0.811   0.781   0.811
   0.884   0.962   1.011   1.020   1.004   0.976   0.942   0.895   0.830   0.753
   0.680   0.616   0.555   0.484   0.402   0.333   0.305   0.333   0.402   0.484
   0.555   0.616   0.680   0.753   0.830   0.895   0.942   0.976   1.004   1.020
   1.011   0.962   0.884   0.811   0.781   0.811   0.884   0.962   1.011   1.020
   1.004   0.976   0.942   0.895   0.830   0.753   0.680   0.616   0.555   0.484
   0.402   0.333
   0.388   0.403   0.431   0.441   0.422   0.405   0.434   0.526   0.663   0.797
   0.898   0.959   0.994   1.004   0.979   0.907   0.803   0.708   0.669   0.708
   0.803   0.907   0.979   1.004   0.994   0.959   0.898   0.797   0.663   0.526
   0.434   0.405   0.422   0.441   0.431   0.403   0.388   0.403   0.431   0.441
   0.422   0.405   0.434   0.526   0.663   0.797   0.898   0.959   0.994   1.004
   0.979   0.907   0.803   0.708   0.669   0.708   0.803   0.907   0.979   1.004
   0.994   0.959   0.898   0.797   0.663   0.526   0.434   0.405   0.422   0.441
   0.431   0.403
   0.501   0.513   0.529   0.510   0.454   0.407   0.434   0.559   0.743   0.917
   1.031   1.079   1.082   1.058   1.012   0.942   0.860   0.791   0.764   0.791
   0.860   0.942   1.012   1.058   1.082   1.079   1.031   0.917   0.743   0.559
   0.434   0.407   0.454   0.510   0.529   0.513   0.501   0.513   0.529   0.510
   0.454   0.407   0.434   0.559   0.743   0.917   1.031   1.079   1.082   1.058
   1.012   0.942   0.860   0.791   0.764   0.791   0.860   0.942   1.012   1.058
   1.082   1.079   1.031   0.917   0.743   0.559   0.434   0.407   0.454   0.510
   0.529   0.513
   0.547   0.563   0.588   0.589   0.566   0.565   0.641   0.803   1.003   1.173
   1.268   1.281   1.231   1.149   1.070   1.024   1.022   1.043   1.055   1.043
   1.022   1.024   1.070   1.149   1.231   1.281   1.268   1.173   1.003   0.803
   0.641   0.565   0.566   0.589   0.588   0.563   0.547   0.563   0.588   0.589
   0.566   0.565   0.641   0.803   1.003   1.173   1.268   1.281   1.231   1.149
   1.070   1.024   1.022   1.043   1.055   1.043   1.022   1.024   1.070   1.149
   1.231   1.281   1.268   1.173   1.003   0.803   0.641   0.565   0.566   0.589
   0.588   0.563
   0.629   0.631   0.636   0.648   0.688   0.782   0.933   1.107   1.263   1.376
   1.437   1.430   1.339   1.180   1.037   1.009   1.123   1.291   1.369   1.291
   1.123   1.009   1.037   1.180   1.339   1.430   1.437   1.376   1.263   1.107
   0.933   0.782   0.688   0.648   0.636   0.631   0.629   0.631   0.636   0.648
   0.688   0.782   0.933   1.107   1.263   1.376   1.437   1.430   1.339   1.180
   1.037   1.009   1.123   1.291   1.369   1.291   1.123   1.009   1.037   1.180
   1.339   1.430   1.437   1.376   1.263   1.107   0.933   0.782   0.688   0.648
   0.636   0.631
   0.921   0.873   0.772   0.717   0.785   0.972   1.185   1.321   1.361   1.372
   1.411   1.439   1.349   1.111   0.862   0.817   1.051   1.393   1.554   1.393
   1.051   0.817   0.862   1.111   1.349   1.439   1.411   1.372   1.361   1.321
   1.185   0.972   0.785   0.717   0.772   0.873   0.921   0.873   0.772   0.717
   0.785   0.972   1.185   1.321   1.361   1.372   1.411   1.439   1.349   1.111
   0.862   0.817   1.051   1.393   1.554   1.393   1.051   0.817   0.862   1.111
   1.349   1.439   1.411   1.372   1.361   1.321   1.185   0.972   0.785   0.717
   0.772   0.873
   1.474   1.338   1.039   0.817   0.846   1.088   1.330   1.384   1.262   1.154
   1.204   1.330   1.296   0.991   0.611   0.511   0.842   1.354   1.598   1.354
   0.842   0.511   0.611   0.991   1.296   1.330   1.204   1.154   1.262   1.384
   1.330   1.088   0.846   0.817   1.039   1.338   1.474   1.338   1.039   0.817
   0.846   1.088   1.330   1.384   1.262   1.154   1.204   1.330   1.296   0.991
   0.611   0.511   0.842   1.354   1.598   1.354   0.842   0.511   0.611   0.991
   1.296   1.330   1.204   1.154   1.262   1.384   1.330   1.088   0.846   0.817
   1.039   1.338
   2.117   1.883   1.357   0.929   0.875   1.132   1.377   1.338   1.061   0.854
   0.939   1.192   1.245   0.898   0.397   0.228   0.622   1.268   1.581   1.268
   0.622   0.228   0.397   0.898   1.245   1.192   0.939   0.854   1.061   1.338
   1.377   1.132   0.875   0.929   1.357   1.883   2.117   1.883   1.357   0.929
   0.875   1.132   1.377   1.338   1.061   0.854   0.939   1.192   1.245   0.898
   0.397   0.228   0.622   1.268   1.581   1.268   0.622   0.228   0.397   0.898
   1.245   1.192   0.939   0.854   1.061   1.338   1.377   1.132   0.875   0.929
   1.357   1.883
   2.552   2.252   1.575   1.004   0.883   1.139   1.378   1.279   0.909   0.645
   0.763   1.105   1.222   0.858   0.284   0.069   0.493   1.213   1.564   1.213
   0.493   0.069   0.284   0.858   1.222   1.105   0.763   0.645   0.909   1.279
   1.378   1.139   0.883   1.004   1.575   2.252   2.552   2.252   1.575   1.004
   0.883   1.139   1.378   1.279   0.909   0.645   0.763   1.105   1.222   0.858
   0.284   0.069   0.493   1.213   1.564   1.213   0.493   0.069   0.284   0.858
   1.222   1.105   0.763   0.645   0.909   1.279   1.378   1.139   0.883   1.004
   1.575   2.252
 111       5.00   72    0 5.00   18    0
   0.104   0.104   0.105   0.107   0.110   0.112   0.116   0.120   0.124   0.128
   0.132   0.136   0.140   0.144   0.147   0.149   0.151   0.152   0.153   0.152
   0.151   0.149   0.147   0.144   0.140   0.136   0.132   0.128   0.124   0.120
   0.116   0.112   0.110   0.107   0.105   0.104   0.104   0.104   0.105   0.107
   0.110   0.112   0.116   0.120   0.124   0.128   0.132   0.136   0.140   0.144
   0.147   0.149   0.151   0.152   0.153   0.152   0.151   0.149   0.147   0.144
   0.140   0.136   0.132   0.128   0.124   0.120   0.116   0.112   0.110   0.107
   0.105   0.104
   0.096   0.098   0.103   0.112   0.124   0.140   0.158   0.180   0.204   0.229
   0.256   0.283   0.310   0.335   0.357   0.375   0.389   0.397   0.400   0.397
   0.389   0.375   0.357   0.335   0.310   0.283   0.256   0.229   0.204   0.180
   0.158   0.140   0.124   0.112   0.103   0.098   0.096   0.098   0.103   0.112
   0.124   0.140   0.158   0.180   0.204   0.229   0.256   0.283   0.310   0.335
   0.357   0.375   0.389   0.397   0.400   0.397   0.389   0.375   0.357   0.335
   0.310   0.283   0.256   0.229   0.204   0.180   0.158   0.140   0.124   0.112
   0.103   0.098
   0.370   0.369   0.366   0.362   0.359   0.356   0.358   0.364   0.376   0.395
   0.422   0.454   0.491   0.531   0.569   0.604   0.631   0.649   0.655   0.649
   0.631   0.604   0.569   0.531   0.491   0.454   0.422   0.395   0.376   0.364
   0.358   0.356   0.359   0.362   0.366   0.369   0.370   0.369   0.366   0.362
   0.359   0.356   0.358   0.364   0.376   0.395   0.422   0.454   0.491   0.531
   0.569   0.604   0.631   0.649   0.655   0.649   0.631   0.604   0.569   0.531
   0.491   0.454   0.422   0.395   0.376   0.364   0.358   0.356   0.359   0.362
   0.366   0.369
   1.113   1.102   1.071   1.020   0.954   0.878   0.797   0.717   0.646   0.589
   0.552   0.535   0.539   0.561   0.595   0.633   0.667   0.691   0.699   0.691
   0.667   0.633   0.595   0.561   0.539   0.535   0.552   0.589   0.646   0.717
   0.797   0.878   0.954   1.020   1.071   1.102   1.113   1.102   1.071   1.020
   0.954   0.878   0.797   0.717   0.646   0.589   0.552   0.535   0.539   0.561
   0.595   0.633   0.667   0.691   0.699   0.691   0.667   0.633   0.595   0.561
   0.539   0.535   0.552   0.589   0.646   0.717   0.797   0.878   0.954   1.020
   1.071   1.102
   2.077   2.055   1.991   1.887   1.747   1.576   1.385   1.183   0.984   0.802
   0.649   0.537   0.468   0.443   0.452   0.482   0.519   0.548   0.559   0.548
   0.519   0.482   0.452   0.443   0.468   0.537   0.649   0.802   0.984   1.183
   1.385   1.576   1.747   1.887   1.991   2.055   2.077   2.055   1.991   1.887
   1.747   1.576   1.385   1.183   0.984   0.802   0.649   0.537   0.468   0.443
   0.452   0.482   0.519   0.548   0.559   0.548   0.519   0.482   0.452   0.443
   0.468   0.537   0.649   0.802   0.984   1.183   1.385   1.576   1.747   1.887
   1.991   2.055
   2.692   2.668   2.599   2.482   2.321   2.116   1.872   1.600   1.313   1.031
   0.776   0.568   0.423   0.344   0.325   0.347   0.387   0.423   0.437   0.423
   0.387   0.347   0.325   0.344   0.423   0.568   0.776   1.031   1.313   1.600
   1.872   2.116   2.321   2.482   2.599   2.668   2.692   2.668   2.599   2.482
   2.321   2.116   1.872   1.600   1.313   1.031   0.776   0.568   0.423   0.344
   0.325   0.347   0.387   0.423   0.437   0.423   0.387   0.347   0.325   0.344
   0.423   0.568   0.776   1.031   1.313   1.600   1.872   2.116   2.321   2.482
   2.599   2.668
   2.552   2.539   2.499   2.431   2.332   2.198   2.023   1.804   1.543   1.257
   0.970   0.714   0.519   0.401   0.357   0.370   0.410   0.449   0.464   0.449
   0.410   0.370   0.357   0.401   0.519   0.714   0.970   1.257   1.543   1.804
   2.023   2.198   2.332   2.431   2.499   2.539   2.552   2.539   2.499   2.431
   2.332   2.198   2.023   1.804   1.543   1.257   0.970   0.714   0.519   0.401
   0.357   0.370   0.410   0.449   0.464   0.449   0.410   0.370   0.357   0.401
   0.519   0.714   0.970   1.257   1.543   1.804   2.023   2.198   2.332   2.431
   2.499   2.539
   1.782   1.782   1.781   1.785   1.793   1.802   1.793   1.742   1.628   1.444
   1.209   0.962   0.749   0.604   0.535   0.525   0.548   0.574   0.585   0.574
   0.548   0.525   0.535   0.604   0.749   0.962   1.209   1.444   1.628   1.742
   1.793   1.802   1.793   1.785   1.781   1.782   1.782   1.782   1.781   1.785
   1.793   1.802   1.793   1.742   1.628   1.444   1.209   0.962   0.749   0.604
   0.535   0.525   0.548   0.574   0.585   0.574   0.548   0.525   0.535   0.604
   0.749   0.962   1.209   1.444   1.628   1.742   1.793   1.802   1.793   1.785
   1.781   1.782
   0.921   0.923   0.936   0.973   1.053   1.185   1.353   1.511   1.599   1.574
   1.436   1.229   1.018   0.855   0.757   0.709   0.688   0.678   0.675   0.678
   0.688   0.709   0.757   0.855   1.018   1.229   1.436   1.574   1.599   1.511
   1.353   1.185   1.053   0.973   0.936   0.923   0.921   0.923   0.936   0.973
   1.053   1.185   1.353   1.511   1.599   1.574   1.436   1.229   1.018   0.855
   0.757   0.709   0.688   0.678   0.675   0.678   0.688   0.709   0.757   0.855
   1.018   1.229   1.436   1.574   1.599   1.511   1.353   1.185   1.053   0.973
   0.936   0.923
   0.444   0.439   0.430   0.440   0.508   0.675   0.946   1.263   1.529   1.651
   1.603   1.437   1.240   1.080   0.970   0.888   0.811   0.747   0.721   0.747
   0.811   0.888   0.970   1.080   1.240   1.437   1.603   1.651   1.529   1.263
   0.946   0.675   0.508   0.440   0.430   0.439   0.444   0.439   0.430   0.440
   0.508   0.675   0.946   1.263   1.529   1.651   1.603   1.437   1.240   1.080
   0.970   0.888   0.811   0.747   0.721   0.747   0.811   0.888   0.970   1.080
   1.240   1.437   1.603   1.651   1.529   1.263   0.946   0.675   0.508   0.440
   0.430   0.439
   0.400   0.391   0.363   0.324   0.321   0.433   0.705   1.090   1.455   1.665
   1.669   1.530   1.367   1.254   1.184   1.103   0.985   0.866   0.815   0.866
   0.985   1.103   1.184   1.254   1.367   1.530   1.669   1.665   1.455   1.090
   0.705   0.433   0.321   0.324   0.363   0.391   0.400   0.391   0.363   0.324
   0.321   0.433   0.705   1.090   1.455   1.665   1.669   1.530   1.367   1.254
   1.184   1.103   0.985   0.866   0.815   0.866   0.985   1.103   1.184   1.254
   1.367   1.530   1.669   1.665   1.455   1.090   0.705   0.433   0.321   0.324
   0.363   0.391
   0.483   0.493   0.494   0.447   0.379   0.397   0.599   0.966   1.349   1.576
   1.584   1.462   1.356   1.343   1.374   1.348   1.223   1.066   0.994   1.066
   1.223   1.348   1.374   1.343   1.356   1.462   1.584   1.576   1.349   0.966
   0.599   0.397   0.379   0.447   0.494   0.493   0.483   0.493   0.494   0.447
   0.379   0.397   0.599   0.966   1.349   1.576   1.584   1.462   1.356   1.343
   1.374   1.348   1.223   1.066   0.994   1.066   1.223   1.348   1.374   1.343
   1.356   1.462   1.584   1.576   1.349   0.966   0.599   0.397   0.379   0.447
   0.494   0.493
   0.429   0.479   0.565   0.573   0.485   0.423   0.533   0.833   1.170   1.355
   1.331   1.215   1.181   1.292   1.453   1.511   1.408   1.237   1.155   1.237
   1.408   1.511   1.453   1.292   1.181   1.215   1.331   1.355   1.170   0.833
   0.533   0.423   0.485   0.573   0.565   0.479   0.429   0.479   0.565   0.573
   0.485   0.423   0.533   0.833   1.170   1.355   1.331   1.215   1.181   1.292
   1.453   1.511   1.408   1.237   1.155   1.237   1.408   1.511   1.453   1.292
   1.181   1.215   1.331   1.355   1.170   0.833   0.533   0.423   0.485   0.573
   0.565   0.479
   0.302   0.391   0.564   0.642   0.560   0.445   0.477   0.695   0.952   1.061
   0.986   0.871   0.897   1.104   1.358   1.479   1.407   1.245   1.165   1.245
   1.407   1.479   1.358   1.104   0.897   0.871   0.986   1.061   0.952   0.695
   0.477   0.445   0.560   0.642   0.564   0.391   0.302   0.391   0.564   0.642
   0.560   0.445   0.477   0.695   0.952   1.061   0.986   0.871   0.897   1.104
   1.358   1.479   1.407   1.245   1.165   1.245   1.407   1.479   1.358   1.104
   0.897   0.871   0.986   1.061   0.952   0.695   0.477   0.445   0.560   0.642
   0.564   0.391
   0.410   0.509   0.698   0.777   0.673   0.517   0.494   0.643   0.815   0.842
   0.718   0.602   0.657   0.890   1.151   1.277   1.223   1.090   1.024   1.090
   1.223   1.277   1.151   0.890   0.657   0.602   0.718   0.842   0.815   0.643
   0.494   0.517   0.673   0.777   0.698   0.509   0.410   0.509   0.698   0.777
   0.673   0.517   0.494   0.643   0.815   0.842   0.718   0.602   0.657   0.890
   1.151   1.277   1.223   1.090   1.024   1.090   1.223   1.277   1.151   0.890
   0.657   0.602   0.718   0.842   0.815   0.643   0.494   0.517   0.673   0.777
   0.698   0.509
   0.954   1.018   1.119   1.093   0.905   0.701   0.649   0.755   0.860   0.822
   0.667   0.556   0.609   0.797   0.982   1.051   0.999   0.907   0.864   0.907
   0.999   1.051   0.982   0.797   0.609   0.556   0.667   0.822   0.860   0.755
   0.649   0.701   0.905   1.093   1.119   1.018   0.954   1.018   1.119   1.093
   0.905   0.701   0.649   0.755   0.860   0.822   0.667   0.556   0.609   0.797
   0.982   1.051   0.999   0.907   0.864   0.907   0.999   1.051   0.982   0.797
   0.609   0.556   0.667   0.822   0.860   0.755   0.649   0.701   0.905   1.093
   1.119   1.018
   1.756   1.761   1.715   1.523   1.215   0.960   0.897   0.986   1.052   0.975
   0.812   0.711   0.749   0.861   0.934   0.922   0.862   0.811   0.794   0.811
   0.862   0.922   0.934   0.861   0.749   0.711   0.812   0.975   1.052   0.986
   0.897   0.960   1.215   1.523   1.715   1.761   1.756   1.761   1.715   1.523
   1.215   0.960   0.897   0.986   1.052   0.975   0.812   0.711   0.749   0.861
   0.934   0.922   0.862   0.811   0.794   0.811   0.862   0.922   0.934   0.861
   0.749   0.711   0.812   0.975   1.052   0.986   0.897   0.960   1.215   1.523
   1.715   1.761
   2.353   2.314   2.156   1.839   1.443   1.154   1.089   1.175   1.225   1.133
   0.972   0.881   0.906   0.963   0.957   0.887   0.821   0.797   0.796   0.797
   0.821   0.887   0.957   0.963   0.906   0.881   0.972   1.133   1.225   1.175
   1.089   1.154   1.443   1.839   2.156   2.314   2.353   2.314   2.156   1.839
   1.443   1.154   1.089   1.175   1.225   1.133   0.972   0.881   0.906   0.963
   0.957   0.887   0.821   0.797   0.796   0.797   0.821   0.887   0.957   0.963
   0.906   0.881   0.972   1.133   1.225   1.175   1.089   1.154   1.443   1.839
   2.156   2.314
TEXTURE_INDEX=   1.8153
ERR_CF 220         1080     508   43.11   17.74
ERR_CF 200         1078     526   35.84   24.19
ERR_CF 111         1080     354   45.67   16.10
