TEXEVAL                                                                         
Analysis started on 16-Sep-19 15:32:29                                          
 LMAX=14LFMAX=03 CUBIC ORTHO   
 220      5.00 5.00
 200      5.00 5.00
 111      5.00 5.00
 220       5.00   72    0 5.00   15    0
   1.844   1.844   1.844   1.844   1.844   1.844   1.844   1.844   1.844   1.844
   1.844   1.844   1.844   1.844   1.844   1.844   1.844   1.844   1.844   1.844
   1.844   1.844   1.844   1.844   1.844   1.844   1.844   1.844   1.844   1.844
   1.844   1.844   1.844   1.844   1.844   1.844   1.844   1.844   1.844   1.844
   1.844   1.844   1.844   1.844   1.844   1.844   1.844   1.844   1.844   1.844
   1.844   1.844   1.844   1.844   1.844   1.844   1.844   1.844   1.844   1.844
   1.844   1.844   1.844   1.844   1.844   1.844   1.844   1.844   1.844   1.844
   1.844   1.844
   1.008   1.060   1.029   0.990   0.987   1.038   1.203   1.233   1.472   1.454
   1.654   1.968   1.890   2.285   1.960   2.346   2.281   2.618   2.586   2.618
   2.281   2.346   1.960   2.285   1.890   1.968   1.654   1.454   1.472   1.233
   1.203   1.038   0.987   0.990   1.029   1.060   1.008   1.060   1.029   0.990
   0.987   1.038   1.203   1.233   1.472   1.454   1.654   1.968   1.890   2.285
   1.960   2.346   2.281   2.618   2.586   2.618   2.281   2.346   1.960   2.285
   1.890   1.968   1.654   1.454   1.472   1.233   1.203   1.038   0.987   0.990
   1.029   1.060
   0.659   0.473   0.312   0.500   0.394   0.660   0.432   0.659   0.796   0.682
   0.937   1.280   1.501   1.738   1.710   2.362   2.515   2.726   2.620   2.726
   2.515   2.362   1.710   1.738   1.501   1.280   0.937   0.682   0.796   0.659
   0.432   0.660   0.394   0.500   0.312   0.473   0.659   0.473   0.312   0.500
   0.394   0.660   0.432   0.659   0.796   0.682   0.937   1.280   1.501   1.738
   1.710   2.362   2.515   2.726   2.620   2.726   2.515   2.362   1.710   1.738
   1.501   1.280   0.937   0.682   0.796   0.659   0.432   0.660   0.394   0.500
   0.312   0.473
   0.330   0.199   0.204   0.270   0.166   0.417   0.202   0.418   0.374   0.269
   0.620   0.788   0.991   1.189   1.286   2.313   2.319   2.620   2.393   2.620
   2.319   2.313   1.286   1.189   0.991   0.788   0.620   0.269   0.374   0.418
   0.202   0.417   0.166   0.270   0.204   0.199   0.330   0.199   0.204   0.270
   0.166   0.417   0.202   0.418   0.374   0.269   0.620   0.788   0.991   1.189
   1.286   2.313   2.319   2.620   2.393   2.620   2.319   2.313   1.286   1.189
   0.991   0.788   0.620   0.269   0.374   0.418   0.202   0.417   0.166   0.270
   0.204   0.199
   0.417   0.230   0.332   0.334   0.215   0.188   0.277   0.412   0.186   0.241
   0.652   0.598   0.791   1.117   0.813   1.833   2.123   2.516   2.160   2.516
   2.123   1.833   0.813   1.117   0.791   0.598   0.652   0.241   0.186   0.412
   0.277   0.188   0.215   0.334   0.332   0.230   0.417   0.230   0.332   0.334
   0.215   0.188   0.277   0.412   0.186   0.241   0.652   0.598   0.791   1.117
   0.813   1.833   2.123   2.516   2.160   2.516   2.123   1.833   0.813   1.117
   0.791   0.598   0.652   0.241   0.186   0.412   0.277   0.188   0.215   0.334
   0.332   0.230
   0.480   0.324   0.306   0.357   0.374   0.500   0.344   0.393   0.638   0.356
   0.548   0.472   0.642   1.018   0.996   1.374   2.193   2.164   2.179   2.164
   2.193   1.374   0.996   1.018   0.642   0.472   0.548   0.356   0.638   0.393
   0.344   0.500   0.374   0.357   0.306   0.324   0.480   0.324   0.306   0.357
   0.374   0.500   0.344   0.393   0.638   0.356   0.548   0.472   0.642   1.018
   0.996   1.374   2.193   2.164   2.179   2.164   2.193   1.374   0.996   1.018
   0.642   0.472   0.548   0.356   0.638   0.393   0.344   0.500   0.374   0.357
   0.306   0.324
   0.223   0.550   0.402   0.264   0.582   0.658   0.371   0.487   1.179   0.528
   0.348   0.622   0.365   0.711   0.999   1.282   2.014   1.506   1.767   1.506
   2.014   1.282   0.999   0.711   0.365   0.622   0.348   0.528   1.179   0.487
   0.371   0.658   0.582   0.264   0.402   0.550   0.223   0.550   0.402   0.264
   0.582   0.658   0.371   0.487   1.179   0.528   0.348   0.622   0.365   0.711
   0.999   1.282   2.014   1.506   1.767   1.506   2.014   1.282   0.999   0.711
   0.365   0.622   0.348   0.528   1.179   0.487   0.371   0.658   0.582   0.264
   0.402   0.550
   0.328   0.658   0.312   0.262   0.627   1.349   0.780   0.551   0.923   1.016
   0.405   0.698   0.657   0.792   0.933   1.345   2.023   1.032   1.557   1.032
   2.023   1.345   0.933   0.792   0.657   0.698   0.405   1.016   0.923   0.551
   0.780   1.349   0.627   0.262   0.312   0.658   0.328   0.658   0.312   0.262
   0.627   1.349   0.780   0.551   0.923   1.016   0.405   0.698   0.657   0.792
   0.933   1.345   2.023   1.032   1.557   1.032   2.023   1.345   0.933   0.792
   0.657   0.698   0.405   1.016   0.923   0.551   0.780   1.349   0.627   0.262
   0.312   0.658
   0.449   0.588   0.063   0.423   0.595   1.201   0.676   0.486   0.414   1.179
   0.461   0.732   1.040   1.022   1.332   1.291   1.737   0.978   0.859   0.978
   1.737   1.291   1.332   1.022   1.040   0.732   0.461   1.179   0.414   0.486
   0.676   1.201   0.595   0.423   0.063   0.588   0.449   0.588   0.063   0.423
   0.595   1.201   0.676   0.486   0.414   1.179   0.461   0.732   1.040   1.022
   1.332   1.291   1.737   0.978   0.859   0.978   1.737   1.291   1.332   1.022
   1.040   0.732   0.461   1.179   0.414   0.486   0.676   1.201   0.595   0.423
   0.063   0.588
   1.174   0.603   0.317   0.670   0.790   0.641   0.239   0.755   0.343   0.735
   0.422   0.661   0.813   0.851   1.051   0.939   1.155   0.863   0.055   0.863
   1.155   0.939   1.051   0.851   0.813   0.661   0.422   0.735   0.343   0.755
   0.239   0.641   0.790   0.670   0.317   0.603   1.174   0.603   0.317   0.670
   0.790   0.641   0.239   0.755   0.343   0.735   0.422   0.661   0.813   0.851
   1.051   0.939   1.155   0.863   0.055   0.863   1.155   0.939   1.051   0.851
   0.813   0.661   0.422   0.735   0.343   0.755   0.239   0.641   0.790   0.670
   0.317   0.603
   1.860   0.964   1.300   0.529   0.928   0.977   0.136   0.898   0.301   0.310
   0.482   0.581   0.272   0.627   1.159   1.041   0.836   0.479   0.660   0.479
   0.836   1.041   1.159   0.627   0.272   0.581   0.482   0.310   0.301   0.898
   0.136   0.977   0.928   0.529   1.300   0.964   1.860   0.964   1.300   0.529
   0.928   0.977   0.136   0.898   0.301   0.310   0.482   0.581   0.272   0.627
   1.159   1.041   0.836   0.479   0.660   0.479   0.836   1.041   1.159   0.627
   0.272   0.581   0.482   0.310   0.301   0.898   0.136   0.977   0.928   0.529
   1.300   0.964
   2.148   2.664   2.506   1.215   0.703   1.216   0.205   0.570   0.192   0.277
   0.373   0.964   0.000   0.300   1.349   1.177   0.580   0.549   1.344   0.549
   0.580   1.177   1.349   0.300   0.000   0.964   0.373   0.277   0.192   0.570
   0.205   1.216   0.703   1.215   2.506   2.664   2.148   2.664   2.506   1.215
   0.703   1.216   0.205   0.570   0.192   0.277   0.373   0.964   0.000   0.300
   1.349   1.177   0.580   0.549   1.344   0.549   0.580   1.177   1.349   0.300
   0.000   0.964   0.373   0.277   0.192   0.570   0.205   1.216   0.703   1.215
   2.506   2.664
   2.654   4.273   2.244   2.474   1.145   1.884   0.271   1.297   0.389   0.280
   0.486   1.139   0.000   0.799   0.759   0.575   0.439   0.370   1.182   0.370
   0.439   0.575   0.759   0.799   0.000   1.139   0.486   0.280   0.389   1.297
   0.271   1.884   1.145   2.474   2.244   4.273   2.654   4.273   2.244   2.474
   1.145   1.884   0.271   1.297   0.389   0.280   0.486   1.139   0.000   0.799
   0.759   0.575   0.439   0.370   1.182   0.370   0.439   0.575   0.759   0.799
   0.000   1.139   0.486   0.280   0.389   1.297   0.271   1.884   1.145   2.474
   2.244   4.273
   2.368   2.959   1.905   2.456   1.898   1.555   0.652   1.800   1.169   0.510
   1.388   0.758   0.361   1.608   1.861   0.791   0.828   0.973   1.092   0.973
   0.828   0.791   1.861   1.608   0.361   0.758   1.388   0.510   1.169   1.800
   0.652   1.555   1.898   2.456   1.905   2.959   2.368   2.959   1.905   2.456
   1.898   1.555   0.652   1.800   1.169   0.510   1.388   0.758   0.361   1.608
   1.861   0.791   0.828   0.973   1.092   0.973   0.828   0.791   1.861   1.608
   0.361   0.758   1.388   0.510   1.169   1.800   0.652   1.555   1.898   2.456
   1.905   2.959
   0.894   1.227   1.409   1.016   1.091   0.404   1.372   1.224   1.087   0.988
   1.514   0.975   0.715   1.079   1.931   0.847   1.181   1.701   0.885   1.701
   1.181   0.847   1.931   1.079   0.715   0.975   1.514   0.988   1.087   1.224
   1.372   0.404   1.091   1.016   1.409   1.227   0.894   1.227   1.409   1.016
   1.091   0.404   1.372   1.224   1.087   0.988   1.514   0.975   0.715   1.079
   1.931   0.847   1.181   1.701   0.885   1.701   1.181   0.847   1.931   1.079
   0.715   0.975   1.514   0.988   1.087   1.224   1.372   0.404   1.091   1.016
   1.409   1.227
 200       5.00   72    0 5.00   15    0
   0.670   0.670   0.670   0.670   0.670   0.670   0.670   0.670   0.670   0.670
   0.670   0.670   0.670   0.670   0.670   0.670   0.670   0.670   0.670   0.670
   0.670   0.670   0.670   0.670   0.670   0.670   0.670   0.670   0.670   0.670
   0.670   0.670   0.670   0.670   0.670   0.670   0.670   0.670   0.670   0.670
   0.670   0.670   0.670   0.670   0.670   0.670   0.670   0.670   0.670   0.670
   0.670   0.670   0.670   0.670   0.670   0.670   0.670   0.670   0.670   0.670
   0.670   0.670   0.670   0.670   0.670   0.670   0.670   0.670   0.670   0.670
   0.670   0.670
   0.432   0.614   0.632   0.591   0.622   0.583   0.443   0.634   0.620   0.789
   0.688   0.519   0.668   0.646   0.663   0.708   0.561   0.682   0.775   0.682
   0.561   0.708   0.663   0.646   0.668   0.519   0.688   0.789   0.620   0.634
   0.443   0.583   0.622   0.591   0.632   0.614   0.432   0.614   0.632   0.591
   0.622   0.583   0.443   0.634   0.620   0.789   0.688   0.519   0.668   0.646
   0.663   0.708   0.561   0.682   0.775   0.682   0.561   0.708   0.663   0.646
   0.668   0.519   0.688   0.789   0.620   0.634   0.443   0.583   0.622   0.591
   0.632   0.614
   0.781   0.562   0.626   0.526   0.553   0.695   0.436   0.582   0.655   0.756
   0.718   0.474   0.760   0.674   0.633   0.670   0.589   0.681   0.780   0.681
   0.589   0.670   0.633   0.674   0.760   0.474   0.718   0.756   0.655   0.582
   0.436   0.695   0.553   0.526   0.626   0.562   0.781   0.562   0.626   0.526
   0.553   0.695   0.436   0.582   0.655   0.756   0.718   0.474   0.760   0.674
   0.633   0.670   0.589   0.681   0.780   0.681   0.589   0.670   0.633   0.674
   0.760   0.474   0.718   0.756   0.655   0.582   0.436   0.695   0.553   0.526
   0.626   0.562
   0.870   0.920   0.890   0.558   0.739   1.003   0.550   0.590   0.736   0.730
   0.757   0.402   0.897   0.703   0.679   0.488   0.752   0.545   0.773   0.545
   0.752   0.488   0.679   0.703   0.897   0.402   0.757   0.730   0.736   0.590
   0.550   1.003   0.739   0.558   0.890   0.920   0.870   0.920   0.890   0.558
   0.739   1.003   0.550   0.590   0.736   0.730   0.757   0.402   0.897   0.703
   0.679   0.488   0.752   0.545   0.773   0.545   0.752   0.488   0.679   0.703
   0.897   0.402   0.757   0.730   0.736   0.590   0.550   1.003   0.739   0.558
   0.890   0.920
   1.538   1.279   1.363   1.035   1.244   1.381   1.062   0.943   0.906   0.826
   0.749   0.578   0.755   0.617   0.741   0.608   0.668   0.530   0.831   0.530
   0.668   0.608   0.741   0.617   0.755   0.578   0.749   0.826   0.906   0.943
   1.062   1.381   1.244   1.035   1.363   1.279   1.538   1.279   1.363   1.035
   1.244   1.381   1.062   0.943   0.906   0.826   0.749   0.578   0.755   0.617
   0.741   0.608   0.668   0.530   0.831   0.530   0.668   0.608   0.741   0.617
   0.755   0.578   0.749   0.826   0.906   0.943   1.062   1.381   1.244   1.035
   1.363   1.279
   2.527   1.993   1.990   1.649   1.850   1.466   1.456   1.164   1.271   0.901
   0.612   0.918   0.512   0.408   0.525   0.576   0.430   0.726   1.051   0.726
   0.430   0.576   0.525   0.408   0.512   0.918   0.612   0.901   1.271   1.164
   1.456   1.466   1.850   1.649   1.990   1.993   2.527   1.993   1.990   1.649
   1.850   1.466   1.456   1.164   1.271   0.901   0.612   0.918   0.512   0.408
   0.525   0.576   0.430   0.726   1.051   0.726   0.430   0.576   0.525   0.408
   0.512   0.918   0.612   0.901   1.271   1.164   1.456   1.466   1.850   1.649
   1.990   1.993
   2.130   1.950   1.831   1.830   1.866   1.672   1.777   1.548   1.615   1.368
   0.761   0.859   0.488   0.471   0.376   0.437   0.396   0.469   0.943   0.469
   0.396   0.437   0.376   0.471   0.488   0.859   0.761   1.368   1.615   1.548
   1.777   1.672   1.866   1.830   1.831   1.950   2.130   1.950   1.831   1.830
   1.866   1.672   1.777   1.548   1.615   1.368   0.761   0.859   0.488   0.471
   0.376   0.437   0.396   0.469   0.943   0.469   0.396   0.437   0.376   0.471
   0.488   0.859   0.761   1.368   1.615   1.548   1.777   1.672   1.866   1.830
   1.831   1.950
   1.253   0.931   0.837   1.190   1.082   1.312   1.840   1.807   1.643   1.878
   1.622   0.730   0.965   0.667   0.768   0.343   0.449   0.471   0.824   0.471
   0.449   0.343   0.768   0.667   0.965   0.730   1.622   1.878   1.643   1.807
   1.840   1.312   1.082   1.190   0.837   0.931   1.253   0.931   0.837   1.190
   1.082   1.312   1.840   1.807   1.643   1.878   1.622   0.730   0.965   0.667
   0.768   0.343   0.449   0.471   0.824   0.471   0.449   0.343   0.768   0.667
   0.965   0.730   1.622   1.878   1.643   1.807   1.840   1.312   1.082   1.190
   0.837   0.931
   0.435   0.504   0.170   0.514   0.362   0.577   0.933   1.136   1.299   1.503
   1.941   0.727   1.366   0.547   0.942   0.520   0.355   0.401   1.158   0.401
   0.355   0.520   0.942   0.547   1.366   0.727   1.941   1.503   1.299   1.136
   0.933   0.577   0.362   0.514   0.170   0.504   0.435   0.504   0.170   0.514
   0.362   0.577   0.933   1.136   1.299   1.503   1.941   0.727   1.366   0.547
   0.942   0.520   0.355   0.401   1.158   0.401   0.355   0.520   0.942   0.547
   1.366   0.727   1.941   1.503   1.299   1.136   0.933   0.577   0.362   0.514
   0.170   0.504
   0.577   0.528   0.212   0.321   0.316   0.696   0.434   0.761   1.019   1.067
   1.689   1.739   1.407   1.053   1.258   0.773   0.565   0.661   1.211   0.661
   0.565   0.773   1.258   1.053   1.407   1.739   1.689   1.067   1.019   0.761
   0.434   0.696   0.316   0.321   0.212   0.528   0.577   0.528   0.212   0.321
   0.316   0.696   0.434   0.761   1.019   1.067   1.689   1.739   1.407   1.053
   1.258   0.773   0.565   0.661   1.211   0.661   0.565   0.773   1.258   1.053
   1.407   1.739   1.689   1.067   1.019   0.761   0.434   0.696   0.316   0.321
   0.212   0.528
   0.669   0.477   0.629   0.829   0.714   0.574   0.754   0.882   0.821   1.206
   1.813   2.085   1.384   1.306   1.002   1.071   0.688   1.290   1.142   1.290
   0.688   1.071   1.002   1.306   1.384   2.085   1.813   1.206   0.821   0.882
   0.754   0.574   0.714   0.829   0.629   0.477   0.669   0.477   0.629   0.829
   0.714   0.574   0.754   0.882   0.821   1.206   1.813   2.085   1.384   1.306
   1.002   1.071   0.688   1.290   1.142   1.290   0.688   1.071   1.002   1.306
   1.384   2.085   1.813   1.206   0.821   0.882   0.754   0.574   0.714   0.829
   0.629   0.477
   0.117   0.471   0.839   1.096   0.811   0.942   0.518   1.194   0.608   0.788
   1.276   1.941   1.768   1.687   0.584   0.833   0.735   1.276   0.736   1.276
   0.735   0.833   0.584   1.687   1.768   1.941   1.276   0.788   0.608   1.194
   0.518   0.942   0.811   1.096   0.839   0.471   0.117   0.471   0.839   1.096
   0.811   0.942   0.518   1.194   0.608   0.788   1.276   1.941   1.768   1.687
   0.584   0.833   0.735   1.276   0.736   1.276   0.735   0.833   0.584   1.687
   1.768   1.941   1.276   0.788   0.608   1.194   0.518   0.942   0.811   1.096
   0.839   0.471
   0.524   0.753   0.684   1.021   0.629   0.819   0.187   1.324   0.728   0.792
   1.760   2.640   2.972   1.739   1.503   0.261   0.702   1.013   0.186   1.013
   0.702   0.261   1.503   1.739   2.972   2.640   1.760   0.792   0.728   1.324
   0.187   0.819   0.629   1.021   0.684   0.753   0.524   0.753   0.684   1.021
   0.629   0.819   0.187   1.324   0.728   0.792   1.760   2.640   2.972   1.739
   1.503   0.261   0.702   1.013   0.186   1.013   0.702   0.261   1.503   1.739
   2.972   2.640   1.760   0.792   0.728   1.324   0.187   0.819   0.629   1.021
   0.684   0.753
   2.101   0.747   0.954   0.711   0.344   0.148   0.298   0.903   1.572   0.985
   2.347   2.413   2.082   1.118   1.503   0.260   0.626   1.200   0.475   1.200
   0.626   0.260   1.503   1.118   2.082   2.413   2.347   0.985   1.572   0.903
   0.298   0.148   0.344   0.711   0.954   0.747   2.101   0.747   0.954   0.711
   0.344   0.148   0.298   0.903   1.572   0.985   2.347   2.413   2.082   1.118
   1.503   0.260   0.626   1.200   0.475   1.200   0.626   0.260   1.503   1.118
   2.082   2.413   2.347   0.985   1.572   0.903   0.298   0.148   0.344   0.711
   0.954   0.747
   1.580   0.427   1.451   0.367   1.147   0.239   0.873   1.066   2.223   2.083
   1.646   2.380   1.094   1.608   1.554   0.365   1.413   1.550   1.665   1.550
   1.413   0.365   1.554   1.608   1.094   2.380   1.646   2.083   2.223   1.066
   0.873   0.239   1.147   0.367   1.451   0.427   1.580   0.427   1.451   0.367
   1.147   0.239   0.873   1.066   2.223   2.083   1.646   2.380   1.094   1.608
   1.554   0.365   1.413   1.550   1.665   1.550   1.413   0.365   1.554   1.608
   1.094   2.380   1.646   2.083   2.223   1.066   0.873   0.239   1.147   0.367
   1.451   0.427
 111       5.00   72    0 5.00   15    0
   0.163   0.163   0.163   0.163   0.163   0.163   0.163   0.163   0.163   0.163
   0.163   0.163   0.163   0.163   0.163   0.163   0.163   0.163   0.163   0.163
   0.163   0.163   0.163   0.163   0.163   0.163   0.163   0.163   0.163   0.163
   0.163   0.163   0.163   0.163   0.163   0.163   0.163   0.163   0.163   0.163
   0.163   0.163   0.163   0.163   0.163   0.163   0.163   0.163   0.163   0.163
   0.163   0.163   0.163   0.163   0.163   0.163   0.163   0.163   0.163   0.163
   0.163   0.163   0.163   0.163   0.163   0.163   0.163   0.163   0.163   0.163
   0.163   0.163
   0.092   0.214   0.036   0.132   0.057   0.152   0.236   0.023   0.241   0.203
   0.103   0.066   0.310   0.247   0.335   0.138   0.172   0.089   0.206   0.089
   0.172   0.138   0.335   0.247   0.310   0.066   0.103   0.203   0.241   0.023
   0.236   0.152   0.057   0.132   0.036   0.214   0.092   0.214   0.036   0.132
   0.057   0.152   0.236   0.023   0.241   0.203   0.103   0.066   0.310   0.247
   0.335   0.138   0.172   0.089   0.206   0.089   0.172   0.138   0.335   0.247
   0.310   0.066   0.103   0.203   0.241   0.023   0.236   0.152   0.057   0.132
   0.036   0.214
   0.479   0.179   0.109   0.204   0.056   0.178   0.337   0.120   0.170   0.291
   0.055   0.122   0.425   0.401   0.392   0.356   0.224   0.353   0.065   0.353
   0.224   0.356   0.392   0.401   0.425   0.122   0.055   0.291   0.170   0.120
   0.337   0.178   0.056   0.204   0.109   0.179   0.479   0.179   0.109   0.204
   0.056   0.178   0.337   0.120   0.170   0.291   0.055   0.122   0.425   0.401
   0.392   0.356   0.224   0.353   0.065   0.353   0.224   0.356   0.392   0.401
   0.425   0.122   0.055   0.291   0.170   0.120   0.337   0.178   0.056   0.204
   0.109   0.179
   0.519   0.085   0.108   0.163   0.140   0.112   0.273   0.139   0.043   0.337
   0.073   0.130   0.235   0.281   0.313   0.291   0.200   0.452   0.000   0.452
   0.200   0.291   0.313   0.281   0.235   0.130   0.073   0.337   0.043   0.139
   0.273   0.112   0.140   0.163   0.108   0.085   0.519   0.085   0.108   0.163
   0.140   0.112   0.273   0.139   0.043   0.337   0.073   0.130   0.235   0.281
   0.313   0.291   0.200   0.452   0.000   0.452   0.200   0.291   0.313   0.281
   0.235   0.130   0.073   0.337   0.043   0.139   0.273   0.112   0.140   0.163
   0.108   0.085
   0.201   0.068   0.202   0.222   0.286   0.058   0.124   0.048   0.034   0.181
   0.062   0.054   0.086   0.101   0.177   0.113   0.390   0.114   0.000   0.114
   0.390   0.113   0.177   0.101   0.086   0.054   0.062   0.181   0.034   0.048
   0.124   0.058   0.286   0.222   0.202   0.068   0.201   0.068   0.202   0.222
   0.286   0.058   0.124   0.048   0.034   0.181   0.062   0.054   0.086   0.101
   0.177   0.113   0.390   0.114   0.000   0.114   0.390   0.113   0.177   0.101
   0.086   0.054   0.062   0.181   0.034   0.048   0.124   0.058   0.286   0.222
   0.202   0.068
   0.117   0.205   0.202   0.200   0.202   0.058   0.142   0.047   0.036   0.142
   0.000   0.036   0.064   0.066   0.036   0.161   0.533   0.082   0.000   0.082
   0.533   0.161   0.036   0.066   0.064   0.036   0.000   0.142   0.036   0.047
   0.142   0.058   0.202   0.200   0.202   0.205   0.117   0.205   0.202   0.200
   0.202   0.058   0.142   0.047   0.036   0.142   0.000   0.036   0.064   0.066
   0.036   0.161   0.533   0.082   0.000   0.082   0.533   0.161   0.036   0.066
   0.064   0.036   0.000   0.142   0.036   0.047   0.142   0.058   0.202   0.200
   0.202   0.205
   0.755   0.579   0.267   0.381   0.481   0.232   0.756   0.522   0.314   0.671
   0.438   0.235   0.267   0.403   0.168   0.277   0.600   0.491   0.121   0.491
   0.600   0.277   0.168   0.403   0.267   0.235   0.438   0.671   0.314   0.522
   0.756   0.232   0.481   0.381   0.267   0.579   0.755   0.579   0.267   0.381
   0.481   0.232   0.756   0.522   0.314   0.671   0.438   0.235   0.267   0.403
   0.168   0.277   0.600   0.491   0.121   0.491   0.600   0.277   0.168   0.403
   0.267   0.235   0.438   0.671   0.314   0.522   0.756   0.232   0.481   0.381
   0.267   0.579
   1.222   0.672   1.168   0.506   1.262   0.308   1.133   1.315   1.615   0.605
   0.919   0.556   0.553   1.386   0.593   0.350   0.929   1.045   0.483   1.045
   0.929   0.350   0.593   1.386   0.553   0.556   0.919   0.605   1.615   1.315
   1.133   0.308   1.262   0.506   1.168   0.672   1.222   0.672   1.168   0.506
   1.262   0.308   1.133   1.315   1.615   0.605   0.919   0.556   0.553   1.386
   0.593   0.350   0.929   1.045   0.483   1.045   0.929   0.350   0.593   1.386
   0.553   0.556   0.919   0.605   1.615   1.315   1.133   0.308   1.262   0.506
   1.168   0.672
   0.701   0.670   0.900   0.427   1.517   0.300   1.227   1.068   1.550   0.773
   0.716   0.622   0.286   1.108   0.844   0.367   0.534   0.624   0.469   0.624
   0.534   0.367   0.844   1.108   0.286   0.622   0.716   0.773   1.550   1.068
   1.227   0.300   1.517   0.427   0.900   0.670   0.701   0.670   0.900   0.427
   1.517   0.300   1.227   1.068   1.550   0.773   0.716   0.622   0.286   1.108
   0.844   0.367   0.534   0.624   0.469   0.624   0.534   0.367   0.844   1.108
   0.286   0.622   0.716   0.773   1.550   1.068   1.227   0.300   1.517   0.427
   0.900   0.670
   1.119   0.801   0.064   0.298   1.256   0.508   1.425   0.362   0.609   1.178
   0.377   0.898   0.064   0.323   1.015   0.572   0.000   0.821   0.518   0.821
   0.000   0.572   1.015   0.323   0.064   0.898   0.377   1.178   0.609   0.362
   1.425   0.508   1.256   0.298   0.064   0.801   1.119   0.801   0.064   0.298
   1.256   0.508   1.425   0.362   0.609   1.178   0.377   0.898   0.064   0.323
   1.015   0.572   0.000   0.821   0.518   0.821   0.000   0.572   1.015   0.323
   0.064   0.898   0.377   1.178   0.609   0.362   1.425   0.508   1.256   0.298
   0.064   0.801
   0.885   1.356   1.321   1.582   0.786   0.452   0.679   0.756   2.074   1.268
   0.604   0.963   0.466   0.206   0.963   0.348   0.629   1.026   1.079   1.026
   0.629   0.348   0.963   0.206   0.466   0.963   0.604   1.268   2.074   0.756
   0.679   0.452   0.786   1.582   1.321   1.356   0.885   1.356   1.321   1.582
   0.786   0.452   0.679   0.756   2.074   1.268   0.604   0.963   0.466   0.206
   0.963   0.348   0.629   1.026   1.079   1.026   0.629   0.348   0.963   0.206
   0.466   0.963   0.604   1.268   2.074   0.756   0.679   0.452   0.786   1.582
   1.321   1.356
   0.858   1.911   1.993   2.195   1.246   1.270   0.061   0.996   2.261   0.886
   0.523   1.160   0.463   0.245   0.793   0.000   0.690   0.573   1.034   0.573
   0.690   0.000   0.793   0.245   0.463   1.160   0.523   0.886   2.261   0.996
   0.061   1.270   1.246   2.195   1.993   1.911   0.858   1.911   1.993   2.195
   1.246   1.270   0.061   0.996   2.261   0.886   0.523   1.160   0.463   0.245
   0.793   0.000   0.690   0.573   1.034   0.573   0.690   0.000   0.793   0.245
   0.463   1.160   0.523   0.886   2.261   0.996   0.061   1.270   1.246   2.195
   1.993   1.911
   1.746   0.919   0.736   0.881   1.115   1.526   0.505   0.367   0.819   0.061
   0.794   0.797   0.061   0.533   0.563   0.578   0.195   0.501   0.945   0.501
   0.195   0.578   0.563   0.533   0.061   0.797   0.794   0.061   0.819   0.367
   0.505   1.526   1.115   0.881   0.736   0.919   1.746   0.919   0.736   0.881
   1.115   1.526   0.505   0.367   0.819   0.061   0.794   0.797   0.061   0.533
   0.563   0.578   0.195   0.501   0.945   0.501   0.195   0.578   0.563   0.533
   0.061   0.797   0.794   0.061   0.819   0.367   0.505   1.526   1.115   0.881
   0.736   0.919
   0.888   0.639   0.168   0.352   1.465   0.423   0.528   0.084   0.435   0.000
   1.760   0.278   0.472   0.734   0.689   2.768   0.993   0.689   2.296   0.689
   0.993   2.768   0.689   0.734   0.472   0.278   1.760   0.000   0.435   0.084
   0.528   0.423   1.465   0.352   0.168   0.639   0.888   0.639   0.168   0.352
   1.465   0.423   0.528   0.084   0.435   0.000   1.760   0.278   0.472   0.734
   0.689   2.768   0.993   0.689   2.296   0.689   0.993   2.768   0.689   0.734
   0.472   0.278   1.760   0.000   0.435   0.084   0.528   0.423   1.465   0.352
   0.168   0.639
   0.000   0.737   0.526   0.703   1.429   0.717   1.419   1.582   0.265   0.619
   3.502   1.157   1.286   1.943   1.370   2.190   3.139   2.054   5.236   2.054
   3.139   2.190   1.370   1.943   1.286   1.157   3.502   0.619   0.265   1.582
   1.419   0.717   1.429   0.703   0.526   0.737   0.000   0.737   0.526   0.703
   1.429   0.717   1.419   1.582   0.265   0.619   3.502   1.157   1.286   1.943
   1.370   2.190   3.139   2.054   5.236   2.054   3.139   2.190   1.370   1.943
   1.286   1.157   3.502   0.619   0.265   1.582   1.419   0.717   1.429   0.703
   0.526   0.737
  4  1     -3.6525776E-01
  4  2      5.6974147E-02
  4  3     -1.3698155E+00
  6  1      6.1393576E-01
  6  2     -1.2720590E+00
  6  3      9.2778800E-01
  6  4      3.7344349E-01
  8  1     -3.7789835E-01
  8  2     -1.5630747E-01
  8  3     -2.1015360E-01
  8  4      8.4608907E-01
  8  5      9.0300336E-01
 10  1      1.7256664E-01
 10  2      1.1916851E+00
 10  3     -3.6465966E-01
 10  4      3.0024660E-01
 10  5      1.7700513E-01
 10  6     -1.7948538E+00
 12  1      1.0197918E-01  8.5495310E-02
 12  2     -6.9929707E-02 -1.9655493E+00
 12  3     -6.7867903E-02  1.2073502E+00
 12  4      9.4640438E-02 -7.4896119E-01
 12  5     -2.4086812E-02  1.3686761E-01
 12  6     -1.2277825E+00  1.9226573E-01
 12  7      5.4885935E-01 -2.3894645E-01
 14  1     -4.8924762E-01
 14  2     -1.8082491E-01
 14  3     -1.0480056E-01
 14  4     -2.8738203E-01
 14  5     -5.3954767E-01
 14  6      4.6828118E-02
 14  7     -2.1011287E-02
 14  8     -5.4343377E-01
 220       5.00   72    0 5.00   18    0
   1.080   1.081   1.084   1.089   1.095   1.103   1.112   1.122   1.133   1.144
   1.156   1.167   1.177   1.186   1.194   1.201   1.206   1.208   1.209   1.208
   1.206   1.201   1.194   1.186   1.177   1.167   1.156   1.144   1.133   1.122
   1.112   1.103   1.095   1.089   1.084   1.081   1.080   1.081   1.084   1.089
   1.095   1.103   1.112   1.122   1.133   1.144   1.156   1.167   1.177   1.186
   1.194   1.201   1.206   1.208   1.209   1.208   1.206   1.201   1.194   1.186
   1.177   1.167   1.156   1.144   1.133   1.122   1.112   1.103   1.095   1.089
   1.084   1.081
   0.737   0.744   0.763   0.796   0.840   0.896   0.961   1.035   1.114   1.198
   1.283   1.367   1.447   1.521   1.585   1.638   1.678   1.702   1.710   1.702
   1.678   1.638   1.585   1.521   1.447   1.367   1.283   1.198   1.114   1.035
   0.961   0.896   0.840   0.796   0.763   0.744   0.737   0.744   0.763   0.796
   0.840   0.896   0.961   1.035   1.114   1.198   1.283   1.367   1.447   1.521
   1.585   1.638   1.678   1.702   1.710   1.702   1.678   1.638   1.585   1.521
   1.447   1.367   1.283   1.198   1.114   1.035   0.961   0.896   0.840   0.796
   0.763   0.744
   0.396   0.406   0.436   0.485   0.554   0.643   0.750   0.874   1.015   1.169
   1.333   1.501   1.669   1.828   1.972   2.093   2.185   2.242   2.261   2.242
   2.185   2.093   1.972   1.828   1.669   1.501   1.333   1.169   1.015   0.874
   0.750   0.643   0.554   0.485   0.436   0.406   0.396   0.406   0.436   0.485
   0.554   0.643   0.750   0.874   1.015   1.169   1.333   1.501   1.669   1.828
   1.972   2.093   2.185   2.242   2.261   2.242   2.185   2.093   1.972   1.828
   1.669   1.501   1.333   1.169   1.015   0.874   0.750   0.643   0.554   0.485
   0.436   0.406
   0.393   0.398   0.415   0.443   0.484   0.539   0.611   0.704   0.821   0.965
   1.136   1.330   1.540   1.754   1.960   2.141   2.283   2.373   2.404   2.373
   2.283   2.141   1.960   1.754   1.540   1.330   1.136   0.965   0.821   0.704
   0.611   0.539   0.484   0.443   0.415   0.398   0.393   0.398   0.415   0.443
   0.484   0.539   0.611   0.704   0.821   0.965   1.136   1.330   1.540   1.754
   1.960   2.141   2.283   2.373   2.404   2.373   2.283   2.141   1.960   1.754
   1.540   1.330   1.136   0.965   0.821   0.704   0.611   0.539   0.484   0.443
   0.415   0.398
   0.701   0.700   0.697   0.690   0.676   0.656   0.635   0.622   0.632   0.676
   0.767   0.908   1.094   1.312   1.541   1.756   1.932   2.047   2.087   2.047
   1.932   1.756   1.541   1.312   1.094   0.908   0.767   0.676   0.632   0.622
   0.635   0.656   0.676   0.690   0.697   0.700   0.701   0.700   0.697   0.690
   0.676   0.656   0.635   0.622   0.632   0.676   0.767   0.908   1.094   1.312
   1.541   1.756   1.932   2.047   2.087   2.047   1.932   1.756   1.541   1.312
   1.094   0.908   0.767   0.676   0.632   0.622   0.635   0.656   0.676   0.690
   0.697   0.700
   0.957   0.960   0.964   0.959   0.932   0.875   0.787   0.680   0.577   0.505
   0.489   0.544   0.672   0.858   1.075   1.291   1.472   1.593   1.635   1.593
   1.472   1.291   1.075   0.858   0.672   0.544   0.489   0.505   0.577   0.680
   0.787   0.875   0.932   0.959   0.964   0.960   0.957   0.960   0.964   0.959
   0.932   0.875   0.787   0.680   0.577   0.505   0.489   0.544   0.672   0.858
   1.075   1.291   1.472   1.593   1.635   1.593   1.472   1.291   1.075   0.858
   0.672   0.544   0.489   0.505   0.577   0.680   0.787   0.875   0.932   0.959
   0.964   0.960
   0.860   0.877   0.919   0.968   0.997   0.985   0.919   0.808   0.675   0.557
   0.490   0.497   0.583   0.731   0.913   1.093   1.241   1.338   1.371   1.338
   1.241   1.093   0.913   0.731   0.583   0.497   0.490   0.557   0.675   0.808
   0.919   0.985   0.997   0.968   0.919   0.877   0.860   0.877   0.919   0.968
   0.997   0.985   0.919   0.808   0.675   0.557   0.490   0.497   0.583   0.731
   0.913   1.093   1.241   1.338   1.371   1.338   1.241   1.093   0.913   0.731
   0.583   0.497   0.490   0.557   0.675   0.808   0.919   0.985   0.997   0.968
   0.919   0.877
   0.539   0.562   0.625   0.714   0.804   0.870   0.891   0.862   0.799   0.733
   0.700   0.727   0.814   0.942   1.076   1.187   1.261   1.300   1.311   1.300
   1.261   1.187   1.076   0.942   0.814   0.727   0.700   0.733   0.799   0.862
   0.891   0.870   0.804   0.714   0.625   0.562   0.539   0.562   0.625   0.714
   0.804   0.870   0.891   0.862   0.799   0.733   0.700   0.727   0.814   0.942
   1.076   1.187   1.261   1.300   1.311   1.300   1.261   1.187   1.076   0.942
   0.814   0.727   0.700   0.733   0.799   0.862   0.891   0.870   0.804   0.714
   0.625   0.562
   0.492   0.489   0.488   0.505   0.552   0.625   0.705   0.768   0.805   0.831
   0.874   0.956   1.074   1.199   1.289   1.321   1.300   1.261   1.242   1.261
   1.300   1.321   1.289   1.199   1.074   0.956   0.874   0.831   0.805   0.768
   0.705   0.625   0.552   0.505   0.488   0.489   0.492   0.489   0.488   0.505
   0.552   0.625   0.705   0.768   0.805   0.831   0.874   0.956   1.074   1.199
   1.289   1.321   1.300   1.261   1.242   1.261   1.300   1.321   1.289   1.199
   1.074   0.956   0.874   0.831   0.805   0.768   0.705   0.625   0.552   0.505
   0.488   0.489
   1.095   1.029   0.858   0.661   0.517   0.472   0.517   0.605   0.691   0.761
   0.836   0.947   1.091   1.228   1.301   1.277   1.178   1.070   1.024   1.070
   1.178   1.277   1.301   1.228   1.091   0.947   0.836   0.761   0.691   0.605
   0.517   0.472   0.517   0.661   0.858   1.029   1.095   1.029   0.858   0.661
   0.517   0.472   0.517   0.605   0.691   0.761   0.836   0.947   1.091   1.228
   1.301   1.277   1.178   1.070   1.024   1.070   1.178   1.277   1.301   1.228
   1.091   0.947   0.836   0.761   0.691   0.605   0.517   0.472   0.517   0.661
   0.858   1.029
   2.157   2.014   1.640   1.176   0.781   0.554   0.502   0.546   0.599   0.622
   0.645   0.722   0.868   1.031   1.125   1.093   0.958   0.809   0.745   0.809
   0.958   1.093   1.125   1.031   0.868   0.722   0.645   0.622   0.599   0.546
   0.502   0.554   0.781   1.176   1.640   2.014   2.157   2.014   1.640   1.176
   0.781   0.554   0.502   0.546   0.599   0.622   0.645   0.722   0.868   1.031
   1.125   1.093   0.958   0.809   0.745   0.809   0.958   1.093   1.125   1.031
   0.868   0.722   0.645   0.622   0.599   0.546   0.502   0.554   0.781   1.176
   1.640   2.014
   2.977   2.792   2.302   1.681   1.133   0.797   0.682   0.683   0.672   0.596
   0.509   0.510   0.639   0.837   0.980   0.978   0.842   0.677   0.605   0.677
   0.842   0.978   0.980   0.837   0.639   0.510   0.509   0.596   0.672   0.683
   0.682   0.797   1.133   1.681   2.302   2.792   2.977   2.792   2.302   1.681
   1.133   0.797   0.682   0.683   0.672   0.596   0.509   0.510   0.639   0.837
   0.980   0.978   0.842   0.677   0.605   0.677   0.842   0.978   0.980   0.837
   0.639   0.510   0.509   0.596   0.672   0.683   0.682   0.797   1.133   1.681
   2.302   2.792
   2.931   2.769   2.335   1.773   1.272   0.978   0.907   0.936   0.909   0.764
   0.583   0.511   0.622   0.847   1.032   1.058   0.931   0.762   0.687   0.762
   0.931   1.058   1.032   0.847   0.622   0.511   0.583   0.764   0.909   0.936
   0.907   0.978   1.272   1.773   2.335   2.769   2.931   2.769   2.335   1.773
   1.272   0.978   0.907   0.936   0.909   0.764   0.583   0.511   0.622   0.847
   1.032   1.058   0.931   0.762   0.687   0.762   0.931   1.058   1.032   0.847
   0.622   0.511   0.583   0.764   0.909   0.936   0.907   0.978   1.272   1.773
   2.335   2.769
   2.042   1.961   1.729   1.399   1.092   0.944   0.991   1.124   1.167   1.040
   0.835   0.727   0.814   1.030   1.215   1.247   1.130   0.975   0.906   0.975
   1.130   1.247   1.215   1.030   0.814   0.727   0.835   1.040   1.167   1.124
   0.991   0.944   1.092   1.399   1.729   1.961   2.042   1.961   1.729   1.399
   1.092   0.944   0.991   1.124   1.167   1.040   0.835   0.727   0.814   1.030
   1.215   1.247   1.130   0.975   0.906   0.975   1.130   1.247   1.215   1.030
   0.814   0.727   0.835   1.040   1.167   1.124   0.991   0.944   1.092   1.399
   1.729   1.961
   0.974   0.992   0.995   0.915   0.782   0.736   0.873   1.122   1.295   1.269
   1.107   0.985   1.021   1.175   1.313   1.340   1.263   1.163   1.119   1.163
   1.263   1.340   1.313   1.175   1.021   0.985   1.107   1.269   1.295   1.122
   0.873   0.736   0.782   0.915   0.995   0.992   0.974   0.992   0.995   0.915
   0.782   0.736   0.873   1.122   1.295   1.269   1.107   0.985   1.021   1.175
   1.313   1.340   1.263   1.163   1.119   1.163   1.263   1.340   1.313   1.175
   1.021   0.985   1.107   1.269   1.295   1.122   0.873   0.736   0.782   0.915
   0.995   0.992
   0.440   0.529   0.690   0.732   0.619   0.524   0.637   0.948   1.253   1.358
   1.261   1.118   1.065   1.109   1.177   1.218   1.237   1.250   1.256   1.250
   1.237   1.218   1.177   1.109   1.065   1.118   1.261   1.358   1.253   0.948
   0.637   0.524   0.619   0.732   0.690   0.529   0.440   0.529   0.690   0.732
   0.619   0.524   0.637   0.948   1.253   1.358   1.261   1.118   1.065   1.109
   1.177   1.218   1.237   1.250   1.256   1.250   1.237   1.218   1.177   1.109
   1.065   1.118   1.261   1.358   1.253   0.948   0.637   0.524   0.619   0.732
   0.690   0.529
   0.579   0.698   0.906   0.927   0.689   0.422   0.416   0.724   1.118   1.329
   1.282   1.101   0.940   0.866   0.873   0.955   1.103   1.258   1.326   1.258
   1.103   0.955   0.873   0.866   0.940   1.101   1.282   1.329   1.118   0.724
   0.416   0.422   0.689   0.927   0.906   0.698   0.579   0.698   0.906   0.927
   0.689   0.422   0.416   0.724   1.118   1.329   1.282   1.101   0.940   0.866
   0.873   0.955   1.103   1.258   1.326   1.258   1.103   0.955   0.873   0.866
   0.940   1.101   1.282   1.329   1.118   0.724   0.416   0.422   0.689   0.927
   0.906   0.698
   0.913   1.037   1.236   1.194   0.827   0.409   0.295   0.577   1.011   1.277
   1.251   1.037   0.802   0.651   0.624   0.744   0.988   1.245   1.356   1.245
   0.988   0.744   0.624   0.651   0.802   1.037   1.251   1.277   1.011   0.577
   0.295   0.409   0.827   1.194   1.236   1.037   0.913   1.037   1.236   1.194
   0.827   0.409   0.295   0.577   1.011   1.277   1.251   1.037   0.802   0.651
   0.624   0.744   0.988   1.245   1.356   1.245   0.988   0.744   0.624   0.651
   0.802   1.037   1.251   1.277   1.011   0.577   0.295   0.409   0.827   1.194
   1.236   1.037
 200       5.00   72    0 5.00   18    0
   0.422   0.423   0.424   0.427   0.430   0.434   0.439   0.444   0.450   0.456
   0.462   0.468   0.473   0.478   0.482   0.486   0.488   0.490   0.490   0.490
   0.488   0.486   0.482   0.478   0.473   0.468   0.462   0.456   0.450   0.444
   0.439   0.434   0.430   0.427   0.424   0.423   0.422   0.423   0.424   0.427
   0.430   0.434   0.439   0.444   0.450   0.456   0.462   0.468   0.473   0.478
   0.482   0.486   0.488   0.490   0.490   0.490   0.488   0.486   0.482   0.478
   0.473   0.468   0.462   0.456   0.450   0.444   0.439   0.434   0.430   0.427
   0.424   0.423
   0.179   0.182   0.193   0.210   0.233   0.262   0.296   0.335   0.377   0.421
   0.466   0.511   0.553   0.592   0.626   0.654   0.675   0.688   0.692   0.688
   0.675   0.654   0.626   0.592   0.553   0.511   0.466   0.421   0.377   0.335
   0.296   0.262   0.233   0.210   0.193   0.182   0.179   0.182   0.193   0.210
   0.233   0.262   0.296   0.335   0.377   0.421   0.466   0.511   0.553   0.592
   0.626   0.654   0.675   0.688   0.692   0.688   0.675   0.654   0.626   0.592
   0.553   0.511   0.466   0.421   0.377   0.335   0.296   0.262   0.233   0.210
   0.193   0.182
   0.058   0.062   0.076   0.099   0.133   0.177   0.232   0.297   0.371   0.452
   0.539   0.627   0.714   0.796   0.869   0.930   0.976   1.004   1.014   1.004
   0.976   0.930   0.869   0.796   0.714   0.627   0.539   0.452   0.371   0.297
   0.232   0.177   0.133   0.099   0.076   0.062   0.058   0.062   0.076   0.099
   0.133   0.177   0.232   0.297   0.371   0.452   0.539   0.627   0.714   0.796
   0.869   0.930   0.976   1.004   1.014   1.004   0.976   0.930   0.869   0.796
   0.714   0.627   0.539   0.452   0.371   0.297   0.232   0.177   0.133   0.099
   0.076   0.062
   0.394   0.393   0.391   0.392   0.399   0.415   0.445   0.491   0.552   0.628
   0.715   0.809   0.906   1.001   1.089   1.163   1.221   1.257   1.269   1.257
   1.221   1.163   1.089   1.001   0.906   0.809   0.715   0.628   0.552   0.491
   0.445   0.415   0.399   0.392   0.391   0.393   0.394   0.393   0.391   0.392
   0.399   0.415   0.445   0.491   0.552   0.628   0.715   0.809   0.906   1.001
   1.089   1.163   1.221   1.257   1.269   1.257   1.221   1.163   1.089   1.001
   0.906   0.809   0.715   0.628   0.552   0.491   0.445   0.415   0.399   0.392
   0.391   0.393
   1.112   1.100   1.067   1.021   0.971   0.927   0.897   0.885   0.890   0.910
   0.942   0.982   1.027   1.076   1.127   1.174   1.213   1.240   1.249   1.240
   1.213   1.174   1.127   1.076   1.027   0.982   0.942   0.910   0.890   0.885
   0.897   0.927   0.971   1.021   1.067   1.100   1.112   1.100   1.067   1.021
   0.971   0.927   0.897   0.885   0.890   0.910   0.942   0.982   1.027   1.076
   1.127   1.174   1.213   1.240   1.249   1.240   1.213   1.174   1.127   1.076
   1.027   0.982   0.942   0.910   0.890   0.885   0.897   0.927   0.971   1.021
   1.067   1.100
   1.753   1.731   1.672   1.587   1.494   1.407   1.336   1.281   1.235   1.189
   1.136   1.076   1.015   0.962   0.926   0.909   0.906   0.911   0.913   0.911
   0.906   0.909   0.926   0.962   1.015   1.076   1.136   1.189   1.235   1.281
   1.336   1.407   1.494   1.587   1.672   1.731   1.753   1.731   1.672   1.587
   1.494   1.407   1.336   1.281   1.235   1.189   1.136   1.076   1.015   0.962
   0.926   0.909   0.906   0.911   0.913   0.911   0.906   0.909   0.926   0.962
   1.015   1.076   1.136   1.189   1.235   1.281   1.336   1.407   1.494   1.587
   1.672   1.731
   1.877   1.855   1.796   1.715   1.634   1.570   1.528   1.499   1.462   1.395
   1.282   1.124   0.943   0.768   0.630   0.543   0.503   0.492   0.491   0.492
   0.503   0.543   0.630   0.768   0.943   1.124   1.282   1.395   1.462   1.499
   1.528   1.570   1.634   1.715   1.796   1.855   1.877   1.855   1.796   1.715
   1.634   1.570   1.528   1.499   1.462   1.395   1.282   1.124   0.943   0.768
   0.630   0.543   0.503   0.492   0.491   0.492   0.503   0.543   0.630   0.768
   0.943   1.124   1.282   1.395   1.462   1.499   1.528   1.570   1.634   1.715
   1.796   1.855
   1.440   1.431   1.408   1.384   1.373   1.391   1.439   1.504   1.552   1.540
   1.436   1.237   0.975   0.708   0.492   0.360   0.308   0.302   0.305   0.302
   0.308   0.360   0.492   0.708   0.975   1.237   1.436   1.540   1.552   1.504
   1.439   1.391   1.373   1.384   1.408   1.431   1.440   1.431   1.408   1.384
   1.373   1.391   1.439   1.504   1.552   1.540   1.436   1.237   0.975   0.708
   0.492   0.360   0.308   0.302   0.305   0.302   0.308   0.360   0.492   0.708
   0.975   1.237   1.436   1.540   1.552   1.504   1.439   1.391   1.373   1.384
   1.408   1.431
   0.796   0.811   0.851   0.909   0.982   1.078   1.208   1.371   1.536   1.645
   1.638   1.486   1.215   0.903   0.640   0.484   0.436   0.447   0.458   0.447
   0.436   0.484   0.640   0.903   1.215   1.486   1.638   1.645   1.536   1.371
   1.208   1.078   0.982   0.909   0.851   0.811   0.796   0.811   0.851   0.909
   0.982   1.078   1.208   1.371   1.536   1.645   1.638   1.486   1.215   0.903
   0.640   0.484   0.436   0.447   0.458   0.447   0.436   0.484   0.640   0.903
   1.215   1.486   1.638   1.645   1.536   1.371   1.208   1.078   0.982   0.909
   0.851   0.811
   0.366   0.407   0.512   0.639   0.754   0.857   0.984   1.176   1.430   1.685
   1.837   1.804   1.583   1.257   0.950   0.758   0.698   0.714   0.731   0.714
   0.698   0.758   0.950   1.257   1.583   1.804   1.837   1.685   1.430   1.176
   0.984   0.857   0.754   0.639   0.512   0.407   0.366   0.407   0.512   0.639
   0.754   0.857   0.984   1.176   1.430   1.685   1.837   1.804   1.583   1.257
   0.950   0.758   0.698   0.714   0.731   0.714   0.698   0.758   0.950   1.257
   1.583   1.804   1.837   1.685   1.430   1.176   0.984   0.857   0.754   0.639
   0.512   0.407
   0.307   0.366   0.511   0.665   0.762   0.794   0.830   0.968   1.255   1.631
   1.945   2.045   1.878   1.528   1.157   0.903   0.807   0.812   0.827   0.812
   0.807   0.903   1.157   1.528   1.878   2.045   1.945   1.631   1.255   0.968
   0.830   0.794   0.762   0.665   0.511   0.366   0.307   0.366   0.511   0.665
   0.762   0.794   0.830   0.968   1.255   1.631   1.945   2.045   1.878   1.528
   1.157   0.903   0.807   0.812   0.827   0.812   0.807   0.903   1.157   1.528
   1.878   2.045   1.945   1.631   1.255   0.968   0.830   0.794   0.762   0.665
   0.511   0.366
   0.480   0.536   0.669   0.803   0.856   0.814   0.757   0.823   1.100   1.537
   1.944   2.111   1.950   1.550   1.111   0.806   0.687   0.688   0.704   0.688
   0.687   0.806   1.111   1.550   1.950   2.111   1.944   1.537   1.100   0.823
   0.757   0.814   0.856   0.803   0.669   0.536   0.480   0.536   0.669   0.803
   0.856   0.814   0.757   0.823   1.100   1.537   1.944   2.111   1.950   1.550
   1.111   0.806   0.687   0.688   0.704   0.688   0.687   0.806   1.111   1.550
   1.950   2.111   1.944   1.537   1.100   0.823   0.757   0.814   0.856   0.803
   0.669   0.536
   0.661   0.681   0.737   0.808   0.850   0.831   0.793   0.853   1.110   1.523
   1.899   2.018   1.797   1.350   0.896   0.611   0.528   0.557   0.584   0.557
   0.528   0.611   0.896   1.350   1.797   2.018   1.899   1.523   1.110   0.853
   0.793   0.831   0.850   0.808   0.737   0.681   0.661   0.681   0.737   0.808
   0.850   0.831   0.793   0.853   1.110   1.523   1.899   2.018   1.797   1.350
   0.896   0.611   0.528   0.557   0.584   0.557   0.528   0.611   0.896   1.350
   1.797   2.018   1.899   1.523   1.110   0.853   0.793   0.831   0.850   0.808
   0.737   0.681
   0.764   0.711   0.614   0.590   0.682   0.831   0.973   1.127   1.357   1.648
   1.859   1.827   1.518   1.075   0.705   0.531   0.534   0.606   0.643   0.606
   0.534   0.531   0.705   1.075   1.518   1.827   1.859   1.648   1.357   1.127
   0.973   0.831   0.682   0.590   0.614   0.711   0.764   0.711   0.614   0.590
   0.682   0.831   0.973   1.127   1.357   1.648   1.859   1.827   1.518   1.075
   0.705   0.531   0.534   0.606   0.643   0.606   0.534   0.531   0.705   1.075
   1.518   1.827   1.859   1.648   1.357   1.127   0.973   0.831   0.682   0.590
   0.614   0.711
   0.863   0.706   0.394   0.243   0.428   0.851   1.283   1.581   1.750   1.828
   1.781   1.555   1.193   0.841   0.641   0.615   0.680   0.744   0.768   0.744
   0.680   0.615   0.641   0.841   1.193   1.555   1.781   1.828   1.750   1.581
   1.283   0.851   0.428   0.243   0.394   0.706   0.863   0.706   0.394   0.243
   0.428   0.851   1.283   1.581   1.750   1.828   1.781   1.555   1.193   0.841
   0.641   0.615   0.680   0.744   0.768   0.744   0.680   0.615   0.641   0.841
   1.193   1.555   1.781   1.828   1.750   1.581   1.283   0.851   0.428   0.243
   0.394   0.706
   1.052   0.779   0.225  -0.073   0.204   0.912   1.634   2.047   2.103   1.914
   1.587   1.198   0.852   0.663   0.659   0.736   0.765   0.723   0.692   0.723
   0.765   0.736   0.659   0.663   0.852   1.198   1.587   1.914   2.103   2.047
   1.634   0.912   0.204  -0.073   0.225   0.779   1.052   0.779   0.225  -0.073
   0.204   0.912   1.634   2.047   2.103   1.914   1.587   1.198   0.852   0.663
   0.659   0.736   0.765   0.723   0.692   0.723   0.765   0.736   0.659   0.663
   0.852   1.198   1.587   1.914   2.103   2.047   1.634   0.912   0.204  -0.073
   0.225   0.779
   1.308   0.935   0.168  -0.268   0.070   0.992   1.919   2.381   2.295   1.855
   1.300   0.815   0.536   0.520   0.673   0.776   0.682   0.467   0.356   0.467
   0.682   0.776   0.673   0.520   0.536   0.815   1.300   1.855   2.295   2.381
   1.919   0.992   0.070  -0.268   0.168   0.935   1.308   0.935   0.168  -0.268
   0.070   0.992   1.919   2.381   2.295   1.855   1.300   0.815   0.536   0.520
   0.673   0.776   0.682   0.467   0.356   0.467   0.682   0.776   0.673   0.520
   0.536   0.815   1.300   1.855   2.295   2.381   1.919   0.992   0.070  -0.268
   0.168   0.935
   1.499   1.067   0.174  -0.346   0.017   1.047   2.071   2.539   2.352   1.759
   1.078   0.554   0.334   0.430   0.665   0.754   0.549   0.201   0.030   0.201
   0.549   0.754   0.665   0.430   0.334   0.554   1.078   1.759   2.352   2.539
   2.071   1.047   0.017  -0.346   0.174   1.067   1.499   1.067   0.174  -0.346
   0.017   1.047   2.071   2.539   2.352   1.759   1.078   0.554   0.334   0.430
   0.665   0.754   0.549   0.201   0.030   0.201   0.549   0.754   0.665   0.430
   0.334   0.554   1.078   1.759   2.352   2.539   2.071   1.047   0.017  -0.346
   0.174   1.067
 111       5.00   72    0 5.00   18    0
   1.067   1.067   1.067   1.066   1.066   1.066   1.065   1.065   1.064   1.063
   1.063   1.062   1.062   1.061   1.061   1.061   1.061   1.060   1.060   1.060
   1.061   1.061   1.061   1.061   1.062   1.062   1.063   1.063   1.064   1.065
   1.065   1.066   1.066   1.066   1.067   1.067   1.067   1.067   1.067   1.066
   1.066   1.066   1.065   1.065   1.064   1.063   1.063   1.062   1.062   1.061
   1.061   1.061   1.061   1.060   1.060   1.060   1.061   1.061   1.061   1.061
   1.062   1.062   1.063   1.063   1.064   1.065   1.065   1.066   1.066   1.066
   1.067   1.067
   0.990   0.989   0.985   0.979   0.971   0.962   0.953   0.943   0.934   0.925
   0.918   0.911   0.906   0.903   0.900   0.899   0.898   0.897   0.897   0.897
   0.898   0.899   0.900   0.903   0.906   0.911   0.918   0.925   0.934   0.943
   0.953   0.962   0.971   0.979   0.985   0.989   0.990   0.989   0.985   0.979
   0.971   0.962   0.953   0.943   0.934   0.925   0.918   0.911   0.906   0.903
   0.900   0.899   0.898   0.897   0.897   0.897   0.898   0.899   0.900   0.903
   0.906   0.911   0.918   0.925   0.934   0.943   0.953   0.962   0.971   0.979
   0.985   0.989
   1.083   1.077   1.059   1.030   0.993   0.951   0.906   0.862   0.820   0.784
   0.753   0.730   0.713   0.703   0.697   0.694   0.694   0.694   0.694   0.694
   0.694   0.694   0.697   0.703   0.713   0.730   0.753   0.784   0.820   0.862
   0.906   0.951   0.993   1.030   1.059   1.077   1.083   1.077   1.059   1.030
   0.993   0.951   0.906   0.862   0.820   0.784   0.753   0.730   0.713   0.703
   0.697   0.694   0.694   0.694   0.694   0.694   0.694   0.694   0.697   0.703
   0.713   0.730   0.753   0.784   0.820   0.862   0.906   0.951   0.993   1.030
   1.059   1.077
   1.493   1.478   1.434   1.364   1.275   1.174   1.069   0.965   0.868   0.782
   0.710   0.653   0.611   0.584   0.568   0.562   0.561   0.561   0.562   0.561
   0.561   0.562   0.568   0.584   0.611   0.653   0.710   0.782   0.868   0.965
   1.069   1.174   1.275   1.364   1.434   1.478   1.493   1.478   1.434   1.364
   1.275   1.174   1.069   0.965   0.868   0.782   0.710   0.653   0.611   0.584
   0.568   0.562   0.561   0.561   0.562   0.561   0.561   0.562   0.568   0.584
   0.611   0.653   0.710   0.782   0.868   0.965   1.069   1.174   1.275   1.364
   1.434   1.478
   1.993   1.969   1.901   1.797   1.667   1.522   1.373   1.225   1.084   0.952
   0.832   0.729   0.645   0.583   0.542   0.520   0.511   0.509   0.509   0.509
   0.511   0.520   0.542   0.583   0.645   0.729   0.832   0.952   1.084   1.225
   1.373   1.522   1.667   1.797   1.901   1.969   1.993   1.969   1.901   1.797
   1.667   1.522   1.373   1.225   1.084   0.952   0.832   0.729   0.645   0.583
   0.542   0.520   0.511   0.509   0.509   0.509   0.511   0.520   0.542   0.583
   0.645   0.729   0.832   0.952   1.084   1.225   1.373   1.522   1.667   1.797
   1.901   1.969
   2.131   2.106   2.038   1.938   1.823   1.705   1.589   1.473   1.350   1.216
   1.070   0.920   0.779   0.663   0.581   0.533   0.512   0.507   0.506   0.507
   0.512   0.533   0.581   0.663   0.779   0.920   1.070   1.216   1.350   1.473
   1.589   1.705   1.823   1.938   2.038   2.106   2.131   2.106   2.038   1.938
   1.823   1.705   1.589   1.473   1.350   1.216   1.070   0.920   0.779   0.663
   0.581   0.533   0.512   0.507   0.506   0.507   0.512   0.533   0.581   0.663
   0.779   0.920   1.070   1.216   1.350   1.473   1.589   1.705   1.823   1.938
   2.038   2.106
   1.689   1.672   1.628   1.578   1.543   1.534   1.546   1.557   1.537   1.464
   1.331   1.152   0.960   0.789   0.666   0.599   0.576   0.577   0.580   0.577
   0.576   0.599   0.666   0.789   0.960   1.152   1.331   1.464   1.537   1.557
   1.546   1.534   1.543   1.578   1.628   1.672   1.689   1.672   1.628   1.578
   1.543   1.534   1.546   1.557   1.537   1.464   1.331   1.152   0.960   0.789
   0.666   0.599   0.576   0.577   0.580   0.577   0.576   0.599   0.666   0.789
   0.960   1.152   1.331   1.464   1.537   1.557   1.546   1.534   1.543   1.578
   1.628   1.672
   0.954   0.945   0.928   0.934   0.991   1.112   1.280   1.453   1.576   1.604
   1.523   1.352   1.138   0.940   0.802   0.737   0.731   0.749   0.759   0.749
   0.731   0.737   0.802   0.940   1.138   1.352   1.523   1.604   1.576   1.453
   1.280   1.112   0.991   0.934   0.928   0.945   0.954   0.945   0.928   0.934
   0.991   1.112   1.280   1.453   1.576   1.604   1.523   1.352   1.138   0.940
   0.802   0.737   0.731   0.749   0.759   0.749   0.731   0.737   0.802   0.940
   1.138   1.352   1.523   1.604   1.576   1.453   1.280   1.112   0.991   0.934
   0.928   0.945
   0.484   0.473   0.456   0.469   0.552   0.722   0.963   1.226   1.446   1.565
   1.556   1.434   1.250   1.071   0.948   0.900   0.909   0.939   0.954   0.939
   0.909   0.900   0.948   1.071   1.250   1.434   1.556   1.565   1.446   1.226
   0.963   0.722   0.552   0.469   0.456   0.473   0.484   0.473   0.456   0.469
   0.552   0.722   0.963   1.226   1.446   1.565   1.556   1.434   1.250   1.071
   0.948   0.900   0.909   0.939   0.954   0.939   0.909   0.900   0.948   1.071
   1.250   1.434   1.556   1.565   1.446   1.226   0.963   0.722   0.552   0.469
   0.456   0.473
   0.585   0.562   0.511   0.468   0.478   0.566   0.734   0.950   1.163   1.318
   1.377   1.335   1.226   1.102   1.010   0.968   0.968   0.984   0.993   0.984
   0.968   0.968   1.010   1.102   1.226   1.335   1.377   1.318   1.163   0.950
   0.734   0.566   0.478   0.468   0.511   0.562   0.585   0.562   0.511   0.468
   0.478   0.566   0.734   0.950   1.163   1.318   1.377   1.335   1.226   1.102
   1.010   0.968   0.968   0.984   0.993   0.984   0.968   0.968   1.010   1.102
   1.226   1.335   1.377   1.318   1.163   0.950   0.734   0.566   0.478   0.468
   0.511   0.562
   1.016   0.984   0.897   0.784   0.680   0.614   0.610   0.679   0.805   0.948
   1.056   1.093   1.063   0.999   0.935   0.891   0.866   0.853   0.849   0.853
   0.866   0.891   0.935   0.999   1.063   1.093   1.056   0.948   0.805   0.679
   0.610   0.614   0.680   0.784   0.897   0.984   1.016   0.984   0.897   0.784
   0.680   0.614   0.610   0.679   0.805   0.948   1.056   1.093   1.063   0.999
   0.935   0.891   0.866   0.853   0.849   0.853   0.866   0.891   0.935   0.999
   1.063   1.093   1.056   0.948   0.805   0.679   0.610   0.614   0.680   0.784
   0.897   0.984
   1.235   1.210   1.137   1.021   0.867   0.695   0.548   0.483   0.528   0.656
   0.792   0.869   0.873   0.840   0.809   0.795   0.790   0.783   0.780   0.783
   0.790   0.795   0.809   0.840   0.873   0.869   0.792   0.656   0.528   0.483
   0.548   0.695   0.867   1.021   1.137   1.210   1.235   1.210   1.137   1.021
   0.867   0.695   0.548   0.483   0.528   0.656   0.792   0.869   0.873   0.840
   0.809   0.795   0.790   0.783   0.780   0.783   0.790   0.795   0.809   0.840
   0.873   0.869   0.792   0.656   0.528   0.483   0.548   0.695   0.867   1.021
   1.137   1.210
   0.938   0.945   0.959   0.947   0.869   0.711   0.529   0.424   0.467   0.624
   0.781   0.839   0.802   0.754   0.777   0.877   0.998   1.086   1.116   1.086
   0.998   0.877   0.777   0.754   0.802   0.839   0.781   0.624   0.467   0.424
   0.529   0.711   0.869   0.947   0.959   0.945   0.938   0.945   0.959   0.947
   0.869   0.711   0.529   0.424   0.467   0.624   0.781   0.839   0.802   0.754
   0.777   0.877   0.998   1.086   1.116   1.086   0.998   0.877   0.777   0.754
   0.802   0.839   0.781   0.624   0.467   0.424   0.529   0.711   0.869   0.947
   0.959   0.945
   0.372   0.431   0.580   0.740   0.807   0.724   0.561   0.476   0.583   0.826
   1.020   1.022   0.876   0.771   0.863   1.151   1.501   1.765   1.861   1.765
   1.501   1.151   0.863   0.771   0.876   1.022   1.020   0.826   0.583   0.476
   0.561   0.724   0.807   0.740   0.580   0.431   0.372   0.431   0.580   0.740
   0.807   0.724   0.561   0.476   0.583   0.826   1.020   1.022   0.876   0.771
   0.863   1.151   1.501   1.765   1.861   1.765   1.501   1.151   0.863   0.771
   0.876   1.022   1.020   0.826   0.583   0.476   0.561   0.724   0.807   0.740
   0.580   0.431
   0.124   0.232   0.508   0.813   0.965   0.869   0.628   0.496   0.652   1.009
   1.274   1.229   0.954   0.756   0.893   1.366   1.953   2.403   2.567   2.403
   1.953   1.366   0.893   0.756   0.954   1.229   1.274   1.009   0.652   0.496
   0.628   0.869   0.965   0.813   0.508   0.232   0.124   0.232   0.508   0.813
   0.965   0.869   0.628   0.496   0.652   1.009   1.274   1.229   0.954   0.756
   0.893   1.366   1.953   2.403   2.567   2.403   1.953   1.366   0.893   0.756
   0.954   1.229   1.274   1.009   0.652   0.496   0.628   0.869   0.965   0.813
   0.508   0.232
   0.565   0.705   1.053   1.400   1.488   1.192   0.682   0.346   0.461   0.915
   1.286   1.242   0.862   0.554   0.675   1.240   1.965   2.524   2.728   2.524
   1.965   1.240   0.675   0.554   0.862   1.242   1.286   0.915   0.461   0.346
   0.682   1.192   1.488   1.400   1.053   0.705   0.565   0.705   1.053   1.400
   1.488   1.192   0.682   0.346   0.461   0.915   1.286   1.242   0.862   0.554
   0.675   1.240   1.965   2.524   2.728   2.524   1.965   1.240   0.675   0.554
   0.862   1.242   1.286   0.915   0.461   0.346   0.682   1.192   1.488   1.400
   1.053   0.705
   1.483   1.636   1.996   2.294   2.204   1.584   0.689   0.047   0.044   0.555
   1.038   1.038   0.599   0.189   0.240   0.791   1.531   2.104   2.312   2.104
   1.531   0.791   0.240   0.189   0.599   1.038   1.038   0.555   0.044   0.047
   0.689   1.584   2.204   2.294   1.996   1.636   1.483   1.636   1.996   2.294
   2.204   1.584   0.689   0.047   0.044   0.555   1.038   1.038   0.599   0.189
   0.240   0.791   1.531   2.104   2.312   2.104   1.531   0.791   0.240   0.189
   0.599   1.038   1.038   0.555   0.044   0.047   0.689   1.584   2.204   2.294
   1.996   1.636
   2.223   2.377   2.726   2.963   2.720   1.853   0.671  -0.202  -0.308   0.225
   0.782   0.825   0.363  -0.109  -0.121   0.383   1.088   1.636   1.833   1.636
   1.088   0.383  -0.121  -0.109   0.363   0.825   0.782   0.225  -0.308  -0.202
   0.671   1.853   2.720   2.963   2.726   2.377   2.223   2.377   2.726   2.963
   2.720   1.853   0.671  -0.202  -0.308   0.225   0.782   0.825   0.363  -0.109
  -0.121   0.383   1.088   1.636   1.833   1.636   1.088   0.383  -0.121  -0.109
   0.363   0.825   0.782   0.225  -0.308  -0.202   0.671   1.853   2.720   2.963
   2.726   2.377
TEXTURE_INDEX=   2.1377
ERR_CF 220         1072     468   58.48   24.86
ERR_CF 200         1080     366   44.27   23.16
ERR_CF 111         1056     194  397.55   34.28
