TEXEVAL                                                                         
Analysis started on 13-Nov-19 16:02:39                                          
 LMAX=14LFMAX= 3 CUBIC ANORTHIC
 220      5.00 5.00
 200      5.00 5.00
 111      5.00 5.00
 220       5.00   72    0 5.00   15    0
   1.968   1.968   1.968   1.968   1.968   1.968   1.968   1.968   1.968   1.968
   1.968   1.968   1.968   1.968   1.968   1.968   1.968   1.968   1.968   1.968
   1.968   1.968   1.968   1.968   1.968   1.968   1.968   1.968   1.968   1.968
   1.968   1.968   1.968   1.968   1.968   1.968   1.968   1.968   1.968   1.968
   1.968   1.968   1.968   1.968   1.968   1.968   1.968   1.968   1.968   1.968
   1.968   1.968   1.968   1.968   1.968   1.968   1.968   1.968   1.968   1.968
   1.968   1.968   1.968   1.968   1.968   1.968   1.968   1.968   1.968   1.968
   1.968   1.968
   1.774   1.515   1.438   1.588   1.715   2.082   1.900   1.586   2.022   1.458
   1.993   1.591   1.779   1.907   1.914   1.998   2.030   1.801   1.677   1.606
   1.565   1.452   1.664   1.624   1.602   1.772   1.697   1.660   1.388   1.635
   1.308   1.606   1.745   1.396   1.809   1.521   1.715   1.593   1.540   1.662
   1.652   1.888   1.768   1.340   2.016   1.686   1.872   1.861   1.559   1.823
   1.903   1.718   1.976   1.812   2.237   1.926   1.832   1.884   1.802   1.712
   1.783   1.850   1.847   1.900   1.448   1.994   1.722   1.674   2.087   2.013
   1.965   2.092
   1.330   1.524   1.378   1.693   1.682   1.788   1.765   1.397   1.651   1.485
   1.803   1.816   1.614   1.630   1.805   1.638   1.776   1.652   1.836   1.666
   1.393   1.376   1.326   1.549   1.449   1.548   1.455   1.321   1.271   1.582
   1.283   1.400   1.649   1.517   1.670   1.345   1.573   1.693   1.685   1.704
   1.470   1.800   1.547   1.194   1.751   1.855   1.636   1.759   1.569   1.635
   2.002   1.592   1.682   1.671   2.001   1.724   1.738   1.857   1.615   1.625
   1.666   1.710   1.470   1.609   1.354   1.783   1.720   1.600   1.519   1.676
   1.153   1.690
   1.334   1.536   1.463   1.577   1.502   1.407   1.350   1.572   1.287   1.516
   1.747   1.748   1.506   1.563   1.860   1.591   1.452   1.584   1.389   1.552
   1.434   1.295   1.169   1.432   1.275   1.078   1.087   1.182   1.352   1.372
   1.164   1.297   1.318   1.608   1.366   1.589   1.400   1.589   1.689   1.876
   1.477   1.720   1.493   1.193   1.660   1.852   1.269   1.600   1.323   1.731
   1.908   1.404   1.609   1.794   1.459   1.701   1.849   1.654   1.631   1.479
   1.570   1.634   1.441   1.769   1.685   1.496   1.722   1.429   1.481   1.194
   0.962   1.529
   1.260   1.372   1.467   1.387   1.256   1.148   1.256   1.352   1.052   1.148
   1.400   1.409   1.396   1.749   1.684   1.719   1.511   1.730   1.432   1.563
   1.437   1.273   1.164   0.934   1.086   0.695   0.820   1.233   1.267   1.225
   1.049   1.301   1.125   1.636   1.082   1.523   1.369   1.271   1.564   1.657
   1.498   1.434   1.407   1.101   1.612   1.305   1.115   1.294   1.041   1.410
   1.622   1.478   1.618   1.769   1.466   1.893   1.677   1.553   1.841   1.358
   1.467   1.492   1.462   1.394   1.409   1.285   1.766   1.211   1.502   1.166
   1.137   1.363
   1.534   1.260   1.226   1.358   0.968   1.154   1.170   0.762   0.971   0.879
   0.774   1.231   1.497   1.490   1.390   1.744   1.603   1.687   1.740   1.637
   1.608   1.410   1.436   0.862   0.954   0.621   0.665   1.011   0.802   0.919
   0.954   1.036   1.071   1.300   1.043   1.674   1.253   1.236   1.783   1.417
   1.537   1.206   1.288   0.803   0.995   0.965   0.996   1.101   1.226   0.944
   1.274   1.322   1.413   1.480   1.899   1.609   1.428   1.555   1.647   1.228
   1.171   1.119   1.523   1.010   1.128   0.996   1.643   0.982   1.483   1.383
   1.412   1.276
   1.418   1.324   0.896   1.367   0.727   1.160   0.626   0.501   0.667   0.732
   0.397   0.923   1.200   1.114   1.103   1.225   1.648   1.239   1.827   1.495
   1.753   1.326   1.309   0.923   0.713   0.515   0.629   0.463   0.403   0.503
   0.768   0.549   0.699   0.882   1.323   2.323   1.332   1.457   1.898   1.228
   1.386   1.007   1.253   0.656   0.414   0.857   0.536   1.013   0.903   0.672
   0.977   1.231   1.065   0.909   1.742   1.702   1.326   1.353   1.239   1.073
   0.809   0.670   1.192   0.906   0.833   0.438   0.911   0.871   1.356   1.070
   1.470   1.397
   1.231   1.555   0.898   1.292   0.806   1.052   0.433   0.536   0.272   0.459
   0.388   0.898   0.594   1.002   0.937   1.115   1.564   1.356   1.999   1.604
   1.267   1.190   1.112   0.821   0.627   0.536   0.651   0.332   0.420   0.233
   0.766   0.402   0.444   0.878   1.355   1.938   1.466   1.841   1.738   1.312
   1.203   0.956   1.021   0.730   0.503   0.614   0.424   0.771   0.446   0.424
   0.541   1.173   0.814   1.230   1.656   1.884   1.549   1.252   0.917   0.863
   0.726   0.628   0.785   0.624   0.410   0.266   0.295   0.699   0.926   0.822
   1.281   1.583
   1.442   1.497   1.032   1.251   1.140   0.952   0.332   0.523   0.444   0.532
   0.543   0.889   0.815   0.829   0.997   1.295   1.382   1.597   2.198   1.785
   1.112   1.255   0.964   0.826   0.459   0.595   0.643   0.599   0.639   0.381
   0.813   0.742   0.870   1.108   1.307   1.605   1.550   1.804   1.586   1.705
   1.283   0.849   0.941   0.626   0.810   0.790   0.635   0.918   0.456   0.467
   0.675   0.845   1.265   1.839   2.031   1.836   1.700   1.642   0.881   0.666
   0.702   0.558   0.974   0.463   0.675   0.360   0.145   0.400   0.818   1.188
   1.527   1.512
   1.301   1.573   1.198   1.170   1.247   0.812   0.667   0.561   0.888   0.669
   0.651   1.144   0.962   1.232   1.104   1.342   1.419   1.604   2.195   1.712
   1.377   1.342   1.031   0.824   0.745   0.603   1.007   0.984   0.688   0.627
   1.079   0.771   0.879   0.909   1.205   1.445   1.735   1.415   1.800   1.446
   1.212   0.847   0.891   0.763   1.085   0.967   0.545   0.660   0.663   0.704
   0.961   0.971   1.718   1.628   2.086   1.576   1.509   1.897   1.008   0.942
   0.681   0.330   0.814   0.650   0.961   0.952   0.412   0.567   0.925   1.177
   1.327   0.837
   1.188   1.559   1.462   1.019   1.343   0.716   0.834   0.546   0.864   0.413
   0.627   1.256   0.737   1.345   0.901   1.204   1.344   1.543   1.677   1.705
   1.410   1.167   1.204   0.841   0.864   0.553   0.982   0.827   0.936   0.774
   1.425   0.774   1.010   0.745   1.262   1.483   1.455   1.749   1.802   1.365
   0.731   0.775   0.479   0.908   1.262   0.664   0.449   0.043   0.797   0.664
   0.819   1.329   1.293   1.617   1.699   1.432   1.499   1.315   0.901   1.004
   0.693   0.338   0.700   0.708   0.856   0.924   0.479   0.834   1.136   1.114
   1.025   0.671
   1.040   1.430   1.450   1.290   1.224   0.745   0.429   0.589   0.925   0.425
   0.835   0.794   0.720   1.065   1.143   1.102   1.032   1.232   0.978   1.860
   1.159   1.245   1.192   1.020   0.745   0.897   0.745   0.889   1.475   0.802
   1.187   1.028   1.323   1.299   1.249   1.290   1.085   1.494   1.208   1.245
   0.852   0.971   0.507   1.180   1.565   0.950   0.700   0.622   1.036   0.363
   0.773   1.196   1.237   1.442   1.302   1.766   1.622   0.839   1.007   0.855
   1.098   0.815   0.966   0.527   0.991   0.733   0.417   1.073   1.348   1.384
   1.384   1.405
   0.811   1.302   0.803   1.931   1.103   1.745   1.137   0.532   1.050   0.675
   0.784   1.026   0.792   1.005   1.872   0.829   0.999   1.031   1.142   1.379
   1.031   1.769   1.679   1.076   0.869   1.270   1.278   1.050   1.289   0.487
   0.986   1.121   1.355   2.209   1.530   1.057   1.089   0.734   0.837   1.479
   1.400   1.970   0.837   1.405   1.087   1.185   0.707   0.713   0.933   0.832
   0.766   1.031   1.023   1.633   1.212   1.703   1.230   1.421   1.620   0.927
   1.302   1.342   0.986   0.747   0.829   1.705   0.338   0.991   1.432   1.490
   1.840   1.631
   1.009   1.406   0.256   1.767   1.671   1.794   1.354   0.775   0.770   0.489
   0.595   1.359   0.479   1.215   1.486   0.892   1.168   0.664   1.030   0.828
   0.961   1.131   1.428   0.537   1.067   1.019   1.030   1.067   1.274   0.330
   1.184   0.664   1.120   1.778   1.592   0.654   1.168   0.919   1.348   1.545
   0.898   1.868   1.571   0.595   0.833   0.696   0.653   0.701   0.728   1.300
   0.489   1.332   0.579   1.651   1.777   1.136   0.993   1.857   1.815   1.200
   1.629   0.914   1.109   0.903   1.114   1.693   0.568   1.305   1.285   1.862
   1.322   1.390
   1.138   0.991   0.433   1.692   1.601   0.989   0.564   0.953   1.118   0.526
   0.350   0.953   0.306   1.563   1.100   0.861   1.156   0.156   0.415   0.748
   0.424   0.156   0.915   0.306   0.953   0.638   0.692   0.861   0.824   0.201
   0.768   0.988   1.487   1.007   0.647   0.306   0.694   0.620   0.869   0.424
   0.618   0.879   1.398   0.029   1.138   0.397   0.748   0.879   0.638   1.415
   0.711   1.101   0.276   1.600   1.240   0.453   1.156   1.194   0.991   1.027
   1.398   0.692   0.879   1.100   0.869   0.879   0.527   1.896   1.063   1.491
   0.600   0.917
 200       5.00   72    0 5.00   15    0
   1.359   1.359   1.359   1.359   1.359   1.359   1.359   1.359   1.359   1.359
   1.359   1.359   1.359   1.359   1.359   1.359   1.359   1.359   1.359   1.359
   1.359   1.359   1.359   1.359   1.359   1.359   1.359   1.359   1.359   1.359
   1.359   1.359   1.359   1.359   1.359   1.359   1.359   1.359   1.359   1.359
   1.359   1.359   1.359   1.359   1.359   1.359   1.359   1.359   1.359   1.359
   1.359   1.359   1.359   1.359   1.359   1.359   1.359   1.359   1.359   1.359
   1.359   1.359   1.359   1.359   1.359   1.359   1.359   1.359   1.359   1.359
   1.359   1.359
   1.033   1.215   1.133   1.002   1.102   1.025   0.999   1.306   0.922   1.288
   1.259   1.425   1.151   1.175   1.325   1.383   1.174   1.596   1.665   1.185
   1.289   1.236   1.363   1.326   1.449   1.252   1.290   1.152   1.073   0.952
   1.307   1.179   1.363   1.256   1.168   1.165   1.254   1.438   1.523   1.215
   1.248   1.536   1.691   1.401   1.276   1.406   1.032   1.312   1.519   1.365
   1.291   1.549   1.396   1.352   1.236   1.349   1.290   1.849   1.303   1.312
   1.050   1.181   1.364   1.278   1.102   1.124   1.607   1.252   1.149   1.516
   1.487   1.210
   1.021   1.231   1.278   1.227   1.260   1.162   1.131   1.153   1.034   1.255
   1.237   1.491   1.164   1.183   1.545   1.549   1.232   1.360   1.593   1.382
   1.587   1.327   1.361   1.365   1.693   1.304   1.449   1.300   1.177   1.300
   1.456   1.399   1.327   1.339   1.328   1.628   1.529   1.692   1.330   1.609
   1.379   1.528   1.530   1.336   1.107   1.251   1.223   1.400   1.259   1.250
   1.401   1.292   1.220   1.490   1.486   1.307   1.541   1.400   1.122   1.125
   1.269   1.353   1.621   1.217   1.111   1.321   1.610   1.542   1.058   1.596
   1.400   1.210
   1.459   1.465   1.359   1.463   1.391   1.150   1.272   1.014   1.057   1.123
   1.070   1.429   1.283   1.379   1.866   1.726   1.587   1.874   1.920   1.837
   1.785   1.477   1.657   1.460   1.750   1.318   1.495   1.384   1.399   1.556
   1.592   1.612   1.474   1.609   1.962   1.975   1.809   1.637   1.748   1.941
   1.616   1.500   1.343   1.330   1.296   1.122   1.165   1.352   1.166   1.100
   1.466   1.311   1.230   1.752   1.651   1.394   1.596   1.399   1.109   1.143
   1.446   1.392   1.424   1.186   1.379   1.404   1.337   1.385   1.529   1.471
   1.442   1.349
   2.015   1.575   1.560   1.375   1.571   1.352   1.398   1.111   1.121   1.069
   1.094   1.207   1.429   1.415   1.563   1.846   1.941   1.931   2.091   2.267
   1.867   1.847   1.949   1.284   1.653   1.545   1.214   1.363   1.064   1.663
   1.371   1.539   1.571   1.739   2.102   1.787   2.132   1.716   2.235   1.940
   2.083   1.694   1.576   1.641   1.249   1.070   1.226   1.265   1.186   1.180
   1.431   1.445   1.659   2.017   1.797   1.532   1.735   1.791   1.452   1.365
   1.444   1.342   1.236   1.240   1.370   1.237   1.596   1.276   1.785   1.507
   1.597   1.547
   2.058   2.308   2.184   1.809   1.749   1.529   1.236   1.175   1.066   0.980
   1.273   1.000   1.707   1.380   1.417   1.518   1.584   1.492   1.639   2.161
   2.174   1.961   1.600   1.506   1.353   1.409   1.173   1.115   0.870   1.347
   1.091   1.455   1.554   1.737   1.659   1.964   1.973   1.846   1.977   1.780
   1.830   1.834   1.926   1.256   1.096   0.956   1.045   1.130   1.311   0.987
   1.503   1.629   1.921   1.680   2.432   2.129   1.778   1.932   1.679   1.377
   1.632   1.338   1.202   1.277   1.339   1.430   1.547   1.231   1.537   1.677
   2.028   1.424
   2.004   2.030   2.289   1.941   1.561   1.107   0.867   0.919   1.128   0.760
   0.967   0.968   1.537   1.184   1.482   1.174   1.045   1.434   1.517   1.559
   2.054   1.344   1.170   1.548   0.923   1.100   1.145   0.830   0.756   0.851
   0.971   1.495   1.430   1.412   1.746   1.731   1.401   1.555   1.541   1.529
   1.066   1.450   1.595   0.885   1.127   1.039   0.769   1.192   1.104   0.989
   1.358   1.572   1.453   1.466   2.312   2.178   1.407   1.606   1.633   1.125
   1.441   1.041   0.950   1.246   1.231   1.477   1.228   1.298   1.143   1.852
   1.815   1.258
   1.739   1.008   1.490   1.165   0.918   0.740   0.965   0.644   1.089   0.555
   0.607   0.889   0.808   0.620   1.138   0.986   0.821   1.130   1.183   0.984
   1.108   0.779   0.907   1.045   0.740   0.727   0.821   0.673   0.672   0.764
   0.737   1.011   0.736   0.746   1.299   0.858   0.867   0.878   1.098   1.038
   0.857   0.782   1.091   0.846   0.811   0.930   0.847   0.884   0.715   0.956
   1.098   1.041   1.002   1.396   1.485   1.573   1.259   1.472   1.429   0.824
   0.831   0.639   0.781   1.038   0.868   1.164   1.027   1.002   0.893   1.274
   1.214   0.917
   1.011   0.689   1.028   0.679   0.419   0.648   0.824   0.742   0.687   0.598
   0.569   0.635   0.416   0.435   0.594   0.871   0.618   0.586   0.596   0.636
   0.604   0.610   0.600   0.630   0.522   0.396   0.635   0.648   0.637   0.790
   0.574   0.582   0.382   0.388   0.411   0.626   0.496   0.685   0.804   0.467
   0.588   0.459   0.508   0.400   0.712   0.633   0.873   0.386   0.601   0.724
   0.810   0.646   0.816   1.070   0.901   0.919   1.032   1.183   0.927   0.566
   0.532   0.532   0.663   0.787   0.787   0.735   0.732   0.635   0.702   0.496
   0.752   0.812
   0.528   0.284   0.644   0.566   0.292   0.674   0.412   0.698   0.740   0.748
   0.566   0.508   0.379   0.433   0.488   0.549   0.782   0.437   0.524   0.404
   0.782   0.753   0.354   0.350   0.471   0.512   0.653   0.798   0.857   0.856
   0.807   0.607   0.242   0.234   0.305   0.416   0.404   0.765   0.670   0.222
   0.205   0.562   0.450   0.550   1.035   0.678   0.732   0.467   0.807   0.624
   0.558   0.366   0.695   0.914   0.649   0.520   0.557   0.665   0.612   0.362
   0.641   0.558   0.715   0.653   0.840   0.711   0.861   0.632   0.616   0.425
   0.479   0.615
   0.449   0.460   0.314   0.600   0.215   0.668   0.470   0.392   0.777   1.048
   0.866   0.715   0.632   0.491   0.704   0.543   0.745   0.386   0.402   0.381
   0.688   0.605   0.486   0.413   0.569   1.002   0.626   1.001   0.996   0.756
   1.178   0.511   0.288   0.382   0.512   0.408   0.355   0.610   0.469   0.116
   0.293   0.553   0.449   0.745   1.032   0.855   0.683   1.022   0.965   0.720
   0.746   0.408   0.589   0.662   0.392   0.360   0.298   0.553   0.558   0.548
   0.699   0.772   0.714   0.699   0.912   0.772   0.568   0.605   0.892   0.272
   0.371   0.361
   0.231   0.573   0.365   0.579   0.574   0.765   0.840   0.753   0.950   1.614
   0.985   0.927   1.301   0.553   1.153   1.020   0.602   0.376   0.455   0.295
   0.533   0.269   0.559   0.443   0.655   1.014   0.915   1.547   1.034   0.910
   1.153   0.576   0.762   0.750   0.713   0.426   0.178   0.359   0.249   0.400
   0.660   0.362   0.600   0.634   0.881   0.669   0.771   1.110   0.959   0.753
   0.715   0.649   0.678   0.507   0.275   0.765   0.100   0.544   0.539   0.855
   0.840   0.837   0.910   1.327   0.907   1.275   0.860   0.629   0.883   0.324
   0.243   0.327
   0.141   0.328   0.482   0.321   0.615   0.674   0.801   0.974   1.258   1.300
   0.660   0.744   1.415   0.823   1.165   0.967   0.719   0.250   0.314   0.271
   0.623   0.271   0.778   0.521   0.951   0.649   1.122   1.325   0.942   0.781
   0.956   0.796   1.226   0.776   0.751   0.194   0.335   0.219   0.226   0.674
   0.442   0.053   0.962   0.944   0.969   0.926   0.706   0.783   0.737   0.649
   0.701   0.314   0.924   0.392   0.264   0.922   0.000   0.533   0.655   0.776
   1.033   0.796   1.399   1.608   0.815   1.261   1.365   1.144   0.610   0.662
   0.271   0.264
   0.141   0.255   0.807   0.366   0.653   1.007   0.957   0.885   1.182   0.923
   0.631   1.294   1.089   1.067   0.885   0.796   0.934   0.213   0.576   0.642
   0.686   0.343   0.989   0.896   0.967   0.796   1.050   0.885   0.984   0.393
   0.713   0.713   1.431   0.946   0.487   0.415   0.647   0.476   0.316   0.559
   0.476   0.786   0.901   0.978   1.188   1.304   0.360   0.636   0.658   0.796
   0.862   0.064   0.962   0.454   0.205   0.321   0.163   0.929   0.934   0.647
   1.039   1.161   1.160   1.182   1.034   0.686   1.116   1.409   0.957   0.824
   0.592   0.354
   0.000   0.322   0.720   0.471   0.980   1.373   1.064   0.850   0.670   0.980
   0.815   1.492   1.094   0.930   1.109   0.735   1.354   0.422   0.512   0.800
   0.312   0.696   0.995   1.418   0.362   0.930   0.640   0.512   0.611   0.422
   0.860   0.601   1.179   1.338   0.322   1.040   0.312   0.880   0.357   0.263
   0.621   1.228   1.010   0.815   0.675   0.869   0.207   0.406   0.895   1.059
   0.621   0.467   0.915   0.391   0.064   0.207   0.307   0.711   0.770   0.651
   1.498   1.114   0.960   0.670   1.583   0.780   1.174   1.533   1.583   0.426
   0.945   0.551
 111       5.00   72    0 5.00   15    0
   0.395   0.395   0.395   0.395   0.395   0.395   0.395   0.395   0.395   0.395
   0.395   0.395   0.395   0.395   0.395   0.395   0.395   0.395   0.395   0.395
   0.395   0.395   0.395   0.395   0.395   0.395   0.395   0.395   0.395   0.395
   0.395   0.395   0.395   0.395   0.395   0.395   0.395   0.395   0.395   0.395
   0.395   0.395   0.395   0.395   0.395   0.395   0.395   0.395   0.395   0.395
   0.395   0.395   0.395   0.395   0.395   0.395   0.395   0.395   0.395   0.395
   0.395   0.395   0.395   0.395   0.395   0.395   0.395   0.395   0.395   0.395
   0.395   0.395
   0.449   0.279   0.314   0.373   0.343   0.553   0.570   0.299   0.504   0.294
   0.383   0.479   0.367   0.476   0.380   0.686   0.446   0.473   0.576   0.376
   0.356   0.471   0.506   0.449   0.470   0.532   0.502   0.503   0.644   0.495
   0.568   0.502   0.413   0.676   0.577   0.632   0.479   0.717   0.594   0.558
   0.395   0.548   0.611   0.552   0.395   0.605   0.556   0.661   0.507   0.412
   0.393   0.291   0.436   0.521   0.384   0.537   0.336   0.509   0.446   0.361
   0.352   0.462   0.447   0.463   0.568   0.422   0.310   0.308   0.576   0.458
   0.556   0.337
   0.638   0.481   0.526   0.561   0.359   0.572   0.733   0.474   0.683   0.571
   0.412   0.634   0.510   0.581   0.585   0.721   0.711   0.616   0.636   0.504
   0.631   0.540   0.610   0.572   0.495   0.700   0.632   0.639   0.791   0.414
   0.718   0.668   0.664   0.972   0.659   0.744   0.703   0.667   0.702   0.649
   0.496   0.373   0.912   0.624   0.474   0.890   0.693   0.659   0.558   0.529
   0.531   0.526   0.694   0.631   0.591   0.578   0.407   0.700   0.465   0.390
   0.622   0.584   0.373   0.617   0.539   0.420   0.470   0.520   0.420   0.402
   0.643   0.439
   0.625   0.759   0.861   0.789   0.729   0.636   0.931   0.689   0.675   0.707
   0.539   0.928   0.695   0.775   0.733   0.476   0.931   0.645   0.848   0.926
   0.719   0.705   0.721   0.851   0.626   0.841   0.739   0.811   0.915   0.680
   0.772   0.822   0.808   1.021   0.775   0.925   0.930   0.799   0.874   0.688
   0.783   0.630   1.103   0.780   0.828   0.753   0.780   0.567   0.809   0.615
   0.978   0.729   0.864   0.862   0.776   0.753   0.604   0.678   0.617   0.539
   0.694   0.605   0.447   0.676   0.617   0.511   0.623   0.895   0.634   0.620
   0.772   0.583
   0.805   0.940   1.083   0.906   0.899   0.960   1.095   0.902   0.846   0.800
   0.875   1.065   0.892   0.949   0.815   0.628   1.063   0.605   1.009   1.025
   0.839   0.799   0.899   1.138   0.962   1.093   1.022   1.189   1.167   0.881
   1.012   1.126   0.907   1.064   1.077   0.904   1.080   1.080   1.080   0.867
   0.895   0.939   1.094   1.170   1.014   0.918   0.903   0.591   0.949   0.847
   1.115   0.923   0.887   0.974   0.870   0.931   0.811   0.895   0.866   0.806
   0.740   0.622   0.927   0.793   0.783   0.781   0.844   1.114   0.914   0.773
   1.072   0.921
   1.216   1.097   1.343   1.294   1.135   1.188   1.264   1.086   1.505   1.212
   1.203   1.222   1.291   1.068   0.912   1.027   0.984   0.759   0.962   0.992
   1.123   1.207   1.274   1.428   1.359   1.638   1.585   1.961   1.685   1.211
   1.511   1.450   1.237   1.293   1.327   1.142   1.210   1.141   1.251   0.999
   1.103   1.100   1.473   1.516   1.183   1.442   1.234   1.178   1.329   1.306
   1.089   1.325   1.121   0.951   1.213   1.062   0.957   1.271   1.011   0.906
   0.923   0.906   1.216   1.175   1.174   1.323   1.315   1.189   1.101   0.932
   1.356   1.236
   1.421   1.192   1.568   1.640   1.512   1.190   1.477   1.464   1.924   1.833
   1.518   1.508   1.440   1.377   1.265   1.298   1.016   1.109   1.175   1.149
   1.285   1.430   1.606   1.625   1.697   1.948   1.951   2.362   2.006   1.738
   1.882   1.455   1.799   1.564   1.221   1.573   1.257   1.451   1.259   1.131
   1.265   1.419   1.585   1.536   1.586   1.934   1.569   1.709   1.936   1.710
   1.345   1.532   1.313   1.089   1.393   1.408   1.295   1.275   1.044   1.155
   1.354   1.405   1.419   1.958   1.811   1.810   1.826   1.373   1.237   1.447
   1.467   1.404
   1.574   1.457   1.744   1.632   1.384   1.304   1.748   1.765   2.026   2.095
   1.726   1.764   1.544   1.508   1.549   1.432   1.082   1.296   1.397   1.427
   1.305   1.084   1.431   1.549   1.745   2.079   1.928   2.283   1.996   2.068
   1.827   1.383   1.774   1.739   1.136   1.303   1.164   1.428   1.340   1.283
   1.155   1.601   1.530   1.522   1.873   2.197   1.795   1.955   2.220   1.912
   1.490   1.561   1.426   1.282   1.305   1.676   1.591   1.358   1.221   1.498
   1.724   1.942   1.599   2.084   2.107   1.912   1.828   1.644   1.437   1.676
   1.586   1.542
   1.391   1.491   1.885   1.341   1.204   1.347   1.797   1.630   1.827   1.895
   1.521   1.608   1.511   1.126   1.286   1.332   1.248   1.557   1.162   1.446
   1.159   0.754   1.385   1.176   1.408   1.892   1.777   1.851   1.797   1.954
   1.674   1.099   1.314   1.182   1.088   1.024   1.058   1.165   1.191   1.140
   0.838   1.274   1.497   1.347   1.714   1.703   1.541   1.915   2.066   1.820
   1.282   1.399   1.356   1.261   1.244   1.618   1.474   1.417   1.362   1.342
   1.635   1.700   1.743   1.807   2.229   1.967   1.313   1.546   1.469   1.409
   1.443   1.428
   1.265   1.402   1.544   1.102   1.152   1.051   1.637   1.501   1.479   1.867
   1.357   1.350   1.178   0.743   0.982   0.757   1.204   1.313   0.870   1.196
   0.754   0.665   1.089   1.042   1.026   1.311   1.282   1.326   1.580   1.162
   1.269   0.829   1.124   0.679   0.893   0.833   0.908   0.872   1.000   1.017
   0.707   0.884   1.175   1.082   1.272   1.284   1.347   1.620   1.462   1.423
   0.975   1.175   0.966   1.044   1.227   1.236   1.133   1.174   1.108   0.990
   1.268   1.232   1.669   1.625   1.783   1.558   1.198   1.172   1.184   1.038
   1.203   1.257
   1.149   1.163   0.926   0.999   0.948   0.886   1.242   1.521   1.383   1.431
   1.188   1.115   1.149   0.652   0.641   0.412   0.740   0.723   0.813   0.954
   0.350   0.787   0.728   0.937   1.053   1.143   1.056   1.262   1.301   0.770
   1.075   0.762   1.033   0.638   0.762   0.638   0.680   0.635   0.813   0.889
   1.008   0.692   0.999   1.070   1.047   1.202   1.219   1.451   1.121   1.013
   0.765   0.943   0.934   0.929   0.951   0.988   1.058   0.929   0.717   1.008
   1.092   0.844   1.104   1.118   1.236   1.129   1.194   1.030   0.971   0.765
   0.827   1.087
   0.850   0.793   0.892   0.712   0.596   0.945   0.793   1.135   1.241   0.924
   1.005   1.167   1.530   0.860   0.659   0.666   0.508   0.645   0.543   0.462
   0.279   0.832   0.656   0.751   1.188   1.167   0.970   1.304   1.322   0.857
   1.311   0.673   1.019   0.547   0.832   0.603   0.536   0.571   0.698   0.649
   0.903   0.480   0.853   1.262   1.188   0.966   0.973   1.171   1.132   1.008
   0.878   0.850   1.012   0.614   0.691   0.927   0.896   0.645   0.649   1.030
   0.860   0.430   0.902   0.843   1.625   0.871   1.170   0.829   0.666   0.670
   0.515   0.966
   0.846   0.887   0.809   0.612   0.657   0.988   0.931   0.838   0.814   1.042
   0.850   1.385   1.535   1.036   0.815   0.891   0.310   0.540   0.515   0.329
   0.466   0.451   0.812   0.846   1.076   1.222   0.989   1.253   1.434   1.215
   1.244   0.918   0.828   0.648   0.654   0.514   0.395   0.719   0.704   0.780
   0.536   0.595   0.775   1.346   1.150   0.953   0.832   0.966   1.054   0.960
   0.987   0.872   0.863   0.315   0.851   0.615   0.767   0.559   0.673   0.851
   0.865   0.875   0.988   1.215   1.565   0.674   1.244   0.718   0.572   0.567
   0.652   0.779
   0.426   0.770   0.509   0.631   0.931   0.775   1.259   1.287   0.948   0.864
   0.898   1.076   1.170   1.059   0.620   0.953   0.448   0.375   0.842   0.626
   0.748   0.475   0.914   0.965   1.109   1.193   1.059   0.864   1.053   1.103
   1.293   1.365   1.043   0.887   0.414   0.642   0.409   0.586   0.542   0.625
   0.520   0.636   0.820   1.109   1.237   0.803   0.815   0.920   1.282   1.143
   0.853   0.698   0.820   0.475   0.681   0.587   0.814   0.742   0.892   1.043
   1.087   1.270   0.803   1.270   0.926   0.842   1.126   0.553   0.664   0.726
   0.631   0.614
   0.403   0.449   0.701   0.794   1.111   0.515   1.156   1.071   0.932   0.440
   0.793   0.569   1.045   0.933   0.814   0.625   0.654   0.553   0.662   0.691
   0.971   0.906   1.177   1.054   0.811   0.895   1.195   0.589   0.532   0.673
   0.988   1.127   1.408   1.298   0.636   0.887   0.384   0.497   0.721   0.805
   0.645   0.599   0.737   0.812   1.118   0.655   0.859   0.719   0.819   1.090
   0.644   0.720   1.073   0.608   0.711   0.906   0.822   0.980   1.325   1.259
   0.737   1.175   0.430   0.840   0.561   0.483   1.082   0.777   0.738   0.635
   0.496   0.748
  4  0      9.5224342E-01  0.0000000E+00
  4  1     -5.0810423E-03  4.4380094E-02
  4  2     -2.6226533E-02  2.2590858E-02
  4  3     -5.7500600E-02  5.7764113E-02
  4  4     -8.1428244E-02  7.4809550E-02
  6  0      1.0569477E+00  0.0000000E+00
  6  1      1.4778321E-01  1.1214250E-01
  6  2     -7.8336839E-02 -5.7702928E-02
  6  3     -1.4714484E-01  8.8976211E-02
  6  4      7.0264733E-01 -1.2125688E-01
  6  5      6.1712867E-02  3.6838890E-02
  6  6     -6.7745915E-02 -2.6052067E-02
  8  0     -2.2628477E-01  0.0000000E+00
  8  1     -4.5442943E-02 -4.2948936E-02
  8  2      4.0876927E-02  5.3511937E-02
  8  3     -5.7479093E-02  9.6966942E-02
  8  4      5.6421311E-01 -7.8573067E-02
  8  5      6.8759435E-02  4.5674493E-02
  8  6     -8.3481363E-02 -2.2539259E-02
  8  7     -4.5278297E-02 -9.4764681E-02
  8  8     -2.0516765E-01  9.3030012E-02
 10  0      5.6481148E-01  0.0000000E+00
 10  1      9.2939505E-02  2.9762939E-02
 10  2      6.0697489E-02 -5.0300164E-02
 10  3      6.6679462E-02 -5.6895019E-02
 10  4     -2.7954979E-01  7.2523253E-02
 10  5     -4.4361970E-02 -4.9532578E-02
 10  6      6.3400786E-03 -2.2089128E-02
 10  7      9.5632559E-03 -9.6300433E-03
 10  8      1.6077235E-02 -5.7617838E-02
 10  9      8.8163971E-02  2.3686970E-02
 10 10      1.4427574E-01 -1.1129384E-01
 12  0      3.8695589E-01  2.9440219E-01  0.0000000E+00  0.0000000E+00
 12  1      9.0251631E-02  7.4479579E-02  2.8084520E-02  6.7103189E-02
 12  2      2.3454956E-02 -6.9356005E-02  2.6671166E-02 -7.6643868E-02
 12  3     -1.1613629E-02 -3.0508997E-02  4.8433777E-02  4.4243578E-02
 12  4      1.6562687E-01  1.1842514E-01  2.6916260E-03  2.3297141E-02
 12  5     -6.7170299E-03  6.0496881E-02  1.3021223E-02  2.8776246E-02
 12  6     -6.0327666E-02 -5.3685562E-03  6.1895610E-02  1.6794321E-02
 12  7      3.9091848E-03 -7.3284417E-02 -1.7923068E-02  5.9353710E-02
 12  8      3.8799720E-02  4.8723404E-01 -7.0901380E-02 -1.9197823E-01
 12  9      3.8524016E-02 -5.8228171E-02 -5.6930296E-03  2.9076569E-02
 12 10      9.4498828E-02 -7.1269504E-02 -1.1058178E-01  1.0068285E-01
 12 11     -3.9663397E-02  7.6217829E-02 -1.4821116E-02  4.9545625E-02
 12 12     -1.4765519E-01 -1.7889160E-01  5.0143820E-02 -8.4768245E-02
 14  0      1.3000011E-02  0.0000000E+00
 14  1      2.9232015E-02 -3.2153415E-02
 14  2      6.3100162E-02 -3.9296271E-02
 14  3     -1.6498030E-02 -4.8729850E-02
 14  4     -1.5534434E-01  1.1528770E-01
 14  5      6.4564081E-03 -7.2302449E-02
 14  6     -2.3559916E-02  8.7846645E-02
 14  7     -4.6946818E-02  9.2251791E-02
 14  8      5.4069274E-02 -1.3448497E-02
 14  9     -1.1555949E-01  2.6825350E-02
 14 10     -5.4654570E-02 -4.5362440E-03
 14 11     -3.3113029E-02  2.3707406E-02
 14 12     -1.6228806E-01  1.1470466E-01
 14 13     -8.4789330E-02  1.8824598E-02
 14 14      4.4907126E-03  1.7440910E-01
 220       5.00   72    0 5.00   18    0
   1.389   1.388   1.387   1.386   1.384   1.383   1.381   1.379   1.377   1.375
   1.372   1.369   1.366   1.363   1.360   1.356   1.353   1.350   1.346   1.343
   1.340   1.337   1.334   1.332   1.330   1.328   1.326   1.325   1.325   1.324
   1.325   1.325   1.326   1.327   1.329   1.331   1.333   1.336   1.338   1.341
   1.344   1.347   1.350   1.353   1.356   1.359   1.362   1.365   1.368   1.371
   1.373   1.376   1.378   1.380   1.381   1.383   1.384   1.386   1.387   1.388
   1.389   1.389   1.390   1.390   1.391   1.391   1.391   1.391   1.391   1.390
   1.390   1.389
   1.341   1.342   1.344   1.345   1.346   1.347   1.347   1.346   1.345   1.342
   1.338   1.333   1.326   1.317   1.307   1.295   1.282   1.268   1.254   1.240
   1.226   1.213   1.201   1.190   1.182   1.175   1.170   1.167   1.166   1.167
   1.169   1.173   1.179   1.185   1.193   1.201   1.210   1.220   1.230   1.240
   1.250   1.261   1.271   1.282   1.291   1.301   1.309   1.317   1.324   1.329
   1.334   1.339   1.342   1.344   1.346   1.347   1.348   1.348   1.347   1.347
   1.346   1.345   1.344   1.343   1.342   1.341   1.340   1.340   1.340   1.340
   1.340   1.341
   1.207   1.207   1.209   1.212   1.217   1.223   1.229   1.236   1.243   1.248
   1.252   1.252   1.249   1.242   1.231   1.215   1.195   1.171   1.144   1.116
   1.088   1.060   1.036   1.015   0.999   0.988   0.982   0.981   0.984   0.991
   1.000   1.010   1.022   1.035   1.048   1.060   1.073   1.085   1.098   1.111
   1.125   1.138   1.152   1.167   1.180   1.193   1.205   1.215   1.224   1.231
   1.237   1.242   1.245   1.247   1.248   1.249   1.248   1.247   1.244   1.241
   1.237   1.233   1.229   1.225   1.222   1.219   1.216   1.214   1.212   1.210
   1.208   1.207
   1.060   1.051   1.042   1.035   1.032   1.033   1.040   1.051   1.065   1.082
   1.100   1.117   1.132   1.141   1.145   1.140   1.126   1.102   1.069   1.029
   0.984   0.939   0.896   0.861   0.834   0.818   0.813   0.816   0.828   0.844
   0.864   0.886   0.908   0.929   0.947   0.962   0.973   0.981   0.986   0.990
   0.993   0.998   1.005   1.013   1.024   1.034   1.045   1.054   1.064   1.073
   1.082   1.092   1.102   1.112   1.121   1.128   1.132   1.132   1.128   1.122
   1.113   1.103   1.094   1.087   1.082   1.080   1.079   1.080   1.080   1.079
   1.075   1.069
   0.992   0.964   0.931   0.896   0.865   0.842   0.829   0.829   0.840   0.862
   0.892   0.929   0.970   1.012   1.052   1.083   1.099   1.096   1.070   1.023
   0.959   0.885   0.813   0.750   0.704   0.676   0.667   0.672   0.690   0.716
   0.748   0.786   0.828   0.870   0.908   0.939   0.956   0.959   0.948   0.927
   0.902   0.877   0.858   0.845   0.839   0.838   0.840   0.845   0.854   0.868
   0.889   0.918   0.952   0.988   1.021   1.046   1.059   1.058   1.046   1.024
   0.997   0.970   0.947   0.932   0.927   0.934   0.949   0.969   0.990   1.007
   1.014   1.009
   1.033   0.990   0.926   0.851   0.776   0.711   0.663   0.635   0.628   0.642
   0.674   0.723   0.789   0.869   0.958   1.045   1.116   1.156   1.153   1.103
   1.013   0.897   0.778   0.673   0.596   0.552   0.535   0.538   0.553   0.579
   0.616   0.670   0.743   0.830   0.920   0.997   1.046   1.056   1.026   0.965
   0.888   0.810   0.745   0.697   0.666   0.646   0.635   0.631   0.638   0.662
   0.708   0.775   0.855   0.938   1.009   1.056   1.071   1.055   1.012   0.952
   0.885   0.823   0.773   0.744   0.738   0.759   0.803   0.863   0.930   0.990
   1.033   1.048
   1.138   1.092   1.005   0.893   0.773   0.663   0.576   0.520   0.495   0.497
   0.524   0.574   0.650   0.755   0.886   1.032   1.168   1.264   1.293   1.242
   1.117   0.946   0.766   0.614   0.511   0.459   0.444   0.446   0.451   0.458
   0.481   0.539   0.644   0.793   0.963   1.120   1.226   1.256   1.205   1.091
   0.945   0.800   0.683   0.601   0.551   0.520   0.497   0.482   0.485   0.520
   0.599   0.719   0.864   1.005   1.115   1.171   1.165   1.104   1.005   0.889
   0.773   0.672   0.595   0.548   0.537   0.565   0.634   0.738   0.860   0.981
   1.079   1.134
   1.235   1.201   1.108   0.975   0.824   0.681   0.567   0.496   0.470   0.477
   0.506   0.552   0.619   0.722   0.868   1.050   1.240   1.390   1.454   1.404
   1.245   1.016   0.778   0.587   0.476   0.441   0.451   0.464   0.456   0.430
   0.417   0.458   0.581   0.786   1.037   1.274   1.437   1.484   1.409   1.238
   1.024   0.822   0.670   0.580   0.535   0.510   0.482   0.452   0.443   0.482
   0.592   0.768   0.979   1.174   1.308   1.348   1.291   1.160   0.992   0.823
   0.678   0.566   0.485   0.432   0.409   0.426   0.495   0.617   0.778   0.951
   1.102   1.202
   1.299   1.284   1.204   1.073   0.912   0.750   0.620   0.548   0.536   0.567
   0.615   0.661   0.710   0.786   0.915   1.100   1.315   1.505   1.602   1.563
   1.385   1.116   0.838   0.628   0.530   0.534   0.586   0.624   0.609   0.551
   0.496   0.509   0.632   0.861   1.151   1.425   1.607   1.650   1.548   1.338
   1.086   0.860   0.708   0.639   0.624   0.619   0.590   0.541   0.506   0.536
   0.664   0.882   1.143   1.374   1.509   1.514   1.393   1.190   0.965   0.772
   0.637   0.558   0.510   0.472   0.436   0.423   0.461   0.568   0.737   0.934
   1.115   1.243
   1.358   1.356   1.304   1.200   1.051   0.880   0.733   0.651   0.649   0.706
   0.778   0.833   0.868   0.911   1.001   1.159   1.367   1.571   1.696   1.683
   1.519   1.248   0.964   0.759   0.684   0.724   0.813   0.871   0.857   0.784
   0.714   0.715   0.829   1.044   1.305   1.539   1.682   1.697   1.585   1.381
   1.144   0.938   0.811   0.770   0.783   0.794   0.761   0.688   0.625   0.636
   0.765   1.000   1.280   1.520   1.644   1.617   1.453   1.209   0.960   0.772
   0.676   0.656   0.665   0.657   0.616   0.568   0.565   0.644   0.803   1.001
   1.180   1.302
   1.426   1.425   1.410   1.360   1.247   1.078   0.904   0.789   0.768   0.825
   0.909   0.976   1.012   1.038   1.091   1.199   1.362   1.544   1.681   1.708
   1.595   1.374   1.128   0.953   0.901   0.955   1.047   1.101   1.084   1.022
   0.977   1.005   1.119   1.289   1.459   1.581   1.633   1.615   1.534   1.402
   1.241   1.087   0.982   0.944   0.952   0.955   0.913   0.828   0.752   0.754
   0.873   1.094   1.352   1.566   1.671   1.640   1.486   1.257   1.025   0.858
   0.792   0.813   0.866   0.887   0.851   0.788   0.764   0.833   0.990   1.177
   1.326   1.404
   1.454   1.441   1.473   1.501   1.453   1.306   1.109   0.947   0.876   0.896
   0.965   1.040   1.096   1.134   1.165   1.210   1.288   1.402   1.519   1.584
   1.550   1.421   1.258   1.141   1.116   1.163   1.220   1.235   1.202   1.164
   1.175   1.257   1.382   1.490   1.532   1.507   1.455   1.422   1.421   1.418
   1.376   1.286   1.182   1.108   1.073   1.050   1.004   0.934   0.881   0.899
   1.007   1.181   1.367   1.514   1.590   1.584   1.496   1.343   1.165   1.019
   0.950   0.965   1.021   1.056   1.034   0.984   0.974   1.058   1.224   1.395
   1.492   1.494
   1.366   1.340   1.423   1.539   1.576   1.477   1.285   1.090   0.966   0.929
   0.961   1.037   1.129   1.205   1.231   1.205   1.166   1.171   1.237   1.323
   1.367   1.342   1.283   1.249   1.264   1.301   1.307   1.261   1.197   1.176
   1.240   1.373   1.501   1.541   1.460   1.302   1.169   1.149   1.250   1.392
   1.471   1.439   1.325   1.204   1.123   1.079   1.046   1.018   1.020   1.075
   1.173   1.276   1.349   1.390   1.417   1.443   1.450   1.408   1.311   1.190
   1.098   1.071   1.097   1.128   1.127   1.109   1.128   1.230   1.392   1.528
   1.556   1.473
   1.148   1.122   1.247   1.432   1.544   1.510   1.359   1.177   1.031   0.946
   0.932   0.998   1.126   1.249   1.281   1.189   1.034   0.926   0.932   1.021
   1.115   1.165   1.191   1.236   1.305   1.345   1.309   1.206   1.107   1.090
   1.182   1.330   1.435   1.411   1.244   1.011   0.846   0.853   1.031   1.270
   1.428   1.437   1.332   1.203   1.116   1.077   1.066   1.081   1.137   1.231
   1.319   1.345   1.295   1.218   1.183   1.224   1.308   1.369   1.359   1.280
   1.182   1.118   1.108   1.130   1.152   1.167   1.203   1.291   1.410   1.483
   1.441   1.294
   0.890   0.882   1.021   1.222   1.362   1.379   1.299   1.182   1.063   0.956
   0.896   0.932   1.072   1.228   1.271   1.140   0.913   0.741   0.715   0.800
   0.900   0.964   1.021   1.116   1.230   1.286   1.230   1.094   0.977   0.961
   1.051   1.173   1.229   1.157   0.965   0.736   0.593   0.622   0.813   1.056
   1.221   1.251   1.190   1.119   1.083   1.071   1.068   1.089   1.163   1.272
   1.346   1.315   1.179   1.021   0.939   0.975   1.087   1.200   1.252   1.232
   1.167   1.103   1.076   1.093   1.134   1.173   1.204   1.240   1.275   1.269
   1.180   1.023
   0.712   0.732   0.847   0.995   1.098   1.133   1.129   1.111   1.061   0.960
   0.854   0.835   0.946   1.103   1.155   1.028   0.803   0.642   0.632   0.717
   0.787   0.807   0.836   0.935   1.072   1.142   1.086   0.950   0.844   0.840
   0.914   0.984   0.979   0.882   0.725   0.570   0.490   0.530   0.669   0.829
   0.932   0.961   0.968   1.001   1.048   1.064   1.034   1.009   1.050   1.146
   1.208   1.156   0.999   0.832   0.751   0.778   0.868   0.962   1.029   1.060
   1.056   1.027   1.003   1.016   1.068   1.123   1.140   1.112   1.056   0.982
   0.888   0.783
   0.654   0.696   0.760   0.813   0.838   0.861   0.919   1.004   1.039   0.963
   0.818   0.728   0.776   0.904   0.962   0.871   0.703   0.604   0.637   0.723
   0.751   0.707   0.686   0.763   0.897   0.972   0.926   0.816   0.750   0.772
   0.829   0.841   0.779   0.675   0.581   0.529   0.527   0.570   0.633   0.678
   0.690   0.705   0.775   0.906   1.024   1.043   0.958   0.860   0.848   0.920
   0.977   0.932   0.805   0.691   0.659   0.694   0.736   0.761   0.793   0.849
   0.903   0.919   0.902   0.902   0.951   1.016   1.028   0.959   0.843   0.736
   0.671   0.645
   0.649   0.700   0.717   0.693   0.652   0.655   0.752   0.911   1.019   0.979
   0.817   0.673   0.658   0.746   0.806   0.754   0.644   0.596   0.653   0.731
   0.730   0.654   0.609   0.668   0.786   0.854   0.823   0.754   0.738   0.787
   0.827   0.789   0.681   0.576   0.532   0.555   0.609   0.657   0.670   0.639
   0.591   0.591   0.694   0.873   1.013   1.010   0.870   0.722   0.682   0.747
   0.805   0.769   0.672   0.617   0.647   0.704   0.708   0.661   0.640   0.697
   0.791   0.841   0.821   0.793   0.819   0.884   0.907   0.837   0.706   0.595
   0.559   0.590
 200       5.00   72    0 5.00   18    0
   1.256   1.254   1.253   1.252   1.252   1.251   1.251   1.252   1.252   1.253
   1.254   1.256   1.257   1.259   1.261   1.263   1.265   1.267   1.269   1.270
   1.272   1.273   1.275   1.276   1.277   1.278   1.278   1.279   1.279   1.280
   1.280   1.280   1.280   1.280   1.280   1.280   1.280   1.280   1.280   1.279
   1.279   1.279   1.279   1.278   1.278   1.278   1.278   1.278   1.278   1.278
   1.278   1.278   1.278   1.278   1.278   1.277   1.277   1.277   1.276   1.275
   1.274   1.273   1.272   1.271   1.269   1.267   1.266   1.264   1.262   1.261
   1.259   1.257
   1.192   1.183   1.173   1.164   1.157   1.152   1.149   1.149   1.152   1.159
   1.169   1.182   1.197   1.214   1.231   1.248   1.263   1.277   1.288   1.296
   1.301   1.303   1.303   1.300   1.296   1.291   1.286   1.282   1.279   1.277
   1.276   1.277   1.279   1.281   1.283   1.284   1.285   1.284   1.281   1.276
   1.270   1.264   1.256   1.249   1.242   1.237   1.233   1.231   1.232   1.234
   1.238   1.243   1.248   1.254   1.259   1.263   1.266   1.268   1.268   1.267
   1.264   1.261   1.257   1.253   1.248   1.243   1.238   1.232   1.225   1.218
   1.210   1.202
   1.195   1.172   1.145   1.114   1.083   1.056   1.035   1.023   1.023   1.036
   1.062   1.099   1.145   1.197   1.251   1.303   1.350   1.388   1.415   1.429
   1.431   1.421   1.401   1.374   1.344   1.314   1.288   1.269   1.258   1.257
   1.265   1.282   1.304   1.330   1.355   1.375   1.389   1.392   1.386   1.368
   1.341   1.307   1.268   1.229   1.194   1.165   1.145   1.136   1.138   1.149
   1.168   1.192   1.217   1.241   1.260   1.273   1.278   1.277   1.270   1.258
   1.245   1.232   1.221   1.214   1.211   1.212   1.215   1.220   1.224   1.225
   1.222   1.212
   1.353   1.317   1.263   1.196   1.122   1.050   0.989   0.947   0.931   0.942
   0.981   1.046   1.132   1.230   1.333   1.432   1.517   1.583   1.625   1.640
   1.627   1.590   1.534   1.465   1.392   1.322   1.265   1.226   1.211   1.222
   1.256   1.311   1.380   1.456   1.529   1.590   1.631   1.648   1.636   1.596
   1.531   1.446   1.351   1.254   1.166   1.097   1.051   1.035   1.046   1.083
   1.139   1.204   1.269   1.326   1.366   1.386   1.384   1.362   1.325   1.280
   1.235   1.196   1.170   1.159   1.165   1.187   1.220   1.261   1.302   1.338
   1.361   1.367
   1.594   1.551   1.473   1.366   1.244   1.122   1.015   0.937   0.897   0.900
   0.946   1.030   1.143   1.275   1.411   1.540   1.649   1.729   1.774   1.780
   1.748   1.683   1.591   1.485   1.375   1.275   1.196   1.148   1.138   1.168
   1.235   1.333   1.451   1.575   1.694   1.792   1.860   1.888   1.872   1.811
   1.710   1.579   1.431   1.281   1.146   1.040   0.977   0.961   0.994   1.069
   1.174   1.294   1.410   1.506   1.567   1.587   1.563   1.503   1.418   1.323
   1.234   1.163   1.119   1.108   1.130   1.179   1.251   1.335   1.423   1.503
   1.565   1.597
   1.724   1.682   1.591   1.461   1.310   1.160   1.029   0.934   0.884   0.882
   0.925   1.007   1.119   1.249   1.382   1.506   1.608   1.678   1.711   1.703
   1.656   1.577   1.474   1.357   1.241   1.139   1.063   1.025   1.029   1.077
   1.162   1.277   1.409   1.544   1.667   1.768   1.836   1.863   1.845   1.782
   1.679   1.543   1.389   1.232   1.090   0.981   0.918   0.911   0.961   1.063
   1.202   1.360   1.513   1.637   1.713   1.728   1.682   1.584   1.455   1.318
   1.197   1.109   1.065   1.065   1.103   1.171   1.261   1.364   1.472   1.575
   1.660   1.714
   1.597   1.564   1.476   1.347   1.201   1.062   0.952   0.878   0.842   0.840
   0.869   0.924   1.000   1.091   1.188   1.280   1.355   1.403   1.419   1.401
   1.351   1.276   1.186   1.089   0.998   0.924   0.876   0.860   0.879   0.931
   1.007   1.099   1.195   1.287   1.367   1.430   1.469   1.483   1.469   1.428
   1.362   1.276   1.177   1.075   0.979   0.904   0.859   0.855   0.897   0.985
   1.111   1.263   1.418   1.551   1.636   1.654   1.600   1.485   1.336   1.184
   1.061   0.988   0.968   0.993   1.048   1.116   1.188   1.263   1.344   1.430
   1.513   1.576
   1.248   1.229   1.153   1.041   0.926   0.837   0.787   0.769   0.767   0.770
   0.772   0.778   0.796   0.830   0.880   0.937   0.990   1.025   1.033   1.013
   0.968   0.907   0.842   0.781   0.733   0.702   0.692   0.701   0.727   0.763
   0.802   0.838   0.867   0.891   0.910   0.924   0.933   0.936   0.930   0.920
   0.908   0.896   0.883   0.868   0.848   0.825   0.802   0.786   0.786   0.814
   0.876   0.974   1.097   1.222   1.316   1.352   1.313   1.207   1.064   0.924
   0.824   0.785   0.806   0.867   0.935   0.988   1.014   1.026   1.043   1.084
   1.148   1.213
   0.852   0.848   0.783   0.690   0.617   0.596   0.627   0.681   0.721   0.726
   0.697   0.651   0.612   0.595   0.608   0.642   0.683   0.714   0.723   0.704
   0.665   0.620   0.583   0.563   0.564   0.582   0.611   0.641   0.663   0.668
   0.652   0.618   0.576   0.541   0.521   0.517   0.522   0.527   0.529   0.535
   0.556   0.598   0.658   0.719   0.767   0.787   0.777   0.740   0.688   0.638
   0.615   0.637   0.708   0.812   0.913   0.969   0.956   0.875   0.757   0.645
   0.579   0.579   0.640   0.731   0.810   0.843   0.818   0.757   0.700   0.687
   0.728   0.799
   0.566   0.577   0.522   0.449   0.419   0.466   0.575   0.692   0.764   0.770
   0.723   0.652   0.586   0.541   0.525   0.532   0.551   0.567   0.565   0.542
   0.508   0.482   0.479   0.508   0.564   0.634   0.701   0.748   0.760   0.730
   0.658   0.559   0.459   0.386   0.356   0.366   0.392   0.410   0.410   0.409
   0.432   0.497   0.596   0.704   0.789   0.831   0.823   0.771   0.686   0.586
   0.500   0.456   0.472   0.538   0.620   0.677   0.679   0.629   0.553   0.490
   0.472   0.510   0.595   0.698   0.779   0.796   0.735   0.613   0.487   0.416
   0.427   0.498
   0.422   0.448   0.416   0.375   0.394   0.503   0.665   0.812   0.892   0.899
   0.863   0.814   0.766   0.717   0.667   0.621   0.582   0.547   0.511   0.476
   0.454   0.462   0.510   0.596   0.705   0.818   0.912   0.970   0.976   0.924
   0.818   0.679   0.539   0.437   0.397   0.414   0.454   0.476   0.467   0.450
   0.470   0.552   0.683   0.818   0.912   0.946   0.929   0.875   0.794   0.695
   0.592   0.510   0.471   0.477   0.504   0.525   0.524   0.509   0.503   0.524
   0.578   0.657   0.748   0.838   0.904   0.915   0.841   0.686   0.499   0.356
   0.310   0.353
   0.349   0.395   0.410   0.430   0.512   0.669   0.847   0.975   1.026   1.027
   1.026   1.041   1.046   1.009   0.920   0.798   0.672   0.560   0.474   0.427
   0.434   0.499   0.610   0.745   0.882   1.003   1.093   1.144   1.146   1.100
   1.009   0.880   0.734   0.603   0.521   0.497   0.509   0.515   0.499   0.488
   0.533   0.658   0.834   0.990   1.070   1.070   1.023   0.970   0.920   0.862
   0.782   0.688   0.598   0.526   0.475   0.441   0.431   0.465   0.553   0.686
   0.830   0.948   1.026   1.076   1.113   1.125   1.072   0.921   0.694   0.466
   0.326   0.302
   0.287   0.354   0.437   0.541   0.693   0.877   1.030   1.095   1.082   1.063
   1.100   1.184   1.249   1.230   1.113   0.933   0.736   0.558   0.430   0.383
   0.435   0.567   0.733   0.885   0.997   1.071   1.114   1.130   1.124   1.107
   1.081   1.031   0.935   0.794   0.646   0.535   0.477   0.455   0.450   0.478
   0.578   0.762   0.980   1.141   1.186   1.127   1.036   0.975   0.958   0.949
   0.906   0.812   0.681   0.542   0.425   0.357   0.361   0.455   0.633   0.856
   1.063   1.199   1.246   1.240   1.238   1.259   1.260   1.165   0.944   0.652
   0.404   0.283
   0.262   0.343   0.490   0.671   0.869   1.048   1.144   1.125   1.042   0.999
   1.056   1.182   1.281   1.279   1.171   0.996   0.795   0.598   0.451   0.413
   0.509   0.695   0.881   0.996   1.032   1.023   0.998   0.963   0.933   0.938
   0.999   1.080   1.100   1.000   0.804   0.601   0.472   0.434   0.463   0.542
   0.685   0.888   1.098   1.224   1.215   1.101   0.972   0.904   0.906   0.931
   0.917   0.830   0.679   0.507   0.370   0.317   0.369   0.517   0.728   0.958
   1.154   1.268   1.282   1.229   1.187   1.214   1.283   1.291   1.145   0.851
   0.528   0.312
   0.369   0.447   0.627   0.836   1.025   1.151   1.169   1.081   0.962   0.917
   0.989   1.120   1.217   1.230   1.174   1.079   0.947   0.780   0.633   0.599
   0.718   0.919   1.074   1.106   1.045   0.967   0.905   0.838   0.766   0.753
   0.867   1.080   1.255   1.254   1.067   0.819   0.655   0.630   0.702   0.811
   0.933   1.067   1.186   1.233   1.175   1.047   0.924   0.869   0.884   0.925
   0.930   0.861   0.719   0.552   0.439   0.439   0.553   0.723   0.884   1.012
   1.112   1.179   1.183   1.119   1.045   1.053   1.166   1.292   1.282   1.069
   0.741   0.468
   0.670   0.733   0.905   1.078   1.188   1.208   1.138   1.014   0.916   0.915
   1.012   1.134   1.210   1.237   1.257   1.277   1.244   1.125   0.983   0.944
   1.058   1.232   1.309   1.231   1.089   0.999   0.971   0.918   0.801   0.719
   0.817   1.111   1.429   1.556   1.432   1.196   1.042   1.050   1.154   1.246
   1.276   1.263   1.233   1.185   1.115   1.037   0.983   0.974   1.005   1.051
   1.079   1.048   0.943   0.804   0.722   0.771   0.927   1.078   1.127   1.086
   1.050   1.077   1.119   1.089   0.990   0.937   1.039   1.254   1.403   1.336
   1.076   0.797
   1.108   1.158   1.297   1.395   1.382   1.268   1.108   0.973   0.930   1.001
   1.140   1.260   1.319   1.360   1.443   1.553   1.593   1.507   1.371   1.330
   1.432   1.554   1.532   1.346   1.153   1.102   1.164   1.166   1.017   0.845
   0.878   1.188   1.594   1.825   1.774   1.577   1.451   1.489   1.602   1.648
   1.564   1.395   1.225   1.110   1.066   1.084   1.136   1.191   1.238   1.289
   1.349   1.380   1.333   1.223   1.148   1.204   1.361   1.470   1.404   1.208
   1.058   1.074   1.185   1.214   1.091   0.951   0.993   1.250   1.539   1.632
   1.479   1.238
   1.501   1.548   1.662   1.693   1.574   1.350   1.121   0.981   0.979   1.100
   1.265   1.386   1.442   1.493   1.602   1.736   1.790   1.713   1.592   1.571
   1.675   1.757   1.654   1.391   1.175   1.172   1.315   1.372   1.215   0.988
   0.965   1.257   1.683   1.950   1.930   1.753   1.643   1.691   1.800   1.814
   1.666   1.415   1.174   1.033   1.027   1.129   1.267   1.370   1.426   1.481
   1.575   1.672   1.687   1.599   1.505   1.526   1.656   1.733   1.609   1.334
   1.126   1.144   1.304   1.372   1.228   1.015   0.997   1.271   1.655   1.872
   1.813   1.617
 111       5.00   72    0 5.00   18    0
   0.245   0.245   0.245   0.245   0.245   0.245   0.245   0.245   0.245   0.245
   0.245   0.245   0.245   0.244   0.244   0.244   0.244   0.244   0.243   0.243
   0.243   0.242   0.242   0.242   0.241   0.241   0.240   0.240   0.240   0.240
   0.240   0.240   0.240   0.240   0.241   0.241   0.241   0.242   0.243   0.243
   0.244   0.245   0.246   0.246   0.247   0.248   0.248   0.249   0.249   0.249
   0.249   0.250   0.250   0.250   0.250   0.249   0.249   0.249   0.248   0.248
   0.248   0.247   0.247   0.247   0.246   0.246   0.246   0.246   0.246   0.245
   0.245   0.245
   0.216   0.218   0.220   0.221   0.222   0.223   0.223   0.224   0.225   0.226
   0.228   0.229   0.232   0.234   0.236   0.238   0.240   0.242   0.243   0.243
   0.243   0.241   0.239   0.236   0.232   0.228   0.224   0.220   0.216   0.213
   0.210   0.209   0.208   0.208   0.210   0.211   0.214   0.217   0.220   0.223
   0.225   0.228   0.229   0.231   0.232   0.232   0.232   0.232   0.231   0.230
   0.228   0.226   0.224   0.221   0.218   0.215   0.212   0.208   0.205   0.202
   0.200   0.198   0.197   0.196   0.197   0.198   0.200   0.202   0.205   0.208
   0.210   0.213
   0.251   0.259   0.264   0.266   0.266   0.265   0.263   0.260   0.259   0.258
   0.259   0.262   0.267   0.273   0.280   0.289   0.297   0.305   0.313   0.320
   0.325   0.328   0.329   0.327   0.322   0.315   0.306   0.296   0.286   0.276
   0.268   0.263   0.260   0.260   0.263   0.267   0.273   0.278   0.283   0.286
   0.287   0.286   0.282   0.277   0.270   0.262   0.254   0.246   0.239   0.232
   0.225   0.218   0.210   0.202   0.193   0.183   0.173   0.164   0.155   0.148
   0.143   0.141   0.141   0.145   0.152   0.161   0.172   0.185   0.200   0.214
   0.228   0.241
   0.438   0.453   0.462   0.464   0.461   0.453   0.444   0.435   0.427   0.421
   0.418   0.417   0.418   0.421   0.426   0.433   0.443   0.455   0.471   0.490
   0.510   0.531   0.550   0.566   0.576   0.580   0.577   0.568   0.554   0.537
   0.520   0.506   0.495   0.490   0.489   0.493   0.499   0.505   0.509   0.510
   0.506   0.497   0.483   0.465   0.445   0.424   0.404   0.386   0.369   0.353
   0.339   0.324   0.309   0.292   0.274   0.255   0.236   0.220   0.208   0.200
   0.198   0.202   0.211   0.224   0.242   0.262   0.285   0.311   0.338   0.366
   0.393   0.418
   0.755   0.775   0.786   0.789   0.785   0.777   0.767   0.758   0.750   0.743
   0.736   0.726   0.713   0.699   0.683   0.670   0.662   0.664   0.678   0.706
   0.747   0.799   0.858   0.916   0.968   1.007   1.031   1.036   1.024   1.000
   0.967   0.931   0.897   0.869   0.849   0.837   0.832   0.832   0.833   0.833
   0.831   0.824   0.813   0.798   0.779   0.758   0.735   0.712   0.688   0.664
   0.639   0.611   0.582   0.551   0.519   0.488   0.461   0.442   0.435   0.440
   0.457   0.483   0.513   0.544   0.571   0.593   0.611   0.629   0.648   0.672
   0.700   0.728
   1.085   1.107   1.122   1.128   1.130   1.133   1.139   1.148   1.156   1.159
   1.152   1.131   1.096   1.051   1.000   0.950   0.910   0.886   0.886   0.912
   0.968   1.051   1.152   1.263   1.370   1.460   1.523   1.553   1.548   1.513
   1.456   1.385   1.312   1.243   1.184   1.140   1.110   1.094   1.091   1.098
   1.113   1.133   1.155   1.175   1.191   1.199   1.195   1.179   1.151   1.112
   1.067   1.017   0.965   0.915   0.867   0.826   0.796   0.783   0.793   0.827
   0.883   0.952   1.020   1.073   1.103   1.107   1.090   1.064   1.042   1.033
   1.040   1.060
   1.322   1.345   1.359   1.366   1.378   1.402   1.439   1.482   1.519   1.536
   1.525   1.485   1.421   1.341   1.258   1.181   1.119   1.079   1.065   1.082
   1.133   1.220   1.338   1.477   1.621   1.749   1.844   1.893   1.892   1.843
   1.759   1.654   1.542   1.435   1.342   1.267   1.214   1.182   1.174   1.190
   1.230   1.293   1.371   1.456   1.535   1.595   1.626   1.622   1.584   1.519
   1.439   1.359   1.287   1.226   1.177   1.139   1.114   1.110   1.137   1.201
   1.300   1.418   1.530   1.610   1.638   1.608   1.534   1.440   1.355   1.301
   1.284   1.297
   1.429   1.452   1.455   1.452   1.466   1.513   1.587   1.667   1.728   1.746
   1.715   1.641   1.539   1.431   1.334   1.261   1.215   1.192   1.186   1.194
   1.220   1.272   1.359   1.479   1.619   1.756   1.861   1.915   1.908   1.844
   1.739   1.612   1.485   1.372   1.281   1.211   1.160   1.127   1.114   1.130
   1.181   1.271   1.396   1.541   1.681   1.794   1.856   1.855   1.795   1.692
   1.573   1.468   1.394   1.352   1.331   1.316   1.302   1.296   1.319   1.386
   1.503   1.652   1.798   1.900   1.926   1.867   1.741   1.589   1.457   1.380
   1.364   1.391
   1.414   1.436   1.415   1.388   1.395   1.459   1.566   1.676   1.745   1.747
   1.680   1.563   1.423   1.291   1.194   1.146   1.146   1.173   1.201   1.210
   1.201   1.195   1.218   1.288   1.400   1.527   1.631   1.681   1.662   1.581
   1.459   1.326   1.209   1.126   1.080   1.060   1.050   1.037   1.021   1.017
   1.049   1.132   1.267   1.435   1.606   1.744   1.818   1.810   1.722   1.582
   1.434   1.322   1.271   1.277   1.309   1.329   1.320   1.292   1.278   1.314
   1.415   1.564   1.721   1.834   1.863   1.793   1.646   1.472   1.331   1.267
   1.285   1.351
   1.290   1.307   1.259   1.204   1.205   1.288   1.422   1.547   1.610   1.590
   1.499   1.361   1.202   1.052   0.943   0.901   0.930   1.002   1.069   1.092
   1.062   1.010   0.984   1.018   1.116   1.245   1.357   1.407   1.380   1.283
   1.146   1.008   0.902   0.851   0.857   0.899   0.944   0.962   0.945   0.917
   0.914   0.967   1.083   1.242   1.406   1.537   1.604   1.585   1.481   1.323
   1.162   1.058   1.040   1.097   1.175   1.216   1.195   1.130   1.072   1.070
   1.145   1.279   1.427   1.537   1.569   1.508   1.370   1.205   1.078   1.039
   1.096   1.203
   1.071   1.082   1.021   0.959   0.974   1.084   1.238   1.360   1.404   1.375
   1.300   1.198   1.065   0.908   0.759   0.668   0.666   0.737   0.823   0.867
   0.849   0.800   0.777   0.823   0.940   1.090   1.216   1.273   1.244   1.145
   1.006   0.862   0.747   0.686   0.693   0.752   0.823   0.863   0.854   0.818
   0.802   0.845   0.951   1.092   1.229   1.332   1.380   1.359   1.264   1.113
   0.956   0.855   0.848   0.917   1.001   1.033   0.987   0.897   0.827   0.827
   0.907   1.035   1.163   1.252   1.278   1.232   1.121   0.974   0.850   0.805
   0.861   0.977
   0.809   0.824   0.776   0.740   0.796   0.944   1.108   1.205   1.213   1.182
   1.163   1.154   1.099   0.958   0.757   0.577   0.490   0.508   0.580   0.643
   0.669   0.678   0.713   0.806   0.950   1.105   1.222   1.269   1.243   1.167
   1.061   0.937   0.805   0.689   0.622   0.621   0.665   0.709   0.720   0.712
   0.728   0.803   0.929   1.062   1.165   1.227   1.253   1.243   1.180   1.060
   0.913   0.797   0.757   0.787   0.832   0.833   0.775   0.701   0.674   0.730
   0.851   0.985   1.084   1.131   1.136   1.104   1.025   0.896   0.750   0.652
   0.650   0.728
   0.607   0.635   0.618   0.629   0.736   0.923   1.086   1.138   1.091   1.044
   1.079   1.173   1.216   1.122   0.904   0.661   0.496   0.444   0.475   0.544
   0.624   0.716   0.827   0.956   1.086   1.189   1.242   1.242   1.212   1.185
   1.163   1.115   1.001   0.827   0.652   0.546   0.532   0.574   0.620   0.660
   0.728   0.849   1.001   1.126   1.187   1.199   1.201   1.209   1.194   1.121
   0.988   0.843   0.742   0.701   0.693   0.680   0.651   0.640   0.688   0.809
   0.962   1.085   1.137   1.131   1.109   1.092   1.055   0.954   0.787   0.618
   0.531   0.547
   0.562   0.604   0.611   0.646   0.779   0.984   1.141   1.151   1.043   0.954
   0.992   1.133   1.245   1.221   1.061   0.852   0.684   0.590   0.569   0.616
   0.728   0.886   1.044   1.159   1.211   1.203   1.150   1.078   1.032   1.056
   1.146   1.224   1.192   1.019   0.778   0.597   0.548   0.602   0.683   0.750
   0.828   0.946   1.082   1.173   1.184   1.146   1.125   1.152   1.189   1.171
   1.069   0.911   0.759   0.658   0.621   0.634   0.681   0.756   0.858   0.981
   1.096   1.164   1.162   1.114   1.075   1.076   1.087   1.036   0.884   0.683
   0.540   0.513
   0.706   0.755   0.748   0.746   0.839   1.020   1.168   1.166   1.027   0.887
   0.867   0.969   1.090   1.142   1.116   1.052   0.974   0.883   0.805   0.799
   0.906   1.085   1.236   1.280   1.213   1.086   0.946   0.822   0.755   0.803
   0.973   1.176   1.269   1.175   0.964   0.797   0.776   0.866   0.957   0.985
   0.983   1.012   1.072   1.107   1.073   1.002   0.965   1.002   1.080   1.124
   1.084   0.964   0.810   0.687   0.649   0.715   0.853   0.998   1.093   1.125
   1.118   1.096   1.058   1.007   0.971   0.985   1.032   1.042   0.953   0.793
   0.664   0.644
   0.990   1.042   0.983   0.876   0.849   0.947   1.075   1.096   0.978   0.813
   0.716   0.725   0.806   0.923   1.063   1.196   1.253   1.189   1.059   0.992
   1.068   1.228   1.322   1.258   1.075   0.879   0.728   0.615   0.541   0.566
   0.741   1.007   1.211   1.241   1.146   1.081   1.143   1.273   1.330   1.246
   1.088   0.970   0.932   0.922   0.875   0.798   0.750   0.778   0.872   0.978
   1.039   1.021   0.928   0.817   0.780   0.878   1.075   1.247   1.277   1.160
   0.998   0.892   0.861   0.853   0.840   0.844   0.892   0.951   0.955   0.896
   0.850   0.890
   1.313   1.378   1.262   1.023   0.829   0.792   0.870   0.923   0.864   0.718
   0.575   0.503   0.539   0.701   0.974   1.264   1.426   1.385   1.224   1.123
   1.182   1.309   1.323   1.144   0.874   0.671   0.586   0.544   0.486   0.463
   0.575   0.822   1.076   1.216   1.259   1.326   1.480   1.626   1.610   1.384
   1.068   0.829   0.735   0.722   0.697   0.630   0.563   0.556   0.636   0.792
   0.974   1.103   1.116   1.034   0.971   1.043   1.236   1.393   1.350   1.103
   0.817   0.667   0.675   0.730   0.733   0.706   0.727   0.817   0.916   0.978
   1.039   1.159
   1.563   1.656   1.522   1.193   0.854   0.674   0.673   0.729   0.721   0.619
   0.482   0.388   0.412   0.597   0.920   1.259   1.444   1.406   1.251   1.175
   1.256   1.369   1.314   1.045   0.721   0.539   0.536   0.580   0.553   0.493
   0.530   0.713   0.952   1.139   1.271   1.431   1.635   1.765   1.670   1.345
   0.955   0.692   0.617   0.640   0.640   0.571   0.470   0.411   0.458   0.641
   0.925   1.195   1.318   1.263   1.151   1.148   1.288   1.415   1.337   1.036
   0.699   0.534   0.566   0.647   0.647   0.588   0.593   0.717   0.899   1.054
   1.189   1.364
TEXTURE_INDEX=   1.6408
ERR_CF 220         1080     731   35.55   24.00
ERR_CF 200         1078     583   23.90   12.00
ERR_CF 111         1080     463   24.76   10.64
