TEXEVAL                                                                         
Analysis started on 13-Nov-19 15:50:09                                          
 LMAX=14LFMAX= 3 CUBIC ANORTHIC
 220      5.00 5.00
 200      5.00 5.00
 111      5.00 5.00
 220       5.00   72    0 5.00   15    0
   0.922   0.922   0.922   0.922   0.922   0.922   0.922   0.922   0.922   0.922
   0.922   0.922   0.922   0.922   0.922   0.922   0.922   0.922   0.922   0.922
   0.922   0.922   0.922   0.922   0.922   0.922   0.922   0.922   0.922   0.922
   0.922   0.922   0.922   0.922   0.922   0.922   0.922   0.922   0.922   0.922
   0.922   0.922   0.922   0.922   0.922   0.922   0.922   0.922   0.922   0.922
   0.922   0.922   0.922   0.922   0.922   0.922   0.922   0.922   0.922   0.922
   0.922   0.922   0.922   0.922   0.922   0.922   0.922   0.922   0.922   0.922
   0.922   0.922
   0.705   0.661   0.840   0.651   0.861   0.886   0.637   0.612   0.733   0.789
   0.820   0.817   0.835   1.093   0.797   0.943   0.990   0.904   1.062   0.942
   0.987   0.809   0.975   0.950   0.966   0.790   0.801   0.911   0.796   0.756
   1.088   1.038   0.925   0.913   1.039   1.171   1.230   1.008   0.780   0.962
   0.757   0.902   1.071   0.798   1.067   0.871   1.033   1.082   0.956   0.986
   0.893   1.144   0.901   1.036   1.039   0.818   1.192   1.186   0.986   1.034
   0.885   0.842   0.759   0.966   0.937   0.858   0.694   0.707   0.767   1.009
   0.619   0.783
   0.722   0.637   0.648   0.883   0.788   0.821   0.602   0.661   0.905   0.794
   0.861   0.845   0.874   1.023   0.965   0.902   1.104   1.105   0.994   0.958
   0.844   0.831   1.141   1.064   0.899   1.009   0.826   0.732   0.786   0.845
   1.019   0.825   0.753   1.044   0.868   0.805   0.883   0.860   0.660   0.842
   0.985   0.882   0.853   0.805   1.083   0.969   0.997   0.842   0.824   0.945
   0.918   1.009   1.073   1.090   1.090   0.984   1.077   1.099   1.136   0.817
   0.941   0.702   0.666   0.882   0.919   0.661   0.747   0.538   0.617   0.967
   0.711   0.592
   0.775   0.625   0.572   0.819   0.853   0.516   0.565   0.724   1.039   0.699
   0.850   0.763   0.799   0.946   1.194   0.967   1.109   1.024   0.992   0.869
   0.913   0.925   1.044   0.911   0.875   1.083   0.898   0.852   1.079   0.870
   0.714   0.747   0.605   0.809   0.646   0.791   0.749   0.726   0.686   0.746
   1.002   0.834   0.606   0.878   1.025   1.059   0.913   0.703   0.760   0.844
   1.096   1.130   1.116   1.291   1.043   1.157   1.048   1.252   1.103   0.739
   0.791   0.695   0.656   0.994   0.798   0.657   0.666   0.412   0.572   0.767
   0.825   0.605
   0.746   0.643   0.572   0.710   0.684   0.421   0.400   0.687   0.744   0.550
   0.947   0.705   0.736   0.951   1.119   0.963   1.081   1.055   1.220   1.126
   1.170   1.137   0.817   0.711   0.906   0.961   0.849   0.833   1.053   0.723
   0.716   0.710   0.767   0.607   0.803   0.997   0.962   0.793   0.803   0.625
   0.847   0.578   0.652   0.647   0.781   0.830   0.880   0.815   0.640   0.847
   1.094   1.202   1.017   1.358   1.122   1.188   1.070   1.318   0.971   0.847
   0.738   0.854   0.572   0.804   0.568   0.589   0.509   0.425   0.526   0.615
   0.554   0.579
   0.633   0.776   0.774   0.826   0.387   0.658   0.551   0.488   0.460   0.573
   0.772   0.605   0.644   0.866   0.738   0.806   0.920   1.415   1.376   1.460
   1.132   1.147   0.931   0.655   0.894   0.585   0.635   0.566   0.657   0.654
   0.769   0.664   0.916   0.740   0.763   1.018   0.920   0.701   0.829   0.602
   0.799   0.621   0.645   0.415   0.800   0.580   0.751   0.742   0.548   0.871
   0.960   1.066   0.926   1.258   1.241   1.079   1.141   1.023   0.834   0.811
   0.595   0.599   0.479   0.543   0.362   0.538   0.385   0.443   0.511   0.598
   0.435   0.479
   0.576   0.704   0.874   0.701   0.612   0.720   0.512   0.412   0.336   0.742
   0.458   0.316   0.600   0.624   0.508   0.820   0.822   1.295   1.407   1.395
   0.875   1.123   0.975   0.570   0.732   0.560   0.394   0.374   0.384   0.598
   0.636   0.500   0.794   0.624   0.588   0.839   0.714   0.612   0.656   0.722
   0.726   0.566   0.464   0.304   0.869   0.440   0.646   0.512   0.524   0.670
   0.766   0.939   1.092   1.137   1.229   1.111   1.105   0.888   0.780   0.646
   0.486   0.370   0.384   0.418   0.408   0.270   0.274   0.564   0.432   0.510
   0.508   0.456
   0.723   0.826   0.802   0.435   0.688   0.760   0.448   0.479   0.310   0.528
   0.468   0.396   0.600   0.520   0.659   0.693   0.761   1.034   1.299   1.096
   0.841   1.417   0.725   0.614   0.583   0.485   0.240   0.647   0.444   0.500
   0.372   0.363   0.858   0.795   0.881   1.023   0.886   1.092   0.736   0.906
   0.694   0.443   0.431   0.284   0.556   0.349   0.403   0.610   0.607   0.569
   0.738   1.040   1.263   1.397   1.598   1.392   1.065   1.132   0.793   0.663
   0.503   0.436   0.487   0.411   0.528   0.258   0.487   0.553   0.463   0.540
   0.777   0.661
   0.937   1.287   0.943   0.839   0.753   1.080   0.455   0.408   0.335   0.277
   0.358   0.516   0.375   0.525   0.629   0.499   0.580   1.261   1.088   1.045
   0.907   1.350   0.685   0.636   0.364   0.587   0.418   0.720   0.463   0.622
   0.330   0.593   0.831   1.053   1.012   1.547   1.217   1.646   0.834   1.042
   0.627   0.759   0.478   0.514   0.367   0.420   0.266   0.574   0.682   0.440
   0.881   1.187   1.035   1.517   1.759   1.417   1.179   1.283   0.905   0.849
   0.584   0.455   0.454   0.382   0.569   0.642   0.507   0.613   0.592   0.797
   0.933   1.100
   1.322   1.324   1.097   0.949   0.944   1.153   0.580   0.562   0.736   0.432
   0.461   0.423   0.413   0.541   0.493   0.842   0.524   1.233   1.204   1.140
   0.865   0.835   0.499   0.529   0.366   0.713   0.572   0.445   0.371   0.660
   0.484   0.682   0.716   0.778   1.209   1.830   1.428   1.682   0.995   1.101
   0.759   1.066   0.676   0.647   0.448   0.632   0.580   0.576   0.807   0.470
   0.948   0.949   0.847   1.393   1.359   1.541   1.311   1.197   0.913   0.908
   0.607   0.580   0.253   0.515   0.498   0.869   0.545   0.869   0.790   0.835
   1.087   1.102
   1.380   1.152   1.119   0.713   0.703   1.141   0.664   1.016   0.892   0.615
   0.740   0.436   0.810   1.015   0.631   0.973   1.043   1.016   1.369   1.001
   1.173   0.783   0.533   0.545   0.583   0.561   0.561   0.512   0.382   0.723
   0.561   0.691   1.157   0.951   1.364   1.635   1.678   1.559   1.255   1.033
   1.287   1.330   0.546   0.826   0.837   0.718   0.827   0.994   0.914   0.886
   0.859   0.718   0.984   1.483   1.071   1.808   1.201   0.968   1.124   0.594
   0.804   0.691   0.587   0.653   0.756   0.816   0.989   0.627   1.292   0.891
   1.223   0.946
   1.049   1.326   1.778   1.456   0.929   1.248   0.890   1.341   0.878   0.872
   0.547   0.869   0.947   1.217   0.845   0.992   1.443   0.968   1.401   1.251
   1.112   0.887   1.296   1.242   0.983   0.718   0.751   0.890   0.981   1.278
   0.718   1.588   1.735   1.341   1.209   1.428   2.042   1.681   1.970   1.404
   1.536   1.404   1.158   1.028   1.338   1.043   0.887   1.473   1.218   1.498
   1.164   1.176   1.320   1.636   1.179   1.413   1.088   1.197   1.350   0.821
   1.227   1.116   0.920   0.944   0.835   0.833   1.579   0.875   1.861   1.425
   1.287   1.173
   0.862   1.193   2.447   1.715   0.965   1.489   1.370   1.212   1.047   1.013
   0.758   0.846   0.852   0.723   1.013   1.080   1.265   1.247   1.202   1.568
   0.934   1.161   1.496   1.496   1.821   0.700   1.204   1.455   1.354   1.740
   0.957   1.590   1.615   1.169   1.722   1.459   2.071   1.487   2.355   1.925
   1.673   1.669   1.543   1.494   1.387   1.469   1.333   1.302   1.236   1.820
   1.707   1.516   1.459   1.302   1.469   0.885   0.757   1.397   1.113   1.350
   1.265   1.269   0.723   1.541   0.686   0.733   1.905   1.650   1.886   1.763
   1.469   1.265
   1.049   0.668   1.960   1.034   0.431   1.641   1.229   1.026   1.135   1.135
   0.906   1.053   1.224   0.497   1.026   1.081   0.948   1.653   0.766   1.120
   1.330   1.621   1.275   1.384   1.832   1.139   1.065   1.314   1.123   1.835
   1.069   1.104   1.633   0.929   1.886   1.240   1.454   1.069   2.030   1.921
   1.672   2.236   1.081   1.703   1.341   1.338   1.793   1.092   1.038   1.641
   1.454   1.851   1.567   0.820   1.229   1.007   0.606   1.057   0.754   1.197
   0.785   1.147   0.497   1.291   0.734   1.248   1.509   1.987   1.804   1.847
   1.501   0.840
   0.811   0.768   1.204   0.742   0.998   1.109   0.851   0.837   0.625   1.420
   0.809   0.893   1.706   0.972   0.905   0.824   0.674   1.977   1.026   0.877
   1.326   1.422   1.407   0.789   1.543   2.045   0.891   1.393   1.163   0.947
   1.176   1.001   1.679   0.851   1.258   0.516   1.312   1.041   1.192   1.354
   2.004   1.897   1.502   0.865   1.787   1.434   1.964   1.082   0.959   1.652
   1.379   1.694   1.028   1.216   1.393   1.082   0.945   0.918   0.497   0.905
   0.578   0.933   0.362   0.606   0.809   1.950   0.959   1.802   1.815   1.205
   1.191   0.497
 200       5.00   72    0 5.00   15    0
   0.542   0.542   0.542   0.542   0.542   0.542   0.542   0.542   0.542   0.542
   0.542   0.542   0.542   0.542   0.542   0.542   0.542   0.542   0.542   0.542
   0.542   0.542   0.542   0.542   0.542   0.542   0.542   0.542   0.542   0.542
   0.542   0.542   0.542   0.542   0.542   0.542   0.542   0.542   0.542   0.542
   0.542   0.542   0.542   0.542   0.542   0.542   0.542   0.542   0.542   0.542
   0.542   0.542   0.542   0.542   0.542   0.542   0.542   0.542   0.542   0.542
   0.542   0.542   0.542   0.542   0.542   0.542   0.542   0.542   0.542   0.542
   0.542   0.542
   0.695   0.615   0.863   0.806   0.622   0.827   0.657   0.617   0.808   0.786
   0.689   0.959   0.770   0.989   0.609   0.801   0.847   0.787   0.909   1.075
   1.020   0.867   0.839   0.803   1.054   0.969   0.799   0.978   0.847   1.052
   0.852   0.871   0.890   1.020   0.790   0.739   0.971   0.801   1.120   0.759
   0.859   0.997   0.845   0.972   0.700   0.712   0.954   1.077   0.761   0.677
   1.075   1.013   0.981   1.301   1.145   1.055   1.001   0.676   0.855   0.785
   0.652   0.997   1.061   0.687   0.718   1.046   0.700   0.710   0.623   0.687
   0.566   0.704
   0.753   0.844   1.056   0.830   0.780   0.787   0.790   0.670   0.783   0.762
   0.632   0.947   0.760   0.737   0.832   0.603   1.005   0.977   1.186   1.266
   1.228   1.122   1.071   0.992   1.428   1.122   0.988   1.041   1.055   1.336
   1.015   0.885   0.935   1.070   1.154   1.048   1.140   0.914   1.501   1.066
   1.039   1.054   1.016   1.394   1.023   1.259   1.043   1.282   1.151   1.191
   1.389   1.247   1.125   1.299   1.541   1.266   1.269   1.069   1.183   0.852
   0.973   1.068   1.118   0.754   0.949   1.083   0.806   0.655   0.931   0.778
   0.687   0.657
   1.224   1.210   1.130   0.942   1.165   0.747   0.998   0.864   0.766   0.760
   0.697   0.709   0.720   0.753   0.976   0.993   1.198   1.050   1.314   1.493
   1.333   1.221   1.140   1.252   1.503   0.945   1.380   1.345   1.221   1.245
   1.043   0.906   0.998   1.174   1.374   1.315   1.579   1.354   1.434   1.350
   1.486   1.020   1.018   1.342   1.160   1.312   1.260   1.137   1.691   1.602
   1.634   1.445   1.541   1.367   1.720   1.403   1.211   1.140   1.475   0.894
   1.029   1.234   1.058   0.721   0.963   0.900   0.976   1.000   0.978   1.029
   1.182   1.075
   1.515   1.297   1.328   1.240   1.365   0.854   1.004   0.910   0.785   0.826
   0.914   0.843   0.638   0.941   1.016   1.161   1.119   0.913   1.282   1.393
   1.818   1.459   1.180   1.486   1.097   0.974   1.559   1.371   1.337   1.146
   1.128   1.163   1.080   1.381   1.447   1.407   1.778   2.032   1.700   1.504
   1.771   1.243   1.084   1.132   1.103   1.214   1.305   1.222   1.663   1.413
   1.437   1.584   1.662   1.553   1.639   1.394   1.068   1.151   1.316   0.902
   0.861   1.119   1.110   0.787   0.911   0.810   1.186   1.242   1.103   1.173
   1.472   1.097
   1.273   1.238   1.450   1.405   1.218   0.963   1.283   1.100   0.915   0.782
   0.788   0.937   0.709   0.942   1.177   1.190   1.022   0.897   1.699   1.444
   2.091   1.700   1.022   1.271   1.093   1.146   1.202   1.033   1.199   1.165
   0.995   1.395   0.991   1.600   1.883   1.790   1.742   2.007   1.954   1.629
   1.748   1.314   1.019   1.035   1.125   1.200   1.030   1.371   1.329   1.090
   1.109   1.547   1.282   1.291   1.359   1.214   1.134   1.157   1.153   0.990
   0.933   1.174   0.760   1.018   0.772   0.918   1.137   1.252   1.194   1.059
   1.775   1.169
   1.170   1.170   1.541   1.685   1.026   1.008   1.212   1.211   0.930   0.645
   0.719   0.595   0.657   0.561   1.030   0.959   1.068   1.020   1.392   1.650
   1.321   1.446   0.903   0.745   1.067   1.110   1.024   1.114   1.066   0.867
   1.022   1.270   1.182   1.284   1.610   2.104   2.010   1.605   1.847   1.841
   1.781   1.272   0.904   1.024   0.957   0.685   0.937   1.398   1.364   0.943
   0.998   1.316   1.333   0.935   1.051   0.829   0.923   0.829   0.845   0.817
   1.016   0.991   0.776   0.955   0.789   1.002   0.893   1.095   1.084   0.976
   1.496   1.515
   1.027   0.815   1.259   1.329   0.858   1.134   0.914   0.766   0.834   0.780
   0.614   0.490   0.621   0.483   0.805   0.501   0.970   0.792   0.670   1.006
   0.686   0.860   0.835   0.575   0.926   0.629   0.842   1.067   0.935   0.837
   1.118   1.029   0.967   1.000   1.079   1.389   1.559   1.892   1.459   1.656
   1.228   1.168   1.112   0.937   0.780   0.690   0.842   0.983   0.917   0.599
   0.900   1.037   1.010   0.608   0.901   0.598   0.742   0.795   0.469   0.910
   0.778   0.544   0.891   0.650   0.865   0.969   0.884   0.700   0.982   1.033
   0.796   0.935
   0.619   0.403   0.705   0.539   0.702   0.757   0.627   0.587   0.604   0.739
   0.561   0.492   0.772   0.411   0.453   0.560   0.544   0.709   0.516   0.777
   0.841   0.808   0.607   0.555   0.718   0.551   0.513   0.663   0.592   0.771
   0.759   0.871   0.635   0.947   0.718   0.641   1.020   1.417   1.239   1.007
   0.696   0.978   0.930   0.882   0.900   0.909   0.732   0.668   0.606   0.527
   0.997   0.795   0.569   0.547   0.868   0.533   0.678   0.656   0.396   0.981
   0.372   0.435   0.636   0.550   0.739   0.915   0.705   0.530   0.658   0.813
   0.748   0.369
   0.425   0.197   0.479   0.363   0.666   0.660   0.487   0.784   0.557   0.722
   0.747   0.506   0.853   0.572   0.583   0.623   0.300   0.674   0.505   0.754
   0.879   0.908   0.315   0.575   0.480   0.725   0.509   0.597   0.685   0.968
   0.693   0.945   0.802   0.776   0.407   0.258   1.015   0.479   1.087   0.946
   0.564   0.637   0.692   0.780   0.846   0.813   0.751   0.681   0.865   0.762
   0.919   0.527   0.699   0.659   0.729   0.535   0.851   0.333   0.428   0.707
   0.337   0.627   0.802   0.693   0.666   0.861   0.572   0.465   0.549   0.575
   0.633   0.340
   0.346   0.140   0.351   0.328   0.940   0.709   0.645   0.746   1.133   0.907
   0.953   0.825   0.930   0.774   0.732   0.594   0.332   0.719   0.659   0.502
   0.566   0.516   0.881   0.645   0.723   0.709   0.816   0.981   0.921   1.017
   0.861   0.815   0.939   0.372   0.401   0.190   0.773   0.834   0.765   0.957
   0.332   0.355   0.714   1.152   1.193   0.617   1.068   1.289   0.916   0.820
   0.728   0.480   0.590   0.700   0.728   0.262   0.856   0.508   0.687   0.507
   0.737   0.939   1.128   0.999   0.779   0.916   0.585   0.673   0.848   0.484
   0.341   0.222
   0.121   0.217   0.263   0.493   0.892   0.731   0.756   0.562   1.573   0.956
   1.404   1.284   0.866   1.179   0.565   0.659   0.516   0.483   0.713   0.314
   0.324   0.347   1.166   0.328   1.153   1.028   1.414   1.478   1.102   0.751
   0.741   0.997   0.997   0.456   0.296   0.196   0.467   1.000   0.634   0.644
   0.375   1.158   0.629   1.179   1.504   0.767   1.202   1.309   1.079   0.662
   0.690   0.869   0.467   0.841   0.803   0.372   0.421   0.803   0.956   0.337
   0.997   1.278   1.337   1.301   0.815   1.143   0.669   1.176   0.828   0.708
   0.357   0.255
   0.375   0.153   0.698   0.474   0.526   0.950   1.110   1.054   1.624   1.058
   1.334   1.476   0.911   1.737   0.737   1.014   0.747   0.540   0.520   0.385
   0.510   0.442   1.048   0.341   1.255   1.131   1.595   1.498   1.329   1.934
   1.333   1.624   1.405   1.104   0.550   0.040   0.333   0.781   0.498   0.588
   0.572   1.537   0.674   0.855   1.113   1.098   1.109   1.758   1.261   0.526
   0.759   1.189   0.504   0.854   0.871   0.883   0.572   0.974   0.922   0.863
   1.235   1.209   1.017   1.243   0.986   1.335   1.070   1.358   1.441   0.779
   0.362   0.305
   0.463   0.254   0.668   0.674   1.030   1.508   1.561   1.825   1.195   1.249
   1.259   1.386   1.259   2.073   1.225   1.098   0.463   1.225   0.425   0.635
   0.615   0.942   1.000   0.781   1.205   1.620   1.200   1.483   1.615   2.194
   2.044   1.326   1.536   1.044   0.727   0.518   0.674   0.542   0.327   0.757
   0.781   1.249   1.191   1.039   1.123   0.702   0.951   2.033   0.976   1.426
   0.795   1.351   0.669   0.605   0.707   0.776   0.825   1.073   1.201   1.815
   1.629   0.795   0.791   0.961   1.186   1.605   1.054   1.220   2.005   0.679
   0.235   0.322
   0.218   0.293   0.562   1.045   1.380   1.859   1.296   1.216   0.495   0.834
   1.393   1.349   1.507   1.661   1.336   1.358   0.734   1.278   0.923   1.270
   0.954   1.120   1.398   1.486   1.362   1.674   0.957   1.194   1.670   1.591
   1.872   1.200   1.547   1.328   1.456   0.843   1.274   0.778   0.791   0.728
   1.028   1.578   1.393   0.887   1.393   0.963   1.028   1.521   0.812   1.718
   0.883   1.120   0.870   0.280   0.451   0.623   0.484   0.944   2.468   2.546
   1.525   1.398   1.244   1.187   1.160   2.084   1.085   0.931   1.467   1.200
   0.434   0.637
 111       5.00   72    0 5.00   15    0
   0.174   0.174   0.174   0.174   0.174   0.174   0.174   0.174   0.174   0.174
   0.174   0.174   0.174   0.174   0.174   0.174   0.174   0.174   0.174   0.174
   0.174   0.174   0.174   0.174   0.174   0.174   0.174   0.174   0.174   0.174
   0.174   0.174   0.174   0.174   0.174   0.174   0.174   0.174   0.174   0.174
   0.174   0.174   0.174   0.174   0.174   0.174   0.174   0.174   0.174   0.174
   0.174   0.174   0.174   0.174   0.174   0.174   0.174   0.174   0.174   0.174
   0.174   0.174   0.174   0.174   0.174   0.174   0.174   0.174   0.174   0.174
   0.174   0.174
   0.215   0.194   0.320   0.205   0.199   0.225   0.184   0.180   0.253   0.415
   0.167   0.198   0.193   0.219   0.165   0.161   0.262   0.250   0.224   0.214
   0.253   0.185   0.256   0.300   0.246   0.247   0.311   0.247   0.296   0.206
   0.336   0.320   0.258   0.358   0.334   0.251   0.266   0.286   0.230   0.261
   0.421   0.420   0.284   0.340   0.359   0.265   0.328   0.215   0.388   0.362
   0.269   0.253   0.281   0.145   0.230   0.232   0.168   0.213   0.257   0.339
   0.182   0.254   0.162   0.179   0.380   0.292   0.173   0.219   0.226   0.176
   0.264   0.287
   0.280   0.398   0.437   0.290   0.302   0.403   0.496   0.246   0.194   0.495
   0.268   0.210   0.356   0.344   0.217   0.241   0.337   0.301   0.253   0.261
   0.180   0.283   0.286   0.242   0.283   0.358   0.329   0.323   0.297   0.369
   0.542   0.429   0.359   0.426   0.389   0.484   0.462   0.380   0.411   0.411
   0.519   0.577   0.386   0.413   0.434   0.454   0.461   0.406   0.368   0.402
   0.366   0.262   0.263   0.217   0.338   0.371   0.207   0.287   0.392   0.226
   0.325   0.266   0.251   0.324   0.301   0.328   0.373   0.320   0.379   0.289
   0.351   0.274
   0.500   0.618   0.563   0.372   0.468   0.573   0.641   0.436   0.245   0.343
   0.453   0.385   0.457   0.316   0.295   0.318   0.329   0.211   0.313   0.337
   0.296   0.336   0.431   0.319   0.286   0.418   0.433   0.376   0.337   0.498
   0.527   0.504   0.623   0.572   0.600   0.630   0.618   0.534   0.588   0.621
   0.742   0.581   0.451   0.520   0.467   0.642   0.494   0.515   0.427   0.403
   0.427   0.267   0.371   0.360   0.387   0.320   0.353   0.404   0.434   0.300
   0.333   0.393   0.297   0.609   0.360   0.463   0.717   0.426   0.488   0.517
   0.519   0.547
   0.848   0.579   0.750   0.716   0.804   0.611   0.636   0.610   0.423   0.359
   0.458   0.707   0.515   0.435   0.392   0.405   0.477   0.242   0.407   0.466
   0.435   0.345   0.693   0.508   0.460   0.558   0.568   0.532   0.440   0.630
   0.509   0.555   0.884   0.683   0.749   0.734   0.707   0.891   0.801   0.867
   0.875   0.798   0.790   0.637   0.547   0.717   0.650   0.609   0.491   0.495
   0.579   0.400   0.482   0.447   0.480   0.356   0.547   0.402   0.398   0.354
   0.395   0.612   0.509   0.852   0.524   0.677   0.745   0.709   0.650   0.794
   0.731   0.724
   1.123   0.710   1.021   1.081   1.009   0.755   1.024   0.922   0.780   0.714
   0.586   0.909   0.545   0.831   0.653   0.496   0.604   0.466   0.552   0.590
   0.455   0.616   0.651   0.655   0.878   0.773   0.816   0.721   0.890   1.077
   0.835   0.815   0.916   0.954   0.842   1.110   0.809   0.953   0.926   1.158
   0.973   0.942   1.278   0.786   0.782   0.890   0.747   0.968   0.646   0.812
   0.735   0.551   0.639   0.602   0.598   0.605   0.652   0.443   0.494   0.519
   0.791   0.755   1.076   1.213   1.021   0.925   0.833   1.114   0.899   1.015
   1.003   0.812
   1.273   1.158   1.131   1.119   1.136   0.875   1.275   1.106   1.220   1.098
   0.892   1.175   0.733   0.954   0.921   0.719   0.709   0.612   0.725   0.600
   0.612   0.777   0.578   0.875   1.108   1.210   1.070   1.020   1.365   1.669
   1.076   1.283   0.859   1.330   1.154   1.370   1.097   1.144   1.173   1.197
   1.091   1.203   1.488   1.272   1.371   1.303   1.150   1.326   1.019   1.033
   0.811   0.765   0.943   0.840   0.817   0.794   0.742   0.817   0.790   0.745
   0.987   0.940   1.258   1.424   1.357   1.255   1.054   1.309   1.154   1.070
   1.109   1.149
   1.562   1.466   1.073   1.209   1.136   0.851   1.203   1.034   1.287   1.295
   1.222   1.348   1.086   1.047   1.051   0.928   0.961   1.011   0.910   0.677
   0.866   0.911   0.838   1.252   1.242   1.596   1.553   1.545   1.412   2.000
   1.245   1.560   1.011   1.282   1.341   1.331   1.448   1.530   1.074   1.147
   1.154   1.494   1.616   1.424   1.836   1.940   1.503   1.510   1.349   1.274
   1.206   0.941   1.028   0.909   0.882   1.088   0.778   0.875   0.935   0.774
   0.835   1.155   1.095   1.356   1.256   1.388   1.099   1.074   1.199   1.232
   1.356   1.169
   1.573   1.185   0.910   1.049   1.150   0.940   1.054   0.979   1.049   1.241
   1.222   1.030   1.009   1.041   0.937   1.057   1.082   1.126   1.155   0.915
   0.963   1.071   0.984   1.366   1.507   1.413   1.795   1.587   1.674   1.670
   1.273   1.516   1.240   1.004   1.175   1.134   1.404   1.287   0.853   1.149
   1.123   1.565   1.506   1.369   1.460   2.196   1.710   1.684   1.343   1.362
   1.481   0.772   0.985   0.800   0.865   0.991   0.704   0.598   0.627   0.794
   0.806   0.975   1.240   1.253   1.078   1.304   0.976   0.845   1.033   1.095
   1.216   0.963
   1.081   0.883   0.885   0.750   1.146   0.992   1.072   1.015   0.986   1.195
   1.022   0.862   0.777   0.732   0.887   1.095   0.927   0.993   1.053   1.041
   0.903   1.047   1.086   1.264   1.377   1.392   1.744   1.493   1.544   1.386
   1.021   1.306   1.402   1.251   1.316   0.930   0.793   1.241   0.856   0.763
   0.958   1.171   1.117   1.316   1.310   1.772   1.848   1.906   1.097   0.930
   1.168   0.561   1.041   0.575   0.945   0.636   0.591   0.717   0.426   0.681
   0.905   0.722   1.181   1.271   1.226   1.020   1.050   0.740   0.924   0.638
   0.805   0.682
   0.685   0.859   0.896   0.690   1.049   0.811   1.101   1.096   0.980   1.046
   1.175   0.972   0.875   0.782   1.183   1.167   0.553   0.999   0.701   1.041
   0.788   0.993   1.117   1.162   0.920   1.381   1.320   1.304   1.059   1.283
   1.030   1.162   1.352   1.244   1.260   0.682   0.830   1.004   0.740   0.521
   0.693   1.046   1.027   1.028   1.636   1.494   1.420   1.731   1.112   1.072
   1.027   0.648   0.817   0.664   0.935   0.838   0.564   1.022   0.685   0.529
   1.078   0.893   1.365   1.591   1.278   0.882   1.228   0.824   0.796   0.503
   0.661   0.672
   0.445   0.807   0.652   0.754   1.014   0.810   0.863   0.972   0.804   0.942
   1.498   0.883   1.215   1.047   0.995   1.232   0.889   0.754   0.669   0.909
   0.751   0.929   0.975   1.100   0.975   1.172   1.369   1.024   1.175   1.090
   1.258   1.136   1.054   0.784   0.929   0.346   1.146   0.458   0.675   0.718
   0.609   1.205   0.817   0.876   1.600   1.629   1.422   1.360   1.133   1.449
   1.064   1.070   0.702   0.870   0.725   0.981   0.603   1.222   0.948   0.803
   1.169   0.942   1.495   1.699   0.837   1.304   0.820   0.998   0.524   0.580
   0.383   0.610
   0.348   0.703   0.335   0.682   0.856   0.806   1.027   0.819   0.911   1.058
   1.358   0.707   1.239   1.390   0.505   0.830   1.027   1.010   0.711   0.769
   0.852   0.889   0.894   0.892   1.423   1.340   1.382   0.905   1.568   1.178
   1.480   1.353   1.167   0.612   0.761   0.564   1.088   0.182   0.741   0.761
   0.703   0.954   0.534   1.383   1.314   1.673   1.852   1.315   1.025   1.513
   1.196   1.028   1.118   0.665   0.804   0.802   0.604   1.161   1.420   1.648
   1.178   1.134   1.560   1.271   1.003   1.558   0.796   1.424   0.804   0.869
   0.444   0.315
   0.481   0.736   0.549   0.689   0.736   0.938   1.317   0.663   1.052   0.995
   0.964   0.938   1.047   1.639   1.224   0.949   0.793   1.161   0.751   0.975
   0.850   0.943   0.813   1.089   1.535   1.166   0.891   0.580   1.571   1.099
   1.234   1.307   1.826   0.876   0.699   0.627   1.135   0.445   0.969   0.881
   0.969   1.073   1.001   1.997   1.509   1.291   1.441   1.229   1.722   1.831
   1.390   0.772   1.281   1.027   0.985   1.052   0.554   1.250   1.597   1.618
   1.540   1.203   1.249   1.068   1.359   1.369   0.948   1.592   0.990   1.115
   0.756   0.793
   0.451   0.930   0.616   0.974   0.966   0.798   1.661   0.460   0.642   0.843
   0.686   0.937   1.104   1.503   1.571   1.582   1.322   0.982   0.904   1.156
   0.843   0.685   0.661   1.381   1.120   1.079   0.982   0.705   1.199   1.261
   1.105   1.575   1.954   1.496   0.713   0.348   1.339   0.616   1.060   1.034
   1.164   1.234   1.425   2.155   1.267   0.834   1.314   1.182   1.535   1.841
   1.504   0.869   0.676   1.346   1.000   1.199   1.237   1.181   1.050   0.982
   1.842   0.773   0.696   1.068   1.138   0.912   0.608   0.989   1.166   1.200
   0.756   0.903
  4  0      5.6661675E-01  0.0000000E+00
  4  1     -9.8084573E-02  5.2173820E-02
  4  2      4.8366807E-03 -1.1455536E-02
  4  3     -8.6401619E-02 -4.2399663E-02
  4  4     -1.6709594E-01 -1.2158223E-02
  6  0      6.4593148E-01  0.0000000E+00
  6  1     -7.1398926E-02 -7.5117322E-02
  6  2     -3.7066473E-01  4.0518109E-02
  6  3     -1.3215251E-01 -1.0324761E-01
  6  4      6.5003842E-01 -9.8718569E-02
  6  5     -1.1582343E-01  1.2035801E-01
  6  6     -5.8651034E-02 -2.6276656E-02
  8  0     -6.1474793E-01  0.0000000E+00
  8  1     -7.1290643E-02  6.3829572E-02
  8  2     -8.9207058E-02  5.8979191E-02
  8  3      2.4094193E-02  2.1258216E-02
  8  4      5.2332447E-01 -1.2747818E-01
  8  5     -1.0680341E-01  6.7448362E-03
  8  6     -9.7825992E-02 -1.2736542E-02
  8  7     -1.0621160E-01  5.9962112E-02
  8  8     -4.5070241E-01 -7.5680076E-02
 10  0      3.1379420E-01  0.0000000E+00
 10  1     -5.5308683E-02 -1.1625922E-01
 10  2      6.9078015E-02  4.4795998E-02
 10  3     -8.6997634E-02  6.1049657E-02
 10  4     -1.4885361E-01  5.6611051E-02
 10  5      1.0752694E-01  7.3250687E-02
 10  6      3.6284470E-02 -3.3749959E-03
 10  7     -5.4213102E-02 -7.1905551E-02
 10  8     -2.3142488E-02  3.2266926E-02
 10  9      9.6662175E-02  4.4482700E-02
 10 10      7.6694183E-03  6.8525423E-02
 12  0      3.2153705E-02  1.1805687E-01  0.0000000E+00  0.0000000E+00
 12  1     -4.6696280E-02 -1.5934354E-01 -5.2720829E-02  5.5191283E-02
 12  2     -1.1317380E-01 -1.0320286E-01  3.6455386E-02 -2.3114298E-02
 12  3      9.6014560E-02 -5.0716242E-02  5.6780234E-02 -3.0136751E-02
 12  4      9.0357786E-02  7.7515888E-02  2.7233147E-02 -2.9628631E-02
 12  5     -1.8556154E-02 -6.1601734E-02 -1.0955524E-02  3.4560981E-02
 12  6      4.5524268E-02 -9.5087144E-02 -4.4808851E-02 -1.9907767E-02
 12  7      1.3557145E-02 -3.0828707E-02  4.8698731E-02 -6.2653353E-02
 12  8      7.6287107E-02  3.4899353E-01 -4.7398659E-02 -9.8880110E-02
 12  9      5.8270609E-03 -5.2371736E-02  1.0148655E-01  5.9831131E-02
 12 10     -1.2478666E-02 -9.1524463E-02  4.5528225E-02 -1.5772749E-01
 12 11      4.3161104E-02 -8.5196082E-03  2.1851304E-02  3.4365149E-02
 12 12      2.0480350E-01  1.5147846E-01  3.8837961E-01 -1.2676266E-03
 14  0      6.1674360E-02  0.0000000E+00
 14  1     -9.5332477E-02 -3.1273163E-02
 14  2     -1.7271974E-02  1.1710065E-02
 14  3     -2.0948484E-02 -1.8008963E-02
 14  4     -8.7204900E-02  6.6583045E-02
 14  5      9.0507303E-02 -6.6402556E-02
 14  6     -3.0659142E-02  2.3507316E-02
 14  7      4.6723108E-02 -7.0289417E-02
 14  8      9.5028090E-02 -5.0376837E-02
 14  9     -3.6491952E-02 -2.9066126E-02
 14 10      7.6566400E-02  6.0931801E-02
 14 11     -8.1278664E-03 -6.7098911E-02
 14 12     -1.8606795E-02  1.4802278E-01
 14 13      1.4602657E-01 -1.3125092E-01
 14 14      1.8406769E-01  1.7625509E-01
 220       5.00   72    0 5.00   18    0
   1.005   1.005   1.005   1.006   1.008   1.010   1.013   1.017   1.021   1.025
   1.030   1.036   1.042   1.047   1.053   1.060   1.066   1.072   1.078   1.084
   1.090   1.096   1.101   1.106   1.112   1.116   1.121   1.125   1.129   1.133
   1.136   1.139   1.141   1.144   1.146   1.147   1.148   1.149   1.150   1.150
   1.149   1.149   1.148   1.146   1.145   1.142   1.140   1.137   1.133   1.129
   1.125   1.120   1.115   1.110   1.104   1.097   1.091   1.084   1.077   1.070
   1.063   1.056   1.049   1.043   1.036   1.030   1.025   1.020   1.015   1.012
   1.009   1.007
   0.833   0.835   0.840   0.848   0.859   0.872   0.887   0.904   0.922   0.941
   0.960   0.979   0.998   1.016   1.032   1.048   1.063   1.076   1.087   1.098
   1.107   1.116   1.123   1.130   1.137   1.142   1.148   1.153   1.157   1.161
   1.165   1.168   1.170   1.172   1.173   1.174   1.174   1.174   1.174   1.174
   1.174   1.174   1.174   1.174   1.175   1.176   1.176   1.177   1.177   1.176
   1.175   1.171   1.166   1.159   1.149   1.137   1.123   1.106   1.086   1.065
   1.041   1.017   0.992   0.967   0.943   0.920   0.899   0.880   0.864   0.851
   0.841   0.836
   0.736   0.744   0.759   0.779   0.803   0.830   0.861   0.893   0.926   0.959
   0.991   1.022   1.050   1.076   1.098   1.116   1.130   1.139   1.145   1.146
   1.145   1.141   1.136   1.130   1.125   1.120   1.116   1.114   1.112   1.111
   1.110   1.108   1.106   1.102   1.097   1.091   1.084   1.077   1.070   1.064
   1.060   1.057   1.057   1.061   1.067   1.076   1.089   1.104   1.122   1.141
   1.160   1.177   1.191   1.201   1.205   1.201   1.190   1.172   1.146   1.114
   1.077   1.036   0.993   0.949   0.906   0.865   0.828   0.796   0.770   0.751
   0.739   0.734
   0.750   0.767   0.790   0.817   0.846   0.879   0.913   0.949   0.987   1.025
   1.064   1.102   1.140   1.174   1.204   1.228   1.245   1.253   1.251   1.239
   1.219   1.193   1.162   1.131   1.101   1.075   1.055   1.039   1.029   1.023
   1.018   1.014   1.010   1.002   0.992   0.979   0.963   0.945   0.927   0.910
   0.895   0.884   0.878   0.878   0.884   0.898   0.921   0.953   0.994   1.042
   1.094   1.148   1.197   1.239   1.268   1.282   1.280   1.261   1.229   1.186
   1.136   1.080   1.023   0.967   0.913   0.864   0.821   0.786   0.760   0.743
   0.736   0.739
   0.833   0.857   0.879   0.899   0.915   0.930   0.946   0.966   0.990   1.020
   1.056   1.098   1.146   1.198   1.251   1.301   1.343   1.370   1.379   1.366
   1.332   1.281   1.217   1.149   1.083   1.026   0.982   0.950   0.931   0.924
   0.924   0.928   0.934   0.938   0.936   0.927   0.909   0.884   0.855   0.823
   0.792   0.766   0.744   0.730   0.724   0.730   0.751   0.790   0.849   0.927
   1.020   1.120   1.216   1.296   1.350   1.374   1.366   1.330   1.274   1.206
   1.135   1.067   1.004   0.948   0.900   0.858   0.825   0.800   0.786   0.784
   0.793   0.811
   0.923   0.950   0.962   0.957   0.939   0.915   0.893   0.878   0.875   0.885
   0.911   0.952   1.010   1.085   1.174   1.270   1.361   1.435   1.478   1.481
   1.441   1.366   1.265   1.153   1.045   0.952   0.880   0.832   0.806   0.800
   0.813   0.840   0.877   0.916   0.948   0.965   0.962   0.937   0.895   0.843
   0.788   0.737   0.693   0.657   0.630   0.615   0.620   0.653   0.722   0.827
   0.965   1.119   1.267   1.388   1.460   1.474   1.432   1.346   1.236   1.123
   1.022   0.943   0.887   0.849   0.823   0.804   0.791   0.786   0.792   0.813
   0.846   0.885
   0.998   1.029   1.024   0.984   0.920   0.848   0.783   0.734   0.705   0.697
   0.707   0.739   0.796   0.883   1.002   1.143   1.290   1.417   1.501   1.524
   1.480   1.379   1.239   1.085   0.941   0.822   0.734   0.676   0.646   0.643
   0.669   0.726   0.809   0.908   1.002   1.070   1.095   1.073   1.011   0.924
   0.831   0.747   0.677   0.621   0.575   0.541   0.527   0.546   0.615   0.743
   0.923   1.133   1.337   1.496   1.577   1.566   1.468   1.310   1.128   0.959
   0.829   0.748   0.711   0.705   0.712   0.721   0.728   0.740   0.765   0.810
   0.872   0.940
   1.084   1.121   1.100   1.027   0.920   0.808   0.712   0.646   0.609   0.592
   0.589   0.601   0.638   0.715   0.839   1.003   1.183   1.344   1.449   1.475
   1.416   1.285   1.111   0.931   0.773   0.654   0.575   0.527   0.502   0.500
   0.530   0.608   0.737   0.903   1.072   1.203   1.263   1.239   1.143   1.005
   0.860   0.736   0.643   0.579   0.531   0.492   0.466   0.472   0.534   0.670
   0.879   1.131   1.380   1.569   1.655   1.618   1.470   1.251   1.012   0.803
   0.658   0.586   0.576   0.602   0.639   0.669   0.688   0.709   0.747   0.812
   0.903   1.003
   1.209   1.251   1.220   1.124   0.990   0.855   0.750   0.685   0.654   0.639
   0.625   0.613   0.619   0.667   0.775   0.934   1.114   1.273   1.367   1.373
   1.288   1.133   0.945   0.762   0.619   0.529   0.486   0.469   0.460   0.458
   0.482   0.562   0.715   0.930   1.161   1.345   1.433   1.403   1.271   1.080
   0.882   0.717   0.606   0.544   0.510   0.484   0.461   0.456   0.504   0.630
   0.839   1.102   1.364   1.561   1.646   1.598   1.435   1.202   0.954   0.745
   0.607   0.548   0.552   0.593   0.643   0.684   0.714   0.743   0.791   0.872
   0.985   1.109
   1.348   1.392   1.361   1.260   1.122   0.985   0.881   0.823   0.800   0.787
   0.764   0.728   0.704   0.724   0.811   0.953   1.114   1.244   1.303   1.278
   1.178   1.027   0.858   0.704   0.591   0.534   0.528   0.546   0.562   0.566
   0.581   0.648   0.796   1.021   1.272   1.478   1.580   1.552   1.409   1.195
   0.965   0.770   0.639   0.576   0.557   0.551   0.538   0.529   0.558   0.660
   0.842   1.076   1.308   1.479   1.549   1.506   1.369   1.177   0.978   0.811
   0.698   0.641   0.632   0.658   0.705   0.761   0.815   0.868   0.930   1.014
   1.125   1.248
   1.434   1.472   1.453   1.375   1.258   1.136   1.037   0.976   0.948   0.929
   0.895   0.844   0.802   0.807   0.883   1.013   1.151   1.244   1.266   1.222
   1.139   1.038   0.932   0.828   0.741   0.691   0.686   0.717   0.756   0.781
   0.802   0.852   0.969   1.154   1.370   1.555   1.658   1.655   1.552   1.374
   1.158   0.949   0.792   0.709   0.690   0.695   0.694   0.685   0.704   0.783
   0.927   1.106   1.270   1.378   1.411   1.373   1.283   1.166   1.049   0.947
   0.864   0.797   0.751   0.742   0.785   0.874   0.983   1.079   1.150   1.209
   1.277   1.358
   1.398   1.430   1.438   1.408   1.341   1.249   1.155   1.079   1.032   1.001
   0.963   0.909   0.863   0.865   0.936   1.056   1.170   1.228   1.222   1.181
   1.147   1.136   1.127   1.090   1.015   0.931   0.879   0.886   0.938   1.000
   1.048   1.092   1.159   1.263   1.392   1.515   1.606   1.654   1.645   1.565
   1.409   1.208   1.022   0.908   0.873   0.879   0.884   0.882   0.903   0.978
   1.095   1.211   1.284   1.302   1.281   1.240   1.192   1.143   1.100   1.059
   1.007   0.931   0.848   0.808   0.860   1.007   1.193   1.340   1.402   1.395
   1.371   1.371
   1.237   1.266   1.313   1.347   1.347   1.299   1.214   1.122   1.053   1.014
   0.984   0.947   0.913   0.916   0.977   1.071   1.149   1.171   1.143   1.116
   1.140   1.220   1.311   1.343   1.280   1.149   1.027   0.984   1.036   1.139
   1.230   1.275   1.283   1.282   1.295   1.332   1.403   1.507   1.613   1.658
   1.590   1.418   1.221   1.084   1.037   1.042   1.049   1.053   1.090   1.178
   1.280   1.334   1.309   1.234   1.162   1.122   1.104   1.092   1.086   1.083
   1.063   0.998   0.901   0.848   0.922   1.136   1.399   1.580   1.601   1.494
   1.352   1.258
   1.009   1.047   1.127   1.218   1.284   1.288   1.222   1.121   1.037   0.998
   0.992   0.992   0.991   1.005   1.042   1.087   1.105   1.082   1.040   1.025
   1.082   1.211   1.362   1.451   1.417   1.271   1.098   1.007   1.048   1.180
   1.306   1.349   1.298   1.196   1.099   1.055   1.100   1.239   1.427   1.572
   1.586   1.463   1.288   1.163   1.125   1.132   1.134   1.140   1.195   1.302
   1.390   1.376   1.254   1.106   1.022   1.016   1.032   1.026   1.010   1.016
   1.030   1.000   0.917   0.863   0.952   1.210   1.519   1.701   1.661   1.451
   1.210   1.054
   0.806   0.855   0.946   1.062   1.170   1.221   1.183   1.085   0.993   0.956
   0.978   1.030   1.085   1.126   1.139   1.113   1.052   0.984   0.942   0.947
   1.007   1.118   1.257   1.371   1.390   1.284   1.111   0.989   1.006   1.141
   1.279   1.311   1.210   1.036   0.873   0.786   0.808   0.942   1.143   1.321
   1.386   1.322   1.205   1.128   1.115   1.123   1.112   1.114   1.185   1.306
   1.369   1.279   1.068   0.885   0.845   0.924   0.994   0.978   0.919   0.906
   0.951   0.971   0.913   0.850   0.922   1.174   1.479   1.633   1.535   1.263
   0.990   0.835
   0.683   0.737   0.806   0.905   1.022   1.103   1.097   1.014   0.919   0.875
   0.909   1.008   1.130   1.218   1.216   1.114   0.968   0.867   0.860   0.915
   0.973   1.015   1.076   1.172   1.247   1.221   1.089   0.953   0.933   1.041
   1.167   1.182   1.051   0.851   0.684   0.606   0.622   0.719   0.867   1.011
   1.088   1.082   1.038   1.017   1.024   1.019   0.990   0.994   1.087   1.221
   1.252   1.085   0.805   0.624   0.672   0.866   1.002   0.969   0.852   0.808
   0.876   0.942   0.904   0.814   0.832   1.029   1.287   1.397   1.266   0.994
   0.762   0.668
   0.635   0.680   0.707   0.763   0.862   0.954   0.977   0.921   0.832   0.774
   0.795   0.912   1.087   1.225   1.219   1.049   0.827   0.713   0.774   0.918
   0.998   0.968   0.921   0.962   1.073   1.127   1.046   0.900   0.835   0.904
   1.011   1.015   0.876   0.687   0.560   0.532   0.565   0.619   0.685   0.762
   0.831   0.870   0.887   0.898   0.899   0.869   0.827   0.849   0.978   1.129
   1.134   0.913   0.597   0.440   0.573   0.860   1.040   0.985   0.819   0.752
   0.838   0.938   0.908   0.782   0.732   0.854   1.045   1.110   0.973   0.743
   0.591   0.577
   0.614   0.646   0.641   0.662   0.736   0.823   0.868   0.847   0.780   0.713
   0.705   0.804   0.995   1.162   1.155   0.937   0.656   0.537   0.671   0.917
   1.046   0.975   0.837   0.816   0.933   1.036   0.989   0.835   0.737   0.784
   0.888   0.896   0.762   0.587   0.500   0.524   0.585   0.614   0.620   0.647
   0.709   0.779   0.825   0.833   0.803   0.746   0.711   0.771   0.940   1.107
   1.102   0.863   0.548   0.417   0.583   0.890   1.065   0.991   0.813   0.751
   0.855   0.970   0.937   0.787   0.692   0.756   0.889   0.918   0.785   0.598
   0.505   0.540
 200       5.00   72    0 5.00   18    0
   0.644   0.639   0.635   0.632   0.629   0.626   0.624   0.622   0.621   0.621
   0.621   0.621   0.622   0.623   0.625   0.627   0.629   0.632   0.634   0.637
   0.640   0.642   0.645   0.648   0.651   0.654   0.658   0.661   0.664   0.668
   0.671   0.675   0.679   0.682   0.687   0.691   0.695   0.699   0.704   0.708
   0.712   0.716   0.720   0.724   0.727   0.730   0.733   0.735   0.736   0.737
   0.738   0.738   0.737   0.736   0.734   0.731   0.728   0.724   0.720   0.716
   0.711   0.705   0.700   0.694   0.688   0.682   0.676   0.670   0.664   0.659
   0.653   0.648
   0.722   0.709   0.697   0.685   0.675   0.667   0.660   0.656   0.655   0.657
   0.662   0.671   0.681   0.694   0.708   0.724   0.739   0.754   0.768   0.779
   0.789   0.796   0.800   0.803   0.803   0.802   0.801   0.799   0.798   0.798
   0.799   0.803   0.808   0.815   0.824   0.834   0.846   0.858   0.872   0.886
   0.900   0.915   0.930   0.945   0.959   0.974   0.987   0.999   1.010   1.018
   1.024   1.027   1.026   1.023   1.016   1.005   0.992   0.977   0.960   0.941
   0.921   0.901   0.882   0.862   0.844   0.826   0.810   0.794   0.779   0.764
   0.750   0.736
   0.952   0.932   0.909   0.883   0.856   0.830   0.806   0.787   0.776   0.772
   0.779   0.795   0.821   0.855   0.896   0.940   0.984   1.026   1.062   1.090
   1.109   1.117   1.116   1.105   1.088   1.066   1.043   1.022   1.004   0.992
   0.988   0.991   1.001   1.017   1.037   1.058   1.080   1.101   1.119   1.135
   1.149   1.163   1.177   1.193   1.211   1.232   1.257   1.282   1.308   1.331
   1.349   1.362   1.366   1.361   1.346   1.324   1.294   1.258   1.219   1.180
   1.142   1.107   1.076   1.051   1.032   1.018   1.008   1.000   0.994   0.988
   0.979   0.967
   1.283   1.262   1.229   1.185   1.131   1.074   1.016   0.963   0.921   0.894
   0.885   0.898   0.933   0.986   1.055   1.133   1.214   1.290   1.354   1.402
   1.428   1.434   1.418   1.384   1.337   1.284   1.230   1.183   1.149   1.131
   1.133   1.153   1.188   1.235   1.285   1.333   1.373   1.399   1.410   1.407
   1.392   1.372   1.353   1.341   1.341   1.355   1.384   1.424   1.471   1.519
   1.561   1.592   1.607   1.604   1.582   1.544   1.493   1.433   1.369   1.307
   1.253   1.208   1.178   1.162   1.160   1.171   1.192   1.218   1.245   1.268
   1.284   1.290
   1.573   1.560   1.525   1.469   1.397   1.312   1.219   1.127   1.043   0.978
   0.939   0.932   0.960   1.020   1.106   1.208   1.316   1.416   1.498   1.554
   1.580   1.575   1.541   1.483   1.410   1.332   1.257   1.197   1.159   1.152
   1.175   1.230   1.309   1.403   1.500   1.585   1.647   1.676   1.667   1.623
   1.552   1.467   1.385   1.320   1.282   1.278   1.306   1.361   1.432   1.508
   1.576   1.627   1.654   1.654   1.627   1.577   1.510   1.433   1.354   1.282
   1.222   1.181   1.161   1.165   1.190   1.235   1.294   1.361   1.428   1.489
   1.536   1.565
   1.656   1.655   1.632   1.586   1.518   1.430   1.325   1.211   1.097   0.998
   0.926   0.892   0.902   0.955   1.044   1.154   1.270   1.374   1.452   1.498
   1.508   1.484   1.433   1.363   1.283   1.203   1.133   1.083   1.063   1.077
   1.128   1.214   1.327   1.458   1.591   1.706   1.787   1.816   1.786   1.700
   1.571   1.422   1.278   1.162   1.092   1.072   1.099   1.162   1.246   1.333
   1.411   1.468   1.497   1.496   1.467   1.414   1.347   1.274   1.203   1.142
   1.096   1.069   1.064   1.082   1.123   1.185   1.264   1.353   1.442   1.522
   1.588   1.633
   1.459   1.472   1.470   1.453   1.416   1.356   1.272   1.167   1.051   0.939
   0.847   0.792   0.784   0.826   0.910   1.019   1.131   1.225   1.286   1.306
   1.288   1.241   1.176   1.106   1.039   0.983   0.942   0.924   0.933   0.969
   1.033   1.122   1.231   1.357   1.488   1.609   1.698   1.734   1.701   1.599
   1.443   1.264   1.096   0.968   0.894   0.875   0.901   0.956   1.022   1.088
   1.145   1.185   1.206   1.204   1.180   1.137   1.085   1.033   0.988   0.957
   0.939   0.933   0.937   0.954   0.984   1.031   1.095   1.170   1.249   1.323
   1.385   1.430
   1.073   1.093   1.112   1.128   1.134   1.121   1.084   1.018   0.930   0.832
   0.740   0.674   0.650   0.676   0.749   0.852   0.961   1.049   1.096   1.093
   1.048   0.979   0.905   0.842   0.798   0.774   0.769   0.785   0.820   0.868
   0.922   0.977   1.035   1.104   1.192   1.292   1.386   1.441   1.431   1.347
   1.207   1.048   0.909   0.818   0.780   0.784   0.807   0.831   0.846   0.856
   0.867   0.882   0.899   0.908   0.899   0.872   0.835   0.802   0.784   0.786
   0.802   0.820   0.832   0.835   0.834   0.839   0.856   0.889   0.933   0.978
   1.018   1.049
   0.685   0.703   0.734   0.777   0.823   0.860   0.877   0.868   0.830   0.768
   0.693   0.622   0.576   0.568   0.608   0.689   0.790   0.880   0.929   0.921
   0.865   0.784   0.709   0.659   0.639   0.643   0.665   0.701   0.748   0.795
   0.825   0.824   0.801   0.781   0.798   0.865   0.965   1.052   1.081   1.036
   0.936   0.828   0.756   0.739   0.768   0.809   0.828   0.807   0.752   0.690
   0.651   0.651   0.683   0.720   0.735   0.717   0.679   0.645   0.638   0.666
   0.715   0.764   0.792   0.789   0.760   0.719   0.683   0.663   0.660   0.665
   0.672   0.677
   0.434   0.444   0.486   0.555   0.637   0.718   0.787   0.833   0.849   0.833
   0.787   0.717   0.640   0.576   0.549   0.573   0.642   0.726   0.783   0.786
   0.734   0.660   0.601   0.579   0.593   0.626   0.664   0.707   0.756   0.797
   0.802   0.746   0.636   0.519   0.460   0.494   0.603   0.722   0.786   0.772
   0.709   0.657   0.661   0.729   0.829   0.911   0.931   0.871   0.754   0.627
   0.546   0.541   0.597   0.666   0.699   0.678   0.624   0.580   0.578   0.627
   0.708   0.789   0.844   0.854   0.820   0.756   0.682   0.616   0.566   0.524
   0.486   0.452
   0.321   0.327   0.394   0.506   0.636   0.760   0.864   0.943   0.995   1.018
   1.008   0.957   0.864   0.743   0.629   0.561   0.559   0.606   0.655   0.665
   0.629   0.579   0.560   0.591   0.661   0.734   0.792   0.839   0.888   0.928
   0.921   0.825   0.641   0.436   0.303   0.301   0.409   0.543   0.622   0.622
   0.588   0.586   0.655   0.785   0.931   1.040   1.071   1.004   0.858   0.690
   0.570   0.544   0.601   0.677   0.709   0.679   0.625   0.599   0.630   0.709
   0.806   0.897   0.963   0.995   0.983   0.927   0.842   0.748   0.654   0.560
   0.463   0.375
   0.259   0.271   0.390   0.576   0.774   0.937   1.051   1.120   1.164   1.201
   1.231   1.232   1.170   1.034   0.853   0.688   0.590   0.565   0.574   0.574
   0.553   0.545   0.587   0.691   0.825   0.943   1.020   1.073   1.126   1.175
   1.172   1.057   0.823   0.547   0.346   0.296   0.379   0.500   0.572   0.585
   0.589   0.643   0.758   0.901   1.036   1.140   1.193   1.166   1.043   0.859
   0.692   0.613   0.625   0.667   0.673   0.644   0.635   0.695   0.815   0.936
   1.013   1.050   1.080   1.117   1.141   1.122   1.051   0.943   0.816   0.668
   0.504   0.351
   0.202   0.232   0.421   0.699   0.969   1.157   1.239   1.244   1.228   1.247
   1.319   1.404   1.427   1.334   1.138   0.913   0.734   0.629   0.577   0.547
   0.541   0.586   0.702   0.869   1.038   1.163   1.236   1.286   1.347   1.412
   1.425   1.315   1.067   0.755   0.503   0.399   0.429   0.509   0.568   0.611
   0.685   0.809   0.942   1.034   1.086   1.144   1.230   1.289   1.238   1.063
   0.846   0.695   0.640   0.624   0.590   0.570   0.650   0.862   1.121   1.285
   1.286   1.188   1.117   1.136   1.205   1.241   1.198   1.089   0.941   0.757
   0.539   0.328
   0.223   0.270   0.516   0.864   1.176   1.350   1.359   1.258   1.149   1.134
   1.247   1.424   1.545   1.521   1.356   1.132   0.930   0.777   0.664   0.595
   0.602   0.711   0.896   1.088   1.219   1.275   1.294   1.327   1.399   1.484
   1.518   1.434   1.217   0.927   0.671   0.528   0.496   0.522   0.570   0.663
   0.826   1.017   1.131   1.112   1.026   1.016   1.146   1.320   1.365   1.212
   0.958   0.761   0.672   0.619   0.547   0.527   0.695   1.071   1.477   1.662
   1.537   1.250   1.048   1.051   1.183   1.285   1.271   1.163   1.014   0.831
   0.602   0.365
   0.427   0.478   0.734   1.091   1.385   1.498   1.405   1.187   0.993   0.958
   1.114   1.361   1.537   1.544   1.411   1.240   1.091   0.952   0.801   0.686
   0.699   0.871   1.114   1.282   1.295   1.203   1.126   1.142   1.240   1.350
   1.401   1.353   1.209   1.010   0.817   0.679   0.602   0.576   0.613   0.750
   0.982   1.201   1.252   1.090   0.861   0.797   0.987   1.273   1.397   1.255
   0.989   0.807   0.761   0.729   0.628   0.572   0.772   1.257   1.764   1.939
   1.672   1.204   0.901   0.927   1.150   1.322   1.326   1.215   1.086   0.953
   0.775   0.565
   0.818   0.848   1.059   1.354   1.576   1.598   1.402   1.090   0.846   0.824
   1.034   1.318   1.477   1.438   1.302   1.208   1.178   1.112   0.948   0.778
   0.779   1.004   1.293   1.407   1.258   0.983   0.808   0.837   0.995   1.141
   1.195   1.172   1.118   1.058   0.987   0.902   0.811   0.748   0.768   0.916
   1.156   1.337   1.289   0.997   0.676   0.605   0.863   1.225   1.373   1.212
   0.948   0.837   0.904   0.944   0.823   0.694   0.848   1.350   1.886   2.024
   1.641   1.054   0.718   0.814   1.141   1.375   1.383   1.268   1.179   1.139
   1.068   0.932
   1.236   1.229   1.357   1.558   1.693   1.640   1.372   1.000   0.736   0.750
   1.021   1.325   1.425   1.289   1.112   1.091   1.202   1.241   1.078   0.850
   0.823   1.088   1.420   1.485   1.182   0.745   0.508   0.594   0.849   1.042
   1.084   1.058   1.076   1.150   1.211   1.199   1.119   1.040   1.043   1.169
   1.356   1.443   1.285   0.910   0.567   0.536   0.852   1.236   1.354   1.147
   0.887   0.861   1.050   1.170   1.035   0.821   0.884   1.331   1.835   1.926
   1.478   0.849   0.533   0.705   1.111   1.383   1.389   1.279   1.244   1.310
   1.363   1.320
   1.464   1.417   1.467   1.593   1.686   1.616   1.328   0.925   0.643   0.680
   1.002   1.331   1.390   1.171   0.947   0.972   1.193   1.319   1.164   0.893
   0.850   1.158   1.539   1.582   1.173   0.625   0.361   0.521   0.880   1.121
   1.144   1.091   1.132   1.282   1.427   1.463   1.397   1.324   1.331   1.436
   1.555   1.540   1.293   0.885   0.570   0.589   0.929   1.293   1.363   1.123
   0.871   0.897   1.149   1.306   1.161   0.891   0.876   1.246   1.688   1.742
   1.286   0.674   0.390   0.590   1.009   1.282   1.292   1.204   1.221   1.364
   1.503   1.528
 111       5.00   72    0 5.00   18    0
   0.399   0.399   0.399   0.398   0.398   0.397   0.397   0.396   0.395   0.395
   0.394   0.394   0.393   0.393   0.393   0.392   0.393   0.393   0.393   0.393
   0.394   0.395   0.395   0.396   0.397   0.399   0.400   0.401   0.402   0.403
   0.405   0.406   0.407   0.407   0.408   0.409   0.409   0.409   0.409   0.409
   0.408   0.408   0.407   0.406   0.405   0.404   0.403   0.402   0.401   0.400
   0.399   0.399   0.398   0.397   0.397   0.397   0.397   0.397   0.397   0.397
   0.397   0.397   0.398   0.398   0.399   0.399   0.399   0.399   0.400   0.400
   0.400   0.400
   0.463   0.461   0.459   0.456   0.452   0.448   0.443   0.438   0.433   0.428
   0.423   0.418   0.414   0.410   0.407   0.404   0.402   0.402   0.401   0.402
   0.404   0.406   0.409   0.413   0.417   0.422   0.428   0.434   0.441   0.449
   0.456   0.464   0.471   0.478   0.484   0.488   0.491   0.492   0.491   0.488
   0.483   0.476   0.468   0.459   0.450   0.440   0.430   0.421   0.414   0.407
   0.402   0.398   0.396   0.395   0.395   0.397   0.400   0.404   0.408   0.414
   0.419   0.426   0.432   0.438   0.444   0.449   0.453   0.457   0.460   0.462
   0.464   0.464
   0.613   0.608   0.602   0.594   0.585   0.575   0.564   0.553   0.540   0.527
   0.513   0.500   0.488   0.477   0.467   0.460   0.455   0.452   0.451   0.452
   0.454   0.458   0.462   0.467   0.473   0.480   0.488   0.498   0.510   0.523
   0.540   0.558   0.577   0.597   0.615   0.631   0.642   0.648   0.647   0.639
   0.625   0.605   0.580   0.553   0.524   0.497   0.471   0.449   0.430   0.417
   0.408   0.403   0.402   0.405   0.411   0.420   0.431   0.444   0.459   0.475
   0.493   0.511   0.530   0.548   0.566   0.581   0.594   0.605   0.612   0.616
   0.618   0.616
   0.854   0.840   0.827   0.815   0.802   0.789   0.774   0.756   0.736   0.712
   0.687   0.660   0.633   0.608   0.586   0.568   0.555   0.547   0.544   0.546
   0.552   0.560   0.569   0.578   0.586   0.593   0.599   0.606   0.615   0.628
   0.646   0.671   0.702   0.737   0.773   0.807   0.834   0.851   0.856   0.846
   0.823   0.789   0.745   0.696   0.646   0.599   0.557   0.522   0.495   0.478
   0.468   0.465   0.468   0.477   0.489   0.506   0.526   0.549   0.577   0.609
   0.643   0.681   0.720   0.759   0.795   0.826   0.852   0.869   0.878   0.880
   0.875   0.866
   1.141   1.114   1.092   1.077   1.066   1.056   1.044   1.027   1.003   0.971
   0.933   0.890   0.846   0.802   0.761   0.725   0.696   0.675   0.663   0.663
   0.673   0.691   0.716   0.741   0.763   0.779   0.787   0.789   0.788   0.787
   0.793   0.808   0.835   0.873   0.918   0.966   1.011   1.045   1.064   1.064
   1.046   1.011   0.964   0.909   0.852   0.797   0.747   0.705   0.672   0.647
   0.631   0.623   0.623   0.628   0.639   0.656   0.679   0.710   0.749   0.796
   0.852   0.914   0.981   1.047   1.109   1.162   1.202   1.225   1.231   1.221
   1.200   1.171
   1.381   1.340   1.313   1.299   1.295   1.296   1.293   1.283   1.262   1.228
   1.185   1.134   1.080   1.024   0.969   0.916   0.866   0.824   0.795   0.783
   0.793   0.826   0.876   0.934   0.990   1.034   1.058   1.062   1.049   1.027
   1.003   0.987   0.983   0.996   1.025   1.068   1.117   1.166   1.205   1.231
   1.240   1.235   1.217   1.189   1.155   1.113   1.067   1.016   0.965   0.917
   0.876   0.844   0.822   0.811   0.808   0.816   0.834   0.864   0.909   0.969
   1.043   1.129   1.222   1.315   1.402   1.475   1.526   1.552   1.551   1.525
   1.482   1.431
   1.478   1.435   1.410   1.402   1.406   1.414   1.421   1.420   1.406   1.380
   1.344   1.301   1.255   1.207   1.157   1.103   1.044   0.984   0.933   0.903
   0.906   0.949   1.027   1.126   1.227   1.308   1.357   1.368   1.348   1.304
   1.247   1.187   1.133   1.094   1.079   1.091   1.126   1.177   1.235   1.291
   1.344   1.392   1.435   1.469   1.486   1.476   1.435   1.365   1.276   1.180
   1.093   1.023   0.973   0.942   0.924   0.917   0.922   0.943   0.984   1.048
   1.132   1.230   1.336   1.441   1.536   1.614   1.667   1.691   1.684   1.649
   1.595   1.534
   1.401   1.378   1.366   1.364   1.367   1.373   1.381   1.387   1.387   1.377
   1.359   1.334   1.308   1.282   1.254   1.221   1.176   1.119   1.059   1.014
   1.006   1.049   1.145   1.276   1.411   1.517   1.577   1.588   1.558   1.501
   1.424   1.331   1.231   1.138   1.069   1.038   1.048   1.090   1.150   1.222
   1.305   1.405   1.517   1.626   1.708   1.736   1.697   1.593   1.449   1.295
   1.160   1.064   1.006   0.974   0.954   0.936   0.923   0.924   0.951   1.009
   1.093   1.193   1.295   1.388   1.466   1.524   1.559   1.570   1.557   1.525
   1.481   1.437
   1.201   1.214   1.225   1.225   1.217   1.211   1.217   1.234   1.256   1.271
   1.272   1.260   1.244   1.230   1.222   1.216   1.202   1.172   1.126   1.081
   1.063   1.100   1.199   1.342   1.486   1.589   1.629   1.614   1.566   1.506
   1.433   1.339   1.219   1.091   0.985   0.927   0.922   0.952   0.995   1.047
   1.122   1.238   1.396   1.571   1.714   1.779   1.739   1.604   1.410   1.212
   1.055   0.964   0.932   0.930   0.926   0.903   0.869   0.845   0.854   0.907
   0.995   1.096   1.188   1.256   1.294   1.306   1.300   1.281   1.254   1.226
   1.204   1.195
   0.958   1.011   1.046   1.050   1.032   1.017   1.029   1.070   1.124   1.166
   1.179   1.165   1.136   1.108   1.095   1.099   1.111   1.115   1.099   1.067
   1.045   1.069   1.161   1.302   1.440   1.520   1.518   1.457   1.383   1.328
   1.285   1.219   1.106   0.964   0.842   0.784   0.788   0.818   0.835   0.836
   0.860   0.954   1.128   1.345   1.536   1.632   1.603   1.460   1.250   1.040
   0.888   0.822   0.831   0.867   0.884   0.858   0.807   0.767   0.776   0.842
   0.949   1.062   1.149   1.190   1.183   1.140   1.079   1.015   0.959   0.917
   0.900   0.915
   0.730   0.805   0.865   0.883   0.871   0.865   0.901   0.977   1.062   1.119
   1.130   1.105   1.059   1.011   0.975   0.961   0.971   0.991   0.998   0.980
   0.954   0.964   1.043   1.182   1.319   1.382   1.342   1.239   1.146   1.111
   1.115   1.089   0.985   0.826   0.689   0.641   0.675   0.725   0.725   0.674
   0.641   0.703   0.878   1.114   1.326   1.444   1.441   1.331   1.153   0.963
   0.820   0.760   0.778   0.825   0.845   0.818   0.769   0.746   0.786   0.888
   1.021   1.144   1.224   1.242   1.201   1.116   1.013   0.909   0.814   0.734
   0.684   0.682
   0.545   0.621   0.704   0.750   0.765   0.790   0.861   0.964   1.054   1.095
   1.089   1.063   1.035   1.001   0.958   0.915   0.891   0.892   0.897   0.881
   0.849   0.844   0.912   1.050   1.194   1.259   1.207   1.087   0.999   1.003
   1.064   1.078   0.969   0.766   0.585   0.529   0.592   0.676   0.684   0.617
   0.567   0.626   0.806   1.034   1.223   1.332   1.364   1.329   1.229   1.078
   0.922   0.820   0.792   0.807   0.813   0.791   0.773   0.806   0.905   1.044
   1.179   1.277   1.326   1.321   1.264   1.169   1.058   0.946   0.830   0.708
   0.595   0.532
   0.445   0.506   0.608   0.686   0.734   0.792   0.887   0.989   1.042   1.029
   0.993   0.991   1.034   1.075   1.066   1.004   0.930   0.883   0.861   0.838
   0.803   0.791   0.844   0.970   1.110   1.178   1.132   1.025   0.967   1.023
   1.148   1.203   1.083   0.820   0.569   0.474   0.543   0.659   0.699   0.661
   0.648   0.747   0.935   1.115   1.220   1.273   1.331   1.397   1.406   1.303
   1.117   0.941   0.843   0.815   0.806   0.800   0.832   0.937   1.093   1.237
   1.317   1.335   1.321   1.289   1.235   1.160   1.081   1.007   0.918   0.786
   0.621   0.485
   0.498   0.544   0.650   0.737   0.790   0.853   0.943   1.012   0.997   0.909
   0.841   0.882   1.025   1.171   1.221   1.158   1.044   0.950   0.897   0.867
   0.840   0.832   0.870   0.959   1.057   1.099   1.057   0.977   0.958   1.064
   1.245   1.347   1.242   0.951   0.645   0.503   0.557   0.685   0.755   0.763
   0.807   0.950   1.127   1.214   1.183   1.142   1.212   1.383   1.507   1.454
   1.244   1.018   0.891   0.861   0.865   0.880   0.949   1.098   1.271   1.366
   1.338   1.239   1.152   1.106   1.073   1.030   0.997   0.992   0.984   0.907
   0.746   0.575
   0.752   0.790   0.873   0.917   0.919   0.937   0.989   1.008   0.926   0.778
   0.696   0.782   1.003   1.219   1.306   1.252   1.132   1.027   0.965   0.934
   0.922   0.927   0.947   0.974   0.988   0.973   0.924   0.872   0.885   1.012
   1.219   1.372   1.332   1.091   0.801   0.647   0.682   0.798   0.867   0.884
   0.944   1.087   1.211   1.181   1.006   0.870   0.947   1.203   1.418   1.406
   1.197   0.984   0.911   0.953   1.003   1.028   1.090   1.225   1.358   1.364
   1.214   1.013   0.888   0.861   0.860   0.838   0.832   0.897   1.001   1.041
   0.960   0.824
   1.155   1.190   1.218   1.167   1.064   0.997   0.986   0.956   0.832   0.668
   0.604   0.728   0.972   1.177   1.245   1.200   1.125   1.071   1.034   1.006
   0.997   1.007   1.006   0.960   0.876   0.793   0.742   0.727   0.758   0.863
   1.047   1.235   1.304   1.202   1.021   0.915   0.948   1.036   1.062   1.025
   1.021   1.090   1.128   0.998   0.731   0.544   0.630   0.933   1.189   1.193
   1.007   0.861   0.903   1.059   1.168   1.183   1.195   1.267   1.325   1.238
   0.998   0.752   0.646   0.672   0.706   0.682   0.672   0.781   0.994   1.176
   1.225   1.181
   1.541   1.574   1.534   1.372   1.156   1.000   0.927   0.849   0.702   0.554
   0.540   0.703   0.925   1.055   1.057   1.022   1.038   1.090   1.110   1.081
   1.051   1.047   1.020   0.911   0.742   0.608   0.574   0.609   0.653   0.704
   0.819   1.012   1.199   1.282   1.268   1.257   1.310   1.367   1.328   1.192
   1.065   1.015   0.964   0.787   0.506   0.325   0.419   0.722   0.967   0.968
   0.809   0.739   0.884   1.129   1.275   1.268   1.220   1.222   1.208   1.059
   0.784   0.550   0.498   0.581   0.640   0.602   0.575   0.706   0.993   1.286
   1.454   1.508
   1.725   1.756   1.669   1.438   1.164   0.967   0.854   0.729   0.548   0.413
   0.457   0.668   0.872   0.918   0.846   0.822   0.940   1.114   1.202   1.170
   1.108   1.078   1.030   0.877   0.648   0.482   0.471   0.557   0.613   0.607
   0.641   0.815   1.090   1.334   1.473   1.549   1.623   1.661   1.574   1.355
   1.117   0.960   0.852   0.685   0.450   0.299   0.383   0.648   0.863   0.866
   0.741   0.712   0.887   1.140   1.277   1.251   1.175   1.140   1.090   0.920
   0.655   0.457   0.445   0.553   0.618   0.580   0.561   0.710   1.021   1.342
   1.549   1.653
TEXTURE_INDEX=   1.4320
ERR_CF 220         1080     375   27.27   15.02
ERR_CF 200         1080     438   21.94   13.79
ERR_CF 111         1080     385   39.87   15.78
