TEXEVAL                                                                         
Analysis started on 13-Nov-19 15:52:43                                          
 LMAX=14LFMAX= 3 CUBIC ANORTHIC
 220      5.00 5.00
 200      5.00 5.00
 111      5.00 5.00
 220       5.00   72    0 5.00   15    0
   1.537   1.537   1.537   1.537   1.537   1.537   1.537   1.537   1.537   1.537
   1.537   1.537   1.537   1.537   1.537   1.537   1.537   1.537   1.537   1.537
   1.537   1.537   1.537   1.537   1.537   1.537   1.537   1.537   1.537   1.537
   1.537   1.537   1.537   1.537   1.537   1.537   1.537   1.537   1.537   1.537
   1.537   1.537   1.537   1.537   1.537   1.537   1.537   1.537   1.537   1.537
   1.537   1.537   1.537   1.537   1.537   1.537   1.537   1.537   1.537   1.537
   1.537   1.537   1.537   1.537   1.537   1.537   1.537   1.537   1.537   1.537
   1.537   1.537
   1.428   1.217   1.355   1.501   1.391   1.957   1.257   0.985   0.986   1.371
   1.783   1.550   1.491   1.432   1.562   1.261   1.474   1.234   1.686   1.332
   1.380   1.788   1.520   1.538   1.294   1.748   1.573   1.729   1.326   1.517
   1.526   1.426   1.147   1.709   1.787   1.366   1.514   1.364   1.503   1.510
   1.634   1.631   1.287   1.367   1.261   1.525   1.501   1.767   1.629   1.766
   1.408   1.867   1.428   1.589   1.361   1.558   1.631   1.696   1.445   1.433
   1.650   1.464   1.170   1.329   1.543   1.345   1.345   1.658   1.354   1.291
   1.114   1.276
   1.191   1.260   1.219   1.387   1.386   1.492   1.041   1.038   0.983   1.134
   1.334   1.452   1.483   1.138   1.521   1.311   1.804   1.212   1.246   1.447
   1.278   1.547   1.486   1.443   1.355   1.368   1.610   1.376   1.162   1.340
   1.264   1.299   1.123   1.499   1.271   1.170   1.122   0.869   1.423   1.341
   1.241   1.529   1.406   1.296   1.731   1.193   1.216   1.504   1.507   1.587
   1.390   1.545   1.800   1.432   1.406   1.580   1.665   1.841   1.571   1.440
   1.451   1.287   1.264   1.412   1.238   1.250   1.220   1.346   1.217   1.070
   1.335   1.195
   0.941   1.030   0.971   1.178   0.938   1.037   1.076   0.959   1.311   0.934
   1.167   1.204   1.225   1.032   1.654   1.451   1.756   1.335   1.375   1.574
   1.474   1.592   1.324   1.310   1.517   1.423   1.377   1.239   1.241   1.207
   1.078   1.213   1.195   1.631   1.066   0.965   1.017   1.048   1.246   1.209
   1.105   1.217   1.289   1.110   1.630   1.178   1.282   1.111   1.350   1.244
   1.306   1.741   1.677   1.393   1.712   1.357   1.415   1.548   1.309   1.436
   1.076   1.132   1.126   1.274   1.081   1.000   1.038   1.113   1.152   0.895
   1.521   1.105
   0.846   0.808   0.729   1.078   0.798   1.050   0.849   0.780   1.103   0.850
   0.959   0.884   1.158   0.940   1.592   1.392   1.345   1.127   1.273   1.780
   1.579   1.677   1.405   1.273   1.467   1.220   1.294   1.172   1.029   0.758
   1.052   1.117   1.280   1.335   0.988   1.015   1.023   1.013   1.074   0.956
   1.172   0.786   1.025   0.935   0.985   1.134   1.137   1.104   1.332   1.371
   1.055   1.382   1.341   1.649   1.927   1.277   1.614   1.437   1.340   1.131
   0.931   0.845   1.120   1.078   1.008   0.831   0.853   0.888   0.934   0.812
   1.159   1.057
   0.964   0.872   0.850   0.805   0.819   0.941   0.609   0.667   0.590   0.587
   0.808   0.848   0.965   0.809   1.327   1.279   1.148   1.178   1.187   1.610
   1.417   1.426   1.248   1.338   1.181   1.271   1.063   0.903   0.753   0.615
   0.927   0.833   1.018   0.838   1.053   1.018   1.234   0.888   0.927   0.849
   0.910   0.739   0.885   0.891   0.670   0.866   0.942   1.057   1.026   1.191
   1.101   1.035   1.436   1.621   1.623   1.343   1.773   1.447   1.379   0.951
   0.849   0.790   0.907   0.789   0.673   0.661   0.833   0.531   0.781   0.783
   1.141   1.010
   1.024   0.876   0.897   0.960   0.628   0.573   0.443   0.598   0.503   0.304
   0.445   0.811   0.619   0.716   0.994   1.235   1.411   1.288   1.497   1.316
   1.464   1.249   0.862   1.172   1.048   1.126   0.573   0.642   0.573   0.677
   0.522   0.577   0.536   0.656   1.075   0.923   1.010   1.084   0.842   0.804
   0.624   0.693   0.540   0.691   0.536   0.753   0.760   0.684   0.865   0.848
   1.022   1.196   1.461   1.457   1.305   1.446   1.418   1.466   1.165   0.941
   0.695   0.855   0.687   0.571   0.501   0.536   0.853   0.408   0.786   0.849
   1.186   0.878
   1.119   1.029   1.049   1.254   0.677   0.470   0.557   0.620   0.385   0.251
   0.383   0.853   0.607   0.921   0.687   1.168   1.408   1.379   1.301   1.693
   1.498   1.420   1.015   0.905   0.767   0.647   0.453   0.489   0.470   0.558
   0.543   0.514   0.660   0.806   1.197   1.065   1.050   0.964   1.520   0.758
   0.721   0.533   0.585   0.620   0.373   0.634   0.705   0.612   0.897   0.833
   0.883   1.027   1.480   1.608   1.830   1.694   1.157   1.358   1.067   0.886
   0.564   0.757   0.698   0.593   0.576   0.458   0.673   0.487   0.974   0.970
   1.036   1.144
   1.164   1.008   1.245   1.063   0.843   0.834   0.650   0.942   0.485   0.231
   0.512   0.914   0.535   0.801   0.620   1.028   1.351   1.787   1.175   1.809
   1.285   1.116   0.988   0.833   0.763   0.654   0.573   0.641   0.406   0.519
   0.487   0.749   0.887   0.944   1.499   1.096   1.391   1.138   1.674   1.236
   0.694   0.637   0.772   0.576   0.377   0.512   0.945   0.650   0.765   0.656
   0.910   0.857   1.298   1.722   1.958   1.678   1.144   1.262   0.642   0.924
   0.491   0.437   0.542   0.535   0.538   0.420   0.518   0.691   1.151   1.049
   1.134   1.353
   1.167   1.095   1.299   1.318   1.216   1.006   0.797   0.770   0.616   0.689
   0.676   0.834   0.363   0.569   0.540   0.763   1.622   1.731   1.758   1.416
   1.313   0.933   0.899   0.854   0.860   0.894   0.787   0.612   0.503   0.590
   0.382   0.829   1.151   0.813   1.200   1.243   1.360   1.158   1.440   1.567
   0.631   0.793   0.566   0.378   0.651   0.625   0.915   0.595   0.803   0.433
   0.637   0.844   1.342   1.371   1.623   1.336   1.526   1.526   0.503   0.920
   0.655   0.281   0.555   0.564   0.559   0.635   0.715   0.661   0.835   1.112
   1.113   1.214
   1.389   1.846   1.502   1.164   1.164   0.842   0.918   0.691   0.842   1.307
   1.099   0.761   0.910   1.011   0.798   1.024   1.390   1.621   1.848   1.038
   1.389   1.150   1.419   0.761   1.124   1.394   0.554   0.590   0.955   0.723
   0.885   0.892   0.912   0.792   1.168   1.621   1.596   1.488   1.728   1.377
   0.911   0.792   0.471   0.571   0.792   0.516   0.729   0.528   0.936   0.553
   0.522   0.898   1.634   1.257   1.320   1.062   1.321   1.352   0.767   0.692
   0.974   0.816   0.779   0.798   0.804   0.817   0.855   0.742   0.942   1.062
   0.899   0.968
   1.280   1.726   1.689   1.365   0.712   1.588   0.859   1.253   0.984   0.981
   1.026   0.751   1.012   1.155   1.054   1.448   1.145   1.092   1.235   1.211
   1.040   0.862   1.476   1.058   1.535   1.207   0.622   1.012   1.162   0.583
   1.002   1.099   0.702   1.396   1.811   1.821   1.552   1.531   1.584   1.284
   1.385   0.974   0.611   1.197   1.166   0.838   0.911   0.479   0.838   0.911
   0.573   1.323   1.403   1.403   1.215   0.723   1.204   1.044   1.128   0.695
   1.016   1.033   0.845   0.775   1.075   1.012   0.758   0.782   1.033   1.145
   1.274   0.974
   0.817   1.500   1.559   1.526   1.320   1.717   1.385   1.356   0.889   0.598
   0.824   0.515   0.697   1.214   0.977   1.593   0.833   0.720   0.740   1.868
   0.603   1.033   1.153   1.219   1.555   1.182   1.214   1.390   1.153   0.731
   1.160   1.500   1.137   1.923   1.812   1.002   1.379   1.015   1.279   1.753
   1.891   1.600   0.736   1.295   1.345   1.169   1.153   0.697   0.724   1.103
   0.598   1.395   1.070   0.970   1.070   1.254   0.937   1.440   1.604   1.148
   0.839   0.663   1.309   0.923   1.340   1.191   1.496   1.060   1.209   1.180
   1.322   1.203
   0.587   1.863   1.488   1.403   1.597   1.150   1.295   1.376   1.114   1.015
   0.785   0.375   0.799   1.678   1.669   0.943   0.992   0.835   0.461   1.331
   0.424   1.664   1.200   0.709   1.511   1.372   1.110   1.651   1.011   0.948
   1.398   2.052   1.236   1.610   1.146   0.704   1.160   1.101   0.934   1.773
   2.124   2.214   1.051   1.529   1.263   0.975   0.948   0.736   0.938   1.340
   1.015   0.934   1.001   0.965   0.623   1.268   0.880   1.006   1.435   1.980
   1.254   1.344   1.547   1.074   1.286   1.515   1.633   1.552   1.133   1.466
   0.489   1.691
   0.838   1.077   1.814   1.249   1.154   1.075   1.058   1.280   1.138   0.824
   0.995   0.618   1.373   1.532   1.879   0.492   0.801   0.838   0.712   0.367
   1.011   1.234   1.075   0.791   1.452   0.792   1.122   0.935   1.043   1.451
   1.232   1.816   1.169   1.217   0.509   0.761   0.729   0.840   0.917   1.751
   1.611   1.486   0.997   1.689   0.746   0.635   1.058   0.681   1.405   1.579
   0.903   1.309   0.997   1.217   0.618   0.540   1.437   0.791   1.326   1.863
   1.249   1.909   0.997   0.635   1.483   1.391   1.091   1.406   0.446   1.312
   0.306   1.674
 200       5.00   72    0 5.00   15    0
   1.207   1.207   1.207   1.207   1.207   1.207   1.207   1.207   1.207   1.207
   1.207   1.207   1.207   1.207   1.207   1.207   1.207   1.207   1.207   1.207
   1.207   1.207   1.207   1.207   1.207   1.207   1.207   1.207   1.207   1.207
   1.207   1.207   1.207   1.207   1.207   1.207   1.207   1.207   1.207   1.207
   1.207   1.207   1.207   1.207   1.207   1.207   1.207   1.207   1.207   1.207
   1.207   1.207   1.207   1.207   1.207   1.207   1.207   1.207   1.207   1.207
   1.207   1.207   1.207   1.207   1.207   1.207   1.207   1.207   1.207   1.207
   1.207   1.207
   1.248   1.154   1.288   0.974   1.123   1.335   1.255   1.079   1.044   1.218
   1.333   1.199   1.196   1.326   1.493   1.554   1.323   1.201   1.340   2.038
   1.347   1.156   1.346   1.337   1.434   1.657   1.372   1.633   0.974   1.434
   1.012   1.948   1.235   1.610   1.245   1.122   1.122   1.113   1.091   1.300
   1.449   1.262   1.152   1.498   1.428   1.405   1.236   1.111   1.428   1.033
   1.496   1.290   1.335   1.237   1.212   1.754   1.229   1.368   1.530   1.170
   1.278   1.206   1.359   1.335   1.407   1.231   1.086   1.569   1.222   1.356
   1.426   0.984
   1.333   1.071   1.194   0.986   1.066   1.278   1.214   1.151   1.266   1.344
   1.565   0.948   1.176   1.371   1.410   1.546   1.608   1.593   1.359   1.688
   1.386   1.303   1.404   1.255   1.304   1.122   1.204   1.231   1.015   1.162
   0.988   1.729   1.274   1.184   1.343   1.093   1.175   1.269   1.201   1.310
   1.399   1.174   1.132   1.265   1.492   1.327   1.097   1.073   1.500   1.192
   1.332   1.059   1.384   1.260   1.536   1.823   1.612   1.570   1.726   1.448
   1.105   1.065   1.328   1.255   1.120   1.386   1.161   1.543   1.175   1.096
   1.079   1.095
   1.605   1.262   1.307   1.354   1.207   1.340   1.251   1.301   1.273   1.308
   1.575   1.338   1.044   1.587   1.309   1.763   1.725   1.851   1.710   1.697
   1.432   1.491   1.580   1.428   1.207   1.021   1.239   0.874   1.427   1.276
   0.923   1.370   1.351   1.486   1.090   1.251   1.549   1.538   1.119   1.402
   1.286   1.354   1.065   1.052   1.311   1.087   0.989   1.311   1.864   1.249
   1.603   1.684   1.448   1.650   1.576   1.382   1.791   1.796   1.658   1.904
   1.173   0.774   1.596   1.046   1.053   1.161   1.287   1.490   1.428   1.093
   1.358   1.248
   2.036   1.593   1.578   1.905   1.467   1.335   1.356   1.345   1.059   1.015
   1.292   1.524   1.200   1.469   1.542   1.537   1.525   1.745   1.756   1.522
   1.495   1.370   1.490   1.648   1.296   1.359   1.248   1.201   1.454   1.512
   0.969   1.458   1.420   1.601   1.042   1.618   1.894   1.961   1.299   1.775
   1.308   1.513   1.254   0.942   1.276   0.827   1.100   1.309   1.520   1.187
   1.819   1.700   1.395   1.641   1.897   1.631   1.615   1.538   1.713   1.636
   1.077   1.028   1.612   1.103   1.338   1.151   1.429   1.109   1.356   1.223
   1.743   1.847
   1.910   1.791   1.750   1.818   1.639   1.327   1.060   1.174   1.007   0.827
   1.248   0.907   1.221   1.372   1.814   1.333   1.586   1.761   1.549   1.909
   1.256   1.454   1.448   1.538   1.250   1.188   1.124   1.133   1.027   1.217
   1.133   1.472   1.527   1.483   1.145   1.758   1.922   2.069   1.862   1.973
   1.562   1.416   1.186   1.028   1.373   0.995   1.117   1.134   0.988   1.306
   1.471   1.320   1.339   1.679   2.091   1.469   1.352   1.388   1.442   1.141
   0.939   1.063   1.469   1.057   1.422   1.056   1.215   1.234   1.783   1.412
   1.567   2.381
   1.680   1.643   1.504   1.682   1.342   1.132   0.932   0.993   0.956   0.894
   0.979   0.695   1.089   1.251   1.179   0.963   1.078   1.544   1.216   1.852
   1.000   1.497   1.132   1.239   1.225   0.843   1.035   0.906   0.798   0.944
   1.202   1.305   1.488   1.628   1.230   1.998   1.668   1.725   1.964   1.640
   1.478   1.218   1.016   1.054   0.998   0.979   0.967   0.977   1.171   1.045
   0.995   0.961   1.188   1.479   1.292   1.112   1.056   1.443   0.925   1.009
   0.892   0.677   1.469   0.916   1.005   0.960   1.107   1.225   2.076   1.500
   1.471   2.095
   1.337   1.218   0.992   1.168   0.847   0.943   1.025   1.088   0.767   0.992
   0.668   0.645   0.879   0.909   0.676   0.777   0.655   1.011   0.845   1.032
   0.806   0.784   0.838   0.872   1.310   0.753   0.942   1.036   0.728   0.672
   0.944   1.190   1.267   1.379   1.013   1.550   1.297   1.322   1.158   1.160
   1.267   1.239   1.028   0.866   0.751   0.556   0.923   0.822   0.958   0.740
   0.930   0.621   0.755   0.759   0.788   1.098   0.759   1.185   0.936   0.907
   0.764   0.479   1.083   0.817   0.746   0.999   1.128   0.961   1.244   1.232
   1.199   1.381
   0.788   0.766   0.485   0.478   0.535   0.881   0.829   1.088   0.745   0.792
   0.836   0.572   0.452   0.577   0.605   0.723   0.568   0.757   0.702   0.520
   0.581   0.535   0.634   0.522   0.968   0.627   0.785   0.778   0.788   0.873
   0.869   1.183   0.838   0.930   0.573   0.757   0.792   1.019   0.541   0.886
   0.941   1.042   0.941   0.619   0.829   0.523   0.821   0.668   0.564   0.702
   0.579   0.579   0.590   0.513   0.849   0.827   0.496   0.650   0.968   0.682
   0.662   0.569   0.693   0.862   0.742   1.049   0.723   0.989   0.730   0.976
   0.614   0.858
   0.624   0.702   0.242   0.423   0.918   0.487   0.694   0.801   0.732   0.599
   0.895   0.819   0.892   0.341   0.448   0.314   0.569   0.737   0.517   0.212
   0.569   0.594   0.298   0.315   0.659   0.672   0.801   0.664   0.732   1.334
   0.848   0.917   0.444   0.629   0.603   0.607   0.427   0.581   0.457   0.607
   0.849   0.439   1.128   0.750   0.801   0.805   1.008   0.655   0.616   0.668
   0.530   0.422   0.384   0.371   0.556   0.569   0.440   0.384   0.702   0.870
   0.750   0.629   0.681   0.921   0.650   0.986   0.659   0.861   0.689   0.646
   0.392   0.866
   0.443   0.440   0.117   0.546   0.928   0.736   0.670   1.119   0.849   0.924
   1.054   0.778   1.431   0.562   0.422   0.677   0.594   1.092   0.611   0.249
   0.535   0.681   0.411   0.573   0.692   0.865   0.935   0.718   0.849   1.275
   0.832   0.832   0.346   1.033   0.567   0.584   0.535   0.373   0.406   0.416
   0.729   0.401   1.031   0.724   0.854   1.010   1.166   0.567   0.681   0.924
   0.681   0.487   0.276   0.406   0.416   0.454   0.573   0.638   0.573   0.999
   0.800   0.654   1.065   0.908   0.730   0.697   0.589   0.892   0.562   0.330
   0.535   1.005
   0.566   0.000   0.149   0.648   0.654   1.176   0.620   1.200   0.930   1.149
   1.158   0.918   1.047   0.861   0.930   0.939   0.269   0.933   0.789   0.425
   0.527   1.212   0.521   0.684   0.729   1.167   0.897   0.813   0.798   1.077
   1.245   0.684   0.578   1.233   0.242   0.323   0.437   0.639   0.494   0.605
   0.593   0.675   1.032   0.666   1.212   1.414   1.035   0.705   0.873   1.182
   0.939   0.774   0.618   0.626   0.407   0.512   0.542   0.741   0.864   0.789
   0.729   0.954   1.047   1.233   1.206   0.648   0.738   1.128   0.753   0.530
   0.536   0.750
   0.624   0.436   0.149   0.824   0.857   0.935   0.944   0.930   0.770   0.895
   1.156   1.201   1.071   0.916   1.348   0.711   0.086   0.598   0.897   0.551
   0.638   1.133   0.765   0.725   1.104   1.275   1.017   1.310   0.718   1.316
   1.367   0.765   0.530   0.683   0.406   0.126   0.519   0.683   0.484   0.650
   0.504   0.784   0.834   1.123   1.494   1.560   1.182   1.149   0.902   1.208
   1.409   0.763   0.756   0.380   0.451   0.704   0.411   0.810   1.282   0.937
   1.024   1.222   1.191   1.421   1.341   0.744   1.062   1.208   1.316   0.843
   0.258   0.591
   0.328   0.643   0.000   0.889   1.044   1.285   1.216   0.775   1.027   0.832
   1.347   1.382   1.221   0.540   0.740   0.603   0.397   0.574   0.723   0.443
   0.563   0.614   0.826   1.302   1.428   1.164   1.256   1.313   0.746   0.992
   1.021   1.342   0.942   0.855   0.718   0.231   0.540   0.443   0.288   0.494
   0.208   0.643   0.621   1.193   1.388   1.336   0.843   1.359   1.182   0.855
   1.158   0.523   0.895   0.310   0.391   0.614   0.299   0.500   1.256   1.485
   1.244   1.038   1.548   0.986   0.803   1.325   1.136   0.855   0.837   0.861
   0.231   0.431
   0.844   0.393   0.254   0.734   1.293   0.929   1.882   0.647   1.194   1.443
   1.396   0.878   1.324   0.492   1.702   1.335   0.615   1.117   1.133   0.461
   0.864   0.714   0.698   1.349   1.665   0.889   0.619   0.972   0.631   0.947
   0.853   1.147   1.752   1.142   0.548   1.014   0.290   0.662   0.440   0.579
   0.575   1.066   1.189   0.703   1.396   1.277   0.797   1.918   1.416   1.521
   0.884   0.662   1.277   0.362   0.409   0.983   0.626   0.559   1.008   2.192
   0.889   1.288   0.671   0.833   0.931   1.519   1.479   1.050   0.792   0.786
   0.543   0.275
 111       5.00   72    0 5.00   15    0
   0.316   0.316   0.316   0.316   0.316   0.316   0.316   0.316   0.316   0.316
   0.316   0.316   0.316   0.316   0.316   0.316   0.316   0.316   0.316   0.316
   0.316   0.316   0.316   0.316   0.316   0.316   0.316   0.316   0.316   0.316
   0.316   0.316   0.316   0.316   0.316   0.316   0.316   0.316   0.316   0.316
   0.316   0.316   0.316   0.316   0.316   0.316   0.316   0.316   0.316   0.316
   0.316   0.316   0.316   0.316   0.316   0.316   0.316   0.316   0.316   0.316
   0.316   0.316   0.316   0.316   0.316   0.316   0.316   0.316   0.316   0.316
   0.316   0.316
   0.250   0.385   0.392   0.478   0.375   0.380   0.456   0.245   0.354   0.447
   0.380   0.326   0.438   0.390   0.408   0.536   0.392   0.352   0.620   0.410
   0.425   0.365   0.320   0.459   0.489   0.401   0.315   0.488   0.457   0.318
   0.382   0.553   0.459   0.489   0.343   0.298   0.311   0.388   0.285   0.715
   0.406   0.386   0.581   0.433   0.418   0.348   0.347   0.308   0.473   0.400
   0.295   0.422   0.362   0.296   0.646   0.235   0.271   0.315   0.392   0.399
   0.301   0.264   0.445   0.418   0.548   0.537   0.577   0.386   0.295   0.579
   0.503   0.387
   0.470   0.634   0.481   0.568   0.592   0.558   0.495   0.380   0.548   0.447
   0.537   0.408   0.555   0.443   0.491   0.637   0.373   0.650   0.608   0.562
   0.417   0.348   0.409   0.513   0.478   0.445   0.486   0.580   0.531   0.609
   0.376   0.670   0.554   0.576   0.558   0.319   0.563   0.543   0.548   0.623
   0.557   0.509   0.444   0.601   0.439   0.365   0.382   0.517   0.419   0.414
   0.420   0.470   0.450   0.498   0.680   0.304   0.450   0.421   0.496   0.451
   0.366   0.321   0.509   0.454   0.548   0.494   0.498   0.569   0.445   0.706
   0.746   0.476
   0.746   0.903   0.617   0.675   0.957   0.806   0.605   0.535   0.727   0.550
   0.690   0.721   0.692   0.679   0.594   0.602   0.611   0.675   0.525   0.690
   0.437   0.454   0.509   0.537   0.585   0.607   0.626   0.738   0.595   0.885
   0.512   0.714   0.699   0.763   0.884   0.728   0.702   0.869   0.959   0.695
   0.692   0.873   0.677   0.826   0.730   0.412   0.425   0.834   0.438   0.408
   0.614   0.536   0.606   0.693   0.525   0.512   0.565   0.541   0.674   0.510
   0.586   0.523   0.730   0.664   0.701   0.662   0.613   0.686   0.683   0.692
   0.831   0.778
   1.068   1.119   0.891   0.943   1.207   1.207   0.975   0.875   0.900   1.015
   0.732   0.967   0.771   0.920   0.860   0.733   1.065   0.544   0.603   0.831
   0.542   0.753   0.637   0.969   0.708   0.894   0.771   1.017   0.953   0.928
   0.834   0.823   1.034   0.998   1.049   1.227   0.846   1.299   1.267   1.033
   0.904   1.078   0.916   0.998   0.835   0.606   0.719   0.969   0.576   0.610
   0.911   0.589   0.635   0.812   0.568   0.650   0.626   0.684   0.715   0.767
   0.644   0.620   0.872   1.013   0.905   0.980   1.045   0.881   1.046   0.841
   1.006   1.032
   1.242   1.468   1.126   1.307   1.515   1.450   1.164   1.244   1.216   1.311
   1.166   1.205   1.080   1.011   0.975   1.177   1.167   0.753   0.696   1.010
   0.813   0.993   0.684   1.271   0.915   1.047   0.997   1.332   1.651   1.161
   1.306   1.317   1.329   1.198   1.379   1.227   1.061   1.557   1.333   1.399
   1.322   1.031   1.618   1.222   0.942   1.167   1.020   1.037   0.914   0.852
   0.914   0.649   0.614   0.877   0.907   0.615   0.881   0.718   0.977   1.092
   0.991   1.000   0.966   1.146   1.008   1.454   1.182   1.147   1.346   1.219
   1.213   1.201
   1.333   1.447   1.444   1.440   1.852   1.379   1.324   1.407   1.452   1.492
   1.767   1.411   1.525   1.539   1.257   1.146   1.104   0.978   0.821   1.070
   1.179   0.971   0.627   1.092   1.132   1.252   1.361   1.880   1.978   1.765
   1.643   1.700   1.776   1.666   1.583   1.279   1.267   1.751   1.465   1.441
   1.467   1.382   1.671   1.561   1.207   1.570   1.350   1.175   1.202   1.106
   0.856   1.001   0.957   0.888   0.971   0.829   1.304   1.001   1.163   1.473
   1.616   1.644   1.165   1.446   1.309   1.560   1.324   1.309   1.567   1.327
   1.494   1.334
   1.231   1.150   1.643   1.568   1.658   1.289   1.508   1.527   1.649   1.666
   1.565   1.621   1.618   1.778   1.409   0.835   0.930   1.121   0.930   1.331
   1.126   0.928   1.051   1.018   1.238   1.534   1.446   1.957   1.880   1.724
   1.780   1.885   1.800   1.589   1.416   1.265   1.345   1.528   1.689   1.565
   1.562   1.566   1.271   1.641   1.415   1.602   1.521   1.388   1.127   1.233
   1.176   1.187   0.905   0.996   1.217   1.156   1.193   0.952   0.908   1.463
   1.740   1.729   1.429   1.587   1.731   1.473   1.460   1.354   1.468   1.176
   1.481   1.239
   0.938   1.202   1.159   1.294   1.168   1.024   1.316   1.249   1.525   1.693
   1.231   1.449   1.482   1.176   1.159   0.941   0.853   1.014   1.038   1.295
   0.938   0.900   1.277   1.043   1.306   1.395   1.335   1.611   1.660   1.307
   1.527   1.844   1.491   1.099   1.068   1.277   1.293   1.358   1.482   1.485
   1.442   1.208   1.370   1.493   1.372   1.490   1.524   1.329   1.214   1.255
   1.133   1.128   0.954   1.107   1.353   1.335   1.002   0.866   1.081   1.152
   1.616   1.290   1.537   1.417   1.844   1.495   1.318   1.058   1.310   1.059
   1.071   1.150
   0.833   1.070   0.864   0.685   0.786   0.748   0.814   0.993   1.246   1.399
   1.070   1.344   1.427   1.011   0.732   1.119   0.884   0.696   1.198   1.004
   0.901   0.947   1.009   1.363   0.993   1.302   1.374   1.279   1.377   1.255
   1.092   1.330   1.382   0.948   0.705   1.202   1.139   1.079   0.900   1.304
   1.186   0.883   1.159   1.229   1.188   1.276   1.491   1.114   1.431   1.104
   0.892   1.019   0.977   1.017   0.862   1.181   0.821   1.060   1.131   1.050
   1.330   1.114   1.367   1.282   1.535   1.329   1.202   0.787   1.126   0.745
   0.837   1.045
   0.665   0.841   0.804   0.702   0.520   0.565   0.662   0.992   1.358   1.421
   1.114   1.358   1.327   1.066   0.642   0.912   0.827   0.699   0.952   1.046
   0.747   1.105   0.781   1.316   0.773   1.333   1.279   1.250   1.228   1.188
   1.023   0.997   1.006   0.872   0.645   0.824   0.810   0.682   0.713   1.302
   0.898   0.943   1.105   0.841   1.137   1.327   1.256   1.162   1.464   0.776
   0.904   0.850   0.795   0.753   0.886   1.114   0.693   1.102   0.918   0.861
   1.128   1.080   1.174   1.134   1.344   0.861   1.071   1.063   0.798   0.523
   0.815   0.867
   0.556   0.805   0.627   0.847   0.567   0.478   0.868   1.071   1.263   1.224
   1.174   0.876   1.035   1.365   0.993   0.992   0.776   0.904   0.623   0.989
   0.783   0.989   0.677   1.028   0.911   1.489   1.110   1.071   1.298   1.269
   1.202   1.135   0.922   0.794   0.503   0.829   0.741   0.606   0.758   0.808
   0.762   1.078   0.936   0.801   1.096   1.220   1.177   1.184   1.397   0.936
   1.064   1.021   1.056   0.687   0.993   1.245   1.053   0.869   0.869   0.964
   1.167   1.234   0.826   1.117   1.117   0.623   1.017   1.060   0.939   0.691
   0.648   0.783
   0.706   0.634   0.774   0.678   0.648   0.738   1.188   0.896   0.901   0.688
   1.022   1.010   1.099   1.856   1.196   0.954   0.809   0.705   0.401   0.839
   0.897   0.768   1.037   0.870   0.785   1.413   1.076   0.795   1.146   1.101
   1.343   0.999   0.722   0.580   0.627   0.508   0.624   0.604   0.657   0.528
   0.727   0.995   0.849   0.933   0.945   1.081   1.424   1.165   1.415   1.088
   1.155   1.155   0.851   0.661   0.853   0.936   1.173   0.796   0.956   1.625
   1.057   1.163   1.109   0.981   0.817   0.983   0.955   0.746   0.856   0.723
   0.537   0.576
   0.579   0.568   0.702   0.501   0.691   1.066   1.296   0.831   0.887   0.630
   0.814   1.212   1.380   1.777   1.223   0.854   1.122   0.736   0.417   0.842
   0.949   0.898   1.223   0.904   1.033   1.212   0.848   1.083   1.094   1.134
   0.993   0.618   0.792   0.736   0.820   0.417   0.551   0.708   0.708   0.742
   0.702   0.826   0.809   1.459   0.646   1.010   1.296   1.100   1.279   1.100
   0.999   0.915   0.618   0.585   0.686   0.770   0.775   0.893   0.842   1.469
   1.234   1.117   1.150   0.898   0.960   1.307   0.999   0.708   0.809   0.686
   0.753   0.658
   0.634   0.689   0.841   0.577   1.084   1.130   0.819   1.186   0.867   0.737
   0.840   0.810   1.392   1.213   0.941   0.885   1.186   0.782   0.981   0.867
   1.365   0.885   1.054   1.440   1.636   1.336   0.671   0.837   0.744   1.430
   0.877   0.793   1.290   0.744   1.169   0.567   0.567   0.981   1.244   0.849
   0.914   0.858   1.113   1.258   0.633   0.698   0.782   1.036   1.224   1.449
   1.093   0.821   0.830   0.699   0.793   1.178   0.643   0.670   0.982   1.093
   1.185   1.345   0.802   0.923   1.007   1.326   1.092   0.717   1.299   0.943
   0.716   0.651
  4  0      7.1202751E-01  0.0000000E+00
  4  1     -6.8595273E-03  5.6932198E-03
  4  2      3.6665795E-02  4.2785127E-03
  4  3      1.3431555E-02  8.0712771E-03
  4  4     -1.4271318E-01  4.9777750E-02
  6  0      8.4399886E-01  0.0000000E+00
  6  1     -5.3118387E-02  5.8586093E-02
  6  2     -3.7736200E-01 -6.2936657E-03
  6  3      6.6948960E-02  1.6240832E-02
  6  4      5.9684355E-01 -1.1089818E-01
  6  5     -1.5539736E-02  2.4074111E-02
  6  6     -8.1091943E-02 -1.1839182E-01
  8  0     -3.8240742E-01  0.0000000E+00
  8  1     -1.2884223E-02  1.9659453E-03
  8  2     -1.1454963E-01  1.9428107E-02
  8  3      2.2640098E-02  1.2092843E-02
  8  4      5.3334617E-01 -1.0042639E-02
  8  5      1.9465766E-03  5.3219902E-02
  8  6     -1.4019706E-02  1.3322977E-03
  8  7     -2.0811112E-02 -7.9780170E-03
  8  8     -3.5421630E-01 -4.8445782E-03
 10  0      3.6070861E-01  0.0000000E+00
 10  1     -1.6007138E-02  1.2400128E-02
 10  2      4.7179263E-02 -4.3213836E-03
 10  3     -2.7575582E-02 -1.7710991E-02
 10  4     -1.9040736E-01  1.6466187E-02
 10  5     -1.6024510E-02 -2.8385522E-02
 10  6      8.5617596E-03  3.0794933E-02
 10  7      2.8511303E-02 -2.0537007E-02
 10  8     -7.4205456E-02 -8.1074590E-02
 10  9      5.8658365E-03  8.1560978E-02
 10 10      5.1039223E-02  2.1013798E-01
 12  0      2.5347690E-01  1.8202690E-01  0.0000000E+00  0.0000000E+00
 12  1     -3.7130241E-02 -1.8445837E-03 -6.8590051E-03  9.1631121E-02
 12  2     -8.7042192E-02 -1.1686195E-01 -8.0084052E-03 -1.7252951E-02
 12  3     -1.4557170E-02  2.2153595E-02  4.2368597E-03 -1.4083951E-02
 12  4      2.2161216E-01  1.7767091E-01 -1.3469485E-03 -1.1285872E-02
 12  5     -9.4543250E-02  8.0544730E-02 -6.7282494E-03 -1.0450749E-02
 12  6      2.5282872E-02 -2.4836725E-02  3.8755561E-02 -2.6509433E-02
 12  7      2.5333573E-02  1.3886303E-02  1.4340045E-02  6.1618981E-02
 12  8     -9.1616116E-02  3.7641644E-01 -2.4827160E-02 -7.1626730E-02
 12  9     -8.8224027E-02 -3.5755679E-03  5.3603239E-02  1.8088117E-02
 12 10     -1.2858785E-02 -4.8186092E-03  3.8554075E-02 -9.8933200E-02
 12 11     -5.8451700E-02  1.7899842E-01  1.5972246E-01  1.1505628E-02
 12 12      5.7907503E-02  1.7541053E-01  2.0942763E-01 -1.2444964E-01
 14  0     -5.8799777E-02  0.0000000E+00
 14  1     -1.6775219E-02  4.9920904E-03
 14  2      3.2663153E-02 -2.3734668E-02
 14  3      4.0263674E-02 -1.1020170E-02
 14  4     -4.6086763E-02  1.2863778E-02
 14  5     -9.1911313E-02 -2.8333265E-02
 14  6     -4.8369532E-02  7.0481918E-02
 14  7      4.7709256E-02  1.7686497E-02
 14  8      3.2310803E-02 -2.5009114E-02
 14  9     -1.2656784E-01  4.3923472E-02
 14 10     -4.2004283E-02 -5.5488788E-02
 14 11      1.7684206E-02 -5.1073436E-04
 14 12     -1.1987844E-01  6.6755099E-02
 14 13     -6.7825961E-02 -8.9604825E-02
 14 14      5.8562196E-02  3.7769143E-03
 220       5.00   72    0 5.00   18    0
   1.176   1.174   1.171   1.169   1.167   1.165   1.164   1.162   1.161   1.161
   1.160   1.160   1.160   1.160   1.160   1.160   1.161   1.161   1.162   1.162
   1.163   1.164   1.165   1.165   1.166   1.167   1.169   1.170   1.172   1.173
   1.175   1.177   1.180   1.182   1.185   1.188   1.191   1.195   1.198   1.202
   1.205   1.209   1.213   1.216   1.220   1.223   1.226   1.228   1.231   1.232
   1.234   1.235   1.235   1.235   1.234   1.233   1.231   1.229   1.227   1.224
   1.221   1.217   1.214   1.210   1.206   1.202   1.198   1.194   1.190   1.186
   1.183   1.179
   1.097   1.092   1.088   1.086   1.084   1.084   1.086   1.088   1.091   1.096
   1.101   1.107   1.114   1.120   1.126   1.132   1.138   1.142   1.145   1.147
   1.147   1.146   1.144   1.141   1.137   1.132   1.127   1.122   1.118   1.114
   1.111   1.110   1.110   1.111   1.115   1.120   1.127   1.136   1.147   1.159
   1.173   1.188   1.204   1.220   1.237   1.253   1.268   1.282   1.294   1.304
   1.312   1.318   1.320   1.320   1.316   1.310   1.302   1.291   1.278   1.264
   1.248   1.232   1.216   1.200   1.184   1.169   1.155   1.142   1.130   1.120
   1.111   1.103
   0.985   0.982   0.981   0.980   0.982   0.985   0.991   0.999   1.011   1.025
   1.043   1.063   1.084   1.107   1.129   1.150   1.169   1.183   1.193   1.197
   1.195   1.189   1.177   1.162   1.143   1.123   1.103   1.082   1.063   1.045
   1.029   1.016   1.007   1.000   0.997   0.999   1.004   1.013   1.027   1.044
   1.065   1.090   1.117   1.147   1.178   1.210   1.242   1.272   1.300   1.324
   1.344   1.358   1.366   1.367   1.361   1.349   1.329   1.305   1.276   1.243
   1.210   1.176   1.144   1.113   1.086   1.062   1.042   1.026   1.013   1.003
   0.995   0.989
   0.884   0.884   0.881   0.878   0.875   0.874   0.877   0.886   0.902   0.925
   0.956   0.995   1.039   1.087   1.136   1.184   1.225   1.257   1.276   1.282
   1.273   1.252   1.221   1.184   1.143   1.101   1.061   1.024   0.991   0.961
   0.936   0.915   0.899   0.886   0.878   0.874   0.874   0.879   0.889   0.903
   0.921   0.945   0.974   1.007   1.044   1.085   1.128   1.173   1.217   1.260
   1.298   1.330   1.352   1.362   1.359   1.342   1.312   1.271   1.222   1.167
   1.111   1.057   1.007   0.964   0.929   0.904   0.887   0.878   0.875   0.876
   0.880   0.883
   0.843   0.840   0.826   0.806   0.783   0.763   0.750   0.749   0.761   0.787
   0.828   0.883   0.952   1.031   1.115   1.198   1.272   1.326   1.356   1.357
   1.331   1.281   1.216   1.144   1.074   1.011   0.957   0.914   0.880   0.853
   0.831   0.816   0.805   0.799   0.797   0.798   0.799   0.801   0.802   0.803
   0.807   0.815   0.828   0.849   0.876   0.911   0.953   1.004   1.061   1.124
   1.189   1.251   1.301   1.334   1.344   1.328   1.289   1.229   1.155   1.073
   0.991   0.913   0.846   0.793   0.756   0.736   0.733   0.744   0.765   0.791
   0.816   0.835
   0.899   0.886   0.848   0.792   0.730   0.674   0.634   0.613   0.615   0.638
   0.682   0.746   0.832   0.937   1.057   1.180   1.290   1.372   1.411   1.400
   1.342   1.248   1.135   1.022   0.924   0.849   0.797   0.763   0.742   0.728
   0.719   0.718   0.727   0.744   0.769   0.794   0.812   0.818   0.810   0.790
   0.766   0.743   0.728   0.723   0.729   0.745   0.774   0.818   0.881   0.964
   1.062   1.165   1.259   1.327   1.357   1.345   1.291   1.206   1.102   0.990
   0.881   0.784   0.704   0.644   0.608   0.599   0.616   0.657   0.715   0.780
   0.840   0.882
   1.049   1.025   0.953   0.848   0.735   0.634   0.562   0.524   0.517   0.534
   0.572   0.630   0.715   0.830   0.974   1.133   1.283   1.396   1.446   1.420
   1.324   1.178   1.015   0.866   0.753   0.682   0.648   0.634   0.628   0.621
   0.618   0.628   0.659   0.715   0.788   0.861   0.914   0.932   0.911   0.858
   0.789   0.723   0.674   0.645   0.633   0.633   0.644   0.672   0.730   0.826
   0.957   1.110   1.254   1.362   1.410   1.391   1.311   1.191   1.052   0.914
   0.791   0.687   0.606   0.548   0.517   0.518   0.554   0.625   0.724   0.837
   0.942   1.018
   1.244   1.215   1.113   0.961   0.797   0.657   0.565   0.521   0.515   0.528
   0.548   0.581   0.639   0.740   0.890   1.075   1.262   1.407   1.473   1.439
   1.313   1.128   0.929   0.761   0.651   0.600   0.591   0.594   0.590   0.573
   0.557   0.565   0.618   0.719   0.854   0.990   1.087   1.118   1.073   0.968
   0.838   0.719   0.639   0.601   0.592   0.592   0.591   0.598   0.638   0.734
   0.891   1.087   1.280   1.419   1.472   1.430   1.310   1.149   0.981   0.832
   0.715   0.629   0.567   0.524   0.502   0.508   0.553   0.641   0.771   0.925
   1.076   1.192
   1.421   1.400   1.283   1.101   0.906   0.747   0.653   0.622   0.626   0.632
   0.624   0.612   0.625   0.693   0.832   1.027   1.239   1.411   1.495   1.465
   1.331   1.132   0.927   0.765   0.673   0.647   0.655   0.661   0.642   0.602
   0.567   0.572   0.647   0.792   0.984   1.172   1.304   1.337   1.259   1.096
   0.898   0.726   0.621   0.590   0.604   0.622   0.618   0.602   0.611   0.690
   0.855   1.080   1.303   1.458   1.500   1.426   1.268   1.076   0.897   0.758
   0.668   0.617   0.591   0.576   0.570   0.581   0.623   0.709   0.843   1.014
   1.195   1.344
   1.541   1.541   1.431   1.245   1.044   0.890   0.814   0.804   0.816   0.808
   0.763   0.704   0.672   0.708   0.828   1.015   1.224   1.398   1.490   1.473
   1.356   1.180   1.002   0.869   0.802   0.789   0.796   0.788   0.751   0.699
   0.666   0.690   0.791   0.963   1.174   1.374   1.508   1.534   1.438   1.241
   1.002   0.792   0.667   0.641   0.678   0.717   0.713   0.670   0.641   0.689
   0.843   1.072   1.301   1.450   1.474   1.380   1.211   1.023   0.860   0.747
   0.685   0.665   0.671   0.688   0.708   0.732   0.771   0.840   0.950   1.102
   1.278   1.441
   1.594   1.621   1.538   1.373   1.191   1.060   1.008   1.012   1.016   0.980
   0.900   0.814   0.769   0.799   0.904   1.056   1.218   1.350   1.423   1.418
   1.342   1.222   1.100   1.011   0.966   0.952   0.939   0.910   0.868   0.838
   0.848   0.917   1.041   1.201   1.368   1.515   1.612   1.635   1.564   1.402
   1.182   0.968   0.825   0.783   0.816   0.856   0.846   0.783   0.723   0.739
   0.868   1.074   1.276   1.396   1.401   1.314   1.182   1.048   0.936   0.852
   0.799   0.776   0.786   0.822   0.873   0.928   0.979   1.031   1.097   1.196
   1.331   1.480
   1.564   1.622   1.580   1.455   1.311   1.215   1.184   1.182   1.153   1.074
   0.972   0.902   0.902   0.967   1.060   1.146   1.208   1.250   1.278   1.284
   1.262   1.215   1.163   1.123   1.099   1.076   1.039   0.993   0.965   0.986
   1.066   1.187   1.312   1.408   1.467   1.504   1.539   1.576   1.589   1.539
   1.411   1.235   1.075   0.988   0.978   0.995   0.978   0.913   0.846   0.847
   0.946   1.106   1.248   1.312   1.295   1.239   1.188   1.153   1.118   1.065
   0.994   0.930   0.905   0.935   1.014   1.113   1.196   1.241   1.255   1.275
   1.338   1.448
   1.423   1.513   1.520   1.449   1.362   1.312   1.299   1.273   1.188   1.058
   0.955   0.947   1.041   1.172   1.252   1.242   1.169   1.101   1.080   1.104
   1.138   1.158   1.166   1.170   1.169   1.146   1.094   1.040   1.032   1.104
   1.243   1.391   1.481   1.477   1.402   1.319   1.297   1.365   1.488   1.586
   1.585   1.473   1.304   1.161   1.090   1.075   1.062   1.023   0.985   0.996
   1.071   1.169   1.226   1.214   1.165   1.141   1.179   1.254   1.308   1.291
   1.202   1.083   0.999   0.999   1.090   1.232   1.356   1.401   1.360   1.286
   1.256   1.312
   1.165   1.284   1.339   1.329   1.310   1.322   1.337   1.285   1.138   0.958
   0.866   0.942   1.146   1.341   1.394   1.277   1.079   0.929   0.895   0.953
   1.032   1.085   1.117   1.148   1.174   1.167   1.117   1.059   1.059   1.153
   1.310   1.443   1.471   1.370   1.196   1.042   0.997   1.095   1.295   1.496
   1.596   1.546   1.385   1.206   1.091   1.057   1.066   1.081   1.098   1.136
   1.193   1.228   1.200   1.111   1.023   1.009   1.098   1.246   1.371   1.403
   1.327   1.184   1.051   1.007   1.086   1.253   1.409   1.454   1.356   1.185
   1.060   1.060
   0.855   0.993   1.077   1.113   1.160   1.245   1.303   1.244   1.051   0.833
   0.755   0.897   1.178   1.400   1.409   1.206   0.940   0.781   0.789   0.896
   0.990   1.022   1.029   1.062   1.120   1.147   1.110   1.044   1.029   1.111
   1.247   1.336   1.300   1.144   0.946   0.803   0.780   0.886   1.082   1.286
   1.411   1.403   1.277   1.109   0.988   0.955   0.995   1.068   1.142   1.206
   1.243   1.227   1.141   1.011   0.900   0.872   0.948   1.093   1.241   1.327
   1.310   1.198   1.052   0.967   1.015   1.180   1.349   1.386   1.237   0.985
   0.788   0.751
   0.615   0.750   0.825   0.866   0.953   1.098   1.210   1.171   0.967   0.737
   0.667   0.835   1.129   1.329   1.287   1.043   0.787   0.692   0.780   0.927
   0.995   0.958   0.905   0.927   1.018   1.088   1.068   0.986   0.942   0.995
   1.098   1.143   1.065   0.898   0.742   0.673   0.702   0.792   0.908   1.022
   1.106   1.126   1.065   0.953   0.853   0.826   0.884   0.994   1.106   1.177
   1.186   1.131   1.032   0.921   0.833   0.791   0.803   0.869   0.978   1.097
   1.165   1.131   1.011   0.899   0.904   1.045   1.208   1.234   1.055   0.765
   0.542   0.504
   0.532   0.643   0.670   0.672   0.751   0.922   1.073   1.069   0.894   0.686
   0.628   0.784   1.036   1.180   1.101   0.869   0.679   0.675   0.829   0.978
   0.986   0.865   0.754   0.772   0.900   1.009   0.999   0.899   0.829   0.863
   0.949   0.969   0.866   0.704   0.602   0.617   0.700   0.767   0.783   0.783
   0.813   0.866   0.890   0.849   0.770   0.727   0.772   0.894   1.023   1.087
   1.058   0.969   0.884   0.842   0.832   0.808   0.751   0.699   0.721   0.837
   0.977   1.030   0.954   0.830   0.794   0.898   1.042   1.060   0.882   0.606
   0.414   0.409
   0.586   0.665   0.638   0.587   0.628   0.778   0.928   0.950   0.823   0.669
   0.637   0.770   0.963   1.053   0.965   0.780   0.662   0.711   0.867   0.971
   0.915   0.746   0.623   0.663   0.823   0.952   0.938   0.823   0.744   0.783
   0.877   0.891   0.765   0.586   0.496   0.551   0.671   0.730   0.690   0.627
   0.640   0.741   0.845   0.855   0.769   0.679   0.687   0.809   0.959   1.022
   0.955   0.823   0.742   0.772   0.861   0.894   0.809   0.664   0.593   0.674
   0.845   0.957   0.920   0.797   0.731   0.797   0.914   0.929   0.775   0.548
   0.417   0.456
 200       5.00   72    0 5.00   18    0
   1.044   1.044   1.044   1.044   1.045   1.046   1.047   1.049   1.050   1.052
   1.054   1.055   1.057   1.059   1.060   1.062   1.063   1.064   1.065   1.065
   1.065   1.065   1.065   1.064   1.063   1.062   1.061   1.060   1.059   1.058
   1.057   1.056   1.055   1.055   1.054   1.054   1.054   1.054   1.054   1.054
   1.055   1.056   1.056   1.057   1.059   1.060   1.061   1.062   1.063   1.064
   1.065   1.066   1.066   1.066   1.066   1.066   1.065   1.064   1.063   1.062
   1.060   1.059   1.057   1.055   1.053   1.052   1.050   1.048   1.047   1.046
   1.045   1.044
   1.004   1.003   1.003   1.004   1.006   1.010   1.016   1.023   1.033   1.044
   1.057   1.070   1.085   1.098   1.111   1.122   1.131   1.137   1.140   1.139
   1.136   1.130   1.122   1.112   1.101   1.090   1.079   1.068   1.059   1.051
   1.045   1.040   1.036   1.033   1.032   1.030   1.030   1.029   1.029   1.030
   1.031   1.033   1.036   1.041   1.047   1.055   1.064   1.075   1.086   1.097
   1.108   1.118   1.126   1.131   1.134   1.134   1.131   1.125   1.117   1.107
   1.096   1.084   1.071   1.060   1.049   1.039   1.030   1.023   1.017   1.012
   1.009   1.006
   1.071   1.067   1.058   1.047   1.035   1.026   1.020   1.021   1.030   1.048
   1.074   1.106   1.143   1.182   1.219   1.251   1.277   1.293   1.298   1.293
   1.278   1.254   1.224   1.191   1.156   1.124   1.096   1.074   1.059   1.051
   1.051   1.056   1.065   1.076   1.085   1.093   1.096   1.094   1.087   1.076
   1.063   1.049   1.038   1.032   1.032   1.040   1.057   1.080   1.110   1.144
   1.178   1.210   1.238   1.258   1.269   1.269   1.260   1.241   1.215   1.185
   1.152   1.121   1.093   1.071   1.055   1.047   1.045   1.048   1.054   1.062
   1.068   1.072
   1.342   1.330   1.298   1.252   1.198   1.143   1.094   1.060   1.046   1.053
   1.084   1.134   1.198   1.270   1.342   1.406   1.455   1.485   1.493   1.480
   1.446   1.396   1.335   1.269   1.205   1.148   1.104   1.076   1.068   1.078
   1.106   1.147   1.195   1.245   1.288   1.319   1.334   1.329   1.305   1.264
   1.212   1.155   1.100   1.056   1.028   1.021   1.036   1.072   1.125   1.190
   1.259   1.325   1.381   1.421   1.441   1.439   1.416   1.373   1.318   1.255
   1.192   1.136   1.095   1.071   1.068   1.084   1.119   1.165   1.217   1.267
   1.308   1.335
   1.706   1.683   1.621   1.529   1.416   1.298   1.189   1.101   1.046   1.030
   1.053   1.111   1.197   1.297   1.400   1.492   1.562   1.604   1.614   1.592
   1.542   1.472   1.388   1.299   1.214   1.143   1.091   1.067   1.073   1.111
   1.178   1.267   1.368   1.469   1.558   1.621   1.652   1.644   1.597   1.516
   1.412   1.296   1.183   1.087   1.020   0.990   0.999   1.044   1.118   1.212
   1.312   1.407   1.486   1.541   1.565   1.555   1.514   1.445   1.358   1.264
   1.174   1.101   1.055   1.043   1.067   1.125   1.213   1.320   1.434   1.542
   1.630   1.687
   1.892   1.861   1.779   1.656   1.509   1.353   1.207   1.085   1.000   0.960
   0.968   1.018   1.104   1.210   1.320   1.420   1.496   1.540   1.548   1.524
   1.473   1.401   1.319   1.233   1.152   1.084   1.037   1.021   1.039   1.097
   1.190   1.311   1.448   1.584   1.703   1.789   1.830   1.819   1.757   1.648
   1.507   1.350   1.196   1.065   0.973   0.930   0.936   0.988   1.073   1.177
   1.285   1.384   1.463   1.514   1.532   1.515   1.462   1.381   1.280   1.174
   1.079   1.007   0.972   0.979   1.030   1.122   1.245   1.390   1.541   1.682
   1.796   1.870
   1.714   1.676   1.595   1.482   1.353   1.220   1.097   0.992   0.913   0.867
   0.857   0.884   0.941   1.019   1.105   1.183   1.243   1.276   1.281   1.261
   1.222   1.171   1.115   1.058   1.005   0.959   0.929   0.921   0.944   1.002
   1.093   1.211   1.343   1.474   1.587   1.669   1.707   1.695   1.635   1.530
   1.394   1.241   1.092   0.965   0.876   0.838   0.849   0.901   0.979   1.065
   1.147   1.215   1.266   1.298   1.307   1.289   1.244   1.174   1.086   0.997
   0.922   0.874   0.862   0.889   0.953   1.046   1.161   1.290   1.423   1.545
   1.643   1.703
   1.250   1.206   1.141   1.070   1.006   0.952   0.906   0.865   0.827   0.796
   0.777   0.773   0.785   0.811   0.845   0.879   0.907   0.922   0.921   0.906
   0.883   0.859   0.838   0.821   0.808   0.798   0.794   0.800   0.823   0.866
   0.929   1.006   1.091   1.172   1.243   1.293   1.317   1.309   1.271   1.205
   1.119   1.020   0.920   0.832   0.771   0.747   0.760   0.801   0.854   0.900
   0.931   0.947   0.957   0.965   0.971   0.968   0.947   0.906   0.851   0.795
   0.754   0.740   0.755   0.796   0.853   0.917   0.985   1.055   1.125   1.190
   1.240   1.263
   0.779   0.726   0.679   0.657   0.668   0.703   0.744   0.774   0.787   0.783
   0.769   0.747   0.721   0.692   0.666   0.649   0.639   0.634   0.626   0.613
   0.599   0.592   0.598   0.618   0.647   0.676   0.704   0.730   0.757   0.782
   0.804   0.818   0.826   0.833   0.841   0.853   0.862   0.865   0.858   0.846
   0.830   0.811   0.786   0.755   0.726   0.710   0.713   0.731   0.748   0.748
   0.726   0.694   0.669   0.664   0.677   0.696   0.703   0.694   0.673   0.652
   0.645   0.659   0.692   0.735   0.775   0.802   0.814   0.818   0.822   0.829
   0.831   0.816
   0.522   0.462   0.429   0.446   0.515   0.609   0.698   0.761   0.798   0.820
   0.830   0.822   0.785   0.719   0.640   0.572   0.529   0.507   0.492   0.477
   0.464   0.465   0.491   0.542   0.607   0.673   0.730   0.776   0.808   0.818
   0.797   0.744   0.671   0.602   0.558   0.545   0.553   0.568   0.584   0.608
   0.649   0.704   0.757   0.786   0.786   0.767   0.749   0.737   0.722   0.688
   0.631   0.568   0.524   0.515   0.534   0.563   0.587   0.601   0.611   0.625
   0.648   0.678   0.714   0.747   0.769   0.769   0.745   0.706   0.669   0.641
   0.615   0.578
   0.468   0.408   0.397   0.458   0.572   0.693   0.777   0.816   0.839   0.875
   0.928   0.963   0.943   0.856   0.733   0.622   0.551   0.519   0.503   0.486
   0.474   0.488   0.542   0.630   0.727   0.812   0.876   0.922   0.950   0.947
   0.896   0.792   0.656   0.530   0.455   0.439   0.459   0.483   0.497   0.521
   0.583   0.691   0.815   0.906   0.936   0.915   0.874   0.839   0.805   0.755
   0.682   0.604   0.546   0.524   0.530   0.546   0.567   0.601   0.654   0.717
   0.773   0.810   0.831   0.845   0.855   0.848   0.813   0.755   0.692   0.639
   0.593   0.537
   0.450   0.399   0.429   0.554   0.729   0.870   0.925   0.908   0.890   0.932
   1.030   1.117   1.117   1.012   0.849   0.703   0.620   0.588   0.572   0.554
   0.551   0.597   0.702   0.840   0.962   1.036   1.064   1.071   1.078   1.071
   1.020   0.902   0.734   0.571   0.473   0.457   0.489   0.515   0.513   0.512
   0.569   0.710   0.896   1.051   1.118   1.102   1.051   1.006   0.970   0.917
   0.835   0.738   0.656   0.603   0.570   0.552   0.565   0.632   0.752   0.884
   0.977   1.006   0.995   0.986   0.996   1.004   0.974   0.899   0.799   0.704
   0.620   0.535
   0.376   0.332   0.411   0.614   0.862   1.035   1.067   1.000   0.947   0.994
   1.127   1.244   1.243   1.107   0.912   0.756   0.681   0.660   0.640   0.612
   0.619   0.712   0.889   1.085   1.215   1.240   1.186   1.122   1.098   1.109
   1.100   1.016   0.852   0.663   0.526   0.483   0.507   0.534   0.527   0.515
   0.571   0.733   0.962   1.162   1.259   1.253   1.206   1.171   1.147   1.098
   1.001   0.874   0.752   0.653   0.575   0.528   0.549   0.671   0.873   1.072
   1.178   1.172   1.113   1.086   1.117   1.160   1.142   1.040   0.888   0.736
   0.604   0.482
   0.345   0.298   0.401   0.653   0.948   1.140   1.157   1.062   0.997   1.058
   1.212   1.330   1.302   1.133   0.928   0.797   0.761   0.755   0.715   0.656
   0.661   0.798   1.044   1.283   1.396   1.341   1.186   1.048   1.010   1.067
   1.138   1.128   0.995   0.783   0.584   0.477   0.469   0.504   0.530   0.553
   0.628   0.795   1.021   1.214   1.304   1.301   1.271   1.264   1.268   1.229
   1.118   0.959   0.797   0.660   0.555   0.506   0.563   0.753   1.022   1.242
   1.307   1.222   1.104   1.075   1.155   1.252   1.253   1.129   0.938   0.755
   0.605   0.467
   0.530   0.468   0.551   0.784   1.054   1.209   1.188   1.072   1.012   1.095
   1.262   1.369   1.316   1.137   0.963   0.893   0.913   0.919   0.843   0.734
   0.718   0.879   1.162   1.407   1.467   1.323   1.086   0.912   0.896   1.021
   1.182   1.255   1.172   0.953   0.699   0.519   0.469   0.522   0.614   0.706
   0.809   0.944   1.094   1.203   1.237   1.221   1.219   1.262   1.310   1.294
   1.185   1.016   0.840   0.693   0.589   0.565   0.672   0.919   1.209   1.383
   1.341   1.142   0.966   0.959   1.109   1.271   1.302   1.183   1.003   0.856
   0.753   0.648
   0.951   0.878   0.916   1.073   1.241   1.289   1.184   1.027   0.966   1.065
   1.245   1.355   1.312   1.169   1.061   1.068   1.138   1.145   1.030   0.874
   0.837   1.001   1.278   1.474   1.447   1.217   0.942   0.793   0.842   1.039
   1.263   1.396   1.367   1.185   0.930   0.721   0.645   0.714   0.863   1.013
   1.116   1.166   1.171   1.137   1.082   1.054   1.095   1.197   1.297   1.318
   1.241   1.103   0.956   0.827   0.738   0.737   0.878   1.147   1.409   1.488
   1.311   0.998   0.781   0.810   1.033   1.258   1.329   1.250   1.138   1.087
   1.079   1.042
   1.399   1.338   1.353   1.435   1.483   1.397   1.182   0.960   0.871   0.965
   1.153   1.291   1.301   1.232   1.200   1.262   1.352   1.348   1.211   1.044
   1.012   1.174   1.412   1.518   1.379   1.073   0.801   0.724   0.863   1.117
   1.358   1.506   1.528   1.432   1.259   1.091   1.019   1.082   1.239   1.390
   1.448   1.380   1.221   1.038   0.909   0.888   0.982   1.139   1.275   1.329
   1.304   1.236   1.155   1.062   0.975   0.963   1.095   1.346   1.561   1.552
   1.272   0.885   0.649   0.707   0.978   1.248   1.368   1.356   1.332   1.373
   1.442   1.457
   1.594   1.572   1.616   1.680   1.662   1.490   1.201   0.923   0.792   0.852
   1.032   1.204   1.285   1.295   1.312   1.377   1.441   1.416   1.285   1.156
   1.167   1.344   1.541   1.554   1.309   0.940   0.685   0.689   0.912   1.198
   1.415   1.534   1.587   1.593   1.551   1.474   1.421   1.450   1.558   1.663
   1.660   1.498   1.224   0.952   0.797   0.811   0.957   1.140   1.272   1.327
   1.343   1.357   1.356   1.300   1.195   1.130   1.209   1.421   1.607   1.572
   1.268   0.865   0.622   0.676   0.948   1.239   1.410   1.471   1.510   1.576
   1.635   1.637
 111       5.00   72    0 5.00   18    0
   0.349   0.348   0.346   0.345   0.344   0.342   0.341   0.339   0.338   0.336
   0.335   0.334   0.332   0.331   0.330   0.328   0.327   0.326   0.325   0.325
   0.324   0.323   0.323   0.323   0.323   0.323   0.323   0.323   0.323   0.324
   0.324   0.325   0.325   0.326   0.327   0.328   0.328   0.329   0.330   0.331
   0.332   0.333   0.334   0.335   0.336   0.337   0.339   0.340   0.341   0.342
   0.344   0.345   0.346   0.347   0.348   0.349   0.350   0.351   0.352   0.352
   0.353   0.353   0.354   0.354   0.354   0.354   0.353   0.353   0.352   0.351
   0.351   0.350
   0.372   0.370   0.367   0.364   0.360   0.356   0.352   0.348   0.344   0.340
   0.336   0.332   0.328   0.324   0.320   0.316   0.312   0.308   0.305   0.302
   0.300   0.299   0.298   0.298   0.299   0.301   0.303   0.306   0.309   0.313
   0.316   0.319   0.322   0.324   0.326   0.328   0.329   0.329   0.330   0.329
   0.328   0.327   0.326   0.325   0.324   0.324   0.324   0.324   0.325   0.327
   0.330   0.334   0.338   0.342   0.346   0.351   0.356   0.360   0.364   0.367
   0.370   0.372   0.374   0.375   0.376   0.377   0.377   0.377   0.377   0.376
   0.375   0.374
   0.472   0.471   0.468   0.463   0.456   0.449   0.441   0.433   0.426   0.419
   0.413   0.406   0.400   0.392   0.383   0.374   0.363   0.353   0.343   0.335
   0.330   0.327   0.329   0.333   0.341   0.351   0.362   0.374   0.386   0.396
   0.406   0.414   0.421   0.426   0.429   0.430   0.430   0.428   0.423   0.417
   0.409   0.399   0.387   0.375   0.362   0.350   0.339   0.330   0.324   0.321
   0.321   0.325   0.331   0.340   0.350   0.361   0.372   0.382   0.392   0.400
   0.407   0.413   0.418   0.423   0.429   0.434   0.441   0.447   0.454   0.461
   0.466   0.470
   0.719   0.722   0.719   0.709   0.694   0.677   0.659   0.643   0.630   0.620
   0.611   0.603   0.594   0.582   0.565   0.544   0.519   0.493   0.469   0.449
   0.438   0.436   0.446   0.464   0.491   0.522   0.554   0.585   0.611   0.632
   0.648   0.659   0.665   0.669   0.671   0.671   0.669   0.664   0.657   0.645
   0.630   0.609   0.585   0.557   0.526   0.495   0.464   0.436   0.412   0.395
   0.384   0.382   0.386   0.397   0.414   0.433   0.454   0.475   0.495   0.512
   0.526   0.539   0.550   0.562   0.575   0.590   0.607   0.628   0.650   0.672
   0.692   0.708
   1.068   1.075   1.069   1.053   1.028   1.000   0.973   0.950   0.932   0.918
   0.908   0.898   0.884   0.865   0.836   0.798   0.752   0.702   0.656   0.620
   0.602   0.606   0.632   0.679   0.740   0.806   0.869   0.923   0.963   0.988
   1.001   1.003   1.000   0.995   0.989   0.985   0.981   0.977   0.972   0.963
   0.948   0.928   0.900   0.865   0.825   0.779   0.730   0.681   0.634   0.594
   0.563   0.543   0.538   0.546   0.565   0.593   0.626   0.662   0.696   0.728
   0.758   0.784   0.807   0.827   0.847   0.867   0.891   0.918   0.950   0.985
   1.019   1.048
   1.357   1.365   1.358   1.340   1.317   1.293   1.273   1.258   1.245   1.232
   1.217   1.199   1.174   1.142   1.099   1.045   0.981   0.912   0.847   0.797
   0.775   0.787   0.836   0.916   1.015   1.118   1.210   1.280   1.324   1.342
   1.339   1.324   1.303   1.282   1.265   1.254   1.248   1.245   1.245   1.244
   1.242   1.235   1.222   1.201   1.171   1.131   1.080   1.021   0.955   0.889
   0.830   0.784   0.759   0.755   0.772   0.805   0.848   0.897   0.949   1.002
   1.055   1.104   1.147   1.180   1.202   1.213   1.221   1.230   1.247   1.273
   1.304   1.335
   1.443   1.446   1.437   1.425   1.420   1.429   1.448   1.470   1.482   1.476
   1.451   1.409   1.359   1.304   1.249   1.191   1.128   1.061   0.995   0.944
   0.920   0.937   0.998   1.098   1.219   1.342   1.446   1.517   1.552   1.555
   1.535   1.503   1.468   1.436   1.411   1.393   1.381   1.375   1.376   1.382
   1.394   1.409   1.424   1.435   1.438   1.426   1.395   1.342   1.269   1.182
   1.093   1.019   0.971   0.955   0.968   1.001   1.046   1.098   1.157   1.225
   1.302   1.383   1.455   1.506   1.525   1.513   1.478   1.438   1.408   1.399
   1.409   1.428
   1.327   1.316   1.295   1.284   1.305   1.365   1.452   1.538   1.595   1.604
   1.562   1.485   1.394   1.309   1.243   1.194   1.157   1.121   1.082   1.044
   1.023   1.033   1.085   1.175   1.290   1.406   1.501   1.560   1.581   1.571
   1.540   1.502   1.465   1.432   1.406   1.384   1.365   1.351   1.345   1.351
   1.372   1.407   1.452   1.500   1.541   1.567   1.566   1.532   1.460   1.360
   1.250   1.155   1.095   1.078   1.094   1.126   1.162   1.197   1.240   1.303
   1.392   1.499   1.603   1.675   1.693   1.650   1.562   1.458   1.371   1.323
   1.313   1.321
   1.130   1.100   1.052   1.024   1.057   1.162   1.315   1.469   1.575   1.605
   1.555   1.450   1.324   1.210   1.130   1.093   1.088   1.096   1.098   1.088
   1.071   1.066   1.091   1.150   1.236   1.328   1.403   1.448   1.460   1.444
   1.411   1.371   1.332   1.300   1.274   1.252   1.232   1.212   1.198   1.198
   1.222   1.271   1.340   1.415   1.485   1.538   1.562   1.545   1.479   1.372
   1.250   1.148   1.095   1.095   1.128   1.165   1.183   1.184   1.189   1.224
   1.305   1.420   1.542   1.630   1.648   1.584   1.455   1.304   1.180   1.116
   1.108   1.126
   0.964   0.921   0.841   0.784   0.809   0.930   1.116   1.306   1.442   1.494
   1.462   1.368   1.242   1.116   1.018   0.968   0.968   1.000   1.038   1.059
   1.055   1.042   1.043   1.071   1.128   1.196   1.255   1.291   1.301   1.286
   1.249   1.197   1.140   1.089   1.054   1.036   1.026   1.013   0.999   0.995
   1.019   1.079   1.165   1.258   1.341   1.405   1.439   1.432   1.372   1.263
   1.135   1.034   0.998   1.028   1.087   1.129   1.129   1.098   1.070   1.079
   1.139   1.239   1.349   1.430   1.447   1.380   1.242   1.076   0.944   0.887
   0.904   0.950
   0.839   0.796   0.707   0.641   0.661   0.779   0.954   1.123   1.243   1.306
   1.321   1.294   1.224   1.117   0.994   0.893   0.847   0.862   0.912   0.962
   0.987   0.989   0.989   1.007   1.047   1.098   1.145   1.176   1.187   1.175
   1.133   1.058   0.959   0.863   0.800   0.781   0.792   0.805   0.805   0.804
   0.830   0.900   1.004   1.111   1.198   1.258   1.292   1.294   1.244   1.137
   1.003   0.901   0.876   0.926   1.002   1.046   1.037   0.999   0.976   0.991
   1.041   1.104   1.163   1.205   1.215   1.167   1.054   0.901   0.769   0.714
   0.743   0.808
   0.707   0.681   0.621   0.593   0.646   0.769   0.904   1.001   1.054   1.099
   1.166   1.243   1.276   1.219   1.073   0.896   0.765   0.725   0.768   0.846
   0.916   0.958   0.982   1.007   1.039   1.071   1.095   1.110   1.119   1.116
   1.081   0.994   0.855   0.702   0.591   0.557   0.588   0.636   0.664   0.675
   0.707   0.788   0.908   1.025   1.109   1.159   1.195   1.214   1.187   1.089
   0.946   0.827   0.791   0.840   0.915   0.952   0.944   0.934   0.964   1.031
   1.087   1.099   1.074   1.053   1.054   1.048   0.988   0.861   0.715   0.624
   0.622   0.673
   0.588   0.578   0.566   0.611   0.734   0.887   0.988   0.992   0.941   0.930
   1.023   1.194   1.337   1.345   1.192   0.951   0.741   0.648   0.682   0.791
   0.907   0.991   1.041   1.071   1.087   1.087   1.071   1.052   1.048   1.062
   1.064   1.006   0.863   0.670   0.506   0.438   0.473   0.553   0.615   0.645
   0.684   0.771   0.895   1.007   1.073   1.108   1.149   1.201   1.214   1.137
   0.982   0.831   0.767   0.799   0.860   0.888   0.888   0.922   1.027   1.159
   1.227   1.179   1.060   0.972   0.975   1.030   1.039   0.944   0.776   0.628
   0.564   0.571
   0.595   0.575   0.584   0.681   0.867   1.059   1.142   1.070   0.914   0.821
   0.894   1.109   1.326   1.396   1.265   1.009   0.772   0.667   0.714   0.851
   0.994   1.092   1.137   1.146   1.131   1.092   1.031   0.970   0.945   0.975
   1.035   1.053   0.967   0.784   0.587   0.478   0.494   0.586   0.675   0.724
   0.765   0.839   0.941   1.020   1.045   1.051   1.098   1.193   1.263   1.218
   1.056   0.873   0.780   0.799   0.860   0.890   0.897   0.955   1.100   1.263
   1.321   1.215   1.025   0.898   0.917   1.032   1.109   1.056   0.896   0.730
   0.634   0.607
   0.829   0.762   0.726   0.799   0.985   1.183   1.257   1.143   0.917   0.745
   0.763   0.964   1.205   1.319   1.233   1.020   0.827   0.768   0.855   1.013
   1.150   1.212   1.204   1.160   1.106   1.042   0.962   0.874   0.823   0.851
   0.956   1.067   1.091   0.988   0.817   0.687   0.671   0.745   0.831   0.877
   0.902   0.942   0.992   1.007   0.968   0.931   0.976   1.114   1.243   1.242
   1.088   0.891   0.791   0.825   0.915   0.966   0.973   1.010   1.120   1.242
   1.255   1.114   0.906   0.782   0.823   0.969   1.085   1.087   1.000   0.910
   0.873   0.864
   1.244   1.111   0.977   0.949   1.052   1.200   1.252   1.125   0.872   0.653
   0.614   0.772   1.003   1.140   1.107   0.969   0.864   0.891   1.037   1.208
   1.304   1.286   1.188   1.072   0.984   0.926   0.866   0.785   0.713   0.711
   0.819   1.000   1.155   1.196   1.128   1.031   0.990   1.012   1.045   1.046
   1.025   1.011   0.996   0.938   0.829   0.742   0.774   0.938   1.116   1.161
   1.036   0.857   0.782   0.861   1.007   1.096   1.094   1.064   1.068   1.084
   1.037   0.897   0.732   0.650   0.698   0.822   0.934   0.995   1.040   1.118
   1.222   1.285
   1.647   1.464   1.241   1.095   1.076   1.130   1.136   1.005   0.759   0.532
   0.465   0.592   0.805   0.949   0.951   0.877   0.858   0.972   1.176   1.352
   1.394   1.287   1.095   0.912   0.802   0.765   0.750   0.704   0.628   0.587
   0.660   0.866   1.131   1.343   1.437   1.430   1.382   1.326   1.258   1.172
   1.087   1.023   0.959   0.845   0.679   0.545   0.551   0.716   0.921   1.009
   0.931   0.797   0.769   0.905   1.111   1.239   1.225   1.112   0.985   0.881
   0.784   0.681   0.597   0.566   0.593   0.651   0.725   0.839   1.030   1.290
   1.543   1.683
   1.830   1.645   1.401   1.195   1.084   1.049   1.004   0.866   0.640   0.432
   0.373   0.499   0.707   0.845   0.848   0.793   0.818   0.987   1.228   1.400
   1.401   1.234   0.990   0.775   0.652   0.623   0.635   0.625   0.570   0.517
   0.555   0.746   1.066   1.408   1.656   1.755   1.714   1.579   1.400   1.224
   1.095   1.017   0.941   0.803   0.601   0.426   0.398   0.544   0.755   0.874
   0.845   0.763   0.780   0.953   1.196   1.354   1.336   1.167   0.945   0.755
   0.634   0.578   0.566   0.565   0.551   0.535   0.573   0.731   1.025   1.390
   1.705   1.864
TEXTURE_INDEX=   1.4531
ERR_CF 220         1080     683   20.10   16.68
ERR_CF 200         1078     614   20.19   14.01
ERR_CF 111         1080     449   14.30   10.57
