TEXEVAL                                                                         
Analysis started on 06-May-20 09:58:35                                          
 LMAX=14LFMAX=03 CUBIC ORTHO   
 220      5.00 5.00
 200      5.00 5.00
 111      5.00 5.00
 220       5.00   72    0 5.00   15    0
   1.281   1.281   1.281   1.281   1.281   1.281   1.281   1.281   1.281   1.281
   1.281   1.281   1.281   1.281   1.281   1.281   1.281   1.281   1.281   1.281
   1.281   1.281   1.281   1.281   1.281   1.281   1.281   1.281   1.281   1.281
   1.281   1.281   1.281   1.281   1.281   1.281   1.281   1.281   1.281   1.281
   1.281   1.281   1.281   1.281   1.281   1.281   1.281   1.281   1.281   1.281
   1.281   1.281   1.281   1.281   1.281   1.281   1.281   1.281   1.281   1.281
   1.281   1.281   1.281   1.281   1.281   1.281   1.281   1.281   1.281   1.281
   1.281   1.281
   0.761   0.783   0.776   0.795   0.807   0.871   0.912   0.966   1.020   1.102
   1.180   1.251   1.390   1.468   1.553   1.645   1.727   1.698   1.783   1.698
   1.727   1.645   1.553   1.468   1.390   1.251   1.180   1.102   1.020   0.966
   0.912   0.871   0.807   0.795   0.776   0.783   0.761   0.783   0.776   0.795
   0.807   0.871   0.912   0.966   1.020   1.102   1.180   1.251   1.390   1.468
   1.553   1.645   1.727   1.698   1.783   1.698   1.727   1.645   1.553   1.468
   1.390   1.251   1.180   1.102   1.020   0.966   0.912   0.871   0.807   0.795
   0.776   0.783
   0.368   0.360   0.363   0.391   0.405   0.457   0.527   0.611   0.694   0.753
   0.897   1.056   1.256   1.479   1.682   1.844   2.066   2.079   2.222   2.079
   2.066   1.844   1.682   1.479   1.256   1.056   0.897   0.753   0.694   0.611
   0.527   0.457   0.405   0.391   0.363   0.360   0.368   0.360   0.363   0.391
   0.405   0.457   0.527   0.611   0.694   0.753   0.897   1.056   1.256   1.479
   1.682   1.844   2.066   2.079   2.222   2.079   2.066   1.844   1.682   1.479
   1.256   1.056   0.897   0.753   0.694   0.611   0.527   0.457   0.405   0.391
   0.363   0.360
   0.201   0.174   0.170   0.202   0.216   0.243   0.299   0.363   0.437   0.511
   0.654   0.838   1.101   1.375   1.748   2.044   2.360   2.592   2.696   2.592
   2.360   2.044   1.748   1.375   1.101   0.838   0.654   0.511   0.437   0.363
   0.299   0.243   0.216   0.202   0.170   0.174   0.201   0.174   0.170   0.202
   0.216   0.243   0.299   0.363   0.437   0.511   0.654   0.838   1.101   1.375
   1.748   2.044   2.360   2.592   2.696   2.592   2.360   2.044   1.748   1.375
   1.101   0.838   0.654   0.511   0.437   0.363   0.299   0.243   0.216   0.202
   0.170   0.174
   0.182   0.143   0.141   0.165   0.175   0.180   0.216   0.250   0.288   0.355
   0.520   0.680   0.959   1.279   1.712   2.229   2.605   2.967   3.060   2.967
   2.605   2.229   1.712   1.279   0.959   0.680   0.520   0.355   0.288   0.250
   0.216   0.180   0.175   0.165   0.141   0.143   0.182   0.143   0.141   0.165
   0.175   0.180   0.216   0.250   0.288   0.355   0.520   0.680   0.959   1.279
   1.712   2.229   2.605   2.967   3.060   2.967   2.605   2.229   1.712   1.279
   0.959   0.680   0.520   0.355   0.288   0.250   0.216   0.180   0.175   0.165
   0.141   0.143
   0.157   0.154   0.157   0.155   0.185   0.188   0.215   0.242   0.257   0.318
   0.451   0.613   0.961   1.302   1.747   2.333   2.681   2.999   3.030   2.999
   2.681   2.333   1.747   1.302   0.961   0.613   0.451   0.318   0.257   0.242
   0.215   0.188   0.185   0.155   0.157   0.154   0.157   0.154   0.157   0.155
   0.185   0.188   0.215   0.242   0.257   0.318   0.451   0.613   0.961   1.302
   1.747   2.333   2.681   2.999   3.030   2.999   2.681   2.333   1.747   1.302
   0.961   0.613   0.451   0.318   0.257   0.242   0.215   0.188   0.185   0.155
   0.157   0.154
   0.185   0.178   0.174   0.165   0.192   0.234   0.229   0.264   0.304   0.360
   0.480   0.698   1.061   1.380   1.840   2.259   2.305   2.446   2.377   2.446
   2.305   2.259   1.840   1.380   1.061   0.698   0.480   0.360   0.304   0.264
   0.229   0.234   0.192   0.165   0.174   0.178   0.185   0.178   0.174   0.165
   0.192   0.234   0.229   0.264   0.304   0.360   0.480   0.698   1.061   1.380
   1.840   2.259   2.305   2.446   2.377   2.446   2.305   2.259   1.840   1.380
   1.061   0.698   0.480   0.360   0.304   0.264   0.229   0.234   0.192   0.165
   0.174   0.178
   0.205   0.180   0.178   0.183   0.205   0.239   0.190   0.243   0.318   0.330
   0.491   0.744   1.039   1.338   1.644   1.867   1.623   1.558   1.507   1.558
   1.623   1.867   1.644   1.338   1.039   0.744   0.491   0.330   0.318   0.243
   0.190   0.239   0.205   0.183   0.178   0.180   0.205   0.180   0.178   0.183
   0.205   0.239   0.190   0.243   0.318   0.330   0.491   0.744   1.039   1.338
   1.644   1.867   1.623   1.558   1.507   1.558   1.623   1.867   1.644   1.338
   1.039   0.744   0.491   0.330   0.318   0.243   0.190   0.239   0.205   0.183
   0.178   0.180
   0.259   0.266   0.286   0.270   0.271   0.276   0.221   0.272   0.306   0.300
   0.485   0.619   0.919   1.251   1.330   1.407   1.075   0.887   0.936   0.887
   1.075   1.407   1.330   1.251   0.919   0.619   0.485   0.300   0.306   0.272
   0.221   0.276   0.271   0.270   0.286   0.266   0.259   0.266   0.286   0.270
   0.271   0.276   0.221   0.272   0.306   0.300   0.485   0.619   0.919   1.251
   1.330   1.407   1.075   0.887   0.936   0.887   1.075   1.407   1.330   1.251
   0.919   0.619   0.485   0.300   0.306   0.272   0.221   0.276   0.271   0.270
   0.286   0.266
   0.891   0.791   0.742   0.532   0.446   0.403   0.318   0.297   0.309   0.348
   0.444   0.547   0.785   1.102   1.103   1.082   0.749   0.531   0.565   0.531
   0.749   1.082   1.103   1.102   0.785   0.547   0.444   0.348   0.309   0.297
   0.318   0.403   0.446   0.532   0.742   0.791   0.891   0.791   0.742   0.532
   0.446   0.403   0.318   0.297   0.309   0.348   0.444   0.547   0.785   1.102
   1.103   1.082   0.749   0.531   0.565   0.531   0.749   1.082   1.103   1.102
   0.785   0.547   0.444   0.348   0.309   0.297   0.318   0.403   0.446   0.532
   0.742   0.791
   2.462   2.152   1.778   1.209   0.890   0.665   0.470   0.388   0.342   0.392
   0.344   0.529   0.637   0.838   0.939   0.820   0.525   0.366   0.356   0.366
   0.525   0.820   0.939   0.838   0.637   0.529   0.344   0.392   0.342   0.388
   0.470   0.665   0.890   1.209   1.778   2.152   2.462   2.152   1.778   1.209
   0.890   0.665   0.470   0.388   0.342   0.392   0.344   0.529   0.637   0.838
   0.939   0.820   0.525   0.366   0.356   0.366   0.525   0.820   0.939   0.838
   0.637   0.529   0.344   0.392   0.342   0.388   0.470   0.665   0.890   1.209
   1.778   2.152
   4.386   4.000   3.360   2.294   1.550   1.176   0.873   0.707   0.486   0.460
   0.372   0.413   0.532   0.718   0.836   0.642   0.369   0.265   0.250   0.265
   0.369   0.642   0.836   0.718   0.532   0.413   0.372   0.460   0.486   0.707
   0.873   1.176   1.550   2.294   3.360   4.000   4.386   4.000   3.360   2.294
   1.550   1.176   0.873   0.707   0.486   0.460   0.372   0.413   0.532   0.718
   0.836   0.642   0.369   0.265   0.250   0.265   0.369   0.642   0.836   0.718
   0.532   0.413   0.372   0.460   0.486   0.707   0.873   1.176   1.550   2.294
   3.360   4.000
   4.871   4.336   3.990   2.825   2.050   1.624   1.403   1.174   0.794   0.771
   0.693   0.521   0.625   0.746   0.851   0.688   0.420   0.355   0.237   0.355
   0.420   0.688   0.851   0.746   0.625   0.521   0.693   0.771   0.794   1.174
   1.403   1.624   2.050   2.825   3.990   4.336   4.871   4.336   3.990   2.825
   2.050   1.624   1.403   1.174   0.794   0.771   0.693   0.521   0.625   0.746
   0.851   0.688   0.420   0.355   0.237   0.355   0.420   0.688   0.851   0.746
   0.625   0.521   0.693   0.771   0.794   1.174   1.403   1.624   2.050   2.825
   3.990   4.336
   3.203   2.850   2.635   2.206   1.884   1.513   1.487   1.459   1.270   1.216
   1.191   0.875   0.803   0.866   1.039   0.825   0.558   0.445   0.252   0.445
   0.558   0.825   1.039   0.866   0.803   0.875   1.191   1.216   1.270   1.459
   1.487   1.513   1.884   2.206   2.635   2.850   3.203   2.850   2.635   2.206
   1.884   1.513   1.487   1.459   1.270   1.216   1.191   0.875   0.803   0.866
   1.039   0.825   0.558   0.445   0.252   0.445   0.558   0.825   1.039   0.866
   0.803   0.875   1.191   1.216   1.270   1.459   1.487   1.513   1.884   2.206
   2.635   2.850
   1.365   1.256   1.060   1.125   1.119   0.948   1.173   1.349   1.477   1.561
   1.389   1.176   0.913   1.046   1.194   0.937   0.884   0.603   0.542   0.603
   0.884   0.937   1.194   1.046   0.913   1.176   1.389   1.561   1.477   1.349
   1.173   0.948   1.119   1.125   1.060   1.256   1.365   1.256   1.060   1.125
   1.119   0.948   1.173   1.349   1.477   1.561   1.389   1.176   0.913   1.046
   1.194   0.937   0.884   0.603   0.542   0.603   0.884   0.937   1.194   1.046
   0.913   1.176   1.389   1.561   1.477   1.349   1.173   0.948   1.119   1.125
   1.060   1.256
 200       5.00   72    0 5.00   15    0
   0.129   0.129   0.129   0.129   0.129   0.129   0.129   0.129   0.129   0.129
   0.129   0.129   0.129   0.129   0.129   0.129   0.129   0.129   0.129   0.129
   0.129   0.129   0.129   0.129   0.129   0.129   0.129   0.129   0.129   0.129
   0.129   0.129   0.129   0.129   0.129   0.129   0.129   0.129   0.129   0.129
   0.129   0.129   0.129   0.129   0.129   0.129   0.129   0.129   0.129   0.129
   0.129   0.129   0.129   0.129   0.129   0.129   0.129   0.129   0.129   0.129
   0.129   0.129   0.129   0.129   0.129   0.129   0.129   0.129   0.129   0.129
   0.129   0.129
   0.282   0.279   0.280   0.269   0.267   0.262   0.259   0.253   0.250   0.233
   0.222   0.223   0.203   0.213   0.194   0.191   0.185   0.191   0.208   0.191
   0.185   0.191   0.194   0.213   0.203   0.223   0.222   0.233   0.250   0.253
   0.259   0.262   0.267   0.269   0.280   0.279   0.282   0.279   0.280   0.269
   0.267   0.262   0.259   0.253   0.250   0.233   0.222   0.223   0.203   0.213
   0.194   0.191   0.185   0.191   0.208   0.191   0.185   0.191   0.194   0.213
   0.203   0.223   0.222   0.233   0.250   0.253   0.259   0.262   0.267   0.269
   0.280   0.279
   0.470   0.489   0.467   0.453   0.437   0.420   0.402   0.384   0.358   0.321
   0.310   0.280   0.268   0.250   0.241   0.232   0.219   0.215   0.223   0.215
   0.219   0.232   0.241   0.250   0.268   0.280   0.310   0.321   0.358   0.384
   0.402   0.420   0.437   0.453   0.467   0.489   0.470   0.489   0.467   0.453
   0.437   0.420   0.402   0.384   0.358   0.321   0.310   0.280   0.268   0.250
   0.241   0.232   0.219   0.215   0.223   0.215   0.219   0.232   0.241   0.250
   0.268   0.280   0.310   0.321   0.358   0.384   0.402   0.420   0.437   0.453
   0.467   0.489
   0.824   0.870   0.796   0.808   0.760   0.712   0.643   0.578   0.531   0.464
   0.418   0.338   0.316   0.274   0.258   0.235   0.211   0.199   0.205   0.199
   0.211   0.235   0.258   0.274   0.316   0.338   0.418   0.464   0.531   0.578
   0.643   0.712   0.760   0.808   0.796   0.870   0.824   0.870   0.796   0.808
   0.760   0.712   0.643   0.578   0.531   0.464   0.418   0.338   0.316   0.274
   0.258   0.235   0.211   0.199   0.205   0.199   0.211   0.235   0.258   0.274
   0.316   0.338   0.418   0.464   0.531   0.578   0.643   0.712   0.760   0.808
   0.796   0.870
   1.431   1.511   1.391   1.384   1.369   1.230   1.112   1.010   0.868   0.716
   0.595   0.457   0.376   0.329   0.261   0.235   0.198   0.187   0.211   0.187
   0.198   0.235   0.261   0.329   0.376   0.457   0.595   0.716   0.868   1.010
   1.112   1.230   1.369   1.384   1.391   1.511   1.431   1.511   1.391   1.384
   1.369   1.230   1.112   1.010   0.868   0.716   0.595   0.457   0.376   0.329
   0.261   0.235   0.198   0.187   0.211   0.187   0.198   0.235   0.261   0.329
   0.376   0.457   0.595   0.716   0.868   1.010   1.112   1.230   1.369   1.384
   1.391   1.511
   2.000   2.133   2.038   2.005   2.062   1.907   1.777   1.699   1.425   1.228
   0.976   0.729   0.530   0.420   0.326   0.273   0.224   0.230   0.259   0.230
   0.224   0.273   0.326   0.420   0.530   0.729   0.976   1.228   1.425   1.699
   1.777   1.907   2.062   2.005   2.038   2.133   2.000   2.133   2.038   2.005
   2.062   1.907   1.777   1.699   1.425   1.228   0.976   0.729   0.530   0.420
   0.326   0.273   0.224   0.230   0.259   0.230   0.224   0.273   0.326   0.420
   0.530   0.729   0.976   1.228   1.425   1.699   1.777   1.907   2.062   2.005
   2.038   2.133
   1.906   2.010   2.047   2.072   2.090   2.126   2.099   2.126   1.970   1.788
   1.451   1.112   0.787   0.555   0.448   0.347   0.260   0.286   0.282   0.286
   0.260   0.347   0.448   0.555   0.787   1.112   1.451   1.788   1.970   2.126
   2.099   2.126   2.090   2.072   2.047   2.010   1.906   2.010   2.047   2.072
   2.090   2.126   2.099   2.126   1.970   1.788   1.451   1.112   0.787   0.555
   0.448   0.347   0.260   0.286   0.282   0.286   0.260   0.347   0.448   0.555
   0.787   1.112   1.451   1.788   1.970   2.126   2.099   2.126   2.090   2.072
   2.047   2.010
   1.209   1.224   1.272   1.359   1.378   1.480   1.626   1.769   1.904   1.890
   1.715   1.395   1.121   0.740   0.576   0.422   0.338   0.344   0.283   0.344
   0.338   0.422   0.576   0.740   1.121   1.395   1.715   1.890   1.904   1.769
   1.626   1.480   1.378   1.359   1.272   1.224   1.209   1.224   1.272   1.359
   1.378   1.480   1.626   1.769   1.904   1.890   1.715   1.395   1.121   0.740
   0.576   0.422   0.338   0.344   0.283   0.344   0.338   0.422   0.576   0.740
   1.121   1.395   1.715   1.890   1.904   1.769   1.626   1.480   1.378   1.359
   1.272   1.224
   0.549   0.553   0.549   0.601   0.671   0.717   0.849   0.985   1.279   1.478
   1.600   1.483   1.258   0.915   0.665   0.474   0.390   0.384   0.280   0.384
   0.390   0.474   0.665   0.915   1.258   1.483   1.600   1.478   1.279   0.985
   0.849   0.717   0.671   0.601   0.549   0.553   0.549   0.553   0.549   0.601
   0.671   0.717   0.849   0.985   1.279   1.478   1.600   1.483   1.258   0.915
   0.665   0.474   0.390   0.384   0.280   0.384   0.390   0.474   0.665   0.915
   1.258   1.483   1.600   1.478   1.279   0.985   0.849   0.717   0.671   0.601
   0.549   0.553
   0.222   0.253   0.218   0.274   0.308   0.371   0.381   0.514   0.707   0.979
   1.292   1.452   1.459   1.161   0.843   0.579   0.463   0.402   0.354   0.402
   0.463   0.579   0.843   1.161   1.459   1.452   1.292   0.979   0.707   0.514
   0.381   0.371   0.308   0.274   0.218   0.253   0.222   0.253   0.218   0.274
   0.308   0.371   0.381   0.514   0.707   0.979   1.292   1.452   1.459   1.161
   0.843   0.579   0.463   0.402   0.354   0.402   0.463   0.579   0.843   1.161
   1.459   1.452   1.292   0.979   0.707   0.514   0.381   0.371   0.308   0.274
   0.218   0.253
   0.187   0.185   0.129   0.184   0.200   0.244   0.251   0.388   0.476   0.833
   1.245   1.672   2.032   1.719   1.179   0.797   0.565   0.486   0.514   0.486
   0.565   0.797   1.179   1.719   2.032   1.672   1.245   0.833   0.476   0.388
   0.251   0.244   0.200   0.184   0.129   0.185   0.187   0.185   0.129   0.184
   0.200   0.244   0.251   0.388   0.476   0.833   1.245   1.672   2.032   1.719
   1.179   0.797   0.565   0.486   0.514   0.486   0.565   0.797   1.179   1.719
   2.032   1.672   1.245   0.833   0.476   0.388   0.251   0.244   0.200   0.184
   0.129   0.185
   0.167   0.156   0.170   0.153   0.270   0.225   0.332   0.451   0.567   0.991
   1.588   2.327   2.844   2.438   1.507   0.905   0.644   0.630   0.592   0.630
   0.644   0.905   1.507   2.438   2.844   2.327   1.588   0.991   0.567   0.451
   0.332   0.225   0.270   0.153   0.170   0.156   0.167   0.156   0.170   0.153
   0.270   0.225   0.332   0.451   0.567   0.991   1.588   2.327   2.844   2.438
   1.507   0.905   0.644   0.630   0.592   0.630   0.644   0.905   1.507   2.438
   2.844   2.327   1.588   0.991   0.567   0.451   0.332   0.225   0.270   0.153
   0.170   0.156
   0.149   0.223   0.246   0.249   0.361   0.324   0.475   0.759   1.056   1.507
   2.258   3.004   3.178   2.543   1.582   0.959   0.642   0.660   0.608   0.660
   0.642   0.959   1.582   2.543   3.178   3.004   2.258   1.507   1.056   0.759
   0.475   0.324   0.361   0.249   0.246   0.223   0.149   0.223   0.246   0.249
   0.361   0.324   0.475   0.759   1.056   1.507   2.258   3.004   3.178   2.543
   1.582   0.959   0.642   0.660   0.608   0.660   0.642   0.959   1.582   2.543
   3.178   3.004   2.258   1.507   1.056   0.759   0.475   0.324   0.361   0.249
   0.246   0.223
   0.208   0.326   0.313   0.351   0.470   0.555   0.986   1.442   2.157   2.728
   2.724   2.873   2.558   1.964   1.255   0.921   0.622   0.603   0.601   0.603
   0.622   0.921   1.255   1.964   2.558   2.873   2.724   2.728   2.157   1.442
   0.986   0.555   0.470   0.351   0.313   0.326   0.208   0.326   0.313   0.351
   0.470   0.555   0.986   1.442   2.157   2.728   2.724   2.873   2.558   1.964
   1.255   0.921   0.622   0.603   0.601   0.603   0.622   0.921   1.255   1.964
   2.558   2.873   2.724   2.728   2.157   1.442   0.986   0.555   0.470   0.351
   0.313   0.326
   0.240   0.286   0.345   0.354   0.666   0.903   1.679   2.407   3.135   3.141
   2.453   1.875   1.525   1.142   0.757   0.603   0.639   0.628   0.586   0.628
   0.639   0.603   0.757   1.142   1.525   1.875   2.453   3.141   3.135   2.407
   1.679   0.903   0.666   0.354   0.345   0.286   0.240   0.286   0.345   0.354
   0.666   0.903   1.679   2.407   3.135   3.141   2.453   1.875   1.525   1.142
   0.757   0.603   0.639   0.628   0.586   0.628   0.639   0.603   0.757   1.142
   1.525   1.875   2.453   3.141   3.135   2.407   1.679   0.903   0.666   0.354
   0.345   0.286
 111       5.00   72    0 5.00   15    0
   0.032   0.032   0.032   0.032   0.032   0.032   0.032   0.032   0.032   0.032
   0.032   0.032   0.032   0.032   0.032   0.032   0.032   0.032   0.032   0.032
   0.032   0.032   0.032   0.032   0.032   0.032   0.032   0.032   0.032   0.032
   0.032   0.032   0.032   0.032   0.032   0.032   0.032   0.032   0.032   0.032
   0.032   0.032   0.032   0.032   0.032   0.032   0.032   0.032   0.032   0.032
   0.032   0.032   0.032   0.032   0.032   0.032   0.032   0.032   0.032   0.032
   0.032   0.032   0.032   0.032   0.032   0.032   0.032   0.032   0.032   0.032
   0.032   0.032
   0.146   0.152   0.138   0.133   0.126   0.116   0.106   0.097   0.090   0.081
   0.072   0.063   0.061   0.053   0.054   0.050   0.054   0.050   0.045   0.050
   0.054   0.050   0.054   0.053   0.061   0.063   0.072   0.081   0.090   0.097
   0.106   0.116   0.126   0.133   0.138   0.152   0.146   0.152   0.138   0.133
   0.126   0.116   0.106   0.097   0.090   0.081   0.072   0.063   0.061   0.053
   0.054   0.050   0.054   0.050   0.045   0.050   0.054   0.050   0.054   0.053
   0.061   0.063   0.072   0.081   0.090   0.097   0.106   0.116   0.126   0.133
   0.138   0.152
   0.547   0.542   0.498   0.448   0.395   0.318   0.260   0.216   0.176   0.145
   0.119   0.096   0.082   0.077   0.072   0.063   0.064   0.056   0.050   0.056
   0.064   0.063   0.072   0.077   0.082   0.096   0.119   0.145   0.176   0.216
   0.260   0.318   0.395   0.448   0.498   0.542   0.547   0.542   0.498   0.448
   0.395   0.318   0.260   0.216   0.176   0.145   0.119   0.096   0.082   0.077
   0.072   0.063   0.064   0.056   0.050   0.056   0.064   0.063   0.072   0.077
   0.082   0.096   0.119   0.145   0.176   0.216   0.260   0.318   0.395   0.448
   0.498   0.542
   1.774   1.685   1.508   1.285   1.011   0.768   0.571   0.429   0.304   0.243
   0.177   0.127   0.094   0.088   0.070   0.065   0.055   0.044   0.043   0.044
   0.055   0.065   0.070   0.088   0.094   0.127   0.177   0.243   0.304   0.429
   0.571   0.768   1.011   1.285   1.508   1.685   1.774   1.685   1.508   1.285
   1.011   0.768   0.571   0.429   0.304   0.243   0.177   0.127   0.094   0.088
   0.070   0.065   0.055   0.044   0.043   0.044   0.055   0.065   0.070   0.088
   0.094   0.127   0.177   0.243   0.304   0.429   0.571   0.768   1.011   1.285
   1.508   1.685
   3.689   3.531   3.094   2.527   1.919   1.451   1.043   0.756   0.515   0.378
   0.244   0.169   0.111   0.086   0.065   0.045   0.040   0.032   0.039   0.032
   0.040   0.045   0.065   0.086   0.111   0.169   0.244   0.378   0.515   0.756
   1.043   1.451   1.919   2.527   3.094   3.531   3.689   3.531   3.094   2.527
   1.919   1.451   1.043   0.756   0.515   0.378   0.244   0.169   0.111   0.086
   0.065   0.045   0.040   0.032   0.039   0.032   0.040   0.045   0.065   0.086
   0.111   0.169   0.244   0.378   0.515   0.756   1.043   1.451   1.919   2.527
   3.094   3.531
   4.575   4.408   3.854   3.101   2.452   1.919   1.488   1.115   0.799   0.585
   0.384   0.261   0.171   0.128   0.097   0.057   0.063   0.058   0.062   0.058
   0.063   0.057   0.097   0.128   0.171   0.261   0.384   0.585   0.799   1.115
   1.488   1.919   2.452   3.101   3.854   4.408   4.575   4.408   3.854   3.101
   2.452   1.919   1.488   1.115   0.799   0.585   0.384   0.261   0.171   0.128
   0.097   0.057   0.063   0.058   0.062   0.058   0.063   0.057   0.097   0.128
   0.171   0.261   0.384   0.585   0.799   1.115   1.488   1.919   2.452   3.101
   3.854   4.408
   3.459   3.301   2.976   2.520   2.143   1.852   1.652   1.417   1.133   0.899
   0.652   0.440   0.308   0.223   0.175   0.129   0.131   0.106   0.100   0.106
   0.131   0.129   0.175   0.223   0.308   0.440   0.652   0.899   1.133   1.417
   1.652   1.852   2.143   2.520   2.976   3.301   3.459   3.301   2.976   2.520
   2.143   1.852   1.652   1.417   1.133   0.899   0.652   0.440   0.308   0.223
   0.175   0.129   0.131   0.106   0.100   0.106   0.131   0.129   0.175   0.223
   0.308   0.440   0.652   0.899   1.133   1.417   1.652   1.852   2.143   2.520
   2.976   3.301
   1.732   1.649   1.569   1.498   1.437   1.429   1.468   1.494   1.415   1.240
   0.996   0.747   0.526   0.365   0.279   0.227   0.205   0.185   0.160   0.185
   0.205   0.227   0.279   0.365   0.526   0.747   0.996   1.240   1.415   1.494
   1.468   1.429   1.437   1.498   1.569   1.649   1.732   1.649   1.569   1.498
   1.437   1.429   1.468   1.494   1.415   1.240   0.996   0.747   0.526   0.365
   0.279   0.227   0.205   0.185   0.160   0.185   0.205   0.227   0.279   0.365
   0.526   0.747   0.996   1.240   1.415   1.494   1.468   1.429   1.437   1.498
   1.569   1.649
   0.694   0.685   0.683   0.718   0.806   0.937   1.089   1.326   1.546   1.546
   1.426   1.181   0.895   0.643   0.489   0.379   0.312   0.294   0.311   0.294
   0.312   0.379   0.489   0.643   0.895   1.181   1.426   1.546   1.546   1.326
   1.089   0.937   0.806   0.718   0.683   0.685   0.694   0.685   0.683   0.718
   0.806   0.937   1.089   1.326   1.546   1.546   1.426   1.181   0.895   0.643
   0.489   0.379   0.312   0.294   0.311   0.294   0.312   0.379   0.489   0.643
   0.895   1.181   1.426   1.546   1.546   1.326   1.089   0.937   0.806   0.718
   0.683   0.685
   0.286   0.293   0.307   0.328   0.390   0.529   0.762   1.060   1.474   1.745
   1.857   1.752   1.445   1.146   0.862   0.644   0.548   0.475   0.485   0.475
   0.548   0.644   0.862   1.146   1.445   1.752   1.857   1.745   1.474   1.060
   0.762   0.529   0.390   0.328   0.307   0.293   0.286   0.293   0.307   0.328
   0.390   0.529   0.762   1.060   1.474   1.745   1.857   1.752   1.445   1.146
   0.862   0.644   0.548   0.475   0.485   0.475   0.548   0.644   0.862   1.146
   1.445   1.752   1.857   1.745   1.474   1.060   0.762   0.529   0.390   0.328
   0.307   0.293
   0.168   0.161   0.167   0.174   0.207   0.300   0.482   0.754   1.193   1.592
   1.890   2.110   2.012   1.787   1.406   1.116   0.954   0.841   0.721   0.841
   0.954   1.116   1.406   1.787   2.012   2.110   1.890   1.592   1.193   0.754
   0.482   0.300   0.207   0.174   0.167   0.161   0.168   0.161   0.167   0.174
   0.207   0.300   0.482   0.754   1.193   1.592   1.890   2.110   2.012   1.787
   1.406   1.116   0.954   0.841   0.721   0.841   0.954   1.116   1.406   1.787
   2.012   2.110   1.890   1.592   1.193   0.754   0.482   0.300   0.207   0.174
   0.167   0.161
   0.153   0.127   0.158   0.152   0.165   0.237   0.285   0.530   0.827   1.173
   1.445   1.751   1.998   2.032   1.905   1.805   1.555   1.467   1.370   1.467
   1.555   1.805   1.905   2.032   1.998   1.751   1.445   1.173   0.827   0.530
   0.285   0.237   0.165   0.152   0.158   0.127   0.153   0.127   0.158   0.152
   0.165   0.237   0.285   0.530   0.827   1.173   1.445   1.751   1.998   2.032
   1.905   1.805   1.555   1.467   1.370   1.467   1.555   1.805   1.905   2.032
   1.998   1.751   1.445   1.173   0.827   0.530   0.285   0.237   0.165   0.152
   0.158   0.127
   0.188   0.141   0.174   0.169   0.183   0.227   0.266   0.446   0.624   0.759
   0.941   1.071   1.389   1.645   1.972   2.201   2.184   2.314   2.422   2.314
   2.184   2.201   1.972   1.645   1.389   1.071   0.941   0.759   0.624   0.446
   0.266   0.227   0.183   0.169   0.174   0.141   0.188   0.141   0.174   0.169
   0.183   0.227   0.266   0.446   0.624   0.759   0.941   1.071   1.389   1.645
   1.972   2.201   2.184   2.314   2.422   2.314   2.184   2.201   1.972   1.645
   1.389   1.071   0.941   0.759   0.624   0.446   0.266   0.227   0.183   0.169
   0.174   0.141
   0.286   0.259   0.259   0.290   0.269   0.269   0.350   0.478   0.586   0.478
   0.585   0.610   0.853   1.083   1.490   1.929   2.328   2.957   3.364   2.957
   2.328   1.929   1.490   1.083   0.853   0.610   0.585   0.478   0.586   0.478
   0.350   0.269   0.269   0.290   0.259   0.259   0.286   0.259   0.259   0.290
   0.269   0.269   0.350   0.478   0.586   0.478   0.585   0.610   0.853   1.083
   1.490   1.929   2.328   2.957   3.364   2.957   2.328   1.929   1.490   1.083
   0.853   0.610   0.585   0.478   0.586   0.478   0.350   0.269   0.269   0.290
   0.259   0.259
   0.590   0.616   0.602   0.558   0.485   0.443   0.461   0.485   0.527   0.369
   0.391   0.413   0.518   0.702   0.898   1.285   1.850   2.886   3.603   2.886
   1.850   1.285   0.898   0.702   0.518   0.413   0.391   0.369   0.527   0.485
   0.461   0.443   0.485   0.558   0.602   0.616   0.590   0.616   0.602   0.558
   0.485   0.443   0.461   0.485   0.527   0.369   0.391   0.413   0.518   0.702
   0.898   1.285   1.850   2.886   3.603   2.886   1.850   1.285   0.898   0.702
   0.518   0.413   0.391   0.369   0.527   0.485   0.461   0.443   0.485   0.558
   0.602   0.616
  4  1     -8.6622775E-02
  4  2     -9.6729753E-02
  4  3     -1.9764915E+00
  6  1      9.1717329E-01
  6  2     -3.6879048E+00
  6  3      1.2974924E+00
  6  4      6.8139944E-01
  8  1     -1.0623208E+00
  8  2      1.8142923E-01
  8  3      1.9753178E-01
  8  4      1.6118024E+00
  8  5      8.6885442E-01
 10  1     -7.3007515E-01
 10  2      4.4370482E-01
 10  3      1.1957872E+00
 10  4      6.0454477E-01
 10  5      3.6726384E-01
 10  6     -1.2775474E+00
 12  1      1.2702371E-01  9.9120888E-01
 12  2      2.1439476E-01 -1.1233213E+00
 12  3     -5.6165450E-02  1.8674282E+00
 12  4     -2.6514612E-01 -9.1942222E-01
 12  5     -2.5997716E-01 -2.8462956E-01
 12  6     -1.0034408E+00  4.0766372E-01
 12  7     -2.1397583E-01 -1.6010290E-01
 14  1     -1.9695688E-01
 14  2      6.7779483E-01
 14  3     -2.1684891E-01
 14  4     -3.9422697E-01
 14  5     -9.8673075E-01
 14  6      2.4518440E-01
 14  7     -4.0181377E-01
 14  8      8.8686794E-01
 220       5.00   72    0 5.00   18    0
   1.440   1.441   1.443   1.446   1.451   1.456   1.463   1.470   1.478   1.485
   1.493   1.501   1.508   1.515   1.521   1.525   1.529   1.531   1.531   1.531
   1.529   1.525   1.521   1.515   1.508   1.501   1.493   1.485   1.478   1.470
   1.463   1.456   1.451   1.446   1.443   1.441   1.440   1.441   1.443   1.446
   1.451   1.456   1.463   1.470   1.478   1.485   1.493   1.501   1.508   1.515
   1.521   1.525   1.529   1.531   1.531   1.531   1.529   1.525   1.521   1.515
   1.508   1.501   1.493   1.485   1.478   1.470   1.463   1.456   1.451   1.446
   1.443   1.441
   0.970   0.974   0.988   1.010   1.041   1.080   1.127   1.181   1.241   1.304
   1.370   1.437   1.501   1.562   1.615   1.659   1.692   1.713   1.720   1.713
   1.692   1.659   1.615   1.562   1.501   1.437   1.370   1.304   1.241   1.181
   1.127   1.080   1.041   1.010   0.988   0.974   0.970   0.974   0.988   1.010
   1.041   1.080   1.127   1.181   1.241   1.304   1.370   1.437   1.501   1.562
   1.615   1.659   1.692   1.713   1.720   1.713   1.692   1.659   1.615   1.562
   1.501   1.437   1.370   1.304   1.241   1.181   1.127   1.080   1.041   1.010
   0.988   0.974
   0.373   0.380   0.399   0.432   0.480   0.545   0.629   0.732   0.854   0.995
   1.151   1.317   1.487   1.653   1.805   1.935   2.035   2.097   2.118   2.097
   2.035   1.935   1.805   1.653   1.487   1.317   1.151   0.995   0.854   0.732
   0.629   0.545   0.480   0.432   0.399   0.380   0.373   0.380   0.399   0.432
   0.480   0.545   0.629   0.732   0.854   0.995   1.151   1.317   1.487   1.653
   1.805   1.935   2.035   2.097   2.118   2.097   2.035   1.935   1.805   1.653
   1.487   1.317   1.151   0.995   0.854   0.732   0.629   0.545   0.480   0.432
   0.399   0.380
   0.047   0.049   0.058   0.075   0.104   0.152   0.224   0.329   0.473   0.661
   0.891   1.158   1.450   1.751   2.038   2.291   2.488   2.614   2.657   2.614
   2.488   2.291   2.038   1.751   1.450   1.158   0.891   0.661   0.473   0.329
   0.224   0.152   0.104   0.075   0.058   0.049   0.047   0.049   0.058   0.075
   0.104   0.152   0.224   0.329   0.473   0.661   0.891   1.158   1.450   1.751
   2.038   2.291   2.488   2.614   2.657   2.614   2.488   2.291   2.038   1.751
   1.450   1.158   0.891   0.661   0.473   0.329   0.224   0.152   0.104   0.075
   0.058   0.049
   0.092   0.091   0.090   0.086   0.081   0.082   0.098   0.149   0.251   0.421
   0.669   0.991   1.372   1.784   2.192   2.559   2.849   3.036   3.100   3.036
   2.849   2.559   2.192   1.784   1.372   0.991   0.669   0.421   0.251   0.149
   0.098   0.082   0.081   0.086   0.090   0.091   0.092   0.091   0.090   0.086
   0.081   0.082   0.098   0.149   0.251   0.421   0.669   0.991   1.372   1.784
   2.192   2.559   2.849   3.036   3.100   3.036   2.849   2.559   2.192   1.784
   1.372   0.991   0.669   0.421   0.251   0.149   0.098   0.082   0.081   0.086
   0.090   0.091
   0.254   0.261   0.277   0.291   0.290   0.269   0.236   0.216   0.241   0.345
   0.550   0.862   1.262   1.711   2.162   2.566   2.883   3.083   3.152   3.083
   2.883   2.566   2.162   1.711   1.262   0.862   0.550   0.345   0.241   0.216
   0.236   0.269   0.290   0.291   0.277   0.261   0.254   0.261   0.277   0.291
   0.290   0.269   0.236   0.216   0.241   0.345   0.550   0.862   1.262   1.711
   2.162   2.566   2.883   3.083   3.152   3.083   2.883   2.566   2.162   1.711
   1.262   0.862   0.550   0.345   0.241   0.216   0.236   0.269   0.290   0.291
   0.277   0.261
   0.229   0.253   0.317   0.393   0.450   0.464   0.433   0.381   0.352   0.394
   0.545   0.811   1.169   1.569   1.953   2.274   2.505   2.640   2.684   2.640
   2.505   2.274   1.953   1.569   1.169   0.811   0.545   0.394   0.352   0.381
   0.433   0.464   0.450   0.393   0.317   0.253   0.229   0.253   0.317   0.393
   0.450   0.464   0.433   0.381   0.352   0.394   0.545   0.811   1.169   1.569
   1.953   2.274   2.505   2.640   2.684   2.640   2.505   2.274   1.953   1.569
   1.169   0.811   0.545   0.394   0.352   0.381   0.433   0.464   0.450   0.393
   0.317   0.253
   0.076   0.108   0.194   0.305   0.407   0.468   0.476   0.447   0.424   0.458
   0.589   0.824   1.126   1.432   1.674   1.816   1.865   1.863   1.855   1.863
   1.865   1.816   1.674   1.432   1.126   0.824   0.589   0.458   0.424   0.447
   0.476   0.468   0.407   0.305   0.194   0.108   0.076   0.108   0.194   0.305
   0.407   0.468   0.476   0.447   0.424   0.458   0.589   0.824   1.126   1.432
   1.674   1.816   1.865   1.863   1.855   1.863   1.865   1.816   1.674   1.432
   1.126   0.824   0.589   0.458   0.424   0.447   0.476   0.468   0.407   0.305
   0.194   0.108
   0.273   0.273   0.275   0.287   0.309   0.334   0.351   0.361   0.382   0.448
   0.594   0.821   1.089   1.316   1.426   1.386   1.238   1.082   1.016   1.082
   1.238   1.386   1.426   1.316   1.089   0.821   0.594   0.448   0.382   0.361
   0.351   0.334   0.309   0.287   0.275   0.273   0.273   0.273   0.275   0.287
   0.309   0.334   0.351   0.361   0.382   0.448   0.594   0.821   1.089   1.316
   1.426   1.386   1.238   1.082   1.016   1.082   1.238   1.386   1.426   1.316
   1.089   0.821   0.594   0.448   0.382   0.361   0.351   0.334   0.309   0.287
   0.275   0.273
   1.256   1.174   0.959   0.693   0.461   0.316   0.260   0.266   0.309   0.386
   0.521   0.725   0.968   1.166   1.221   1.089   0.822   0.562   0.454   0.562
   0.822   1.089   1.221   1.166   0.968   0.725   0.521   0.386   0.309   0.266
   0.260   0.316   0.461   0.693   0.959   1.174   1.256   1.174   0.959   0.693
   0.461   0.316   0.260   0.266   0.309   0.386   0.521   0.725   0.968   1.166
   1.221   1.089   0.822   0.562   0.454   0.562   0.822   1.089   1.221   1.166
   0.968   0.725   0.521   0.386   0.309   0.266   0.260   0.316   0.461   0.693
   0.959   1.174
   2.837   2.652   2.163   1.544   0.981   0.596   0.410   0.361   0.368   0.387
   0.435   0.551   0.745   0.945   1.031   0.917   0.637   0.344   0.220   0.344
   0.637   0.917   1.031   0.945   0.745   0.551   0.435   0.387   0.368   0.361
   0.410   0.596   0.981   1.544   2.163   2.652   2.837   2.652   2.163   1.544
   0.981   0.596   0.410   0.361   0.368   0.387   0.435   0.551   0.745   0.945
   1.031   0.917   0.637   0.344   0.220   0.344   0.637   0.917   1.031   0.945
   0.745   0.551   0.435   0.387   0.368   0.361   0.410   0.596   0.981   1.544
   2.163   2.652
   4.145   3.890   3.220   2.371   1.599   1.065   0.790   0.685   0.630   0.550
   0.460   0.437   0.540   0.732   0.875   0.830   0.589   0.302   0.174   0.302
   0.589   0.830   0.875   0.732   0.540   0.437   0.460   0.550   0.630   0.685
   0.790   1.065   1.599   2.371   3.220   3.890   4.145   3.890   3.220   2.371
   1.599   1.065   0.790   0.685   0.630   0.550   0.460   0.437   0.540   0.732
   0.875   0.830   0.589   0.302   0.174   0.302   0.589   0.830   0.875   0.732
   0.540   0.437   0.460   0.550   0.630   0.685   0.790   1.065   1.599   2.371
   3.220   3.890
   4.282   4.030   3.379   2.575   1.868   1.396   1.158   1.062   0.988   0.855
   0.671   0.527   0.526   0.671   0.829   0.825   0.607   0.317   0.184   0.317
   0.607   0.825   0.829   0.671   0.526   0.527   0.671   0.855   0.988   1.062
   1.158   1.396   1.868   2.575   3.379   4.030   4.282   4.030   3.379   2.575
   1.868   1.396   1.158   1.062   0.988   0.855   0.671   0.527   0.526   0.671
   0.829   0.825   0.607   0.317   0.184   0.317   0.607   0.825   0.829   0.671
   0.526   0.527   0.671   0.855   0.988   1.062   1.158   1.396   1.868   2.575
   3.379   4.030
   3.137   2.952   2.495   1.976   1.573   1.346   1.257   1.241   1.229   1.159
   1.006   0.829   0.744   0.808   0.926   0.918   0.702   0.406   0.267   0.406
   0.702   0.918   0.926   0.808   0.744   0.829   1.006   1.159   1.229   1.241
   1.257   1.346   1.573   1.976   2.495   2.952   3.137   2.952   2.495   1.976
   1.573   1.346   1.257   1.241   1.229   1.159   1.006   0.829   0.744   0.808
   0.926   0.918   0.702   0.406   0.267   0.406   0.702   0.918   0.926   0.808
   0.744   0.829   1.006   1.159   1.229   1.241   1.257   1.346   1.573   1.976
   2.495   2.952
   1.536   1.428   1.192   0.999   0.941   0.977   1.036   1.107   1.208   1.301
   1.299   1.179   1.043   1.012   1.076   1.082   0.917   0.666   0.544   0.666
   0.917   1.082   1.076   1.012   1.043   1.179   1.299   1.301   1.208   1.107
   1.036   0.977   0.941   0.999   1.192   1.428   1.536   1.428   1.192   0.999
   0.941   0.977   1.036   1.107   1.208   1.301   1.299   1.179   1.043   1.012
   1.076   1.082   0.917   0.666   0.544   0.666   0.917   1.082   1.076   1.012
   1.043   1.179   1.299   1.301   1.208   1.107   1.036   0.977   0.941   0.999
   1.192   1.428
   0.512   0.437   0.305   0.282   0.406   0.563   0.661   0.751   0.946   1.224
   1.413   1.381   1.207   1.094   1.142   1.243   1.240   1.132   1.067   1.132
   1.240   1.243   1.142   1.094   1.207   1.381   1.413   1.224   0.946   0.751
   0.661   0.563   0.406   0.282   0.305   0.437   0.512   0.437   0.305   0.282
   0.406   0.563   0.661   0.751   0.946   1.224   1.413   1.381   1.207   1.094
   1.142   1.243   1.240   1.132   1.067   1.132   1.240   1.243   1.142   1.094
   1.207   1.381   1.413   1.224   0.946   0.751   0.661   0.563   0.406   0.282
   0.305   0.437
   0.401   0.307   0.140   0.094   0.202   0.317   0.337   0.372   0.604   1.016
   1.353   1.385   1.171   1.000   1.080   1.342   1.575   1.671   1.685   1.671
   1.575   1.342   1.080   1.000   1.171   1.385   1.353   1.016   0.604   0.372
   0.337   0.317   0.202   0.094   0.140   0.307   0.401   0.307   0.140   0.094
   0.202   0.317   0.337   0.372   0.604   1.016   1.353   1.385   1.171   1.000
   1.080   1.342   1.575   1.671   1.685   1.671   1.575   1.342   1.080   1.000
   1.171   1.385   1.353   1.016   0.604   0.372   0.337   0.317   0.202   0.094
   0.140   0.307
   0.677   0.554   0.313   0.183   0.211   0.240   0.170   0.142   0.373   0.847
   1.256   1.313   1.070   0.870   0.987   1.378   1.789   2.038   2.111   2.038
   1.789   1.378   0.987   0.870   1.070   1.313   1.256   0.847   0.373   0.142
   0.170   0.240   0.211   0.183   0.313   0.554   0.677   0.554   0.313   0.183
   0.211   0.240   0.170   0.142   0.373   0.847   1.256   1.313   1.070   0.870
   0.987   1.378   1.789   2.038   2.111   2.038   1.789   1.378   0.987   0.870
   1.070   1.313   1.256   0.847   0.373   0.142   0.170   0.240   0.211   0.183
   0.313   0.554
 200       5.00   72    0 5.00   18    0
   0.522   0.522   0.522   0.523   0.525   0.526   0.528   0.530   0.532   0.534
   0.536   0.538   0.540   0.542   0.544   0.545   0.546   0.547   0.547   0.547
   0.546   0.545   0.544   0.542   0.540   0.538   0.536   0.534   0.532   0.530
   0.528   0.526   0.525   0.523   0.522   0.522   0.522   0.522   0.522   0.523
   0.525   0.526   0.528   0.530   0.532   0.534   0.536   0.538   0.540   0.542
   0.544   0.545   0.546   0.547   0.547   0.547   0.546   0.545   0.544   0.542
   0.540   0.538   0.536   0.534   0.532   0.530   0.528   0.526   0.525   0.523
   0.522   0.522
   0.407   0.407   0.409   0.412   0.416   0.421   0.428   0.436   0.445   0.455
   0.466   0.478   0.489   0.500   0.510   0.518   0.525   0.529   0.530   0.529
   0.525   0.518   0.510   0.500   0.489   0.478   0.466   0.455   0.445   0.436
   0.428   0.421   0.416   0.412   0.409   0.407   0.407   0.407   0.409   0.412
   0.416   0.421   0.428   0.436   0.445   0.455   0.466   0.478   0.489   0.500
   0.510   0.518   0.525   0.529   0.530   0.529   0.525   0.518   0.510   0.500
   0.489   0.478   0.466   0.455   0.445   0.436   0.428   0.421   0.416   0.412
   0.409   0.407
   0.546   0.544   0.536   0.523   0.508   0.491   0.475   0.460   0.448   0.440
   0.435   0.435   0.438   0.444   0.452   0.460   0.466   0.471   0.472   0.471
   0.466   0.460   0.452   0.444   0.438   0.435   0.435   0.440   0.448   0.460
   0.475   0.491   0.508   0.523   0.536   0.544   0.546   0.544   0.536   0.523
   0.508   0.491   0.475   0.460   0.448   0.440   0.435   0.435   0.438   0.444
   0.452   0.460   0.466   0.471   0.472   0.471   0.466   0.460   0.452   0.444
   0.438   0.435   0.435   0.440   0.448   0.460   0.475   0.491   0.508   0.523
   0.536   0.544
   1.176   1.165   1.134   1.084   1.021   0.948   0.870   0.791   0.713   0.640
   0.574   0.517   0.469   0.433   0.407   0.390   0.381   0.376   0.375   0.376
   0.381   0.390   0.407   0.433   0.469   0.517   0.574   0.640   0.713   0.791
   0.870   0.948   1.021   1.084   1.134   1.165   1.176   1.165   1.134   1.084
   1.021   0.948   0.870   0.791   0.713   0.640   0.574   0.517   0.469   0.433
   0.407   0.390   0.381   0.376   0.375   0.376   0.381   0.390   0.407   0.433
   0.469   0.517   0.574   0.640   0.713   0.791   0.870   0.948   1.021   1.084
   1.134   1.165
   2.006   1.988   1.936   1.856   1.754   1.636   1.507   1.369   1.224   1.072
   0.919   0.769   0.631   0.514   0.423   0.358   0.318   0.297   0.290   0.297
   0.318   0.358   0.423   0.514   0.631   0.769   0.919   1.072   1.224   1.369
   1.507   1.636   1.754   1.856   1.936   1.988   2.006   1.988   1.936   1.856
   1.754   1.636   1.507   1.369   1.224   1.072   0.919   0.769   0.631   0.514
   0.423   0.358   0.318   0.297   0.290   0.297   0.318   0.358   0.423   0.514
   0.631   0.769   0.919   1.072   1.224   1.369   1.507   1.636   1.754   1.856
   1.936   1.988
   2.429   2.413   2.367   2.299   2.217   2.127   2.026   1.906   1.758   1.574
   1.355   1.115   0.876   0.663   0.496   0.382   0.317   0.287   0.279   0.287
   0.317   0.382   0.496   0.663   0.876   1.115   1.355   1.574   1.758   1.906
   2.026   2.127   2.217   2.299   2.367   2.413   2.429   2.413   2.367   2.299
   2.217   2.127   2.026   1.906   1.758   1.574   1.355   1.115   0.876   0.663
   0.496   0.382   0.317   0.287   0.279   0.287   0.317   0.382   0.496   0.663
   0.876   1.115   1.355   1.574   1.758   1.906   2.026   2.127   2.217   2.299
   2.367   2.413
   2.108   2.104   2.093   2.085   2.088   2.101   2.114   2.104   2.041   1.902
   1.680   1.391   1.076   0.785   0.561   0.422   0.358   0.340   0.339   0.340
   0.358   0.422   0.561   0.785   1.076   1.391   1.680   1.902   2.041   2.104
   2.114   2.101   2.088   2.085   2.093   2.104   2.108   2.104   2.093   2.085
   2.088   2.101   2.114   2.104   2.041   1.902   1.680   1.391   1.076   0.785
   0.561   0.422   0.358   0.340   0.339   0.340   0.358   0.422   0.561   0.785
   1.076   1.391   1.680   1.902   2.041   2.104   2.114   2.101   2.088   2.085
   2.093   2.104
   1.289   1.300   1.337   1.400   1.491   1.607   1.737   1.855   1.921   1.894
   1.748   1.488   1.159   0.833   0.578   0.432   0.384   0.391   0.400   0.391
   0.384   0.432   0.578   0.833   1.159   1.488   1.748   1.894   1.921   1.855
   1.737   1.607   1.491   1.400   1.337   1.300   1.289   1.300   1.337   1.400
   1.491   1.607   1.737   1.855   1.921   1.894   1.748   1.488   1.159   0.833
   0.578   0.432   0.384   0.391   0.400   0.391   0.384   0.432   0.578   0.833
   1.159   1.488   1.748   1.894   1.921   1.855   1.737   1.607   1.491   1.400
   1.337   1.300
   0.519   0.546   0.619   0.721   0.836   0.964   1.112   1.283   1.454   1.579
   1.598   1.475   1.222   0.907   0.624   0.444   0.378   0.382   0.393   0.382
   0.378   0.444   0.624   0.907   1.222   1.475   1.598   1.579   1.454   1.283
   1.112   0.964   0.836   0.721   0.619   0.546   0.519   0.546   0.619   0.721
   0.836   0.964   1.112   1.283   1.454   1.579   1.598   1.475   1.222   0.907
   0.624   0.444   0.378   0.382   0.393   0.382   0.378   0.444   0.624   0.907
   1.222   1.475   1.598   1.579   1.454   1.283   1.112   0.964   0.836   0.721
   0.619   0.546
   0.134   0.173   0.269   0.369   0.434   0.467   0.517   0.646   0.881   1.183
   1.448   1.563   1.463   1.184   0.838   0.552   0.389   0.333   0.325   0.333
   0.389   0.552   0.838   1.184   1.463   1.563   1.448   1.183   0.881   0.646
   0.517   0.467   0.434   0.369   0.269   0.173   0.134   0.173   0.269   0.369
   0.434   0.467   0.517   0.646   0.881   1.183   1.448   1.563   1.463   1.184
   0.838   0.552   0.389   0.333   0.325   0.333   0.389   0.552   0.838   1.184
   1.463   1.563   1.448   1.183   0.881   0.646   0.517   0.467   0.434   0.369
   0.269   0.173
   0.058   0.107   0.215   0.298   0.294   0.215   0.153   0.231   0.525   1.006
   1.531   1.899   1.958   1.691   1.233   0.778   0.464   0.314   0.275   0.314
   0.464   0.778   1.233   1.691   1.958   1.899   1.531   1.006   0.525   0.231
   0.153   0.215   0.294   0.298   0.215   0.107   0.058   0.107   0.215   0.298
   0.294   0.215   0.153   0.231   0.525   1.006   1.531   1.899   1.958   1.691
   1.233   0.778   0.464   0.314   0.275   0.314   0.464   0.778   1.233   1.691
   1.958   1.899   1.531   1.006   0.525   0.231   0.153   0.215   0.294   0.298
   0.215   0.107
   0.050   0.102   0.212   0.285   0.262   0.173   0.129   0.261   0.644   1.245
   1.905   2.388   2.492   2.174   1.585   0.984   0.564   0.364   0.313   0.364
   0.564   0.984   1.585   2.174   2.492   2.388   1.905   1.245   0.644   0.261
   0.129   0.173   0.262   0.285   0.212   0.102   0.050   0.102   0.212   0.285
   0.262   0.173   0.129   0.261   0.644   1.245   1.905   2.388   2.492   2.174
   1.585   0.984   0.564   0.364   0.313   0.364   0.564   0.984   1.585   2.174
   2.492   2.388   1.905   1.245   0.644   0.261   0.129   0.173   0.262   0.285
   0.212   0.102
   0.020   0.064   0.157   0.224   0.249   0.295   0.458   0.788   1.274   1.847
   2.386   2.720   2.691   2.263   1.598   0.971   0.585   0.445   0.423   0.445
   0.585   0.971   1.598   2.263   2.691   2.720   2.386   1.847   1.274   0.788
   0.458   0.295   0.249   0.224   0.157   0.064   0.020   0.064   0.157   0.224
   0.249   0.295   0.458   0.788   1.274   1.847   2.386   2.720   2.691   2.263
   1.598   0.971   0.585   0.445   0.423   0.445   0.585   0.971   1.598   2.263
   2.691   2.720   2.386   1.847   1.274   0.788   0.458   0.295   0.249   0.224
   0.157   0.064
   0.049   0.079   0.138   0.189   0.284   0.542   1.019   1.617   2.154   2.508
   2.658   2.610   2.331   1.817   1.194   0.695   0.476   0.483   0.520   0.483
   0.476   0.695   1.194   1.817   2.331   2.610   2.658   2.508   2.154   1.617
   1.019   0.542   0.284   0.189   0.138   0.079   0.049   0.079   0.138   0.189
   0.284   0.542   1.019   1.617   2.154   2.508   2.658   2.610   2.331   1.817
   1.194   0.695   0.476   0.483   0.520   0.483   0.476   0.695   1.194   1.817
   2.331   2.610   2.658   2.508   2.154   1.617   1.019   0.542   0.284   0.189
   0.138   0.079
   0.192   0.217   0.252   0.276   0.405   0.828   1.570   2.372   2.859   2.857
   2.495   2.017   1.549   1.083   0.640   0.348   0.311   0.444   0.527   0.444
   0.311   0.348   0.640   1.083   1.549   2.017   2.495   2.857   2.859   2.372
   1.570   0.828   0.405   0.276   0.252   0.217   0.192   0.217   0.252   0.276
   0.405   0.828   1.570   2.372   2.859   2.857   2.495   2.017   1.549   1.083
   0.640   0.348   0.311   0.444   0.527   0.444   0.311   0.348   0.640   1.083
   1.549   2.017   2.495   2.857   2.859   2.372   1.570   0.828   0.405   0.276
   0.252   0.217
   0.372   0.411   0.462   0.466   0.569   1.031   1.882   2.743   3.089   2.718
   1.920   1.173   0.719   0.480   0.304   0.191   0.221   0.357   0.435   0.357
   0.221   0.191   0.304   0.480   0.719   1.173   1.920   2.718   3.089   2.743
   1.882   1.031   0.569   0.466   0.462   0.411   0.372   0.411   0.462   0.466
   0.569   1.031   1.882   2.743   3.089   2.718   1.920   1.173   0.719   0.480
   0.304   0.191   0.221   0.357   0.435   0.357   0.221   0.191   0.304   0.480
   0.719   1.173   1.920   2.718   3.089   2.743   1.882   1.031   0.569   0.466
   0.462   0.411
   0.482   0.551   0.652   0.656   0.699   1.096   1.912   2.717   2.897   2.252
   1.207   0.406   0.143   0.224   0.311   0.288   0.253   0.277   0.302   0.277
   0.253   0.288   0.311   0.224   0.143   0.406   1.207   2.252   2.897   2.717
   1.912   1.096   0.699   0.656   0.652   0.551   0.482   0.551   0.652   0.656
   0.699   1.096   1.912   2.717   2.897   2.252   1.207   0.406   0.143   0.224
   0.311   0.288   0.253   0.277   0.302   0.277   0.253   0.288   0.311   0.224
   0.143   0.406   1.207   2.252   2.897   2.717   1.912   1.096   0.699   0.656
   0.652   0.551
   0.511   0.605   0.752   0.765   0.760   1.084   1.833   2.565   2.636   1.856
   0.723  -0.034  -0.114   0.200   0.449   0.449   0.324   0.234   0.210   0.234
   0.324   0.449   0.449   0.200  -0.114  -0.034   0.723   1.856   2.636   2.565
   1.833   1.084   0.760   0.765   0.752   0.605   0.511   0.605   0.752   0.765
   0.760   1.084   1.833   2.565   2.636   1.856   0.723  -0.034  -0.114   0.200
   0.449   0.449   0.324   0.234   0.210   0.234   0.324   0.449   0.449   0.200
  -0.114  -0.034   0.723   1.856   2.636   2.565   1.833   1.084   0.760   0.765
   0.752   0.605
 111       5.00   72    0 5.00   18    0
   0.254   0.254   0.254   0.254   0.254   0.254   0.255   0.255   0.255   0.255
   0.256   0.256   0.257   0.257   0.258   0.258   0.258   0.258   0.258   0.258
   0.258   0.258   0.258   0.257   0.257   0.256   0.256   0.255   0.255   0.255
   0.255   0.254   0.254   0.254   0.254   0.254   0.254   0.254   0.254   0.254
   0.254   0.254   0.255   0.255   0.255   0.255   0.256   0.256   0.257   0.257
   0.258   0.258   0.258   0.258   0.258   0.258   0.258   0.258   0.258   0.257
   0.257   0.256   0.256   0.255   0.255   0.255   0.255   0.254   0.254   0.254
   0.254   0.254
   0.390   0.387   0.381   0.370   0.357   0.343   0.328   0.314   0.303   0.294
   0.289   0.287   0.288   0.292   0.297   0.302   0.306   0.309   0.311   0.309
   0.306   0.302   0.297   0.292   0.288   0.287   0.289   0.294   0.303   0.314
   0.328   0.343   0.357   0.370   0.381   0.387   0.390   0.387   0.381   0.370
   0.357   0.343   0.328   0.314   0.303   0.294   0.289   0.287   0.288   0.292
   0.297   0.302   0.306   0.309   0.311   0.309   0.306   0.302   0.297   0.292
   0.288   0.287   0.289   0.294   0.303   0.314   0.328   0.343   0.357   0.370
   0.381   0.387
   1.037   1.021   0.975   0.903   0.812   0.710   0.606   0.507   0.421   0.353
   0.305   0.279   0.271   0.279   0.296   0.317   0.337   0.352   0.357   0.352
   0.337   0.317   0.296   0.279   0.271   0.279   0.305   0.353   0.421   0.507
   0.606   0.710   0.812   0.903   0.975   1.021   1.037   1.021   0.975   0.903
   0.812   0.710   0.606   0.507   0.421   0.353   0.305   0.279   0.271   0.279
   0.296   0.317   0.337   0.352   0.357   0.352   0.337   0.317   0.296   0.279
   0.271   0.279   0.305   0.353   0.421   0.507   0.606   0.710   0.812   0.903
   0.975   1.021
   2.333   2.288   2.158   1.957   1.702   1.418   1.128   0.854   0.615   0.422
   0.283   0.199   0.164   0.171   0.205   0.254   0.301   0.335   0.347   0.335
   0.301   0.254   0.205   0.171   0.164   0.199   0.283   0.422   0.615   0.854
   1.128   1.418   1.702   1.957   2.158   2.288   2.333   2.288   2.158   1.957
   1.702   1.418   1.128   0.854   0.615   0.422   0.283   0.199   0.164   0.171
   0.205   0.254   0.301   0.335   0.347   0.335   0.301   0.254   0.205   0.171
   0.164   0.199   0.283   0.422   0.615   0.854   1.128   1.418   1.702   1.957
   2.158   2.288
   3.728   3.650   3.424   3.076   2.643   2.167   1.688   1.240   0.847   0.527
   0.287   0.130   0.051   0.039   0.078   0.146   0.218   0.272   0.292   0.272
   0.218   0.146   0.078   0.039   0.051   0.130   0.287   0.527   0.847   1.240
   1.688   2.167   2.643   3.076   3.424   3.650   3.728   3.650   3.424   3.076
   2.643   2.167   1.688   1.240   0.847   0.527   0.287   0.130   0.051   0.039
   0.078   0.146   0.218   0.272   0.292   0.272   0.218   0.146   0.078   0.039
   0.051   0.130   0.287   0.527   0.847   1.240   1.688   2.167   2.643   3.076
   3.424   3.650
   4.316   4.218   3.941   3.523   3.020   2.486   1.967   1.492   1.075   0.722
   0.434   0.216   0.074   0.009   0.015   0.071   0.149   0.213   0.237   0.213
   0.149   0.071   0.015   0.009   0.074   0.216   0.434   0.722   1.075   1.492
   1.967   2.486   3.020   3.523   3.941   4.218   4.316   4.218   3.941   3.523
   3.020   2.486   1.967   1.492   1.075   0.722   0.434   0.216   0.074   0.009
   0.015   0.071   0.149   0.213   0.237   0.213   0.149   0.071   0.015   0.009
   0.074   0.216   0.434   0.722   1.075   1.492   1.967   2.486   3.020   3.523
   3.941   4.218
   3.650   3.559   3.307   2.947   2.545   2.159   1.822   1.536   1.281   1.033
   0.779   0.526   0.302   0.141   0.064   0.068   0.123   0.183   0.208   0.183
   0.123   0.068   0.064   0.141   0.302   0.526   0.779   1.033   1.281   1.536
   1.822   2.159   2.545   2.947   3.307   3.559   3.650   3.559   3.307   2.947
   2.545   2.159   1.822   1.536   1.281   1.033   0.779   0.526   0.302   0.141
   0.064   0.068   0.123   0.183   0.208   0.183   0.123   0.068   0.064   0.141
   0.302   0.526   0.779   1.033   1.281   1.536   1.822   2.159   2.545   2.947
   3.307   3.559
   2.182   2.118   1.948   1.733   1.545   1.434   1.408   1.435   1.451   1.397
   1.239   0.985   0.685   0.410   0.219   0.136   0.141   0.180   0.200   0.180
   0.141   0.136   0.219   0.410   0.685   0.985   1.239   1.397   1.451   1.435
   1.408   1.434   1.545   1.733   1.948   2.118   2.182   2.118   1.948   1.733
   1.545   1.434   1.408   1.435   1.451   1.397   1.239   0.985   0.685   0.410
   0.219   0.136   0.141   0.180   0.200   0.180   0.141   0.136   0.219   0.410
   0.685   0.985   1.239   1.397   1.451   1.435   1.408   1.434   1.545   1.733
   1.948   2.118
   0.848   0.812   0.727   0.654   0.659   0.779   1.005   1.282   1.525   1.657
   1.626   1.430   1.118   0.772   0.482   0.303   0.235   0.232   0.240   0.232
   0.235   0.303   0.482   0.772   1.118   1.430   1.626   1.657   1.525   1.282
   1.005   0.779   0.659   0.654   0.727   0.812   0.848   0.812   0.727   0.654
   0.659   0.779   1.005   1.282   1.525   1.657   1.626   1.430   1.118   0.772
   0.482   0.303   0.235   0.232   0.240   0.232   0.235   0.303   0.482   0.772
   1.118   1.430   1.626   1.657   1.525   1.282   1.005   0.779   0.659   0.654
   0.727   0.812
   0.250   0.230   0.192   0.186   0.268   0.461   0.753   1.093   1.416   1.658
   1.768   1.716   1.511   1.204   0.883   0.633   0.491   0.437   0.427   0.437
   0.491   0.633   0.883   1.204   1.511   1.716   1.768   1.658   1.416   1.093
   0.753   0.461   0.268   0.186   0.192   0.230   0.250   0.230   0.192   0.186
   0.268   0.461   0.753   1.093   1.416   1.658   1.768   1.716   1.511   1.204
   0.883   0.633   0.491   0.437   0.427   0.437   0.491   0.633   0.883   1.204
   1.511   1.716   1.768   1.658   1.416   1.093   0.753   0.461   0.268   0.186
   0.192   0.230
   0.271   0.253   0.217   0.203   0.253   0.386   0.590   0.838   1.106   1.375
   1.614   1.766   1.772   1.618   1.367   1.122   0.961   0.893   0.878   0.893
   0.961   1.122   1.367   1.618   1.772   1.766   1.614   1.375   1.106   0.838
   0.590   0.386   0.253   0.203   0.217   0.253   0.271   0.253   0.217   0.203
   0.253   0.386   0.590   0.838   1.106   1.375   1.614   1.766   1.772   1.618
   1.367   1.122   0.961   0.893   0.878   0.893   0.961   1.122   1.367   1.618
   1.772   1.766   1.614   1.375   1.106   0.838   0.590   0.386   0.253   0.203
   0.217   0.253
   0.409   0.387   0.333   0.281   0.269   0.319   0.421   0.556   0.723   0.952
   1.250   1.560   1.774   1.817   1.720   1.600   1.552   1.575   1.596   1.575
   1.552   1.600   1.720   1.817   1.774   1.560   1.250   0.952   0.723   0.556
   0.421   0.319   0.269   0.281   0.333   0.387   0.409   0.387   0.333   0.281
   0.269   0.319   0.421   0.556   0.723   0.952   1.250   1.560   1.774   1.817
   1.720   1.600   1.552   1.575   1.596   1.575   1.552   1.600   1.720   1.817
   1.774   1.560   1.250   0.952   0.723   0.556   0.421   0.319   0.269   0.281
   0.333   0.387
   0.371   0.352   0.299   0.226   0.177   0.192   0.269   0.365   0.460   0.595
   0.827   1.142   1.434   1.610   1.693   1.807   2.029   2.282   2.396   2.282
   2.029   1.807   1.693   1.610   1.434   1.142   0.827   0.595   0.460   0.365
   0.269   0.192   0.177   0.226   0.299   0.352   0.371   0.352   0.299   0.226
   0.177   0.192   0.269   0.365   0.460   0.595   0.827   1.142   1.434   1.610
   1.693   1.807   2.029   2.282   2.396   2.282   2.029   1.807   1.693   1.610
   1.434   1.142   0.827   0.595   0.460   0.365   0.269   0.192   0.177   0.226
   0.299   0.352
   0.296   0.309   0.313   0.264   0.187   0.168   0.244   0.352   0.407   0.418
   0.478   0.640   0.850   1.035   1.242   1.610   2.177   2.742   2.982   2.742
   2.177   1.610   1.242   1.035   0.850   0.640   0.478   0.418   0.407   0.352
   0.244   0.168   0.187   0.264   0.313   0.309   0.296   0.309   0.313   0.264
   0.187   0.168   0.244   0.352   0.407   0.418   0.478   0.640   0.850   1.035
   1.242   1.610   2.177   2.742   2.982   2.742   2.177   1.610   1.242   1.035
   0.850   0.640   0.478   0.418   0.407   0.352   0.244   0.168   0.187   0.264
   0.313   0.309
   0.497   0.582   0.728   0.747   0.600   0.437   0.400   0.457   0.467   0.374
   0.269   0.252   0.314   0.412   0.628   1.138   1.961   2.783   3.132   2.783
   1.961   1.138   0.628   0.412   0.314   0.252   0.269   0.374   0.467   0.457
   0.400   0.437   0.600   0.747   0.728   0.582   0.497   0.582   0.728   0.747
   0.600   0.437   0.400   0.457   0.467   0.374   0.269   0.252   0.314   0.412
   0.628   1.138   1.961   2.783   3.132   2.783   1.961   1.138   0.628   0.412
   0.314   0.252   0.269   0.374   0.467   0.457   0.400   0.437   0.600   0.747
   0.728   0.582
   1.070   1.264   1.627   1.748   1.464   0.995   0.657   0.531   0.466   0.337
   0.191   0.120   0.106   0.100   0.209   0.671   1.538   2.453   2.850   2.453
   1.538   0.671   0.209   0.100   0.106   0.120   0.191   0.337   0.466   0.531
   0.657   0.995   1.464   1.748   1.627   1.264   1.070   1.264   1.627   1.748
   1.464   0.995   0.657   0.531   0.466   0.337   0.191   0.120   0.106   0.100
   0.209   0.671   1.538   2.453   2.850   2.453   1.538   0.671   0.209   0.100
   0.106   0.120   0.191   0.337   0.466   0.531   0.657   0.995   1.464   1.748
   1.627   1.264
   1.788   2.097   2.692   2.919   2.469   1.622   0.886   0.498   0.343   0.247
   0.193   0.216   0.241   0.171   0.121   0.398   1.132   1.987   2.371   1.987
   1.132   0.398   0.121   0.171   0.241   0.216   0.193   0.247   0.343   0.498
   0.886   1.622   2.469   2.919   2.692   2.097   1.788   2.097   2.692   2.919
   2.469   1.622   0.886   0.498   0.343   0.247   0.193   0.216   0.241   0.171
   0.121   0.398   1.132   1.987   2.371   1.987   1.132   0.398   0.121   0.171
   0.241   0.216   0.193   0.247   0.343   0.498   0.886   1.622   2.469   2.919
   2.692   2.097
   2.277   2.663   3.409   3.705   3.140   2.031   1.009   0.427   0.210   0.160
   0.214   0.354   0.448   0.357   0.194   0.309   0.897   1.663   2.018   1.663
   0.897   0.309   0.194   0.357   0.448   0.354   0.214   0.160   0.210   0.427
   1.009   2.031   3.140   3.705   3.409   2.663   2.277   2.663   3.409   3.705
   3.140   2.031   1.009   0.427   0.210   0.160   0.214   0.354   0.448   0.357
   0.194   0.309   0.897   1.663   2.018   1.663   0.897   0.309   0.194   0.357
   0.448   0.354   0.214   0.160   0.210   0.427   1.009   2.031   3.140   3.705
   3.409   2.663
TEXTURE_INDEX=   3.6010
ERR_CF 220         1080     456   21.58   11.73
ERR_CF 200         1080     332   50.55   10.35
ERR_CF 111         1080     334  116.81   13.89
