TEXEVAL                                                                         
Analysis started on 07-Feb-20 09:50:03                                          
 LMAX=14LFMAX=03 CUBIC ORTHO   
 110      5.00 5.00
 200      5.00 5.00
 211      5.00 5.00
 110       5.00   72    0 5.00   15    0
   0.269   0.269   0.269   0.269   0.269   0.269   0.269   0.269   0.269   0.269
   0.269   0.269   0.269   0.269   0.269   0.269   0.269   0.269   0.269   0.269
   0.269   0.269   0.269   0.269   0.269   0.269   0.269   0.269   0.269   0.269
   0.269   0.269   0.269   0.269   0.269   0.269   0.269   0.269   0.269   0.269
   0.269   0.269   0.269   0.269   0.269   0.269   0.269   0.269   0.269   0.269
   0.269   0.269   0.269   0.269   0.269   0.269   0.269   0.269   0.269   0.269
   0.269   0.269   0.269   0.269   0.269   0.269   0.269   0.269   0.269   0.269
   0.269   0.269
   0.228   0.231   0.230   0.227   0.233   0.232   0.219   0.229   0.235   0.240
   0.236   0.247   0.248   0.234   0.232   0.239   0.237   0.246   0.260   0.246
   0.237   0.239   0.232   0.234   0.248   0.247   0.236   0.240   0.235   0.229
   0.219   0.232   0.233   0.227   0.230   0.231   0.228   0.231   0.230   0.227
   0.233   0.232   0.219   0.229   0.235   0.240   0.236   0.247   0.248   0.234
   0.232   0.239   0.237   0.246   0.260   0.246   0.237   0.239   0.232   0.234
   0.248   0.247   0.236   0.240   0.235   0.229   0.219   0.232   0.233   0.227
   0.230   0.231
   0.255   0.243   0.246   0.243   0.256   0.275   0.268   0.272   0.259   0.267
   0.270   0.286   0.282   0.289   0.291   0.307   0.316   0.317   0.330   0.317
   0.316   0.307   0.291   0.289   0.282   0.286   0.270   0.267   0.259   0.272
   0.268   0.275   0.256   0.243   0.246   0.243   0.255   0.243   0.246   0.243
   0.256   0.275   0.268   0.272   0.259   0.267   0.270   0.286   0.282   0.289
   0.291   0.307   0.316   0.317   0.330   0.317   0.316   0.307   0.291   0.289
   0.282   0.286   0.270   0.267   0.259   0.272   0.268   0.275   0.256   0.243
   0.246   0.243
   0.434   0.412   0.416   0.400   0.401   0.412   0.394   0.369   0.356   0.357
   0.362   0.369   0.380   0.380   0.391   0.415   0.434   0.437   0.446   0.437
   0.434   0.415   0.391   0.380   0.380   0.369   0.362   0.357   0.356   0.369
   0.394   0.412   0.401   0.400   0.416   0.412   0.434   0.412   0.416   0.400
   0.401   0.412   0.394   0.369   0.356   0.357   0.362   0.369   0.380   0.380
   0.391   0.415   0.434   0.437   0.446   0.437   0.434   0.415   0.391   0.380
   0.380   0.369   0.362   0.357   0.356   0.369   0.394   0.412   0.401   0.400
   0.416   0.412
   1.033   1.037   1.015   0.931   0.877   0.812   0.751   0.685   0.612   0.562
   0.513   0.499   0.517   0.524   0.521   0.574   0.562   0.563   0.559   0.563
   0.562   0.574   0.521   0.524   0.517   0.499   0.513   0.562   0.612   0.685
   0.751   0.812   0.877   0.931   1.015   1.037   1.033   1.037   1.015   0.931
   0.877   0.812   0.751   0.685   0.612   0.562   0.513   0.499   0.517   0.524
   0.521   0.574   0.562   0.563   0.559   0.563   0.562   0.574   0.521   0.524
   0.517   0.499   0.513   0.562   0.612   0.685   0.751   0.812   0.877   0.931
   1.015   1.037
   2.411   2.373   2.270   2.119   1.945   1.811   1.648   1.391   1.203   1.027
   0.843   0.761   0.745   0.739   0.677   0.696   0.675   0.677   0.678   0.677
   0.675   0.696   0.677   0.739   0.745   0.761   0.843   1.027   1.203   1.391
   1.648   1.811   1.945   2.119   2.270   2.373   2.411   2.373   2.270   2.119
   1.945   1.811   1.648   1.391   1.203   1.027   0.843   0.761   0.745   0.739
   0.677   0.696   0.675   0.677   0.678   0.677   0.675   0.696   0.677   0.739
   0.745   0.761   0.843   1.027   1.203   1.391   1.648   1.811   1.945   2.119
   2.270   2.373
   2.972   2.950   2.933   2.891   2.878   2.827   2.705   2.313   2.013   1.733
   1.431   1.187   1.076   0.985   0.878   0.794   0.770   0.772   0.792   0.772
   0.770   0.794   0.878   0.985   1.076   1.187   1.431   1.733   2.013   2.313
   2.705   2.827   2.878   2.891   2.933   2.950   2.972   2.950   2.933   2.891
   2.878   2.827   2.705   2.313   2.013   1.733   1.431   1.187   1.076   0.985
   0.878   0.794   0.770   0.772   0.792   0.772   0.770   0.794   0.878   0.985
   1.076   1.187   1.431   1.733   2.013   2.313   2.705   2.827   2.878   2.891
   2.933   2.950
   1.804   1.864   2.003   2.073   2.310   2.495   2.629   2.511   2.333   2.138
   1.819   1.518   1.324   1.128   0.963   0.855   0.822   0.781   0.781   0.781
   0.822   0.855   0.963   1.128   1.324   1.518   1.819   2.138   2.333   2.511
   2.629   2.495   2.310   2.073   2.003   1.864   1.804   1.864   2.003   2.073
   2.310   2.495   2.629   2.511   2.333   2.138   1.819   1.518   1.324   1.128
   0.963   0.855   0.822   0.781   0.781   0.781   0.822   0.855   0.963   1.128
   1.324   1.518   1.819   2.138   2.333   2.511   2.629   2.495   2.310   2.073
   2.003   1.864
   0.721   0.765   0.877   0.932   1.136   1.384   1.645   1.851   1.937   1.989
   1.815   1.617   1.383   1.132   0.955   0.828   0.760   0.693   0.688   0.693
   0.760   0.828   0.955   1.132   1.383   1.617   1.815   1.989   1.937   1.851
   1.645   1.384   1.136   0.932   0.877   0.765   0.721   0.765   0.877   0.932
   1.136   1.384   1.645   1.851   1.937   1.989   1.815   1.617   1.383   1.132
   0.955   0.828   0.760   0.693   0.688   0.693   0.760   0.828   0.955   1.132
   1.383   1.617   1.815   1.989   1.937   1.851   1.645   1.384   1.136   0.932
   0.877   0.765
   0.349   0.365   0.437   0.489   0.627   0.782   0.934   1.158   1.359   1.495
   1.538   1.502   1.283   1.111   0.957   0.789   0.708   0.649   0.638   0.649
   0.708   0.789   0.957   1.111   1.283   1.502   1.538   1.495   1.359   1.158
   0.934   0.782   0.627   0.489   0.437   0.365   0.349   0.365   0.437   0.489
   0.627   0.782   0.934   1.158   1.359   1.495   1.538   1.502   1.283   1.111
   0.957   0.789   0.708   0.649   0.638   0.649   0.708   0.789   0.957   1.111
   1.283   1.502   1.538   1.495   1.359   1.158   0.934   0.782   0.627   0.489
   0.437   0.365
   0.239   0.253   0.282   0.319   0.452   0.570   0.625   0.746   0.925   1.011
   1.126   1.198   1.128   1.019   0.917   0.832   0.749   0.669   0.674   0.669
   0.749   0.832   0.917   1.019   1.128   1.198   1.126   1.011   0.925   0.746
   0.625   0.570   0.452   0.319   0.282   0.253   0.239   0.253   0.282   0.319
   0.452   0.570   0.625   0.746   0.925   1.011   1.126   1.198   1.128   1.019
   0.917   0.832   0.749   0.669   0.674   0.669   0.749   0.832   0.917   1.019
   1.128   1.198   1.126   1.011   0.925   0.746   0.625   0.570   0.452   0.319
   0.282   0.253
   0.281   0.218   0.212   0.267   0.374   0.433   0.489   0.615   0.737   0.775
   0.897   1.023   0.984   0.936   0.899   0.863   0.813   0.777   0.782   0.777
   0.813   0.863   0.899   0.936   0.984   1.023   0.897   0.775   0.737   0.615
   0.489   0.433   0.374   0.267   0.212   0.218   0.281   0.218   0.212   0.267
   0.374   0.433   0.489   0.615   0.737   0.775   0.897   1.023   0.984   0.936
   0.899   0.863   0.813   0.777   0.782   0.777   0.813   0.863   0.899   0.936
   0.984   1.023   0.897   0.775   0.737   0.615   0.489   0.433   0.374   0.267
   0.212   0.218
   0.283   0.229   0.205   0.275   0.326   0.430   0.513   0.607   0.719   0.684
   0.794   0.865   0.870   0.930   0.876   0.867   0.878   0.932   0.927   0.932
   0.878   0.867   0.876   0.930   0.870   0.865   0.794   0.684   0.719   0.607
   0.513   0.430   0.326   0.275   0.205   0.229   0.283   0.229   0.205   0.275
   0.326   0.430   0.513   0.607   0.719   0.684   0.794   0.865   0.870   0.930
   0.876   0.867   0.878   0.932   0.927   0.932   0.878   0.867   0.876   0.930
   0.870   0.865   0.794   0.684   0.719   0.607   0.513   0.430   0.326   0.275
   0.205   0.229
   0.184   0.205   0.201   0.218   0.239   0.428   0.531   0.540   0.672   0.676
   0.699   0.714   0.797   0.845   0.825   0.877   1.000   1.044   1.018   1.044
   1.000   0.877   0.825   0.845   0.797   0.714   0.699   0.676   0.672   0.540
   0.531   0.428   0.239   0.218   0.201   0.205   0.184   0.205   0.201   0.218
   0.239   0.428   0.531   0.540   0.672   0.676   0.699   0.714   0.797   0.845
   0.825   0.877   1.000   1.044   1.018   1.044   1.000   0.877   0.825   0.845
   0.797   0.714   0.699   0.676   0.672   0.540   0.531   0.428   0.239   0.218
   0.201   0.205
   0.226   0.206   0.248   0.274   0.324   0.490   0.558   0.541   0.639   0.767
   0.711   0.711   0.827   0.855   0.815   0.836   1.055   1.135   1.198   1.135
   1.055   0.836   0.815   0.855   0.827   0.711   0.711   0.767   0.639   0.541
   0.558   0.490   0.324   0.274   0.248   0.206   0.226   0.206   0.248   0.274
   0.324   0.490   0.558   0.541   0.639   0.767   0.711   0.711   0.827   0.855
   0.815   0.836   1.055   1.135   1.198   1.135   1.055   0.836   0.815   0.855
   0.827   0.711   0.711   0.767   0.639   0.541   0.558   0.490   0.324   0.274
   0.248   0.206
 200       5.00   72    0 5.00   15    0
   2.845   2.845   2.845   2.845   2.845   2.845   2.845   2.845   2.845   2.845
   2.845   2.845   2.845   2.845   2.845   2.845   2.845   2.845   2.845   2.845
   2.845   2.845   2.845   2.845   2.845   2.845   2.845   2.845   2.845   2.845
   2.845   2.845   2.845   2.845   2.845   2.845   2.845   2.845   2.845   2.845
   2.845   2.845   2.845   2.845   2.845   2.845   2.845   2.845   2.845   2.845
   2.845   2.845   2.845   2.845   2.845   2.845   2.845   2.845   2.845   2.845
   2.845   2.845   2.845   2.845   2.845   2.845   2.845   2.845   2.845   2.845
   2.845   2.845
   1.600   1.611   1.538   1.601   1.638   1.701   1.790   1.910   1.892   1.958
   2.175   2.321   2.457   2.800   2.812   2.930   2.954   3.024   3.068   3.024
   2.954   2.930   2.812   2.800   2.457   2.321   2.175   1.958   1.892   1.910
   1.790   1.701   1.638   1.601   1.538   1.611   1.600   1.611   1.538   1.601
   1.638   1.701   1.790   1.910   1.892   1.958   2.175   2.321   2.457   2.800
   2.812   2.930   2.954   3.024   3.068   3.024   2.954   2.930   2.812   2.800
   2.457   2.321   2.175   1.958   1.892   1.910   1.790   1.701   1.638   1.601
   1.538   1.611
   0.804   0.816   0.650   0.725   0.819   0.895   1.015   1.158   1.251   1.296
   1.506   1.643   1.830   2.184   2.242   2.394   2.599   2.815   2.801   2.815
   2.599   2.394   2.242   2.184   1.830   1.643   1.506   1.296   1.251   1.158
   1.015   0.895   0.819   0.725   0.650   0.816   0.804   0.816   0.650   0.725
   0.819   0.895   1.015   1.158   1.251   1.296   1.506   1.643   1.830   2.184
   2.242   2.394   2.599   2.815   2.801   2.815   2.599   2.394   2.242   2.184
   1.830   1.643   1.506   1.296   1.251   1.158   1.015   0.895   0.819   0.725
   0.650   0.816
   0.527   0.570   0.492   0.524   0.553   0.540   0.764   0.858   0.957   1.082
   1.203   1.381   1.522   1.773   1.911   2.083   2.238   2.526   2.471   2.526
   2.238   2.083   1.911   1.773   1.522   1.381   1.203   1.082   0.957   0.858
   0.764   0.540   0.553   0.524   0.492   0.570   0.527   0.570   0.492   0.524
   0.553   0.540   0.764   0.858   0.957   1.082   1.203   1.381   1.522   1.773
   1.911   2.083   2.238   2.526   2.471   2.526   2.238   2.083   1.911   1.773
   1.522   1.381   1.203   1.082   0.957   0.858   0.764   0.540   0.553   0.524
   0.492   0.570
   0.369   0.409   0.439   0.462   0.478   0.464   0.575   0.626   0.765   0.966
   1.039   1.272   1.338   1.477   1.633   1.790   1.946   2.068   1.922   2.068
   1.946   1.790   1.633   1.477   1.338   1.272   1.039   0.966   0.765   0.626
   0.575   0.464   0.478   0.462   0.439   0.409   0.369   0.409   0.439   0.462
   0.478   0.464   0.575   0.626   0.765   0.966   1.039   1.272   1.338   1.477
   1.633   1.790   1.946   2.068   1.922   2.068   1.946   1.790   1.633   1.477
   1.338   1.272   1.039   0.966   0.765   0.626   0.575   0.464   0.478   0.462
   0.439   0.409
   0.263   0.336   0.373   0.336   0.390   0.360   0.371   0.467   0.550   0.720
   0.843   0.949   1.139   1.232   1.325   1.358   1.685   1.660   1.370   1.660
   1.685   1.358   1.325   1.232   1.139   0.949   0.843   0.720   0.550   0.467
   0.371   0.360   0.390   0.336   0.373   0.336   0.263   0.336   0.373   0.336
   0.390   0.360   0.371   0.467   0.550   0.720   0.843   0.949   1.139   1.232
   1.325   1.358   1.685   1.660   1.370   1.660   1.685   1.358   1.325   1.232
   1.139   0.949   0.843   0.720   0.550   0.467   0.371   0.360   0.390   0.336
   0.373   0.336
   0.289   0.279   0.287   0.242   0.303   0.415   0.428   0.478   0.441   0.479
   0.700   0.816   1.038   1.050   1.265   1.291   1.316   1.250   1.061   1.250
   1.316   1.291   1.265   1.050   1.038   0.816   0.700   0.479   0.441   0.478
   0.428   0.415   0.303   0.242   0.287   0.279   0.289   0.279   0.287   0.242
   0.303   0.415   0.428   0.478   0.441   0.479   0.700   0.816   1.038   1.050
   1.265   1.291   1.316   1.250   1.061   1.250   1.316   1.291   1.265   1.050
   1.038   0.816   0.700   0.479   0.441   0.478   0.428   0.415   0.303   0.242
   0.287   0.279
   0.323   0.305   0.425   0.392   0.416   0.539   0.612   0.537   0.610   0.621
   0.717   0.879   1.097   1.111   1.368   1.365   1.139   1.072   1.006   1.072
   1.139   1.365   1.368   1.111   1.097   0.879   0.717   0.621   0.610   0.537
   0.612   0.539   0.416   0.392   0.425   0.305   0.323   0.305   0.425   0.392
   0.416   0.539   0.612   0.537   0.610   0.621   0.717   0.879   1.097   1.111
   1.368   1.365   1.139   1.072   1.006   1.072   1.139   1.365   1.368   1.111
   1.097   0.879   0.717   0.621   0.610   0.537   0.612   0.539   0.416   0.392
   0.425   0.305
   0.472   0.541   0.622   0.648   0.524   0.647   0.766   0.720   0.773   0.875
   0.766   1.011   1.287   1.201   1.308   1.210   1.167   1.091   0.927   1.091
   1.167   1.210   1.308   1.201   1.287   1.011   0.766   0.875   0.773   0.720
   0.766   0.647   0.524   0.648   0.622   0.541   0.472   0.541   0.622   0.648
   0.524   0.647   0.766   0.720   0.773   0.875   0.766   1.011   1.287   1.201
   1.308   1.210   1.167   1.091   0.927   1.091   1.167   1.210   1.308   1.201
   1.287   1.011   0.766   0.875   0.773   0.720   0.766   0.647   0.524   0.648
   0.622   0.541
   0.880   0.899   0.901   1.070   0.976   1.100   1.096   1.130   0.967   0.894
   1.087   1.296   1.336   1.373   1.315   1.305   1.249   1.022   0.923   1.022
   1.249   1.305   1.315   1.373   1.336   1.296   1.087   0.894   0.967   1.130
   1.096   1.100   0.976   1.070   0.901   0.899   0.880   0.899   0.901   1.070
   0.976   1.100   1.096   1.130   0.967   0.894   1.087   1.296   1.336   1.373
   1.315   1.305   1.249   1.022   0.923   1.022   1.249   1.305   1.315   1.373
   1.336   1.296   1.087   0.894   0.967   1.130   1.096   1.100   0.976   1.070
   0.901   0.899
   1.552   1.462   1.439   1.586   1.453   1.386   1.348   1.261   1.233   1.023
   1.223   1.119   1.353   1.503   1.282   1.450   1.273   1.108   1.243   1.108
   1.273   1.450   1.282   1.503   1.353   1.119   1.223   1.023   1.233   1.261
   1.348   1.386   1.453   1.586   1.439   1.462   1.552   1.462   1.439   1.586
   1.453   1.386   1.348   1.261   1.233   1.023   1.223   1.119   1.353   1.503
   1.282   1.450   1.273   1.108   1.243   1.108   1.273   1.450   1.282   1.503
   1.353   1.119   1.223   1.023   1.233   1.261   1.348   1.386   1.453   1.586
   1.439   1.462
   2.313   2.052   2.024   1.914   1.552   1.457   1.293   1.050   1.053   0.830
   1.081   0.919   1.197   1.302   1.243   1.305   1.086   1.128   1.096   1.128
   1.086   1.305   1.243   1.302   1.197   0.919   1.081   0.830   1.053   1.050
   1.293   1.457   1.552   1.914   2.024   2.052   2.313   2.052   2.024   1.914
   1.552   1.457   1.293   1.050   1.053   0.830   1.081   0.919   1.197   1.302
   1.243   1.305   1.086   1.128   1.096   1.128   1.086   1.305   1.243   1.302
   1.197   0.919   1.081   0.830   1.053   1.050   1.293   1.457   1.552   1.914
   2.024   2.052
   2.271   1.898   2.038   1.684   1.328   1.215   0.968   0.912   0.911   0.763
   1.057   1.103   1.046   1.156   1.165   1.036   1.084   1.001   0.787   1.001
   1.084   1.036   1.165   1.156   1.046   1.103   1.057   0.763   0.911   0.912
   0.968   1.215   1.328   1.684   2.038   1.898   2.271   1.898   2.038   1.684
   1.328   1.215   0.968   0.912   0.911   0.763   1.057   1.103   1.046   1.156
   1.165   1.036   1.084   1.001   0.787   1.001   1.084   1.036   1.165   1.156
   1.046   1.103   1.057   0.763   0.911   0.912   0.968   1.215   1.328   1.684
   2.038   1.898
   1.081   1.087   1.510   1.212   1.209   1.019   0.678   0.708   1.040   0.866
   0.833   0.920   1.145   0.935   0.878   1.009   0.980   0.896   1.160   0.896
   0.980   1.009   0.878   0.935   1.145   0.920   0.833   0.866   1.040   0.708
   0.678   1.019   1.209   1.212   1.510   1.087   1.081   1.087   1.510   1.212
   1.209   1.019   0.678   0.708   1.040   0.866   0.833   0.920   1.145   0.935
   0.878   1.009   0.980   0.896   1.160   0.896   0.980   1.009   0.878   0.935
   1.145   0.920   0.833   0.866   1.040   0.708   0.678   1.019   1.209   1.212
   1.510   1.087
   0.193   0.519   0.955   0.815   1.014   0.793   0.416   0.362   0.869   0.844
   0.602   0.620   0.653   0.516   0.757   1.068   0.700   0.694   0.782   0.694
   0.700   1.068   0.757   0.516   0.653   0.620   0.602   0.844   0.869   0.362
   0.416   0.793   1.014   0.815   0.955   0.519   0.193   0.519   0.955   0.815
   1.014   0.793   0.416   0.362   0.869   0.844   0.602   0.620   0.653   0.516
   0.757   1.068   0.700   0.694   0.782   0.694   0.700   1.068   0.757   0.516
   0.653   0.620   0.602   0.844   0.869   0.362   0.416   0.793   1.014   0.815
   0.955   0.519
 211       5.00   72    0 5.00   15    0
   1.870   1.870   1.870   1.870   1.870   1.870   1.870   1.870   1.870   1.870
   1.870   1.870   1.870   1.870   1.870   1.870   1.870   1.870   1.870   1.870
   1.870   1.870   1.870   1.870   1.870   1.870   1.870   1.870   1.870   1.870
   1.870   1.870   1.870   1.870   1.870   1.870   1.870   1.870   1.870   1.870
   1.870   1.870   1.870   1.870   1.870   1.870   1.870   1.870   1.870   1.870
   1.870   1.870   1.870   1.870   1.870   1.870   1.870   1.870   1.870   1.870
   1.870   1.870   1.870   1.870   1.870   1.870   1.870   1.870   1.870   1.870
   1.870   1.870
   1.318   1.321   1.305   1.363   1.326   1.353   1.382   1.432   1.496   1.545
   1.561   1.587   1.682   1.806   1.877   1.913   1.916   1.926   1.899   1.926
   1.916   1.913   1.877   1.806   1.682   1.587   1.561   1.545   1.496   1.432
   1.382   1.353   1.326   1.363   1.305   1.321   1.318   1.321   1.305   1.363
   1.326   1.353   1.382   1.432   1.496   1.545   1.561   1.587   1.682   1.806
   1.877   1.913   1.916   1.926   1.899   1.926   1.916   1.913   1.877   1.806
   1.682   1.587   1.561   1.545   1.496   1.432   1.382   1.353   1.326   1.363
   1.305   1.321
   1.088   1.138   1.151   1.165   1.106   1.114   1.144   1.198   1.218   1.238
   1.260   1.375   1.486   1.621   1.745   1.878   1.978   2.031   1.999   2.031
   1.978   1.878   1.745   1.621   1.486   1.375   1.260   1.238   1.218   1.198
   1.144   1.114   1.106   1.165   1.151   1.138   1.088   1.138   1.151   1.165
   1.106   1.114   1.144   1.198   1.218   1.238   1.260   1.375   1.486   1.621
   1.745   1.878   1.978   2.031   1.999   2.031   1.978   1.878   1.745   1.621
   1.486   1.375   1.260   1.238   1.218   1.198   1.144   1.114   1.106   1.165
   1.151   1.138
   1.246   1.316   1.338   1.293   1.246   1.190   1.169   1.126   1.099   1.078
   1.103   1.245   1.283   1.387   1.568   1.760   1.893   2.010   1.973   2.010
   1.893   1.760   1.568   1.387   1.283   1.245   1.103   1.078   1.099   1.126
   1.169   1.190   1.246   1.293   1.338   1.316   1.246   1.316   1.338   1.293
   1.246   1.190   1.169   1.126   1.099   1.078   1.103   1.245   1.283   1.387
   1.568   1.760   1.893   2.010   1.973   2.010   1.893   1.760   1.568   1.387
   1.283   1.245   1.103   1.078   1.099   1.126   1.169   1.190   1.246   1.293
   1.338   1.316
   1.361   1.421   1.407   1.355   1.290   1.235   1.166   1.055   1.009   0.961
   0.948   1.026   1.042   1.139   1.312   1.523   1.646   1.802   1.798   1.802
   1.646   1.523   1.312   1.139   1.042   1.026   0.948   0.961   1.009   1.055
   1.166   1.235   1.290   1.355   1.407   1.421   1.361   1.421   1.407   1.355
   1.290   1.235   1.166   1.055   1.009   0.961   0.948   1.026   1.042   1.139
   1.312   1.523   1.646   1.802   1.798   1.802   1.646   1.523   1.312   1.139
   1.042   1.026   0.948   0.961   1.009   1.055   1.166   1.235   1.290   1.355
   1.407   1.421
   1.100   1.144   1.147   1.108   1.053   1.105   1.017   0.955   0.904   0.824
   0.853   0.854   0.870   0.956   1.066   1.228   1.337   1.506   1.564   1.506
   1.337   1.228   1.066   0.956   0.870   0.854   0.853   0.824   0.904   0.955
   1.017   1.105   1.053   1.108   1.147   1.144   1.100   1.144   1.147   1.108
   1.053   1.105   1.017   0.955   0.904   0.824   0.853   0.854   0.870   0.956
   1.066   1.228   1.337   1.506   1.564   1.506   1.337   1.228   1.066   0.956
   0.870   0.854   0.853   0.824   0.904   0.955   1.017   1.105   1.053   1.108
   1.147   1.144
   0.926   0.918   0.932   0.910   0.873   0.946   0.927   0.879   0.815   0.763
   0.798   0.724   0.755   0.809   0.955   1.005   1.126   1.273   1.377   1.273
   1.126   1.005   0.955   0.809   0.755   0.724   0.798   0.763   0.815   0.879
   0.927   0.946   0.873   0.910   0.932   0.918   0.926   0.918   0.932   0.910
   0.873   0.946   0.927   0.879   0.815   0.763   0.798   0.724   0.755   0.809
   0.955   1.005   1.126   1.273   1.377   1.273   1.126   1.005   0.955   0.809
   0.755   0.724   0.798   0.763   0.815   0.879   0.927   0.946   0.873   0.910
   0.932   0.918
   0.849   0.833   0.870   0.843   0.751   0.836   0.798   0.798   0.740   0.763
   0.717   0.706   0.765   0.812   0.939   0.946   1.027   1.111   1.135   1.111
   1.027   0.946   0.939   0.812   0.765   0.706   0.717   0.763   0.740   0.798
   0.798   0.836   0.751   0.843   0.870   0.833   0.849   0.833   0.870   0.843
   0.751   0.836   0.798   0.798   0.740   0.763   0.717   0.706   0.765   0.812
   0.939   0.946   1.027   1.111   1.135   1.111   1.027   0.946   0.939   0.812
   0.765   0.706   0.717   0.763   0.740   0.798   0.798   0.836   0.751   0.843
   0.870   0.833
   0.721   0.727   0.791   0.748   0.654   0.807   0.731   0.723   0.650   0.752
   0.772   0.832   0.848   0.881   1.005   0.992   0.967   1.009   0.959   1.009
   0.967   0.992   1.005   0.881   0.848   0.832   0.772   0.752   0.650   0.723
   0.731   0.807   0.654   0.748   0.791   0.727   0.721   0.727   0.791   0.748
   0.654   0.807   0.731   0.723   0.650   0.752   0.772   0.832   0.848   0.881
   1.005   0.992   0.967   1.009   0.959   1.009   0.967   0.992   1.005   0.881
   0.848   0.832   0.772   0.752   0.650   0.723   0.731   0.807   0.654   0.748
   0.791   0.727
   0.738   0.656   0.667   0.778   0.758   0.779   0.705   0.619   0.702   0.761
   0.833   0.899   0.894   0.909   1.011   1.013   0.977   0.956   1.033   0.956
   0.977   1.013   1.011   0.909   0.894   0.899   0.833   0.761   0.702   0.619
   0.705   0.779   0.758   0.778   0.667   0.656   0.738   0.656   0.667   0.778
   0.758   0.779   0.705   0.619   0.702   0.761   0.833   0.899   0.894   0.909
   1.011   1.013   0.977   0.956   1.033   0.956   0.977   1.013   1.011   0.909
   0.894   0.899   0.833   0.761   0.702   0.619   0.705   0.779   0.758   0.778
   0.667   0.656
   0.942   0.828   0.815   1.104   1.061   0.863   0.769   0.660   0.764   0.699
   0.805   0.857   0.918   0.884   0.934   0.970   0.897   0.961   1.100   0.961
   0.897   0.970   0.934   0.884   0.918   0.857   0.805   0.699   0.764   0.660
   0.769   0.863   1.061   1.104   0.815   0.828   0.942   0.828   0.815   1.104
   1.061   0.863   0.769   0.660   0.764   0.699   0.805   0.857   0.918   0.884
   0.934   0.970   0.897   0.961   1.100   0.961   0.897   0.970   0.934   0.884
   0.918   0.857   0.805   0.699   0.764   0.660   0.769   0.863   1.061   1.104
   0.815   0.828
   1.462   1.488   1.532   1.659   1.520   1.294   1.230   1.110   0.919   0.861
   0.938   0.923   1.046   1.037   0.962   1.009   0.837   0.951   0.992   0.951
   0.837   1.009   0.962   1.037   1.046   0.923   0.938   0.861   0.919   1.110
   1.230   1.294   1.520   1.659   1.532   1.488   1.462   1.488   1.532   1.659
   1.520   1.294   1.230   1.110   0.919   0.861   0.938   0.923   1.046   1.037
   0.962   1.009   0.837   0.951   0.992   0.951   0.837   1.009   0.962   1.037
   1.046   0.923   0.938   0.861   0.919   1.110   1.230   1.294   1.520   1.659
   1.532   1.488
   1.754   1.678   1.854   1.978   1.820   1.648   1.531   1.298   1.124   1.054
   1.043   1.084   1.146   1.171   1.099   1.033   0.939   0.852   0.936   0.852
   0.939   1.033   1.099   1.171   1.146   1.084   1.043   1.054   1.124   1.298
   1.531   1.648   1.820   1.978   1.854   1.678   1.754   1.678   1.854   1.978
   1.820   1.648   1.531   1.298   1.124   1.054   1.043   1.084   1.146   1.171
   1.099   1.033   0.939   0.852   0.936   0.852   0.939   1.033   1.099   1.171
   1.146   1.084   1.043   1.054   1.124   1.298   1.531   1.648   1.820   1.978
   1.854   1.678
   1.259   1.029   1.246   1.606   1.552   1.485   1.333   1.138   0.883   0.943
   1.043   1.052   1.063   1.054   1.102   1.090   0.962   0.827   0.858   0.827
   0.962   1.090   1.102   1.054   1.063   1.052   1.043   0.943   0.883   1.138
   1.333   1.485   1.552   1.606   1.246   1.029   1.259   1.029   1.246   1.606
   1.552   1.485   1.333   1.138   0.883   0.943   1.043   1.052   1.063   1.054
   1.102   1.090   0.962   0.827   0.858   0.827   0.962   1.090   1.102   1.054
   1.063   1.052   1.043   0.943   0.883   1.138   1.333   1.485   1.552   1.606
   1.246   1.029
   0.750   0.666   0.745   1.105   1.054   1.189   1.093   1.218   0.804   0.984
   1.154   1.114   1.026   1.095   0.989   1.075   0.924   0.813   0.806   0.813
   0.924   1.075   0.989   1.095   1.026   1.114   1.154   0.984   0.804   1.218
   1.093   1.189   1.054   1.105   0.745   0.666   0.750   0.666   0.745   1.105
   1.054   1.189   1.093   1.218   0.804   0.984   1.154   1.114   1.026   1.095
   0.989   1.075   0.924   0.813   0.806   0.813   0.924   1.075   0.989   1.095
   1.026   1.114   1.154   0.984   0.804   1.218   1.093   1.189   1.054   1.105
   0.745   0.666
  4  1     -8.1737124E-02
  4  2     -3.9468015E-01
  4  3     -2.3220292E-02
  6  1     -2.4637370E+00
  6  2      1.9572726E+00
  6  3     -9.8699157E-01
  6  4     -2.0728011E-01
  8  1      6.9555791E-01
  8  2     -5.0024276E-01
  8  3     -2.9174892E-01
  8  4      2.1519291E-01
  8  5      2.7245971E-01
 10  1      5.5733980E-01
 10  2      8.3625233E-02
 10  3     -2.6575050E-01
 10  4     -6.2128320E-02
 10  5      6.3074438E-01
 10  6      5.5092656E-01
 12  1     -6.0020509E-02  1.3842579E+00
 12  2     -2.0181894E-01 -1.5365714E+00
 12  3      9.3987060E-02  9.9827980E-01
 12  4      1.9352931E-02 -4.4050860E-01
 12  5     -5.0966503E-02  8.5563254E-02
 12  6      6.1648841E-02 -2.8708404E-03
 12  7     -5.9390004E-01 -4.5059011E-02
 14  1     -4.4854636E-01
 14  2      2.9278169E-01
 14  3      9.0124271E-02
 14  4     -2.7531981E-01
 14  5      2.2001790E-01
 14  6     -1.5079174E-01
 14  7     -3.7282652E-02
 14  8      2.2312974E-01
 110       5.00   72    0 5.00   18    0
   0.435   0.435   0.436   0.437   0.439   0.441   0.444   0.447   0.450   0.454
   0.457   0.460   0.463   0.466   0.469   0.470   0.472   0.473   0.473   0.473
   0.472   0.470   0.469   0.466   0.463   0.460   0.457   0.454   0.450   0.447
   0.444   0.441   0.439   0.437   0.436   0.435   0.435   0.435   0.436   0.437
   0.439   0.441   0.444   0.447   0.450   0.454   0.457   0.460   0.463   0.466
   0.469   0.470   0.472   0.473   0.473   0.473   0.472   0.470   0.469   0.466
   0.463   0.460   0.457   0.454   0.450   0.447   0.444   0.441   0.439   0.437
   0.436   0.435
   0.203   0.204   0.209   0.216   0.225   0.238   0.253   0.271   0.291   0.313
   0.337   0.360   0.383   0.405   0.425   0.441   0.454   0.461   0.464   0.461
   0.454   0.441   0.425   0.405   0.383   0.360   0.337   0.313   0.291   0.271
   0.253   0.238   0.225   0.216   0.209   0.204   0.203   0.204   0.209   0.216
   0.225   0.238   0.253   0.271   0.291   0.313   0.337   0.360   0.383   0.405
   0.425   0.441   0.454   0.461   0.464   0.461   0.454   0.441   0.425   0.405
   0.383   0.360   0.337   0.313   0.291   0.271   0.253   0.238   0.225   0.216
   0.209   0.204
   0.127   0.127   0.125   0.123   0.123   0.124   0.129   0.140   0.156   0.180
   0.211   0.249   0.290   0.334   0.376   0.414   0.444   0.463   0.469   0.463
   0.444   0.414   0.376   0.334   0.290   0.249   0.211   0.180   0.156   0.140
   0.129   0.124   0.123   0.123   0.125   0.127   0.127   0.127   0.125   0.123
   0.123   0.124   0.129   0.140   0.156   0.180   0.211   0.249   0.290   0.334
   0.376   0.414   0.444   0.463   0.469   0.463   0.444   0.414   0.376   0.334
   0.290   0.249   0.211   0.180   0.156   0.140   0.129   0.124   0.123   0.123
   0.125   0.127
   0.582   0.575   0.553   0.520   0.476   0.426   0.374   0.325   0.285   0.258
   0.248   0.258   0.285   0.327   0.378   0.430   0.474   0.504   0.515   0.504
   0.474   0.430   0.378   0.327   0.285   0.258   0.248   0.258   0.285   0.325
   0.374   0.426   0.476   0.520   0.553   0.575   0.582   0.575   0.553   0.520
   0.476   0.426   0.374   0.325   0.285   0.258   0.248   0.258   0.285   0.327
   0.378   0.430   0.474   0.504   0.515   0.504   0.474   0.430   0.378   0.327
   0.285   0.258   0.248   0.258   0.285   0.325   0.374   0.426   0.476   0.520
   0.553   0.575
   1.501   1.488   1.450   1.385   1.297   1.186   1.059   0.922   0.784   0.658
   0.553   0.480   0.442   0.440   0.466   0.509   0.555   0.589   0.602   0.589
   0.555   0.509   0.466   0.440   0.442   0.480   0.553   0.658   0.784   0.922
   1.059   1.186   1.297   1.385   1.450   1.488   1.501   1.488   1.450   1.385
   1.297   1.186   1.059   0.922   0.784   0.658   0.553   0.480   0.442   0.440
   0.466   0.509   0.555   0.589   0.602   0.589   0.555   0.509   0.466   0.440
   0.442   0.480   0.553   0.658   0.784   0.922   1.059   1.186   1.297   1.385
   1.450   1.488
   2.344   2.335   2.305   2.251   2.168   2.052   1.899   1.714   1.505   1.285
   1.074   0.890   0.751   0.664   0.629   0.633   0.658   0.684   0.695   0.684
   0.658   0.633   0.629   0.664   0.751   0.890   1.074   1.285   1.505   1.714
   1.899   2.052   2.168   2.251   2.305   2.335   2.344   2.335   2.305   2.251
   2.168   2.052   1.899   1.714   1.505   1.285   1.074   0.890   0.751   0.664
   0.629   0.633   0.658   0.684   0.695   0.684   0.658   0.633   0.629   0.664
   0.751   0.890   1.074   1.285   1.505   1.714   1.899   2.052   2.168   2.251
   2.305   2.335
   2.520   2.524   2.536   2.544   2.538   2.501   2.420   2.285   2.096   1.860
   1.598   1.336   1.103   0.923   0.807   0.751   0.738   0.744   0.748   0.744
   0.738   0.751   0.807   0.923   1.103   1.336   1.598   1.860   2.096   2.285
   2.420   2.501   2.538   2.544   2.536   2.524   2.520   2.524   2.536   2.544
   2.538   2.501   2.420   2.285   2.096   1.860   1.598   1.336   1.103   0.923
   0.807   0.751   0.738   0.744   0.748   0.744   0.738   0.751   0.807   0.923
   1.103   1.336   1.598   1.860   2.096   2.285   2.420   2.501   2.538   2.544
   2.536   2.524
   1.904   1.925   1.984   2.070   2.168   2.257   2.314   2.317   2.248   2.103
   1.887   1.627   1.358   1.119   0.937   0.822   0.766   0.746   0.742   0.746
   0.766   0.822   0.937   1.119   1.358   1.627   1.887   2.103   2.248   2.317
   2.314   2.257   2.168   2.070   1.984   1.925   1.904   1.925   1.984   2.070
   2.168   2.257   2.314   2.317   2.248   2.103   1.887   1.627   1.358   1.119
   0.937   0.822   0.766   0.746   0.742   0.746   0.766   0.822   0.937   1.119
   1.358   1.627   1.887   2.103   2.248   2.317   2.314   2.257   2.168   2.070
   1.984   1.925
   0.959   0.987   1.066   1.191   1.349   1.525   1.697   1.841   1.926   1.930
   1.839   1.664   1.435   1.197   0.991   0.843   0.756   0.716   0.706   0.716
   0.756   0.843   0.991   1.197   1.435   1.664   1.839   1.930   1.926   1.841
   1.697   1.525   1.349   1.191   1.066   0.987   0.959   0.987   1.066   1.191
   1.349   1.525   1.697   1.841   1.926   1.930   1.839   1.664   1.435   1.197
   0.991   0.843   0.756   0.716   0.706   0.716   0.756   0.843   0.991   1.197
   1.435   1.664   1.839   1.930   1.926   1.841   1.697   1.525   1.349   1.191
   1.066   0.987
   0.317   0.338   0.399   0.499   0.636   0.806   0.999   1.199   1.380   1.507
   1.548   1.492   1.353   1.169   0.988   0.845   0.754   0.709   0.696   0.709
   0.754   0.845   0.988   1.169   1.353   1.492   1.548   1.507   1.380   1.199
   0.999   0.806   0.636   0.499   0.399   0.338   0.317   0.338   0.399   0.499
   0.636   0.806   0.999   1.199   1.380   1.507   1.548   1.492   1.353   1.169
   0.988   0.845   0.754   0.709   0.696   0.709   0.754   0.845   0.988   1.169
   1.353   1.492   1.548   1.507   1.380   1.199   0.999   0.806   0.636   0.499
   0.399   0.338
   0.219   0.226   0.252   0.297   0.366   0.463   0.591   0.750   0.925   1.089
   1.204   1.239   1.192   1.087   0.964   0.859   0.791   0.756   0.746   0.756
   0.791   0.859   0.964   1.087   1.192   1.239   1.204   1.089   0.925   0.750
   0.591   0.463   0.366   0.297   0.252   0.226   0.219   0.226   0.252   0.297
   0.366   0.463   0.591   0.750   0.925   1.089   1.204   1.239   1.192   1.087
   0.964   0.859   0.791   0.756   0.746   0.756   0.791   0.859   0.964   1.087
   1.192   1.239   1.204   1.089   0.925   0.750   0.591   0.463   0.366   0.297
   0.252   0.226
   0.363   0.362   0.364   0.377   0.405   0.449   0.508   0.590   0.701   0.829
   0.945   1.017   1.027   0.990   0.933   0.884   0.856   0.846   0.844   0.846
   0.856   0.884   0.933   0.990   1.027   1.017   0.945   0.829   0.701   0.590
   0.508   0.449   0.405   0.377   0.364   0.362   0.363   0.362   0.364   0.377
   0.405   0.449   0.508   0.590   0.701   0.829   0.945   1.017   1.027   0.990
   0.933   0.884   0.856   0.846   0.844   0.846   0.856   0.884   0.933   0.990
   1.027   1.017   0.945   0.829   0.701   0.590   0.508   0.449   0.405   0.377
   0.364   0.362
   0.322   0.318   0.318   0.344   0.402   0.471   0.531   0.581   0.638   0.713
   0.797   0.862   0.892   0.894   0.890   0.898   0.918   0.939   0.948   0.939
   0.918   0.898   0.890   0.894   0.892   0.862   0.797   0.713   0.638   0.581
   0.531   0.471   0.402   0.344   0.318   0.318   0.322   0.318   0.318   0.344
   0.402   0.471   0.531   0.581   0.638   0.713   0.797   0.862   0.892   0.894
   0.890   0.898   0.918   0.939   0.948   0.939   0.918   0.898   0.890   0.894
   0.892   0.862   0.797   0.713   0.638   0.581   0.531   0.471   0.402   0.344
   0.318   0.318
   0.075   0.066   0.066   0.122   0.247   0.399   0.521   0.591   0.631   0.677
   0.732   0.779   0.803   0.816   0.843   0.895   0.962   1.016   1.037   1.016
   0.962   0.895   0.843   0.816   0.803   0.779   0.732   0.677   0.631   0.591
   0.521   0.399   0.247   0.122   0.066   0.066   0.075   0.066   0.066   0.122
   0.247   0.399   0.521   0.591   0.631   0.677   0.732   0.779   0.803   0.816
   0.843   0.895   0.962   1.016   1.037   1.016   0.962   0.895   0.843   0.816
   0.803   0.779   0.732   0.677   0.631   0.591   0.521   0.399   0.247   0.122
   0.066   0.066
   0.079   0.054   0.024   0.073   0.230   0.436   0.595   0.670   0.691   0.713
   0.750   0.780   0.786   0.788   0.822   0.903   1.008   1.096   1.129   1.096
   1.008   0.903   0.822   0.788   0.786   0.780   0.750   0.713   0.691   0.670
   0.595   0.436   0.230   0.073   0.024   0.054   0.079   0.054   0.024   0.073
   0.230   0.436   0.595   0.670   0.691   0.713   0.750   0.780   0.786   0.788
   0.822   0.903   1.008   1.096   1.129   1.096   1.008   0.903   0.822   0.788
   0.786   0.780   0.750   0.713   0.691   0.670   0.595   0.436   0.230   0.073
   0.024   0.054
   0.762   0.707   0.606   0.584   0.689   0.849   0.950   0.946   0.892   0.861
   0.869   0.878   0.858   0.833   0.857   0.951   1.088   1.204   1.250   1.204
   1.088   0.951   0.857   0.833   0.858   0.878   0.869   0.861   0.892   0.946
   0.950   0.849   0.689   0.584   0.606   0.707   0.762   0.707   0.606   0.584
   0.689   0.849   0.950   0.946   0.892   0.861   0.869   0.878   0.858   0.833
   0.857   0.951   1.088   1.204   1.250   1.204   1.088   0.951   0.857   0.833
   0.858   0.878   0.869   0.861   0.892   0.946   0.950   0.849   0.689   0.584
   0.606   0.707
   1.952   1.863   1.677   1.546   1.538   1.577   1.537   1.387   1.205   1.090
   1.054   1.035   0.986   0.931   0.936   1.034   1.191   1.331   1.386   1.331
   1.191   1.034   0.936   0.931   0.986   1.035   1.054   1.090   1.205   1.387
   1.537   1.577   1.538   1.546   1.677   1.863   1.952   1.863   1.677   1.546
   1.538   1.577   1.537   1.387   1.205   1.090   1.054   1.035   0.986   0.931
   0.936   1.034   1.191   1.331   1.386   1.331   1.191   1.034   0.936   0.931
   0.986   1.035   1.054   1.090   1.205   1.387   1.537   1.577   1.538   1.546
   1.677   1.863
   2.897   2.786   2.540   2.328   2.229   2.163   2.006   1.736   1.453   1.270
   1.197   1.156   1.087   1.011   1.002   1.100   1.268   1.421   1.481   1.421
   1.268   1.100   1.002   1.011   1.087   1.156   1.197   1.270   1.453   1.736
   2.006   2.163   2.229   2.328   2.540   2.786   2.897   2.786   2.540   2.328
   2.229   2.163   2.006   1.736   1.453   1.270   1.197   1.156   1.087   1.011
   1.002   1.100   1.268   1.421   1.481   1.421   1.268   1.100   1.002   1.011
   1.087   1.156   1.197   1.270   1.453   1.736   2.006   2.163   2.229   2.328
   2.540   2.786
 200       5.00   72    0 5.00   18    0
   2.443   2.444   2.446   2.450   2.456   2.462   2.470   2.479   2.488   2.498
   2.507   2.516   2.525   2.533   2.540   2.545   2.549   2.552   2.553   2.552
   2.549   2.545   2.540   2.533   2.525   2.516   2.507   2.498   2.488   2.479
   2.470   2.462   2.456   2.450   2.446   2.444   2.443   2.444   2.446   2.450
   2.456   2.462   2.470   2.479   2.488   2.498   2.507   2.516   2.525   2.533
   2.540   2.545   2.549   2.552   2.553   2.552   2.549   2.545   2.540   2.533
   2.525   2.516   2.507   2.498   2.488   2.479   2.470   2.462   2.456   2.450
   2.446   2.444
   1.651   1.657   1.675   1.705   1.745   1.795   1.853   1.918   1.988   2.061
   2.135   2.206   2.274   2.336   2.390   2.434   2.466   2.486   2.493   2.486
   2.466   2.434   2.390   2.336   2.274   2.206   2.135   2.061   1.988   1.918
   1.853   1.795   1.745   1.705   1.675   1.657   1.651   1.657   1.675   1.705
   1.745   1.795   1.853   1.918   1.988   2.061   2.135   2.206   2.274   2.336
   2.390   2.434   2.466   2.486   2.493   2.486   2.466   2.434   2.390   2.336
   2.274   2.206   2.135   2.061   1.988   1.918   1.853   1.795   1.745   1.705
   1.675   1.657
   0.664   0.675   0.706   0.759   0.831   0.922   1.031   1.156   1.292   1.438
   1.588   1.737   1.880   2.012   2.128   2.223   2.293   2.337   2.352   2.337
   2.293   2.223   2.128   2.012   1.880   1.737   1.588   1.438   1.292   1.156
   1.031   0.922   0.831   0.759   0.706   0.675   0.664   0.675   0.706   0.759
   0.831   0.922   1.031   1.156   1.292   1.438   1.588   1.737   1.880   2.012
   2.128   2.223   2.293   2.337   2.352   2.337   2.293   2.223   2.128   2.012
   1.880   1.737   1.588   1.438   1.292   1.156   1.031   0.922   0.831   0.759
   0.706   0.675
   0.109   0.117   0.143   0.187   0.252   0.340   0.450   0.584   0.740   0.913
   1.098   1.289   1.476   1.650   1.805   1.933   2.028   2.086   2.106   2.086
   2.028   1.933   1.805   1.650   1.476   1.289   1.098   0.913   0.740   0.584
   0.450   0.340   0.252   0.187   0.143   0.117   0.109   0.117   0.143   0.187
   0.252   0.340   0.450   0.584   0.740   0.913   1.098   1.289   1.476   1.650
   1.805   1.933   2.028   2.086   2.106   2.086   2.028   1.933   1.805   1.650
   1.476   1.289   1.098   0.913   0.740   0.584   0.450   0.340   0.252   0.187
   0.143   0.117
   0.100   0.101   0.105   0.116   0.138   0.178   0.241   0.333   0.455   0.605
   0.777   0.961   1.148   1.323   1.477   1.603   1.694   1.750   1.768   1.750
   1.694   1.603   1.477   1.323   1.148   0.961   0.777   0.605   0.455   0.333
   0.241   0.178   0.138   0.116   0.105   0.101   0.100   0.101   0.105   0.116
   0.138   0.178   0.241   0.333   0.455   0.605   0.777   0.961   1.148   1.323
   1.477   1.603   1.694   1.750   1.768   1.750   1.694   1.603   1.477   1.323
   1.148   0.961   0.777   0.605   0.455   0.333   0.241   0.178   0.138   0.116
   0.105   0.101
   0.272   0.268   0.258   0.244   0.231   0.228   0.242   0.284   0.358   0.468
   0.608   0.766   0.929   1.079   1.204   1.298   1.360   1.394   1.405   1.394
   1.360   1.298   1.204   1.079   0.929   0.766   0.608   0.468   0.358   0.284
   0.242   0.228   0.231   0.244   0.258   0.268   0.272   0.268   0.258   0.244
   0.231   0.228   0.242   0.284   0.358   0.468   0.608   0.766   0.929   1.079
   1.204   1.298   1.360   1.394   1.405   1.394   1.360   1.298   1.204   1.079
   0.929   0.766   0.608   0.468   0.358   0.284   0.242   0.228   0.231   0.244
   0.258   0.268
   0.272   0.273   0.277   0.281   0.282   0.283   0.289   0.311   0.359   0.442
   0.557   0.696   0.837   0.959   1.047   1.097   1.115   1.116   1.114   1.116
   1.115   1.097   1.047   0.959   0.837   0.696   0.557   0.442   0.359   0.311
   0.289   0.283   0.282   0.281   0.277   0.273   0.272   0.273   0.277   0.281
   0.282   0.283   0.289   0.311   0.359   0.442   0.557   0.696   0.837   0.959
   1.047   1.097   1.115   1.116   1.114   1.116   1.115   1.097   1.047   0.959
   0.837   0.696   0.557   0.442   0.359   0.311   0.289   0.283   0.282   0.281
   0.277   0.273
   0.167   0.182   0.220   0.272   0.325   0.368   0.399   0.427   0.466   0.532
   0.631   0.756   0.885   0.989   1.047   1.053   1.025   0.990   0.975   0.990
   1.025   1.053   1.047   0.989   0.885   0.756   0.631   0.532   0.466   0.427
   0.399   0.368   0.325   0.272   0.220   0.182   0.167   0.182   0.220   0.272
   0.325   0.368   0.399   0.427   0.466   0.532   0.631   0.756   0.885   0.989
   1.047   1.053   1.025   0.990   0.975   0.990   1.025   1.053   1.047   0.989
   0.885   0.756   0.631   0.532   0.466   0.427   0.399   0.368   0.325   0.272
   0.220   0.182
   0.321   0.341   0.399   0.477   0.557   0.622   0.663   0.685   0.704   0.744
   0.819   0.927   1.046   1.138   1.175   1.148   1.080   1.012   0.985   1.012
   1.080   1.148   1.175   1.138   1.046   0.927   0.819   0.744   0.704   0.685
   0.663   0.622   0.557   0.477   0.399   0.341   0.321   0.341   0.399   0.477
   0.557   0.622   0.663   0.685   0.704   0.744   0.819   0.927   1.046   1.138
   1.175   1.148   1.080   1.012   0.985   1.012   1.080   1.148   1.175   1.138
   1.046   0.927   0.819   0.744   0.704   0.685   0.663   0.622   0.557   0.477
   0.399   0.341
   0.918   0.929   0.957   0.993   1.022   1.035   1.028   1.007   0.987   0.989
   1.033   1.120   1.227   1.312   1.337   1.290   1.195   1.105   1.068   1.105
   1.195   1.290   1.337   1.312   1.227   1.120   1.033   0.989   0.987   1.007
   1.028   1.035   1.022   0.993   0.957   0.929   0.918   0.929   0.957   0.993
   1.022   1.035   1.028   1.007   0.987   0.989   1.033   1.120   1.227   1.312
   1.337   1.290   1.195   1.105   1.068   1.105   1.195   1.290   1.337   1.312
   1.227   1.120   1.033   0.989   0.987   1.007   1.028   1.035   1.022   0.993
   0.957   0.929
   1.688   1.678   1.646   1.585   1.495   1.391   1.289   1.202   1.142   1.119
   1.143   1.215   1.315   1.399   1.424   1.373   1.271   1.172   1.132   1.172
   1.271   1.373   1.424   1.399   1.315   1.215   1.143   1.119   1.142   1.202
   1.289   1.391   1.495   1.585   1.646   1.678   1.688   1.678   1.646   1.585
   1.495   1.391   1.289   1.202   1.142   1.119   1.143   1.215   1.315   1.399
   1.424   1.373   1.271   1.172   1.132   1.172   1.271   1.373   1.424   1.399
   1.315   1.215   1.143   1.119   1.142   1.202   1.289   1.391   1.495   1.585
   1.646   1.678
   2.112   2.094   2.027   1.893   1.697   1.477   1.285   1.155   1.087   1.071
   1.098   1.166   1.261   1.347   1.383   1.347   1.258   1.169   1.132   1.169
   1.258   1.347   1.383   1.347   1.261   1.166   1.098   1.071   1.087   1.155
   1.285   1.477   1.697   1.893   2.027   2.094   2.112   2.094   2.027   1.893
   1.697   1.477   1.285   1.155   1.087   1.071   1.098   1.166   1.261   1.347
   1.383   1.347   1.258   1.169   1.132   1.169   1.258   1.347   1.383   1.347
   1.261   1.166   1.098   1.071   1.087   1.155   1.285   1.477   1.697   1.893
   2.027   2.094
   1.893   1.898   1.879   1.771   1.555   1.289   1.067   0.948   0.921   0.942
   0.980   1.035   1.111   1.192   1.242   1.234   1.177   1.112   1.084   1.112
   1.177   1.234   1.242   1.192   1.111   1.035   0.980   0.942   0.921   0.948
   1.067   1.289   1.555   1.771   1.879   1.898   1.893   1.898   1.879   1.771
   1.555   1.289   1.067   0.948   0.921   0.942   0.980   1.035   1.111   1.192
   1.242   1.234   1.177   1.112   1.084   1.112   1.177   1.234   1.242   1.192
   1.111   1.035   0.980   0.942   0.921   0.948   1.067   1.289   1.555   1.771
   1.879   1.898
   1.217   1.275   1.380   1.391   1.243   1.007   0.823   0.775   0.830   0.901
   0.931   0.935   0.957   1.010   1.067   1.091   1.075   1.041   1.025   1.041
   1.075   1.091   1.067   1.010   0.957   0.935   0.931   0.901   0.830   0.775
   0.823   1.007   1.243   1.391   1.380   1.275   1.217   1.275   1.380   1.391
   1.243   1.007   0.823   0.775   0.830   0.901   0.931   0.935   0.957   1.010
   1.067   1.091   1.075   1.041   1.025   1.041   1.075   1.091   1.067   1.010
   0.957   0.935   0.931   0.901   0.830   0.775   0.823   1.007   1.243   1.391
   1.380   1.275
   0.570   0.686   0.923   1.061   0.988   0.798   0.683   0.744   0.910   1.029
   1.021   0.930   0.856   0.855   0.907   0.958   0.978   0.973   0.967   0.973
   0.978   0.958   0.907   0.855   0.856   0.930   1.021   1.029   0.910   0.744
   0.683   0.798   0.988   1.061   0.923   0.686   0.570   0.686   0.923   1.061
   0.988   0.798   0.683   0.744   0.910   1.029   1.021   0.930   0.856   0.855
   0.907   0.958   0.978   0.973   0.967   0.973   0.978   0.958   0.907   0.855
   0.856   0.930   1.021   1.029   0.910   0.744   0.683   0.798   0.988   1.061
   0.923   0.686
   0.325   0.473   0.777   0.958   0.884   0.692   0.632   0.810   1.096   1.263
   1.202   0.994   0.805   0.736   0.773   0.841   0.886   0.899   0.900   0.899
   0.886   0.841   0.773   0.736   0.805   0.994   1.202   1.263   1.096   0.810
   0.632   0.692   0.884   0.958   0.777   0.473   0.325   0.473   0.777   0.958
   0.884   0.692   0.632   0.810   1.096   1.263   1.202   0.994   0.805   0.736
   0.773   0.841   0.886   0.899   0.900   0.899   0.886   0.841   0.773   0.736
   0.805   0.994   1.202   1.263   1.096   0.810   0.632   0.692   0.884   0.958
   0.777   0.473
   0.468   0.619   0.913   1.043   0.887   0.638   0.598   0.874   1.269   1.482
   1.376   1.065   0.775   0.646   0.666   0.743   0.801   0.823   0.826   0.823
   0.801   0.743   0.666   0.646   0.775   1.065   1.376   1.482   1.269   0.874
   0.598   0.638   0.887   1.043   0.913   0.619   0.468   0.619   0.913   1.043
   0.887   0.638   0.598   0.874   1.269   1.482   1.376   1.065   0.775   0.646
   0.666   0.743   0.801   0.823   0.826   0.823   0.801   0.743   0.666   0.646
   0.775   1.065   1.376   1.482   1.269   0.874   0.598   0.638   0.887   1.043
   0.913   0.619
   0.686   0.828   1.087   1.150   0.913   0.606   0.567   0.897   1.359   1.602
   1.473   1.105   0.756   0.593   0.603   0.683   0.745   0.769   0.773   0.769
   0.745   0.683   0.603   0.593   0.756   1.105   1.473   1.602   1.359   0.897
   0.567   0.606   0.913   1.150   1.087   0.828   0.686   0.828   1.087   1.150
   0.913   0.606   0.567   0.897   1.359   1.602   1.473   1.105   0.756   0.593
   0.603   0.683   0.745   0.769   0.773   0.769   0.745   0.683   0.603   0.593
   0.756   1.105   1.473   1.602   1.359   0.897   0.567   0.606   0.913   1.150
   1.087   0.828
 211       5.00   72    0 5.00   18    0
   1.210   1.211   1.211   1.212   1.214   1.216   1.218   1.220   1.222   1.225
   1.227   1.230   1.232   1.234   1.236   1.238   1.239   1.239   1.240   1.239
   1.239   1.238   1.236   1.234   1.232   1.230   1.227   1.225   1.222   1.220
   1.218   1.216   1.214   1.212   1.211   1.211   1.210   1.211   1.211   1.212
   1.214   1.216   1.218   1.220   1.222   1.225   1.227   1.230   1.232   1.234
   1.236   1.238   1.239   1.239   1.240   1.239   1.239   1.238   1.236   1.234
   1.232   1.230   1.227   1.225   1.222   1.220   1.218   1.216   1.214   1.212
   1.211   1.211
   1.118   1.119   1.123   1.129   1.138   1.149   1.163   1.179   1.196   1.216
   1.236   1.256   1.277   1.296   1.313   1.327   1.338   1.344   1.346   1.344
   1.338   1.327   1.313   1.296   1.277   1.256   1.236   1.216   1.196   1.179
   1.163   1.149   1.138   1.129   1.123   1.119   1.118   1.119   1.123   1.129
   1.138   1.149   1.163   1.179   1.196   1.216   1.236   1.256   1.277   1.296
   1.313   1.327   1.338   1.344   1.346   1.344   1.338   1.327   1.313   1.296
   1.277   1.256   1.236   1.216   1.196   1.179   1.163   1.149   1.138   1.129
   1.123   1.119
   1.009   1.009   1.012   1.017   1.025   1.037   1.054   1.076   1.106   1.142
   1.184   1.231   1.282   1.332   1.380   1.421   1.453   1.474   1.481   1.474
   1.453   1.421   1.380   1.332   1.282   1.231   1.184   1.142   1.106   1.076
   1.054   1.037   1.025   1.017   1.012   1.009   1.009   1.009   1.012   1.017
   1.025   1.037   1.054   1.076   1.106   1.142   1.184   1.231   1.282   1.332
   1.380   1.421   1.453   1.474   1.481   1.474   1.453   1.421   1.380   1.332
   1.282   1.231   1.184   1.142   1.106   1.076   1.054   1.037   1.025   1.017
   1.012   1.009
   0.974   0.972   0.965   0.956   0.945   0.936   0.932   0.936   0.953   0.985
   1.033   1.096   1.174   1.259   1.346   1.426   1.490   1.532   1.547   1.532
   1.490   1.426   1.346   1.259   1.174   1.096   1.033   0.985   0.953   0.936
   0.932   0.936   0.945   0.956   0.965   0.972   0.974   0.972   0.965   0.956
   0.945   0.936   0.932   0.936   0.953   0.985   1.033   1.096   1.174   1.259
   1.346   1.426   1.490   1.532   1.547   1.532   1.490   1.426   1.346   1.259
   1.174   1.096   1.033   0.985   0.953   0.936   0.932   0.936   0.945   0.956
   0.965   0.972
   1.038   1.033   1.016   0.989   0.953   0.913   0.872   0.838   0.816   0.814
   0.838   0.892   0.974   1.080   1.198   1.314   1.412   1.478   1.501   1.478
   1.412   1.314   1.198   1.080   0.974   0.892   0.838   0.814   0.816   0.838
   0.872   0.913   0.953   0.989   1.016   1.033   1.038   1.033   1.016   0.989
   0.953   0.913   0.872   0.838   0.816   0.814   0.838   0.892   0.974   1.080
   1.198   1.314   1.412   1.478   1.501   1.478   1.412   1.314   1.198   1.080
   0.974   0.892   0.838   0.814   0.816   0.838   0.872   0.913   0.953   0.989
   1.016   1.033
   1.107   1.101   1.084   1.054   1.011   0.957   0.894   0.829   0.769   0.725
   0.708   0.726   0.785   0.882   1.007   1.140   1.259   1.341   1.371   1.341
   1.259   1.140   1.007   0.882   0.785   0.726   0.708   0.725   0.769   0.829
   0.894   0.957   1.011   1.054   1.084   1.101   1.107   1.101   1.084   1.054
   1.011   0.957   0.894   0.829   0.769   0.725   0.708   0.726   0.785   0.882
   1.007   1.140   1.259   1.341   1.371   1.341   1.259   1.140   1.007   0.882
   0.785   0.726   0.708   0.725   0.769   0.829   0.894   0.957   1.011   1.054
   1.084   1.101
   1.044   1.042   1.036   1.022   0.998   0.962   0.913   0.855   0.792   0.734
   0.691   0.676   0.699   0.764   0.866   0.987   1.103   1.186   1.216   1.186
   1.103   0.987   0.866   0.764   0.699   0.676   0.691   0.734   0.792   0.855
   0.913   0.962   0.998   1.022   1.036   1.042   1.044   1.042   1.036   1.022
   0.998   0.962   0.913   0.855   0.792   0.734   0.691   0.676   0.699   0.764
   0.866   0.987   1.103   1.186   1.216   1.186   1.103   0.987   0.866   0.764
   0.699   0.676   0.691   0.734   0.792   0.855   0.913   0.962   0.998   1.022
   1.036   1.042
   0.826   0.830   0.839   0.848   0.852   0.847   0.835   0.815   0.792   0.766
   0.742   0.726   0.729   0.761   0.824   0.909   0.998   1.064   1.089   1.064
   0.998   0.909   0.824   0.761   0.729   0.726   0.742   0.766   0.792   0.815
   0.835   0.847   0.852   0.848   0.839   0.830   0.826   0.830   0.839   0.848
   0.852   0.847   0.835   0.815   0.792   0.766   0.742   0.726   0.729   0.761
   0.824   0.909   0.998   1.064   1.089   1.064   0.998   0.909   0.824   0.761
   0.729   0.726   0.742   0.766   0.792   0.815   0.835   0.847   0.852   0.848
   0.839   0.830
   0.625   0.634   0.657   0.681   0.696   0.702   0.703   0.711   0.731   0.759
   0.787   0.808   0.824   0.842   0.871   0.912   0.957   0.993   1.007   0.993
   0.957   0.912   0.871   0.842   0.824   0.808   0.787   0.759   0.731   0.711
   0.703   0.702   0.696   0.681   0.657   0.634   0.625   0.634   0.657   0.681
   0.696   0.702   0.703   0.711   0.731   0.759   0.787   0.808   0.824   0.842
   0.871   0.912   0.957   0.993   1.007   0.993   0.957   0.912   0.871   0.842
   0.824   0.808   0.787   0.759   0.731   0.711   0.703   0.702   0.696   0.681
   0.657   0.634
   0.678   0.693   0.729   0.761   0.766   0.740   0.702   0.679   0.693   0.743
   0.813   0.879   0.926   0.952   0.962   0.965   0.966   0.966   0.967   0.966
   0.966   0.965   0.962   0.952   0.926   0.879   0.813   0.743   0.693   0.679
   0.702   0.740   0.766   0.761   0.729   0.693   0.678   0.693   0.729   0.761
   0.766   0.740   0.702   0.679   0.693   0.743   0.813   0.879   0.926   0.952
   0.962   0.965   0.966   0.966   0.967   0.966   0.966   0.965   0.962   0.952
   0.926   0.879   0.813   0.743   0.693   0.679   0.702   0.740   0.766   0.761
   0.729   0.693
   1.032   1.057   1.115   1.159   1.148   1.068   0.949   0.840   0.785   0.797
   0.860   0.941   1.009   1.048   1.055   1.034   0.998   0.964   0.950   0.964
   0.998   1.034   1.055   1.048   1.009   0.941   0.860   0.797   0.785   0.840
   0.949   1.068   1.148   1.159   1.115   1.057   1.032   1.057   1.115   1.159
   1.148   1.068   0.949   0.840   0.785   0.797   0.860   0.941   1.009   1.048
   1.055   1.034   0.998   0.964   0.950   0.964   0.998   1.034   1.055   1.048
   1.009   0.941   0.860   0.797   0.785   0.840   0.949   1.068   1.148   1.159
   1.115   1.057
   1.439   1.476   1.561   1.630   1.620   1.507   1.320   1.126   0.988   0.933
   0.949   1.003   1.063   1.106   1.116   1.085   1.024   0.963   0.938   0.963
   1.024   1.085   1.116   1.106   1.063   1.003   0.949   0.933   0.988   1.126
   1.320   1.507   1.620   1.630   1.561   1.476   1.439   1.476   1.561   1.630
   1.620   1.507   1.320   1.126   0.988   0.933   0.949   1.003   1.063   1.106
   1.116   1.085   1.024   0.963   0.938   0.963   1.024   1.085   1.116   1.106
   1.063   1.003   0.949   0.933   0.988   1.126   1.320   1.507   1.620   1.630
   1.561   1.476
   1.549   1.594   1.699   1.796   1.811   1.709   1.518   1.308   1.147   1.062
   1.039   1.051   1.079   1.111   1.125   1.098   1.028   0.950   0.916   0.950
   1.028   1.098   1.125   1.111   1.079   1.051   1.039   1.062   1.147   1.308
   1.518   1.709   1.811   1.796   1.699   1.594   1.549   1.594   1.699   1.796
   1.811   1.709   1.518   1.308   1.147   1.062   1.039   1.051   1.079   1.111
   1.125   1.098   1.028   0.950   0.916   0.950   1.028   1.098   1.125   1.111
   1.079   1.051   1.039   1.062   1.147   1.308   1.518   1.709   1.811   1.796
   1.699   1.594
   1.249   1.293   1.402   1.514   1.560   1.503   1.369   1.225   1.129   1.092
   1.080   1.067   1.059   1.068   1.086   1.073   1.010   0.928   0.891   0.928
   1.010   1.073   1.086   1.068   1.059   1.067   1.080   1.092   1.129   1.225
   1.369   1.503   1.560   1.514   1.402   1.293   1.249   1.293   1.402   1.514
   1.560   1.503   1.369   1.225   1.129   1.092   1.080   1.067   1.059   1.068
   1.086   1.073   1.010   0.928   0.891   0.928   1.010   1.073   1.086   1.068
   1.059   1.067   1.080   1.092   1.129   1.225   1.369   1.503   1.560   1.514
   1.402   1.293
   0.786   0.825   0.923   1.032   1.092   1.072   1.001   0.951   0.969   1.034
   1.080   1.068   1.024   1.006   1.023   1.033   0.993   0.922   0.887   0.922
   0.993   1.033   1.023   1.006   1.024   1.068   1.080   1.034   0.969   0.951
   1.001   1.072   1.092   1.032   0.923   0.825   0.786   0.825   0.923   1.032
   1.092   1.072   1.001   0.951   0.969   1.034   1.080   1.068   1.024   1.006
   1.023   1.033   0.993   0.922   0.887   0.922   0.993   1.033   1.023   1.006
   1.024   1.068   1.080   1.034   0.969   0.951   1.001   1.072   1.092   1.032
   0.923   0.825
   0.527   0.560   0.646   0.742   0.793   0.769   0.714   0.715   0.821   0.984
   1.094   1.089   1.012   0.960   0.974   1.009   1.001   0.952   0.923   0.952
   1.001   1.009   0.974   0.960   1.012   1.089   1.094   0.984   0.821   0.715
   0.714   0.769   0.793   0.742   0.646   0.560   0.527   0.560   0.646   0.742
   0.793   0.769   0.714   0.715   0.821   0.984   1.094   1.089   1.012   0.960
   0.974   1.009   1.001   0.952   0.923   0.952   1.001   1.009   0.974   0.960
   1.012   1.089   1.094   0.984   0.821   0.715   0.714   0.769   0.793   0.742
   0.646   0.560
   0.588   0.621   0.703   0.790   0.817   0.755   0.662   0.650   0.784   0.999
   1.149   1.143   1.034   0.948   0.955   1.012   1.035   1.009   0.988   1.009
   1.035   1.012   0.955   0.948   1.034   1.143   1.149   0.999   0.784   0.650
   0.662   0.755   0.817   0.790   0.703   0.621   0.588   0.621   0.703   0.790
   0.817   0.755   0.662   0.650   0.784   0.999   1.149   1.143   1.034   0.948
   0.955   1.012   1.035   1.009   0.988   1.009   1.035   1.012   0.955   0.948
   1.034   1.143   1.149   0.999   0.784   0.650   0.662   0.755   0.817   0.790
   0.703   0.621
   0.755   0.789   0.874   0.957   0.965   0.867   0.730   0.687   0.814   1.042
   1.204   1.193   1.061   0.953   0.955   1.023   1.066   1.055   1.040   1.055
   1.066   1.023   0.955   0.953   1.061   1.193   1.204   1.042   0.814   0.687
   0.730   0.867   0.965   0.957   0.874   0.789   0.755   0.789   0.874   0.957
   0.965   0.867   0.730   0.687   0.814   1.042   1.204   1.193   1.061   0.953
   0.955   1.023   1.066   1.055   1.040   1.055   1.066   1.023   0.955   0.953
   1.061   1.193   1.204   1.042   0.814   0.687   0.730   0.867   0.965   0.957
   0.874   0.789
TEXTURE_INDEX=   2.2179
ERR_CF 110         1080     264   19.93    8.08
ERR_CF 200         1080     654   16.81    9.16
ERR_CF 211         1080     646   11.99   14.13
