TEXEVAL                                                                         
Analysis started on 08-Jul-19 09:10:59                                          
 LMAX=14LFMAX=03 CUBIC ORTHO   
 220      5.00 5.00
 200      5.00 5.00
 111      5.00 5.00
 220       5.00   72    0 5.00   15    0
   4.065   4.065   4.065   4.065   4.065   4.065   4.065   4.065   4.065   4.065
   4.065   4.065   4.065   4.065   4.065   4.065   4.065   4.065   4.065   4.065
   4.065   4.065   4.065   4.065   4.065   4.065   4.065   4.065   4.065   4.065
   4.065   4.065   4.065   4.065   4.065   4.065   4.065   4.065   4.065   4.065
   4.065   4.065   4.065   4.065   4.065   4.065   4.065   4.065   4.065   4.065
   4.065   4.065   4.065   4.065   4.065   4.065   4.065   4.065   4.065   4.065
   4.065   4.065   4.065   4.065   4.065   4.065   4.065   4.065   4.065   4.065
   4.065   4.065
   1.786   1.739   1.768   1.863   1.984   1.905   2.137   2.274   2.343   2.637
   2.908   2.997   3.331   3.567   3.747   4.255   4.617   4.797   4.854   4.797
   4.617   4.255   3.747   3.567   3.331   2.997   2.908   2.637   2.343   2.274
   2.137   1.905   1.984   1.863   1.768   1.739   1.786   1.739   1.768   1.863
   1.984   1.905   2.137   2.274   2.343   2.637   2.908   2.997   3.331   3.567
   3.747   4.255   4.617   4.797   4.854   4.797   4.617   4.255   3.747   3.567
   3.331   2.997   2.908   2.637   2.343   2.274   2.137   1.905   1.984   1.863
   1.768   1.739
   0.620   0.617   0.576   0.713   0.706   0.774   0.871   0.931   0.917   1.244
   1.560   1.784   2.170   2.574   3.076   3.669   4.308   4.733   4.685   4.733
   4.308   3.669   3.076   2.574   2.170   1.784   1.560   1.244   0.917   0.931
   0.871   0.774   0.706   0.713   0.576   0.617   0.620   0.617   0.576   0.713
   0.706   0.774   0.871   0.931   0.917   1.244   1.560   1.784   2.170   2.574
   3.076   3.669   4.308   4.733   4.685   4.733   4.308   3.669   3.076   2.574
   2.170   1.784   1.560   1.244   0.917   0.931   0.871   0.774   0.706   0.713
   0.576   0.617
   0.368   0.348   0.331   0.450   0.441   0.525   0.489   0.535   0.635   0.762
   1.027   1.112   1.470   1.860   2.627   3.129   3.869   4.526   4.510   4.526
   3.869   3.129   2.627   1.860   1.470   1.112   1.027   0.762   0.635   0.535
   0.489   0.525   0.441   0.450   0.331   0.348   0.368   0.348   0.331   0.450
   0.441   0.525   0.489   0.535   0.635   0.762   1.027   1.112   1.470   1.860
   2.627   3.129   3.869   4.526   4.510   4.526   3.869   3.129   2.627   1.860
   1.470   1.112   1.027   0.762   0.635   0.535   0.489   0.525   0.441   0.450
   0.331   0.348
   0.261   0.219   0.327   0.355   0.380   0.415   0.460   0.394   0.489   0.501
   0.727   0.775   1.049   1.472   2.298   3.012   3.640   4.213   4.462   4.213
   3.640   3.012   2.298   1.472   1.049   0.775   0.727   0.501   0.489   0.394
   0.460   0.415   0.380   0.355   0.327   0.219   0.261   0.219   0.327   0.355
   0.380   0.415   0.460   0.394   0.489   0.501   0.727   0.775   1.049   1.472
   2.298   3.012   3.640   4.213   4.462   4.213   3.640   3.012   2.298   1.472
   1.049   0.775   0.727   0.501   0.489   0.394   0.460   0.415   0.380   0.355
   0.327   0.219
   0.308   0.261   0.366   0.382   0.345   0.338   0.554   0.403   0.428   0.500
   0.629   0.726   1.073   1.479   2.271   2.865   3.444   3.473   3.614   3.473
   3.444   2.865   2.271   1.479   1.073   0.726   0.629   0.500   0.428   0.403
   0.554   0.338   0.345   0.382   0.366   0.261   0.308   0.261   0.366   0.382
   0.345   0.338   0.554   0.403   0.428   0.500   0.629   0.726   1.073   1.479
   2.271   2.865   3.444   3.473   3.614   3.473   3.444   2.865   2.271   1.479
   1.073   0.726   0.629   0.500   0.428   0.403   0.554   0.338   0.345   0.382
   0.366   0.261
   0.369   0.376   0.385   0.391   0.272   0.422   0.566   0.529   0.625   0.605
   0.761   0.838   1.217   1.802   2.421   2.724   3.000   2.796   2.629   2.796
   3.000   2.724   2.421   1.802   1.217   0.838   0.761   0.605   0.625   0.529
   0.566   0.422   0.272   0.391   0.385   0.376   0.369   0.376   0.385   0.391
   0.272   0.422   0.566   0.529   0.625   0.605   0.761   0.838   1.217   1.802
   2.421   2.724   3.000   2.796   2.629   2.796   3.000   2.724   2.421   1.802
   1.217   0.838   0.761   0.605   0.625   0.529   0.566   0.422   0.272   0.391
   0.385   0.376
   0.387   0.530   0.424   0.365   0.363   0.633   0.556   0.487   0.635   0.681
   0.929   1.027   1.259   1.965   2.449   2.363   2.374   2.042   1.768   2.042
   2.374   2.363   2.449   1.965   1.259   1.027   0.929   0.681   0.635   0.487
   0.556   0.633   0.363   0.365   0.424   0.530   0.387   0.530   0.424   0.365
   0.363   0.633   0.556   0.487   0.635   0.681   0.929   1.027   1.259   1.965
   2.449   2.363   2.374   2.042   1.768   2.042   2.374   2.363   2.449   1.965
   1.259   1.027   0.929   0.681   0.635   0.487   0.556   0.633   0.363   0.365
   0.424   0.530
   0.552   0.519   0.494   0.418   0.512   0.592   0.480   0.515   0.526   0.678
   0.802   0.889   1.180   1.521   2.070   1.723   1.511   1.063   0.955   1.063
   1.511   1.723   2.070   1.521   1.180   0.889   0.802   0.678   0.526   0.515
   0.480   0.592   0.512   0.418   0.494   0.519   0.552   0.519   0.494   0.418
   0.512   0.592   0.480   0.515   0.526   0.678   0.802   0.889   1.180   1.521
   2.070   1.723   1.511   1.063   0.955   1.063   1.511   1.723   2.070   1.521
   1.180   0.889   0.802   0.678   0.526   0.515   0.480   0.592   0.512   0.418
   0.494   0.519
   0.625   0.657   0.552   0.530   0.504   0.538   0.340   0.557   0.539   0.612
   0.610   0.734   0.974   1.167   1.473   1.140   0.805   0.572   1.057   0.572
   0.805   1.140   1.473   1.167   0.974   0.734   0.610   0.612   0.539   0.557
   0.340   0.538   0.504   0.530   0.552   0.657   0.625   0.657   0.552   0.530
   0.504   0.538   0.340   0.557   0.539   0.612   0.610   0.734   0.974   1.167
   1.473   1.140   0.805   0.572   1.057   0.572   0.805   1.140   1.473   1.167
   0.974   0.734   0.610   0.612   0.539   0.557   0.340   0.538   0.504   0.530
   0.552   0.657
   1.139   1.643   1.319   0.883   0.884   0.916   0.632   0.423   0.537   0.652
   0.756   0.731   1.041   1.056   0.841   0.938   0.827   0.521   0.888   0.521
   0.827   0.938   0.841   1.056   1.041   0.731   0.756   0.652   0.537   0.423
   0.632   0.916   0.884   0.883   1.319   1.643   1.139   1.643   1.319   0.883
   0.884   0.916   0.632   0.423   0.537   0.652   0.756   0.731   1.041   1.056
   0.841   0.938   0.827   0.521   0.888   0.521   0.827   0.938   0.841   1.056
   1.041   0.731   0.756   0.652   0.537   0.423   0.632   0.916   0.884   0.883
   1.319   1.643
   3.631   3.881   2.680   1.443   1.294   1.286   1.066   0.459   0.770   0.369
   0.680   0.588   1.029   1.190   0.673   0.941   0.934   0.323   0.416   0.323
   0.934   0.941   0.673   1.190   1.029   0.588   0.680   0.369   0.770   0.459
   1.066   1.286   1.294   1.443   2.680   3.881   3.631   3.881   2.680   1.443
   1.294   1.286   1.066   0.459   0.770   0.369   0.680   0.588   1.029   1.190
   0.673   0.941   0.934   0.323   0.416   0.323   0.934   0.941   0.673   1.190
   1.029   0.588   0.680   0.369   0.770   0.459   1.066   1.286   1.294   1.443
   2.680   3.881
   4.474   4.478   3.120   2.261   1.967   1.618   1.196   0.782   0.879   0.463
   0.300   0.549   0.625   0.924   0.601   0.463   0.672   0.598   0.408   0.598
   0.672   0.463   0.601   0.924   0.625   0.549   0.300   0.463   0.879   0.782
   1.196   1.618   1.967   2.261   3.120   4.478   4.474   4.478   3.120   2.261
   1.967   1.618   1.196   0.782   0.879   0.463   0.300   0.549   0.625   0.924
   0.601   0.463   0.672   0.598   0.408   0.598   0.672   0.463   0.601   0.924
   0.625   0.549   0.300   0.463   0.879   0.782   1.196   1.618   1.967   2.261
   3.120   4.478
   2.467   2.474   2.020   2.170   1.778   2.124   1.538   1.298   1.181   0.940
   0.302   0.484   0.479   0.890   0.503   0.479   0.768   0.921   0.517   0.921
   0.768   0.479   0.503   0.890   0.479   0.484   0.302   0.940   1.181   1.298
   1.538   2.124   1.778   2.170   2.020   2.474   2.467   2.474   2.020   2.170
   1.778   2.124   1.538   1.298   1.181   0.940   0.302   0.484   0.479   0.890
   0.503   0.479   0.768   0.921   0.517   0.921   0.768   0.479   0.503   0.890
   0.479   0.484   0.302   0.940   1.181   1.298   1.538   2.124   1.778   2.170
   2.020   2.474
   0.975   0.773   0.734   0.804   0.565   1.242   1.022   1.015   1.665   0.849
   0.608   0.885   0.647   1.016   0.570   0.443   0.717   0.656   0.484   0.656
   0.717   0.443   0.570   1.016   0.647   0.885   0.608   0.849   1.665   1.015
   1.022   1.242   0.565   0.804   0.734   0.773   0.975   0.773   0.734   0.804
   0.565   1.242   1.022   1.015   1.665   0.849   0.608   0.885   0.647   1.016
   0.570   0.443   0.717   0.656   0.484   0.656   0.717   0.443   0.570   1.016
   0.647   0.885   0.608   0.849   1.665   1.015   1.022   1.242   0.565   0.804
   0.734   0.773
 200       5.00   72    0 5.00   15    0
   0.884   0.884   0.884   0.884   0.884   0.884   0.884   0.884   0.884   0.884
   0.884   0.884   0.884   0.884   0.884   0.884   0.884   0.884   0.884   0.884
   0.884   0.884   0.884   0.884   0.884   0.884   0.884   0.884   0.884   0.884
   0.884   0.884   0.884   0.884   0.884   0.884   0.884   0.884   0.884   0.884
   0.884   0.884   0.884   0.884   0.884   0.884   0.884   0.884   0.884   0.884
   0.884   0.884   0.884   0.884   0.884   0.884   0.884   0.884   0.884   0.884
   0.884   0.884   0.884   0.884   0.884   0.884   0.884   0.884   0.884   0.884
   0.884   0.884
   0.917   0.888   0.957   0.909   0.932   0.909   0.959   0.891   0.850   0.928
   0.891   0.845   0.840   0.840   0.834   0.917   0.856   0.838   0.793   0.838
   0.856   0.917   0.834   0.840   0.840   0.845   0.891   0.928   0.850   0.891
   0.959   0.909   0.932   0.909   0.957   0.888   0.917   0.888   0.957   0.909
   0.932   0.909   0.959   0.891   0.850   0.928   0.891   0.845   0.840   0.840
   0.834   0.917   0.856   0.838   0.793   0.838   0.856   0.917   0.834   0.840
   0.840   0.845   0.891   0.928   0.850   0.891   0.959   0.909   0.932   0.909
   0.957   0.888
   1.024   1.002   1.036   1.026   1.026   0.976   1.001   0.969   0.953   0.930
   0.877   0.818   0.820   0.782   0.741   0.820   0.819   0.833   0.698   0.833
   0.819   0.820   0.741   0.782   0.820   0.818   0.877   0.930   0.953   0.969
   1.001   0.976   1.026   1.026   1.036   1.002   1.024   1.002   1.036   1.026
   1.026   0.976   1.001   0.969   0.953   0.930   0.877   0.818   0.820   0.782
   0.741   0.820   0.819   0.833   0.698   0.833   0.819   0.820   0.741   0.782
   0.820   0.818   0.877   0.930   0.953   0.969   1.001   0.976   1.026   1.026
   1.036   1.002
   1.381   1.360   1.368   1.327   1.318   1.235   1.163   1.150   1.068   0.966
   0.969   0.819   0.747   0.784   0.744   0.702   0.663   0.733   0.707   0.733
   0.663   0.702   0.744   0.784   0.747   0.819   0.969   0.966   1.068   1.150
   1.163   1.235   1.318   1.327   1.368   1.360   1.381   1.360   1.368   1.327
   1.318   1.235   1.163   1.150   1.068   0.966   0.969   0.819   0.747   0.784
   0.744   0.702   0.663   0.733   0.707   0.733   0.663   0.702   0.744   0.784
   0.747   0.819   0.969   0.966   1.068   1.150   1.163   1.235   1.318   1.327
   1.368   1.360
   2.338   2.274   2.383   2.173   2.119   1.920   1.628   1.477   1.296   1.056
   1.023   0.809   0.752   0.765   0.634   0.610   0.625   0.661   0.657   0.661
   0.625   0.610   0.634   0.765   0.752   0.809   1.023   1.056   1.296   1.477
   1.628   1.920   2.119   2.173   2.383   2.274   2.338   2.274   2.383   2.173
   2.119   1.920   1.628   1.477   1.296   1.056   1.023   0.809   0.752   0.765
   0.634   0.610   0.625   0.661   0.657   0.661   0.625   0.610   0.634   0.765
   0.752   0.809   1.023   1.056   1.296   1.477   1.628   1.920   2.119   2.173
   2.383   2.274
   3.276   3.006   3.282   3.029   3.220   2.901   2.589   2.096   1.896   1.251
   1.108   0.866   0.831   0.565   0.516   0.564   0.590   0.581   0.564   0.581
   0.590   0.564   0.516   0.565   0.831   0.866   1.108   1.251   1.896   2.096
   2.589   2.901   3.220   3.029   3.282   3.006   3.276   3.006   3.282   3.029
   3.220   2.901   2.589   2.096   1.896   1.251   1.108   0.866   0.831   0.565
   0.516   0.564   0.590   0.581   0.564   0.581   0.590   0.564   0.516   0.565
   0.831   0.866   1.108   1.251   1.896   2.096   2.589   2.901   3.220   3.029
   3.282   3.006
   2.141   2.013   2.225   2.132   2.753   2.822   2.712   2.281   2.261   1.746
   1.318   1.036   0.820   0.682   0.681   0.586   0.511   0.484   0.419   0.484
   0.511   0.586   0.681   0.682   0.820   1.036   1.318   1.746   2.261   2.281
   2.712   2.822   2.753   2.132   2.225   2.013   2.141   2.013   2.225   2.132
   2.753   2.822   2.712   2.281   2.261   1.746   1.318   1.036   0.820   0.682
   0.681   0.586   0.511   0.484   0.419   0.484   0.511   0.586   0.681   0.682
   0.820   1.036   1.318   1.746   2.261   2.281   2.712   2.822   2.753   2.132
   2.225   2.013
   0.610   0.607   0.754   0.756   1.107   1.435   1.619   1.780   1.990   1.954
   1.637   1.365   0.945   1.025   0.862   0.562   0.657   0.468   0.353   0.468
   0.657   0.562   0.862   1.025   0.945   1.365   1.637   1.954   1.990   1.780
   1.619   1.435   1.107   0.756   0.754   0.607   0.610   0.607   0.754   0.756
   1.107   1.435   1.619   1.780   1.990   1.954   1.637   1.365   0.945   1.025
   0.862   0.562   0.657   0.468   0.353   0.468   0.657   0.562   0.862   1.025
   0.945   1.365   1.637   1.954   1.990   1.780   1.619   1.435   1.107   0.756
   0.754   0.607
   0.247   0.271   0.350   0.348   0.369   0.487   0.693   1.012   1.406   1.565
   1.615   1.697   1.525   1.332   0.977   0.612   0.674   0.554   0.488   0.554
   0.674   0.612   0.977   1.332   1.525   1.697   1.615   1.565   1.406   1.012
   0.693   0.487   0.369   0.348   0.350   0.271   0.247   0.271   0.350   0.348
   0.369   0.487   0.693   1.012   1.406   1.565   1.615   1.697   1.525   1.332
   0.977   0.612   0.674   0.554   0.488   0.554   0.674   0.612   0.977   1.332
   1.525   1.697   1.615   1.565   1.406   1.012   0.693   0.487   0.369   0.348
   0.350   0.271
   0.094   0.281   0.146   0.180   0.197   0.392   0.350   0.513   0.944   1.171
   1.530   1.872   1.685   1.645   1.330   0.769   0.745   0.665   0.552   0.665
   0.745   0.769   1.330   1.645   1.685   1.872   1.530   1.171   0.944   0.513
   0.350   0.392   0.197   0.180   0.146   0.281   0.094   0.281   0.146   0.180
   0.197   0.392   0.350   0.513   0.944   1.171   1.530   1.872   1.685   1.645
   1.330   0.769   0.745   0.665   0.552   0.665   0.745   0.769   1.330   1.645
   1.685   1.872   1.530   1.171   0.944   0.513   0.350   0.392   0.197   0.180
   0.146   0.281
   0.141   0.234   0.158   0.226   0.149   0.247   0.282   0.309   0.751   0.819
   1.452   1.641   1.174   1.369   1.256   0.705   0.686   0.528   0.557   0.528
   0.686   0.705   1.256   1.369   1.174   1.641   1.452   0.819   0.751   0.309
   0.282   0.247   0.149   0.226   0.158   0.234   0.141   0.234   0.158   0.226
   0.149   0.247   0.282   0.309   0.751   0.819   1.452   1.641   1.174   1.369
   1.256   0.705   0.686   0.528   0.557   0.528   0.686   0.705   1.256   1.369
   1.174   1.641   1.452   0.819   0.751   0.309   0.282   0.247   0.149   0.226
   0.158   0.234
   0.345   0.164   0.317   0.287   0.247   0.079   0.329   0.279   0.582   0.560
   1.382   1.749   1.426   0.935   0.823   0.645   0.322   0.348   0.315   0.348
   0.322   0.645   0.823   0.935   1.426   1.749   1.382   0.560   0.582   0.279
   0.329   0.079   0.247   0.287   0.317   0.164   0.345   0.164   0.317   0.287
   0.247   0.079   0.329   0.279   0.582   0.560   1.382   1.749   1.426   0.935
   0.823   0.645   0.322   0.348   0.315   0.348   0.322   0.645   0.823   0.935
   1.426   1.749   1.382   0.560   0.582   0.279   0.329   0.079   0.247   0.287
   0.317   0.164
   0.376   0.212   0.335   0.233   0.325   0.099   0.427   0.485   0.565   1.091
   1.862   2.035   1.775   0.724   0.645   0.707   0.381   0.436   0.315   0.436
   0.381   0.707   0.645   0.724   1.775   2.035   1.862   1.091   0.565   0.485
   0.427   0.099   0.325   0.233   0.335   0.212   0.376   0.212   0.335   0.233
   0.325   0.099   0.427   0.485   0.565   1.091   1.862   2.035   1.775   0.724
   0.645   0.707   0.381   0.436   0.315   0.436   0.381   0.707   0.645   0.724
   1.775   2.035   1.862   1.091   0.565   0.485   0.427   0.099   0.325   0.233
   0.335   0.212
   0.406   0.513   0.340   0.274   0.576   0.336   0.370   0.961   1.135   1.911
   2.009   1.795   1.515   0.465   0.596   0.579   0.546   0.579   0.374   0.579
   0.546   0.579   0.596   0.465   1.515   1.795   2.009   1.911   1.135   0.961
   0.370   0.336   0.576   0.274   0.340   0.513   0.406   0.513   0.340   0.274
   0.576   0.336   0.370   0.961   1.135   1.911   2.009   1.795   1.515   0.465
   0.596   0.579   0.546   0.579   0.374   0.579   0.546   0.579   0.596   0.465
   1.515   1.795   2.009   1.911   1.135   0.961   0.370   0.336   0.576   0.274
   0.340   0.513
   0.507   0.442   0.354   0.657   0.758   0.546   0.515   1.085   1.505   2.227
   1.887   1.227   1.157   0.511   0.449   0.228   0.276   0.613   0.162   0.613
   0.276   0.228   0.449   0.511   1.157   1.227   1.887   2.227   1.505   1.085
   0.515   0.546   0.758   0.657   0.354   0.442   0.507   0.442   0.354   0.657
   0.758   0.546   0.515   1.085   1.505   2.227   1.887   1.227   1.157   0.511
   0.449   0.228   0.276   0.613   0.162   0.613   0.276   0.228   0.449   0.511
   1.157   1.227   1.887   2.227   1.505   1.085   0.515   0.546   0.758   0.657
   0.354   0.442
 111       5.00   72    0 5.00   15    0
   0.172   0.172   0.172   0.172   0.172   0.172   0.172   0.172   0.172   0.172
   0.172   0.172   0.172   0.172   0.172   0.172   0.172   0.172   0.172   0.172
   0.172   0.172   0.172   0.172   0.172   0.172   0.172   0.172   0.172   0.172
   0.172   0.172   0.172   0.172   0.172   0.172   0.172   0.172   0.172   0.172
   0.172   0.172   0.172   0.172   0.172   0.172   0.172   0.172   0.172   0.172
   0.172   0.172   0.172   0.172   0.172   0.172   0.172   0.172   0.172   0.172
   0.172   0.172   0.172   0.172   0.172   0.172   0.172   0.172   0.172   0.172
   0.172   0.172
   0.222   0.214   0.214   0.209   0.215   0.212   0.203   0.211   0.193   0.191
   0.167   0.182   0.179   0.173   0.167   0.162   0.196   0.194   0.192   0.194
   0.196   0.162   0.167   0.173   0.179   0.182   0.167   0.191   0.193   0.211
   0.203   0.212   0.215   0.209   0.214   0.214   0.222   0.214   0.214   0.209
   0.215   0.212   0.203   0.211   0.193   0.191   0.167   0.182   0.179   0.173
   0.167   0.162   0.196   0.194   0.192   0.194   0.196   0.162   0.167   0.173
   0.179   0.182   0.167   0.191   0.193   0.211   0.203   0.212   0.215   0.209
   0.214   0.214
   0.391   0.338   0.336   0.330   0.300   0.291   0.282   0.261   0.224   0.237
   0.211   0.185   0.189   0.208   0.193   0.171   0.191   0.196   0.212   0.196
   0.191   0.171   0.193   0.208   0.189   0.185   0.211   0.237   0.224   0.261
   0.282   0.291   0.300   0.330   0.336   0.338   0.391   0.338   0.336   0.330
   0.300   0.291   0.282   0.261   0.224   0.237   0.211   0.185   0.189   0.208
   0.193   0.171   0.191   0.196   0.212   0.196   0.191   0.171   0.193   0.208
   0.189   0.185   0.211   0.237   0.224   0.261   0.282   0.291   0.300   0.330
   0.336   0.338
   0.852   0.810   0.742   0.676   0.595   0.518   0.472   0.431   0.338   0.290
   0.303   0.248   0.214   0.213   0.217   0.190   0.203   0.213   0.229   0.213
   0.203   0.190   0.217   0.213   0.214   0.248   0.303   0.290   0.338   0.431
   0.472   0.518   0.595   0.676   0.742   0.810   0.852   0.810   0.742   0.676
   0.595   0.518   0.472   0.431   0.338   0.290   0.303   0.248   0.214   0.213
   0.217   0.190   0.203   0.213   0.229   0.213   0.203   0.190   0.217   0.213
   0.214   0.248   0.303   0.290   0.338   0.431   0.472   0.518   0.595   0.676
   0.742   0.810
   2.867   2.870   2.449   2.012   1.714   1.231   0.926   0.779   0.586   0.400
   0.385   0.314   0.252   0.201   0.220   0.195   0.188   0.198   0.227   0.198
   0.188   0.195   0.220   0.201   0.252   0.314   0.385   0.400   0.586   0.779
   0.926   1.231   1.714   2.012   2.449   2.870   2.867   2.870   2.449   2.012
   1.714   1.231   0.926   0.779   0.586   0.400   0.385   0.314   0.252   0.201
   0.220   0.195   0.188   0.198   0.227   0.198   0.188   0.195   0.220   0.201
   0.252   0.314   0.385   0.400   0.586   0.779   0.926   1.231   1.714   2.012
   2.449   2.870
   5.097   5.142   4.620   4.049   3.552   2.745   2.084   1.615   1.153   0.775
   0.568   0.473   0.346   0.236   0.229   0.190   0.138   0.146   0.183   0.146
   0.138   0.190   0.229   0.236   0.346   0.473   0.568   0.775   1.153   1.615
   2.084   2.745   3.552   4.049   4.620   5.142   5.097   5.142   4.620   4.049
   3.552   2.745   2.084   1.615   1.153   0.775   0.568   0.473   0.346   0.236
   0.229   0.190   0.138   0.146   0.183   0.146   0.138   0.190   0.229   0.236
   0.346   0.473   0.568   0.775   1.153   1.615   2.084   2.745   3.552   4.049
   4.620   5.142
   4.231   4.164   3.991   3.908   3.668   3.349   3.007   2.350   1.764   1.339
   0.920   0.695   0.474   0.346   0.248   0.200   0.194   0.175   0.159   0.175
   0.194   0.200   0.248   0.346   0.474   0.695   0.920   1.339   1.764   2.350
   3.007   3.349   3.668   3.908   3.991   4.164   4.231   4.164   3.991   3.908
   3.668   3.349   3.007   2.350   1.764   1.339   0.920   0.695   0.474   0.346
   0.248   0.200   0.194   0.175   0.159   0.175   0.194   0.200   0.248   0.346
   0.474   0.695   0.920   1.339   1.764   2.350   3.007   3.349   3.668   3.908
   3.991   4.164
   2.038   1.910   1.871   2.076   2.182   2.239   2.464   2.293   2.051   1.789
   1.357   1.092   0.669   0.520   0.368   0.296   0.317   0.186   0.234   0.186
   0.317   0.296   0.368   0.520   0.669   1.092   1.357   1.789   2.051   2.293
   2.464   2.239   2.182   2.076   1.871   1.910   2.038   1.910   1.871   2.076
   2.182   2.239   2.464   2.293   2.051   1.789   1.357   1.092   0.669   0.520
   0.368   0.296   0.317   0.186   0.234   0.186   0.317   0.296   0.368   0.520
   0.669   1.092   1.357   1.789   2.051   2.293   2.464   2.239   2.182   2.076
   1.871   1.910
   0.817   0.858   0.871   0.890   1.016   1.200   1.494   1.691   1.889   1.988
   1.823   1.611   1.130   0.818   0.538   0.532   0.418   0.279   0.372   0.279
   0.418   0.532   0.538   0.818   1.130   1.611   1.823   1.988   1.889   1.691
   1.494   1.200   1.016   0.890   0.871   0.858   0.817   0.858   0.871   0.890
   1.016   1.200   1.494   1.691   1.889   1.988   1.823   1.611   1.130   0.818
   0.538   0.532   0.418   0.279   0.372   0.279   0.418   0.532   0.538   0.818
   1.130   1.611   1.823   1.988   1.889   1.691   1.494   1.200   1.016   0.890
   0.871   0.858
   0.351   0.441   0.485   0.361   0.495   0.616   0.893   1.024   1.412   1.720
   1.878   1.870   1.917   1.396   0.857   0.689   0.506   0.421   0.481   0.421
   0.506   0.689   0.857   1.396   1.917   1.870   1.878   1.720   1.412   1.024
   0.893   0.616   0.495   0.361   0.485   0.441   0.351   0.441   0.485   0.361
   0.495   0.616   0.893   1.024   1.412   1.720   1.878   1.870   1.917   1.396
   0.857   0.689   0.506   0.421   0.481   0.421   0.506   0.689   0.857   1.396
   1.917   1.870   1.878   1.720   1.412   1.024   0.893   0.616   0.495   0.361
   0.485   0.441
   0.315   0.328   0.371   0.181   0.427   0.374   0.485   0.600   1.017   1.212
   1.444   1.715   2.211   1.959   1.417   1.187   0.748   0.608   0.740   0.608
   0.748   1.187   1.417   1.959   2.211   1.715   1.444   1.212   1.017   0.600
   0.485   0.374   0.427   0.181   0.371   0.328   0.315   0.328   0.371   0.181
   0.427   0.374   0.485   0.600   1.017   1.212   1.444   1.715   2.211   1.959
   1.417   1.187   0.748   0.608   0.740   0.608   0.748   1.187   1.417   1.959
   2.211   1.715   1.444   1.212   1.017   0.600   0.485   0.374   0.427   0.181
   0.371   0.328
   0.495   0.388   0.423   0.256   0.397   0.337   0.386   0.547   0.768   0.976
   1.017   1.341   1.683   1.816   1.658   1.644   1.147   0.817   0.934   0.817
   1.147   1.644   1.658   1.816   1.683   1.341   1.017   0.976   0.768   0.547
   0.386   0.337   0.397   0.256   0.423   0.388   0.495   0.388   0.423   0.256
   0.397   0.337   0.386   0.547   0.768   0.976   1.017   1.341   1.683   1.816
   1.658   1.644   1.147   0.817   0.934   0.817   1.147   1.644   1.658   1.816
   1.683   1.341   1.017   0.976   0.768   0.547   0.386   0.337   0.397   0.256
   0.423   0.388
   0.335   0.475   0.480   0.449   0.312   0.248   0.395   0.538   0.654   0.794
   0.718   0.887   1.063   1.173   1.383   1.589   1.432   1.139   0.908   1.139
   1.432   1.589   1.383   1.173   1.063   0.887   0.718   0.794   0.654   0.538
   0.395   0.248   0.312   0.449   0.480   0.475   0.335   0.475   0.480   0.449
   0.312   0.248   0.395   0.538   0.654   0.794   0.718   0.887   1.063   1.173
   1.383   1.589   1.432   1.139   0.908   1.139   1.432   1.589   1.383   1.173
   1.063   0.887   0.718   0.794   0.654   0.538   0.395   0.248   0.312   0.449
   0.480   0.475
   0.310   0.424   0.460   0.476   0.368   0.163   0.322   0.462   0.577   0.661
   0.600   0.654   0.789   0.769   0.982   1.517   1.370   1.241   1.108   1.241
   1.370   1.517   0.982   0.769   0.789   0.654   0.600   0.661   0.577   0.462
   0.322   0.163   0.368   0.476   0.460   0.424   0.310   0.424   0.460   0.476
   0.368   0.163   0.322   0.462   0.577   0.661   0.600   0.654   0.789   0.769
   0.982   1.517   1.370   1.241   1.108   1.241   1.370   1.517   0.982   0.769
   0.789   0.654   0.600   0.661   0.577   0.462   0.322   0.163   0.368   0.476
   0.460   0.424
   0.550   0.595   0.603   0.720   0.578   0.348   0.565   0.648   0.415   0.560
   0.765   0.650   0.673   0.511   0.820   1.270   1.110   1.017   1.183   1.017
   1.110   1.270   0.820   0.511   0.673   0.650   0.765   0.560   0.415   0.648
   0.565   0.348   0.578   0.720   0.603   0.595   0.550   0.595   0.603   0.720
   0.578   0.348   0.565   0.648   0.415   0.560   0.765   0.650   0.673   0.511
   0.820   1.270   1.110   1.017   1.183   1.017   1.110   1.270   0.820   0.511
   0.673   0.650   0.765   0.560   0.415   0.648   0.565   0.348   0.578   0.720
   0.603   0.595
  4  1      4.3434583E-01
  4  2     -1.8909603E-01
  4  3     -1.0029144E+00
  6  1      1.6899987E+00
  6  2     -3.2868623E+00
  6  3      1.2256650E+00
  6  4     -3.1105489E-02
  8  1     -3.3729428E-01
  8  2      4.8680559E-01
  8  3      1.9410307E-02
  8  4      1.0708555E+00
  8  5      5.5640343E-01
 10  1     -1.5060028E-01
 10  2     -3.2424463E-01
 10  3      6.9515051E-01
 10  4      2.8078666E-01
 10  5     -1.8625623E-01
 10  6     -6.2247208E-02
 12  1     -1.8628589E-01  1.5034061E+00
 12  2     -2.3519945E-01 -1.9937805E+00
 12  3     -2.0894775E-02  2.1372828E+00
 12  4     -6.5199632E-02 -9.5574757E-01
 12  5     -2.2544018E-01 -2.6038411E-01
 12  6     -7.5944675E-01  2.1428636E-01
 12  7     -2.2348201E-01  9.4553158E-02
 14  1     -6.0335875E-01
 14  2      5.1286215E-01
 14  3     -2.6848393E-01
 14  4      2.3165754E-01
 14  5     -5.5185111E-01
 14  6      7.8691740E-02
 14  7      3.3611494E-01
 14  8     -2.8128514E-01
 220       5.00   72    0 5.00   18    0
   2.276   2.277   2.279   2.284   2.289   2.296   2.305   2.314   2.324   2.334
   2.344   2.354   2.363   2.372   2.379   2.385   2.389   2.392   2.393   2.392
   2.389   2.385   2.379   2.372   2.363   2.354   2.344   2.334   2.324   2.314
   2.305   2.296   2.289   2.284   2.279   2.277   2.276   2.277   2.279   2.284
   2.289   2.296   2.305   2.314   2.324   2.334   2.344   2.354   2.363   2.372
   2.379   2.385   2.389   2.392   2.393   2.392   2.389   2.385   2.379   2.372
   2.363   2.354   2.344   2.334   2.324   2.314   2.305   2.296   2.289   2.284
   2.279   2.277
   1.496   1.502   1.519   1.547   1.586   1.636   1.694   1.762   1.835   1.914
   1.996   2.077   2.156   2.229   2.293   2.347   2.386   2.411   2.419   2.411
   2.386   2.347   2.293   2.229   2.156   2.077   1.996   1.914   1.835   1.762
   1.694   1.636   1.586   1.547   1.519   1.502   1.496   1.502   1.519   1.547
   1.586   1.636   1.694   1.762   1.835   1.914   1.996   2.077   2.156   2.229
   2.293   2.347   2.386   2.411   2.419   2.411   2.386   2.347   2.293   2.229
   2.156   2.077   1.996   1.914   1.835   1.762   1.694   1.636   1.586   1.547
   1.519   1.502
   0.515   0.522   0.543   0.581   0.636   0.711   0.808   0.927   1.068   1.230
   1.408   1.596   1.788   1.973   2.142   2.285   2.394   2.463   2.486   2.463
   2.394   2.285   2.142   1.973   1.788   1.596   1.408   1.230   1.068   0.927
   0.808   0.711   0.636   0.581   0.543   0.522   0.515   0.522   0.543   0.581
   0.636   0.711   0.808   0.927   1.068   1.230   1.408   1.596   1.788   1.973
   2.142   2.285   2.394   2.463   2.486   2.463   2.394   2.285   2.142   1.973
   1.788   1.596   1.408   1.230   1.068   0.927   0.808   0.711   0.636   0.581
   0.543   0.522
  -0.005  -0.006  -0.007  -0.004   0.010   0.044   0.107   0.208   0.354   0.548
   0.786   1.063   1.363   1.669   1.960   2.215   2.413   2.539   2.582   2.539
   2.413   2.215   1.960   1.669   1.363   1.063   0.786   0.548   0.354   0.208
   0.107   0.044   0.010  -0.004  -0.007  -0.006  -0.005  -0.006  -0.007  -0.004
   0.010   0.044   0.107   0.208   0.354   0.548   0.786   1.063   1.363   1.669
   1.960   2.215   2.413   2.539   2.582   2.539   2.413   2.215   1.960   1.669
   1.363   1.063   0.786   0.548   0.354   0.208   0.107   0.044   0.010  -0.004
  -0.007  -0.006
   0.116   0.105   0.071   0.022  -0.035  -0.085  -0.112  -0.095  -0.018   0.133
   0.362   0.665   1.022   1.408   1.789   2.131   2.401   2.574   2.634   2.574
   2.401   2.131   1.789   1.408   1.022   0.665   0.362   0.133  -0.018  -0.095
  -0.112  -0.085  -0.035   0.022   0.071   0.105   0.116   0.105   0.071   0.022
  -0.035  -0.085  -0.112  -0.095  -0.018   0.133   0.362   0.665   1.022   1.408
   1.789   2.131   2.401   2.574   2.634   2.574   2.401   2.131   1.789   1.408
   1.022   0.665   0.362   0.133  -0.018  -0.095  -0.112  -0.085  -0.035   0.022
   0.071   0.105
   0.448   0.438   0.407   0.354   0.279   0.188   0.099   0.035   0.025   0.095
   0.262   0.524   0.866   1.254   1.648   2.005   2.289   2.470   2.532   2.470
   2.289   2.005   1.648   1.254   0.866   0.524   0.262   0.095   0.025   0.035
   0.099   0.188   0.279   0.354   0.407   0.438   0.448   0.438   0.407   0.354
   0.279   0.188   0.099   0.035   0.025   0.095   0.262   0.524   0.866   1.254
   1.648   2.005   2.289   2.470   2.532   2.470   2.289   2.005   1.648   1.254
   0.866   0.524   0.262   0.095   0.025   0.035   0.099   0.188   0.279   0.354
   0.407   0.438
   0.427   0.438   0.464   0.490   0.497   0.471   0.415   0.347   0.301   0.315
   0.417   0.613   0.888   1.207   1.528   1.812   2.028   2.162   2.208   2.162
   2.028   1.812   1.528   1.207   0.888   0.613   0.417   0.315   0.301   0.347
   0.415   0.471   0.497   0.490   0.464   0.438   0.427   0.438   0.464   0.490
   0.497   0.471   0.415   0.347   0.301   0.315   0.417   0.613   0.888   1.207
   1.528   1.812   2.028   2.162   2.208   2.162   2.028   1.812   1.528   1.207
   0.888   0.613   0.417   0.315   0.301   0.347   0.415   0.471   0.497   0.490
   0.464   0.438
   0.026   0.059   0.149   0.274   0.399   0.494   0.539   0.540   0.527   0.541
   0.618   0.770   0.978   1.204   1.407   1.558   1.650   1.696   1.708   1.696
   1.650   1.558   1.407   1.204   0.978   0.770   0.618   0.541   0.527   0.540
   0.539   0.494   0.399   0.274   0.149   0.059   0.026   0.059   0.149   0.274
   0.399   0.494   0.539   0.540   0.527   0.541   0.618   0.770   0.978   1.204
   1.407   1.558   1.650   1.696   1.708   1.696   1.650   1.558   1.407   1.204
   0.978   0.770   0.618   0.541   0.527   0.540   0.539   0.494   0.399   0.274
   0.149   0.059
  -0.099  -0.077  -0.010   0.098   0.232   0.364   0.465   0.523   0.555   0.599
   0.690   0.837   1.015   1.176   1.275   1.297   1.263   1.215   1.193   1.215
   1.263   1.297   1.275   1.176   1.015   0.837   0.690   0.599   0.555   0.523
   0.465   0.364   0.232   0.098  -0.010  -0.077  -0.099  -0.077  -0.010   0.098
   0.232   0.364   0.465   0.523   0.555   0.599   0.690   0.837   1.015   1.176
   1.275   1.297   1.263   1.215   1.193   1.215   1.263   1.297   1.275   1.176
   1.015   0.837   0.690   0.599   0.555   0.523   0.465   0.364   0.232   0.098
  -0.010  -0.077
   0.763   0.720   0.616   0.507   0.443   0.433   0.453   0.472   0.487   0.525
   0.621   0.778   0.959   1.099   1.147   1.095   0.982   0.874   0.830   0.874
   0.982   1.095   1.147   1.099   0.959   0.778   0.621   0.525   0.487   0.472
   0.453   0.433   0.443   0.507   0.616   0.720   0.763   0.720   0.616   0.507
   0.443   0.433   0.453   0.472   0.487   0.525   0.621   0.778   0.959   1.099
   1.147   1.095   0.982   0.874   0.830   0.874   0.982   1.095   1.147   1.099
   0.959   0.778   0.621   0.525   0.487   0.472   0.453   0.433   0.443   0.507
   0.616   0.720
   2.511   2.369   2.004   1.557   1.167   0.899   0.735   0.624   0.538   0.499
   0.545   0.683   0.862   1.004   1.043   0.974   0.844   0.726   0.678   0.726
   0.844   0.974   1.043   1.004   0.862   0.683   0.545   0.499   0.538   0.624
   0.735   0.899   1.167   1.557   2.004   2.369   2.511   2.369   2.004   1.557
   1.167   0.899   0.735   0.624   0.538   0.499   0.545   0.683   0.862   1.004
   1.043   0.974   0.844   0.726   0.678   0.726   0.844   0.974   1.043   1.004
   0.862   0.683   0.545   0.499   0.538   0.624   0.735   0.899   1.167   1.557
   2.004   2.369
   4.069   3.853   3.294   2.600   1.983   1.540   1.246   1.018   0.809   0.647
   0.590   0.659   0.803   0.928   0.963   0.904   0.796   0.702   0.666   0.702
   0.796   0.904   0.963   0.928   0.803   0.659   0.590   0.647   0.809   1.018
   1.246   1.540   1.983   2.600   3.294   3.853   4.069   3.853   3.294   2.600
   1.983   1.540   1.246   1.018   0.809   0.647   0.590   0.659   0.803   0.928
   0.963   0.904   0.796   0.702   0.666   0.702   0.796   0.904   0.963   0.928
   0.803   0.659   0.590   0.647   0.809   1.018   1.246   1.540   1.983   2.600
   3.294   3.853
   4.245   4.030   3.478   2.816   2.259   1.894   1.660   1.440   1.178   0.920
   0.758   0.739   0.814   0.888   0.894   0.836   0.762   0.710   0.692   0.710
   0.762   0.836   0.894   0.888   0.814   0.739   0.758   0.920   1.178   1.440
   1.660   1.894   2.259   2.816   3.478   4.030   4.245   4.030   3.478   2.816
   2.259   1.894   1.660   1.440   1.178   0.920   0.758   0.739   0.814   0.888
   0.894   0.836   0.762   0.710   0.692   0.710   0.762   0.836   0.894   0.888
   0.814   0.739   0.758   0.920   1.178   1.440   1.660   1.894   2.259   2.816
   3.478   4.030
   2.846   2.707   2.366   1.998   1.762   1.692   1.690   1.617   1.416   1.152
   0.946   0.866   0.873   0.879   0.837   0.773   0.737   0.737   0.744   0.737
   0.737   0.773   0.837   0.879   0.873   0.866   0.946   1.152   1.416   1.617
   1.690   1.692   1.762   1.998   2.366   2.707   2.846   2.707   2.366   1.998
   1.762   1.692   1.690   1.617   1.416   1.152   0.946   0.866   0.873   0.879
   0.837   0.773   0.737   0.737   0.744   0.737   0.737   0.773   0.837   0.879
   0.873   0.866   0.946   1.152   1.416   1.617   1.690   1.692   1.762   1.998
   2.366   2.707
   0.915   0.878   0.805   0.784   0.889   1.110   1.342   1.453   1.389   1.215
   1.052   0.971   0.942   0.896   0.819   0.769   0.795   0.869   0.909   0.869
   0.795   0.769   0.819   0.896   0.942   0.971   1.052   1.215   1.389   1.453
   1.342   1.110   0.889   0.784   0.805   0.878   0.915   0.878   0.805   0.784
   0.889   1.110   1.342   1.453   1.389   1.215   1.052   0.971   0.942   0.896
   0.819   0.769   0.795   0.869   0.909   0.869   0.795   0.769   0.819   0.896
   0.942   0.971   1.052   1.215   1.389   1.453   1.342   1.110   0.889   0.784
   0.805   0.878
  -0.219  -0.190  -0.102   0.050   0.277   0.570   0.868   1.079   1.150   1.113
   1.056   1.026   1.000   0.937   0.864   0.868   0.995   1.170   1.252   1.170
   0.995   0.868   0.864   0.937   1.000   1.026   1.056   1.113   1.150   1.079
   0.868   0.570   0.277   0.050  -0.102  -0.190  -0.219  -0.190  -0.102   0.050
   0.277   0.570   0.868   1.079   1.150   1.113   1.056   1.026   1.000   0.937
   0.864   0.868   0.995   1.170   1.252   1.170   0.995   0.868   0.864   0.937
   1.000   1.026   1.056   1.113   1.150   1.079   0.868   0.570   0.277   0.050
  -0.102  -0.190
  -0.164  -0.122  -0.024   0.082   0.189   0.328   0.515   0.713   0.863   0.952
   1.007   1.045   1.043   0.991   0.953   1.039   1.283   1.564   1.689   1.564
   1.283   1.039   0.953   0.991   1.043   1.045   1.007   0.952   0.863   0.713
   0.515   0.328   0.189   0.082  -0.024  -0.122  -0.164  -0.122  -0.024   0.082
   0.189   0.328   0.515   0.713   0.863   0.952   1.007   1.045   1.043   0.991
   0.953   1.039   1.283   1.564   1.689   1.564   1.283   1.039   0.953   0.991
   1.043   1.045   1.007   0.952   0.863   0.713   0.515   0.328   0.189   0.082
  -0.024  -0.122
   0.325   0.355   0.404   0.402   0.344   0.304   0.357   0.503   0.682   0.840
   0.965   1.048   1.068   1.031   1.026   1.173   1.497   1.849   2.002   1.849
   1.497   1.173   1.026   1.031   1.068   1.048   0.965   0.840   0.682   0.503
   0.357   0.304   0.344   0.402   0.404   0.355   0.325   0.355   0.404   0.402
   0.344   0.304   0.357   0.503   0.682   0.840   0.965   1.048   1.068   1.031
   1.026   1.173   1.497   1.849   2.002   1.849   1.497   1.173   1.026   1.031
   1.068   1.048   0.965   0.840   0.682   0.503   0.357   0.304   0.344   0.402
   0.404   0.355
 200       5.00   72    0 5.00   18    0
   1.000   1.001   1.002   1.003   1.005   1.007   1.010   1.013   1.016   1.019
   1.022   1.025   1.028   1.031   1.034   1.035   1.037   1.038   1.038   1.038
   1.037   1.035   1.034   1.031   1.028   1.025   1.022   1.019   1.016   1.013
   1.010   1.007   1.005   1.003   1.002   1.001   1.000   1.001   1.002   1.003
   1.005   1.007   1.010   1.013   1.016   1.019   1.022   1.025   1.028   1.031
   1.034   1.035   1.037   1.038   1.038   1.038   1.037   1.035   1.034   1.031
   1.028   1.025   1.022   1.019   1.016   1.013   1.010   1.007   1.005   1.003
   1.002   1.001
   0.755   0.756   0.759   0.763   0.770   0.779   0.790   0.803   0.819   0.836
   0.854   0.873   0.892   0.911   0.927   0.941   0.952   0.959   0.961   0.959
   0.952   0.941   0.927   0.911   0.892   0.873   0.854   0.836   0.819   0.803
   0.790   0.779   0.770   0.763   0.759   0.756   0.755   0.756   0.759   0.763
   0.770   0.779   0.790   0.803   0.819   0.836   0.854   0.873   0.892   0.911
   0.927   0.941   0.952   0.959   0.961   0.959   0.952   0.941   0.927   0.911
   0.892   0.873   0.854   0.836   0.819   0.803   0.790   0.779   0.770   0.763
   0.759   0.756
   0.778   0.775   0.766   0.752   0.735   0.716   0.698   0.684   0.674   0.671
   0.676   0.688   0.707   0.730   0.755   0.779   0.799   0.812   0.817   0.812
   0.799   0.779   0.755   0.730   0.707   0.688   0.676   0.671   0.674   0.684
   0.698   0.716   0.735   0.752   0.766   0.775   0.778   0.775   0.766   0.752
   0.735   0.716   0.698   0.684   0.674   0.671   0.676   0.688   0.707   0.730
   0.755   0.779   0.799   0.812   0.817   0.812   0.799   0.779   0.755   0.730
   0.707   0.688   0.676   0.671   0.674   0.684   0.698   0.716   0.735   0.752
   0.766   0.775
   1.408   1.396   1.359   1.300   1.222   1.129   1.027   0.922   0.822   0.732
   0.659   0.607   0.577   0.568   0.576   0.593   0.613   0.628   0.633   0.628
   0.613   0.593   0.576   0.568   0.577   0.607   0.659   0.732   0.822   0.922
   1.027   1.129   1.222   1.300   1.359   1.396   1.408   1.396   1.359   1.300
   1.222   1.129   1.027   0.922   0.822   0.732   0.659   0.607   0.577   0.568
   0.576   0.593   0.613   0.628   0.633   0.628   0.613   0.593   0.576   0.568
   0.577   0.607   0.659   0.732   0.822   0.922   1.027   1.129   1.222   1.300
   1.359   1.396
   2.278   2.260   2.205   2.115   1.991   1.836   1.654   1.454   1.244   1.038
   0.847   0.686   0.564   0.484   0.444   0.435   0.443   0.456   0.461   0.456
   0.443   0.435   0.444   0.484   0.564   0.686   0.847   1.038   1.244   1.454
   1.654   1.836   1.991   2.115   2.205   2.260   2.278   2.260   2.205   2.115
   1.991   1.836   1.654   1.454   1.244   1.038   0.847   0.686   0.564   0.484
   0.444   0.435   0.443   0.456   0.461   0.456   0.443   0.435   0.444   0.484
   0.564   0.686   0.847   1.038   1.244   1.454   1.654   1.836   1.991   2.115
   2.205   2.260
   2.611   2.600   2.567   2.507   2.417   2.291   2.126   1.922   1.681   1.416
   1.144   0.888   0.670   0.509   0.409   0.363   0.354   0.361   0.366   0.361
   0.354   0.363   0.409   0.509   0.670   0.888   1.144   1.416   1.681   1.922
   2.126   2.291   2.417   2.507   2.567   2.600   2.611   2.600   2.567   2.507
   2.417   2.291   2.126   1.922   1.681   1.416   1.144   0.888   0.670   0.509
   0.409   0.363   0.354   0.361   0.366   0.361   0.354   0.363   0.409   0.509
   0.670   0.888   1.144   1.416   1.681   1.922   2.126   2.291   2.417   2.507
   2.567   2.600
   2.030   2.038   2.059   2.085   2.106   2.108   2.076   1.997   1.859   1.661
   1.412   1.138   0.874   0.654   0.501   0.418   0.388   0.387   0.389   0.387
   0.388   0.418   0.501   0.654   0.874   1.138   1.412   1.661   1.859   1.997
   2.076   2.108   2.106   2.085   2.059   2.038   2.030   2.038   2.059   2.085
   2.106   2.108   2.076   1.997   1.859   1.661   1.412   1.138   0.874   0.654
   0.501   0.418   0.388   0.387   0.389   0.387   0.388   0.418   0.501   0.654
   0.874   1.138   1.412   1.661   1.859   1.997   2.076   2.108   2.106   2.085
   2.059   2.038
   0.951   0.977   1.048   1.153   1.277   1.409   1.535   1.639   1.694   1.674
   1.564   1.374   1.138   0.903   0.713   0.590   0.529   0.509   0.506   0.509
   0.529   0.590   0.713   0.903   1.138   1.374   1.564   1.674   1.694   1.639
   1.535   1.409   1.277   1.153   1.048   0.977   0.951   0.977   1.048   1.153
   1.277   1.409   1.535   1.639   1.694   1.674   1.564   1.374   1.138   0.903
   0.713   0.590   0.529   0.509   0.506   0.509   0.529   0.590   0.713   0.903
   1.138   1.374   1.564   1.674   1.694   1.639   1.535   1.409   1.277   1.153
   1.048   0.977
   0.147   0.180   0.268   0.386   0.517   0.665   0.847   1.066   1.299   1.491
   1.585   1.551   1.402   1.189   0.973   0.801   0.690   0.634   0.617   0.634
   0.690   0.801   0.973   1.189   1.402   1.551   1.585   1.491   1.299   1.066
   0.847   0.665   0.517   0.386   0.268   0.180   0.147   0.180   0.268   0.386
   0.517   0.665   0.847   1.066   1.299   1.491   1.585   1.551   1.402   1.189
   0.973   0.801   0.690   0.634   0.617   0.634   0.690   0.801   0.973   1.189
   1.402   1.551   1.585   1.491   1.299   1.066   0.847   0.665   0.517   0.386
   0.268   0.180
  -0.009   0.026   0.106   0.179   0.216   0.245   0.335   0.544   0.867   1.228
   1.515   1.642   1.591   1.407   1.168   0.941   0.767   0.662   0.628   0.662
   0.767   0.941   1.168   1.407   1.591   1.642   1.515   1.228   0.867   0.544
   0.335   0.245   0.216   0.179   0.106   0.026  -0.009   0.026   0.106   0.179
   0.216   0.245   0.335   0.544   0.867   1.228   1.515   1.642   1.591   1.407
   1.168   0.941   0.767   0.662   0.628   0.662   0.767   0.941   1.168   1.407
   1.591   1.642   1.515   1.228   0.867   0.544   0.335   0.245   0.216   0.179
   0.106   0.026
   0.210   0.253   0.336   0.367   0.291   0.157   0.096   0.229   0.578   1.040
   1.449   1.668   1.660   1.476   1.210   0.941   0.721   0.579   0.529   0.579
   0.721   0.941   1.210   1.476   1.660   1.668   1.449   1.040   0.578   0.229
   0.096   0.157   0.291   0.367   0.336   0.253   0.210   0.253   0.336   0.367
   0.291   0.157   0.096   0.229   0.578   1.040   1.449   1.668   1.660   1.476
   1.210   0.941   0.721   0.579   0.529   0.579   0.721   0.941   1.210   1.476
   1.660   1.668   1.449   1.040   0.578   0.229   0.096   0.157   0.291   0.367
   0.336   0.253
   0.330   0.388   0.498   0.531   0.409   0.194   0.061   0.173   0.557   1.072
   1.504   1.697   1.630   1.392   1.100   0.829   0.616   0.476   0.427   0.476
   0.616   0.829   1.100   1.392   1.630   1.697   1.504   1.072   0.557   0.173
   0.061   0.194   0.409   0.531   0.498   0.388   0.330   0.388   0.498   0.531
   0.409   0.194   0.061   0.173   0.557   1.072   1.504   1.697   1.630   1.392
   1.100   0.829   0.616   0.476   0.427   0.476   0.616   0.829   1.100   1.392
   1.630   1.697   1.504   1.072   0.557   0.173   0.061   0.194   0.409   0.531
   0.498   0.388
   0.213   0.278   0.411   0.475   0.393   0.234   0.177   0.381   0.842   1.374
   1.732   1.779   1.557   1.224   0.923   0.707   0.564   0.473   0.441   0.473
   0.564   0.707   0.923   1.224   1.557   1.779   1.732   1.374   0.842   0.381
   0.177   0.234   0.393   0.475   0.411   0.278   0.213   0.278   0.411   0.475
   0.393   0.234   0.177   0.381   0.842   1.374   1.732   1.779   1.557   1.224
   0.923   0.707   0.564   0.473   0.441   0.473   0.564   0.707   0.923   1.224
   1.557   1.779   1.732   1.374   0.842   0.381   0.177   0.234   0.393   0.475
   0.411   0.278
   0.116   0.167   0.278   0.356   0.356   0.339   0.452   0.800   1.327   1.814
   2.022   1.863   1.463   1.049   0.777   0.660   0.620   0.598   0.589   0.598
   0.620   0.660   0.777   1.049   1.463   1.863   2.022   1.814   1.327   0.800
   0.452   0.339   0.356   0.356   0.278   0.167   0.116   0.167   0.278   0.356
   0.356   0.339   0.452   0.800   1.327   1.814   2.022   1.863   1.463   1.049
   0.777   0.660   0.620   0.598   0.589   0.598   0.620   0.660   0.777   1.049
   1.463   1.863   2.022   1.814   1.327   0.800   0.452   0.339   0.356   0.356
   0.278   0.167
   0.318   0.334   0.374   0.429   0.499   0.626   0.880   1.291   1.774   2.122
   2.140   1.806   1.304   0.891   0.703   0.695   0.737   0.754   0.754   0.754
   0.737   0.695   0.703   0.891   1.304   1.806   2.140   2.122   1.774   1.291
   0.880   0.626   0.499   0.429   0.374   0.334   0.318   0.334   0.374   0.429
   0.499   0.626   0.880   1.291   1.774   2.122   2.140   1.806   1.304   0.891
   0.703   0.695   0.737   0.754   0.754   0.754   0.737   0.695   0.703   0.891
   1.304   1.806   2.140   2.122   1.774   1.291   0.880   0.626   0.499   0.429
   0.374   0.334
   0.813   0.786   0.741   0.754   0.870   1.082   1.365   1.687   1.971   2.087
   1.923   1.509   1.039   0.737   0.678   0.757   0.820   0.816   0.801   0.816
   0.820   0.757   0.678   0.737   1.039   1.509   1.923   2.087   1.971   1.687
   1.365   1.082   0.870   0.754   0.741   0.786   0.813   0.786   0.741   0.754
   0.870   1.082   1.365   1.687   1.971   2.087   1.923   1.509   1.039   0.737
   0.678   0.757   0.820   0.816   0.801   0.816   0.820   0.757   0.678   0.737
   1.039   1.509   1.923   2.087   1.971   1.687   1.365   1.082   0.870   0.754
   0.741   0.786
   1.353   1.293   1.185   1.171   1.315   1.553   1.771   1.898   1.906   1.768
   1.465   1.061   0.719   0.588   0.666   0.795   0.826   0.757   0.711   0.757
   0.826   0.795   0.666   0.588   0.719   1.061   1.465   1.768   1.906   1.898
   1.771   1.553   1.315   1.171   1.185   1.293   1.353   1.293   1.185   1.171
   1.315   1.553   1.771   1.898   1.906   1.768   1.465   1.061   0.719   0.588
   0.666   0.795   0.826   0.757   0.711   0.757   0.826   0.795   0.666   0.588
   0.719   1.061   1.465   1.768   1.906   1.898   1.771   1.553   1.315   1.171
   1.185   1.293
   1.685   1.609   1.472   1.450   1.609   1.847   1.994   1.964   1.772   1.466
   1.090   0.722   0.492   0.489   0.656   0.805   0.797   0.674   0.602   0.674
   0.797   0.805   0.656   0.489   0.492   0.722   1.090   1.466   1.772   1.964
   1.994   1.847   1.609   1.450   1.472   1.609   1.685   1.609   1.472   1.450
   1.609   1.847   1.994   1.964   1.772   1.466   1.090   0.722   0.492   0.489
   0.656   0.805   0.797   0.674   0.602   0.674   0.797   0.805   0.656   0.489
   0.492   0.722   1.090   1.466   1.772   1.964   1.994   1.847   1.609   1.450
   1.472   1.609
 111       5.00   72    0 5.00   18    0
   0.379   0.380   0.381   0.383   0.386   0.390   0.395   0.400   0.405   0.411
   0.417   0.422   0.427   0.432   0.436   0.440   0.442   0.444   0.444   0.444
   0.442   0.440   0.436   0.432   0.427   0.422   0.417   0.411   0.405   0.400
   0.395   0.390   0.386   0.383   0.381   0.380   0.379   0.380   0.381   0.383
   0.386   0.390   0.395   0.400   0.405   0.411   0.417   0.422   0.427   0.432
   0.436   0.440   0.442   0.444   0.444   0.444   0.442   0.440   0.436   0.432
   0.427   0.422   0.417   0.411   0.405   0.400   0.395   0.390   0.386   0.383
   0.381   0.380
  -0.009  -0.008  -0.003   0.004   0.015   0.030   0.049   0.073   0.102   0.134
   0.170   0.208   0.247   0.284   0.318   0.347   0.369   0.383   0.387   0.383
   0.369   0.347   0.318   0.284   0.247   0.208   0.170   0.134   0.102   0.073
   0.049   0.030   0.015   0.004  -0.003  -0.008  -0.009  -0.008  -0.003   0.004
   0.015   0.030   0.049   0.073   0.102   0.134   0.170   0.208   0.247   0.284
   0.318   0.347   0.369   0.383   0.387   0.383   0.369   0.347   0.318   0.284
   0.247   0.208   0.170   0.134   0.102   0.073   0.049   0.030   0.015   0.004
  -0.003  -0.008
   0.037   0.029   0.009  -0.023  -0.060  -0.098  -0.130  -0.152  -0.157  -0.143
  -0.110  -0.058   0.009   0.085   0.163   0.234   0.291   0.329   0.341   0.329
   0.291   0.234   0.163   0.085   0.009  -0.058  -0.110  -0.143  -0.157  -0.152
  -0.130  -0.098  -0.060  -0.023   0.009   0.029   0.037   0.029   0.009  -0.023
  -0.060  -0.098  -0.130  -0.152  -0.157  -0.143  -0.110  -0.058   0.009   0.085
   0.163   0.234   0.291   0.329   0.341   0.329   0.291   0.234   0.163   0.085
   0.009  -0.058  -0.110  -0.143  -0.157  -0.152  -0.130  -0.098  -0.060  -0.023
   0.009   0.029
   1.137   1.108   1.022   0.887   0.715   0.523   0.327   0.144  -0.008  -0.118
  -0.176  -0.180  -0.135  -0.051   0.057   0.170   0.268   0.334   0.357   0.334
   0.268   0.170   0.057  -0.051  -0.135  -0.180  -0.176  -0.118  -0.008   0.144
   0.327   0.523   0.715   0.887   1.022   1.108   1.137   1.108   1.022   0.887
   0.715   0.523   0.327   0.144  -0.008  -0.118  -0.176  -0.180  -0.135  -0.051
   0.057   0.170   0.268   0.334   0.357   0.334   0.268   0.170   0.057  -0.051
  -0.135  -0.180  -0.176  -0.118  -0.008   0.144   0.327   0.523   0.715   0.887
   1.022   1.108
   2.852   2.799   2.645   2.401   2.085   1.719   1.330   0.944   0.590   0.292
   0.070  -0.063  -0.106  -0.067   0.031   0.159   0.282   0.371   0.403   0.371
   0.282   0.159   0.031  -0.067  -0.106  -0.063   0.070   0.292   0.590   0.944
   1.330   1.719   2.085   2.401   2.645   2.799   2.852   2.799   2.645   2.401
   2.085   1.719   1.330   0.944   0.590   0.292   0.070  -0.063  -0.106  -0.067
   0.031   0.159   0.282   0.371   0.403   0.371   0.282   0.159   0.031  -0.067
  -0.106  -0.063   0.070   0.292   0.590   0.944   1.330   1.719   2.085   2.401
   2.645   2.799
   3.971   3.915   3.749   3.485   3.138   2.729   2.278   1.808   1.344   0.914
   0.548   0.270   0.100   0.038   0.071   0.165   0.278   0.366   0.400   0.366
   0.278   0.165   0.071   0.038   0.100   0.270   0.548   0.914   1.344   1.808
   2.278   2.729   3.138   3.485   3.749   3.915   3.971   3.915   3.749   3.485
   3.138   2.729   2.278   1.808   1.344   0.914   0.548   0.270   0.100   0.038
   0.071   0.165   0.278   0.366   0.400   0.366   0.278   0.165   0.071   0.038
   0.100   0.270   0.548   0.914   1.344   1.808   2.278   2.729   3.138   3.485
   3.749   3.915
   3.666   3.631   3.528   3.365   3.152   2.895   2.598   2.261   1.888   1.490
   1.095   0.737   0.453   0.269   0.188   0.192   0.242   0.295   0.317   0.295
   0.242   0.192   0.188   0.269   0.453   0.737   1.095   1.490   1.888   2.261
   2.598   2.895   3.152   3.365   3.528   3.631   3.666   3.631   3.528   3.365
   3.152   2.895   2.598   2.261   1.888   1.490   1.095   0.737   0.453   0.269
   0.188   0.192   0.242   0.295   0.317   0.295   0.242   0.192   0.188   0.269
   0.453   0.737   1.095   1.490   1.888   2.261   2.598   2.895   3.152   3.365
   3.528   3.631
   2.246   2.242   2.233   2.224   2.222   2.222   2.210   2.159   2.040   1.838
   1.560   1.236   0.914   0.637   0.435   0.312   0.253   0.232   0.227   0.232
   0.253   0.312   0.435   0.637   0.914   1.236   1.560   1.838   2.040   2.159
   2.210   2.222   2.222   2.224   2.233   2.242   2.246   2.242   2.233   2.224
   2.222   2.222   2.210   2.159   2.040   1.838   1.560   1.236   0.914   0.637
   0.435   0.312   0.253   0.232   0.227   0.232   0.253   0.312   0.435   0.637
   0.914   1.236   1.560   1.838   2.040   2.159   2.210   2.222   2.222   2.224
   2.233   2.242
   0.778   0.796   0.850   0.946   1.089   1.276   1.490   1.697   1.847   1.897
   1.827   1.648   1.394   1.112   0.838   0.599   0.411   0.291   0.249   0.291
   0.411   0.599   0.838   1.112   1.394   1.648   1.827   1.897   1.847   1.697
   1.490   1.276   1.089   0.946   0.850   0.796   0.778   0.796   0.850   0.946
   1.089   1.276   1.490   1.697   1.847   1.897   1.827   1.648   1.394   1.112
   0.838   0.599   0.411   0.291   0.249   0.291   0.411   0.599   0.838   1.112
   1.394   1.648   1.827   1.897   1.847   1.697   1.490   1.276   1.089   0.946
   0.850   0.796
   0.063   0.085   0.152   0.259   0.410   0.614   0.872   1.167   1.456   1.686
   1.817   1.834   1.746   1.569   1.321   1.029   0.740   0.524   0.444   0.524
   0.740   1.029   1.321   1.569   1.746   1.834   1.817   1.686   1.456   1.167
   0.872   0.614   0.410   0.259   0.152   0.085   0.063   0.085   0.152   0.259
   0.410   0.614   0.872   1.167   1.456   1.686   1.817   1.834   1.746   1.569
   1.321   1.029   0.740   0.524   0.444   0.524   0.740   1.029   1.321   1.569
   1.746   1.834   1.817   1.686   1.456   1.167   0.872   0.614   0.410   0.259
   0.152   0.085
   0.056   0.077   0.128   0.194   0.267   0.367   0.521   0.744   1.016   1.295
   1.538   1.719   1.823   1.828   1.707   1.460   1.144   0.874   0.767   0.874
   1.144   1.460   1.707   1.828   1.823   1.719   1.538   1.295   1.016   0.744
   0.521   0.367   0.267   0.194   0.128   0.077   0.056   0.077   0.128   0.194
   0.267   0.367   0.521   0.744   1.016   1.295   1.538   1.719   1.823   1.828
   1.707   1.460   1.144   0.874   0.767   0.874   1.144   1.460   1.707   1.828
   1.823   1.719   1.538   1.295   1.016   0.744   0.521   0.367   0.267   0.194
   0.128   0.077
   0.214   0.232   0.272   0.304   0.313   0.317   0.360   0.474   0.660   0.888
   1.126   1.364   1.592   1.772   1.832   1.720   1.472   1.217   1.109   1.217
   1.472   1.720   1.832   1.772   1.592   1.364   1.126   0.888   0.660   0.474
   0.360   0.317   0.313   0.304   0.272   0.232   0.214   0.232   0.272   0.304
   0.313   0.317   0.360   0.474   0.660   0.888   1.126   1.364   1.592   1.772
   1.832   1.720   1.472   1.217   1.109   1.217   1.472   1.720   1.832   1.772
   1.592   1.364   1.126   0.888   0.660   0.474   0.360   0.317   0.313   0.304
   0.272   0.232
   0.209   0.221   0.247   0.268   0.271   0.267   0.289   0.365   0.490   0.636
   0.784   0.955   1.179   1.442   1.657   1.723   1.620   1.452   1.372   1.452
   1.620   1.723   1.657   1.442   1.179   0.955   0.784   0.636   0.490   0.365
   0.289   0.267   0.271   0.268   0.247   0.221   0.209   0.221   0.247   0.268
   0.271   0.267   0.289   0.365   0.490   0.636   0.784   0.955   1.179   1.442
   1.657   1.723   1.620   1.452   1.372   1.452   1.620   1.723   1.657   1.442
   1.179   0.955   0.784   0.636   0.490   0.365   0.289   0.267   0.271   0.268
   0.247   0.221
   0.221   0.213   0.199   0.196   0.214   0.253   0.318   0.412   0.519   0.600
   0.638   0.672   0.785   1.014   1.301   1.517   1.585   1.545   1.512   1.545
   1.585   1.517   1.301   1.014   0.785   0.672   0.638   0.600   0.519   0.412
   0.318   0.253   0.214   0.196   0.199   0.213   0.221   0.213   0.199   0.196
   0.214   0.253   0.318   0.412   0.519   0.600   0.638   0.672   0.785   1.014
   1.301   1.517   1.585   1.545   1.512   1.545   1.585   1.517   1.301   1.014
   0.785   0.672   0.638   0.600   0.519   0.412   0.318   0.253   0.214   0.196
   0.199   0.213
   0.619   0.575   0.482   0.413   0.405   0.445   0.501   0.566   0.632   0.670
   0.643   0.573   0.554   0.680   0.946   1.238   1.439   1.519   1.534   1.519
   1.439   1.238   0.946   0.680   0.554   0.573   0.643   0.670   0.632   0.566
   0.501   0.445   0.405   0.413   0.482   0.575   0.619   0.575   0.482   0.413
   0.405   0.445   0.501   0.566   0.632   0.670   0.643   0.573   0.554   0.680
   0.946   1.238   1.439   1.519   1.534   1.519   1.439   1.238   0.946   0.680
   0.554   0.573   0.643   0.670   0.632   0.566   0.501   0.445   0.405   0.413
   0.482   0.575
   1.490   1.405   1.215   1.046   0.953   0.896   0.817   0.727   0.677   0.674
   0.658   0.584   0.504   0.530   0.720   1.007   1.267   1.422   1.469   1.422
   1.267   1.007   0.720   0.530   0.504   0.584   0.658   0.674   0.677   0.727
   0.817   0.896   0.953   1.046   1.215   1.405   1.490   1.405   1.215   1.046
   0.953   0.896   0.817   0.727   0.677   0.674   0.658   0.584   0.504   0.530
   0.720   1.007   1.267   1.422   1.469   1.422   1.267   1.007   0.720   0.530
   0.504   0.584   0.658   0.674   0.677   0.727   0.817   0.896   0.953   1.046
   1.215   1.405
   2.511   2.393   2.124   1.860   1.659   1.447   1.149   0.822   0.602   0.557
   0.604   0.612   0.554   0.528   0.637   0.871   1.129   1.309   1.371   1.309
   1.129   0.871   0.637   0.528   0.554   0.612   0.604   0.557   0.602   0.822
   1.149   1.447   1.659   1.860   2.124   2.393   2.511   2.393   2.124   1.860
   1.659   1.447   1.149   0.822   0.602   0.557   0.604   0.612   0.554   0.528
   0.637   0.871   1.129   1.309   1.371   1.309   1.129   0.871   0.637   0.528
   0.554   0.612   0.604   0.557   0.602   0.822   1.149   1.447   1.659   1.860
   2.124   2.393
   3.192   3.057   2.746   2.426   2.151   1.822   1.358   0.851   0.504   0.429
   0.532   0.622   0.608   0.569   0.628   0.818   1.055   1.236   1.300   1.236
   1.055   0.818   0.628   0.569   0.608   0.622   0.532   0.429   0.504   0.851
   1.358   1.822   2.151   2.426   2.746   3.057   3.192   3.057   2.746   2.426
   2.151   1.822   1.358   0.851   0.504   0.429   0.532   0.622   0.608   0.569
   0.628   0.818   1.055   1.236   1.300   1.236   1.055   0.818   0.628   0.569
   0.608   0.622   0.532   0.429   0.504   0.851   1.358   1.822   2.151   2.426
   2.746   3.057
TEXTURE_INDEX=   2.9918
ERR_CF 220         1080     494   35.99   27.60
ERR_CF 200         1080     366   24.85   11.24
ERR_CF 111         1080     316   44.15   11.53
