TEXEVAL                                                                         
Analysis started on 26-Jul-19 12:39:48                                          
 LMAX=14LFMAX=03 CUBIC ORTHO   
 220      5.00 5.00
 200      5.00 5.00
 111      5.00 5.00
 220       5.00   72    0 5.00   15    0
   1.730   1.730   1.730   1.730   1.730   1.730   1.730   1.730   1.730   1.730
   1.730   1.730   1.730   1.730   1.730   1.730   1.730   1.730   1.730   1.730
   1.730   1.730   1.730   1.730   1.730   1.730   1.730   1.730   1.730   1.730
   1.730   1.730   1.730   1.730   1.730   1.730   1.730   1.730   1.730   1.730
   1.730   1.730   1.730   1.730   1.730   1.730   1.730   1.730   1.730   1.730
   1.730   1.730   1.730   1.730   1.730   1.730   1.730   1.730   1.730   1.730
   1.730   1.730   1.730   1.730   1.730   1.730   1.730   1.730   1.730   1.730
   1.730   1.730
   0.826   0.830   0.760   0.757   0.933   0.971   0.904   0.989   1.040   1.208
   1.428   1.496   1.523   1.749   1.916   2.007   2.279   1.975   1.970   1.975
   2.279   2.007   1.916   1.749   1.523   1.496   1.428   1.208   1.040   0.989
   0.904   0.971   0.933   0.757   0.760   0.830   0.826   0.830   0.760   0.757
   0.933   0.971   0.904   0.989   1.040   1.208   1.428   1.496   1.523   1.749
   1.916   2.007   2.279   1.975   1.970   1.975   2.279   2.007   1.916   1.749
   1.523   1.496   1.428   1.208   1.040   0.989   0.904   0.971   0.933   0.757
   0.760   0.830
   0.431   0.674   0.402   0.375   0.506   0.480   0.584   0.575   0.624   0.752
   0.978   1.305   1.227   1.549   1.934   2.100   2.656   2.337   2.304   2.337
   2.656   2.100   1.934   1.549   1.227   1.305   0.978   0.752   0.624   0.575
   0.584   0.480   0.506   0.375   0.402   0.674   0.431   0.674   0.402   0.375
   0.506   0.480   0.584   0.575   0.624   0.752   0.978   1.305   1.227   1.549
   1.934   2.100   2.656   2.337   2.304   2.337   2.656   2.100   1.934   1.549
   1.227   1.305   0.978   0.752   0.624   0.575   0.584   0.480   0.506   0.375
   0.402   0.674
   0.353   0.645   0.333   0.453   0.605   0.278   0.561   0.603   0.640   0.596
   0.728   0.883   1.016   1.490   2.182   2.350   2.911   2.850   2.827   2.850
   2.911   2.350   2.182   1.490   1.016   0.883   0.728   0.596   0.640   0.603
   0.561   0.278   0.605   0.453   0.333   0.645   0.353   0.645   0.333   0.453
   0.605   0.278   0.561   0.603   0.640   0.596   0.728   0.883   1.016   1.490
   2.182   2.350   2.911   2.850   2.827   2.850   2.911   2.350   2.182   1.490
   1.016   0.883   0.728   0.596   0.640   0.603   0.561   0.278   0.605   0.453
   0.333   0.645
   0.281   0.489   0.475   0.527   0.552   0.297   0.474   0.499   0.840   0.669
   0.821   0.709   1.096   1.515   2.216   2.138   2.835   2.859   3.409   2.859
   2.835   2.138   2.216   1.515   1.096   0.709   0.821   0.669   0.840   0.499
   0.474   0.297   0.552   0.527   0.475   0.489   0.281   0.489   0.475   0.527
   0.552   0.297   0.474   0.499   0.840   0.669   0.821   0.709   1.096   1.515
   2.216   2.138   2.835   2.859   3.409   2.859   2.835   2.138   2.216   1.515
   1.096   0.709   0.821   0.669   0.840   0.499   0.474   0.297   0.552   0.527
   0.475   0.489
   0.346   0.330   0.602   0.549   0.375   0.588   0.387   0.283   0.905   0.792
   0.905   0.954   1.508   1.624   1.818   2.281   2.446   2.602   3.332   2.602
   2.446   2.281   1.818   1.624   1.508   0.954   0.905   0.792   0.905   0.283
   0.387   0.588   0.375   0.549   0.602   0.330   0.346   0.330   0.602   0.549
   0.375   0.588   0.387   0.283   0.905   0.792   0.905   0.954   1.508   1.624
   1.818   2.281   2.446   2.602   3.332   2.602   2.446   2.281   1.818   1.624
   1.508   0.954   0.905   0.792   0.905   0.283   0.387   0.588   0.375   0.549
   0.602   0.330
   0.390   0.477   0.578   0.626   0.530   0.719   0.550   0.496   0.792   0.715
   1.197   1.152   1.621   1.976   1.932   2.291   2.045   2.159   2.414   2.159
   2.045   2.291   1.932   1.976   1.621   1.152   1.197   0.715   0.792   0.496
   0.550   0.719   0.530   0.626   0.578   0.477   0.390   0.477   0.578   0.626
   0.530   0.719   0.550   0.496   0.792   0.715   1.197   1.152   1.621   1.976
   1.932   2.291   2.045   2.159   2.414   2.159   2.045   2.291   1.932   1.976
   1.621   1.152   1.197   0.715   0.792   0.496   0.550   0.719   0.530   0.626
   0.578   0.477
   0.439   0.596   0.436   0.624   0.497   0.694   0.596   0.550   0.702   0.562
   1.107   0.952   1.555   2.181   2.095   1.351   1.440   1.308   1.508   1.308
   1.440   1.351   2.095   2.181   1.555   0.952   1.107   0.562   0.702   0.550
   0.596   0.694   0.497   0.624   0.436   0.596   0.439   0.596   0.436   0.624
   0.497   0.694   0.596   0.550   0.702   0.562   1.107   0.952   1.555   2.181
   2.095   1.351   1.440   1.308   1.508   1.308   1.440   1.351   2.095   2.181
   1.555   0.952   1.107   0.562   0.702   0.550   0.596   0.694   0.497   0.624
   0.436   0.596
   0.577   0.340   0.485   0.444   0.225   0.771   0.433   0.395   0.698   0.668
   0.564   0.879   1.383   1.922   1.754   1.226   0.989   0.746   0.705   0.746
   0.989   1.226   1.754   1.922   1.383   0.879   0.564   0.668   0.698   0.395
   0.433   0.771   0.225   0.444   0.485   0.340   0.577   0.340   0.485   0.444
   0.225   0.771   0.433   0.395   0.698   0.668   0.564   0.879   1.383   1.922
   1.754   1.226   0.989   0.746   0.705   0.746   0.989   1.226   1.754   1.922
   1.383   0.879   0.564   0.668   0.698   0.395   0.433   0.771   0.225   0.444
   0.485   0.340
   0.682   0.283   0.515   0.209   0.104   0.646   0.296   0.290   0.388   0.791
   0.238   0.627   0.720   0.924   0.874   1.006   0.554   0.664   0.378   0.664
   0.554   1.006   0.874   0.924   0.720   0.627   0.238   0.791   0.388   0.290
   0.296   0.646   0.104   0.209   0.515   0.283   0.682   0.283   0.515   0.209
   0.104   0.646   0.296   0.290   0.388   0.791   0.238   0.627   0.720   0.924
   0.874   1.006   0.554   0.664   0.378   0.664   0.554   1.006   0.874   0.924
   0.720   0.627   0.238   0.791   0.388   0.290   0.296   0.646   0.104   0.209
   0.515   0.283
   1.941   0.988   0.900   0.790   0.558   0.940   0.502   0.416   0.495   1.265
   0.177   0.535   0.551   0.313   0.384   0.893   0.552   0.542   0.780   0.542
   0.552   0.893   0.384   0.313   0.551   0.535   0.177   1.265   0.495   0.416
   0.502   0.940   0.558   0.790   0.900   0.988   1.941   0.988   0.900   0.790
   0.558   0.940   0.502   0.416   0.495   1.265   0.177   0.535   0.551   0.313
   0.384   0.893   0.552   0.542   0.780   0.542   0.552   0.893   0.384   0.313
   0.551   0.535   0.177   1.265   0.495   0.416   0.502   0.940   0.558   0.790
   0.900   0.988
   3.099   2.580   1.354   2.121   1.112   0.776   0.959   0.507   1.275   1.104
   0.575   0.644   0.745   0.587   0.626   1.397   0.664   0.368   1.029   0.368
   0.664   1.397   0.626   0.587   0.745   0.644   0.575   1.104   1.275   0.507
   0.959   0.776   1.112   2.121   1.354   2.580   3.099   2.580   1.354   2.121
   1.112   0.776   0.959   0.507   1.275   1.104   0.575   0.644   0.745   0.587
   0.626   1.397   0.664   0.368   1.029   0.368   0.664   1.397   0.626   0.587
   0.745   0.644   0.575   1.104   1.275   0.507   0.959   0.776   1.112   2.121
   1.354   2.580
   2.585   3.030   1.909   2.280   1.329   0.709   1.092   0.854   1.384   0.464
   0.923   0.980   0.734   0.642   0.546   0.775   0.497   0.603   0.822   0.603
   0.497   0.775   0.546   0.642   0.734   0.980   0.923   0.464   1.384   0.854
   1.092   0.709   1.329   2.280   1.909   3.030   2.585   3.030   1.909   2.280
   1.329   0.709   1.092   0.854   1.384   0.464   0.923   0.980   0.734   0.642
   0.546   0.775   0.497   0.603   0.822   0.603   0.497   0.775   0.546   0.642
   0.734   0.980   0.923   0.464   1.384   0.854   1.092   0.709   1.329   2.280
   1.909   3.030
   2.778   1.590   2.390   1.657   0.812   1.567   1.347   1.426   1.906   0.890
   1.364   0.974   0.866   1.573   1.399   0.840   1.096   0.690   0.327   0.690
   1.096   0.840   1.399   1.573   0.866   0.974   1.364   0.890   1.906   1.426
   1.347   1.567   0.812   1.657   2.390   1.590   2.778   1.590   2.390   1.657
   0.812   1.567   1.347   1.426   1.906   0.890   1.364   0.974   0.866   1.573
   1.399   0.840   1.096   0.690   0.327   0.690   1.096   0.840   1.399   1.573
   0.866   0.974   1.364   0.890   1.906   1.426   1.347   1.567   0.812   1.657
   2.390   1.590
   1.866   0.376   2.222   1.102   1.030   1.712   1.305   1.077   2.361   1.226
   1.236   0.596   1.431   1.881   1.953   1.404   1.155   1.142   0.705   1.142
   1.155   1.404   1.953   1.881   1.431   0.596   1.236   1.226   2.361   1.077
   1.305   1.712   1.030   1.102   2.222   0.376   1.866   0.376   2.222   1.102
   1.030   1.712   1.305   1.077   2.361   1.226   1.236   0.596   1.431   1.881
   1.953   1.404   1.155   1.142   0.705   1.142   1.155   1.404   1.953   1.881
   1.431   0.596   1.236   1.226   2.361   1.077   1.305   1.712   1.030   1.102
   2.222   0.376
 200       5.00   72    0 5.00   15    0
   1.440   1.440   1.440   1.440   1.440   1.440   1.440   1.440   1.440   1.440
   1.440   1.440   1.440   1.440   1.440   1.440   1.440   1.440   1.440   1.440
   1.440   1.440   1.440   1.440   1.440   1.440   1.440   1.440   1.440   1.440
   1.440   1.440   1.440   1.440   1.440   1.440   1.440   1.440   1.440   1.440
   1.440   1.440   1.440   1.440   1.440   1.440   1.440   1.440   1.440   1.440
   1.440   1.440   1.440   1.440   1.440   1.440   1.440   1.440   1.440   1.440
   1.440   1.440   1.440   1.440   1.440   1.440   1.440   1.440   1.440   1.440
   1.440   1.440
   1.552   1.388   1.385   1.465   1.433   1.292   1.377   1.339   1.271   1.287
   1.363   1.295   1.311   1.285   1.278   1.185   1.310   1.410   1.128   1.410
   1.310   1.185   1.278   1.285   1.311   1.295   1.363   1.287   1.271   1.339
   1.377   1.292   1.433   1.465   1.385   1.388   1.552   1.388   1.385   1.465
   1.433   1.292   1.377   1.339   1.271   1.287   1.363   1.295   1.311   1.285
   1.278   1.185   1.310   1.410   1.128   1.410   1.310   1.185   1.278   1.285
   1.311   1.295   1.363   1.287   1.271   1.339   1.377   1.292   1.433   1.465
   1.385   1.388
   1.676   1.382   1.464   1.536   1.494   1.242   1.332   1.246   1.258   1.207
   1.186   1.092   1.122   1.073   1.162   0.916   1.025   1.131   1.194   1.131
   1.025   0.916   1.162   1.073   1.122   1.092   1.186   1.207   1.258   1.246
   1.332   1.242   1.494   1.536   1.464   1.382   1.676   1.382   1.464   1.536
   1.494   1.242   1.332   1.246   1.258   1.207   1.186   1.092   1.122   1.073
   1.162   0.916   1.025   1.131   1.194   1.131   1.025   0.916   1.162   1.073
   1.122   1.092   1.186   1.207   1.258   1.246   1.332   1.242   1.494   1.536
   1.464   1.382
   1.963   1.526   1.814   1.817   1.495   1.288   1.530   1.255   1.336   1.028
   1.174   0.847   0.950   0.766   0.901   0.784   0.704   0.823   1.161   0.823
   0.704   0.784   0.901   0.766   0.950   0.847   1.174   1.028   1.336   1.255
   1.530   1.288   1.495   1.817   1.814   1.526   1.963   1.526   1.814   1.817
   1.495   1.288   1.530   1.255   1.336   1.028   1.174   0.847   0.950   0.766
   0.901   0.784   0.704   0.823   1.161   0.823   0.704   0.784   0.901   0.766
   0.950   0.847   1.174   1.028   1.336   1.255   1.530   1.288   1.495   1.817
   1.814   1.526
   2.238   2.567   2.316   2.467   2.158   1.741   2.096   1.605   1.650   1.282
   1.370   0.919   0.875   0.823   0.609   0.612   0.563   0.587   0.722   0.587
   0.563   0.612   0.609   0.823   0.875   0.919   1.370   1.282   1.650   1.605
   2.096   1.741   2.158   2.467   2.316   2.567   2.238   2.567   2.316   2.467
   2.158   1.741   2.096   1.605   1.650   1.282   1.370   0.919   0.875   0.823
   0.609   0.612   0.563   0.587   0.722   0.587   0.563   0.612   0.609   0.823
   0.875   0.919   1.370   1.282   1.650   1.605   2.096   1.741   2.158   2.467
   2.316   2.567
   2.503   2.947   2.255   2.550   2.571   2.259   2.673   2.313   2.130   1.721
   1.698   1.217   0.907   0.933   0.530   0.492   0.491   0.467   0.448   0.467
   0.491   0.492   0.530   0.933   0.907   1.217   1.698   1.721   2.130   2.313
   2.673   2.259   2.571   2.550   2.255   2.947   2.503   2.947   2.255   2.550
   2.571   2.259   2.673   2.313   2.130   1.721   1.698   1.217   0.907   0.933
   0.530   0.492   0.491   0.467   0.448   0.467   0.491   0.492   0.530   0.933
   0.907   1.217   1.698   1.721   2.130   2.313   2.673   2.259   2.571   2.550
   2.255   2.947
   1.690   1.624   1.457   1.449   1.756   1.915   2.330   2.754   2.374   1.985
   1.885   1.292   0.872   0.787   0.795   0.373   0.473   0.444   0.446   0.444
   0.473   0.373   0.795   0.787   0.872   1.292   1.885   1.985   2.374   2.754
   2.330   1.915   1.756   1.449   1.457   1.624   1.690   1.624   1.457   1.449
   1.756   1.915   2.330   2.754   2.374   1.985   1.885   1.292   0.872   0.787
   0.795   0.373   0.473   0.444   0.446   0.444   0.473   0.373   0.795   0.787
   0.872   1.292   1.885   1.985   2.374   2.754   2.330   1.915   1.756   1.449
   1.457   1.624
   0.472   0.589   0.675   0.579   0.701   0.912   1.271   1.747   1.808   1.874
   1.527   1.055   0.776   0.560   0.803   0.215   0.624   0.490   0.458   0.490
   0.624   0.215   0.803   0.560   0.776   1.055   1.527   1.874   1.808   1.747
   1.271   0.912   0.701   0.579   0.675   0.589   0.472   0.589   0.675   0.579
   0.701   0.912   1.271   1.747   1.808   1.874   1.527   1.055   0.776   0.560
   0.803   0.215   0.624   0.490   0.458   0.490   0.624   0.215   0.803   0.560
   0.776   1.055   1.527   1.874   1.808   1.747   1.271   0.912   0.701   0.579
   0.675   0.589
   0.142   0.379   0.375   0.327   0.296   0.293   0.624   0.495   0.724   1.325
   1.085   0.620   0.494   0.672   0.604   0.397   0.532   0.426   0.313   0.426
   0.532   0.397   0.604   0.672   0.494   0.620   1.085   1.325   0.724   0.495
   0.624   0.293   0.296   0.327   0.375   0.379   0.142   0.379   0.375   0.327
   0.296   0.293   0.624   0.495   0.724   1.325   1.085   0.620   0.494   0.672
   0.604   0.397   0.532   0.426   0.313   0.426   0.532   0.397   0.604   0.672
   0.494   0.620   1.085   1.325   0.724   0.495   0.624   0.293   0.296   0.327
   0.375   0.379
   0.314   0.451   0.522   0.265   0.265   0.327   0.485   0.542   0.299   0.829
   0.981   1.092   0.456   0.650   0.805   0.538   0.562   0.368   0.168   0.368
   0.562   0.538   0.805   0.650   0.456   1.092   0.981   0.829   0.299   0.542
   0.485   0.327   0.265   0.265   0.522   0.451   0.314   0.451   0.522   0.265
   0.265   0.327   0.485   0.542   0.299   0.829   0.981   1.092   0.456   0.650
   0.805   0.538   0.562   0.368   0.168   0.368   0.562   0.538   0.805   0.650
   0.456   1.092   0.981   0.829   0.299   0.542   0.485   0.327   0.265   0.265
   0.522   0.451
   0.273   0.617   0.691   0.237   0.198   0.389   0.411   0.499   0.201   0.545
   1.018   1.801   1.017   0.475   1.223   0.812   0.406   0.644   0.107   0.644
   0.406   0.812   1.223   0.475   1.017   1.801   1.018   0.545   0.201   0.499
   0.411   0.389   0.198   0.237   0.691   0.617   0.273   0.617   0.691   0.237
   0.198   0.389   0.411   0.499   0.201   0.545   1.018   1.801   1.017   0.475
   1.223   0.812   0.406   0.644   0.107   0.644   0.406   0.812   1.223   0.475
   1.017   1.801   1.018   0.545   0.201   0.499   0.411   0.389   0.198   0.237
   0.691   0.617
   0.575   0.811   0.639   0.585   0.588   0.662   0.408   0.523   0.707   0.981
   1.374   2.176   1.431   1.238   1.089   1.241   0.601   0.977   1.259   0.977
   0.601   1.241   1.089   1.238   1.431   2.176   1.374   0.981   0.707   0.523
   0.408   0.662   0.588   0.585   0.639   0.811   0.575   0.811   0.639   0.585
   0.588   0.662   0.408   0.523   0.707   0.981   1.374   2.176   1.431   1.238
   1.089   1.241   0.601   0.977   1.259   0.977   0.601   1.241   1.089   1.238
   1.431   2.176   1.374   0.981   0.707   0.523   0.408   0.662   0.588   0.585
   0.639   0.811
   1.588   0.686   0.374   1.004   0.697   0.906   0.301   0.532   1.474   1.183
   1.467   1.984   1.528   1.179   0.784   1.324   0.896   0.962   1.389   0.962
   0.896   1.324   0.784   1.179   1.528   1.984   1.467   1.183   1.474   0.532
   0.301   0.906   0.697   1.004   0.374   0.686   1.588   0.686   0.374   1.004
   0.697   0.906   0.301   0.532   1.474   1.183   1.467   1.984   1.528   1.179
   0.784   1.324   0.896   0.962   1.389   0.962   0.896   1.324   0.784   1.179
   1.528   1.984   1.467   1.183   1.474   0.532   0.301   0.906   0.697   1.004
   0.374   0.686
   1.058   0.540   0.417   0.620   0.517   0.801   0.815   0.633   1.382   1.066
   1.551   1.137   1.195   0.701   0.985   1.515   0.358   0.649   0.388   0.649
   0.358   1.515   0.985   0.701   1.195   1.137   1.551   1.066   1.382   0.633
   0.815   0.801   0.517   0.620   0.417   0.540   1.058   0.540   0.417   0.620
   0.517   0.801   0.815   0.633   1.382   1.066   1.551   1.137   1.195   0.701
   0.985   1.515   0.358   0.649   0.388   0.649   0.358   1.515   0.985   0.701
   1.195   1.137   1.551   1.066   1.382   0.633   0.815   0.801   0.517   0.620
   0.417   0.540
   0.147   0.527   1.197   1.373   0.878   1.068   1.402   1.222   1.804   1.546
   2.199   1.179   1.040   0.780   0.838   1.733   0.483   0.683   0.956   0.683
   0.483   1.733   0.838   0.780   1.040   1.179   2.199   1.546   1.804   1.222
   1.402   1.068   0.878   1.373   1.197   0.527   0.147   0.527   1.197   1.373
   0.878   1.068   1.402   1.222   1.804   1.546   2.199   1.179   1.040   0.780
   0.838   1.733   0.483   0.683   0.956   0.683   0.483   1.733   0.838   0.780
   1.040   1.179   2.199   1.546   1.804   1.222   1.402   1.068   0.878   1.373
   1.197   0.527
 111       5.00   72    0 5.00   15    0
   0.253   0.253   0.253   0.253   0.253   0.253   0.253   0.253   0.253   0.253
   0.253   0.253   0.253   0.253   0.253   0.253   0.253   0.253   0.253   0.253
   0.253   0.253   0.253   0.253   0.253   0.253   0.253   0.253   0.253   0.253
   0.253   0.253   0.253   0.253   0.253   0.253   0.253   0.253   0.253   0.253
   0.253   0.253   0.253   0.253   0.253   0.253   0.253   0.253   0.253   0.253
   0.253   0.253   0.253   0.253   0.253   0.253   0.253   0.253   0.253   0.253
   0.253   0.253   0.253   0.253   0.253   0.253   0.253   0.253   0.253   0.253
   0.253   0.253
   0.361   0.341   0.318   0.402   0.311   0.354   0.311   0.273   0.317   0.251
   0.287   0.282   0.240   0.268   0.258   0.257   0.233   0.277   0.262   0.277
   0.233   0.257   0.258   0.268   0.240   0.282   0.287   0.251   0.317   0.273
   0.311   0.354   0.311   0.402   0.318   0.341   0.361   0.341   0.318   0.402
   0.311   0.354   0.311   0.273   0.317   0.251   0.287   0.282   0.240   0.268
   0.258   0.257   0.233   0.277   0.262   0.277   0.233   0.257   0.258   0.268
   0.240   0.282   0.287   0.251   0.317   0.273   0.311   0.354   0.311   0.402
   0.318   0.341
   0.592   0.550   0.489   0.474   0.412   0.399   0.355   0.290   0.349   0.279
   0.315   0.269   0.235   0.234   0.278   0.269   0.254   0.296   0.288   0.296
   0.254   0.269   0.278   0.234   0.235   0.269   0.315   0.279   0.349   0.290
   0.355   0.399   0.412   0.474   0.489   0.550   0.592   0.550   0.489   0.474
   0.412   0.399   0.355   0.290   0.349   0.279   0.315   0.269   0.235   0.234
   0.278   0.269   0.254   0.296   0.288   0.296   0.254   0.269   0.278   0.234
   0.235   0.269   0.315   0.279   0.349   0.290   0.355   0.399   0.412   0.474
   0.489   0.550
   1.029   1.038   0.883   0.890   0.760   0.598   0.545   0.471   0.443   0.324
   0.349   0.290   0.309   0.272   0.363   0.312   0.300   0.362   0.265   0.362
   0.300   0.312   0.363   0.272   0.309   0.290   0.349   0.324   0.443   0.471
   0.545   0.598   0.760   0.890   0.883   1.038   1.029   1.038   0.883   0.890
   0.760   0.598   0.545   0.471   0.443   0.324   0.349   0.290   0.309   0.272
   0.363   0.312   0.300   0.362   0.265   0.362   0.300   0.312   0.363   0.272
   0.309   0.290   0.349   0.324   0.443   0.471   0.545   0.598   0.760   0.890
   0.883   1.038
   2.759   2.741   2.522   2.128   1.676   1.249   1.012   0.702   0.620   0.354
   0.411   0.424   0.310   0.287   0.291   0.312   0.244   0.328   0.238   0.328
   0.244   0.312   0.291   0.287   0.310   0.424   0.411   0.354   0.620   0.702
   1.012   1.249   1.676   2.128   2.522   2.741   2.759   2.741   2.522   2.128
   1.676   1.249   1.012   0.702   0.620   0.354   0.411   0.424   0.310   0.287
   0.291   0.312   0.244   0.328   0.238   0.328   0.244   0.312   0.291   0.287
   0.310   0.424   0.411   0.354   0.620   0.702   1.012   1.249   1.676   2.128
   2.522   2.741
   4.978   4.888   4.637   3.920   3.074   2.205   1.677   1.232   0.917   0.595
   0.518   0.497   0.364   0.356   0.250   0.298   0.165   0.198   0.237   0.198
   0.165   0.298   0.250   0.356   0.364   0.497   0.518   0.595   0.917   1.232
   1.677   2.205   3.074   3.920   4.637   4.888   4.978   4.888   4.637   3.920
   3.074   2.205   1.677   1.232   0.917   0.595   0.518   0.497   0.364   0.356
   0.250   0.298   0.165   0.198   0.237   0.198   0.165   0.298   0.250   0.356
   0.364   0.497   0.518   0.595   0.917   1.232   1.677   2.205   3.074   3.920
   4.637   4.888
   4.465   4.352   4.244   4.118   3.514   2.681   2.200   1.791   1.445   1.174
   0.721   0.579   0.494   0.475   0.329   0.267   0.252   0.187   0.277   0.187
   0.252   0.267   0.329   0.475   0.494   0.579   0.721   1.174   1.445   1.791
   2.200   2.681   3.514   4.118   4.244   4.352   4.465   4.352   4.244   4.118
   3.514   2.681   2.200   1.791   1.445   1.174   0.721   0.579   0.494   0.475
   0.329   0.267   0.252   0.187   0.277   0.187   0.252   0.267   0.329   0.475
   0.494   0.579   0.721   1.174   1.445   1.791   2.200   2.681   3.514   4.118
   4.244   4.352
   2.060   2.080   2.316   2.458   2.298   2.061   2.098   1.753   1.683   1.700
   1.113   0.958   0.712   0.521   0.569   0.418   0.308   0.300   0.297   0.300
   0.308   0.418   0.569   0.521   0.712   0.958   1.113   1.700   1.683   1.753
   2.098   2.061   2.298   2.458   2.316   2.080   2.060   2.080   2.316   2.458
   2.298   2.061   2.098   1.753   1.683   1.700   1.113   0.958   0.712   0.521
   0.569   0.418   0.308   0.300   0.297   0.300   0.308   0.418   0.569   0.521
   0.712   0.958   1.113   1.700   1.683   1.753   2.098   2.061   2.298   2.458
   2.316   2.080
   0.963   0.898   1.140   1.234   1.049   1.175   1.628   1.582   1.487   1.804
   1.444   1.461   1.305   0.779   0.799   0.667   0.668   0.540   0.313   0.540
   0.668   0.667   0.799   0.779   1.305   1.461   1.444   1.804   1.487   1.582
   1.628   1.175   1.049   1.234   1.140   0.898   0.963   0.898   1.140   1.234
   1.049   1.175   1.628   1.582   1.487   1.804   1.444   1.461   1.305   0.779
   0.799   0.667   0.668   0.540   0.313   0.540   0.668   0.667   0.799   0.779
   1.305   1.461   1.444   1.804   1.487   1.582   1.628   1.175   1.049   1.234
   1.140   0.898
   0.616   0.672   0.645   0.667   0.670   0.813   1.144   1.239   1.497   1.567
   1.634   1.600   1.648   1.200   1.118   0.927   1.031   0.764   0.545   0.764
   1.031   0.927   1.118   1.200   1.648   1.600   1.634   1.567   1.497   1.239
   1.144   0.813   0.670   0.667   0.645   0.672   0.616   0.672   0.645   0.667
   0.670   0.813   1.144   1.239   1.497   1.567   1.634   1.600   1.648   1.200
   1.118   0.927   1.031   0.764   0.545   0.764   1.031   0.927   1.118   1.200
   1.648   1.600   1.634   1.567   1.497   1.239   1.144   0.813   0.670   0.667
   0.645   0.672
   0.290   0.461   0.351   0.341   0.493   0.605   0.643   0.824   0.971   1.222
   1.463   1.334   1.440   1.375   1.384   1.143   1.109   0.887   1.251   0.887
   1.109   1.143   1.384   1.375   1.440   1.334   1.463   1.222   0.971   0.824
   0.643   0.605   0.493   0.341   0.351   0.461   0.290   0.461   0.351   0.341
   0.493   0.605   0.643   0.824   0.971   1.222   1.463   1.334   1.440   1.375
   1.384   1.143   1.109   0.887   1.251   0.887   1.109   1.143   1.384   1.375
   1.440   1.334   1.463   1.222   0.971   0.824   0.643   0.605   0.493   0.341
   0.351   0.461
   0.505   0.336   0.274   0.468   0.234   0.566   0.493   0.710   0.405   1.088
   0.919   1.011   1.271   1.374   1.616   1.913   1.407   1.443   1.525   1.443
   1.407   1.913   1.616   1.374   1.271   1.011   0.919   1.088   0.405   0.710
   0.493   0.566   0.234   0.468   0.274   0.336   0.505   0.336   0.274   0.468
   0.234   0.566   0.493   0.710   0.405   1.088   0.919   1.011   1.271   1.374
   1.616   1.913   1.407   1.443   1.525   1.443   1.407   1.913   1.616   1.374
   1.271   1.011   0.919   1.088   0.405   0.710   0.493   0.566   0.234   0.468
   0.274   0.336
   0.671   0.504   0.441   0.396   0.290   0.442   0.528   0.567   0.607   0.815
   0.491   0.650   0.993   1.159   1.531   2.287   1.644   1.990   1.428   1.990
   1.644   2.287   1.531   1.159   0.993   0.650   0.491   0.815   0.607   0.567
   0.528   0.442   0.290   0.396   0.441   0.504   0.671   0.504   0.441   0.396
   0.290   0.442   0.528   0.567   0.607   0.815   0.491   0.650   0.993   1.159
   1.531   2.287   1.644   1.990   1.428   1.990   1.644   2.287   1.531   1.159
   0.993   0.650   0.491   0.815   0.607   0.567   0.528   0.442   0.290   0.396
   0.441   0.504
   0.722   0.453   0.612   0.291   0.482   0.610   0.395   0.261   0.449   0.473
   0.571   0.560   0.817   0.988   1.075   1.289   1.478   1.602   1.515   1.602
   1.478   1.289   1.075   0.988   0.817   0.560   0.571   0.473   0.449   0.261
   0.395   0.610   0.482   0.291   0.612   0.453   0.722   0.453   0.612   0.291
   0.482   0.610   0.395   0.261   0.449   0.473   0.571   0.560   0.817   0.988
   1.075   1.289   1.478   1.602   1.515   1.602   1.478   1.289   1.075   0.988
   0.817   0.560   0.571   0.473   0.449   0.261   0.395   0.610   0.482   0.291
   0.612   0.453
   0.731   0.506   0.826   0.495   0.539   1.016   0.382   0.690   0.140   0.422
   0.602   0.602   0.562   0.601   0.666   0.572   1.219   1.103   1.482   1.103
   1.219   0.572   0.666   0.601   0.562   0.602   0.602   0.422   0.140   0.690
   0.382   1.016   0.539   0.495   0.826   0.506   0.731   0.506   0.826   0.495
   0.539   1.016   0.382   0.690   0.140   0.422   0.602   0.602   0.562   0.601
   0.666   0.572   1.219   1.103   1.482   1.103   1.219   0.572   0.666   0.601
   0.562   0.602   0.602   0.422   0.140   0.690   0.382   1.016   0.539   0.495
   0.826   0.506
  4  1      5.5401498E-01
  4  2     -1.2037249E-01
  4  3     -6.4829405E-01
  6  1      9.1050632E-01
  6  2     -2.7621447E+00
  6  3      4.7629476E-01
  6  4      2.7593382E-01
  8  1     -1.0120128E+00
  8  2      3.9331026E-01
  8  3     -1.8200722E-01
  8  4      7.0246742E-01
  8  5      2.6619797E-01
 10  1     -1.7935362E-03
 10  2     -4.9178522E-01
 10  3      1.0496416E+00
 10  4      1.8431355E-01
 10  5     -6.5016980E-02
 10  6     -5.2636399E-01
 12  1      3.2700221E-01  9.9728035E-01
 12  2      6.0509218E-02 -1.0938743E+00
 12  3     -2.1116743E-01  1.4892235E+00
 12  4     -4.4156834E-01 -2.0372489E-01
 12  5      7.1714030E-02  5.2408077E-02
 12  6     -6.1251103E-01  4.9012538E-01
 12  7     -6.8139781E-01 -6.2159803E-01
 14  1     -6.2335834E-01
 14  2      6.1826043E-01
 14  3     -1.4300642E-01
 14  4     -1.4638186E-02
 14  5     -5.4196327E-01
 14  6     -1.6265953E-02
 14  7     -1.9271844E-01
 14  8     -7.5267974E-01
 220       5.00   72    0 5.00   18    0
   1.181   1.182   1.183   1.186   1.189   1.193   1.198   1.204   1.209   1.215
   1.221   1.227   1.233   1.238   1.242   1.246   1.248   1.250   1.250   1.250
   1.248   1.246   1.242   1.238   1.233   1.227   1.221   1.215   1.209   1.204
   1.198   1.193   1.189   1.186   1.183   1.182   1.181   1.182   1.183   1.186
   1.189   1.193   1.198   1.204   1.209   1.215   1.221   1.227   1.233   1.238
   1.242   1.246   1.248   1.250   1.250   1.250   1.248   1.246   1.242   1.238
   1.233   1.227   1.221   1.215   1.209   1.204   1.198   1.193   1.189   1.186
   1.183   1.182
   0.899   0.902   0.912   0.929   0.952   0.981   1.016   1.056   1.101   1.150
   1.200   1.250   1.299   1.345   1.386   1.420   1.445   1.461   1.466   1.461
   1.445   1.420   1.386   1.345   1.299   1.250   1.200   1.150   1.101   1.056
   1.016   0.981   0.952   0.929   0.912   0.902   0.899   0.902   0.912   0.929
   0.952   0.981   1.016   1.056   1.101   1.150   1.200   1.250   1.299   1.345
   1.386   1.420   1.445   1.461   1.466   1.461   1.445   1.420   1.386   1.345
   1.299   1.250   1.200   1.150   1.101   1.056   1.016   0.981   0.952   0.929
   0.912   0.902
   0.532   0.536   0.548   0.569   0.600   0.645   0.705   0.781   0.872   0.979
   1.098   1.226   1.355   1.481   1.596   1.694   1.768   1.815   1.831   1.815
   1.768   1.694   1.596   1.481   1.355   1.226   1.098   0.979   0.872   0.781
   0.705   0.645   0.600   0.569   0.548   0.536   0.532   0.536   0.548   0.569
   0.600   0.645   0.705   0.781   0.872   0.979   1.098   1.226   1.355   1.481
   1.596   1.694   1.768   1.815   1.831   1.815   1.768   1.694   1.596   1.481
   1.355   1.226   1.098   0.979   0.872   0.781   0.705   0.645   0.600   0.569
   0.548   0.536
   0.333   0.331   0.326   0.323   0.327   0.348   0.393   0.468   0.580   0.727
   0.909   1.116   1.338   1.561   1.770   1.950   2.090   2.178   2.208   2.178
   2.090   1.950   1.770   1.561   1.338   1.116   0.909   0.727   0.580   0.468
   0.393   0.348   0.327   0.323   0.326   0.331   0.333   0.331   0.326   0.323
   0.327   0.348   0.393   0.468   0.580   0.727   0.909   1.116   1.338   1.561
   1.770   1.950   2.090   2.178   2.208   2.178   2.090   1.950   1.770   1.561
   1.338   1.116   0.909   0.727   0.580   0.468   0.393   0.348   0.327   0.323
   0.326   0.331
   0.395   0.384   0.354   0.312   0.269   0.239   0.237   0.278   0.372   0.526
   0.735   0.991   1.275   1.566   1.841   2.078   2.261   2.375   2.414   2.375
   2.261   2.078   1.841   1.566   1.275   0.991   0.735   0.526   0.372   0.278
   0.237   0.239   0.269   0.312   0.354   0.384   0.395   0.384   0.354   0.312
   0.269   0.239   0.237   0.278   0.372   0.526   0.735   0.991   1.275   1.566
   1.841   2.078   2.261   2.375   2.414   2.375   2.261   2.078   1.841   1.566
   1.275   0.991   0.735   0.526   0.372   0.278   0.237   0.239   0.269   0.312
   0.354   0.384
   0.549   0.536   0.501   0.448   0.386   0.330   0.298   0.309   0.377   0.513
   0.714   0.968   1.252   1.538   1.801   2.019   2.180   2.278   2.310   2.278
   2.180   2.019   1.801   1.538   1.252   0.968   0.714   0.513   0.377   0.309
   0.298   0.330   0.386   0.448   0.501   0.536   0.549   0.536   0.501   0.448
   0.386   0.330   0.298   0.309   0.377   0.513   0.714   0.968   1.252   1.538
   1.801   2.019   2.180   2.278   2.310   2.278   2.180   2.019   1.801   1.538
   1.252   0.968   0.714   0.513   0.377   0.309   0.298   0.330   0.386   0.448
   0.501   0.536
   0.523   0.521   0.516   0.504   0.489   0.474   0.471   0.495   0.563   0.685
   0.860   1.074   1.301   1.511   1.679   1.792   1.856   1.885   1.892   1.885
   1.856   1.792   1.679   1.511   1.301   1.074   0.860   0.685   0.563   0.495
   0.471   0.474   0.489   0.504   0.516   0.521   0.523   0.521   0.516   0.504
   0.489   0.474   0.471   0.495   0.563   0.685   0.860   1.074   1.301   1.511
   1.679   1.792   1.856   1.885   1.892   1.885   1.856   1.792   1.679   1.511
   1.301   1.074   0.860   0.685   0.563   0.495   0.471   0.474   0.489   0.504
   0.516   0.521
   0.283   0.296   0.331   0.383   0.446   0.514   0.585   0.663   0.757   0.877
   1.025   1.190   1.344   1.455   1.500   1.478   1.414   1.349   1.323   1.349
   1.414   1.478   1.500   1.455   1.344   1.190   1.025   0.877   0.757   0.663
   0.585   0.514   0.446   0.383   0.331   0.296   0.283   0.296   0.331   0.383
   0.446   0.514   0.585   0.663   0.757   0.877   1.025   1.190   1.344   1.455
   1.500   1.478   1.414   1.349   1.323   1.349   1.414   1.478   1.500   1.455
   1.344   1.190   1.025   0.877   0.757   0.663   0.585   0.514   0.446   0.383
   0.331   0.296
   0.191   0.200   0.230   0.285   0.369   0.477   0.597   0.714   0.822   0.927
   1.037   1.154   1.257   1.311   1.284   1.175   1.022   0.888   0.836   0.888
   1.022   1.175   1.284   1.311   1.257   1.154   1.037   0.927   0.822   0.714
   0.597   0.477   0.369   0.285   0.230   0.200   0.191   0.200   0.230   0.285
   0.369   0.477   0.597   0.714   0.822   0.927   1.037   1.154   1.257   1.311
   1.284   1.175   1.022   0.888   0.836   0.888   1.022   1.175   1.284   1.311
   1.257   1.154   1.037   0.927   0.822   0.714   0.597   0.477   0.369   0.285
   0.230   0.200
   0.710   0.683   0.619   0.556   0.532   0.568   0.648   0.736   0.799   0.836
   0.870   0.928   1.009   1.071   1.062   0.959   0.793   0.641   0.579   0.641
   0.793   0.959   1.062   1.071   1.009   0.928   0.870   0.836   0.799   0.736
   0.648   0.568   0.532   0.556   0.619   0.683   0.710   0.683   0.619   0.556
   0.532   0.568   0.648   0.736   0.799   0.836   0.870   0.928   1.009   1.071
   1.062   0.959   0.793   0.641   0.579   0.641   0.793   0.959   1.062   1.071
   1.009   0.928   0.870   0.836   0.799   0.736   0.648   0.568   0.532   0.556
   0.619   0.683
   1.856   1.772   1.553   1.281   1.051   0.923   0.890   0.888   0.850   0.762
   0.672   0.650   0.718   0.828   0.894   0.854   0.724   0.583   0.523   0.583
   0.724   0.854   0.894   0.828   0.718   0.650   0.672   0.762   0.850   0.888
   0.890   0.923   1.051   1.281   1.553   1.772   1.856   1.772   1.553   1.281
   1.051   0.923   0.890   0.888   0.850   0.762   0.672   0.650   0.718   0.828
   0.894   0.854   0.724   0.583   0.523   0.583   0.724   0.854   0.894   0.828
   0.718   0.650   0.672   0.762   0.850   0.888   0.890   0.923   1.051   1.281
   1.553   1.772
   2.991   2.863   2.520   2.073   1.665   1.396   1.267   1.190   1.058   0.844
   0.626   0.518   0.570   0.719   0.841   0.842   0.725   0.581   0.518   0.581
   0.725   0.842   0.841   0.719   0.570   0.518   0.626   0.844   1.058   1.190
   1.267   1.396   1.665   2.073   2.520   2.863   2.991   2.863   2.520   2.073
   1.665   1.396   1.267   1.190   1.058   0.844   0.626   0.518   0.570   0.719
   0.841   0.842   0.725   0.581   0.518   0.581   0.725   0.842   0.841   0.719
   0.570   0.518   0.626   0.844   1.058   1.190   1.267   1.396   1.665   2.073
   2.520   2.863
   3.287   3.162   2.818   2.356   1.921   1.639   1.523   1.464   1.323   1.058
   0.774   0.620   0.660   0.811   0.920   0.884   0.721   0.541   0.465   0.541
   0.721   0.884   0.920   0.811   0.660   0.620   0.774   1.058   1.323   1.464
   1.523   1.639   1.921   2.356   2.818   3.162   3.287   3.162   2.818   2.356
   1.921   1.639   1.523   1.464   1.323   1.058   0.774   0.620   0.660   0.811
   0.920   0.884   0.721   0.541   0.465   0.541   0.721   0.884   0.920   0.811
   0.660   0.620   0.774   1.058   1.323   1.464   1.523   1.639   1.921   2.356
   2.818   3.162
   2.483   2.415   2.211   1.907   1.606   1.439   1.441   1.500   1.453   1.248
   0.997   0.867   0.913   1.033   1.068   0.945   0.717   0.509   0.426   0.509
   0.717   0.945   1.068   1.033   0.913   0.867   0.997   1.248   1.453   1.500
   1.441   1.439   1.606   1.907   2.211   2.415   2.483   2.415   2.211   1.907
   1.606   1.439   1.441   1.500   1.453   1.248   0.997   0.867   0.913   1.033
   1.068   0.945   0.717   0.509   0.426   0.509   0.717   0.945   1.068   1.033
   0.913   0.867   0.997   1.248   1.453   1.500   1.441   1.439   1.606   1.907
   2.211   2.415
   1.164   1.180   1.181   1.100   0.974   0.935   1.059   1.255   1.351   1.275
   1.131   1.076   1.145   1.223   1.181   1.003   0.785   0.626   0.571   0.626
   0.785   1.003   1.181   1.223   1.145   1.076   1.131   1.275   1.351   1.255
   1.059   0.935   0.974   1.100   1.181   1.180   1.164   1.180   1.181   1.100
   0.974   0.935   1.059   1.255   1.351   1.275   1.131   1.076   1.145   1.223
   1.181   1.003   0.785   0.626   0.571   0.626   0.785   1.003   1.181   1.223
   1.145   1.076   1.131   1.275   1.351   1.255   1.059   0.935   0.974   1.100
   1.181   1.180
   0.216   0.303   0.468   0.541   0.494   0.475   0.622   0.884   1.086   1.133
   1.102   1.126   1.216   1.261   1.186   1.050   0.969   0.972   0.989   0.972
   0.969   1.050   1.186   1.261   1.216   1.126   1.102   1.133   1.086   0.884
   0.622   0.475   0.494   0.541   0.468   0.303   0.216   0.303   0.468   0.541
   0.494   0.475   0.622   0.884   1.086   1.133   1.102   1.126   1.216   1.261
   1.186   1.050   0.969   0.972   0.989   0.972   0.969   1.050   1.186   1.261
   1.216   1.126   1.102   1.133   1.086   0.884   0.622   0.475   0.494   0.541
   0.468   0.303
   0.007   0.133   0.374   0.482   0.390   0.274   0.338   0.576   0.813   0.928
   0.969   1.040   1.135   1.160   1.101   1.081   1.216   1.440   1.551   1.440
   1.216   1.081   1.101   1.160   1.135   1.040   0.969   0.928   0.813   0.576
   0.338   0.274   0.390   0.482   0.374   0.133   0.007   0.133   0.374   0.482
   0.390   0.274   0.338   0.576   0.813   0.928   0.969   1.040   1.135   1.160
   1.101   1.081   1.216   1.440   1.551   1.440   1.216   1.081   1.101   1.160
   1.135   1.040   0.969   0.928   0.813   0.576   0.338   0.274   0.390   0.482
   0.374   0.133
   0.168   0.306   0.562   0.649   0.480   0.259   0.231   0.421   0.652   0.788
   0.856   0.942   1.033   1.050   1.018   1.097   1.396   1.779   1.957   1.779
   1.396   1.097   1.018   1.050   1.033   0.942   0.856   0.788   0.652   0.421
   0.231   0.259   0.480   0.649   0.562   0.306   0.168   0.306   0.562   0.649
   0.480   0.259   0.231   0.421   0.652   0.788   0.856   0.942   1.033   1.050
   1.018   1.097   1.396   1.779   1.957   1.779   1.396   1.097   1.018   1.050
   1.033   0.942   0.856   0.788   0.652   0.421   0.231   0.259   0.480   0.649
   0.562   0.306
 200       5.00   72    0 5.00   18    0
   1.061   1.061   1.062   1.062   1.062   1.062   1.063   1.063   1.064   1.064
   1.065   1.065   1.065   1.066   1.066   1.066   1.067   1.067   1.067   1.067
   1.067   1.066   1.066   1.066   1.065   1.065   1.065   1.064   1.064   1.063
   1.063   1.062   1.062   1.062   1.062   1.061   1.061   1.061   1.062   1.062
   1.062   1.062   1.063   1.063   1.064   1.064   1.065   1.065   1.065   1.066
   1.066   1.066   1.067   1.067   1.067   1.067   1.067   1.066   1.066   1.066
   1.065   1.065   1.065   1.064   1.064   1.063   1.063   1.062   1.062   1.062
   1.062   1.061
   0.890   0.890   0.889   0.887   0.886   0.883   0.881   0.878   0.876   0.873
   0.871   0.869   0.867   0.865   0.864   0.863   0.862   0.862   0.862   0.862
   0.862   0.863   0.864   0.865   0.867   0.869   0.871   0.873   0.876   0.878
   0.881   0.883   0.886   0.887   0.889   0.890   0.890   0.890   0.889   0.887
   0.886   0.883   0.881   0.878   0.876   0.873   0.871   0.869   0.867   0.865
   0.864   0.863   0.862   0.862   0.862   0.862   0.862   0.863   0.864   0.865
   0.867   0.869   0.871   0.873   0.876   0.878   0.881   0.883   0.886   0.887
   0.889   0.890
   0.956   0.953   0.945   0.931   0.913   0.890   0.862   0.832   0.799   0.766
   0.733   0.701   0.672   0.647   0.626   0.610   0.598   0.592   0.589   0.592
   0.598   0.610   0.626   0.647   0.672   0.701   0.733   0.766   0.799   0.832
   0.862   0.890   0.913   0.931   0.945   0.953   0.956   0.953   0.945   0.931
   0.913   0.890   0.862   0.832   0.799   0.766   0.733   0.701   0.672   0.647
   0.626   0.610   0.598   0.592   0.589   0.592   0.598   0.610   0.626   0.647
   0.672   0.701   0.733   0.766   0.799   0.832   0.862   0.890   0.913   0.931
   0.945   0.953
   1.498   1.491   1.472   1.441   1.395   1.336   1.264   1.179   1.084   0.982
   0.878   0.776   0.682   0.599   0.532   0.480   0.444   0.423   0.416   0.423
   0.444   0.480   0.532   0.599   0.682   0.776   0.878   0.982   1.084   1.179
   1.264   1.336   1.395   1.441   1.472   1.491   1.498   1.491   1.472   1.441
   1.395   1.336   1.264   1.179   1.084   0.982   0.878   0.776   0.682   0.599
   0.532   0.480   0.444   0.423   0.416   0.423   0.444   0.480   0.532   0.599
   0.682   0.776   0.878   0.982   1.084   1.179   1.264   1.336   1.395   1.441
   1.472   1.491
   2.166   2.160   2.143   2.111   2.062   1.993   1.898   1.776   1.625   1.451
   1.262   1.070   0.890   0.734   0.609   0.518   0.458   0.425   0.415   0.425
   0.458   0.518   0.609   0.734   0.890   1.070   1.262   1.451   1.625   1.776
   1.898   1.993   2.062   2.111   2.143   2.160   2.166   2.160   2.143   2.111
   2.062   1.993   1.898   1.776   1.625   1.451   1.262   1.070   0.890   0.734
   0.609   0.518   0.458   0.425   0.415   0.425   0.458   0.518   0.609   0.734
   0.890   1.070   1.262   1.451   1.625   1.776   1.898   1.993   2.062   2.111
   2.143   2.160
   2.318   2.320   2.324   2.328   2.327   2.311   2.265   2.177   2.035   1.840
   1.603   1.347   1.099   0.886   0.725   0.619   0.561   0.535   0.529   0.535
   0.561   0.619   0.725   0.886   1.099   1.347   1.603   1.840   2.035   2.177
   2.265   2.311   2.327   2.328   2.324   2.320   2.318   2.320   2.324   2.328
   2.327   2.311   2.265   2.177   2.035   1.840   1.603   1.347   1.099   0.886
   0.725   0.619   0.561   0.535   0.529   0.535   0.561   0.619   0.725   0.886
   1.099   1.347   1.603   1.840   2.035   2.177   2.265   2.311   2.327   2.328
   2.324   2.320
   1.713   1.723   1.754   1.809   1.884   1.966   2.034   2.056   2.005   1.868
   1.652   1.387   1.118   0.890   0.732   0.651   0.628   0.634   0.639   0.634
   0.628   0.651   0.732   0.890   1.118   1.387   1.652   1.868   2.005   2.056
   2.034   1.966   1.884   1.809   1.754   1.723   1.713   1.723   1.754   1.809
   1.884   1.966   2.034   2.056   2.005   1.868   1.652   1.387   1.118   0.890
   0.732   0.651   0.628   0.634   0.639   0.634   0.628   0.651   0.732   0.890
   1.118   1.387   1.652   1.868   2.005   2.056   2.034   1.966   1.884   1.809
   1.754   1.723
   0.794   0.803   0.836   0.904   1.017   1.169   1.337   1.482   1.559   1.536
   1.406   1.195   0.956   0.750   0.622   0.583   0.608   0.652   0.673   0.652
   0.608   0.583   0.622   0.750   0.956   1.195   1.406   1.536   1.559   1.482
   1.337   1.169   1.017   0.904   0.836   0.803   0.794   0.803   0.836   0.904
   1.017   1.169   1.337   1.482   1.559   1.536   1.406   1.195   0.956   0.750
   0.622   0.583   0.608   0.652   0.673   0.652   0.608   0.583   0.622   0.750
   0.956   1.195   1.406   1.536   1.559   1.482   1.337   1.169   1.017   0.904
   0.836   0.803
   0.235   0.231   0.227   0.246   0.311   0.435   0.612   0.811   0.985   1.086
   1.081   0.974   0.808   0.645   0.541   0.520   0.562   0.618   0.644   0.618
   0.562   0.520   0.541   0.645   0.808   0.974   1.081   1.086   0.985   0.811
   0.612   0.435   0.311   0.246   0.227   0.231   0.235   0.231   0.227   0.246
   0.311   0.435   0.612   0.811   0.985   1.086   1.081   0.974   0.808   0.645
   0.541   0.520   0.562   0.618   0.644   0.618   0.562   0.520   0.541   0.645
   0.808   0.974   1.081   1.086   0.985   0.811   0.612   0.435   0.311   0.246
   0.227   0.231
   0.278   0.258   0.207   0.145   0.104   0.113   0.196   0.356   0.567   0.772
   0.908   0.936   0.866   0.746   0.641   0.588   0.588   0.611   0.624   0.611
   0.588   0.588   0.641   0.746   0.866   0.936   0.908   0.772   0.567   0.356
   0.196   0.113   0.104   0.145   0.207   0.258   0.278   0.258   0.207   0.145
   0.104   0.113   0.196   0.356   0.567   0.772   0.908   0.936   0.866   0.746
   0.641   0.588   0.588   0.611   0.624   0.611   0.588   0.588   0.641   0.746
   0.866   0.936   0.908   0.772   0.567   0.356   0.196   0.113   0.104   0.145
   0.207   0.258
   0.584   0.562   0.497   0.395   0.273   0.167   0.130   0.212   0.424   0.711
   0.974   1.127   1.140   1.049   0.919   0.804   0.725   0.682   0.669   0.682
   0.725   0.804   0.919   1.049   1.140   1.127   0.974   0.711   0.424   0.212
   0.130   0.167   0.273   0.395   0.497   0.562   0.584   0.562   0.497   0.395
   0.273   0.167   0.130   0.212   0.424   0.711   0.974   1.127   1.140   1.049
   0.919   0.804   0.725   0.682   0.669   0.682   0.725   0.804   0.919   1.049
   1.140   1.127   0.974   0.711   0.424   0.212   0.130   0.167   0.273   0.395
   0.497   0.562
   0.701   0.695   0.669   0.608   0.500   0.366   0.276   0.321   0.542   0.884
   1.216   1.417   1.449   1.357   1.209   1.054   0.914   0.810   0.771   0.810
   0.914   1.054   1.209   1.357   1.449   1.417   1.216   0.884   0.542   0.321
   0.276   0.366   0.500   0.608   0.669   0.695   0.701   0.695   0.669   0.608
   0.500   0.366   0.276   0.321   0.542   0.884   1.216   1.417   1.449   1.357
   1.209   1.054   0.914   0.810   0.771   0.810   0.914   1.054   1.209   1.357
   1.449   1.417   1.216   0.884   0.542   0.321   0.276   0.366   0.500   0.608
   0.669   0.695
   0.543   0.560   0.603   0.639   0.629   0.570   0.528   0.609   0.864   1.217
   1.510   1.626   1.574   1.448   1.323   1.200   1.056   0.920   0.862   0.920
   1.056   1.200   1.323   1.448   1.574   1.626   1.510   1.217   0.864   0.609
   0.528   0.570   0.629   0.639   0.603   0.560   0.543   0.560   0.603   0.639
   0.629   0.570   0.528   0.609   0.864   1.217   1.510   1.626   1.574   1.448
   1.323   1.200   1.056   0.920   0.862   0.920   1.056   1.200   1.323   1.448
   1.574   1.626   1.510   1.217   0.864   0.609   0.528   0.570   0.629   0.639
   0.603   0.560
   0.381   0.414   0.506   0.632   0.736   0.790   0.844   1.000   1.289   1.596
   1.738   1.640   1.417   1.255   1.217   1.203   1.102   0.940   0.859   0.940
   1.102   1.203   1.217   1.255   1.417   1.640   1.738   1.596   1.289   1.000
   0.844   0.790   0.736   0.632   0.506   0.414   0.381   0.414   0.506   0.632
   0.736   0.790   0.844   1.000   1.289   1.596   1.738   1.640   1.417   1.255
   1.217   1.203   1.102   0.940   0.859   0.940   1.102   1.203   1.217   1.255
   1.417   1.640   1.738   1.596   1.289   1.000   0.844   0.790   0.736   0.632
   0.506   0.414
   0.468   0.499   0.598   0.757   0.922   1.046   1.163   1.366   1.659   1.875
   1.807   1.448   1.052   0.902   1.019   1.154   1.077   0.844   0.717   0.844
   1.077   1.154   1.019   0.902   1.052   1.448   1.807   1.875   1.659   1.366
   1.163   1.046   0.922   0.757   0.598   0.499   0.468   0.499   0.598   0.757
   0.922   1.046   1.163   1.366   1.659   1.875   1.807   1.448   1.052   0.902
   1.019   1.154   1.077   0.844   0.717   0.844   1.077   1.154   1.019   0.902
   1.052   1.448   1.807   1.875   1.659   1.366   1.163   1.046   0.922   0.757
   0.598   0.499
   0.778   0.795   0.866   1.005   1.161   1.276   1.379   1.567   1.825   1.940
   1.688   1.127   0.640   0.581   0.898   1.165   1.048   0.670   0.465   0.670
   1.048   1.165   0.898   0.581   0.640   1.127   1.688   1.940   1.825   1.567
   1.379   1.276   1.161   1.005   0.866   0.795   0.778   0.795   0.866   1.005
   1.161   1.276   1.379   1.567   1.825   1.940   1.688   1.127   0.640   0.581
   0.898   1.165   1.048   0.670   0.465   0.670   1.048   1.165   0.898   0.581
   0.640   1.127   1.688   1.940   1.825   1.567   1.379   1.276   1.161   1.005
   0.866   0.795
   1.107   1.110   1.147   1.244   1.353   1.407   1.443   1.572   1.778   1.820
   1.458   0.800   0.317   0.400   0.907   1.261   1.049   0.489   0.193   0.489
   1.049   1.261   0.907   0.400   0.317   0.800   1.458   1.820   1.778   1.572
   1.443   1.407   1.353   1.244   1.147   1.110   1.107   1.110   1.147   1.244
   1.353   1.407   1.443   1.572   1.778   1.820   1.458   0.800   0.317   0.400
   0.907   1.261   1.049   0.489   0.193   0.489   1.049   1.261   0.907   0.400
   0.317   0.800   1.458   1.820   1.778   1.572   1.443   1.407   1.353   1.244
   1.147   1.110
   1.295   1.290   1.306   1.375   1.446   1.448   1.424   1.502   1.671   1.679
   1.276   0.595   0.150   0.340   0.965   1.356   1.065   0.375   0.017   0.375
   1.065   1.356   0.965   0.340   0.150   0.595   1.276   1.679   1.671   1.502
   1.424   1.448   1.446   1.375   1.306   1.290   1.295   1.290   1.306   1.375
   1.446   1.448   1.424   1.502   1.671   1.679   1.276   0.595   0.150   0.340
   0.965   1.356   1.065   0.375   0.017   0.375   1.065   1.356   0.965   0.340
   0.150   0.595   1.276   1.679   1.671   1.502   1.424   1.448   1.446   1.375
   1.306   1.290
 111       5.00   72    0 5.00   18    0
   0.533   0.534   0.535   0.537   0.540   0.543   0.547   0.551   0.556   0.561
   0.565   0.570   0.575   0.579   0.582   0.585   0.587   0.589   0.589   0.589
   0.587   0.585   0.582   0.579   0.575   0.570   0.565   0.561   0.556   0.551
   0.547   0.543   0.540   0.537   0.535   0.534   0.533   0.534   0.535   0.537
   0.540   0.543   0.547   0.551   0.556   0.561   0.565   0.570   0.575   0.579
   0.582   0.585   0.587   0.589   0.589   0.589   0.587   0.585   0.582   0.579
   0.575   0.570   0.565   0.561   0.556   0.551   0.547   0.543   0.540   0.537
   0.535   0.534
   0.213   0.215   0.218   0.225   0.234   0.247   0.263   0.284   0.308   0.336
   0.367   0.399   0.432   0.463   0.492   0.517   0.535   0.547   0.551   0.547
   0.535   0.517   0.492   0.463   0.432   0.399   0.367   0.336   0.308   0.284
   0.263   0.247   0.234   0.225   0.218   0.215   0.213   0.215   0.218   0.225
   0.234   0.247   0.263   0.284   0.308   0.336   0.367   0.399   0.432   0.463
   0.492   0.517   0.535   0.547   0.551   0.547   0.535   0.517   0.492   0.463
   0.432   0.399   0.367   0.336   0.308   0.284   0.263   0.247   0.234   0.225
   0.218   0.215
   0.259   0.253   0.234   0.206   0.172   0.139   0.111   0.094   0.092   0.106
   0.136   0.183   0.240   0.305   0.369   0.428   0.475   0.506   0.516   0.506
   0.475   0.428   0.369   0.305   0.240   0.183   0.136   0.106   0.092   0.094
   0.111   0.139   0.172   0.206   0.234   0.253   0.259   0.253   0.234   0.206
   0.172   0.139   0.111   0.094   0.092   0.106   0.136   0.183   0.240   0.305
   0.369   0.428   0.475   0.506   0.516   0.506   0.475   0.428   0.369   0.305
   0.240   0.183   0.136   0.106   0.092   0.094   0.111   0.139   0.172   0.206
   0.234   0.253
   1.192   1.163   1.080   0.953   0.793   0.620   0.448   0.295   0.174   0.094
   0.059   0.067   0.114   0.189   0.279   0.370   0.447   0.499   0.517   0.499
   0.447   0.370   0.279   0.189   0.114   0.067   0.059   0.094   0.174   0.295
   0.448   0.620   0.793   0.953   1.080   1.163   1.192   1.163   1.080   0.953
   0.793   0.620   0.448   0.295   0.174   0.094   0.059   0.067   0.114   0.189
   0.279   0.370   0.447   0.499   0.517   0.499   0.447   0.370   0.279   0.189
   0.114   0.067   0.059   0.094   0.174   0.295   0.448   0.620   0.793   0.953
   1.080   1.163
   2.652   2.595   2.431   2.178   1.862   1.513   1.163   0.838   0.560   0.344
   0.198   0.124   0.117   0.165   0.250   0.350   0.443   0.508   0.532   0.508
   0.443   0.350   0.250   0.165   0.117   0.124   0.198   0.344   0.560   0.838
   1.163   1.513   1.862   2.178   2.431   2.595   2.652   2.595   2.431   2.178
   1.862   1.513   1.163   0.838   0.560   0.344   0.198   0.124   0.117   0.165
   0.250   0.350   0.443   0.508   0.532   0.508   0.443   0.350   0.250   0.165
   0.117   0.124   0.198   0.344   0.560   0.838   1.163   1.513   1.862   2.178
   2.431   2.595
   3.647   3.573   3.359   3.035   2.637   2.207   1.779   1.379   1.025   0.728
   0.497   0.337   0.250   0.233   0.271   0.344   0.425   0.487   0.510   0.487
   0.425   0.344   0.271   0.233   0.250   0.337   0.497   0.728   1.025   1.379
   1.779   2.207   2.637   3.035   3.359   3.573   3.647   3.573   3.359   3.035
   2.637   2.207   1.779   1.379   1.025   0.728   0.497   0.337   0.250   0.233
   0.271   0.344   0.425   0.487   0.510   0.487   0.425   0.344   0.271   0.233
   0.250   0.337   0.497   0.728   1.025   1.379   1.779   2.207   2.637   3.035
   3.359   3.573
   3.483   3.412   3.212   2.922   2.585   2.244   1.923   1.629   1.358   1.103
   0.866   0.656   0.491   0.385   0.341   0.349   0.386   0.424   0.440   0.424
   0.386   0.349   0.341   0.385   0.491   0.656   0.866   1.103   1.358   1.629
   1.923   2.244   2.585   2.922   3.212   3.412   3.483   3.412   3.212   2.922
   2.585   2.244   1.923   1.629   1.358   1.103   0.866   0.656   0.491   0.385
   0.341   0.349   0.386   0.424   0.440   0.424   0.386   0.349   0.341   0.385
   0.491   0.656   0.866   1.103   1.358   1.629   1.923   2.244   2.585   2.922
   3.212   3.412
   2.375   2.323   2.187   2.011   1.844   1.720   1.641   1.584   1.512   1.397
   1.230   1.025   0.812   0.627   0.494   0.420   0.392   0.388   0.390   0.388
   0.392   0.420   0.494   0.627   0.812   1.025   1.230   1.397   1.512   1.584
   1.641   1.720   1.844   2.011   2.187   2.323   2.375   2.323   2.187   2.011
   1.844   1.720   1.641   1.584   1.512   1.397   1.230   1.025   0.812   0.627
   0.494   0.420   0.392   0.388   0.390   0.388   0.392   0.420   0.494   0.627
   0.812   1.025   1.230   1.397   1.512   1.584   1.641   1.720   1.844   2.011
   2.187   2.323
   1.142   1.113   1.049   0.997   1.008   1.100   1.252   1.415   1.533   1.567
   1.503   1.356   1.161   0.957   0.775   0.634   0.538   0.485   0.468   0.485
   0.538   0.634   0.775   0.957   1.161   1.356   1.503   1.567   1.533   1.415
   1.252   1.100   1.008   0.997   1.049   1.113   1.142   1.113   1.049   0.997
   1.008   1.100   1.252   1.415   1.533   1.567   1.503   1.356   1.161   0.957
   0.775   0.634   0.538   0.485   0.468   0.485   0.538   0.634   0.775   0.957
   1.161   1.356   1.503   1.567   1.533   1.415   1.252   1.100   1.008   0.997
   1.049   1.113
   0.421   0.407   0.388   0.416   0.531   0.734   0.987   1.233   1.426   1.541
   1.575   1.538   1.446   1.317   1.165   1.009   0.868   0.769   0.733   0.769
   0.868   1.009   1.165   1.317   1.446   1.538   1.575   1.541   1.426   1.233
   0.987   0.734   0.531   0.416   0.388   0.407   0.421   0.407   0.388   0.416
   0.531   0.734   0.987   1.233   1.426   1.541   1.575   1.538   1.446   1.317
   1.165   1.009   0.868   0.769   0.733   0.769   0.868   1.009   1.165   1.317
   1.446   1.538   1.575   1.541   1.426   1.233   0.987   0.734   0.531   0.416
   0.388   0.407
   0.253   0.242   0.233   0.281   0.415   0.617   0.833   1.020   1.167   1.287
   1.396   1.493   1.564   1.589   1.550   1.445   1.304   1.182   1.133   1.182
   1.304   1.445   1.550   1.589   1.564   1.493   1.396   1.287   1.167   1.020
   0.833   0.617   0.415   0.281   0.233   0.242   0.253   0.242   0.233   0.281
   0.415   0.617   0.833   1.020   1.167   1.287   1.396   1.493   1.564   1.589
   1.550   1.445   1.304   1.182   1.133   1.182   1.304   1.445   1.550   1.589
   1.564   1.493   1.396   1.287   1.167   1.020   0.833   0.617   0.415   0.281
   0.233   0.242
   0.327   0.308   0.282   0.313   0.423   0.570   0.691   0.762   0.819   0.911
   1.062   1.260   1.470   1.651   1.758   1.763   1.679   1.572   1.523   1.572
   1.679   1.763   1.758   1.651   1.470   1.260   1.062   0.911   0.819   0.762
   0.691   0.570   0.423   0.313   0.282   0.308   0.327   0.308   0.282   0.313
   0.423   0.570   0.691   0.762   0.819   0.911   1.062   1.260   1.470   1.651
   1.758   1.763   1.679   1.572   1.523   1.572   1.679   1.763   1.758   1.651
   1.470   1.260   1.062   0.911   0.819   0.762   0.691   0.570   0.423   0.313
   0.282   0.308
   0.442   0.409   0.352   0.354   0.435   0.531   0.570   0.554   0.553   0.628
   0.783   0.986   1.215   1.458   1.681   1.819   1.839   1.788   1.755   1.788
   1.839   1.819   1.681   1.458   1.215   0.986   0.783   0.628   0.553   0.554
   0.570   0.531   0.435   0.354   0.352   0.409   0.442   0.409   0.352   0.354
   0.435   0.531   0.570   0.554   0.553   0.628   0.783   0.986   1.215   1.458
   1.681   1.819   1.839   1.788   1.755   1.788   1.839   1.819   1.681   1.458
   1.215   0.986   0.783   0.628   0.553   0.554   0.570   0.531   0.435   0.354
   0.352   0.409
   0.628   0.583   0.503   0.487   0.546   0.597   0.571   0.506   0.500   0.589
   0.714   0.811   0.908   1.084   1.350   1.608   1.747   1.765   1.753   1.765
   1.747   1.608   1.350   1.084   0.908   0.811   0.714   0.589   0.500   0.506
   0.571   0.597   0.546   0.487   0.503   0.583   0.628   0.583   0.503   0.487
   0.546   0.597   0.571   0.506   0.500   0.589   0.714   0.811   0.908   1.084
   1.350   1.608   1.747   1.765   1.753   1.765   1.747   1.608   1.350   1.084
   0.908   0.811   0.714   0.589   0.500   0.506   0.571   0.597   0.546   0.487
   0.503   0.583
   0.935   0.892   0.824   0.820   0.866   0.850   0.727   0.599   0.605   0.736
   0.829   0.770   0.650   0.674   0.924   1.262   1.488   1.549   1.546   1.549
   1.488   1.262   0.924   0.674   0.650   0.770   0.829   0.736   0.605   0.599
   0.727   0.850   0.866   0.820   0.824   0.892   0.935   0.892   0.824   0.820
   0.866   0.850   0.727   0.599   0.605   0.736   0.829   0.770   0.650   0.674
   0.924   1.262   1.488   1.549   1.546   1.549   1.488   1.262   0.924   0.674
   0.650   0.770   0.829   0.736   0.605   0.599   0.727   0.850   0.866   0.820
   0.824   0.892
   1.274   1.255   1.246   1.299   1.339   1.221   0.938   0.694   0.692   0.880
   0.976   0.796   0.481   0.357   0.573   0.948   1.202   1.252   1.237   1.252
   1.202   0.948   0.573   0.357   0.481   0.796   0.976   0.880   0.692   0.694
   0.938   1.221   1.339   1.299   1.246   1.255   1.274   1.255   1.246   1.299
   1.339   1.221   0.938   0.694   0.692   0.880   0.976   0.796   0.481   0.357
   0.573   0.948   1.202   1.252   1.237   1.252   1.202   0.948   0.573   0.357
   0.481   0.796   0.976   0.880   0.692   0.694   0.938   1.221   1.339   1.299
   1.246   1.255
   1.510   1.527   1.606   1.742   1.785   1.553   1.085   0.693   0.658   0.902
   1.041   0.815   0.391   0.181   0.375   0.759   0.991   0.991   0.948   0.991
   0.991   0.759   0.375   0.181   0.391   0.815   1.041   0.902   0.658   0.693
   1.085   1.553   1.785   1.742   1.606   1.527   1.510   1.527   1.606   1.742
   1.785   1.553   1.085   0.693   0.658   0.902   1.041   0.815   0.391   0.181
   0.375   0.759   0.991   0.991   0.948   0.991   0.991   0.759   0.375   0.181
   0.391   0.815   1.041   0.902   0.658   0.693   1.085   1.553   1.785   1.742
   1.606   1.527
   1.607   1.651   1.796   1.994   2.043   1.735   1.141   0.643   0.578   0.857
   1.038   0.812   0.354   0.115   0.304   0.685   0.889   0.843   0.777   0.843
   0.889   0.685   0.304   0.115   0.354   0.812   1.038   0.857   0.578   0.643
   1.141   1.735   2.043   1.994   1.796   1.651   1.607   1.651   1.796   1.994
   2.043   1.735   1.141   0.643   0.578   0.857   1.038   0.812   0.354   0.115
   0.304   0.685   0.889   0.843   0.777   0.843   0.889   0.685   0.304   0.115
   0.354   0.812   1.038   0.857   0.578   0.643   1.141   1.735   2.043   1.994
   1.796   1.651
TEXTURE_INDEX=   2.2491
ERR_CF 220         1080     478   34.78   21.78
ERR_CF 200         1080     574   30.42   21.84
ERR_CF 111         1080     348   36.76   13.56
