TEXEVAL                                                                         
Analysis started on 26-Jul-19 13:07:34                                          
 LMAX=14LFMAX=03 CUBIC ORTHO   
 220      5.00 5.00
 200      5.00 5.00
 111      5.00 5.00
 220       5.00   72    0 5.00   15    0
   0.935   0.935   0.935   0.935   0.935   0.935   0.935   0.935   0.935   0.935
   0.935   0.935   0.935   0.935   0.935   0.935   0.935   0.935   0.935   0.935
   0.935   0.935   0.935   0.935   0.935   0.935   0.935   0.935   0.935   0.935
   0.935   0.935   0.935   0.935   0.935   0.935   0.935   0.935   0.935   0.935
   0.935   0.935   0.935   0.935   0.935   0.935   0.935   0.935   0.935   0.935
   0.935   0.935   0.935   0.935   0.935   0.935   0.935   0.935   0.935   0.935
   0.935   0.935   0.935   0.935   0.935   0.935   0.935   0.935   0.935   0.935
   0.935   0.935
   0.480   0.797   0.700   0.730   0.782   0.869   0.753   0.959   1.106   0.881
   0.865   0.699   0.954   0.869   0.835   0.802   0.899   0.783   0.879   0.783
   0.899   0.802   0.835   0.869   0.954   0.699   0.865   0.881   1.106   0.959
   0.753   0.869   0.782   0.730   0.700   0.797   0.480   0.797   0.700   0.730
   0.782   0.869   0.753   0.959   1.106   0.881   0.865   0.699   0.954   0.869
   0.835   0.802   0.899   0.783   0.879   0.783   0.899   0.802   0.835   0.869
   0.954   0.699   0.865   0.881   1.106   0.959   0.753   0.869   0.782   0.730
   0.700   0.797
   0.458   0.591   0.615   0.597   0.693   0.808   0.682   1.046   1.049   0.695
   0.788   0.632   0.849   0.895   0.758   0.703   0.937   0.744   0.800   0.744
   0.937   0.703   0.758   0.895   0.849   0.632   0.788   0.695   1.049   1.046
   0.682   0.808   0.693   0.597   0.615   0.591   0.458   0.591   0.615   0.597
   0.693   0.808   0.682   1.046   1.049   0.695   0.788   0.632   0.849   0.895
   0.758   0.703   0.937   0.744   0.800   0.744   0.937   0.703   0.758   0.895
   0.849   0.632   0.788   0.695   1.049   1.046   0.682   0.808   0.693   0.597
   0.615   0.591
   0.891   0.652   0.628   0.669   0.582   0.834   0.723   0.900   0.778   0.674
   0.855   0.737   0.781   0.698   0.906   0.800   1.117   0.894   1.116   0.894
   1.117   0.800   0.906   0.698   0.781   0.737   0.855   0.674   0.778   0.900
   0.723   0.834   0.582   0.669   0.628   0.652   0.891   0.652   0.628   0.669
   0.582   0.834   0.723   0.900   0.778   0.674   0.855   0.737   0.781   0.698
   0.906   0.800   1.117   0.894   1.116   0.894   1.117   0.800   0.906   0.698
   0.781   0.737   0.855   0.674   0.778   0.900   0.723   0.834   0.582   0.669
   0.628   0.652
   0.892   0.737   0.586   0.810   0.651   0.974   1.000   0.673   0.723   0.599
   0.774   0.731   0.806   0.619   0.825   0.795   0.917   1.015   1.173   1.015
   0.917   0.795   0.825   0.619   0.806   0.731   0.774   0.599   0.723   0.673
   1.000   0.974   0.651   0.810   0.586   0.737   0.892   0.737   0.586   0.810
   0.651   0.974   1.000   0.673   0.723   0.599   0.774   0.731   0.806   0.619
   0.825   0.795   0.917   1.015   1.173   1.015   0.917   0.795   0.825   0.619
   0.806   0.731   0.774   0.599   0.723   0.673   1.000   0.974   0.651   0.810
   0.586   0.737
   0.564   0.524   0.441   0.825   0.715   0.934   0.975   0.817   0.811   0.604
   0.664   0.578   0.985   0.658   0.539   0.918   0.667   0.773   0.710   0.773
   0.667   0.918   0.539   0.658   0.985   0.578   0.664   0.604   0.811   0.817
   0.975   0.934   0.715   0.825   0.441   0.524   0.564   0.524   0.441   0.825
   0.715   0.934   0.975   0.817   0.811   0.604   0.664   0.578   0.985   0.658
   0.539   0.918   0.667   0.773   0.710   0.773   0.667   0.918   0.539   0.658
   0.985   0.578   0.664   0.604   0.811   0.817   0.975   0.934   0.715   0.825
   0.441   0.524
   0.346   0.609   0.431   0.735   0.767   1.072   0.930   1.239   0.649   0.761
   0.956   0.683   0.948   0.850   0.660   1.049   0.673   0.793   0.793   0.793
   0.673   1.049   0.660   0.850   0.948   0.683   0.956   0.761   0.649   1.239
   0.930   1.072   0.767   0.735   0.431   0.609   0.346   0.609   0.431   0.735
   0.767   1.072   0.930   1.239   0.649   0.761   0.956   0.683   0.948   0.850
   0.660   1.049   0.673   0.793   0.793   0.793   0.673   1.049   0.660   0.850
   0.948   0.683   0.956   0.761   0.649   1.239   0.930   1.072   0.767   0.735
   0.431   0.609
   0.666   0.707   0.751   0.956   0.828   1.218   0.925   1.254   0.699   0.996
   0.896   1.022   0.723   0.948   1.037   1.012   0.875   1.311   0.971   1.311
   0.875   1.012   1.037   0.948   0.723   1.022   0.896   0.996   0.699   1.254
   0.925   1.218   0.828   0.956   0.751   0.707   0.666   0.707   0.751   0.956
   0.828   1.218   0.925   1.254   0.699   0.996   0.896   1.022   0.723   0.948
   1.037   1.012   0.875   1.311   0.971   1.311   0.875   1.012   1.037   0.948
   0.723   1.022   0.896   0.996   0.699   1.254   0.925   1.218   0.828   0.956
   0.751   0.707
   0.836   0.879   1.117   0.646   0.614   0.855   0.719   1.090   0.993   1.060
   0.712   1.025   0.993   0.643   1.139   0.946   0.896   1.389   1.208   1.389
   0.896   0.946   1.139   0.643   0.993   1.025   0.712   1.060   0.993   1.090
   0.719   0.855   0.614   0.646   1.117   0.879   0.836   0.879   1.117   0.646
   0.614   0.855   0.719   1.090   0.993   1.060   0.712   1.025   0.993   0.643
   1.139   0.946   0.896   1.389   1.208   1.389   0.896   0.946   1.139   0.643
   0.993   1.025   0.712   1.060   0.993   1.090   0.719   0.855   0.614   0.646
   1.117   0.879
   0.516   1.096   1.051   0.373   0.611   0.601   0.777   1.316   1.111   0.999
   0.902   1.043   1.045   0.653   1.101   0.992   0.868   1.096   1.086   1.096
   0.868   0.992   1.101   0.653   1.045   1.043   0.902   0.999   1.111   1.316
   0.777   0.601   0.611   0.373   1.051   1.096   0.516   1.096   1.051   0.373
   0.611   0.601   0.777   1.316   1.111   0.999   0.902   1.043   1.045   0.653
   1.101   0.992   0.868   1.096   1.086   1.096   0.868   0.992   1.101   0.653
   1.045   1.043   0.902   0.999   1.111   1.316   0.777   0.601   0.611   0.373
   1.051   1.096
   0.355   0.788   0.779   0.527   0.630   0.667   0.768   0.811   0.752   0.806
   0.767   1.082   1.184   0.794   0.852   0.774   0.683   0.648   0.375   0.648
   0.683   0.774   0.852   0.794   1.184   1.082   0.767   0.806   0.752   0.811
   0.768   0.667   0.630   0.527   0.779   0.788   0.355   0.788   0.779   0.527
   0.630   0.667   0.768   0.811   0.752   0.806   0.767   1.082   1.184   0.794
   0.852   0.774   0.683   0.648   0.375   0.648   0.683   0.774   0.852   0.794
   1.184   1.082   0.767   0.806   0.752   0.811   0.768   0.667   0.630   0.527
   0.779   0.788
   0.861   1.181   0.984   1.017   0.799   0.912   0.903   1.050   0.553   1.565
   1.143   1.004   1.441   0.608   0.843   0.565   0.603   0.409   0.378   0.409
   0.603   0.565   0.843   0.608   1.441   1.004   1.143   1.565   0.553   1.050
   0.903   0.912   0.799   1.017   0.984   1.181   0.861   1.181   0.984   1.017
   0.799   0.912   0.903   1.050   0.553   1.565   1.143   1.004   1.441   0.608
   0.843   0.565   0.603   0.409   0.378   0.409   0.603   0.565   0.843   0.608
   1.441   1.004   1.143   1.565   0.553   1.050   0.903   0.912   0.799   1.017
   0.984   1.181
   0.976   1.651   0.977   1.649   1.401   1.348   1.012   1.694   0.703   2.131
   1.927   0.581   1.032   0.625   0.777   1.399   0.956   0.614   0.885   0.614
   0.956   1.399   0.777   0.625   1.032   0.581   1.927   2.131   0.703   1.694
   1.012   1.348   1.401   1.649   0.977   1.651   0.976   1.651   0.977   1.649
   1.401   1.348   1.012   1.694   0.703   2.131   1.927   0.581   1.032   0.625
   0.777   1.399   0.956   0.614   0.885   0.614   0.956   1.399   0.777   0.625
   1.032   0.581   1.927   2.131   0.703   1.694   1.012   1.348   1.401   1.649
   0.977   1.651
   0.491   1.257   0.719   1.480   1.802   1.164   0.729   1.163   0.681   1.423
   1.300   0.339   0.515   0.696   1.206   1.434   0.610   0.807   0.886   0.807
   0.610   1.434   1.206   0.696   0.515   0.339   1.300   1.423   0.681   1.163
   0.729   1.164   1.802   1.480   0.719   1.257   0.491   1.257   0.719   1.480
   1.802   1.164   0.729   1.163   0.681   1.423   1.300   0.339   0.515   0.696
   1.206   1.434   0.610   0.807   0.886   0.807   0.610   1.434   1.206   0.696
   0.515   0.339   1.300   1.423   0.681   1.163   0.729   1.164   1.802   1.480
   0.719   1.257
   0.941   1.203   1.522   1.255   1.757   1.302   0.941   1.769   1.280   1.554
   0.985   1.892   1.526   1.052   2.488   1.438   0.427   0.849   0.819   0.849
   0.427   1.438   2.488   1.052   1.526   1.892   0.985   1.554   1.280   1.769
   0.941   1.302   1.757   1.255   1.522   1.203   0.941   1.203   1.522   1.255
   1.757   1.302   0.941   1.769   1.280   1.554   0.985   1.892   1.526   1.052
   2.488   1.438   0.427   0.849   0.819   0.849   0.427   1.438   2.488   1.052
   1.526   1.892   0.985   1.554   1.280   1.769   0.941   1.302   1.757   1.255
   1.522   1.203
 200       5.00   72    0 5.00   15    0
   1.545   1.545   1.545   1.545   1.545   1.545   1.545   1.545   1.545   1.545
   1.545   1.545   1.545   1.545   1.545   1.545   1.545   1.545   1.545   1.545
   1.545   1.545   1.545   1.545   1.545   1.545   1.545   1.545   1.545   1.545
   1.545   1.545   1.545   1.545   1.545   1.545   1.545   1.545   1.545   1.545
   1.545   1.545   1.545   1.545   1.545   1.545   1.545   1.545   1.545   1.545
   1.545   1.545   1.545   1.545   1.545   1.545   1.545   1.545   1.545   1.545
   1.545   1.545   1.545   1.545   1.545   1.545   1.545   1.545   1.545   1.545
   1.545   1.545
   1.505   1.443   1.347   1.614   1.456   1.686   1.992   1.449   1.232   1.165
   1.032   1.120   1.148   1.183   1.106   1.253   1.636   1.381   1.503   1.381
   1.636   1.253   1.106   1.183   1.148   1.120   1.032   1.165   1.232   1.449
   1.992   1.686   1.456   1.614   1.347   1.443   1.505   1.443   1.347   1.614
   1.456   1.686   1.992   1.449   1.232   1.165   1.032   1.120   1.148   1.183
   1.106   1.253   1.636   1.381   1.503   1.381   1.636   1.253   1.106   1.183
   1.148   1.120   1.032   1.165   1.232   1.449   1.992   1.686   1.456   1.614
   1.347   1.443
   1.631   1.460   1.539   1.550   1.331   1.475   1.832   1.544   1.278   1.134
   1.032   1.245   1.364   1.164   1.211   1.230   1.426   1.395   1.465   1.395
   1.426   1.230   1.211   1.164   1.364   1.245   1.032   1.134   1.278   1.544
   1.832   1.475   1.331   1.550   1.539   1.460   1.631   1.460   1.539   1.550
   1.331   1.475   1.832   1.544   1.278   1.134   1.032   1.245   1.364   1.164
   1.211   1.230   1.426   1.395   1.465   1.395   1.426   1.230   1.211   1.164
   1.364   1.245   1.032   1.134   1.278   1.544   1.832   1.475   1.331   1.550
   1.539   1.460
   1.991   1.694   1.500   1.369   1.366   1.220   1.345   1.266   1.144   1.315
   1.426   1.500   1.355   0.930   1.006   1.032   1.134   1.134   1.040   1.134
   1.134   1.032   1.006   0.930   1.355   1.500   1.426   1.315   1.144   1.266
   1.345   1.220   1.366   1.369   1.500   1.694   1.991   1.694   1.500   1.369
   1.366   1.220   1.345   1.266   1.144   1.315   1.426   1.500   1.355   0.930
   1.006   1.032   1.134   1.134   1.040   1.134   1.134   1.032   1.006   0.930
   1.355   1.500   1.426   1.315   1.144   1.266   1.345   1.220   1.366   1.369
   1.500   1.694
   1.769   1.464   1.196   1.011   1.274   1.132   1.274   1.062   1.211   1.512
   1.409   1.497   1.040   0.785   0.874   1.117   1.283   0.889   1.017   0.889
   1.283   1.117   0.874   0.785   1.040   1.497   1.409   1.512   1.211   1.062
   1.274   1.132   1.274   1.011   1.196   1.464   1.769   1.464   1.196   1.011
   1.274   1.132   1.274   1.062   1.211   1.512   1.409   1.497   1.040   0.785
   0.874   1.117   1.283   0.889   1.017   0.889   1.283   1.117   0.874   0.785
   1.040   1.497   1.409   1.512   1.211   1.062   1.274   1.132   1.274   1.011
   1.196   1.464
   1.478   1.456   1.219   0.816   0.999   1.114   1.075   1.254   1.126   1.223
   1.196   1.199   1.210   0.864   1.151   0.889   0.990   0.752   0.967   0.752
   0.990   0.889   1.151   0.864   1.210   1.199   1.196   1.223   1.126   1.254
   1.075   1.114   0.999   0.816   1.219   1.456   1.478   1.456   1.219   0.816
   0.999   1.114   1.075   1.254   1.126   1.223   1.196   1.200   1.210   0.864
   1.151   0.889   0.990   0.752   0.967   0.752   0.990   0.889   1.151   0.864
   1.210   1.199   1.196   1.223   1.126   1.254   1.075   1.114   0.999   0.816
   1.219   1.456
   1.232   1.429   0.939   0.719   0.988   1.079   0.956   1.261   0.693   0.842
   1.006   1.170   1.135   0.696   1.018   0.950   1.008   1.143   0.851   1.143
   1.008   0.950   1.018   0.696   1.135   1.170   1.006   0.842   0.693   1.261
   0.956   1.079   0.988   0.719   0.939   1.429   1.232   1.429   0.939   0.719
   0.988   1.079   0.956   1.261   0.693   0.842   1.006   1.170   1.135   0.696
   1.018   0.950   1.008   1.143   0.851   1.143   1.008   0.950   1.018   0.696
   1.135   1.170   1.006   0.842   0.693   1.261   0.956   1.079   0.988   0.719
   0.939   1.429
   0.843   0.997   0.708   0.840   0.823   0.576   0.763   1.075   0.717   0.761
   0.788   1.078   0.767   0.452   1.052   0.974   1.016   0.922   0.697   0.922
   1.016   0.974   1.052   0.452   0.767   1.078   0.788   0.761   0.717   1.075
   0.763   0.576   0.823   0.840   0.708   0.997   0.843   0.997   0.708   0.840
   0.823   0.576   0.763   1.075   0.717   0.761   0.788   1.078   0.767   0.452
   1.052   0.974   1.016   0.922   0.697   0.922   1.016   0.974   1.052   0.452
   0.767   1.078   0.788   0.761   0.717   1.075   0.763   0.576   0.823   0.840
   0.708   0.997
   0.561   0.786   0.457   0.692   0.383   0.351   0.718   0.555   0.791   1.020
   0.572   0.907   0.631   0.493   1.017   0.748   0.689   0.528   1.062   0.528
   0.689   0.748   1.017   0.493   0.631   0.907   0.572   1.020   0.791   0.555
   0.718   0.351   0.383   0.692   0.457   0.786   0.561   0.786   0.457   0.692
   0.383   0.351   0.718   0.555   0.791   1.020   0.572   0.907   0.631   0.493
   1.017   0.748   0.689   0.528   1.062   0.528   0.689   0.748   1.017   0.493
   0.631   0.907   0.572   1.020   0.791   0.555   0.718   0.351   0.383   0.692
   0.457   0.786
   0.688   0.637   0.491   0.380   0.238   0.526   0.841   0.807   0.779   0.763
   0.681   0.930   0.645   0.647   0.418   0.584   0.487   0.808   0.913   0.808
   0.487   0.584   0.418   0.647   0.645   0.930   0.681   0.763   0.779   0.807
   0.841   0.526   0.238   0.380   0.491   0.637   0.688   0.637   0.491   0.380
   0.238   0.526   0.841   0.807   0.779   0.763   0.681   0.930   0.645   0.647
   0.418   0.584   0.487   0.808   0.913   0.808   0.487   0.584   0.418   0.647
   0.645   0.930   0.681   0.763   0.779   0.807   0.841   0.526   0.238   0.380
   0.491   0.637
   0.587   1.107   0.789   0.843   0.319   0.846   0.643   0.958   1.001   0.616
   0.723   0.760   0.741   0.970   0.235   0.376   0.315   0.851   0.590   0.851
   0.315   0.376   0.235   0.970   0.741   0.760   0.723   0.616   1.001   0.958
   0.643   0.846   0.319   0.843   0.789   1.107   0.587   1.107   0.789   0.843
   0.319   0.846   0.643   0.958   1.001   0.616   0.723   0.760   0.741   0.970
   0.235   0.376   0.315   0.851   0.590   0.851   0.315   0.376   0.235   0.970
   0.741   0.760   0.723   0.616   1.001   0.958   0.643   0.846   0.319   0.843
   0.789   1.107
   1.100   1.825   1.141   1.421   0.857   1.742   0.547   1.201   0.973   0.660
   0.798   0.815   0.938   1.188   0.876   0.547   0.645   1.015   1.213   1.015
   0.645   0.547   0.876   1.188   0.938   0.815   0.798   0.660   0.973   1.201
   0.547   1.742   0.857   1.421   1.141   1.825   1.100   1.825   1.141   1.421
   0.857   1.742   0.547   1.201   0.973   0.660   0.798   0.815   0.938   1.188
   0.876   0.547   0.645   1.015   1.213   1.015   0.645   0.547   0.876   1.188
   0.938   0.815   0.798   0.660   0.973   1.201   0.547   1.742   0.857   1.421
   1.141   1.825
   1.886   1.445   1.050   1.247   1.405   1.801   0.824   1.686   1.066   1.192
   0.798   0.716   1.482   1.715   1.388   0.642   1.482   1.665   0.955   1.665
   1.482   0.642   1.388   1.715   1.482   0.716   0.798   1.192   1.066   1.686
   0.824   1.801   1.405   1.247   1.050   1.445   1.886   1.445   1.050   1.247
   1.405   1.801   0.824   1.686   1.066   1.192   0.798   0.716   1.482   1.715
   1.388   0.642   1.482   1.665   0.955   1.665   1.482   0.642   1.388   1.715
   1.482   0.716   0.798   1.192   1.066   1.686   0.824   1.801   1.405   1.247
   1.050   1.445
   0.930   1.175   1.158   0.654   1.582   1.016   0.796   0.868   1.011   2.155
   1.002   0.643   0.907   1.417   1.551   0.574   1.316   1.560   0.690   1.560
   1.316   0.574   1.551   1.417   0.907   0.643   1.002   2.155   1.011   0.868
   0.796   1.016   1.582   0.654   1.158   1.175   0.930   1.175   1.158   0.654
   1.582   1.016   0.796   0.868   1.011   2.155   1.002   0.643   0.907   1.417
   1.551   0.574   1.316   1.560   0.690   1.560   1.316   0.574   1.551   1.417
   0.907   0.643   1.002   2.155   1.011   0.868   0.796   1.016   1.582   0.654
   1.158   1.175
   0.579   1.465   0.914   0.329   1.721   0.411   0.678   0.465   0.332   2.165
   1.134   0.723   0.756   0.747   1.790   0.654   0.952   0.567   0.525   0.567
   0.952   0.654   1.790   0.747   0.756   0.723   1.134   2.165   0.332   0.465
   0.678   0.411   1.721   0.329   0.914   1.465   0.579   1.465   0.914   0.329
   1.721   0.411   0.678   0.465   0.332   2.165   1.134   0.723   0.756   0.747
   1.790   0.654   0.952   0.567   0.525   0.567   0.952   0.654   1.790   0.747
   0.756   0.723   1.134   2.165   0.332   0.465   0.678   0.411   1.721   0.329
   0.914   1.465
 111       5.00   72    0 5.00   15    0
   0.672   0.672   0.672   0.672   0.672   0.672   0.672   0.672   0.672   0.672
   0.672   0.672   0.672   0.672   0.672   0.672   0.672   0.672   0.672   0.672
   0.672   0.672   0.672   0.672   0.672   0.672   0.672   0.672   0.672   0.672
   0.672   0.672   0.672   0.672   0.672   0.672   0.672   0.672   0.672   0.672
   0.672   0.672   0.672   0.672   0.672   0.672   0.672   0.672   0.672   0.672
   0.672   0.672   0.672   0.672   0.672   0.672   0.672   0.672   0.672   0.672
   0.672   0.672   0.672   0.672   0.672   0.672   0.672   0.672   0.672   0.672
   0.672   0.672
   0.491   0.645   0.747   0.611   0.555   0.578   0.719   0.599   0.772   0.673
   0.763   0.589   0.538   0.542   0.667   0.633   0.644   0.727   0.777   0.727
   0.644   0.633   0.667   0.542   0.538   0.589   0.763   0.673   0.772   0.599
   0.719   0.578   0.555   0.611   0.747   0.645   0.491   0.645   0.747   0.611
   0.555   0.578   0.719   0.599   0.772   0.673   0.763   0.589   0.538   0.542
   0.667   0.633   0.644   0.727   0.777   0.727   0.644   0.633   0.667   0.542
   0.538   0.589   0.763   0.673   0.772   0.599   0.719   0.578   0.555   0.611
   0.747   0.645
   0.684   0.640   0.808   0.749   0.578   0.599   0.756   0.643   0.747   0.763
   0.908   0.624   0.582   0.615   0.643   0.636   0.632   0.676   0.536   0.676
   0.632   0.636   0.643   0.615   0.582   0.624   0.908   0.763   0.747   0.643
   0.756   0.599   0.578   0.749   0.808   0.640   0.684   0.640   0.808   0.749
   0.578   0.599   0.756   0.643   0.747   0.763   0.908   0.624   0.582   0.615
   0.643   0.636   0.632   0.676   0.536   0.676   0.632   0.636   0.643   0.615
   0.582   0.624   0.908   0.763   0.747   0.643   0.756   0.599   0.578   0.749
   0.808   0.640
   0.754   0.717   0.681   0.748   0.763   0.663   0.752   0.683   0.875   0.894
   0.900   0.665   0.691   0.670   0.755   0.754   0.675   0.656   0.519   0.656
   0.675   0.754   0.755   0.670   0.691   0.665   0.900   0.894   0.875   0.683
   0.752   0.663   0.763   0.748   0.681   0.717   0.754   0.717   0.681   0.748
   0.763   0.663   0.752   0.683   0.875   0.894   0.900   0.665   0.691   0.670
   0.755   0.754   0.675   0.656   0.519   0.656   0.675   0.754   0.755   0.670
   0.691   0.665   0.900   0.894   0.875   0.683   0.752   0.663   0.763   0.748
   0.681   0.717
   0.882   0.856   0.718   0.878   0.876   0.842   0.729   0.669   0.809   0.874
   0.941   0.769   0.794   0.759   0.901   0.956   0.900   0.758   0.655   0.758
   0.900   0.956   0.901   0.759   0.794   0.769   0.941   0.874   0.809   0.669
   0.729   0.842   0.876   0.878   0.718   0.856   0.882   0.856   0.718   0.878
   0.876   0.842   0.729   0.669   0.809   0.874   0.941   0.769   0.794   0.759
   0.901   0.956   0.900   0.758   0.655   0.758   0.900   0.956   0.901   0.759
   0.794   0.769   0.941   0.874   0.809   0.669   0.729   0.842   0.876   0.878
   0.718   0.856
   1.235   0.875   1.054   1.226   0.872   0.990   0.856   0.689   0.686   0.842
   0.830   0.771   0.901   0.844   0.827   0.882   0.960   1.021   0.794   1.021
   0.960   0.882   0.827   0.844   0.901   0.771   0.830   0.842   0.686   0.689
   0.856   0.990   0.872   1.226   1.054   0.875   1.235   0.875   1.054   1.226
   0.872   0.990   0.856   0.689   0.686   0.842   0.830   0.771   0.901   0.844
   0.827   0.882   0.960   1.021   0.794   1.021   0.960   0.882   0.827   0.844
   0.901   0.771   0.830   0.842   0.686   0.689   0.856   0.990   0.872   1.226
   1.054   0.875
   1.240   1.108   1.182   1.272   1.029   1.172   0.852   0.663   0.755   0.967
   0.737   0.770   0.867   0.784   0.786   0.671   0.652   1.032   0.778   1.032
   0.652   0.671   0.786   0.784   0.867   0.770   0.737   0.967   0.755   0.663
   0.852   1.172   1.029   1.272   1.182   1.108   1.240   1.108   1.182   1.272
   1.029   1.172   0.852   0.663   0.755   0.967   0.737   0.770   0.867   0.784
   0.786   0.671   0.652   1.032   0.778   1.032   0.652   0.671   0.786   0.784
   0.867   0.770   0.737   0.967   0.755   0.663   0.852   1.172   1.029   1.272
   1.182   1.108
   1.040   1.155   0.996   1.211   1.075   1.048   0.913   0.873   0.705   0.951
   0.731   0.976   0.884   0.783   0.856   0.830   0.604   0.834   0.702   0.834
   0.604   0.830   0.856   0.783   0.884   0.976   0.731   0.951   0.705   0.873
   0.913   1.048   1.075   1.211   0.996   1.155   1.040   1.155   0.996   1.211
   1.075   1.048   0.913   0.873   0.705   0.951   0.731   0.976   0.884   0.783
   0.856   0.830   0.604   0.834   0.702   0.834   0.604   0.830   0.856   0.783
   0.884   0.976   0.731   0.951   0.705   0.873   0.913   1.048   1.075   1.211
   0.996   1.155
   0.876   1.116   1.155   1.315   1.254   0.875   1.350   1.104   0.879   1.050
   0.993   1.121   1.126   1.017   0.763   1.079   0.835   0.833   0.824   0.833
   0.835   1.079   0.763   1.017   1.126   1.121   0.993   1.050   0.879   1.104
   1.350   0.875   1.254   1.315   1.155   1.116   0.876   1.116   1.155   1.315
   1.254   0.875   1.350   1.104   0.879   1.050   0.993   1.121   1.126   1.017
   0.763   1.079   0.835   0.833   0.824   0.833   0.835   1.079   0.763   1.017
   1.126   1.121   0.993   1.050   0.879   1.104   1.350   0.875   1.254   1.315
   1.155   1.116
   0.762   1.351   1.411   1.349   1.221   1.116   1.250   1.206   1.377   1.344
   1.400   1.088   1.093   1.160   1.012   1.077   1.017   1.233   1.457   1.233
   1.017   1.077   1.012   1.160   1.093   1.088   1.400   1.344   1.377   1.206
   1.250   1.116   1.221   1.349   1.411   1.351   0.762   1.351   1.411   1.349
   1.221   1.116   1.250   1.206   1.377   1.344   1.400   1.088   1.093   1.160
   1.012   1.077   1.017   1.233   1.457   1.233   1.017   1.077   1.012   1.160
   1.093   1.088   1.400   1.344   1.377   1.206   1.250   1.116   1.221   1.349
   1.411   1.351
   0.497   1.002   1.173   1.305   1.020   1.094   0.801   1.289   1.281   1.236
   1.413   0.948   0.647   1.078   1.073   0.859   1.257   1.223   1.693   1.223
   1.257   0.859   1.073   1.078   0.647   0.948   1.413   1.236   1.281   1.289
   0.801   1.094   1.020   1.305   1.173   1.002   0.497   1.002   1.173   1.305
   1.020   1.094   0.801   1.289   1.281   1.236   1.413   0.948   0.647   1.078
   1.073   0.859   1.257   1.223   1.693   1.223   1.257   0.859   1.073   1.078
   0.647   0.948   1.413   1.236   1.281   1.289   0.801   1.094   1.020   1.305
   1.173   1.002
   0.294   0.877   0.917   0.937   0.930   0.828   0.719   1.009   0.996   1.184
   1.184   1.019   0.468   0.920   0.920   0.890   1.362   1.121   0.931   1.121
   1.362   0.890   0.920   0.920   0.468   1.019   1.184   1.184   0.996   1.009
   0.719   0.828   0.930   0.937   0.917   0.877   0.294   0.877   0.917   0.937
   0.930   0.828   0.719   1.009   0.996   1.184   1.184   1.019   0.468   0.920
   0.920   0.890   1.362   1.121   0.931   1.121   1.362   0.890   0.920   0.920
   0.468   1.019   1.184   1.184   0.996   1.009   0.719   0.828   0.930   0.937
   0.917   0.877
   0.920   1.328   0.988   0.823   1.005   0.580   1.189   1.005   1.011   0.868
   0.817   0.895   0.582   1.355   1.006   0.969   1.252   1.007   0.201   1.007
   1.252   0.969   1.006   1.355   0.582   0.895   0.817   0.868   1.011   1.005
   1.189   0.580   1.005   0.823   0.988   1.328   0.920   1.328   0.988   0.823
   1.005   0.580   1.189   1.005   1.011   0.868   0.817   0.895   0.582   1.355
   1.006   0.969   1.252   1.007   0.201   1.007   1.252   0.969   1.006   1.355
   0.582   0.895   0.817   0.868   1.011   1.005   1.189   0.580   1.005   0.823
   0.988   1.328
   1.621   1.314   1.263   1.289   1.181   0.605   1.283   1.216   0.700   0.928
   0.651   0.664   0.638   1.254   1.199   1.308   1.242   0.822   0.557   0.822
   1.242   1.308   1.199   1.254   0.638   0.664   0.651   0.928   0.700   1.216
   1.283   0.605   1.181   1.289   1.263   1.314   1.621   1.314   1.263   1.289
   1.181   0.605   1.283   1.216   0.700   0.928   0.651   0.664   0.638   1.254
   1.199   1.308   1.242   0.822   0.557   0.822   1.242   1.308   1.199   1.254
   0.638   0.664   0.651   0.928   0.700   1.216   1.283   0.605   1.181   1.289
   1.263   1.314
   1.879   1.033   1.670   1.600   1.165   0.746   1.296   1.164   1.229   1.041
   0.721   0.939   1.122   0.939   1.644   1.739   1.225   1.104   2.196   1.104
   1.225   1.739   1.644   0.939   1.122   0.939   0.721   1.041   1.229   1.164
   1.296   0.746   1.165   1.600   1.670   1.033   1.879   1.033   1.670   1.600
   1.165   0.746   1.296   1.164   1.229   1.041   0.721   0.939   1.122   0.939
   1.644   1.739   1.225   1.104   2.196   1.104   1.225   1.739   1.644   0.939
   1.122   0.939   0.721   1.041   1.229   1.164   1.296   0.746   1.165   1.600
   1.670   1.033
  4  1      4.5033748E-01
  4  2      7.6140437E-03
  4  3     -3.3367842E-02
  6  1     -6.1766267E-02
  6  2     -2.0606427E-01
  6  3     -1.7064886E-01
  6  4      8.4640578E-02
  8  1     -3.3981162E-01
  8  2      1.8588023E-01
  8  3     -5.9948870E-02
  8  4      7.2095442E-02
  8  5      8.4566148E-02
 10  1      3.3466660E-01
 10  2     -3.0831373E-01
 10  3      2.9418238E-01
 10  4     -1.7445107E-02
 10  5     -9.8313497E-03
 10  6      5.7880085E-01
 12  1      6.4946087E-01 -1.2871366E-01
 12  2      6.5784976E-03 -2.2344639E-01
 12  3      2.2965882E-01 -4.8004367E-02
 12  4      2.1648843E-01 -2.7962330E-02
 12  5      3.7192552E-02  4.1763042E-01
 12  6      2.3147527E-01  1.1195523E-01
 12  7     -4.7967471E-01 -1.6146029E+00
 14  1     -1.2558392E-02
 14  2      2.0950181E-03
 14  3      1.6718958E-01
 14  4     -1.7709335E-01
 14  5     -1.1195363E-01
 14  6      2.2787049E-01
 14  7     -3.7163758E-01
 14  8      2.1885794E-01
 220       5.00   72    0 5.00   18    0
   0.490   0.490   0.491   0.491   0.492   0.492   0.493   0.494   0.495   0.496
   0.497   0.498   0.499   0.500   0.501   0.501   0.502   0.502   0.502   0.502
   0.502   0.501   0.501   0.500   0.499   0.498   0.497   0.496   0.495   0.494
   0.493   0.492   0.492   0.491   0.491   0.490   0.490   0.490   0.491   0.491
   0.492   0.492   0.493   0.494   0.495   0.496   0.497   0.498   0.499   0.500
   0.501   0.501   0.502   0.502   0.502   0.502   0.502   0.501   0.501   0.500
   0.499   0.498   0.497   0.496   0.495   0.494   0.493   0.492   0.492   0.491
   0.491   0.490
   0.633   0.634   0.636   0.639   0.644   0.649   0.656   0.662   0.670   0.677
   0.685   0.692   0.699   0.705   0.710   0.715   0.718   0.720   0.720   0.720
   0.718   0.715   0.710   0.705   0.699   0.692   0.685   0.677   0.670   0.662
   0.656   0.649   0.644   0.639   0.636   0.634   0.633   0.634   0.636   0.639
   0.644   0.649   0.656   0.662   0.670   0.677   0.685   0.692   0.699   0.705
   0.710   0.715   0.718   0.720   0.720   0.720   0.718   0.715   0.710   0.705
   0.699   0.692   0.685   0.677   0.670   0.662   0.656   0.649   0.644   0.639
   0.636   0.634
   0.829   0.831   0.835   0.843   0.853   0.865   0.878   0.891   0.905   0.918
   0.931   0.944   0.955   0.966   0.975   0.983   0.989   0.992   0.994   0.992
   0.989   0.983   0.975   0.966   0.955   0.944   0.931   0.918   0.905   0.891
   0.878   0.865   0.853   0.843   0.835   0.831   0.829   0.831   0.835   0.843
   0.853   0.865   0.878   0.891   0.905   0.918   0.931   0.944   0.955   0.966
   0.975   0.983   0.989   0.992   0.994   0.992   0.989   0.983   0.975   0.966
   0.955   0.944   0.931   0.918   0.905   0.891   0.878   0.865   0.853   0.843
   0.835   0.831
   0.962   0.965   0.975   0.989   1.006   1.024   1.041   1.057   1.070   1.080
   1.088   1.096   1.103   1.111   1.119   1.126   1.133   1.137   1.139   1.137
   1.133   1.126   1.119   1.111   1.103   1.096   1.088   1.080   1.070   1.057
   1.041   1.024   1.006   0.989   0.975   0.965   0.962   0.965   0.975   0.989
   1.006   1.024   1.041   1.057   1.070   1.080   1.088   1.096   1.103   1.111
   1.119   1.126   1.133   1.137   1.139   1.137   1.133   1.126   1.119   1.111
   1.103   1.096   1.088   1.080   1.070   1.057   1.041   1.024   1.006   0.989
   0.975   0.965
   0.972   0.978   0.995   1.020   1.049   1.077   1.099   1.113   1.118   1.114
   1.105   1.095   1.088   1.085   1.087   1.093   1.100   1.105   1.108   1.105
   1.100   1.093   1.087   1.085   1.088   1.095   1.105   1.114   1.118   1.113
   1.099   1.077   1.049   1.020   0.995   0.978   0.972   0.978   0.995   1.020
   1.049   1.077   1.099   1.113   1.118   1.114   1.105   1.095   1.088   1.085
   1.087   1.093   1.100   1.105   1.108   1.105   1.100   1.093   1.087   1.085
   1.088   1.095   1.105   1.114   1.118   1.113   1.099   1.077   1.049   1.020
   0.995   0.978
   0.899   0.908   0.933   0.970   1.013   1.054   1.085   1.100   1.097   1.078
   1.048   1.017   0.992   0.977   0.975   0.983   0.995   1.005   1.009   1.005
   0.995   0.983   0.975   0.977   0.992   1.017   1.048   1.078   1.097   1.100
   1.085   1.054   1.013   0.970   0.933   0.908   0.899   0.908   0.933   0.970
   1.013   1.054   1.085   1.100   1.097   1.078   1.048   1.017   0.992   0.977
   0.975   0.983   0.995   1.005   1.009   1.005   0.995   0.983   0.975   0.977
   0.992   1.017   1.048   1.078   1.097   1.100   1.085   1.054   1.013   0.970
   0.933   0.908
   0.845   0.853   0.876   0.914   0.961   1.012   1.055   1.081   1.083   1.060
   1.019   0.975   0.939   0.922   0.925   0.941   0.963   0.980   0.986   0.980
   0.963   0.941   0.925   0.922   0.939   0.975   1.019   1.060   1.083   1.081
   1.055   1.012   0.961   0.914   0.876   0.853   0.845   0.853   0.876   0.914
   0.961   1.012   1.055   1.081   1.083   1.060   1.019   0.975   0.939   0.922
   0.925   0.941   0.963   0.980   0.986   0.980   0.963   0.941   0.925   0.922
   0.939   0.975   1.019   1.060   1.083   1.081   1.055   1.012   0.961   0.914
   0.876   0.853
   0.886   0.885   0.888   0.900   0.929   0.975   1.031   1.080   1.104   1.096
   1.061   1.015   0.980   0.969   0.982   1.010   1.041   1.063   1.071   1.063
   1.041   1.010   0.982   0.969   0.980   1.015   1.061   1.096   1.104   1.080
   1.031   0.975   0.929   0.900   0.888   0.885   0.886   0.885   0.888   0.900
   0.929   0.975   1.031   1.080   1.104   1.096   1.061   1.015   0.980   0.969
   0.982   1.010   1.041   1.063   1.071   1.063   1.041   1.010   0.982   0.969
   0.980   1.015   1.061   1.096   1.104   1.080   1.031   0.975   0.929   0.900
   0.888   0.885
   1.003   0.990   0.957   0.922   0.910   0.936   0.999   1.078   1.140   1.160
   1.136   1.090   1.054   1.048   1.070   1.105   1.135   1.152   1.157   1.152
   1.135   1.105   1.070   1.048   1.054   1.090   1.136   1.160   1.140   1.078
   0.999   0.936   0.910   0.922   0.957   0.990   1.003   0.990   0.957   0.922
   0.910   0.936   0.999   1.078   1.140   1.160   1.136   1.090   1.054   1.048
   1.070   1.105   1.135   1.152   1.157   1.152   1.135   1.105   1.070   1.048
   1.054   1.090   1.136   1.160   1.140   1.078   0.999   0.936   0.910   0.922
   0.957   0.990
   1.105   1.083   1.024   0.949   0.892   0.888   0.951   1.058   1.158   1.204
   1.181   1.119   1.067   1.057   1.081   1.111   1.122   1.116   1.111   1.116
   1.122   1.111   1.081   1.057   1.067   1.119   1.181   1.204   1.158   1.058
   0.951   0.888   0.892   0.949   1.024   1.083   1.105   1.083   1.024   0.949
   0.892   0.888   0.951   1.058   1.158   1.204   1.181   1.119   1.067   1.057
   1.081   1.111   1.122   1.116   1.111   1.116   1.122   1.111   1.081   1.057
   1.067   1.119   1.181   1.204   1.158   1.058   0.951   0.888   0.892   0.949
   1.024   1.083
   1.108   1.095   1.051   0.977   0.897   0.860   0.907   1.025   1.152   1.210
   1.170   1.072   0.991   0.972   0.998   1.016   0.991   0.943   0.918   0.943
   0.991   1.016   0.998   0.972   0.991   1.072   1.170   1.210   1.152   1.025
   0.907   0.860   0.897   0.977   1.051   1.095   1.108   1.095   1.051   0.977
   0.897   0.860   0.907   1.025   1.152   1.210   1.170   1.072   0.991   0.972
   0.998   1.016   0.991   0.943   0.918   0.943   0.991   1.016   0.998   0.972
   0.991   1.072   1.170   1.210   1.152   1.025   0.907   0.860   0.897   0.977
   1.051   1.095
   1.016   1.035   1.061   1.042   0.965   0.888   0.890   0.994   1.131   1.195
   1.132   0.994   0.886   0.872   0.918   0.931   0.862   0.755   0.703   0.755
   0.862   0.931   0.918   0.872   0.886   0.994   1.132   1.195   1.131   0.994
   0.890   0.888   0.965   1.042   1.061   1.035   1.016   1.035   1.061   1.042
   0.965   0.888   0.890   0.994   1.131   1.195   1.132   0.994   0.886   0.872
   0.918   0.931   0.862   0.755   0.703   0.755   0.862   0.931   0.918   0.872
   0.886   0.994   1.132   1.195   1.131   0.994   0.890   0.888   0.965   1.042
   1.061   1.035
   0.903   0.969   1.101   1.169   1.104   0.968   0.896   0.962   1.104   1.181
   1.108   0.943   0.830   0.852   0.949   0.979   0.869   0.696   0.612   0.696
   0.869   0.979   0.949   0.852   0.830   0.943   1.108   1.181   1.104   0.962
   0.896   0.968   1.104   1.169   1.101   0.969   0.903   0.969   1.101   1.169
   1.104   0.968   0.896   0.962   1.104   1.181   1.108   0.943   0.830   0.852
   0.949   0.979   0.869   0.696   0.612   0.696   0.869   0.979   0.949   0.852
   0.830   0.943   1.108   1.181   1.104   0.962   0.896   0.968   1.104   1.169
   1.101   0.969
   0.836   0.946   1.176   1.319   1.250   1.040   0.886   0.917   1.077   1.183
   1.115   0.938   0.836   0.918   1.094   1.165   1.028   0.792   0.676   0.792
   1.028   1.165   1.094   0.918   0.836   0.938   1.115   1.183   1.077   0.917
   0.886   1.040   1.250   1.319   1.176   0.946   0.836   0.946   1.176   1.319
   1.250   1.040   0.886   0.917   1.077   1.183   1.115   0.938   0.836   0.918
   1.094   1.165   1.028   0.792   0.676   0.792   1.028   1.165   1.094   0.918
   0.836   0.938   1.115   1.183   1.077   0.917   0.886   1.040   1.250   1.319
   1.176   0.946
   0.814   0.949   1.231   1.401   1.305   1.029   0.822   0.853   1.058   1.206
   1.141   0.940   0.839   0.976   1.238   1.364   1.215   0.927   0.784   0.927
   1.215   1.364   1.238   0.976   0.839   0.940   1.141   1.206   1.058   0.853
   0.822   1.029   1.305   1.401   1.231   0.949   0.814   0.949   1.231   1.401
   1.305   1.029   0.822   0.853   1.058   1.206   1.141   0.940   0.839   0.976
   1.238   1.364   1.215   0.927   0.784   0.927   1.215   1.364   1.238   0.976
   0.839   0.940   1.141   1.206   1.058   0.853   0.822   1.029   1.305   1.401
   1.231   0.949
   0.794   0.929   1.204   1.351   1.216   0.908   0.704   0.785   1.059   1.246
   1.161   0.906   0.769   0.931   1.260   1.439   1.290   0.966   0.802   0.966
   1.290   1.439   1.260   0.931   0.769   0.906   1.161   1.246   1.059   0.785
   0.704   0.908   1.216   1.351   1.204   0.929   0.794   0.929   1.204   1.351
   1.216   0.908   0.704   0.785   1.059   1.246   1.161   0.906   0.769   0.931
   1.260   1.439   1.290   0.966   0.802   0.966   1.290   1.439   1.260   0.931
   0.769   0.906   1.161   1.246   1.059   0.785   0.704   0.908   1.216   1.351
   1.204   0.929
   0.749   0.869   1.104   1.203   1.035   0.730   0.573   0.733   1.079   1.291
   1.167   0.834   0.637   0.790   1.155   1.372   1.228   0.885   0.708   0.885
   1.228   1.372   1.155   0.790   0.637   0.834   1.167   1.291   1.079   0.733
   0.573   0.730   1.035   1.203   1.104   0.869   0.749   0.869   1.104   1.203
   1.035   0.730   0.573   0.733   1.079   1.291   1.167   0.834   0.637   0.790
   1.155   1.372   1.228   0.885   0.708   0.885   1.228   1.372   1.155   0.790
   0.637   0.834   1.167   1.291   1.079   0.733   0.573   0.730   1.035   1.203
   1.104   0.869
   0.707   0.813   1.013   1.076   0.891   0.600   0.488   0.707   1.100   1.322
   1.165   0.774   0.528   0.665   1.043   1.278   1.139   0.787   0.604   0.787
   1.139   1.278   1.043   0.665   0.528   0.774   1.165   1.322   1.100   0.707
   0.488   0.600   0.891   1.076   1.013   0.813   0.707   0.813   1.013   1.076
   0.891   0.600   0.488   0.707   1.100   1.322   1.165   0.774   0.528   0.665
   1.043   1.278   1.139   0.787   0.604   0.787   1.139   1.278   1.043   0.665
   0.528   0.774   1.165   1.322   1.100   0.707   0.488   0.600   0.891   1.076
   1.013   0.813
 200       5.00   72    0 5.00   18    0
   1.374   1.374   1.373   1.373   1.372   1.372   1.371   1.370   1.369   1.368
   1.366   1.365   1.364   1.364   1.363   1.362   1.362   1.361   1.361   1.361
   1.362   1.362   1.363   1.364   1.364   1.365   1.366   1.368   1.369   1.370
   1.371   1.372   1.372   1.373   1.373   1.374   1.374   1.374   1.373   1.373
   1.372   1.372   1.371   1.370   1.369   1.368   1.366   1.365   1.364   1.364
   1.363   1.362   1.362   1.361   1.361   1.361   1.362   1.362   1.363   1.364
   1.364   1.365   1.366   1.368   1.369   1.370   1.371   1.372   1.372   1.373
   1.373   1.374
   1.304   1.303   1.301   1.297   1.292   1.286   1.279   1.271   1.263   1.254
   1.245   1.236   1.227   1.219   1.212   1.207   1.202   1.200   1.199   1.200
   1.202   1.207   1.212   1.219   1.227   1.236   1.245   1.254   1.263   1.271
   1.279   1.286   1.292   1.297   1.301   1.303   1.304   1.303   1.301   1.297
   1.292   1.286   1.279   1.271   1.263   1.254   1.245   1.236   1.227   1.219
   1.212   1.207   1.202   1.200   1.199   1.200   1.202   1.207   1.212   1.219
   1.227   1.236   1.245   1.254   1.263   1.271   1.279   1.286   1.292   1.297
   1.301   1.303
   1.251   1.249   1.244   1.235   1.224   1.210   1.194   1.177   1.158   1.139
   1.118   1.097   1.076   1.056   1.038   1.022   1.010   1.002   1.000   1.002
   1.010   1.022   1.038   1.056   1.076   1.097   1.118   1.139   1.158   1.177
   1.194   1.210   1.224   1.235   1.244   1.249   1.251   1.249   1.244   1.235
   1.224   1.210   1.194   1.177   1.158   1.139   1.118   1.097   1.076   1.056
   1.038   1.022   1.010   1.002   1.000   1.002   1.010   1.022   1.038   1.056
   1.076   1.097   1.118   1.139   1.158   1.177   1.194   1.210   1.224   1.235
   1.244   1.249
   1.295   1.291   1.280   1.263   1.242   1.219   1.196   1.174   1.151   1.127
   1.101   1.073   1.041   1.008   0.975   0.945   0.921   0.906   0.900   0.906
   0.921   0.945   0.975   1.008   1.041   1.073   1.101   1.127   1.151   1.174
   1.196   1.219   1.242   1.263   1.280   1.291   1.295   1.291   1.280   1.263
   1.242   1.219   1.196   1.174   1.151   1.127   1.101   1.073   1.041   1.008
   0.975   0.945   0.921   0.906   0.900   0.906   0.921   0.945   0.975   1.008
   1.041   1.073   1.101   1.127   1.151   1.174   1.196   1.219   1.242   1.263
   1.280   1.291
   1.404   1.396   1.373   1.340   1.304   1.271   1.245   1.227   1.215   1.205
   1.190   1.167   1.134   1.092   1.045   0.999   0.961   0.936   0.927   0.936
   0.961   0.999   1.045   1.092   1.134   1.167   1.190   1.205   1.215   1.227
   1.245   1.271   1.304   1.340   1.373   1.396   1.404   1.396   1.373   1.340
   1.304   1.271   1.245   1.227   1.215   1.205   1.190   1.167   1.134   1.092
   1.045   0.999   0.961   0.936   0.927   0.936   0.961   0.999   1.045   1.092
   1.134   1.167   1.190   1.205   1.215   1.227   1.245   1.271   1.304   1.340
   1.373   1.396
   1.442   1.427   1.387   1.333   1.278   1.237   1.217   1.218   1.235   1.255
   1.267   1.262   1.235   1.189   1.133   1.077   1.029   0.997   0.986   0.997
   1.029   1.077   1.133   1.189   1.235   1.262   1.267   1.255   1.235   1.218
   1.217   1.237   1.278   1.333   1.387   1.427   1.442   1.427   1.387   1.333
   1.278   1.237   1.217   1.218   1.235   1.255   1.267   1.262   1.235   1.189
   1.133   1.077   1.029   0.997   0.986   0.997   1.029   1.077   1.133   1.189
   1.235   1.262   1.267   1.255   1.235   1.218   1.217   1.237   1.278   1.333
   1.387   1.427
   1.290   1.270   1.216   1.145   1.080   1.041   1.038   1.070   1.124   1.181
   1.221   1.231   1.208   1.160   1.102   1.047   1.005   0.980   0.971   0.980
   1.005   1.047   1.102   1.160   1.208   1.231   1.221   1.181   1.124   1.070
   1.038   1.041   1.080   1.145   1.216   1.270   1.290   1.270   1.216   1.145
   1.080   1.041   1.038   1.070   1.124   1.181   1.221   1.231   1.208   1.160
   1.102   1.047   1.005   0.980   0.971   0.980   1.005   1.047   1.102   1.160
   1.208   1.231   1.221   1.181   1.124   1.070   1.038   1.041   1.080   1.145
   1.216   1.270
   0.980   0.959   0.903   0.834   0.778   0.756   0.779   0.841   0.924   1.001
   1.050   1.057   1.026   0.974   0.922   0.888   0.874   0.874   0.875   0.874
   0.874   0.888   0.922   0.974   1.026   1.057   1.050   1.001   0.924   0.841
   0.779   0.756   0.778   0.834   0.903   0.959   0.980   0.959   0.903   0.834
   0.778   0.756   0.779   0.841   0.924   1.001   1.050   1.057   1.026   0.974
   0.922   0.888   0.874   0.874   0.875   0.874   0.874   0.888   0.922   0.974
   1.026   1.057   1.050   1.001   0.924   0.841   0.779   0.756   0.778   0.834
   0.903   0.959
   0.705   0.688   0.643   0.591   0.557   0.559   0.600   0.673   0.755   0.824
   0.857   0.846   0.801   0.747   0.712   0.713   0.745   0.784   0.800   0.784
   0.745   0.713   0.712   0.747   0.801   0.846   0.857   0.824   0.755   0.673
   0.600   0.559   0.557   0.591   0.643   0.688   0.705   0.688   0.643   0.591
   0.557   0.559   0.600   0.673   0.755   0.824   0.857   0.846   0.801   0.747
   0.712   0.713   0.745   0.784   0.800   0.784   0.745   0.713   0.712   0.747
   0.801   0.846   0.857   0.824   0.755   0.673   0.600   0.559   0.557   0.591
   0.643   0.688
   0.665   0.651   0.616   0.580   0.563   0.574   0.612   0.664   0.714   0.747
   0.753   0.729   0.683   0.642   0.632   0.671   0.744   0.816   0.846   0.816
   0.744   0.671   0.632   0.642   0.683   0.729   0.753   0.747   0.714   0.664
   0.612   0.574   0.563   0.580   0.616   0.651   0.665   0.651   0.616   0.580
   0.563   0.574   0.612   0.664   0.714   0.747   0.753   0.729   0.683   0.642
   0.632   0.671   0.744   0.816   0.846   0.816   0.744   0.671   0.632   0.642
   0.683   0.729   0.753   0.747   0.714   0.664   0.612   0.574   0.563   0.580
   0.616   0.651
   0.877   0.862   0.827   0.789   0.766   0.765   0.778   0.791   0.793   0.785
   0.771   0.753   0.735   0.728   0.747   0.802   0.884   0.960   0.991   0.960
   0.884   0.802   0.747   0.728   0.735   0.753   0.771   0.785   0.793   0.791
   0.778   0.765   0.766   0.789   0.827   0.862   0.877   0.862   0.827   0.789
   0.766   0.765   0.778   0.791   0.793   0.785   0.771   0.753   0.735   0.728
   0.747   0.802   0.884   0.960   0.991   0.960   0.884   0.802   0.747   0.728
   0.735   0.753   0.771   0.785   0.793   0.791   0.778   0.765   0.766   0.789
   0.827   0.862
   1.141   1.126   1.086   1.036   0.993   0.969   0.958   0.946   0.920   0.885
   0.860   0.860   0.885   0.923   0.964   1.007   1.051   1.087   1.101   1.087
   1.051   1.007   0.964   0.923   0.885   0.860   0.860   0.885   0.920   0.946
   0.958   0.969   0.993   1.036   1.086   1.126   1.141   1.126   1.086   1.036
   0.993   0.969   0.958   0.946   0.920   0.885   0.860   0.860   0.885   0.923
   0.964   1.007   1.051   1.087   1.101   1.087   1.051   1.007   0.964   0.923
   0.885   0.860   0.860   0.885   0.920   0.946   0.958   0.969   0.993   1.036
   1.086   1.126
   1.207   1.204   1.187   1.145   1.085   1.039   1.025   1.033   1.028   0.996
   0.958   0.954   1.000   1.072   1.128   1.139   1.112   1.075   1.059   1.075
   1.112   1.139   1.128   1.072   1.000   0.954   0.958   0.996   1.028   1.033
   1.025   1.039   1.085   1.145   1.187   1.204   1.207   1.204   1.187   1.145
   1.085   1.039   1.025   1.033   1.028   0.996   0.958   0.954   1.000   1.072
   1.128   1.139   1.112   1.075   1.059   1.075   1.112   1.139   1.128   1.072
   1.000   0.954   0.958   0.996   1.028   1.033   1.025   1.039   1.085   1.145
   1.187   1.204
   0.998   1.035   1.101   1.112   1.045   0.965   0.955   1.027   1.104   1.111
   1.047   0.987   1.001   1.081   1.153   1.145   1.051   0.937   0.887   0.937
   1.051   1.145   1.153   1.081   1.001   0.987   1.047   1.111   1.104   1.027
   0.955   0.965   1.045   1.112   1.101   1.035   0.998   1.035   1.101   1.112
   1.045   0.965   0.955   1.027   1.104   1.111   1.047   0.987   1.001   1.081
   1.153   1.145   1.051   0.937   0.887   0.937   1.051   1.145   1.153   1.081
   1.001   0.987   1.047   1.111   1.104   1.027   0.955   0.965   1.045   1.112
   1.101   1.035
   0.671   0.779   0.995   1.105   1.019   0.857   0.816   0.961   1.166   1.246
   1.147   0.983   0.910   0.976   1.084   1.099   0.982   0.819   0.744   0.819
   0.982   1.099   1.084   0.976   0.910   0.983   1.147   1.246   1.166   0.961
   0.816   0.857   1.019   1.105   0.995   0.779   0.671   0.779   0.995   1.105
   1.019   0.857   0.816   0.961   1.166   1.246   1.147   0.983   0.910   0.976
   1.084   1.099   0.982   0.819   0.744   0.819   0.982   1.099   1.084   0.976
   0.910   0.983   1.147   1.246   1.166   0.961   0.816   0.857   1.019   1.105
   0.995   0.779
   0.454   0.653   1.056   1.282   1.145   0.831   0.691   0.882   1.225   1.404
   1.277   0.991   0.809   0.856   1.025   1.115   1.030   0.858   0.773   0.858
   1.030   1.115   1.025   0.856   0.809   0.991   1.277   1.404   1.225   0.882
   0.691   0.831   1.145   1.282   1.056   0.653   0.454   0.653   1.056   1.282
   1.145   0.831   0.691   0.882   1.225   1.404   1.277   0.991   0.809   0.856
   1.025   1.115   1.030   0.858   0.773   0.858   1.030   1.115   1.025   0.856
   0.809   0.991   1.277   1.404   1.225   0.882   0.691   0.831   1.145   1.282
   1.056   0.653
   0.430   0.714   1.291   1.611   1.398   0.900   0.622   0.819   1.276   1.551
   1.413   1.028   0.752   0.788   1.030   1.216   1.194   1.042   0.958   1.042
   1.194   1.216   1.030   0.788   0.752   1.028   1.413   1.551   1.276   0.819
   0.622   0.900   1.398   1.611   1.291   0.714   0.430   0.714   1.291   1.611
   1.398   0.900   0.622   0.819   1.276   1.551   1.413   1.028   0.752   0.788
   1.030   1.216   1.194   1.042   0.958   1.042   1.194   1.216   1.030   0.788
   0.752   1.028   1.413   1.551   1.276   0.819   0.622   0.900   1.398   1.611
   1.291   0.714
   0.491   0.826   1.506   1.878   1.607   0.980   0.599   0.786   1.305   1.641
   1.504   1.064   0.736   0.770   1.062   1.315   1.342   1.212   1.132   1.212
   1.342   1.315   1.062   0.770   0.736   1.064   1.504   1.641   1.305   0.786
   0.599   0.980   1.607   1.878   1.506   0.826   0.491   0.826   1.506   1.878
   1.607   0.980   0.599   0.786   1.305   1.641   1.504   1.064   0.736   0.770
   1.062   1.315   1.342   1.212   1.132   1.212   1.342   1.315   1.062   0.770
   0.736   1.064   1.504   1.641   1.305   0.786   0.599   0.980   1.607   1.878
   1.506   0.826
 111       5.00   72    0 5.00   18    0
   0.843   0.843   0.844   0.844   0.845   0.846   0.848   0.849   0.851   0.852
   0.854   0.855   0.857   0.858   0.859   0.860   0.861   0.861   0.861   0.861
   0.861   0.860   0.859   0.858   0.857   0.855   0.854   0.852   0.851   0.849
   0.848   0.846   0.845   0.844   0.844   0.843   0.843   0.843   0.844   0.844
   0.845   0.846   0.848   0.849   0.851   0.852   0.854   0.855   0.857   0.858
   0.859   0.860   0.861   0.861   0.861   0.861   0.861   0.860   0.859   0.858
   0.857   0.855   0.854   0.852   0.851   0.849   0.848   0.846   0.845   0.844
   0.844   0.843
   0.781   0.782   0.786   0.791   0.799   0.808   0.818   0.829   0.841   0.853
   0.865   0.876   0.887   0.896   0.904   0.910   0.915   0.917   0.918   0.917
   0.915   0.910   0.904   0.896   0.887   0.876   0.865   0.853   0.841   0.829
   0.818   0.808   0.799   0.791   0.786   0.782   0.781   0.782   0.786   0.791
   0.799   0.808   0.818   0.829   0.841   0.853   0.865   0.876   0.887   0.896
   0.904   0.910   0.915   0.917   0.918   0.917   0.915   0.910   0.904   0.896
   0.887   0.876   0.865   0.853   0.841   0.829   0.818   0.808   0.799   0.791
   0.786   0.782
   0.721   0.723   0.729   0.739   0.753   0.771   0.790   0.812   0.834   0.857
   0.879   0.898   0.916   0.931   0.943   0.953   0.959   0.963   0.965   0.963
   0.959   0.953   0.943   0.931   0.916   0.898   0.879   0.857   0.834   0.812
   0.790   0.771   0.753   0.739   0.729   0.723   0.721   0.723   0.729   0.739
   0.753   0.771   0.790   0.812   0.834   0.857   0.879   0.898   0.916   0.931
   0.943   0.953   0.959   0.963   0.965   0.963   0.959   0.953   0.943   0.931
   0.916   0.898   0.879   0.857   0.834   0.812   0.790   0.771   0.753   0.739
   0.729   0.723
   0.750   0.751   0.754   0.760   0.769   0.782   0.798   0.818   0.839   0.861
   0.882   0.900   0.915   0.926   0.934   0.940   0.943   0.944   0.945   0.944
   0.943   0.940   0.934   0.926   0.915   0.900   0.882   0.861   0.839   0.818
   0.798   0.782   0.769   0.760   0.754   0.751   0.750   0.751   0.754   0.760
   0.769   0.782   0.798   0.818   0.839   0.861   0.882   0.900   0.915   0.926
   0.934   0.940   0.943   0.944   0.945   0.944   0.943   0.940   0.934   0.926
   0.915   0.900   0.882   0.861   0.839   0.818   0.798   0.782   0.769   0.760
   0.754   0.751
   0.920   0.915   0.903   0.886   0.869   0.856   0.848   0.848   0.854   0.862
   0.871   0.879   0.883   0.885   0.885   0.885   0.885   0.885   0.885   0.885
   0.885   0.885   0.885   0.885   0.883   0.879   0.871   0.862   0.854   0.848
   0.848   0.856   0.869   0.886   0.903   0.915   0.920   0.915   0.903   0.886
   0.869   0.856   0.848   0.848   0.854   0.862   0.871   0.879   0.883   0.885
   0.885   0.885   0.885   0.885   0.885   0.885   0.885   0.885   0.885   0.885
   0.883   0.879   0.871   0.862   0.854   0.848   0.848   0.856   0.869   0.886
   0.903   0.915
   1.183   1.170   1.132   1.079   1.020   0.966   0.924   0.897   0.881   0.872
   0.866   0.859   0.852   0.848   0.848   0.854   0.863   0.872   0.875   0.872
   0.863   0.854   0.848   0.848   0.852   0.859   0.866   0.872   0.881   0.897
   0.924   0.966   1.020   1.079   1.132   1.170   1.183   1.170   1.132   1.079
   1.020   0.966   0.924   0.897   0.881   0.872   0.866   0.859   0.852   0.848
   0.848   0.854   0.863   0.872   0.875   0.872   0.863   0.854   0.848   0.848
   0.852   0.859   0.866   0.872   0.881   0.897   0.924   0.966   1.020   1.079
   1.132   1.170
   1.402   1.381   1.322   1.238   1.147   1.065   1.002   0.961   0.937   0.919
   0.901   0.881   0.862   0.855   0.866   0.895   0.934   0.966   0.979   0.966
   0.934   0.895   0.866   0.855   0.862   0.881   0.901   0.919   0.937   0.961
   1.002   1.065   1.147   1.238   1.322   1.381   1.402   1.381   1.322   1.238
   1.147   1.065   1.002   0.961   0.937   0.919   0.901   0.881   0.862   0.855
   0.866   0.895   0.934   0.966   0.979   0.966   0.934   0.895   0.866   0.855
   0.862   0.881   0.901   0.919   0.937   0.961   1.002   1.065   1.147   1.238
   1.322   1.381
   1.441   1.418   1.356   1.270   1.181   1.108   1.060   1.037   1.028   1.018
   0.995   0.960   0.924   0.907   0.927   0.987   1.067   1.136   1.163   1.136
   1.067   0.987   0.927   0.907   0.924   0.960   0.995   1.018   1.028   1.037
   1.060   1.108   1.181   1.270   1.356   1.418   1.441   1.418   1.356   1.270
   1.181   1.108   1.060   1.037   1.028   1.018   0.995   0.960   0.924   0.907
   0.927   0.987   1.067   1.136   1.163   1.136   1.067   0.987   0.927   0.907
   0.924   0.960   0.995   1.018   1.028   1.037   1.060   1.108   1.181   1.270
   1.356   1.418
   1.282   1.265   1.219   1.161   1.110   1.080   1.077   1.095   1.120   1.131
   1.115   1.069   1.012   0.975   0.989   1.064   1.176   1.276   1.316   1.276
   1.176   1.064   0.989   0.975   1.012   1.069   1.115   1.131   1.120   1.095
   1.077   1.080   1.110   1.161   1.219   1.265   1.282   1.265   1.219   1.161
   1.110   1.080   1.077   1.095   1.120   1.131   1.115   1.069   1.012   0.975
   0.989   1.064   1.176   1.276   1.316   1.276   1.176   1.064   0.989   0.975
   1.012   1.069   1.115   1.131   1.120   1.095   1.077   1.080   1.110   1.161
   1.219   1.265
   1.051   1.041   1.016   0.992   0.984   1.002   1.043   1.097   1.150   1.184
   1.185   1.147   1.084   1.029   1.023   1.085   1.196   1.303   1.347   1.303
   1.196   1.085   1.023   1.029   1.084   1.147   1.185   1.184   1.150   1.097
   1.043   1.002   0.984   0.992   1.016   1.041   1.051   1.041   1.016   0.992
   0.984   1.002   1.043   1.097   1.150   1.184   1.185   1.147   1.084   1.029
   1.023   1.085   1.196   1.303   1.347   1.303   1.196   1.085   1.023   1.029
   1.084   1.147   1.185   1.184   1.150   1.097   1.043   1.002   0.984   0.992
   1.016   1.041
   0.922   0.913   0.892   0.879   0.889   0.927   0.983   1.042   1.094   1.132
   1.152   1.145   1.111   1.067   1.046   1.074   1.146   1.223   1.257   1.223
   1.146   1.074   1.046   1.067   1.111   1.145   1.152   1.132   1.094   1.042
   0.983   0.927   0.889   0.879   0.892   0.913   0.922   0.913   0.892   0.879
   0.889   0.927   0.983   1.042   1.094   1.132   1.152   1.145   1.111   1.067
   1.046   1.074   1.146   1.223   1.257   1.223   1.146   1.074   1.046   1.067
   1.111   1.145   1.152   1.132   1.094   1.042   0.983   0.927   0.889   0.879
   0.892   0.913
   0.972   0.957   0.922   0.890   0.884   0.909   0.952   0.989   1.007   1.015
   1.030   1.057   1.086   1.100   1.098   1.094   1.101   1.117   1.125   1.117
   1.101   1.094   1.098   1.100   1.086   1.057   1.030   1.015   1.007   0.989
   0.952   0.909   0.884   0.890   0.922   0.957   0.972   0.957   0.922   0.890
   0.884   0.909   0.952   0.989   1.007   1.015   1.030   1.057   1.086   1.100
   1.098   1.094   1.101   1.117   1.125   1.117   1.101   1.094   1.098   1.100
   1.086   1.057   1.030   1.015   1.007   0.989   0.952   0.909   0.884   0.890
   0.922   0.957
   1.121   1.104   1.058   1.002   0.962   0.960   0.989   1.010   0.989   0.935
   0.897   0.924   1.017   1.127   1.190   1.180   1.117   1.051   1.023   1.051
   1.117   1.180   1.190   1.127   1.017   0.924   0.897   0.935   0.989   1.010
   0.989   0.960   0.962   1.002   1.058   1.104   1.121   1.104   1.058   1.002
   0.962   0.960   0.989   1.010   0.989   0.935   0.897   0.924   1.017   1.127
   1.190   1.180   1.117   1.051   1.023   1.051   1.117   1.180   1.190   1.127
   1.017   0.924   0.897   0.935   0.989   1.010   0.989   0.960   0.962   1.002
   1.058   1.104
   1.211   1.208   1.185   1.126   1.055   1.025   1.059   1.108   1.085   0.967
   0.829   0.791   0.911   1.122   1.285   1.300   1.175   1.017   0.946   1.017
   1.175   1.300   1.285   1.122   0.911   0.791   0.829   0.967   1.085   1.108
   1.059   1.025   1.055   1.126   1.185   1.208   1.211   1.208   1.185   1.126
   1.055   1.025   1.059   1.108   1.085   0.967   0.829   0.791   0.911   1.122
   1.285   1.300   1.175   1.017   0.946   1.017   1.175   1.300   1.285   1.122
   0.911   0.791   0.829   0.967   1.085   1.108   1.059   1.025   1.055   1.126
   1.185   1.208
   1.134   1.168   1.215   1.187   1.082   1.010   1.063   1.194   1.241   1.098
   0.842   0.681   0.768   1.054   1.326   1.383   1.204   0.949   0.833   0.949
   1.204   1.383   1.326   1.054   0.768   0.681   0.842   1.098   1.241   1.194
   1.063   1.010   1.082   1.187   1.215   1.168   1.134   1.168   1.215   1.187
   1.082   1.010   1.063   1.194   1.241   1.098   0.842   0.681   0.768   1.054
   1.326   1.383   1.204   0.949   0.833   0.949   1.204   1.383   1.326   1.054
   0.768   0.681   0.842   1.098   1.241   1.194   1.063   1.010   1.082   1.187
   1.215   1.168
   0.907   0.994   1.146   1.165   1.012   0.866   0.927   1.172   1.353   1.245
   0.894   0.590   0.602   0.924   1.284   1.381   1.151   0.803   0.640   0.803
   1.151   1.381   1.284   0.924   0.602   0.590   0.894   1.245   1.353   1.172
   0.927   0.866   1.012   1.165   1.146   0.994   0.907   0.994   1.146   1.165
   1.012   0.866   0.927   1.172   1.353   1.245   0.894   0.590   0.602   0.924
   1.284   1.381   1.151   0.803   0.640   0.803   1.151   1.381   1.284   0.924
   0.602   0.590   0.894   1.245   1.353   1.172   0.927   0.866   1.012   1.165
   1.146   0.994
   0.645   0.785   1.037   1.098   0.884   0.646   0.693   1.045   1.375   1.341
   0.938   0.516   0.445   0.775   1.191   1.314   1.037   0.611   0.410   0.611
   1.037   1.314   1.191   0.775   0.445   0.516   0.938   1.341   1.375   1.045
   0.693   0.646   0.884   1.098   1.037   0.785   0.645   0.785   1.037   1.098
   0.884   0.646   0.693   1.045   1.375   1.341   0.938   0.516   0.445   0.775
   1.191   1.314   1.037   0.611   0.410   0.611   1.037   1.314   1.191   0.775
   0.445   0.516   0.938   1.341   1.375   1.045   0.693   0.646   0.884   1.098
   1.037   0.785
   0.476   0.648   0.962   1.045   0.787   0.480   0.510   0.924   1.352   1.378
   0.958   0.470   0.349   0.675   1.116   1.249   0.945   0.472   0.249   0.472
   0.945   1.249   1.116   0.675   0.349   0.470   0.958   1.378   1.352   0.924
   0.510   0.480   0.787   1.045   0.962   0.648   0.476   0.648   0.962   1.045
   0.787   0.480   0.510   0.924   1.352   1.378   0.958   0.470   0.349   0.675
   1.116   1.249   0.945   0.472   0.249   0.472   0.945   1.249   1.116   0.675
   0.349   0.470   0.958   1.378   1.352   0.924   0.510   0.480   0.787   1.045
   0.962   0.648
TEXTURE_INDEX=   1.2262
ERR_CF 220         1080     284   32.68   16.70
ERR_CF 200         1080     612   24.98   15.75
ERR_CF 111         1080     384   21.02   11.95
