TEXEVAL                                                                         
Analysis started on 08-Jul-19 10:14:37                                          
 LMAX=14LFMAX=03 CUBIC ORTHO   
 220      5.00 5.00
 200      5.00 5.00
 111      5.00 5.00
 220       5.00   72    0 5.00   15    0
   0.830   0.830   0.830   0.830   0.830   0.830   0.830   0.830   0.830   0.830
   0.830   0.830   0.830   0.830   0.830   0.830   0.830   0.830   0.830   0.830
   0.830   0.830   0.830   0.830   0.830   0.830   0.830   0.830   0.830   0.830
   0.830   0.830   0.830   0.830   0.830   0.830   0.830   0.830   0.830   0.830
   0.830   0.830   0.830   0.830   0.830   0.830   0.830   0.830   0.830   0.830
   0.830   0.830   0.830   0.830   0.830   0.830   0.830   0.830   0.830   0.830
   0.830   0.830   0.830   0.830   0.830   0.830   0.830   0.830   0.830   0.830
   0.830   0.830
   0.972   1.045   0.835   0.977   0.841   1.037   0.865   0.837   0.887   0.971
   0.831   0.860   0.876   0.833   0.855   0.798   0.687   0.773   0.848   0.773
   0.687   0.798   0.855   0.833   0.876   0.860   0.831   0.971   0.887   0.837
   0.865   1.037   0.841   0.977   0.835   1.045   0.972   1.045   0.835   0.977
   0.841   1.037   0.865   0.837   0.887   0.971   0.831   0.860   0.876   0.833
   0.855   0.798   0.687   0.773   0.848   0.773   0.687   0.798   0.855   0.833
   0.876   0.860   0.831   0.971   0.887   0.837   0.865   1.037   0.841   0.977
   0.835   1.045
   1.200   1.013   0.884   1.039   0.975   1.097   0.977   1.121   1.059   1.050
   0.885   1.029   1.114   1.045   0.920   0.794   0.921   0.847   0.850   0.847
   0.921   0.794   0.920   1.045   1.114   1.029   0.885   1.050   1.059   1.121
   0.977   1.097   0.975   1.039   0.884   1.013   1.200   1.013   0.884   1.039
   0.975   1.097   0.977   1.121   1.059   1.050   0.885   1.029   1.114   1.045
   0.920   0.794   0.921   0.847   0.850   0.847   0.921   0.794   0.920   1.045
   1.114   1.029   0.885   1.050   1.059   1.121   0.977   1.097   0.975   1.039
   0.884   1.013
   1.341   1.185   1.266   1.000   1.134   1.172   1.080   1.206   1.153   1.066
   1.133   1.085   1.027   1.207   1.013   0.872   1.089   0.989   0.881   0.989
   1.089   0.872   1.013   1.207   1.027   1.085   1.133   1.066   1.153   1.206
   1.080   1.172   1.134   1.000   1.266   1.185   1.341   1.185   1.266   1.000
   1.134   1.172   1.080   1.206   1.153   1.066   1.133   1.085   1.027   1.207
   1.013   0.872   1.089   0.989   0.881   0.989   1.089   0.872   1.013   1.207
   1.027   1.085   1.133   1.066   1.153   1.206   1.080   1.172   1.134   1.000
   1.266   1.185
   1.337   1.424   1.635   1.167   1.445   1.279   1.200   1.254   1.201   1.188
   1.249   1.237   0.967   1.133   1.075   0.994   1.005   1.103   1.063   1.103
   1.005   0.994   1.075   1.133   0.967   1.237   1.249   1.188   1.201   1.254
   1.200   1.279   1.445   1.167   1.635   1.424   1.337   1.424   1.635   1.167
   1.445   1.279   1.200   1.254   1.201   1.188   1.249   1.237   0.967   1.133
   1.075   0.994   1.005   1.103   1.063   1.103   1.005   0.994   1.075   1.133
   0.967   1.237   1.249   1.188   1.201   1.254   1.200   1.279   1.445   1.167
   1.635   1.424
   1.517   1.530   1.739   1.597   1.903   1.503   1.587   1.713   1.322   1.303
   1.101   1.373   1.311   1.340   1.136   1.066   1.036   1.376   1.354   1.376
   1.036   1.066   1.136   1.340   1.311   1.373   1.101   1.303   1.322   1.713
   1.587   1.503   1.903   1.597   1.739   1.530   1.517   1.530   1.739   1.597
   1.903   1.503   1.587   1.713   1.322   1.303   1.101   1.373   1.311   1.340
   1.136   1.066   1.036   1.376   1.354   1.376   1.036   1.066   1.136   1.340
   1.311   1.373   1.101   1.303   1.322   1.713   1.587   1.503   1.903   1.597
   1.739   1.530
   1.399   1.359   1.598   1.607   1.762   1.377   1.750   1.701   1.339   1.279
   1.131   1.417   1.263   1.358   1.310   1.125   1.003   1.350   1.227   1.350
   1.003   1.125   1.310   1.358   1.263   1.417   1.131   1.279   1.339   1.701
   1.750   1.377   1.762   1.607   1.598   1.359   1.399   1.359   1.598   1.607
   1.762   1.377   1.750   1.701   1.339   1.279   1.131   1.417   1.263   1.358
   1.310   1.125   1.003   1.350   1.227   1.350   1.003   1.125   1.310   1.358
   1.263   1.417   1.131   1.279   1.339   1.701   1.750   1.377   1.762   1.607
   1.598   1.359
   1.222   1.101   1.194   1.110   1.320   1.094   1.620   1.450   1.279   1.347
   1.237   1.249   1.002   0.963   1.197   1.109   0.952   0.827   0.734   0.827
   0.952   1.109   1.197   0.963   1.002   1.249   1.237   1.347   1.279   1.450
   1.620   1.094   1.320   1.110   1.194   1.101   1.222   1.101   1.194   1.110
   1.320   1.094   1.620   1.450   1.279   1.347   1.237   1.249   1.002   0.963
   1.197   1.109   0.952   0.827   0.734   0.827   0.952   1.109   1.197   0.963
   1.002   1.249   1.237   1.347   1.279   1.450   1.620   1.094   1.320   1.110
   1.194   1.101
   0.904   1.063   0.829   0.842   1.144   1.072   1.452   1.400   1.432   1.480
   1.130   1.184   0.857   0.854   0.921   0.929   1.041   0.613   0.787   0.613
   1.041   0.929   0.921   0.854   0.857   1.184   1.130   1.480   1.432   1.400
   1.452   1.072   1.144   0.842   0.829   1.063   0.904   1.063   0.829   0.842
   1.144   1.072   1.452   1.400   1.432   1.480   1.130   1.184   0.857   0.854
   0.921   0.929   1.041   0.613   0.787   0.613   1.041   0.929   0.921   0.854
   0.857   1.184   1.130   1.480   1.432   1.400   1.452   1.072   1.144   0.842
   0.829   1.063
   0.759   0.928   0.932   1.003   1.072   1.031   1.222   1.418   1.326   1.344
   1.286   1.148   1.216   1.149   1.196   1.051   1.153   0.855   0.998   0.855
   1.153   1.051   1.196   1.149   1.216   1.148   1.286   1.344   1.326   1.418
   1.222   1.031   1.072   1.003   0.932   0.928   0.759   0.928   0.932   1.003
   1.072   1.031   1.222   1.418   1.326   1.344   1.286   1.148   1.216   1.149
   1.196   1.051   1.153   0.855   0.998   0.855   1.153   1.051   1.196   1.149
   1.216   1.148   1.286   1.344   1.326   1.418   1.222   1.031   1.072   1.003
   0.932   0.928
   1.003   0.829   1.091   0.944   0.948   0.803   0.858   1.217   1.147   1.232
   1.328   1.106   1.310   1.335   1.021   1.091   1.213   0.758   1.003   0.758
   1.213   1.091   1.021   1.335   1.310   1.106   1.328   1.232   1.147   1.217
   0.858   0.803   0.948   0.944   1.091   0.829   1.003   0.829   1.091   0.944
   0.948   0.803   0.858   1.217   1.147   1.232   1.328   1.106   1.310   1.335
   1.021   1.091   1.213   0.758   1.003   0.758   1.213   1.091   1.021   1.335
   1.310   1.106   1.328   1.232   1.147   1.217   0.858   0.803   0.948   0.944
   1.091   0.829
   0.673   1.176   0.893   0.858   0.632   0.509   0.597   0.924   0.993   1.026
   1.080   1.125   1.010   0.761   0.946   1.006   1.098   0.536   1.209   0.536
   1.098   1.006   0.946   0.761   1.010   1.125   1.080   1.026   0.993   0.924
   0.597   0.509   0.632   0.858   0.893   1.176   0.673   1.176   0.893   0.858
   0.632   0.509   0.597   0.924   0.993   1.026   1.080   1.125   1.010   0.761
   0.946   1.006   1.098   0.536   1.209   0.536   1.098   1.006   0.946   0.761
   1.010   1.125   1.080   1.026   0.993   0.924   0.597   0.509   0.632   0.858
   0.893   1.176
   0.976   1.246   0.729   0.842   0.633   0.303   1.060   0.884   0.982   0.814
   0.871   0.799   1.360   0.866   1.194   1.162   0.666   0.561   0.870   0.561
   0.666   1.162   1.194   0.866   1.360   0.799   0.871   0.814   0.982   0.884
   1.060   0.303   0.633   0.842   0.729   1.246   0.976   1.246   0.729   0.842
   0.633   0.303   1.060   0.884   0.982   0.814   0.871   0.799   1.360   0.866
   1.194   1.162   0.666   0.561   0.870   0.561   0.666   1.162   1.194   0.866
   1.360   0.799   0.871   0.814   0.982   0.884   1.060   0.303   0.633   0.842
   0.729   1.246
   0.989   0.570   0.354   0.344   0.466   0.277   0.913   0.674   0.627   0.491
   0.737   0.452   1.073   1.003   0.801   1.019   0.709   0.532   0.550   0.532
   0.709   1.019   0.801   1.003   1.073   0.452   0.737   0.491   0.627   0.674
   0.913   0.277   0.466   0.344   0.354   0.570   0.989   0.570   0.354   0.344
   0.466   0.277   0.913   0.674   0.627   0.491   0.737   0.452   1.073   1.003
   0.801   1.019   0.709   0.532   0.550   0.532   0.709   1.019   0.801   1.003
   1.073   0.452   0.737   0.491   0.627   0.674   0.913   0.277   0.466   0.344
   0.354   0.570
   0.348   0.171   0.398   0.976   0.473   0.467   0.347   0.723   0.463   0.611
   0.971   0.445   0.436   0.773   1.375   1.250   1.100   0.400   0.736   0.400
   1.100   1.250   1.375   0.773   0.436   0.445   0.971   0.611   0.463   0.723
   0.347   0.467   0.473   0.976   0.398   0.171   0.348   0.171   0.398   0.976
   0.473   0.467   0.347   0.723   0.463   0.611   0.971   0.445   0.436   0.773
   1.375   1.250   1.100   0.400   0.736   0.400   1.100   1.250   1.375   0.773
   0.436   0.445   0.971   0.611   0.463   0.723   0.347   0.467   0.473   0.976
   0.398   0.171
 200       5.00   72    0 5.00   15    0
   1.960   1.960   1.960   1.960   1.960   1.960   1.960   1.960   1.960   1.960
   1.960   1.960   1.960   1.960   1.960   1.960   1.960   1.960   1.960   1.960
   1.960   1.960   1.960   1.960   1.960   1.960   1.960   1.960   1.960   1.960
   1.960   1.960   1.960   1.960   1.960   1.960   1.960   1.960   1.960   1.960
   1.960   1.960   1.960   1.960   1.960   1.960   1.960   1.960   1.960   1.960
   1.960   1.960   1.960   1.960   1.960   1.960   1.960   1.960   1.960   1.960
   1.960   1.960   1.960   1.960   1.960   1.960   1.960   1.960   1.960   1.960
   1.960   1.960
   1.937   1.975   2.093   2.084   2.092   1.982   1.866   1.964   1.880   1.672
   2.024   1.909   1.954   1.801   2.092   2.041   2.039   1.740   2.129   1.740
   2.039   2.041   2.092   1.801   1.954   1.909   2.024   1.672   1.880   1.964
   1.866   1.982   2.092   2.084   2.093   1.975   1.937   1.975   2.093   2.084
   2.092   1.982   1.866   1.964   1.880   1.672   2.024   1.909   1.954   1.801
   2.092   2.041   2.039   1.740   2.129   1.740   2.039   2.041   2.092   1.801
   1.954   1.909   2.024   1.672   1.880   1.964   1.866   1.982   2.092   2.084
   2.093   1.975
   1.665   1.757   1.815   1.898   1.678   1.825   1.701   1.534   1.555   1.579
   1.727   1.654   1.666   1.680   1.904   1.857   1.754   1.533   1.904   1.533
   1.754   1.857   1.904   1.680   1.666   1.654   1.727   1.579   1.555   1.534
   1.701   1.825   1.678   1.898   1.815   1.757   1.665   1.757   1.815   1.898
   1.678   1.825   1.701   1.534   1.555   1.579   1.727   1.654   1.666   1.680
   1.904   1.857   1.754   1.533   1.904   1.533   1.754   1.857   1.904   1.680
   1.666   1.654   1.727   1.579   1.555   1.534   1.701   1.825   1.678   1.898
   1.815   1.757
   1.813   1.725   1.640   1.720   1.578   1.686   1.601   1.461   1.398   1.470
   1.441   1.535   1.368   1.446   1.622   1.514   1.444   1.400   1.558   1.400
   1.444   1.514   1.622   1.446   1.368   1.535   1.441   1.470   1.398   1.461
   1.601   1.686   1.578   1.720   1.640   1.725   1.813   1.725   1.640   1.720
   1.578   1.686   1.601   1.461   1.398   1.470   1.441   1.535   1.368   1.446
   1.622   1.514   1.444   1.400   1.558   1.400   1.444   1.514   1.622   1.446
   1.368   1.535   1.441   1.470   1.398   1.461   1.601   1.686   1.578   1.720
   1.640   1.725
   1.658   1.616   1.349   1.571   1.691   1.370   1.429   1.443   1.193   1.137
   1.268   1.389   1.029   1.346   1.254   1.252   1.247   1.301   1.221   1.301
   1.247   1.252   1.254   1.346   1.029   1.389   1.268   1.137   1.193   1.443
   1.429   1.370   1.691   1.571   1.349   1.616   1.658   1.616   1.349   1.571
   1.691   1.370   1.429   1.443   1.193   1.137   1.268   1.389   1.029   1.346
   1.254   1.252   1.247   1.301   1.221   1.301   1.247   1.252   1.254   1.346
   1.029   1.389   1.268   1.137   1.193   1.443   1.429   1.370   1.691   1.571
   1.349   1.616
   1.271   1.422   1.044   1.164   1.343   1.048   1.041   1.271   1.027   0.938
   1.145   1.101   1.089   1.096   1.084   0.993   1.002   1.044   1.023   1.044
   1.002   0.993   1.084   1.096   1.089   1.101   1.145   0.938   1.027   1.271
   1.041   1.048   1.343   1.164   1.044   1.422   1.271   1.422   1.044   1.164
   1.343   1.048   1.041   1.271   1.027   0.938   1.145   1.101   1.089   1.096
   1.084   0.993   1.002   1.044   1.023   1.044   1.002   0.993   1.084   1.096
   1.089   1.101   1.145   0.938   1.027   1.271   1.041   1.048   1.343   1.164
   1.044   1.422
   1.321   1.213   1.125   1.083   1.017   0.929   0.890   1.156   0.918   0.918
   0.958   0.871   1.023   0.755   0.911   0.896   0.893   0.902   0.916   0.902
   0.893   0.896   0.911   0.755   1.023   0.871   0.958   0.918   0.918   1.156
   0.890   0.929   1.017   1.083   1.125   1.213   1.321   1.213   1.125   1.083
   1.017   0.929   0.890   1.156   0.918   0.918   0.958   0.871   1.023   0.755
   0.911   0.896   0.893   0.902   0.916   0.902   0.893   0.896   0.911   0.755
   1.023   0.871   0.958   0.918   0.918   1.156   0.890   0.929   1.017   1.083
   1.125   1.213
   1.202   0.923   1.167   1.195   0.954   1.005   0.976   1.060   0.752   0.998
   0.906   0.717   0.682   0.701   0.626   0.711   0.772   0.926   0.925   0.926
   0.772   0.711   0.626   0.701   0.682   0.717   0.906   0.998   0.752   1.060
   0.976   1.005   0.954   1.195   1.167   0.923   1.202   0.923   1.167   1.195
   0.954   1.005   0.976   1.060   0.752   0.998   0.906   0.717   0.682   0.701
   0.626   0.711   0.772   0.926   0.925   0.926   0.772   0.711   0.626   0.701
   0.682   0.717   0.906   0.998   0.752   1.060   0.976   1.005   0.954   1.195
   1.167   0.923
   1.131   1.049   1.222   1.256   0.825   1.059   0.987   0.732   0.630   0.918
   0.869   0.687   0.759   0.808   0.502   0.665   0.734   0.769   0.906   0.769
   0.734   0.665   0.502   0.808   0.759   0.687   0.869   0.918   0.630   0.732
   0.987   1.059   0.825   1.256   1.222   1.049   1.131   1.049   1.222   1.256
   0.825   1.059   0.987   0.732   0.630   0.918   0.869   0.687   0.759   0.808
   0.502   0.665   0.734   0.769   0.906   0.769   0.734   0.665   0.502   0.808
   0.759   0.687   0.869   0.918   0.630   0.732   0.987   1.059   0.825   1.256
   1.222   1.049
   1.367   1.203   1.221   1.111   1.029   1.200   0.904   0.804   0.709   0.693
   0.974   0.723   0.987   0.963   0.714   0.755   0.790   0.729   0.642   0.729
   0.790   0.755   0.714   0.963   0.987   0.723   0.974   0.693   0.709   0.804
   0.904   1.200   1.029   1.111   1.221   1.203   1.367   1.203   1.221   1.111
   1.029   1.200   0.904   0.804   0.709   0.693   0.974   0.723   0.987   0.963
   0.714   0.755   0.790   0.729   0.642   0.729   0.790   0.755   0.714   0.963
   0.987   0.723   0.974   0.693   0.709   0.804   0.904   1.200   1.029   1.111
   1.221   1.203
   1.504   1.363   1.136   0.896   0.987   1.266   0.723   0.601   1.003   0.614
   1.022   0.648   0.757   0.918   0.790   0.634   0.738   0.822   0.431   0.822
   0.738   0.634   0.790   0.918   0.757   0.648   1.022   0.614   1.003   0.601
   0.723   1.266   0.987   0.896   1.136   1.363   1.504   1.363   1.136   0.896
   0.987   1.266   0.723   0.601   1.003   0.614   1.022   0.648   0.757   0.918
   0.790   0.634   0.738   0.822   0.431   0.822   0.738   0.634   0.790   0.918
   0.757   0.648   1.022   0.614   1.003   0.601   0.723   1.266   0.987   0.896
   1.136   1.363
   1.271   1.040   1.054   1.075   0.867   0.835   0.694   0.650   1.003   0.769
   0.775   0.740   0.578   0.845   0.822   0.705   0.677   0.857   0.631   0.857
   0.677   0.705   0.822   0.845   0.578   0.740   0.775   0.769   1.003   0.650
   0.694   0.835   0.867   1.075   1.054   1.040   1.271   1.040   1.054   1.075
   0.867   0.835   0.694   0.650   1.003   0.769   0.775   0.740   0.578   0.845
   0.822   0.705   0.677   0.857   0.631   0.857   0.677   0.705   0.822   0.845
   0.578   0.740   0.775   0.769   1.003   0.650   0.694   0.835   0.867   1.075
   1.054   1.040
   1.281   1.000   1.010   1.173   1.107   0.810   0.916   0.936   0.971   0.788
   0.996   1.239   0.697   0.950   0.952   0.846   0.789   0.876   0.977   0.876
   0.789   0.846   0.952   0.950   0.697   1.239   0.996   0.788   0.971   0.936
   0.916   0.810   1.107   1.173   1.010   1.000   1.281   1.000   1.010   1.173
   1.107   0.810   0.916   0.936   0.971   0.788   0.996   1.239   0.697   0.950
   0.952   0.846   0.789   0.876   0.977   0.876   0.789   0.846   0.952   0.950
   0.697   1.239   0.996   0.788   0.971   0.936   0.916   0.810   1.107   1.173
   1.010   1.000
   1.534   1.075   1.039   1.073   0.934   0.831   0.742   0.737   0.963   0.793
   1.136   0.897   0.680   0.991   1.042   0.913   0.795   0.758   0.606   0.758
   0.795   0.913   1.042   0.991   0.680   0.897   1.136   0.793   0.963   0.737
   0.742   0.831   0.934   1.073   1.039   1.075   1.534   1.075   1.039   1.073
   0.934   0.831   0.742   0.737   0.963   0.793   1.136   0.897   0.680   0.991
   1.042   0.913   0.795   0.758   0.606   0.758   0.795   0.913   1.042   0.991
   0.680   0.897   1.136   0.793   0.963   0.737   0.742   0.831   0.934   1.073
   1.039   1.075
   1.185   0.800   0.916   0.907   0.866   0.684   0.484   0.687   0.895   1.261
   0.681   0.621   0.402   0.702   0.721   0.989   0.450   0.573   0.686   0.573
   0.450   0.989   0.721   0.702   0.402   0.621   0.681   1.261   0.895   0.687
   0.484   0.684   0.866   0.907   0.916   0.800   1.185   0.800   0.916   0.907
   0.866   0.684   0.484   0.687   0.895   1.261   0.681   0.621   0.402   0.702
   0.721   0.989   0.450   0.573   0.686   0.573   0.450   0.989   0.721   0.702
   0.402   0.621   0.681   1.261   0.895   0.687   0.484   0.684   0.866   0.907
   0.916   0.800
 111       5.00   72    0 5.00   15    0
   1.440   1.440   1.440   1.440   1.440   1.440   1.440   1.440   1.440   1.440
   1.440   1.440   1.440   1.440   1.440   1.440   1.440   1.440   1.440   1.440
   1.440   1.440   1.440   1.440   1.440   1.440   1.440   1.440   1.440   1.440
   1.440   1.440   1.440   1.440   1.440   1.440   1.440   1.440   1.440   1.440
   1.440   1.440   1.440   1.440   1.440   1.440   1.440   1.440   1.440   1.440
   1.440   1.440   1.440   1.440   1.440   1.440   1.440   1.440   1.440   1.440
   1.440   1.440   1.440   1.440   1.440   1.440   1.440   1.440   1.440   1.440
   1.440   1.440
   1.524   1.873   1.579   1.566   1.435   1.455   1.663   1.695   1.805   1.673
   1.538   1.649   1.671   1.617   1.784   1.596   1.624   1.568   1.599   1.568
   1.624   1.596   1.784   1.617   1.671   1.649   1.538   1.673   1.805   1.695
   1.663   1.455   1.435   1.566   1.579   1.873   1.524   1.873   1.579   1.566
   1.435   1.455   1.663   1.695   1.805   1.673   1.538   1.649   1.671   1.617
   1.784   1.596   1.624   1.568   1.599   1.568   1.624   1.596   1.784   1.617
   1.671   1.649   1.538   1.673   1.805   1.695   1.663   1.455   1.435   1.566
   1.579   1.873
   1.553   1.516   1.619   1.515   1.469   1.272   1.422   1.526   1.636   1.500
   1.605   1.676   1.614   1.555   1.725   1.471   1.591   1.459   1.569   1.459
   1.591   1.471   1.725   1.555   1.614   1.676   1.605   1.500   1.636   1.526
   1.422   1.272   1.469   1.515   1.619   1.516   1.553   1.516   1.619   1.515
   1.469   1.272   1.422   1.526   1.636   1.500   1.605   1.676   1.614   1.555
   1.725   1.471   1.591   1.459   1.569   1.459   1.591   1.471   1.725   1.555
   1.614   1.676   1.605   1.500   1.636   1.526   1.422   1.272   1.469   1.515
   1.619   1.516
   1.307   1.151   1.327   1.229   1.335   1.090   1.369   1.263   1.304   1.258
   1.519   1.585   1.668   1.619   1.489   1.447   1.426   1.495   1.670   1.495
   1.426   1.447   1.489   1.619   1.668   1.585   1.519   1.258   1.304   1.263
   1.369   1.090   1.335   1.229   1.327   1.151   1.307   1.151   1.327   1.229
   1.335   1.090   1.369   1.263   1.304   1.258   1.519   1.585   1.668   1.619
   1.489   1.447   1.426   1.495   1.670   1.495   1.426   1.447   1.489   1.619
   1.668   1.585   1.519   1.258   1.304   1.263   1.369   1.090   1.335   1.229
   1.327   1.151
   1.029   1.053   1.041   1.037   1.126   1.001   1.166   1.204   1.237   1.174
   1.251   1.439   1.538   1.408   1.420   1.571   1.503   1.697   1.605   1.697
   1.503   1.571   1.420   1.408   1.538   1.439   1.251   1.174   1.237   1.204
   1.166   1.001   1.126   1.037   1.041   1.053   1.029   1.053   1.041   1.037
   1.126   1.001   1.166   1.204   1.237   1.174   1.251   1.439   1.538   1.408
   1.420   1.571   1.503   1.697   1.605   1.697   1.503   1.571   1.420   1.408
   1.538   1.439   1.251   1.174   1.237   1.204   1.166   1.001   1.126   1.037
   1.041   1.053
   0.835   0.907   0.943   1.006   0.932   0.966   0.832   1.073   1.077   1.136
   0.992   1.116   1.297   1.263   1.369   1.506   1.524   1.694   1.576   1.694
   1.524   1.506   1.369   1.263   1.297   1.116   0.992   1.136   1.077   1.073
   0.832   0.966   0.932   1.006   0.943   0.907   0.835   0.907   0.943   1.006
   0.932   0.966   0.832   1.073   1.077   1.136   0.992   1.116   1.297   1.263
   1.369   1.506   1.524   1.694   1.576   1.694   1.524   1.506   1.369   1.263
   1.297   1.116   0.992   1.136   1.077   1.073   0.832   0.966   0.932   1.006
   0.943   0.907
   0.844   0.872   0.789   0.855   0.835   0.869   0.795   0.911   0.893   1.039
   0.828   1.085   1.212   1.219   1.425   1.569   1.592   1.494   1.668   1.494
   1.592   1.569   1.425   1.219   1.212   1.085   0.828   1.039   0.893   0.911
   0.795   0.869   0.835   0.855   0.789   0.872   0.844   0.872   0.789   0.855
   0.835   0.869   0.795   0.911   0.893   1.039   0.828   1.085   1.212   1.219
   1.425   1.569   1.592   1.494   1.668   1.494   1.592   1.569   1.425   1.219
   1.212   1.085   0.828   1.039   0.893   0.911   0.795   0.869   0.835   0.855
   0.789   0.872
   1.060   1.016   0.780   0.800   1.045   1.024   0.835   0.903   0.884   0.959
   0.801   1.161   1.222   1.085   1.288   1.564   1.545   1.465   1.440   1.465
   1.545   1.564   1.288   1.085   1.222   1.161   0.801   0.959   0.884   0.903
   0.835   1.024   1.045   0.800   0.780   1.016   1.060   1.016   0.780   0.800
   1.045   1.024   0.835   0.903   0.884   0.959   0.801   1.161   1.222   1.085
   1.288   1.564   1.545   1.465   1.440   1.465   1.545   1.564   1.288   1.085
   1.222   1.161   0.801   0.959   0.884   0.903   0.835   1.024   1.045   0.800
   0.780   1.016
   1.108   1.096   0.924   0.863   0.971   1.156   0.974   0.970   0.903   0.851
   0.893   1.014   1.046   1.176   1.124   1.348   1.376   1.525   1.510   1.525
   1.376   1.348   1.124   1.176   1.046   1.014   0.893   0.851   0.903   0.970
   0.974   1.156   0.971   0.863   0.924   1.096   1.108   1.096   0.924   0.863
   0.971   1.156   0.974   0.970   0.903   0.851   0.893   1.014   1.046   1.176
   1.124   1.348   1.376   1.525   1.510   1.525   1.376   1.348   1.124   1.176
   1.046   1.014   0.893   0.851   0.903   0.970   0.974   1.156   0.971   0.863
   0.924   1.096
   1.062   1.069   1.014   0.916   0.928   1.091   1.020   1.021   0.889   0.838
   0.833   0.963   1.049   1.064   1.114   1.312   1.405   1.480   1.770   1.480
   1.405   1.312   1.114   1.064   1.049   0.963   0.833   0.838   0.889   1.021
   1.020   1.091   0.928   0.916   1.014   1.069   1.062   1.069   1.014   0.916
   0.928   1.091   1.020   1.021   0.889   0.838   0.833   0.963   1.049   1.064
   1.114   1.312   1.405   1.480   1.770   1.480   1.405   1.312   1.114   1.064
   1.049   0.963   0.833   0.838   0.889   1.021   1.020   1.091   0.928   0.916
   1.014   1.069
   1.307   1.219   1.221   0.943   1.161   1.130   0.897   1.008   0.779   0.961
   0.798   1.018   1.231   0.853   1.114   1.206   1.252   1.437   1.750   1.437
   1.252   1.206   1.114   0.853   1.231   1.018   0.798   0.961   0.779   1.008
   0.897   1.130   1.161   0.943   1.221   1.219   1.307   1.219   1.221   0.943
   1.161   1.130   0.897   1.008   0.779   0.961   0.798   1.018   1.231   0.853
   1.114   1.206   1.252   1.437   1.750   1.437   1.252   1.206   1.114   0.853
   1.231   1.018   0.798   0.961   0.779   1.008   0.897   1.130   1.161   0.943
   1.221   1.219
   1.585   1.197   1.277   0.944   1.190   1.036   0.776   0.887   0.817   0.807
   0.832   0.947   1.083   0.981   1.178   1.100   1.068   1.378   1.485   1.378
   1.068   1.100   1.178   0.981   1.083   0.947   0.832   0.807   0.817   0.887
   0.776   1.036   1.190   0.944   1.277   1.197   1.585   1.197   1.277   0.944
   1.190   1.036   0.776   0.887   0.817   0.807   0.832   0.947   1.083   0.981
   1.178   1.100   1.068   1.378   1.485   1.378   1.068   1.100   1.178   0.981
   1.083   0.947   0.832   0.807   0.817   0.887   0.776   1.036   1.190   0.944
   1.277   1.197
   1.253   0.953   1.041   0.749   1.200   0.865   0.933   0.737   0.937   0.904
   0.943   0.732   0.918   1.012   1.030   1.236   0.989   1.288   1.465   1.288
   0.989   1.236   1.030   1.012   0.918   0.732   0.943   0.904   0.937   0.737
   0.933   0.865   1.200   0.749   1.041   0.953   1.253   0.953   1.041   0.749
   1.200   0.865   0.933   0.737   0.937   0.904   0.943   0.732   0.918   1.012
   1.030   1.236   0.989   1.288   1.465   1.288   0.989   1.236   1.030   1.012
   0.918   0.732   0.943   0.904   0.937   0.737   0.933   0.865   1.200   0.749
   1.041   0.953
   0.740   1.075   0.806   0.922   0.938   0.935   0.930   0.975   0.919   1.043
   0.832   0.691   0.895   1.049   0.971   1.175   0.795   1.144   1.170   1.144
   0.795   1.175   0.971   1.049   0.895   0.691   0.832   1.043   0.919   0.975
   0.930   0.935   0.938   0.922   0.806   1.075   0.740   1.075   0.806   0.922
   0.938   0.935   0.930   0.975   0.919   1.043   0.832   0.691   0.895   1.049
   0.971   1.175   0.795   1.144   1.170   1.144   0.795   1.175   0.971   1.049
   0.895   0.691   0.832   1.043   0.919   0.975   0.930   0.935   0.938   0.922
   0.806   1.075
   0.397   0.924   0.893   1.228   1.044   0.994   0.950   1.335   0.950   0.709
   0.724   0.683   0.848   0.908   0.850   1.087   0.626   0.788   0.795   0.788
   0.626   1.087   0.850   0.908   0.848   0.683   0.724   0.709   0.950   1.335
   0.950   0.994   1.044   1.228   0.893   0.924   0.397   0.924   0.893   1.228
   1.044   0.994   0.950   1.335   0.950   0.709   0.724   0.683   0.848   0.908
   0.850   1.087   0.626   0.788   0.795   0.788   0.626   1.087   0.850   0.908
   0.848   0.683   0.724   0.709   0.950   1.335   0.950   0.994   1.044   1.228
   0.893   0.924
  4  1      4.4680776E-01
  4  2      4.2032172E-01
  4  3     -5.8081740E-02
  6  1     -5.6569352E-01
  6  2      3.9104476E-01
  6  3     -4.8964604E-01
  6  4      2.0735666E-01
  8  1      2.9179865E-01
  8  2      5.5197381E-02
  8  3     -2.6206584E-02
  8  4      2.2517878E-01
  8  5      4.5140724E-02
 10  1      6.6528084E-02
 10  2      5.1328788E-02
 10  3     -5.2927997E-02
 10  4      1.1145786E-03
 10  5     -3.3898719E-02
 10  6     -2.0991966E-01
 12  1      4.6135631E-02  1.3539756E-01
 12  2      2.0442601E-01  2.3903437E-02
 12  3     -7.6911912E-02  2.1655823E-01
 12  4      1.0371579E-01 -2.3377814E-01
 12  5     -1.0993370E-01  1.8934992E-01
 12  6     -1.5215174E-01  3.1466371E-01
 12  7     -5.5540153E-01 -7.3107678E-01
 14  1      2.2186653E-01
 14  2      9.2983486E-02
 14  3     -3.3369382E-02
 14  4      7.7707837E-03
 14  5     -3.6863896E-02
 14  6      1.1458235E-01
 14  7     -2.2420245E-01
 14  8      2.4676895E-01
 220       5.00   72    0 5.00   18    0
   0.826   0.826   0.826   0.825   0.825   0.825   0.824   0.824   0.824   0.823
   0.823   0.822   0.822   0.822   0.821   0.821   0.821   0.821   0.821   0.821
   0.821   0.821   0.821   0.822   0.822   0.822   0.823   0.823   0.824   0.824
   0.824   0.825   0.825   0.825   0.826   0.826   0.826   0.826   0.826   0.825
   0.825   0.825   0.824   0.824   0.824   0.823   0.823   0.822   0.822   0.822
   0.821   0.821   0.821   0.821   0.821   0.821   0.821   0.821   0.821   0.822
   0.822   0.822   0.823   0.823   0.824   0.824   0.824   0.825   0.825   0.825
   0.826   0.826
   0.802   0.802   0.801   0.799   0.796   0.793   0.789   0.786   0.782   0.778
   0.775   0.772   0.769   0.767   0.765   0.764   0.763   0.763   0.763   0.763
   0.763   0.764   0.765   0.767   0.769   0.772   0.775   0.778   0.782   0.786
   0.789   0.793   0.796   0.799   0.801   0.802   0.802   0.802   0.801   0.799
   0.796   0.793   0.789   0.786   0.782   0.778   0.775   0.772   0.769   0.767
   0.765   0.764   0.763   0.763   0.763   0.763   0.763   0.764   0.765   0.767
   0.769   0.772   0.775   0.778   0.782   0.786   0.789   0.793   0.796   0.799
   0.801   0.802
   0.819   0.818   0.814   0.808   0.799   0.789   0.778   0.767   0.757   0.747
   0.739   0.732   0.728   0.725   0.724   0.723   0.723   0.724   0.724   0.724
   0.723   0.723   0.724   0.725   0.728   0.732   0.739   0.747   0.757   0.767
   0.778   0.789   0.799   0.808   0.814   0.818   0.819   0.818   0.814   0.808
   0.799   0.789   0.778   0.767   0.757   0.747   0.739   0.732   0.728   0.725
   0.724   0.723   0.723   0.724   0.724   0.724   0.723   0.723   0.724   0.725
   0.728   0.732   0.739   0.747   0.757   0.767   0.778   0.789   0.799   0.808
   0.814   0.818
   0.924   0.922   0.915   0.904   0.889   0.870   0.850   0.828   0.807   0.788
   0.772   0.761   0.755   0.754   0.757   0.762   0.767   0.771   0.772   0.771
   0.767   0.762   0.757   0.754   0.755   0.761   0.772   0.788   0.807   0.828
   0.850   0.870   0.889   0.904   0.915   0.922   0.924   0.922   0.915   0.904
   0.889   0.870   0.850   0.828   0.807   0.788   0.772   0.761   0.755   0.754
   0.757   0.762   0.767   0.771   0.772   0.771   0.767   0.762   0.757   0.754
   0.755   0.761   0.772   0.788   0.807   0.828   0.850   0.870   0.889   0.904
   0.915   0.922
   1.080   1.078   1.072   1.062   1.047   1.026   1.000   0.970   0.938   0.906
   0.878   0.857   0.847   0.846   0.853   0.865   0.878   0.888   0.891   0.888
   0.878   0.865   0.853   0.846   0.847   0.857   0.878   0.906   0.938   0.970
   1.000   1.026   1.047   1.062   1.072   1.078   1.080   1.078   1.072   1.062
   1.047   1.026   1.000   0.970   0.938   0.906   0.878   0.857   0.847   0.846
   0.853   0.865   0.878   0.888   0.891   0.888   0.878   0.865   0.853   0.846
   0.847   0.857   0.878   0.906   0.938   0.970   1.000   1.026   1.047   1.062
   1.072   1.078
   1.182   1.183   1.186   1.188   1.188   1.182   1.167   1.140   1.103   1.059
   1.014   0.976   0.951   0.942   0.948   0.963   0.981   0.995   1.000   0.995
   0.981   0.963   0.948   0.942   0.951   0.976   1.014   1.059   1.103   1.140
   1.167   1.182   1.188   1.188   1.186   1.183   1.182   1.183   1.186   1.188
   1.188   1.182   1.167   1.140   1.103   1.059   1.014   0.976   0.951   0.942
   0.948   0.963   0.981   0.995   1.000   0.995   0.981   0.963   0.948   0.942
   0.951   0.976   1.014   1.059   1.103   1.140   1.167   1.182   1.188   1.188
   1.186   1.183
   1.162   1.166   1.180   1.201   1.229   1.256   1.274   1.273   1.248   1.201
   1.141   1.082   1.034   1.007   1.000   1.008   1.022   1.034   1.039   1.034
   1.022   1.008   1.000   1.007   1.034   1.082   1.141   1.201   1.248   1.273
   1.274   1.256   1.229   1.201   1.180   1.166   1.162   1.166   1.180   1.201
   1.229   1.256   1.274   1.273   1.248   1.201   1.141   1.082   1.034   1.007
   1.000   1.008   1.022   1.034   1.039   1.034   1.022   1.008   1.000   1.007
   1.034   1.082   1.141   1.201   1.248   1.273   1.274   1.256   1.229   1.201
   1.180   1.166
   1.048   1.052   1.066   1.098   1.149   1.216   1.284   1.331   1.341   1.310
   1.246   1.171   1.103   1.056   1.031   1.021   1.018   1.017   1.016   1.017
   1.018   1.021   1.031   1.056   1.103   1.171   1.246   1.310   1.341   1.331
   1.284   1.216   1.149   1.098   1.066   1.052   1.048   1.052   1.066   1.098
   1.149   1.216   1.284   1.331   1.341   1.310   1.246   1.171   1.103   1.056
   1.031   1.021   1.018   1.017   1.016   1.017   1.018   1.021   1.031   1.056
   1.103   1.171   1.246   1.310   1.341   1.331   1.284   1.216   1.149   1.098
   1.066   1.052
   0.943   0.938   0.932   0.944   0.995   1.087   1.203   1.308   1.369   1.369
   1.319   1.244   1.172   1.118   1.079   1.045   1.012   0.984   0.973   0.984
   1.012   1.045   1.079   1.118   1.172   1.244   1.319   1.369   1.369   1.308
   1.203   1.087   0.995   0.944   0.932   0.938   0.943   0.938   0.932   0.944
   0.995   1.087   1.203   1.308   1.369   1.369   1.319   1.244   1.172   1.118
   1.079   1.045   1.012   0.984   0.973   0.984   1.012   1.045   1.079   1.118
   1.172   1.244   1.319   1.369   1.369   1.308   1.203   1.087   0.995   0.944
   0.932   0.938
   0.921   0.900   0.852   0.817   0.834   0.922   1.064   1.215   1.323   1.359
   1.330   1.271   1.217   1.179   1.145   1.091   1.018   0.951   0.923   0.951
   1.018   1.091   1.145   1.179   1.217   1.271   1.330   1.359   1.323   1.215
   1.064   0.922   0.834   0.817   0.852   0.900   0.921   0.900   0.852   0.817
   0.834   0.922   1.064   1.215   1.323   1.359   1.330   1.271   1.217   1.179
   1.145   1.091   1.018   0.951   0.923   0.951   1.018   1.091   1.145   1.179
   1.217   1.271   1.330   1.359   1.323   1.215   1.064   0.922   0.834   0.817
   0.852   0.900
   0.956   0.921   0.834   0.747   0.716   0.775   0.914   1.081   1.213   1.268
   1.254   1.215   1.195   1.198   1.188   1.126   1.010   0.894   0.844   0.894
   1.010   1.126   1.188   1.198   1.195   1.215   1.254   1.268   1.213   1.081
   0.914   0.775   0.716   0.747   0.834   0.921   0.956   0.921   0.834   0.747
   0.716   0.775   0.914   1.081   1.213   1.268   1.254   1.215   1.195   1.198
   1.188   1.126   1.010   0.894   0.844   0.894   1.010   1.126   1.188   1.198
   1.195   1.215   1.254   1.268   1.213   1.081   0.914   0.775   0.716   0.747
   0.834   0.921
   0.963   0.926   0.831   0.726   0.666   0.691   0.802   0.954   1.078   1.129
   1.113   1.085   1.097   1.149   1.180   1.122   0.971   0.806   0.734   0.806
   0.971   1.122   1.180   1.149   1.097   1.085   1.113   1.129   1.078   0.954
   0.802   0.691   0.666   0.726   0.831   0.926   0.963   0.926   0.831   0.726
   0.666   0.691   0.802   0.954   1.078   1.129   1.113   1.085   1.097   1.149
   1.180   1.122   0.971   0.806   0.734   0.806   0.971   1.122   1.180   1.149
   1.097   1.085   1.113   1.129   1.078   0.954   0.802   0.691   0.666   0.726
   0.831   0.926
   0.893   0.871   0.813   0.742   0.691   0.695   0.767   0.881   0.978   1.010
   0.980   0.945   0.973   1.063   1.135   1.095   0.926   0.727   0.639   0.727
   0.926   1.095   1.135   1.063   0.973   0.945   0.980   1.010   0.978   0.881
   0.767   0.695   0.691   0.742   0.813   0.871   0.893   0.871   0.813   0.742
   0.691   0.695   0.767   0.881   0.978   1.010   0.980   0.945   0.973   1.063
   1.135   1.095   0.926   0.727   0.639   0.727   0.926   1.095   1.135   1.063
   0.973   0.945   0.980   1.010   0.978   0.881   0.767   0.695   0.691   0.742
   0.813   0.871
   0.803   0.807   0.811   0.804   0.786   0.777   0.806   0.874   0.945   0.966
   0.924   0.872   0.889   0.989   1.092   1.080   0.921   0.715   0.621   0.715
   0.921   1.080   1.092   0.989   0.889   0.872   0.924   0.966   0.945   0.874
   0.806   0.777   0.786   0.804   0.811   0.807   0.803   0.807   0.811   0.804
   0.786   0.777   0.806   0.874   0.945   0.966   0.924   0.872   0.889   0.989
   1.092   1.080   0.921   0.715   0.621   0.715   0.921   1.080   1.092   0.989
   0.889   0.872   0.924   0.966   0.945   0.874   0.806   0.777   0.786   0.804
   0.811   0.807
   0.813   0.836   0.888   0.928   0.928   0.894   0.870   0.896   0.956   0.990
   0.957   0.888   0.870   0.950   1.064   1.089   0.969   0.788   0.701   0.788
   0.969   1.089   1.064   0.950   0.870   0.888   0.957   0.990   0.956   0.896
   0.870   0.894   0.928   0.928   0.888   0.836   0.813   0.836   0.888   0.928
   0.928   0.894   0.870   0.896   0.956   0.990   0.957   0.888   0.870   0.950
   1.064   1.089   0.969   0.788   0.701   0.788   0.969   1.089   1.064   0.950
   0.870   0.888   0.957   0.990   0.956   0.896   0.870   0.894   0.928   0.928
   0.888   0.836
   0.986   1.012   1.069   1.106   1.079   0.991   0.905   0.892   0.960   1.034
   1.031   0.952   0.890   0.927   1.036   1.100   1.039   0.907   0.839   0.907
   1.039   1.100   1.036   0.927   0.890   0.952   1.031   1.034   0.960   0.892
   0.905   0.991   1.079   1.106   1.069   1.012   0.986   1.012   1.069   1.106
   1.079   0.991   0.905   0.892   0.960   1.034   1.031   0.952   0.890   0.927
   1.036   1.100   1.039   0.907   0.839   0.907   1.039   1.100   1.036   0.927
   0.890   0.952   1.031   1.034   0.960   0.892   0.905   0.991   1.079   1.106
   1.069   1.012
   1.257   1.271   1.297   1.287   1.200   1.042   0.893   0.850   0.934   1.056
   1.093   1.012   0.908   0.900   0.997   1.094   1.092   1.014   0.967   1.014
   1.092   1.094   0.997   0.900   0.908   1.012   1.093   1.056   0.934   0.850
   0.893   1.042   1.200   1.287   1.297   1.271   1.257   1.271   1.297   1.287
   1.200   1.042   0.893   0.850   0.934   1.056   1.093   1.012   0.908   0.900
   0.997   1.094   1.092   1.014   0.967   1.014   1.092   1.094   0.997   0.900
   0.908   1.012   1.093   1.056   0.934   0.850   0.893   1.042   1.200   1.287
   1.297   1.271
   1.461   1.463   1.457   1.403   1.265   1.057   0.867   0.806   0.903   1.057
   1.121   1.042   0.914   0.876   0.963   1.080   1.116   1.072   1.039   1.072
   1.116   1.080   0.963   0.876   0.914   1.042   1.121   1.057   0.903   0.806
   0.867   1.057   1.265   1.403   1.457   1.463   1.461   1.463   1.457   1.403
   1.265   1.057   0.867   0.806   0.903   1.057   1.121   1.042   0.914   0.876
   0.963   1.080   1.116   1.072   1.039   1.072   1.116   1.080   0.963   0.876
   0.914   1.042   1.121   1.057   0.903   0.806   0.867   1.057   1.265   1.403
   1.457   1.463
 200       5.00   72    0 5.00   18    0
   1.684   1.684   1.684   1.684   1.683   1.683   1.682   1.681   1.680   1.680
   1.679   1.678   1.677   1.677   1.676   1.676   1.675   1.675   1.675   1.675
   1.675   1.676   1.676   1.677   1.677   1.678   1.679   1.680   1.680   1.681
   1.682   1.683   1.683   1.684   1.684   1.684   1.684   1.684   1.684   1.684
   1.683   1.683   1.682   1.681   1.680   1.680   1.679   1.678   1.677   1.677
   1.676   1.676   1.675   1.675   1.675   1.675   1.675   1.676   1.676   1.677
   1.677   1.678   1.679   1.680   1.680   1.681   1.682   1.683   1.683   1.684
   1.684   1.684
   1.649   1.648   1.646   1.643   1.640   1.635   1.629   1.623   1.617   1.610
   1.604   1.598   1.592   1.587   1.583   1.580   1.577   1.576   1.575   1.576
   1.577   1.580   1.583   1.587   1.592   1.598   1.604   1.610   1.617   1.623
   1.629   1.635   1.640   1.643   1.646   1.648   1.649   1.648   1.646   1.643
   1.640   1.635   1.629   1.623   1.617   1.610   1.604   1.598   1.592   1.587
   1.583   1.580   1.577   1.576   1.575   1.576   1.577   1.580   1.583   1.587
   1.592   1.598   1.604   1.610   1.617   1.623   1.629   1.635   1.640   1.643
   1.646   1.648
   1.544   1.542   1.538   1.530   1.521   1.509   1.496   1.482   1.468   1.454
   1.441   1.429   1.419   1.409   1.402   1.396   1.392   1.389   1.388   1.389
   1.392   1.396   1.402   1.409   1.419   1.429   1.441   1.454   1.468   1.482
   1.496   1.509   1.521   1.530   1.538   1.542   1.544   1.542   1.538   1.530
   1.521   1.509   1.496   1.482   1.468   1.454   1.441   1.429   1.419   1.409
   1.402   1.396   1.392   1.389   1.388   1.389   1.392   1.396   1.402   1.409
   1.419   1.429   1.441   1.454   1.468   1.482   1.496   1.509   1.521   1.530
   1.538   1.542
   1.357   1.354   1.347   1.335   1.320   1.302   1.282   1.263   1.244   1.227
   1.211   1.198   1.187   1.178   1.171   1.166   1.162   1.160   1.160   1.160
   1.162   1.166   1.171   1.178   1.187   1.198   1.211   1.227   1.244   1.263
   1.282   1.302   1.320   1.335   1.347   1.354   1.357   1.354   1.347   1.335
   1.320   1.302   1.282   1.263   1.244   1.227   1.211   1.198   1.187   1.178
   1.171   1.166   1.162   1.160   1.160   1.160   1.162   1.166   1.171   1.178
   1.187   1.198   1.211   1.227   1.244   1.263   1.282   1.302   1.320   1.335
   1.347   1.354
   1.142   1.139   1.129   1.113   1.094   1.072   1.050   1.030   1.013   0.998
   0.987   0.978   0.972   0.968   0.966   0.964   0.964   0.964   0.964   0.964
   0.964   0.964   0.966   0.968   0.972   0.978   0.987   0.998   1.013   1.030
   1.050   1.072   1.094   1.113   1.129   1.139   1.142   1.139   1.129   1.113
   1.094   1.072   1.050   1.030   1.013   0.998   0.987   0.978   0.972   0.968
   0.966   0.964   0.964   0.964   0.964   0.964   0.964   0.964   0.966   0.968
   0.972   0.978   0.987   0.998   1.013   1.030   1.050   1.072   1.094   1.113
   1.129   1.139
   0.997   0.993   0.980   0.960   0.936   0.911   0.888   0.870   0.857   0.849
   0.845   0.844   0.844   0.845   0.845   0.847   0.848   0.850   0.850   0.850
   0.848   0.847   0.845   0.845   0.844   0.844   0.845   0.849   0.857   0.870
   0.888   0.911   0.936   0.960   0.980   0.993   0.997   0.993   0.980   0.960
   0.936   0.911   0.888   0.870   0.857   0.849   0.845   0.844   0.844   0.845
   0.845   0.847   0.848   0.850   0.850   0.850   0.848   0.847   0.845   0.845
   0.844   0.844   0.845   0.849   0.857   0.870   0.888   0.911   0.936   0.960
   0.980   0.993
   0.985   0.979   0.961   0.934   0.901   0.867   0.837   0.815   0.804   0.801
   0.803   0.805   0.806   0.804   0.800   0.798   0.798   0.798   0.799   0.798
   0.798   0.798   0.800   0.804   0.806   0.805   0.803   0.801   0.804   0.815
   0.837   0.867   0.901   0.934   0.961   0.979   0.985   0.979   0.961   0.934
   0.901   0.867   0.837   0.815   0.804   0.801   0.803   0.805   0.806   0.804
   0.800   0.798   0.798   0.798   0.799   0.798   0.798   0.798   0.800   0.804
   0.806   0.805   0.803   0.801   0.804   0.815   0.837   0.867   0.901   0.934
   0.961   0.979
   1.083   1.075   1.051   1.012   0.963   0.910   0.862   0.827   0.809   0.805
   0.808   0.809   0.803   0.789   0.773   0.761   0.755   0.754   0.754   0.754
   0.755   0.761   0.773   0.789   0.803   0.809   0.808   0.805   0.809   0.827
   0.862   0.910   0.963   1.012   1.051   1.075   1.083   1.075   1.051   1.012
   0.963   0.910   0.862   0.827   0.809   0.805   0.808   0.809   0.803   0.789
   0.773   0.761   0.755   0.754   0.754   0.754   0.755   0.761   0.773   0.789
   0.803   0.809   0.808   0.805   0.809   0.827   0.862   0.910   0.963   1.012
   1.051   1.075
   1.205   1.195   1.166   1.116   1.048   0.971   0.898   0.843   0.813   0.807
   0.811   0.811   0.796   0.767   0.734   0.710   0.699   0.697   0.698   0.697
   0.699   0.710   0.734   0.767   0.796   0.811   0.811   0.807   0.813   0.843
   0.898   0.971   1.048   1.116   1.166   1.195   1.205   1.195   1.166   1.116
   1.048   0.971   0.898   0.843   0.813   0.807   0.811   0.811   0.796   0.767
   0.734   0.710   0.699   0.697   0.698   0.697   0.699   0.710   0.734   0.767
   0.796   0.811   0.811   0.807   0.813   0.843   0.898   0.971   1.048   1.116
   1.166   1.195
   1.274   1.264   1.234   1.178   1.098   1.003   0.911   0.841   0.806   0.801
   0.812   0.816   0.799   0.761   0.717   0.684   0.671   0.672   0.675   0.672
   0.671   0.684   0.717   0.761   0.799   0.816   0.812   0.801   0.806   0.841
   0.911   1.003   1.098   1.178   1.234   1.264   1.274   1.264   1.234   1.178
   1.098   1.003   0.911   0.841   0.806   0.801   0.812   0.816   0.799   0.761
   0.717   0.684   0.671   0.672   0.675   0.672   0.671   0.684   0.717   0.761
   0.799   0.816   0.812   0.801   0.806   0.841   0.911   1.003   1.098   1.178
   1.234   1.264
   1.271   1.264   1.237   1.183   1.100   1.002   0.911   0.846   0.818   0.822
   0.842   0.855   0.845   0.811   0.767   0.734   0.723   0.726   0.730   0.726
   0.723   0.734   0.767   0.811   0.845   0.855   0.842   0.822   0.818   0.846
   0.911   1.002   1.100   1.183   1.237   1.264   1.271   1.264   1.237   1.183
   1.100   1.002   0.911   0.846   0.818   0.822   0.842   0.855   0.845   0.811
   0.767   0.734   0.723   0.726   0.730   0.726   0.723   0.734   0.767   0.811
   0.845   0.855   0.842   0.822   0.818   0.846   0.911   1.002   1.100   1.183
   1.237   1.264
   1.225   1.222   1.204   1.155   1.075   0.985   0.913   0.878   0.873   0.887
   0.904   0.915   0.914   0.897   0.870   0.845   0.833   0.832   0.833   0.832
   0.833   0.845   0.870   0.897   0.914   0.915   0.904   0.887   0.873   0.878
   0.913   0.985   1.075   1.155   1.204   1.222   1.225   1.222   1.204   1.155
   1.075   0.985   0.913   0.878   0.873   0.887   0.904   0.915   0.914   0.897
   0.870   0.845   0.833   0.832   0.833   0.832   0.833   0.845   0.870   0.897
   0.914   0.915   0.904   0.887   0.873   0.878   0.913   0.985   1.075   1.155
   1.204   1.222
   1.157   1.164   1.164   1.124   1.040   0.954   0.913   0.926   0.959   0.973
   0.959   0.940   0.938   0.950   0.958   0.949   0.927   0.905   0.896   0.905
   0.927   0.949   0.958   0.950   0.938   0.940   0.959   0.973   0.959   0.926
   0.913   0.954   1.040   1.124   1.164   1.164   1.157   1.164   1.164   1.124
   1.040   0.954   0.913   0.926   0.959   0.973   0.959   0.940   0.938   0.950
   0.958   0.949   0.927   0.905   0.896   0.905   0.927   0.949   0.958   0.950
   0.938   0.940   0.959   0.973   0.959   0.926   0.913   0.954   1.040   1.124
   1.164   1.164
   1.052   1.081   1.124   1.105   1.008   0.907   0.891   0.967   1.051   1.058
   0.984   0.901   0.882   0.933   0.996   1.011   0.967   0.904   0.876   0.904
   0.967   1.011   0.996   0.933   0.882   0.901   0.984   1.058   1.051   0.967
   0.891   0.907   1.008   1.105   1.124   1.081   1.052   1.081   1.124   1.105
   1.008   0.907   0.891   0.967   1.051   1.058   0.984   0.901   0.882   0.933
   0.996   1.011   0.967   0.904   0.876   0.904   0.967   1.011   0.996   0.933
   0.882   0.901   0.984   1.058   1.051   0.967   0.891   0.907   1.008   1.105
   1.124   1.081
   0.879   0.948   1.074   1.103   0.992   0.858   0.856   1.001   1.154   1.161
   1.011   0.842   0.798   0.899   1.037   1.086   1.012   0.890   0.833   0.890
   1.012   1.086   1.037   0.899   0.798   0.842   1.011   1.161   1.154   1.001
   0.856   0.858   0.992   1.103   1.074   0.948   0.879   0.948   1.074   1.103
   0.992   0.858   0.856   1.001   1.154   1.161   1.011   0.842   0.798   0.899
   1.037   1.086   1.012   0.890   0.833   0.890   1.012   1.086   1.037   0.899
   0.798   0.842   1.011   1.161   1.154   1.001   0.856   0.858   0.992   1.103
   1.074   0.948
   0.640   0.765   1.009   1.119   1.004   0.830   0.832   1.051   1.288   1.312
   1.096   0.842   0.776   0.936   1.161   1.251   1.145   0.960   0.870   0.960
   1.145   1.251   1.161   0.936   0.776   0.842   1.096   1.312   1.288   1.051
   0.832   0.830   1.004   1.119   1.009   0.765   0.640   0.765   1.009   1.119
   1.004   0.830   0.832   1.051   1.288   1.312   1.096   0.842   0.776   0.936
   1.161   1.251   1.145   0.960   0.870   0.960   1.145   1.251   1.161   0.936
   0.776   0.842   1.096   1.312   1.288   1.051   0.832   0.830   1.004   1.119
   1.009   0.765
   0.395   0.578   0.945   1.147   1.041   0.833   0.835   1.120   1.441   1.494
   1.236   0.920   0.841   1.057   1.362   1.491   1.360   1.120   1.004   1.120
   1.360   1.491   1.362   1.057   0.841   0.920   1.236   1.494   1.441   1.120
   0.835   0.833   1.041   1.147   0.945   0.578   0.395   0.578   0.945   1.147
   1.041   0.833   0.835   1.120   1.441   1.494   1.236   0.920   0.841   1.057
   1.362   1.491   1.360   1.120   1.004   1.120   1.360   1.491   1.362   1.057
   0.841   0.920   1.236   1.494   1.441   1.120   0.835   0.833   1.041   1.147
   0.945   0.578
   0.238   0.458   0.905   1.168   1.073   0.846   0.850   1.175   1.548   1.625
   1.349   1.002   0.918   1.170   1.523   1.676   1.533   1.261   1.129   1.261
   1.533   1.676   1.523   1.170   0.918   1.002   1.349   1.625   1.548   1.175
   0.850   0.846   1.073   1.168   0.905   0.458   0.238   0.458   0.905   1.168
   1.073   0.846   0.850   1.175   1.548   1.625   1.349   1.002   0.918   1.170
   1.523   1.676   1.533   1.261   1.129   1.261   1.533   1.676   1.523   1.170
   0.918   1.002   1.349   1.625   1.548   1.175   0.850   0.846   1.073   1.168
   0.905   0.458
 111       5.00   72    0 5.00   18    0
   1.172   1.172   1.172   1.173   1.174   1.174   1.175   1.176   1.177   1.179
   1.180   1.181   1.182   1.183   1.184   1.184   1.185   1.185   1.185   1.185
   1.185   1.184   1.184   1.183   1.182   1.181   1.180   1.179   1.177   1.176
   1.175   1.174   1.174   1.173   1.172   1.172   1.172   1.172   1.172   1.173
   1.174   1.174   1.175   1.176   1.177   1.179   1.180   1.181   1.182   1.183
   1.184   1.184   1.185   1.185   1.185   1.185   1.185   1.184   1.184   1.183
   1.182   1.181   1.180   1.179   1.177   1.176   1.175   1.174   1.174   1.173
   1.172   1.172
   1.099   1.100   1.102   1.105   1.109   1.115   1.121   1.129   1.137   1.146
   1.155   1.164   1.173   1.182   1.189   1.195   1.200   1.202   1.203   1.202
   1.200   1.195   1.189   1.182   1.173   1.164   1.155   1.146   1.137   1.129
   1.121   1.115   1.109   1.105   1.102   1.100   1.099   1.100   1.102   1.105
   1.109   1.115   1.121   1.129   1.137   1.146   1.155   1.164   1.173   1.182
   1.189   1.195   1.200   1.202   1.203   1.202   1.200   1.195   1.189   1.182
   1.173   1.164   1.155   1.146   1.137   1.129   1.121   1.115   1.109   1.105
   1.102   1.100
   0.969   0.970   0.973   0.977   0.984   0.993   1.004   1.017   1.033   1.052
   1.072   1.094   1.116   1.138   1.158   1.175   1.188   1.197   1.199   1.197
   1.188   1.175   1.158   1.138   1.116   1.094   1.072   1.052   1.033   1.017
   1.004   0.993   0.984   0.977   0.973   0.970   0.969   0.970   0.973   0.977
   0.984   0.993   1.004   1.017   1.033   1.052   1.072   1.094   1.116   1.138
   1.158   1.175   1.188   1.197   1.199   1.197   1.188   1.175   1.158   1.138
   1.116   1.094   1.072   1.052   1.033   1.017   1.004   0.993   0.984   0.977
   0.973   0.970
   0.816   0.817   0.818   0.821   0.826   0.833   0.844   0.858   0.877   0.901
   0.930   0.964   1.001   1.039   1.077   1.111   1.137   1.154   1.160   1.154
   1.137   1.111   1.077   1.039   1.001   0.964   0.930   0.901   0.877   0.858
   0.844   0.833   0.826   0.821   0.818   0.817   0.816   0.817   0.818   0.821
   0.826   0.833   0.844   0.858   0.877   0.901   0.930   0.964   1.001   1.039
   1.077   1.111   1.137   1.154   1.160   1.154   1.137   1.111   1.077   1.039
   1.001   0.964   0.930   0.901   0.877   0.858   0.844   0.833   0.826   0.821
   0.818   0.817
   0.682   0.683   0.684   0.687   0.692   0.698   0.707   0.720   0.739   0.764
   0.797   0.838   0.887   0.943   1.000   1.053   1.097   1.126   1.136   1.126
   1.097   1.053   1.000   0.943   0.887   0.838   0.797   0.764   0.739   0.720
   0.707   0.698   0.692   0.687   0.684   0.683   0.682   0.683   0.684   0.687
   0.692   0.698   0.707   0.720   0.739   0.764   0.797   0.838   0.887   0.943
   1.000   1.053   1.097   1.126   1.136   1.126   1.097   1.053   1.000   0.943
   0.887   0.838   0.797   0.764   0.739   0.720   0.707   0.698   0.692   0.687
   0.684   0.683
   0.609   0.611   0.616   0.624   0.634   0.648   0.663   0.680   0.700   0.725
   0.757   0.800   0.855   0.922   0.996   1.069   1.132   1.175   1.191   1.175
   1.132   1.069   0.996   0.922   0.855   0.800   0.757   0.725   0.700   0.680
   0.663   0.648   0.634   0.624   0.616   0.611   0.609   0.611   0.616   0.624
   0.634   0.648   0.663   0.680   0.700   0.725   0.757   0.800   0.855   0.922
   0.996   1.069   1.132   1.175   1.191   1.175   1.132   1.069   0.996   0.922
   0.855   0.800   0.757   0.725   0.700   0.680   0.663   0.648   0.634   0.624
   0.616   0.611
   0.624   0.627   0.634   0.647   0.665   0.689   0.715   0.742   0.769   0.796
   0.826   0.865   0.917   0.986   1.069   1.158   1.238   1.295   1.315   1.295
   1.238   1.158   1.069   0.986   0.917   0.865   0.826   0.796   0.769   0.742
   0.715   0.689   0.665   0.647   0.634   0.627   0.624   0.627   0.634   0.647
   0.665   0.689   0.715   0.742   0.769   0.796   0.826   0.865   0.917   0.986
   1.069   1.158   1.238   1.295   1.315   1.295   1.238   1.158   1.069   0.986
   0.917   0.865   0.826   0.796   0.769   0.742   0.715   0.689   0.665   0.647
   0.634   0.627
   0.737   0.737   0.736   0.740   0.753   0.775   0.805   0.838   0.871   0.900
   0.929   0.961   1.006   1.068   1.151   1.246   1.337   1.405   1.429   1.405
   1.337   1.246   1.151   1.068   1.006   0.961   0.929   0.900   0.871   0.838
   0.805   0.775   0.753   0.740   0.736   0.737   0.737   0.737   0.736   0.740
   0.753   0.775   0.805   0.838   0.871   0.900   0.929   0.961   1.006   1.068
   1.151   1.246   1.337   1.405   1.429   1.405   1.337   1.246   1.151   1.068
   1.006   0.961   0.929   0.900   0.871   0.838   0.805   0.775   0.753   0.740
   0.736   0.737
   0.938   0.929   0.904   0.876   0.859   0.857   0.871   0.896   0.924   0.953
   0.981   1.012   1.050   1.104   1.178   1.269   1.363   1.434   1.461   1.434
   1.363   1.269   1.178   1.104   1.050   1.012   0.981   0.953   0.924   0.896
   0.871   0.857   0.859   0.876   0.904   0.929   0.938   0.929   0.904   0.876
   0.859   0.857   0.871   0.896   0.924   0.953   0.981   1.012   1.050   1.104
   1.178   1.269   1.363   1.434   1.461   1.434   1.363   1.269   1.178   1.104
   1.050   1.012   0.981   0.953   0.924   0.896   0.871   0.857   0.859   0.876
   0.904   0.929
   1.188   1.165   1.106   1.033   0.970   0.930   0.913   0.911   0.921   0.940
   0.969   1.007   1.051   1.102   1.166   1.243   1.326   1.392   1.417   1.392
   1.326   1.243   1.166   1.102   1.051   1.007   0.969   0.940   0.921   0.911
   0.913   0.930   0.970   1.033   1.106   1.165   1.188   1.165   1.106   1.033
   0.970   0.930   0.913   0.911   0.921   0.940   0.969   1.007   1.051   1.102
   1.166   1.243   1.326   1.392   1.417   1.392   1.326   1.243   1.166   1.102
   1.051   1.007   0.969   0.940   0.921   0.911   0.913   0.930   0.970   1.033
   1.106   1.165
   1.411   1.378   1.291   1.183   1.087   1.019   0.974   0.943   0.921   0.918
   0.942   0.992   1.054   1.115   1.171   1.228   1.289   1.340   1.360   1.340
   1.289   1.228   1.171   1.115   1.054   0.992   0.942   0.918   0.921   0.943
   0.974   1.019   1.087   1.183   1.291   1.378   1.411   1.378   1.291   1.183
   1.087   1.019   0.974   0.943   0.921   0.918   0.942   0.992   1.054   1.115
   1.171   1.228   1.289   1.340   1.360   1.340   1.289   1.228   1.171   1.115
   1.054   0.992   0.942   0.918   0.921   0.943   0.974   1.019   1.087   1.183
   1.291   1.378
   1.514   1.480   1.392   1.284   1.190   1.125   1.077   1.028   0.975   0.936
   0.940   0.995   1.077   1.154   1.206   1.242   1.274   1.302   1.314   1.302
   1.274   1.242   1.206   1.154   1.077   0.995   0.940   0.936   0.975   1.028
   1.077   1.125   1.190   1.284   1.392   1.480   1.514   1.480   1.392   1.284
   1.190   1.125   1.077   1.028   0.975   0.936   0.940   0.995   1.077   1.154
   1.206   1.242   1.274   1.302   1.314   1.302   1.274   1.242   1.206   1.154
   1.077   0.995   0.940   0.936   0.975   1.028   1.077   1.125   1.190   1.284
   1.392   1.480
   1.435   1.416   1.365   1.299   1.241   1.203   1.177   1.134   1.062   0.986
   0.952   0.988   1.075   1.162   1.213   1.231   1.235   1.241   1.245   1.241
   1.235   1.231   1.213   1.162   1.075   0.988   0.952   0.986   1.062   1.134
   1.177   1.203   1.241   1.299   1.365   1.416   1.435   1.416   1.365   1.299
   1.241   1.203   1.177   1.134   1.062   0.986   0.952   0.988   1.075   1.162
   1.213   1.231   1.235   1.241   1.245   1.241   1.235   1.231   1.213   1.162
   1.075   0.988   0.952   0.986   1.062   1.134   1.177   1.203   1.241   1.299
   1.365   1.416
   1.188   1.202   1.227   1.233   1.217   1.201   1.198   1.184   1.125   1.028
   0.948   0.938   0.999   1.080   1.129   1.137   1.127   1.119   1.118   1.119
   1.127   1.137   1.129   1.080   0.999   0.938   0.948   1.028   1.125   1.184
   1.198   1.201   1.217   1.233   1.227   1.202   1.188   1.202   1.227   1.233
   1.217   1.201   1.198   1.184   1.125   1.028   0.948   0.938   0.999   1.080
   1.129   1.137   1.127   1.119   1.118   1.119   1.127   1.137   1.129   1.080
   0.999   0.938   0.948   1.028   1.125   1.184   1.198   1.201   1.217   1.233
   1.227   1.202
   0.867   0.928   1.056   1.143   1.145   1.110   1.106   1.133   1.128   1.050
   0.936   0.863   0.870   0.924   0.968   0.979   0.973   0.967   0.967   0.967
   0.973   0.979   0.968   0.924   0.870   0.863   0.936   1.050   1.128   1.133
   1.106   1.110   1.145   1.143   1.056   0.928   0.867   0.928   1.056   1.143
   1.145   1.110   1.106   1.133   1.128   1.050   0.936   0.863   0.870   0.924
   0.968   0.979   0.973   0.967   0.967   0.967   0.973   0.979   0.968   0.924
   0.870   0.863   0.936   1.050   1.128   1.133   1.106   1.110   1.145   1.143
   1.056   0.928
   0.584   0.699   0.938   1.097   1.080   0.976   0.937   1.007   1.090   1.074
   0.953   0.820   0.759   0.774   0.812   0.839   0.853   0.864   0.869   0.864
   0.853   0.839   0.812   0.774   0.759   0.820   0.953   1.074   1.090   1.007
   0.937   0.976   1.080   1.097   0.938   0.699   0.584   0.699   0.938   1.097
   1.080   0.976   0.937   1.007   1.090   1.074   0.953   0.820   0.759   0.774
   0.812   0.839   0.853   0.864   0.869   0.864   0.853   0.839   0.812   0.774
   0.759   0.820   0.953   1.074   1.090   1.007   0.937   0.976   1.080   1.097
   0.938   0.699
   0.404   0.567   0.902   1.113   1.055   0.860   0.769   0.874   1.052   1.117
   1.012   0.837   0.716   0.692   0.726   0.773   0.814   0.848   0.861   0.848
   0.814   0.773   0.726   0.692   0.716   0.837   1.012   1.117   1.052   0.874
   0.769   0.860   1.055   1.113   0.902   0.567   0.404   0.567   0.902   1.113
   1.055   0.860   0.769   0.874   1.052   1.117   1.012   0.837   0.716   0.692
   0.726   0.773   0.814   0.848   0.861   0.848   0.814   0.773   0.726   0.692
   0.716   0.837   1.012   1.117   1.052   0.874   0.769   0.860   1.055   1.113
   0.902   0.567
   0.327   0.518   0.909   1.147   1.056   0.798   0.668   0.794   1.033   1.155
   1.069   0.873   0.718   0.670   0.702   0.762   0.823   0.872   0.891   0.872
   0.823   0.762   0.702   0.670   0.718   0.873   1.069   1.155   1.033   0.794
   0.668   0.798   1.056   1.147   0.909   0.518   0.327   0.518   0.909   1.147
   1.056   0.798   0.668   0.794   1.033   1.155   1.069   0.873   0.718   0.670
   0.702   0.762   0.823   0.872   0.891   0.872   0.823   0.762   0.702   0.670
   0.718   0.873   1.069   1.155   1.033   0.794   0.668   0.798   1.056   1.147
   0.909   0.518
TEXTURE_INDEX=   1.1654
ERR_CF 220         1080     592   23.19   17.01
ERR_CF 200         1080     594   17.52   16.48
ERR_CF 111         1080     726   20.99   21.15
