TEXEVAL                                                                         
Analysis started on 29-May-19 11:26:47                                          
 LMAX=14LFMAX=03 CUBIC ORTHO   
 220      5.00 5.00
 200      5.00 5.00
 111      5.00 5.00
 220       5.00   72    0 5.00   15    0
   0.920   0.920   0.920   0.920   0.920   0.920   0.920   0.920   0.920   0.920
   0.920   0.920   0.920   0.920   0.920   0.920   0.920   0.920   0.920   0.920
   0.920   0.920   0.920   0.920   0.920   0.920   0.920   0.920   0.920   0.920
   0.920   0.920   0.920   0.920   0.920   0.920   0.920   0.920   0.920   0.920
   0.920   0.920   0.920   0.920   0.920   0.920   0.920   0.920   0.920   0.920
   0.920   0.920   0.920   0.920   0.920   0.920   0.920   0.920   0.920   0.920
   0.920   0.920   0.920   0.920   0.920   0.920   0.920   0.920   0.920   0.920
   0.920   0.920
   0.865   1.053   1.252   0.993   1.053   0.883   0.877   0.912   0.975   1.411
   1.176   1.108   1.067   0.835   1.006   0.971   0.822   1.205   0.950   1.205
   0.822   0.971   1.006   0.835   1.067   1.108   1.176   1.411   0.975   0.912
   0.877   0.883   1.053   0.993   1.252   1.053   0.865   1.053   1.252   0.993
   1.053   0.883   0.877   0.912   0.975   1.411   1.176   1.108   1.067   0.835
   1.006   0.971   0.822   1.205   0.950   1.205   0.822   0.971   1.006   0.835
   1.067   1.108   1.176   1.411   0.975   0.912   0.877   0.883   1.053   0.993
   1.252   1.053
   1.005   1.163   1.378   1.260   1.166   1.074   0.976   0.941   0.900   1.199
   1.210   1.250   1.056   1.267   1.021   1.237   1.138   1.323   1.166   1.323
   1.138   1.237   1.021   1.267   1.056   1.250   1.210   1.199   0.900   0.941
   0.976   1.074   1.166   1.260   1.378   1.163   1.005   1.163   1.378   1.260
   1.166   1.074   0.976   0.941   0.900   1.199   1.210   1.250   1.056   1.267
   1.021   1.237   1.138   1.323   1.166   1.323   1.138   1.237   1.021   1.267
   1.056   1.250   1.210   1.199   0.900   0.941   0.976   1.074   1.166   1.260
   1.378   1.163
   1.112   1.061   1.584   1.350   1.319   1.053   1.118   1.022   0.877   0.953
   0.876   1.049   1.020   1.264   0.933   1.173   1.039   0.834   0.933   0.834
   1.039   1.173   0.933   1.264   1.020   1.049   0.876   0.953   0.877   1.022
   1.118   1.053   1.319   1.350   1.584   1.061   1.112   1.061   1.584   1.350
   1.319   1.053   1.118   1.022   0.877   0.953   0.876   1.049   1.020   1.264
   0.933   1.173   1.039   0.834   0.933   0.834   1.039   1.173   0.933   1.264
   1.020   1.049   0.876   0.953   0.877   1.022   1.118   1.053   1.319   1.350
   1.584   1.061
   1.387   1.465   1.879   1.437   1.289   1.214   1.314   1.326   1.146   1.057
   0.975   1.095   1.159   0.923   0.801   0.924   0.773   0.741   0.794   0.741
   0.773   0.924   0.801   0.923   1.159   1.095   0.975   1.057   1.146   1.326
   1.314   1.214   1.289   1.437   1.879   1.465   1.387   1.465   1.879   1.437
   1.289   1.214   1.314   1.326   1.146   1.057   0.975   1.095   1.159   0.923
   0.801   0.924   0.773   0.741   0.794   0.741   0.773   0.924   0.801   0.923
   1.159   1.095   0.975   1.057   1.146   1.326   1.314   1.214   1.289   1.437
   1.879   1.465
   1.528   1.627   1.802   1.606   1.311   1.397   1.487   1.339   1.370   1.161
   1.189   1.176   1.232   0.926   0.860   1.149   0.821   0.747   0.761   0.747
   0.821   1.149   0.860   0.926   1.232   1.176   1.189   1.161   1.370   1.339
   1.487   1.397   1.311   1.606   1.802   1.627   1.528   1.627   1.802   1.606
   1.311   1.397   1.487   1.339   1.370   1.161   1.189   1.176   1.232   0.926
   0.860   1.149   0.821   0.747   0.761   0.747   0.821   1.149   0.860   0.926
   1.232   1.176   1.189   1.161   1.370   1.339   1.487   1.397   1.311   1.606
   1.802   1.627
   1.424   1.549   1.898   1.580   1.503   1.603   1.574   1.098   1.285   1.288
   1.364   1.189   1.157   0.803   0.919   1.375   0.998   0.831   0.592   0.831
   0.998   1.375   0.919   0.803   1.157   1.189   1.364   1.288   1.285   1.098
   1.574   1.603   1.503   1.580   1.898   1.549   1.424   1.549   1.898   1.580
   1.503   1.603   1.574   1.098   1.285   1.288   1.364   1.189   1.157   0.803
   0.919   1.375   0.998   0.831   0.592   0.831   0.998   1.375   0.919   0.803
   1.157   1.189   1.364   1.288   1.285   1.098   1.574   1.603   1.503   1.580
   1.898   1.549
   1.281   1.075   1.381   1.264   1.418   1.448   1.313   1.096   1.507   1.261
   1.004   1.248   1.004   0.675   0.972   0.996   0.924   0.965   0.696   0.965
   0.924   0.996   0.972   0.675   1.004   1.248   1.004   1.261   1.507   1.096
   1.313   1.448   1.418   1.264   1.381   1.075   1.281   1.075   1.381   1.264
   1.418   1.448   1.313   1.096   1.507   1.261   1.004   1.248   1.004   0.675
   0.972   0.996   0.924   0.965   0.696   0.965   0.924   0.996   0.972   0.675
   1.004   1.248   1.004   1.261   1.507   1.096   1.313   1.448   1.418   1.264
   1.381   1.075
   1.089   0.847   1.099   1.100   1.038   1.102   1.058   1.292   1.519   1.051
   1.094   1.292   0.978   0.706   1.119   0.680   0.885   0.939   0.925   0.939
   0.885   0.680   1.119   0.706   0.978   1.292   1.094   1.051   1.519   1.292
   1.058   1.102   1.038   1.100   1.099   0.847   1.089   0.847   1.099   1.100
   1.038   1.102   1.058   1.292   1.519   1.051   1.094   1.292   0.978   0.706
   1.119   0.680   0.885   0.939   0.925   0.939   0.885   0.680   1.119   0.706
   0.978   1.292   1.094   1.051   1.519   1.292   1.058   1.102   1.038   1.100
   1.099   0.847
   0.882   1.054   1.074   1.030   0.809   1.082   1.093   1.439   1.397   1.007
   1.301   1.167   1.117   0.963   1.098   0.960   0.847   0.765   1.127   0.765
   0.847   0.960   1.098   0.963   1.117   1.167   1.301   1.007   1.397   1.439
   1.093   1.082   0.809   1.030   1.074   1.054   0.882   1.054   1.074   1.030
   0.809   1.082   1.093   1.439   1.397   1.007   1.301   1.167   1.117   0.963
   1.098   0.960   0.847   0.765   1.127   0.765   0.847   0.960   1.098   0.963
   1.117   1.167   1.301   1.007   1.397   1.439   1.093   1.082   0.809   1.030
   1.074   1.054
   1.223   1.081   0.675   0.695   0.688   0.800   1.024   1.042   1.110   0.936
   0.989   0.773   1.156   0.953   0.742   0.946   1.053   0.857   1.468   0.857
   1.053   0.946   0.742   0.953   1.156   0.773   0.989   0.936   1.110   1.042
   1.024   0.800   0.688   0.695   0.675   1.081   1.223   1.081   0.675   0.695
   0.688   0.800   1.024   1.042   1.110   0.936   0.989   0.773   1.156   0.953
   0.742   0.946   1.053   0.857   1.468   0.857   1.053   0.946   0.742   0.953
   1.156   0.773   0.989   0.936   1.110   1.042   1.024   0.800   0.688   0.695
   0.675   1.081
   1.151   1.432   0.969   0.707   0.877   0.992   1.037   0.705   0.435   0.841
   1.167   0.841   1.321   1.221   0.906   1.140   1.236   1.357   1.358   1.357
   1.236   1.140   0.906   1.221   1.321   0.841   1.167   0.841   0.435   0.705
   1.037   0.992   0.877   0.707   0.969   1.432   1.151   1.432   0.969   0.707
   0.877   0.992   1.037   0.705   0.435   0.841   1.167   0.841   1.321   1.221
   0.906   1.140   1.236   1.357   1.358   1.357   1.236   1.140   0.906   1.221
   1.321   0.841   1.167   0.841   0.435   0.705   1.037   0.992   0.877   0.707
   0.969   1.432
   1.109   1.259   1.449   0.754   0.766   0.759   1.075   1.011   0.499   0.614
   1.429   0.956   1.087   1.030   0.859   1.285   0.901   1.264   1.263   1.264
   0.901   1.285   0.859   1.030   1.087   0.956   1.429   0.614   0.499   1.011
   1.075   0.759   0.766   0.754   1.449   1.259   1.109   1.259   1.449   0.754
   0.766   0.759   1.075   1.011   0.499   0.614   1.429   0.956   1.087   1.030
   0.859   1.285   0.901   1.264   1.263   1.264   0.901   1.285   0.859   1.030
   1.087   0.956   1.429   0.614   0.499   1.011   1.075   0.759   0.766   0.754
   1.449   1.259
   1.597   0.734   1.237   0.683   0.457   0.386   0.777   0.839   0.821   0.511
   1.373   1.025   1.048   0.853   0.365   1.037   0.760   0.901   1.067   0.901
   0.760   1.037   0.365   0.853   1.048   1.025   1.373   0.511   0.821   0.839
   0.777   0.386   0.457   0.683   1.237   0.734   1.597   0.734   1.237   0.683
   0.457   0.386   0.777   0.839   0.821   0.511   1.373   1.025   1.048   0.853
   0.365   1.037   0.760   0.901   1.067   0.901   0.760   1.037   0.365   0.853
   1.048   1.025   1.373   0.511   0.821   0.839   0.777   0.386   0.457   0.683
   1.237   0.734
   1.625   0.601   0.821   0.672   0.581   0.895   0.771   1.070   0.668   0.577
   0.841   1.158   1.258   0.939   0.551   1.016   0.812   0.964   0.809   0.964
   0.812   1.016   0.551   0.939   1.258   1.158   0.841   0.577   0.668   1.070
   0.771   0.895   0.581   0.672   0.821   0.601   1.625   0.601   0.821   0.672
   0.581   0.895   0.771   1.070   0.668   0.577   0.841   1.158   1.258   0.939
   0.551   1.016   0.812   0.964   0.809   0.964   0.812   1.016   0.551   0.939
   1.258   1.158   0.841   0.577   0.668   1.070   0.771   0.895   0.581   0.672
   0.821   0.601
 200       5.00   72    0 5.00   15    0
   1.492   1.492   1.492   1.492   1.492   1.492   1.492   1.492   1.492   1.492
   1.492   1.492   1.492   1.492   1.492   1.492   1.492   1.492   1.492   1.492
   1.492   1.492   1.492   1.492   1.492   1.492   1.492   1.492   1.492   1.492
   1.492   1.492   1.492   1.492   1.492   1.492   1.492   1.492   1.492   1.492
   1.492   1.492   1.492   1.492   1.492   1.492   1.492   1.492   1.492   1.492
   1.492   1.492   1.492   1.492   1.492   1.492   1.492   1.492   1.492   1.492
   1.492   1.492   1.492   1.492   1.492   1.492   1.492   1.492   1.492   1.492
   1.492   1.492
   1.236   1.364   1.578   1.522   1.361   1.351   1.277   1.287   1.334   1.376
   1.355   1.447   1.525   1.894   1.594   1.592   1.543   1.468   1.390   1.468
   1.543   1.592   1.594   1.894   1.525   1.447   1.355   1.376   1.334   1.287
   1.277   1.351   1.361   1.522   1.578   1.364   1.236   1.364   1.578   1.522
   1.361   1.351   1.277   1.287   1.334   1.376   1.355   1.447   1.525   1.894
   1.594   1.592   1.543   1.468   1.390   1.468   1.543   1.592   1.594   1.894
   1.525   1.447   1.355   1.376   1.334   1.287   1.277   1.351   1.361   1.522
   1.578   1.364
   1.301   1.358   1.922   1.417   1.241   1.524   1.357   1.228   1.273   1.312
   1.369   1.534   1.562   1.992   1.608   1.605   1.925   1.733   1.462   1.733
   1.925   1.605   1.608   1.992   1.562   1.534   1.369   1.312   1.273   1.228
   1.357   1.524   1.241   1.417   1.922   1.358   1.301   1.358   1.922   1.417
   1.241   1.524   1.357   1.228   1.273   1.312   1.369   1.534   1.562   1.992
   1.608   1.605   1.925   1.733   1.462   1.733   1.925   1.605   1.608   1.992
   1.562   1.534   1.369   1.312   1.273   1.228   1.357   1.524   1.241   1.417
   1.922   1.358
   1.165   1.057   1.345   1.128   1.356   1.604   1.314   1.303   1.110   1.173
   1.368   1.433   1.288   1.219   1.264   1.359   1.844   2.189   2.034   2.189
   1.844   1.359   1.264   1.219   1.288   1.433   1.368   1.173   1.110   1.303
   1.314   1.604   1.356   1.128   1.345   1.057   1.165   1.057   1.345   1.128
   1.356   1.604   1.314   1.303   1.110   1.173   1.368   1.433   1.288   1.219
   1.264   1.359   1.844   2.189   2.034   2.189   1.844   1.359   1.264   1.219
   1.288   1.433   1.368   1.173   1.110   1.303   1.314   1.604   1.356   1.128
   1.345   1.057
   0.948   1.199   0.983   0.929   1.198   1.319   1.198   1.361   1.237   1.167
   1.338   1.519   1.067   1.060   1.154   1.417   1.466   2.079   1.913   2.079
   1.466   1.417   1.154   1.060   1.067   1.519   1.338   1.167   1.237   1.361
   1.198   1.319   1.198   0.929   0.983   1.199   0.948   1.199   0.983   0.929
   1.198   1.319   1.198   1.361   1.237   1.167   1.338   1.519   1.067   1.060
   1.154   1.417   1.466   2.079   1.913   2.079   1.466   1.417   1.154   1.060
   1.067   1.519   1.338   1.167   1.237   1.361   1.198   1.319   1.198   0.929
   0.983   1.199
   0.793   1.256   0.853   0.836   0.895   0.947   1.019   1.166   1.385   1.200
   1.138   1.333   0.963   1.247   1.490   2.056   1.612   1.688   1.356   1.688
   1.612   2.056   1.490   1.247   0.963   1.333   1.138   1.200   1.385   1.166
   1.019   0.947   0.895   0.836   0.853   1.256   0.793   1.256   0.853   0.836
   0.895   0.947   1.019   1.166   1.385   1.200   1.138   1.333   0.963   1.247
   1.490   2.056   1.612   1.688   1.356   1.688   1.612   2.056   1.490   1.247
   0.963   1.333   1.138   1.200   1.385   1.166   1.019   0.947   0.895   0.836
   0.853   1.256
   0.579   0.970   0.703   0.870   0.800   0.672   0.828   1.135   1.063   0.875
   0.996   1.263   1.142   1.339   1.955   2.782   1.929   1.646   1.442   1.646
   1.929   2.782   1.955   1.339   1.142   1.263   0.996   0.875   1.063   1.135
   0.828   0.672   0.800   0.870   0.703   0.970   0.579   0.970   0.703   0.870
   0.800   0.672   0.828   1.135   1.063   0.875   0.996   1.263   1.142   1.339
   1.955   2.782   1.929   1.646   1.442   1.646   1.929   2.782   1.955   1.339
   1.142   1.263   0.996   0.875   1.063   1.135   0.828   0.672   0.800   0.870
   0.703   0.970
   0.549   0.823   0.667   0.798   0.684   0.615   0.703   1.005   0.884   0.745
   0.806   1.231   1.283   1.414   1.543   2.010   1.555   1.363   1.299   1.363
   1.555   2.010   1.543   1.414   1.283   1.231   0.806   0.745   0.884   1.005
   0.703   0.615   0.684   0.798   0.667   0.823   0.549   0.823   0.667   0.798
   0.684   0.615   0.703   1.005   0.884   0.745   0.806   1.231   1.283   1.414
   1.543   2.010   1.555   1.363   1.299   1.363   1.555   2.010   1.543   1.414
   1.283   1.231   0.806   0.745   0.884   1.005   0.703   0.615   0.684   0.798
   0.667   0.823
   0.514   0.666   0.670   0.571   0.512   0.678   0.677   0.895   0.890   0.755
   0.744   0.918   1.116   1.219   0.804   0.861   1.133   1.379   0.933   1.379
   1.133   0.861   0.804   1.219   1.116   0.918   0.744   0.755   0.890   0.895
   0.677   0.678   0.512   0.571   0.670   0.666   0.514   0.666   0.670   0.571
   0.512   0.678   0.677   0.895   0.890   0.755   0.744   0.918   1.116   1.219
   0.804   0.861   1.133   1.379   0.933   1.379   1.133   0.861   0.804   1.219
   1.116   0.918   0.744   0.755   0.890   0.895   0.677   0.678   0.512   0.571
   0.670   0.666
   1.026   0.619   0.791   0.722   0.670   0.722   0.721   0.745   0.763   0.525
   0.631   0.821   1.005   0.753   0.583   0.958   1.089   1.289   0.621   1.289
   1.089   0.958   0.583   0.753   1.005   0.821   0.631   0.525   0.763   0.745
   0.721   0.722   0.670   0.722   0.791   0.619   1.026   0.619   0.791   0.722
   0.670   0.722   0.721   0.745   0.763   0.525   0.631   0.821   1.005   0.753
   0.583   0.958   1.089   1.289   0.621   1.289   1.089   0.958   0.583   0.753
   1.005   0.821   0.631   0.525   0.763   0.745   0.721   0.722   0.670   0.722
   0.791   0.619
   0.936   0.653   0.880   0.794   0.673   0.679   0.737   0.616   0.784   0.760
   0.908   1.124   1.432   0.649   0.825   1.022   0.859   1.010   0.918   1.010
   0.859   1.022   0.825   0.649   1.432   1.124   0.908   0.760   0.784   0.616
   0.737   0.679   0.673   0.794   0.880   0.653   0.936   0.653   0.880   0.794
   0.673   0.679   0.737   0.616   0.784   0.760   0.908   1.124   1.432   0.649
   0.825   1.022   0.859   1.010   0.918   1.010   0.859   1.022   0.825   0.649
   1.432   1.124   0.908   0.760   0.784   0.616   0.737   0.679   0.673   0.794
   0.880   0.653
   0.750   0.713   1.003   0.673   0.742   0.721   0.782   0.752   0.712   1.299
   1.022   1.138   1.313   0.601   0.982   0.913   0.637   0.895   0.845   0.895
   0.637   0.913   0.982   0.601   1.313   1.138   1.022   1.299   0.712   0.752
   0.782   0.721   0.742   0.673   1.003   0.713   0.750   0.713   1.003   0.673
   0.742   0.721   0.782   0.752   0.712   1.299   1.022   1.138   1.313   0.601
   0.982   0.913   0.637   0.895   0.845   0.895   0.637   0.913   0.982   0.601
   1.313   1.138   1.022   1.299   0.712   0.752   0.782   0.721   0.742   0.673
   1.003   0.713
   0.872   0.818   0.593   0.564   0.701   1.027   0.815   0.635   0.930   1.242
   0.753   0.937   0.904   0.814   0.658   0.995   0.620   0.597   0.565   0.597
   0.620   0.995   0.658   0.814   0.904   0.937   0.753   1.242   0.930   0.635
   0.815   1.027   0.701   0.564   0.593   0.818   0.872   0.818   0.593   0.564
   0.701   1.027   0.815   0.635   0.930   1.242   0.753   0.937   0.904   0.814
   0.658   0.995   0.620   0.597   0.565   0.597   0.620   0.995   0.658   0.814
   0.904   0.937   0.753   1.242   0.930   0.635   0.815   1.027   0.701   0.564
   0.593   0.818
   0.447   1.047   0.387   0.589   0.409   0.930   1.245   1.024   1.612   1.319
   1.029   1.074   1.199   1.050   0.619   0.743   0.773   0.624   0.821   0.624
   0.773   0.743   0.619   1.050   1.199   1.074   1.029   1.319   1.612   1.024
   1.245   0.930   0.409   0.589   0.387   1.047   0.447   1.047   0.387   0.589
   0.409   0.930   1.245   1.024   1.612   1.319   1.029   1.074   1.199   1.050
   0.619   0.743   0.773   0.624   0.821   0.624   0.773   0.743   0.619   1.050
   1.199   1.074   1.029   1.319   1.612   1.024   1.245   0.930   0.409   0.589
   0.387   1.047
   0.397   1.129   0.630   0.676   0.527   0.863   1.220   0.961   1.458   1.408
   1.648   1.006   1.069   0.664   0.988   0.613   0.730   0.517   1.334   0.517
   0.730   0.613   0.988   0.664   1.069   1.006   1.648   1.408   1.458   0.961
   1.220   0.863   0.527   0.676   0.630   1.129   0.397   1.129   0.630   0.676
   0.527   0.863   1.220   0.961   1.458   1.408   1.648   1.006   1.069   0.664
   0.988   0.613   0.730   0.517   1.334   0.517   0.730   0.613   0.988   0.664
   1.069   1.006   1.648   1.408   1.458   0.961   1.220   0.863   0.527   0.676
   0.630   1.129
 111       5.00   72    0 5.00   15    0
   1.403   1.403   1.403   1.403   1.403   1.403   1.403   1.403   1.403   1.403
   1.403   1.403   1.403   1.403   1.403   1.403   1.403   1.403   1.403   1.403
   1.403   1.403   1.403   1.403   1.403   1.403   1.403   1.403   1.403   1.403
   1.403   1.403   1.403   1.403   1.403   1.403   1.403   1.403   1.403   1.403
   1.403   1.403   1.403   1.403   1.403   1.403   1.403   1.403   1.403   1.403
   1.403   1.403   1.403   1.403   1.403   1.403   1.403   1.403   1.403   1.403
   1.403   1.403   1.403   1.403   1.403   1.403   1.403   1.403   1.403   1.403
   1.403   1.403
   1.300   1.336   1.434   1.317   1.325   1.462   1.545   1.495   1.386   1.433
   1.309   1.422   1.331   1.272   1.502   1.433   1.358   1.421   1.461   1.421
   1.358   1.433   1.502   1.272   1.331   1.422   1.309   1.433   1.386   1.495
   1.545   1.462   1.325   1.317   1.434   1.336   1.300   1.336   1.434   1.317
   1.325   1.462   1.545   1.495   1.386   1.433   1.309   1.422   1.331   1.272
   1.502   1.433   1.358   1.421   1.461   1.421   1.358   1.433   1.502   1.272
   1.331   1.422   1.309   1.433   1.386   1.495   1.545   1.462   1.325   1.317
   1.434   1.336
   1.084   1.127   1.198   1.171   1.188   1.242   1.285   1.390   1.334   1.278
   1.266   1.340   1.321   1.778   1.813   1.528   1.555   1.543   1.449   1.543
   1.555   1.528   1.813   1.778   1.321   1.340   1.266   1.278   1.334   1.390
   1.285   1.242   1.188   1.171   1.198   1.127   1.084   1.127   1.198   1.171
   1.188   1.242   1.285   1.390   1.334   1.278   1.266   1.340   1.321   1.778
   1.813   1.528   1.555   1.543   1.449   1.543   1.555   1.528   1.813   1.778
   1.321   1.340   1.266   1.278   1.334   1.390   1.285   1.242   1.188   1.171
   1.198   1.127
   1.266   1.171   1.086   1.072   1.051   1.246   1.339   1.402   1.267   1.220
   1.331   1.417   1.296   1.806   1.559   1.300   1.536   1.533   1.501   1.533
   1.536   1.300   1.559   1.806   1.296   1.417   1.331   1.220   1.267   1.402
   1.339   1.246   1.051   1.072   1.086   1.171   1.266   1.171   1.086   1.072
   1.051   1.246   1.339   1.402   1.267   1.220   1.331   1.417   1.296   1.806
   1.559   1.300   1.536   1.533   1.501   1.533   1.536   1.300   1.559   1.806
   1.296   1.417   1.331   1.220   1.267   1.402   1.339   1.246   1.051   1.072
   1.086   1.171
   1.195   1.107   0.995   0.992   1.088   1.222   1.340   1.170   1.181   1.040
   1.316   1.281   1.131   1.178   1.506   1.237   1.325   1.532   1.678   1.532
   1.325   1.237   1.506   1.178   1.131   1.281   1.316   1.040   1.181   1.170
   1.340   1.222   1.088   0.992   0.995   1.107   1.195   1.107   0.995   0.992
   1.088   1.222   1.340   1.170   1.181   1.040   1.316   1.281   1.131   1.178
   1.506   1.237   1.325   1.532   1.678   1.532   1.325   1.237   1.506   1.178
   1.131   1.281   1.316   1.040   1.181   1.170   1.340   1.222   1.088   0.992
   0.995   1.107
   0.951   1.091   0.847   1.046   1.016   1.149   1.391   1.073   1.139   0.954
   1.008   1.023   0.986   1.013   1.497   1.402   1.422   1.617   1.439   1.617
   1.422   1.402   1.497   1.013   0.986   1.023   1.008   0.954   1.139   1.073
   1.391   1.149   1.016   1.046   0.847   1.091   0.951   1.091   0.847   1.046
   1.016   1.149   1.391   1.073   1.139   0.954   1.008   1.023   0.986   1.013
   1.497   1.402   1.422   1.617   1.439   1.617   1.422   1.402   1.497   1.013
   0.986   1.023   1.008   0.954   1.139   1.073   1.391   1.149   1.016   1.046
   0.847   1.091
   1.024   1.265   1.036   1.046   1.128   1.437   1.377   1.170   1.257   0.923
   0.775   1.023   0.891   0.941   1.266   1.464   1.357   1.777   1.383   1.777
   1.357   1.464   1.266   0.941   0.891   1.023   0.775   0.923   1.257   1.170
   1.377   1.437   1.128   1.046   1.036   1.265   1.024   1.265   1.036   1.046
   1.128   1.437   1.377   1.170   1.257   0.923   0.775   1.023   0.891   0.941
   1.266   1.464   1.357   1.777   1.383   1.777   1.357   1.464   1.266   0.941
   0.891   1.023   0.775   0.923   1.257   1.170   1.377   1.437   1.128   1.046
   1.036   1.265
   1.348   1.316   1.298   1.090   1.085   1.416   1.051   1.044   1.297   1.227
   1.170   0.888   0.825   0.813   1.244   1.445   1.354   1.564   1.420   1.564
   1.354   1.445   1.244   0.813   0.825   0.888   1.170   1.227   1.297   1.044
   1.051   1.416   1.085   1.090   1.298   1.316   1.348   1.316   1.298   1.090
   1.085   1.416   1.051   1.044   1.297   1.227   1.170   0.888   0.825   0.813
   1.244   1.445   1.354   1.564   1.420   1.564   1.354   1.445   1.244   0.813
   0.825   0.888   1.170   1.227   1.297   1.044   1.051   1.416   1.085   1.090
   1.298   1.316
   1.632   1.286   1.379   1.019   0.872   1.228   1.023   0.923   1.125   1.044
   1.106   0.809   0.820   0.817   1.054   1.157   1.251   1.328   1.138   1.328
   1.251   1.157   1.054   0.817   0.820   0.809   1.106   1.044   1.125   0.923
   1.023   1.228   0.872   1.019   1.379   1.286   1.632   1.286   1.379   1.019
   0.872   1.228   1.023   0.923   1.125   1.044   1.106   0.809   0.820   0.817
   1.054   1.157   1.251   1.328   1.138   1.328   1.251   1.157   1.054   0.817
   0.820   0.809   1.106   1.044   1.125   0.923   1.023   1.228   0.872   1.019
   1.379   1.286
   1.308   1.209   1.295   1.128   0.864   1.305   1.257   0.937   1.087   0.612
   0.680   0.807   0.805   0.848   0.867   0.897   0.988   1.282   1.184   1.282
   0.988   0.897   0.867   0.848   0.805   0.807   0.680   0.612   1.087   0.937
   1.257   1.305   0.864   1.128   1.295   1.209   1.308   1.209   1.295   1.128
   0.864   1.305   1.257   0.937   1.087   0.612   0.680   0.807   0.805   0.848
   0.867   0.897   0.988   1.282   1.184   1.282   0.988   0.897   0.867   0.848
   0.805   0.807   0.680   0.612   1.087   0.937   1.257   1.305   0.864   1.128
   1.295   1.209
   1.146   1.262   1.150   1.190   1.078   1.186   1.280   1.017   1.063   0.626
   0.576   0.800   0.693   0.705   0.846   0.755   1.098   1.136   1.028   1.136
   1.098   0.755   0.846   0.705   0.693   0.800   0.576   0.626   1.063   1.017
   1.280   1.186   1.078   1.190   1.150   1.262   1.146   1.262   1.150   1.190
   1.078   1.186   1.280   1.017   1.063   0.626   0.576   0.800   0.693   0.705
   0.846   0.755   1.098   1.136   1.028   1.136   1.098   0.755   0.846   0.705
   0.693   0.800   0.576   0.626   1.063   1.017   1.280   1.186   1.078   1.190
   1.150   1.262
   1.447   1.306   1.186   1.224   1.097   1.034   1.104   1.075   1.095   0.746
   0.554   0.715   0.703   0.569   0.795   0.912   0.806   1.042   0.946   1.042
   0.806   0.912   0.795   0.569   0.703   0.715   0.554   0.746   1.095   1.075
   1.104   1.034   1.097   1.224   1.186   1.306   1.447   1.306   1.186   1.224
   1.097   1.034   1.104   1.075   1.095   0.746   0.554   0.715   0.703   0.569
   0.795   0.912   0.806   1.042   0.946   1.042   0.806   0.912   0.795   0.569
   0.703   0.715   0.554   0.746   1.095   1.075   1.104   1.034   1.097   1.224
   1.186   1.306
   1.384   1.199   1.580   1.395   0.987   1.047   1.077   1.049   1.256   0.990
   0.658   0.672   0.977   0.643   0.798   1.213   0.613   1.110   1.079   1.110
   0.613   1.213   0.798   0.643   0.977   0.672   0.658   0.990   1.256   1.049
   1.077   1.047   0.987   1.395   1.580   1.199   1.384   1.199   1.580   1.395
   0.987   1.047   1.077   1.049   1.256   0.990   0.658   0.672   0.977   0.643
   0.798   1.213   0.613   1.110   1.079   1.110   0.613   1.213   0.798   0.643
   0.977   0.672   0.658   0.990   1.256   1.049   1.077   1.047   0.987   1.395
   1.580   1.199
   0.918   1.286   1.664   1.056   1.094   0.918   1.088   0.899   0.910   0.915
   0.558   0.596   1.034   0.704   0.750   1.107   0.780   1.351   1.096   1.351
   0.780   1.107   0.750   0.704   1.034   0.596   0.558   0.915   0.910   0.899
   1.088   0.918   1.094   1.056   1.664   1.286   0.918   1.286   1.664   1.056
   1.094   0.918   1.088   0.899   0.910   0.915   0.558   0.596   1.034   0.704
   0.750   1.107   0.780   1.351   1.096   1.351   0.780   1.107   0.750   0.704
   1.034   0.596   0.558   0.915   0.910   0.899   1.088   0.918   1.094   1.056
   1.664   1.286
   0.776   1.154   1.354   0.696   0.758   0.684   1.069   0.687   0.717   0.732
   0.527   0.434   0.870   0.735   0.531   0.754   0.658   1.481   1.600   1.481
   0.658   0.754   0.531   0.735   0.870   0.434   0.527   0.732   0.717   0.687
   1.069   0.684   0.758   0.696   1.354   1.154   0.776   1.154   1.354   0.696
   0.758   0.684   1.069   0.687   0.717   0.732   0.527   0.434   0.870   0.735
   0.531   0.754   0.658   1.481   1.600   1.481   0.658   0.754   0.531   0.735
   0.870   0.434   0.527   0.732   0.717   0.687   1.069   0.684   0.758   0.696
   1.354   1.154
  4  1      3.6431754E-01
  4  2     -4.6012129E-01
  4  3     -5.6726624E-01
  6  1     -1.0852506E-01
  6  2      6.0340348E-01
  6  3     -2.6397000E-01
  6  4      3.3166237E-01
  8  1     -7.8912767E-02
  8  2     -6.4820169E-02
  8  3      1.6963893E-01
  8  4      1.2282807E-01
  8  5      6.0167032E-01
 10  1      5.2476452E-02
 10  2     -1.5776392E-01
 10  3      9.5528805E-02
 10  4     -1.6673393E-01
 10  5      1.1116756E-01
 10  6     -9.6932426E-02
 12  1      3.0382012E-02  2.6789412E-01
 12  2      1.7237048E-01 -1.0776808E-01
 12  3     -1.0922779E-02  2.8608270E-01
 12  4     -5.9053577E-02 -1.2861609E-01
 12  5     -6.5120488E-02  6.5226327E-02
 12  6      1.7509469E-03  6.4719861E-02
 12  7      2.3276690E-02  8.6898860E-01
 14  1      1.1500765E-01
 14  2      7.5072579E-02
 14  3     -5.9136566E-02
 14  4      1.6490516E-01
 14  5     -1.1632851E-01
 14  6      2.3876102E-02
 14  7      1.4265720E-01
 14  8      5.0929563E-01
 220       5.00   72    0 5.00   18    0
   0.990   0.990   0.990   0.990   0.990   0.990   0.989   0.989   0.989   0.989
   0.989   0.989   0.989   0.989   0.989   0.989   0.989   0.989   0.989   0.989
   0.989   0.989   0.989   0.989   0.989   0.989   0.989   0.989   0.989   0.989
   0.989   0.990   0.990   0.990   0.990   0.990   0.990   0.990   0.990   0.990
   0.990   0.990   0.989   0.989   0.989   0.989   0.989   0.989   0.989   0.989
   0.989   0.989   0.989   0.989   0.989   0.989   0.989   0.989   0.989   0.989
   0.989   0.989   0.989   0.989   0.989   0.989   0.989   0.990   0.990   0.990
   0.990   0.990
   0.940   0.939   0.938   0.937   0.935   0.933   0.931   0.929   0.927   0.925
   0.923   0.922   0.921   0.921   0.921   0.920   0.920   0.920   0.920   0.920
   0.920   0.920   0.921   0.921   0.921   0.922   0.923   0.925   0.927   0.929
   0.931   0.933   0.935   0.937   0.938   0.939   0.940   0.939   0.938   0.937
   0.935   0.933   0.931   0.929   0.927   0.925   0.923   0.922   0.921   0.921
   0.921   0.920   0.920   0.920   0.920   0.920   0.920   0.920   0.921   0.921
   0.921   0.922   0.923   0.925   0.927   0.929   0.931   0.933   0.935   0.937
   0.938   0.939
   0.932   0.931   0.926   0.918   0.907   0.896   0.884   0.873   0.862   0.854
   0.848   0.843   0.841   0.840   0.840   0.841   0.842   0.842   0.843   0.842
   0.842   0.841   0.840   0.840   0.841   0.843   0.848   0.854   0.862   0.873
   0.884   0.896   0.907   0.918   0.926   0.931   0.932   0.931   0.926   0.918
   0.907   0.896   0.884   0.873   0.862   0.854   0.848   0.843   0.841   0.840
   0.840   0.841   0.842   0.842   0.843   0.842   0.842   0.841   0.840   0.840
   0.841   0.843   0.848   0.854   0.862   0.873   0.884   0.896   0.907   0.918
   0.926   0.931
   1.052   1.047   1.033   1.010   0.982   0.950   0.918   0.887   0.860   0.839
   0.822   0.811   0.805   0.803   0.803   0.804   0.806   0.807   0.808   0.807
   0.806   0.804   0.803   0.803   0.805   0.811   0.822   0.839   0.860   0.887
   0.918   0.950   0.982   1.010   1.033   1.047   1.052   1.047   1.033   1.010
   0.982   0.950   0.918   0.887   0.860   0.839   0.822   0.811   0.805   0.803
   0.803   0.804   0.806   0.807   0.808   0.807   0.806   0.804   0.803   0.803
   0.805   0.811   0.822   0.839   0.860   0.887   0.918   0.950   0.982   1.010
   1.033   1.047
   1.270   1.261   1.235   1.195   1.145   1.089   1.031   0.977   0.929   0.890
   0.860   0.840   0.827   0.819   0.815   0.813   0.813   0.813   0.813   0.813
   0.813   0.813   0.815   0.819   0.827   0.840   0.860   0.890   0.929   0.977
   1.031   1.089   1.145   1.195   1.235   1.261   1.270   1.261   1.235   1.195
   1.145   1.089   1.031   0.977   0.929   0.890   0.860   0.840   0.827   0.819
   0.815   0.813   0.813   0.813   0.813   0.813   0.813   0.813   0.815   0.819
   0.827   0.840   0.860   0.890   0.929   0.977   1.031   1.089   1.145   1.195
   1.235   1.261
   1.447   1.436   1.405   1.357   1.295   1.226   1.154   1.085   1.024   0.971
   0.930   0.898   0.874   0.855   0.841   0.830   0.821   0.815   0.813   0.815
   0.821   0.830   0.841   0.855   0.874   0.898   0.930   0.971   1.024   1.085
   1.154   1.226   1.295   1.357   1.405   1.436   1.447   1.436   1.405   1.357
   1.295   1.226   1.154   1.085   1.024   0.971   0.930   0.898   0.874   0.855
   0.841   0.830   0.821   0.815   0.813   0.815   0.821   0.830   0.841   0.855
   0.874   0.898   0.930   0.971   1.024   1.085   1.154   1.226   1.295   1.357
   1.405   1.436
   1.451   1.442   1.417   1.379   1.329   1.273   1.213   1.152   1.093   1.039
   0.991   0.950   0.914   0.881   0.852   0.827   0.807   0.794   0.790   0.794
   0.807   0.827   0.852   0.881   0.914   0.950   0.991   1.039   1.093   1.152
   1.213   1.273   1.329   1.379   1.417   1.442   1.451   1.442   1.417   1.379
   1.329   1.273   1.213   1.152   1.093   1.039   0.991   0.950   0.914   0.881
   0.852   0.827   0.807   0.794   0.790   0.794   0.807   0.827   0.852   0.881
   0.914   0.950   0.991   1.039   1.093   1.152   1.213   1.273   1.329   1.379
   1.417   1.442
   1.279   1.274   1.262   1.246   1.229   1.209   1.186   1.156   1.119   1.078
   1.034   0.989   0.944   0.900   0.859   0.823   0.796   0.779   0.773   0.779
   0.796   0.823   0.859   0.900   0.944   0.989   1.034   1.078   1.119   1.156
   1.186   1.209   1.229   1.246   1.262   1.274   1.279   1.274   1.262   1.246
   1.229   1.209   1.186   1.156   1.119   1.078   1.034   0.989   0.944   0.900
   0.859   0.823   0.796   0.779   0.773   0.779   0.796   0.823   0.859   0.900
   0.944   0.989   1.034   1.078   1.119   1.156   1.186   1.209   1.229   1.246
   1.262   1.274
   1.067   1.063   1.055   1.052   1.063   1.083   1.105   1.116   1.114   1.096
   1.068   1.030   0.986   0.938   0.892   0.855   0.830   0.816   0.812   0.816
   0.830   0.855   0.892   0.938   0.986   1.030   1.068   1.096   1.114   1.116
   1.105   1.083   1.063   1.052   1.055   1.063   1.067   1.063   1.055   1.052
   1.063   1.083   1.105   1.116   1.114   1.096   1.068   1.030   0.986   0.938
   0.892   0.855   0.830   0.816   0.812   0.816   0.830   0.855   0.892   0.938
   0.986   1.030   1.068   1.096   1.114   1.116   1.105   1.083   1.063   1.052
   1.055   1.063
   0.973   0.959   0.929   0.909   0.921   0.962   1.016   1.061   1.089   1.102
   1.100   1.083   1.050   1.005   0.961   0.929   0.914   0.911   0.912   0.911
   0.914   0.929   0.961   1.005   1.050   1.083   1.100   1.102   1.089   1.061
   1.016   0.962   0.921   0.909   0.929   0.959   0.973   0.959   0.929   0.909
   0.921   0.962   1.016   1.061   1.089   1.102   1.100   1.083   1.050   1.005
   0.961   0.929   0.914   0.911   0.912   0.911   0.914   0.929   0.961   1.005
   1.050   1.083   1.100   1.102   1.089   1.061   1.016   0.962   0.921   0.909
   0.929   0.959
   1.036   1.001   0.922   0.855   0.842   0.884   0.948   1.006   1.051   1.089
   1.122   1.138   1.124   1.084   1.038   1.010   1.008   1.020   1.028   1.020
   1.008   1.010   1.038   1.084   1.124   1.138   1.122   1.089   1.051   1.006
   0.948   0.884   0.842   0.855   0.922   1.001   1.036   1.001   0.922   0.855
   0.842   0.884   0.948   1.006   1.051   1.089   1.122   1.138   1.124   1.084
   1.038   1.010   1.008   1.020   1.028   1.020   1.008   1.010   1.038   1.084
   1.124   1.138   1.122   1.089   1.051   1.006   0.948   0.884   0.842   0.855
   0.922   1.001
   1.153   1.093   0.956   0.839   0.805   0.847   0.912   0.961   1.000   1.054
   1.124   1.179   1.185   1.142   1.084   1.053   1.063   1.093   1.108   1.093
   1.063   1.053   1.084   1.142   1.185   1.179   1.124   1.054   1.000   0.961
   0.912   0.847   0.805   0.839   0.956   1.093   1.153   1.093   0.956   0.839
   0.805   0.847   0.912   0.961   1.000   1.054   1.124   1.179   1.185   1.142
   1.084   1.053   1.063   1.093   1.108   1.093   1.063   1.053   1.084   1.142
   1.185   1.179   1.124   1.054   1.000   0.961   0.912   0.847   0.805   0.839
   0.956   1.093
   1.205   1.121   0.936   0.791   0.770   0.841   0.913   0.938   0.949   1.003
   1.106   1.199   1.218   1.160   1.079   1.042   1.066   1.117   1.142   1.117
   1.066   1.042   1.079   1.160   1.218   1.199   1.106   1.003   0.949   0.938
   0.913   0.841   0.770   0.791   0.936   1.121   1.205   1.121   0.936   0.791
   0.770   0.841   0.913   0.938   0.949   1.003   1.106   1.199   1.218   1.160
   1.079   1.042   1.066   1.117   1.142   1.117   1.066   1.042   1.079   1.160
   1.218   1.199   1.106   1.003   0.949   0.938   0.913   0.841   0.770   0.791
   0.936   1.121
   1.187   1.081   0.857   0.707   0.730   0.856   0.944   0.936   0.904   0.949
   1.079   1.201   1.221   1.135   1.029   0.990   1.038   1.119   1.158   1.119
   1.038   0.990   1.029   1.135   1.221   1.201   1.079   0.949   0.904   0.936
   0.944   0.856   0.730   0.707   0.857   1.081   1.187   1.081   0.857   0.707
   0.730   0.856   0.944   0.936   0.904   0.949   1.079   1.201   1.221   1.135
   1.029   0.990   1.038   1.119   1.158   1.119   1.038   0.990   1.029   1.135
   1.221   1.201   1.079   0.949   0.904   0.936   0.944   0.856   0.730   0.707
   0.857   1.081
   1.223   1.089   0.814   0.648   0.709   0.887   0.985   0.938   0.860   0.894
   1.047   1.189   1.196   1.075   0.945   0.919   1.007   1.129   1.183   1.129
   1.007   0.919   0.945   1.075   1.196   1.189   1.047   0.894   0.860   0.938
   0.985   0.887   0.709   0.648   0.814   1.089   1.223   1.089   0.814   0.648
   0.709   0.887   0.985   0.938   0.860   0.894   1.047   1.189   1.196   1.075
   0.945   0.919   1.007   1.129   1.183   1.129   1.007   0.919   0.945   1.075
   1.196   1.189   1.047   0.894   0.860   0.938   0.985   0.887   0.709   0.648
   0.814   1.089
   1.422   1.250   0.896   0.674   0.732   0.926   1.012   0.920   0.801   0.832
   1.009   1.162   1.147   0.989   0.845   0.843   0.983   1.150   1.223   1.150
   0.983   0.843   0.845   0.989   1.147   1.162   1.009   0.832   0.801   0.920
   1.012   0.926   0.732   0.674   0.896   1.250   1.422   1.250   0.896   0.674
   0.732   0.926   1.012   0.920   0.801   0.832   1.009   1.162   1.147   0.989
   0.845   0.843   0.983   1.150   1.223   1.150   0.983   0.843   0.845   0.989
   1.147   1.162   1.009   0.832   0.801   0.920   1.012   0.926   0.732   0.674
   0.896   1.250
   1.741   1.528   1.081   0.774   0.787   0.959   1.015   0.881   0.734   0.769
   0.969   1.128   1.090   0.901   0.749   0.776   0.964   1.173   1.262   1.173
   0.964   0.776   0.749   0.901   1.090   1.128   0.969   0.769   0.734   0.881
   1.015   0.959   0.787   0.774   1.081   1.528   1.741   1.528   1.081   0.774
   0.787   0.959   1.015   0.881   0.734   0.769   0.969   1.128   1.090   0.901
   0.749   0.776   0.964   1.173   1.262   1.173   0.964   0.776   0.749   0.901
   1.090   1.128   0.969   0.769   0.734   0.881   1.015   0.959   0.787   0.774
   1.081   1.528
   1.989   1.748   1.236   0.864   0.833   0.978   1.008   0.846   0.685   0.727
   0.941   1.104   1.051   0.843   0.689   0.735   0.952   1.186   1.284   1.186
   0.952   0.735   0.689   0.843   1.051   1.104   0.941   0.727   0.685   0.846
   1.008   0.978   0.833   0.864   1.236   1.748   1.989   1.748   1.236   0.864
   0.833   0.978   1.008   0.846   0.685   0.727   0.941   1.104   1.051   0.843
   0.689   0.735   0.952   1.186   1.284   1.186   0.952   0.735   0.689   0.843
   1.051   1.104   0.941   0.727   0.685   0.846   1.008   0.978   0.833   0.864
   1.236   1.748
 200       5.00   72    0 5.00   18    0
   1.267   1.267   1.267   1.267   1.267   1.268   1.268   1.268   1.268   1.269
   1.269   1.269   1.270   1.270   1.270   1.270   1.270   1.270   1.270   1.270
   1.270   1.270   1.270   1.270   1.270   1.269   1.269   1.269   1.268   1.268
   1.268   1.268   1.267   1.267   1.267   1.267   1.267   1.267   1.267   1.267
   1.267   1.268   1.268   1.268   1.268   1.269   1.269   1.269   1.270   1.270
   1.270   1.270   1.270   1.270   1.270   1.270   1.270   1.270   1.270   1.270
   1.270   1.269   1.269   1.269   1.268   1.268   1.268   1.268   1.267   1.267
   1.267   1.267
   1.240   1.240   1.240   1.241   1.242   1.243   1.245   1.247   1.250   1.253
   1.256   1.259   1.263   1.266   1.269   1.272   1.274   1.275   1.276   1.275
   1.274   1.272   1.269   1.266   1.263   1.259   1.256   1.253   1.250   1.247
   1.245   1.243   1.242   1.241   1.240   1.240   1.240   1.240   1.240   1.241
   1.242   1.243   1.245   1.247   1.250   1.253   1.256   1.259   1.263   1.266
   1.269   1.272   1.274   1.275   1.276   1.275   1.274   1.272   1.269   1.266
   1.263   1.259   1.256   1.253   1.250   1.247   1.245   1.243   1.242   1.241
   1.240   1.240
   1.173   1.173   1.174   1.175   1.177   1.180   1.185   1.190   1.198   1.207
   1.218   1.230   1.243   1.257   1.270   1.282   1.292   1.297   1.300   1.297
   1.292   1.282   1.270   1.257   1.243   1.230   1.218   1.207   1.198   1.190
   1.185   1.180   1.177   1.175   1.174   1.173   1.173   1.173   1.174   1.175
   1.177   1.180   1.185   1.190   1.198   1.207   1.218   1.230   1.243   1.257
   1.270   1.282   1.292   1.297   1.300   1.297   1.292   1.282   1.270   1.257
   1.243   1.230   1.218   1.207   1.198   1.190   1.185   1.180   1.177   1.175
   1.174   1.173
   1.052   1.053   1.056   1.061   1.067   1.075   1.084   1.096   1.111   1.130
   1.153   1.181   1.212   1.246   1.281   1.312   1.338   1.354   1.360   1.354
   1.338   1.312   1.281   1.246   1.212   1.181   1.153   1.130   1.111   1.096
   1.084   1.075   1.067   1.061   1.056   1.053   1.052   1.053   1.056   1.061
   1.067   1.075   1.084   1.096   1.111   1.130   1.153   1.181   1.212   1.246
   1.281   1.312   1.338   1.354   1.360   1.354   1.338   1.312   1.281   1.246
   1.212   1.181   1.153   1.130   1.111   1.096   1.084   1.075   1.067   1.061
   1.056   1.053
   0.882   0.885   0.895   0.909   0.927   0.947   0.968   0.992   1.017   1.047
   1.084   1.128   1.181   1.241   1.303   1.362   1.411   1.443   1.455   1.443
   1.411   1.362   1.303   1.241   1.181   1.128   1.084   1.047   1.017   0.992
   0.968   0.947   0.927   0.909   0.895   0.885   0.882   0.885   0.895   0.909
   0.927   0.947   0.968   0.992   1.017   1.047   1.084   1.128   1.181   1.241
   1.303   1.362   1.411   1.443   1.455   1.443   1.411   1.362   1.303   1.241
   1.181   1.128   1.084   1.047   1.017   0.992   0.968   0.947   0.927   0.909
   0.895   0.885
   0.705   0.711   0.728   0.755   0.789   0.828   0.867   0.907   0.947   0.988
   1.035   1.091   1.159   1.236   1.320   1.402   1.472   1.519   1.535   1.519
   1.472   1.402   1.320   1.236   1.159   1.091   1.035   0.988   0.947   0.907
   0.867   0.828   0.789   0.755   0.728   0.711   0.705   0.711   0.728   0.755
   0.789   0.828   0.867   0.907   0.947   0.988   1.035   1.091   1.159   1.236
   1.320   1.402   1.472   1.519   1.535   1.519   1.472   1.402   1.320   1.236
   1.159   1.091   1.035   0.988   0.947   0.907   0.867   0.828   0.789   0.755
   0.728   0.711
   0.587   0.593   0.612   0.643   0.684   0.734   0.788   0.844   0.899   0.952
   1.006   1.065   1.133   1.211   1.297   1.382   1.455   1.505   1.523   1.505
   1.455   1.382   1.297   1.211   1.133   1.065   1.006   0.952   0.899   0.844
   0.788   0.734   0.684   0.643   0.612   0.593   0.587   0.593   0.612   0.643
   0.684   0.734   0.788   0.844   0.899   0.952   1.006   1.065   1.133   1.211
   1.297   1.382   1.455   1.505   1.523   1.505   1.455   1.382   1.297   1.211
   1.133   1.065   1.006   0.952   0.899   0.844   0.788   0.734   0.684   0.643
   0.612   0.593
   0.578   0.580   0.587   0.601   0.627   0.666   0.719   0.782   0.849   0.914
   0.975   1.032   1.089   1.148   1.211   1.272   1.325   1.361   1.374   1.361
   1.325   1.272   1.211   1.148   1.089   1.032   0.975   0.914   0.849   0.782
   0.719   0.666   0.627   0.601   0.587   0.580   0.578   0.580   0.587   0.601
   0.627   0.666   0.719   0.782   0.849   0.914   0.975   1.032   1.089   1.148
   1.211   1.272   1.325   1.361   1.374   1.361   1.325   1.272   1.211   1.148
   1.089   1.032   0.975   0.914   0.849   0.782   0.719   0.666   0.627   0.601
   0.587   0.580
   0.665   0.660   0.647   0.631   0.623   0.632   0.666   0.723   0.794   0.869
   0.935   0.990   1.032   1.064   1.089   1.107   1.121   1.129   1.132   1.129
   1.121   1.107   1.089   1.064   1.032   0.990   0.935   0.869   0.794   0.723
   0.666   0.632   0.623   0.631   0.647   0.660   0.665   0.660   0.647   0.631
   0.623   0.632   0.666   0.723   0.794   0.869   0.935   0.990   1.032   1.064
   1.089   1.107   1.121   1.129   1.132   1.129   1.121   1.107   1.089   1.064
   1.032   0.990   0.935   0.869   0.794   0.723   0.666   0.632   0.623   0.631
   0.647   0.660
   0.776   0.767   0.743   0.706   0.670   0.652   0.665   0.711   0.779   0.851
   0.915   0.963   0.992   1.001   0.991   0.969   0.943   0.923   0.915   0.923
   0.943   0.969   0.991   1.001   0.992   0.963   0.915   0.851   0.779   0.711
   0.665   0.652   0.670   0.706   0.743   0.767   0.776   0.767   0.743   0.706
   0.670   0.652   0.665   0.711   0.779   0.851   0.915   0.963   0.992   1.001
   0.991   0.969   0.943   0.923   0.915   0.923   0.943   0.969   0.991   1.001
   0.992   0.963   0.915   0.851   0.779   0.711   0.665   0.652   0.670   0.706
   0.743   0.767
   0.836   0.832   0.816   0.786   0.752   0.734   0.750   0.798   0.858   0.914
   0.955   0.982   0.993   0.985   0.955   0.910   0.865   0.833   0.822   0.833
   0.865   0.910   0.955   0.985   0.993   0.982   0.955   0.914   0.858   0.798
   0.750   0.734   0.752   0.786   0.816   0.832   0.836   0.832   0.816   0.786
   0.752   0.734   0.750   0.798   0.858   0.914   0.955   0.982   0.993   0.985
   0.955   0.910   0.865   0.833   0.822   0.833   0.865   0.910   0.955   0.985
   0.993   0.982   0.955   0.914   0.858   0.798   0.750   0.734   0.752   0.786
   0.816   0.832
   0.830   0.834   0.839   0.836   0.832   0.851   0.906   0.982   1.042   1.066
   1.060   1.044   1.025   0.995   0.950   0.902   0.867   0.851   0.847   0.851
   0.867   0.902   0.950   0.995   1.025   1.044   1.060   1.066   1.042   0.982
   0.906   0.851   0.832   0.836   0.839   0.834   0.830   0.834   0.839   0.836
   0.832   0.851   0.906   0.982   1.042   1.066   1.060   1.044   1.025   0.995
   0.950   0.902   0.867   0.851   0.847   0.851   0.867   0.902   0.950   0.995
   1.025   1.044   1.060   1.066   1.042   0.982   0.906   0.851   0.832   0.836
   0.839   0.834
   0.806   0.815   0.831   0.844   0.870   0.943   1.068   1.199   1.271   1.257
   1.188   1.112   1.046   0.979   0.909   0.862   0.861   0.891   0.909   0.891
   0.861   0.862   0.909   0.979   1.046   1.112   1.188   1.257   1.271   1.199
   1.068   0.943   0.870   0.844   0.831   0.815   0.806   0.815   0.831   0.844
   0.870   0.943   1.068   1.199   1.271   1.257   1.188   1.112   1.046   0.979
   0.909   0.862   0.861   0.891   0.909   0.891   0.861   0.862   0.909   0.979
   1.046   1.112   1.188   1.257   1.271   1.199   1.068   0.943   0.870   0.844
   0.831   0.815
   0.824   0.828   0.829   0.826   0.856   0.975   1.178   1.377   1.465   1.412
   1.281   1.151   1.038   0.918   0.801   0.745   0.791   0.893   0.945   0.893
   0.791   0.745   0.801   0.918   1.038   1.151   1.281   1.412   1.465   1.377
   1.178   0.975   0.856   0.826   0.829   0.828   0.824   0.828   0.829   0.826
   0.856   0.975   1.178   1.377   1.465   1.412   1.281   1.151   1.038   0.918
   0.801   0.745   0.791   0.893   0.945   0.893   0.791   0.745   0.801   0.918
   1.038   1.151   1.281   1.412   1.465   1.377   1.178   0.975   0.856   0.826
   0.829   0.828
   0.902   0.893   0.858   0.810   0.818   0.963   1.232   1.489   1.584   1.494
   1.320   1.164   1.025   0.854   0.672   0.593   0.690   0.879   0.974   0.879
   0.690   0.593   0.672   0.854   1.025   1.164   1.320   1.494   1.584   1.489
   1.232   0.963   0.818   0.810   0.858   0.893   0.902   0.893   0.858   0.810
   0.818   0.963   1.232   1.489   1.584   1.494   1.320   1.164   1.025   0.854
   0.672   0.593   0.690   0.879   0.974   0.879   0.690   0.593   0.672   0.854
   1.025   1.164   1.320   1.494   1.584   1.489   1.232   0.963   0.818   0.810
   0.858   0.893
   1.004   0.982   0.911   0.816   0.796   0.956   1.270   1.560   1.645   1.518
   1.324   1.179   1.050   0.845   0.599   0.491   0.638   0.917   1.057   0.917
   0.638   0.491   0.599   0.845   1.050   1.179   1.324   1.518   1.645   1.560
   1.270   0.956   0.796   0.816   0.911   0.982   1.004   0.982   0.911   0.816
   0.796   0.956   1.270   1.560   1.645   1.518   1.324   1.179   1.050   0.845
   0.599   0.491   0.638   0.917   1.057   0.917   0.638   0.491   0.599   0.845
   1.050   1.179   1.324   1.518   1.645   1.560   1.270   0.956   0.796   0.816
   0.911   0.982
   1.087   1.058   0.965   0.842   0.807   0.977   1.317   1.617   1.679   1.519
   1.321   1.212   1.116   0.899   0.606   0.474   0.662   1.019   1.198   1.019
   0.662   0.474   0.606   0.899   1.116   1.212   1.321   1.519   1.679   1.617
   1.317   0.977   0.807   0.842   0.965   1.058   1.087   1.058   0.965   0.842
   0.807   0.977   1.317   1.617   1.679   1.519   1.321   1.212   1.116   0.899
   0.606   0.474   0.662   1.019   1.198   1.019   0.662   0.474   0.606   0.899
   1.116   1.212   1.321   1.519   1.679   1.617   1.317   0.977   0.807   0.842
   0.965   1.058
   1.129   1.098   0.998   0.866   0.826   1.004   1.356   1.655   1.699   1.518
   1.323   1.243   1.175   0.958   0.641   0.497   0.710   1.112   1.314   1.112
   0.710   0.497   0.641   0.958   1.175   1.243   1.323   1.518   1.699   1.655
   1.356   1.004   0.826   0.866   0.998   1.098   1.129   1.098   0.998   0.866
   0.826   1.004   1.356   1.655   1.699   1.518   1.323   1.243   1.175   0.958
   0.641   0.497   0.710   1.112   1.314   1.112   0.710   0.497   0.641   0.958
   1.175   1.243   1.323   1.518   1.699   1.655   1.356   1.004   0.826   0.866
   0.998   1.098
 111       5.00   72    0 5.00   18    0
   0.937   0.937   0.937   0.938   0.940   0.941   0.943   0.945   0.947   0.950
   0.952   0.954   0.956   0.958   0.960   0.961   0.962   0.963   0.963   0.963
   0.962   0.961   0.960   0.958   0.956   0.954   0.952   0.950   0.947   0.945
   0.943   0.941   0.940   0.938   0.937   0.937   0.937   0.937   0.937   0.938
   0.940   0.941   0.943   0.945   0.947   0.950   0.952   0.954   0.956   0.958
   0.960   0.961   0.962   0.963   0.963   0.963   0.962   0.961   0.960   0.958
   0.956   0.954   0.952   0.950   0.947   0.945   0.943   0.941   0.940   0.938
   0.937   0.937
   0.829   0.830   0.834   0.840   0.849   0.860   0.873   0.887   0.904   0.921
   0.939   0.956   0.974   0.990   1.004   1.015   1.024   1.030   1.031   1.030
   1.024   1.015   1.004   0.990   0.974   0.956   0.939   0.921   0.904   0.887
   0.873   0.860   0.849   0.840   0.834   0.830   0.829   0.830   0.834   0.840
   0.849   0.860   0.873   0.887   0.904   0.921   0.939   0.956   0.974   0.990
   1.004   1.015   1.024   1.030   1.031   1.030   1.024   1.015   1.004   0.990
   0.974   0.956   0.939   0.921   0.904   0.887   0.873   0.860   0.849   0.840
   0.834   0.830
   0.713   0.714   0.719   0.728   0.740   0.756   0.776   0.801   0.829   0.862
   0.899   0.938   0.977   1.017   1.053   1.084   1.108   1.123   1.128   1.123
   1.108   1.084   1.053   1.017   0.977   0.938   0.899   0.862   0.829   0.801
   0.776   0.756   0.740   0.728   0.719   0.714   0.713   0.714   0.719   0.728
   0.740   0.756   0.776   0.801   0.829   0.862   0.899   0.938   0.977   1.017
   1.053   1.084   1.108   1.123   1.128   1.123   1.108   1.084   1.053   1.017
   0.977   0.938   0.899   0.862   0.829   0.801   0.776   0.756   0.740   0.728
   0.719   0.714
   0.693   0.693   0.695   0.698   0.702   0.710   0.721   0.738   0.762   0.795
   0.837   0.888   0.946   1.008   1.070   1.127   1.172   1.201   1.211   1.201
   1.172   1.127   1.070   1.008   0.946   0.888   0.837   0.795   0.762   0.738
   0.721   0.710   0.702   0.698   0.695   0.693   0.693   0.693   0.695   0.698
   0.702   0.710   0.721   0.738   0.762   0.795   0.837   0.888   0.946   1.008
   1.070   1.127   1.172   1.201   1.211   1.201   1.172   1.127   1.070   1.008
   0.946   0.888   0.837   0.795   0.762   0.738   0.721   0.710   0.702   0.698
   0.695   0.693
   0.790   0.789   0.786   0.781   0.775   0.767   0.759   0.753   0.754   0.766
   0.792   0.835   0.896   0.972   1.056   1.138   1.207   1.254   1.270   1.254
   1.207   1.138   1.056   0.972   0.896   0.835   0.792   0.766   0.754   0.753
   0.759   0.767   0.775   0.781   0.786   0.789   0.790   0.789   0.786   0.781
   0.775   0.767   0.759   0.753   0.754   0.766   0.792   0.835   0.896   0.972
   1.056   1.138   1.207   1.254   1.270   1.254   1.207   1.138   1.056   0.972
   0.896   0.835   0.792   0.766   0.754   0.753   0.759   0.767   0.775   0.781
   0.786   0.789
   0.937   0.936   0.933   0.927   0.917   0.901   0.880   0.855   0.829   0.809
   0.803   0.820   0.864   0.937   1.030   1.131   1.222   1.285   1.308   1.285
   1.222   1.131   1.030   0.937   0.864   0.820   0.803   0.809   0.829   0.855
   0.880   0.901   0.917   0.927   0.933   0.936   0.937   0.936   0.933   0.927
   0.917   0.901   0.880   0.855   0.829   0.809   0.803   0.820   0.864   0.937
   1.030   1.131   1.222   1.285   1.308   1.285   1.222   1.131   1.030   0.937
   0.864   0.820   0.803   0.809   0.829   0.855   0.880   0.901   0.917   0.927
   0.933   0.936
   1.061   1.060   1.057   1.053   1.046   1.034   1.015   0.986   0.947   0.904
   0.867   0.850   0.864   0.917   1.003   1.109   1.211   1.284   1.311   1.284
   1.211   1.109   1.003   0.917   0.864   0.850   0.867   0.904   0.947   0.986
   1.015   1.034   1.046   1.053   1.057   1.060   1.061   1.060   1.057   1.053
   1.046   1.034   1.015   0.986   0.947   0.904   0.867   0.850   0.864   0.917
   1.003   1.109   1.211   1.284   1.311   1.284   1.211   1.109   1.003   0.917
   0.864   0.850   0.867   0.904   0.947   0.986   1.015   1.034   1.046   1.053
   1.057   1.060
   1.146   1.142   1.133   1.121   1.110   1.100   1.089   1.070   1.037   0.989
   0.934   0.889   0.872   0.897   0.963   1.059   1.158   1.233   1.261   1.233
   1.158   1.059   0.963   0.897   0.872   0.889   0.934   0.989   1.037   1.070
   1.089   1.100   1.110   1.121   1.133   1.142   1.146   1.142   1.133   1.121
   1.110   1.100   1.089   1.070   1.037   0.989   0.934   0.889   0.872   0.897
   0.963   1.059   1.158   1.233   1.261   1.233   1.158   1.059   0.963   0.897
   0.872   0.889   0.934   0.989   1.037   1.070   1.089   1.100   1.110   1.121
   1.133   1.142
   1.231   1.222   1.196   1.161   1.127   1.102   1.087   1.074   1.051   1.009
   0.952   0.895   0.860   0.862   0.908   0.987   1.075   1.144   1.170   1.144
   1.075   0.987   0.908   0.862   0.860   0.895   0.952   1.009   1.051   1.074
   1.087   1.102   1.127   1.161   1.196   1.222   1.231   1.222   1.196   1.161
   1.127   1.102   1.087   1.074   1.051   1.009   0.952   0.895   0.860   0.862
   0.908   0.987   1.075   1.144   1.170   1.144   1.075   0.987   0.908   0.862
   0.860   0.895   0.952   1.009   1.051   1.074   1.087   1.102   1.127   1.161
   1.196   1.222
   1.350   1.334   1.289   1.225   1.156   1.100   1.063   1.039   1.013   0.973
   0.918   0.863   0.827   0.825   0.861   0.928   1.006   1.068   1.092   1.068
   1.006   0.928   0.861   0.825   0.827   0.863   0.918   0.973   1.013   1.039
   1.063   1.100   1.156   1.225   1.289   1.334   1.350   1.334   1.289   1.225
   1.156   1.100   1.063   1.039   1.013   0.973   0.918   0.863   0.827   0.825
   0.861   0.928   1.006   1.068   1.092   1.068   1.006   0.928   0.861   0.825
   0.827   0.863   0.918   0.973   1.013   1.039   1.063   1.100   1.156   1.225
   1.289   1.334
   1.479   1.461   1.407   1.322   1.225   1.137   1.073   1.028   0.984   0.930
   0.872   0.825   0.802   0.811   0.851   0.916   0.992   1.056   1.081   1.056
   0.992   0.916   0.851   0.811   0.802   0.825   0.872   0.930   0.984   1.028
   1.073   1.137   1.225   1.322   1.407   1.461   1.479   1.461   1.407   1.322
   1.225   1.137   1.073   1.028   0.984   0.930   0.872   0.825   0.802   0.811
   0.851   0.916   0.992   1.056   1.081   1.056   0.992   0.916   0.851   0.811
   0.802   0.825   0.872   0.930   0.984   1.028   1.073   1.137   1.225   1.322
   1.407   1.461
   1.559   1.542   1.489   1.399   1.290   1.190   1.115   1.057   0.992   0.917
   0.849   0.811   0.808   0.830   0.872   0.938   1.024   1.104   1.137   1.104
   1.024   0.938   0.872   0.830   0.808   0.811   0.849   0.917   0.992   1.057
   1.115   1.190   1.290   1.399   1.489   1.542   1.559   1.542   1.489   1.399
   1.290   1.190   1.115   1.057   0.992   0.917   0.849   0.811   0.808   0.830
   0.872   0.938   1.024   1.104   1.137   1.104   1.024   0.938   0.872   0.830
   0.808   0.811   0.849   0.917   0.992   1.057   1.115   1.190   1.290   1.399
   1.489   1.542
   1.537   1.522   1.471   1.381   1.274   1.187   1.133   1.085   1.011   0.915
   0.840   0.819   0.837   0.863   0.888   0.945   1.051   1.166   1.218   1.166
   1.051   0.945   0.888   0.863   0.837   0.819   0.840   0.915   1.011   1.085
   1.133   1.187   1.274   1.381   1.471   1.522   1.537   1.522   1.471   1.381
   1.274   1.187   1.133   1.085   1.011   0.915   0.840   0.819   0.837   0.863
   0.888   0.945   1.051   1.166   1.218   1.166   1.051   0.945   0.888   0.863
   0.837   0.819   0.840   0.915   1.011   1.085   1.133   1.187   1.274   1.381
   1.471   1.522
   1.406   1.390   1.336   1.242   1.145   1.092   1.086   1.071   0.996   0.885
   0.815   0.827   0.875   0.889   0.871   0.903   1.040   1.218   1.301   1.218
   1.040   0.903   0.871   0.889   0.875   0.827   0.815   0.885   0.996   1.071
   1.086   1.092   1.145   1.242   1.336   1.390   1.406   1.390   1.336   1.242
   1.145   1.092   1.086   1.071   0.996   0.885   0.815   0.827   0.875   0.889
   0.871   0.903   1.040   1.218   1.301   1.218   1.040   0.903   0.871   0.889
   0.875   0.827   0.815   0.885   0.996   1.071   1.086   1.092   1.145   1.242
   1.336   1.390
   1.198   1.181   1.124   1.032   0.955   0.951   1.004   1.022   0.940   0.811
   0.757   0.825   0.919   0.919   0.841   0.840   1.023   1.292   1.421   1.292
   1.023   0.840   0.841   0.919   0.919   0.825   0.757   0.811   0.940   1.022
   1.004   0.951   0.955   1.032   1.124   1.181   1.198   1.181   1.124   1.032
   0.955   0.951   1.004   1.022   0.940   0.811   0.757   0.825   0.919   0.919
   0.841   0.840   1.023   1.292   1.421   1.292   1.023   0.840   0.841   0.919
   0.919   0.825   0.757   0.811   0.940   1.022   1.004   0.951   0.955   1.032
   1.124   1.181
   0.968   0.955   0.907   0.833   0.793   0.846   0.955   0.990   0.878   0.716
   0.682   0.822   0.980   0.974   0.839   0.812   1.057   1.435   1.618   1.435
   1.057   0.812   0.839   0.974   0.980   0.822   0.682   0.716   0.878   0.990
   0.955   0.846   0.793   0.833   0.907   0.955   0.968   0.955   0.907   0.833
   0.793   0.846   0.955   0.990   0.878   0.716   0.682   0.822   0.980   0.974
   0.839   0.812   1.057   1.435   1.618   1.435   1.057   0.812   0.839   0.974
   0.980   0.822   0.682   0.716   0.878   0.990   0.955   0.846   0.793   0.833
   0.907   0.955
   0.773   0.768   0.742   0.701   0.708   0.817   0.967   0.999   0.843   0.639
   0.619   0.828   1.051   1.051   0.877   0.839   1.148   1.628   1.861   1.628
   1.148   0.839   0.877   1.051   1.051   0.828   0.619   0.639   0.843   0.999
   0.967   0.817   0.708   0.701   0.742   0.768   0.773   0.768   0.742   0.701
   0.708   0.817   0.967   0.999   0.843   0.639   0.619   0.828   1.051   1.051
   0.877   0.839   1.148   1.628   1.861   1.628   1.148   0.839   0.877   1.051
   1.051   0.828   0.619   0.639   0.843   0.999   0.967   0.817   0.708   0.701
   0.742   0.768
   0.661   0.663   0.657   0.643   0.684   0.829   1.000   1.024   0.833   0.600
   0.586   0.837   1.102   1.112   0.920   0.879   1.229   1.772   2.036   1.772
   1.229   0.879   0.920   1.112   1.102   0.837   0.586   0.600   0.833   1.024
   1.000   0.829   0.684   0.643   0.657   0.663   0.661   0.663   0.657   0.643
   0.684   0.829   1.000   1.024   0.833   0.600   0.586   0.837   1.102   1.112
   0.920   0.879   1.229   1.772   2.036   1.772   1.229   0.879   0.920   1.112
   1.102   0.837   0.586   0.600   0.833   1.024   1.000   0.829   0.684   0.643
   0.657   0.663
TEXTURE_INDEX=   1.1966
ERR_CF 220         1080     592   18.12   16.37
ERR_CF 200         1080     612   18.78   15.66
ERR_CF 111         1080     784   22.21   22.06
