TEXEVAL                                                                         
Analysis started on 29-Apr-19 13:51:15                                          
 LMAX=16LFMAX=03 CUBIC ORTHO   
 220      5.00 5.00
 200      5.00 5.00
 111      5.00 5.00
 220       5.00   72    0 5.00   15    0
   4.856   4.856   4.856   4.856   4.856   4.856   4.856   4.856   4.856   4.856
   4.856   4.856   4.856   4.856   4.856   4.856   4.856   4.856   4.856   4.856
   4.856   4.856   4.856   4.856   4.856   4.856   4.856   4.856   4.856   4.856
   4.856   4.856   4.856   4.856   4.856   4.856   4.856   4.856   4.856   4.856
   4.856   4.856   4.856   4.856   4.856   4.856   4.856   4.856   4.856   4.856
   4.856   4.856   4.856   4.856   4.856   4.856   4.856   4.856   4.856   4.856
   4.856   4.856   4.856   4.856   4.856   4.856   4.856   4.856   4.856   4.856
   4.856   4.856
   1.653   1.768   1.738   1.805   1.955   1.996   2.117   2.270   2.581   2.731
   3.177   3.332   3.691   3.947   4.395   4.687   4.831   4.984   4.965   4.984
   4.831   4.687   4.395   3.947   3.691   3.332   3.177   2.731   2.581   2.270
   2.117   1.996   1.955   1.805   1.738   1.768   1.653   1.768   1.738   1.805
   1.955   1.996   2.117   2.270   2.581   2.731   3.177   3.332   3.691   3.947
   4.395   4.687   4.831   4.984   4.965   4.984   4.831   4.687   4.395   3.947
   3.691   3.332   3.177   2.731   2.581   2.270   2.117   1.996   1.955   1.805
   1.738   1.768
   0.598   0.592   0.604   0.650   0.702   0.752   0.780   0.945   1.160   1.340
   1.645   1.873   2.380   2.771   3.366   3.866   4.120   4.459   4.605   4.459
   4.120   3.866   3.366   2.771   2.380   1.873   1.645   1.340   1.160   0.945
   0.780   0.752   0.702   0.650   0.604   0.592   0.598   0.592   0.604   0.650
   0.702   0.752   0.780   0.945   1.160   1.340   1.645   1.873   2.380   2.771
   3.366   3.866   4.120   4.459   4.605   4.459   4.120   3.866   3.366   2.771
   2.380   1.873   1.645   1.340   1.160   0.945   0.780   0.752   0.702   0.650
   0.604   0.592
   0.381   0.409   0.407   0.394   0.381   0.398   0.445   0.534   0.684   0.879
   0.865   1.310   1.617   2.121   2.569   3.265   3.656   3.911   4.170   3.911
   3.656   3.265   2.569   2.121   1.617   1.310   0.865   0.879   0.684   0.534
   0.445   0.398   0.381   0.394   0.407   0.409   0.381   0.409   0.407   0.394
   0.381   0.398   0.445   0.534   0.684   0.879   0.865   1.310   1.617   2.121
   2.569   3.265   3.656   3.911   4.170   3.911   3.656   3.265   2.569   2.121
   1.617   1.310   0.865   0.879   0.684   0.534   0.445   0.398   0.381   0.394
   0.407   0.409
   0.366   0.327   0.342   0.368   0.377   0.367   0.433   0.401   0.556   0.692
   0.698   1.094   1.279   1.763   2.198   3.103   3.633   3.658   3.921   3.658
   3.633   3.103   2.198   1.763   1.279   1.094   0.698   0.692   0.556   0.401
   0.433   0.367   0.377   0.368   0.342   0.327   0.366   0.327   0.342   0.368
   0.377   0.367   0.433   0.401   0.556   0.692   0.698   1.094   1.279   1.763
   2.198   3.103   3.633   3.658   3.921   3.658   3.633   3.103   2.198   1.763
   1.279   1.094   0.698   0.692   0.556   0.401   0.433   0.367   0.377   0.368
   0.342   0.327
   0.335   0.261   0.210   0.387   0.320   0.286   0.516   0.408   0.542   0.639
   0.794   0.849   1.227   1.606   1.984   2.983   3.334   3.638   3.699   3.638
   3.334   2.983   1.984   1.606   1.227   0.849   0.794   0.639   0.542   0.408
   0.516   0.286   0.320   0.387   0.210   0.261   0.335   0.261   0.210   0.387
   0.320   0.286   0.516   0.408   0.542   0.639   0.794   0.849   1.227   1.606
   1.984   2.983   3.334   3.638   3.699   3.638   3.334   2.983   1.984   1.606
   1.227   0.849   0.794   0.639   0.542   0.408   0.516   0.286   0.320   0.387
   0.210   0.261
   0.260   0.200   0.185   0.359   0.273   0.191   0.483   0.406   0.463   0.709
   0.830   0.798   1.210   1.496   1.947   2.540   2.805   3.197   3.091   3.197
   2.805   2.540   1.947   1.496   1.210   0.798   0.830   0.709   0.463   0.406
   0.483   0.191   0.273   0.359   0.185   0.200   0.260   0.200   0.185   0.359
   0.273   0.191   0.483   0.406   0.463   0.709   0.830   0.798   1.210   1.496
   1.947   2.540   2.805   3.197   3.091   3.197   2.805   2.540   1.947   1.496
   1.210   0.798   0.830   0.709   0.463   0.406   0.483   0.191   0.273   0.359
   0.185   0.200
   0.346   0.307   0.263   0.322   0.427   0.275   0.490   0.338   0.433   0.754
   0.762   0.809   1.171   1.351   1.859   2.026   2.112   2.342   2.249   2.342
   2.112   2.026   1.859   1.351   1.171   0.809   0.762   0.754   0.433   0.338
   0.490   0.275   0.427   0.322   0.263   0.307   0.346   0.307   0.263   0.322
   0.427   0.275   0.490   0.338   0.433   0.754   0.762   0.809   1.171   1.351
   1.859   2.026   2.112   2.342   2.249   2.342   2.112   2.026   1.859   1.351
   1.171   0.809   0.762   0.754   0.433   0.338   0.490   0.275   0.427   0.322
   0.263   0.307
   0.451   0.381   0.340   0.269   0.449   0.316   0.519   0.367   0.446   0.599
   0.570   0.733   1.068   1.132   1.467   1.582   1.334   1.545   1.447   1.545
   1.334   1.582   1.467   1.132   1.068   0.733   0.570   0.599   0.446   0.367
   0.519   0.316   0.449   0.269   0.340   0.381   0.451   0.381   0.340   0.269
   0.449   0.316   0.519   0.367   0.446   0.599   0.570   0.733   1.068   1.132
   1.467   1.582   1.334   1.545   1.447   1.545   1.334   1.582   1.467   1.132
   1.068   0.733   0.570   0.599   0.446   0.367   0.519   0.316   0.449   0.269
   0.340   0.381
   0.481   0.435   0.402   0.462   0.503   0.480   0.390   0.581   0.540   0.512
   0.369   0.844   0.705   0.779   0.898   1.190   1.083   1.043   0.755   1.043
   1.083   1.190   0.898   0.779   0.705   0.844   0.369   0.512   0.540   0.581
   0.390   0.480   0.503   0.462   0.402   0.435   0.481   0.435   0.402   0.462
   0.503   0.480   0.390   0.581   0.540   0.512   0.369   0.844   0.705   0.779
   0.898   1.190   1.083   1.043   0.755   1.043   1.083   1.190   0.898   0.779
   0.705   0.844   0.369   0.512   0.540   0.581   0.390   0.480   0.503   0.462
   0.402   0.435
   1.016   1.235   1.019   1.275   0.922   0.893   0.903   0.843   0.709   0.577
   0.456   0.855   0.579   0.574   0.859   0.759   0.857   0.849   0.674   0.849
   0.857   0.759   0.859   0.574   0.579   0.855   0.456   0.577   0.709   0.843
   0.903   0.893   0.922   1.275   1.019   1.235   1.016   1.235   1.019   1.275
   0.922   0.893   0.903   0.843   0.709   0.577   0.456   0.855   0.579   0.574
   0.859   0.759   0.857   0.849   0.674   0.849   0.857   0.759   0.859   0.574
   0.579   0.855   0.456   0.577   0.709   0.843   0.903   0.893   0.922   1.275
   1.019   1.235
   3.048   3.209   2.416   2.438   1.935   1.621   1.703   0.981   0.776   0.761
   0.502   0.666   0.682   0.571   0.859   0.529   0.627   0.950   0.675   0.950
   0.627   0.529   0.859   0.571   0.682   0.666   0.502   0.761   0.776   0.981
   1.703   1.621   1.935   2.438   2.416   3.209   3.048   3.209   2.416   2.438
   1.935   1.621   1.703   0.981   0.776   0.761   0.502   0.666   0.682   0.571
   0.859   0.529   0.627   0.950   0.675   0.950   0.627   0.529   0.859   0.571
   0.682   0.666   0.502   0.761   0.776   0.981   1.703   1.621   1.935   2.438
   2.416   3.209
   3.994   3.968   2.890   2.856   2.195   1.775   1.959   1.373   0.968   0.970
   0.531   0.705   0.679   0.566   0.613   0.477   0.705   0.900   0.670   0.900
   0.705   0.477   0.613   0.566   0.679   0.705   0.531   0.970   0.968   1.373
   1.959   1.775   2.195   2.856   2.890   3.968   3.994   3.968   2.890   2.856
   2.195   1.775   1.959   1.373   0.968   0.970   0.531   0.705   0.679   0.566
   0.613   0.477   0.705   0.900   0.670   0.900   0.705   0.477   0.613   0.566
   0.679   0.705   0.531   0.970   0.968   1.373   1.959   1.775   2.195   2.856
   2.890   3.968
   2.021   1.959   1.841   1.903   1.264   1.250   1.782   1.933   0.899   1.340
   0.928   0.839   0.691   0.583   0.831   0.455   0.832   0.391   0.742   0.391
   0.832   0.455   0.831   0.583   0.691   0.839   0.928   1.340   0.899   1.933
   1.782   1.250   1.264   1.903   1.841   1.959   2.021   1.959   1.841   1.903
   1.264   1.250   1.782   1.933   0.899   1.340   0.928   0.839   0.691   0.583
   0.831   0.455   0.832   0.391   0.742   0.391   0.832   0.455   0.831   0.583
   0.691   0.839   0.928   1.340   0.899   1.933   1.782   1.250   1.264   1.903
   1.841   1.959
   0.520   0.555   0.821   0.755   0.835   1.100   1.747   1.450   1.158   1.464
   1.021   0.803   0.829   0.670   1.032   0.815   0.928   0.605   0.578   0.605
   0.928   0.815   1.032   0.670   0.829   0.803   1.021   1.464   1.158   1.450
   1.747   1.100   0.835   0.755   0.821   0.555   0.520   0.555   0.821   0.755
   0.835   1.100   1.747   1.450   1.158   1.464   1.021   0.803   0.829   0.670
   1.032   0.815   0.928   0.605   0.578   0.605   0.928   0.815   1.032   0.670
   0.829   0.803   1.021   1.464   1.158   1.450   1.747   1.100   0.835   0.755
   0.821   0.555
 200       5.00   72    0 5.00   15    0
   0.506   0.506   0.506   0.506   0.506   0.506   0.506   0.506   0.506   0.506
   0.506   0.506   0.506   0.506   0.506   0.506   0.506   0.506   0.506   0.506
   0.506   0.506   0.506   0.506   0.506   0.506   0.506   0.506   0.506   0.506
   0.506   0.506   0.506   0.506   0.506   0.506   0.506   0.506   0.506   0.506
   0.506   0.506   0.506   0.506   0.506   0.506   0.506   0.506   0.506   0.506
   0.506   0.506   0.506   0.506   0.506   0.506   0.506   0.506   0.506   0.506
   0.506   0.506   0.506   0.506   0.506   0.506   0.506   0.506   0.506   0.506
   0.506   0.506
   0.640   0.571   0.661   0.631   0.577   0.589   0.640   0.557   0.622   0.608
   0.554   0.571   0.544   0.558   0.542   0.560   0.551   0.539   0.604   0.539
   0.551   0.560   0.542   0.558   0.544   0.571   0.554   0.608   0.622   0.557
   0.640   0.589   0.577   0.631   0.661   0.571   0.640   0.571   0.661   0.631
   0.577   0.589   0.640   0.557   0.622   0.608   0.554   0.571   0.544   0.558
   0.542   0.560   0.551   0.539   0.604   0.539   0.551   0.560   0.542   0.558
   0.544   0.571   0.554   0.608   0.622   0.557   0.640   0.589   0.577   0.631
   0.661   0.571
   0.840   0.778   0.879   0.833   0.776   0.800   0.763   0.736   0.757   0.649
   0.638   0.590   0.544   0.549   0.583   0.584   0.564   0.536   0.684   0.536
   0.564   0.584   0.583   0.549   0.544   0.590   0.638   0.649   0.757   0.736
   0.763   0.800   0.776   0.833   0.879   0.778   0.840   0.778   0.879   0.833
   0.776   0.800   0.763   0.736   0.757   0.649   0.638   0.590   0.544   0.549
   0.583   0.584   0.564   0.536   0.684   0.536   0.564   0.584   0.583   0.549
   0.544   0.590   0.638   0.649   0.757   0.736   0.763   0.800   0.776   0.833
   0.879   0.778
   1.290   1.324   1.306   1.250   1.132   1.142   0.978   0.933   0.892   0.803
   0.715   0.658   0.614   0.482   0.621   0.632   0.568   0.563   0.658   0.563
   0.568   0.632   0.621   0.482   0.614   0.658   0.715   0.803   0.892   0.933
   0.978   1.142   1.132   1.250   1.306   1.324   1.290   1.324   1.306   1.250
   1.132   1.142   0.978   0.933   0.892   0.803   0.715   0.658   0.614   0.482
   0.621   0.632   0.568   0.563   0.658   0.563   0.568   0.632   0.621   0.482
   0.614   0.658   0.715   0.803   0.892   0.933   0.978   1.142   1.132   1.250
   1.306   1.324
   2.282   2.314   2.272   2.063   1.960   1.730   1.546   1.309   1.107   1.003
   0.775   0.818   0.796   0.546   0.598   0.606   0.587   0.573   0.650   0.573
   0.587   0.606   0.598   0.546   0.796   0.818   0.775   1.003   1.107   1.309
   1.546   1.730   1.960   2.063   2.272   2.314   2.282   2.314   2.272   2.063
   1.960   1.730   1.546   1.309   1.107   1.003   0.775   0.818   0.796   0.546
   0.598   0.606   0.587   0.573   0.650   0.573   0.587   0.606   0.598   0.546
   0.796   0.818   0.775   1.003   1.107   1.309   1.546   1.730   1.960   2.063
   2.272   2.314
   3.259   3.291   3.431   3.092   2.982   2.616   2.430   2.008   1.636   1.364
   1.021   0.914   0.899   0.718   0.564   0.599   0.606   0.500   0.606   0.500
   0.606   0.599   0.564   0.718   0.899   0.914   1.021   1.364   1.636   2.008
   2.430   2.616   2.982   3.092   3.431   3.291   3.259   3.291   3.431   3.092
   2.982   2.616   2.430   2.008   1.636   1.364   1.021   0.914   0.899   0.718
   0.564   0.599   0.606   0.500   0.606   0.500   0.606   0.599   0.564   0.718
   0.899   0.914   1.021   1.364   1.636   2.008   2.430   2.616   2.982   3.092
   3.431   3.291
   2.473   2.616   2.802   2.740   2.590   2.636   2.721   2.416   2.116   1.890
   1.423   1.148   1.000   0.884   0.648   0.692   0.584   0.542   0.550   0.542
   0.584   0.692   0.648   0.884   1.000   1.148   1.423   1.890   2.116   2.416
   2.721   2.636   2.590   2.740   2.802   2.616   2.473   2.616   2.802   2.740
   2.590   2.636   2.721   2.416   2.116   1.890   1.423   1.148   1.000   0.884
   0.648   0.692   0.584   0.542   0.550   0.542   0.584   0.692   0.648   0.884
   1.000   1.148   1.423   1.890   2.116   2.416   2.721   2.636   2.590   2.740
   2.802   2.616
   0.922   1.051   1.153   1.358   1.290   1.488   1.828   1.917   1.991   2.021
   1.581   1.411   1.043   1.086   0.873   0.718   0.633   0.631   0.508   0.631
   0.633   0.718   0.873   1.086   1.043   1.411   1.581   2.021   1.991   1.917
   1.828   1.488   1.290   1.358   1.153   1.051   0.922   1.051   1.153   1.358
   1.290   1.488   1.828   1.917   1.991   2.021   1.581   1.411   1.043   1.086
   0.873   0.718   0.633   0.631   0.508   0.631   0.633   0.718   0.873   1.086
   1.043   1.411   1.581   2.021   1.991   1.917   1.828   1.488   1.290   1.358
   1.153   1.051
   0.319   0.438   0.469   0.595   0.590   0.696   0.846   1.036   1.343   1.571
   1.428   1.529   1.064   1.187   1.005   0.843   0.708   0.799   0.583   0.799
   0.708   0.843   1.005   1.187   1.064   1.529   1.428   1.571   1.343   1.036
   0.846   0.696   0.590   0.595   0.469   0.438   0.319   0.438   0.469   0.595
   0.590   0.696   0.846   1.036   1.343   1.571   1.428   1.529   1.064   1.187
   1.005   0.843   0.708   0.799   0.583   0.799   0.708   0.843   1.005   1.187
   1.064   1.529   1.428   1.571   1.343   1.036   0.846   0.696   0.590   0.595
   0.469   0.438
   0.240   0.270   0.331   0.321   0.366   0.436   0.456   0.667   0.825   1.136
   1.119   1.325   1.146   1.243   1.106   0.969   0.863   0.832   0.618   0.832
   0.863   0.969   1.106   1.243   1.146   1.325   1.119   1.136   0.825   0.667
   0.456   0.436   0.366   0.321   0.331   0.270   0.240   0.270   0.331   0.321
   0.366   0.436   0.456   0.667   0.825   1.136   1.119   1.325   1.146   1.243
   1.106   0.969   0.863   0.832   0.618   0.832   0.863   0.969   1.106   1.243
   1.146   1.325   1.119   1.136   0.825   0.667   0.456   0.436   0.366   0.321
   0.331   0.270
   0.343   0.270   0.309   0.283   0.354   0.262   0.356   0.558   0.698   1.202
   1.172   0.986   1.406   1.241   1.200   1.076   1.135   1.011   0.693   1.011
   1.135   1.076   1.200   1.241   1.406   0.986   1.172   1.202   0.698   0.558
   0.356   0.262   0.354   0.283   0.309   0.270   0.343   0.270   0.309   0.283
   0.354   0.262   0.356   0.558   0.698   1.202   1.172   0.986   1.406   1.241
   1.200   1.076   1.135   1.011   0.693   1.011   1.135   1.076   1.200   1.241
   1.406   0.986   1.172   1.202   0.698   0.558   0.356   0.262   0.354   0.283
   0.309   0.270
   0.266   0.243   0.148   0.189   0.237   0.174   0.272   0.295   0.602   1.147
   1.252   1.141   1.224   0.870   1.088   0.845   0.959   0.843   0.639   0.843
   0.959   0.845   1.088   0.870   1.224   1.141   1.252   1.147   0.602   0.295
   0.272   0.174   0.237   0.189   0.148   0.243   0.266   0.243   0.148   0.189
   0.237   0.174   0.272   0.295   0.602   1.147   1.252   1.141   1.224   0.870
   1.088   0.845   0.959   0.843   0.639   0.843   0.959   0.845   1.088   0.870
   1.224   1.141   1.252   1.147   0.602   0.295   0.272   0.174   0.237   0.189
   0.148   0.243
   0.178   0.255   0.215   0.290   0.219   0.319   0.431   0.470   0.773   1.127
   1.351   1.323   0.930   0.739   0.976   0.674   0.677   0.507   0.288   0.507
   0.677   0.674   0.976   0.739   0.930   1.323   1.351   1.127   0.773   0.470
   0.431   0.319   0.219   0.290   0.215   0.255   0.178   0.255   0.215   0.290
   0.219   0.319   0.431   0.470   0.773   1.127   1.351   1.323   0.930   0.739
   0.976   0.674   0.677   0.507   0.288   0.507   0.677   0.674   0.976   0.739
   0.930   1.323   1.351   1.127   0.773   0.470   0.431   0.319   0.219   0.290
   0.215   0.255
   0.282   0.451   0.374   0.418   0.297   0.565   0.649   0.850   1.098   1.448
   1.508   1.262   0.932   0.765   0.861   0.723   0.727   0.563   0.288   0.563
   0.727   0.723   0.861   0.765   0.932   1.262   1.508   1.448   1.098   0.850
   0.649   0.565   0.297   0.418   0.374   0.451   0.282   0.451   0.374   0.418
   0.297   0.565   0.649   0.850   1.098   1.448   1.508   1.262   0.932   0.765
   0.861   0.723   0.727   0.563   0.288   0.563   0.727   0.723   0.861   0.765
   0.932   1.262   1.508   1.448   1.098   0.850   0.649   0.565   0.297   0.418
   0.374   0.451
   0.569   0.427   0.348   0.363   0.421   0.575   0.745   0.780   1.219   1.974
   1.417   1.241   0.658   0.732   0.731   0.528   0.776   0.394   0.783   0.394
   0.776   0.528   0.731   0.732   0.658   1.241   1.417   1.974   1.219   0.780
   0.745   0.575   0.421   0.363   0.348   0.427   0.569   0.427   0.348   0.363
   0.421   0.575   0.745   0.780   1.219   1.974   1.417   1.241   0.658   0.732
   0.731   0.528   0.776   0.394   0.783   0.394   0.776   0.528   0.731   0.732
   0.658   1.241   1.417   1.974   1.219   0.780   0.745   0.575   0.421   0.363
   0.348   0.427
 111       5.00   72    0 5.00   15    0
   0.151   0.151   0.151   0.151   0.151   0.151   0.151   0.151   0.151   0.151
   0.151   0.151   0.151   0.151   0.151   0.151   0.151   0.151   0.151   0.151
   0.151   0.151   0.151   0.151   0.151   0.151   0.151   0.151   0.151   0.151
   0.151   0.151   0.151   0.151   0.151   0.151   0.151   0.151   0.151   0.151
   0.151   0.151   0.151   0.151   0.151   0.151   0.151   0.151   0.151   0.151
   0.151   0.151   0.151   0.151   0.151   0.151   0.151   0.151   0.151   0.151
   0.151   0.151   0.151   0.151   0.151   0.151   0.151   0.151   0.151   0.151
   0.151   0.151
   0.181   0.153   0.173   0.166   0.150   0.157   0.154   0.158   0.156   0.147
   0.157   0.148   0.146   0.150   0.142   0.141   0.144   0.136   0.137   0.136
   0.144   0.141   0.142   0.150   0.146   0.148   0.157   0.147   0.156   0.158
   0.154   0.157   0.150   0.166   0.173   0.153   0.181   0.153   0.173   0.166
   0.150   0.157   0.154   0.158   0.156   0.147   0.157   0.148   0.146   0.150
   0.142   0.141   0.144   0.136   0.137   0.136   0.144   0.141   0.142   0.150
   0.146   0.148   0.157   0.147   0.156   0.158   0.154   0.157   0.150   0.166
   0.173   0.153
   0.273   0.263   0.252   0.250   0.226   0.235   0.214   0.184   0.184   0.151
   0.148   0.155   0.161   0.166   0.144   0.135   0.140   0.122   0.146   0.122
   0.140   0.135   0.144   0.166   0.161   0.155   0.148   0.151   0.184   0.184
   0.214   0.235   0.226   0.250   0.252   0.263   0.273   0.263   0.252   0.250
   0.226   0.235   0.214   0.184   0.184   0.151   0.148   0.155   0.161   0.166
   0.144   0.135   0.140   0.122   0.146   0.122   0.140   0.135   0.144   0.166
   0.161   0.155   0.148   0.151   0.184   0.184   0.214   0.235   0.226   0.250
   0.252   0.263
   0.894   0.891   0.816   0.680   0.627   0.506   0.422   0.335   0.264   0.246
   0.218   0.186   0.220   0.197   0.162   0.169   0.172   0.134   0.177   0.134
   0.172   0.169   0.162   0.197   0.220   0.186   0.218   0.246   0.264   0.335
   0.422   0.506   0.627   0.680   0.816   0.891   0.894   0.891   0.816   0.680
   0.627   0.506   0.422   0.335   0.264   0.246   0.218   0.186   0.220   0.197
   0.162   0.169   0.172   0.134   0.177   0.134   0.172   0.169   0.162   0.197
   0.220   0.186   0.218   0.246   0.264   0.335   0.422   0.506   0.627   0.680
   0.816   0.891
   2.996   3.040   2.724   2.178   1.880   1.336   1.014   0.713   0.546   0.410
   0.320   0.270   0.245   0.188   0.192   0.174   0.161   0.142   0.163   0.142
   0.161   0.174   0.192   0.188   0.245   0.270   0.320   0.410   0.546   0.713
   1.014   1.336   1.880   2.178   2.724   3.040   2.996   3.040   2.724   2.178
   1.880   1.336   1.014   0.713   0.546   0.410   0.320   0.270   0.245   0.188
   0.192   0.174   0.161   0.142   0.163   0.142   0.161   0.174   0.192   0.188
   0.245   0.270   0.320   0.410   0.546   0.713   1.014   1.336   1.880   2.178
   2.724   3.040
   4.945   4.865   4.584   3.850   3.444   2.748   2.105   1.386   1.026   0.730
   0.577   0.434   0.300   0.262   0.233   0.209   0.160   0.174   0.182   0.174
   0.160   0.209   0.233   0.262   0.300   0.434   0.577   0.730   1.026   1.386
   2.105   2.748   3.444   3.850   4.584   4.865   4.945   4.865   4.584   3.850
   3.444   2.748   2.105   1.386   1.026   0.730   0.577   0.434   0.300   0.262
   0.233   0.209   0.160   0.174   0.182   0.174   0.160   0.209   0.233   0.262
   0.300   0.434   0.577   0.730   1.026   1.386   2.105   2.748   3.444   3.850
   4.584   4.865
   4.130   4.063   4.067   3.704   3.468   3.149   2.689   1.961   1.555   1.213
   0.929   0.716   0.496   0.435   0.356   0.302   0.300   0.230   0.303   0.230
   0.300   0.302   0.356   0.435   0.496   0.716   0.929   1.213   1.555   1.961
   2.689   3.149   3.468   3.704   4.067   4.063   4.130   4.063   4.067   3.704
   3.468   3.149   2.689   1.961   1.555   1.213   0.929   0.716   0.496   0.435
   0.356   0.302   0.300   0.230   0.303   0.230   0.300   0.302   0.356   0.435
   0.496   0.716   0.929   1.213   1.555   1.961   2.689   3.149   3.468   3.704
   4.067   4.063
   2.021   2.144   2.251   2.268   2.301   2.246   2.372   2.032   1.899   1.517
   1.282   1.068   0.814   0.604   0.546   0.458   0.441   0.335   0.395   0.335
   0.441   0.458   0.546   0.604   0.814   1.068   1.282   1.517   1.899   2.032
   2.372   2.246   2.301   2.268   2.251   2.144   2.021   2.144   2.251   2.268
   2.301   2.246   2.372   2.032   1.899   1.517   1.282   1.068   0.814   0.604
   0.546   0.458   0.441   0.335   0.395   0.335   0.441   0.458   0.546   0.604
   0.814   1.068   1.282   1.517   1.899   2.032   2.372   2.246   2.301   2.268
   2.251   2.144
   0.706   0.862   0.937   1.058   1.260   1.406   1.749   1.662   1.741   1.485
   1.533   1.300   1.213   0.848   0.737   0.629   0.507   0.458   0.562   0.458
   0.507   0.629   0.737   0.848   1.213   1.300   1.533   1.485   1.741   1.662
   1.749   1.406   1.260   1.058   0.937   0.862   0.706   0.862   0.937   1.058
   1.260   1.406   1.749   1.662   1.741   1.485   1.533   1.300   1.213   0.848
   0.737   0.629   0.507   0.458   0.562   0.458   0.507   0.629   0.737   0.848
   1.213   1.300   1.533   1.485   1.741   1.662   1.749   1.406   1.260   1.058
   0.937   0.862
   0.336   0.379   0.369   0.482   0.627   0.773   1.105   1.277   1.398   1.384
   1.557   1.480   1.454   1.178   0.995   0.829   0.677   0.671   0.685   0.671
   0.677   0.829   0.995   1.178   1.454   1.480   1.557   1.384   1.398   1.277
   1.105   0.773   0.627   0.482   0.369   0.379   0.336   0.379   0.369   0.482
   0.627   0.773   1.105   1.277   1.398   1.384   1.557   1.480   1.454   1.178
   0.995   0.829   0.677   0.671   0.685   0.671   0.677   0.829   0.995   1.178
   1.454   1.480   1.557   1.384   1.398   1.277   1.105   0.773   0.627   0.482
   0.369   0.379
   0.376   0.324   0.303   0.263   0.399   0.348   0.626   0.903   1.102   1.166
   1.447   1.583   1.567   1.488   1.291   1.309   1.041   0.957   0.734   0.957
   1.041   1.309   1.291   1.488   1.567   1.583   1.447   1.166   1.102   0.903
   0.626   0.348   0.399   0.263   0.303   0.324   0.376   0.324   0.303   0.263
   0.399   0.348   0.626   0.903   1.102   1.166   1.447   1.583   1.567   1.488
   1.291   1.309   1.041   0.957   0.734   0.957   1.041   1.309   1.291   1.488
   1.567   1.583   1.447   1.166   1.102   0.903   0.626   0.348   0.399   0.263
   0.303   0.324
   0.354   0.223   0.248   0.195   0.228   0.249   0.371   0.531   0.718   0.841
   1.122   1.313   1.516   1.592   1.492   1.635   1.378   1.212   0.898   1.212
   1.378   1.635   1.492   1.592   1.516   1.313   1.122   0.841   0.718   0.531
   0.371   0.249   0.228   0.195   0.248   0.223   0.354   0.223   0.248   0.195
   0.228   0.249   0.371   0.531   0.718   0.841   1.122   1.313   1.516   1.592
   1.492   1.635   1.378   1.212   0.898   1.212   1.378   1.635   1.492   1.592
   1.516   1.313   1.122   0.841   0.718   0.531   0.371   0.249   0.228   0.195
   0.248   0.223
   0.250   0.190   0.173   0.283   0.217   0.316   0.346   0.484   0.459   0.717
   0.900   0.910   1.116   1.351   1.644   1.576   1.537   1.361   1.237   1.361
   1.537   1.576   1.644   1.351   1.116   0.910   0.900   0.717   0.459   0.484
   0.346   0.316   0.217   0.283   0.173   0.190   0.250   0.190   0.173   0.283
   0.217   0.316   0.346   0.484   0.459   0.717   0.900   0.910   1.116   1.351
   1.644   1.576   1.537   1.361   1.237   1.361   1.537   1.576   1.644   1.351
   1.116   0.910   0.900   0.717   0.459   0.484   0.346   0.316   0.217   0.283
   0.173   0.190
   0.290   0.491   0.249   0.319   0.294   0.316   0.399   0.478   0.439   0.660
   0.693   0.640   0.887   0.932   1.279   1.272   1.402   1.282   1.198   1.282
   1.402   1.272   1.279   0.932   0.887   0.640   0.693   0.660   0.439   0.478
   0.399   0.316   0.294   0.319   0.249   0.491   0.290   0.491   0.249   0.319
   0.294   0.316   0.399   0.478   0.439   0.660   0.693   0.640   0.887   0.932
   1.279   1.272   1.402   1.282   1.198   1.282   1.402   1.272   1.279   0.932
   0.887   0.640   0.693   0.660   0.439   0.478   0.399   0.316   0.294   0.319
   0.249   0.491
   0.544   0.718   0.365   0.598   0.326   0.418   0.421   0.566   0.522   0.587
   0.552   0.500   0.804   0.761   0.897   1.092   0.983   0.966   1.022   0.966
   0.983   1.092   0.897   0.761   0.804   0.500   0.552   0.587   0.522   0.566
   0.421   0.418   0.326   0.598   0.365   0.718   0.544   0.718   0.365   0.598
   0.326   0.418   0.421   0.566   0.522   0.587   0.552   0.500   0.804   0.761
   0.897   1.092   0.983   0.966   1.022   0.966   0.983   1.092   0.897   0.761
   0.804   0.500   0.552   0.587   0.522   0.566   0.421   0.418   0.326   0.598
   0.365   0.718
  4  1      2.9131555E-01
  4  2     -1.0823095E-01
  4  3     -5.9308081E-01
  6  1      1.9796774E+00
  6  2     -3.3888936E+00
  6  3      9.1624288E-01
  6  4     -2.4601099E-01
  8  1     -3.2410002E-01
  8  2      3.0188397E-01
  8  3      2.8933598E-01
  8  4      3.0928684E-01
  8  5      4.9125884E-01
 10  1     -1.5809024E-01
 10  2     -2.2896149E-01
 10  3      7.8694916E-01
 10  4      1.3123282E-02
 10  5     -1.4451572E-01
 10  6      7.2829554E-02
 12  1     -1.1061833E-01  1.7304638E+00
 12  2     -3.0264785E-01 -2.0077328E+00
 12  3      1.3203333E-01  1.9442745E+00
 12  4     -1.4887901E-01 -6.5005092E-01
 12  5     -3.5110983E-02 -5.2263379E-02
 12  6     -1.7554654E-01  2.7420557E-01
 12  7     -3.7091311E-01 -8.3727669E-02
 14  1     -4.2642944E-01
 14  2      3.0946816E-01
 14  3     -2.3146850E-01
 14  4     -6.5680806E-02
 14  5     -1.8605343E-01
 14  6      1.0899274E-02
 14  7      2.4387464E-01
 14  8     -6.9234339E-02
 16  1      4.6554524E-02 -4.2897995E-02
 16  2     -4.4691482E-01  1.6456491E-01
 16  3      1.9866733E-01  2.0593537E-01
 16  4     -9.7983204E-02 -4.9205360E-01
 16  5      1.6772153E-02  1.5381425E-01
 16  6      7.8595552E-02  3.2563377E-02
 16  7      3.0787712E-02 -8.4039029E-02
 16  8      2.6780251E-01 -4.1605412E-02
 16  9      9.3906783E-02  8.3892565E-02
 220       5.00   72    0 5.00   18    0
   2.598   2.599   2.602   2.608   2.615   2.624   2.635   2.647   2.660   2.673
   2.686   2.699   2.711   2.722   2.731   2.739   2.744   2.748   2.749   2.748
   2.744   2.739   2.731   2.722   2.711   2.699   2.686   2.673   2.660   2.647
   2.635   2.624   2.615   2.608   2.602   2.599   2.598   2.599   2.602   2.608
   2.615   2.624   2.635   2.647   2.660   2.673   2.686   2.699   2.711   2.722
   2.731   2.739   2.744   2.748   2.749   2.748   2.744   2.739   2.731   2.722
   2.711   2.699   2.686   2.673   2.660   2.647   2.635   2.624   2.615   2.608
   2.602   2.599
   1.607   1.614   1.636   1.672   1.722   1.785   1.860   1.944   2.037   2.135
   2.237   2.338   2.435   2.525   2.604   2.670   2.719   2.749   2.759   2.749
   2.719   2.670   2.604   2.525   2.435   2.338   2.237   2.135   2.037   1.944
   1.860   1.785   1.722   1.672   1.636   1.614   1.607   1.614   1.636   1.672
   1.722   1.785   1.860   1.944   2.037   2.135   2.237   2.338   2.435   2.525
   2.604   2.670   2.719   2.749   2.759   2.749   2.719   2.670   2.604   2.525
   2.435   2.338   2.237   2.135   2.037   1.944   1.860   1.785   1.722   1.672
   1.636   1.614
   0.434   0.444   0.472   0.522   0.592   0.686   0.804   0.947   1.114   1.303
   1.508   1.725   1.944   2.155   2.348   2.512   2.637   2.716   2.743   2.716
   2.637   2.512   2.348   2.155   1.944   1.725   1.508   1.303   1.114   0.947
   0.804   0.686   0.592   0.522   0.472   0.444   0.434   0.444   0.472   0.522
   0.592   0.686   0.804   0.947   1.114   1.303   1.508   1.725   1.944   2.155
   2.348   2.512   2.637   2.716   2.743   2.716   2.637   2.512   2.348   2.155
   1.944   1.725   1.508   1.303   1.114   0.947   0.804   0.686   0.592   0.522
   0.472   0.444
  -0.120  -0.118  -0.110  -0.095  -0.065  -0.014   0.065   0.181   0.340   0.545
   0.794   1.082   1.396   1.718   2.027   2.299   2.512   2.648   2.695   2.648
   2.512   2.299   2.027   1.718   1.396   1.082   0.794   0.545   0.340   0.181
   0.065  -0.014  -0.065  -0.095  -0.110  -0.118  -0.120  -0.118  -0.110  -0.095
  -0.065  -0.014   0.065   0.181   0.340   0.545   0.794   1.082   1.396   1.718
   2.027   2.299   2.512   2.648   2.695   2.648   2.512   2.299   2.027   1.718
   1.396   1.082   0.794   0.545   0.340   0.181   0.065  -0.014  -0.065  -0.095
  -0.110  -0.118
   0.020   0.013  -0.007  -0.036  -0.067  -0.092  -0.098  -0.068   0.012   0.155
   0.370   0.656   0.999   1.378   1.762   2.113   2.395   2.578   2.642   2.578
   2.395   2.113   1.762   1.378   0.999   0.656   0.370   0.155   0.012  -0.068
  -0.098  -0.092  -0.067  -0.036  -0.007   0.013   0.020   0.013  -0.007  -0.036
  -0.067  -0.092  -0.098  -0.068   0.012   0.155   0.370   0.656   0.999   1.378
   1.762   2.113   2.395   2.578   2.642   2.578   2.395   2.113   1.762   1.378
   0.999   0.656   0.370   0.155   0.012  -0.068  -0.098  -0.092  -0.067  -0.036
  -0.007   0.013
   0.307   0.302   0.285   0.256   0.215   0.168   0.122   0.094   0.104   0.173
   0.320   0.551   0.861   1.227   1.613   1.977   2.275   2.470   2.538   2.470
   2.275   1.977   1.613   1.227   0.861   0.551   0.320   0.173   0.104   0.094
   0.122   0.168   0.215   0.256   0.285   0.302   0.307   0.302   0.285   0.256
   0.215   0.168   0.122   0.094   0.104   0.173   0.320   0.551   0.861   1.227
   1.613   1.977   2.275   2.470   2.538   2.470   2.275   1.977   1.613   1.227
   0.861   0.551   0.320   0.173   0.104   0.094   0.122   0.168   0.215   0.256
   0.285   0.302
   0.259   0.266   0.284   0.309   0.332   0.345   0.346   0.341   0.347   0.387
   0.485   0.655   0.897   1.192   1.507   1.805   2.047   2.205   2.259   2.205
   2.047   1.805   1.507   1.192   0.897   0.655   0.485   0.387   0.347   0.341
   0.346   0.345   0.332   0.309   0.284   0.266   0.259   0.266   0.284   0.309
   0.332   0.345   0.346   0.341   0.347   0.387   0.485   0.655   0.897   1.192
   1.507   1.805   2.047   2.205   2.259   2.205   2.047   1.805   1.507   1.192
   0.897   0.655   0.485   0.387   0.347   0.341   0.346   0.345   0.332   0.309
   0.284   0.266
  -0.047  -0.030   0.018   0.096   0.194   0.293   0.378   0.441   0.489   0.543
   0.627   0.757   0.932   1.135   1.340   1.520   1.655   1.737   1.764   1.737
   1.655   1.520   1.340   1.135   0.932   0.757   0.627   0.543   0.489   0.441
   0.378   0.293   0.194   0.096   0.018  -0.030  -0.047  -0.030   0.018   0.096
   0.194   0.293   0.378   0.441   0.489   0.543   0.627   0.757   0.932   1.135
   1.340   1.520   1.655   1.737   1.764   1.737   1.655   1.520   1.340   1.135
   0.932   0.757   0.627   0.543   0.489   0.441   0.378   0.293   0.194   0.096
   0.018  -0.030
  -0.065  -0.059  -0.033   0.026   0.121   0.238   0.350   0.438   0.504   0.565
   0.642   0.747   0.875   1.005   1.113   1.182   1.212   1.218   1.217   1.218
   1.212   1.182   1.113   1.005   0.875   0.747   0.642   0.565   0.504   0.438
   0.350   0.238   0.121   0.026  -0.033  -0.059  -0.065  -0.059  -0.033   0.026
   0.121   0.238   0.350   0.438   0.504   0.565   0.642   0.747   0.875   1.005
   1.113   1.182   1.212   1.218   1.217   1.218   1.212   1.182   1.113   1.005
   0.875   0.747   0.642   0.565   0.504   0.438   0.350   0.238   0.121   0.026
  -0.033  -0.059
   0.697   0.665   0.591   0.525   0.502   0.516   0.540   0.551   0.552   0.562
   0.603   0.677   0.772   0.864   0.925   0.940   0.917   0.881   0.864   0.881
   0.917   0.940   0.925   0.864   0.772   0.677   0.603   0.562   0.552   0.551
   0.540   0.516   0.502   0.525   0.591   0.665   0.697   0.665   0.591   0.525
   0.502   0.516   0.540   0.551   0.552   0.562   0.603   0.677   0.772   0.864
   0.925   0.940   0.917   0.881   0.864   0.881   0.917   0.940   0.925   0.864
   0.772   0.677   0.603   0.562   0.552   0.551   0.540   0.516   0.502   0.525
   0.591   0.665
   2.150   2.060   1.838   1.581   1.366   1.202   1.056   0.908   0.769   0.672
   0.634   0.653   0.710   0.780   0.837   0.856   0.836   0.800   0.783   0.800
   0.836   0.856   0.837   0.780   0.710   0.653   0.634   0.672   0.769   0.908
   1.056   1.202   1.366   1.581   1.838   2.060   2.150   2.060   1.838   1.581
   1.366   1.202   1.056   0.908   0.769   0.672   0.634   0.653   0.710   0.780
   0.837   0.856   0.836   0.800   0.783   0.800   0.836   0.856   0.837   0.780
   0.710   0.653   0.634   0.672   0.769   0.908   1.056   1.202   1.366   1.581
   1.838   2.060
   3.497   3.357   3.010   2.605   2.252   1.959   1.680   1.390   1.116   0.905
   0.774   0.716   0.714   0.752   0.806   0.845   0.850   0.832   0.821   0.832
   0.850   0.845   0.806   0.752   0.714   0.716   0.774   0.905   1.116   1.390
   1.680   1.959   2.252   2.605   3.010   3.357   3.497   3.357   3.010   2.605
   2.252   1.959   1.680   1.390   1.116   0.905   0.774   0.716   0.714   0.752
   0.806   0.845   0.850   0.832   0.821   0.832   0.850   0.845   0.806   0.752
   0.714   0.716   0.774   0.905   1.116   1.390   1.680   1.959   2.252   2.605
   3.010   3.357
   3.750   3.599   3.236   2.840   2.527   2.283   2.028   1.727   1.418   1.155
   0.963   0.833   0.761   0.746   0.774   0.810   0.824   0.817   0.810   0.817
   0.824   0.810   0.774   0.746   0.761   0.833   0.963   1.155   1.418   1.727
   2.028   2.283   2.527   2.840   3.236   3.599   3.750   3.599   3.236   2.840
   2.527   2.283   2.028   1.727   1.418   1.155   0.963   0.833   0.761   0.746
   0.774   0.810   0.824   0.817   0.810   0.817   0.824   0.810   0.774   0.746
   0.761   0.833   0.963   1.155   1.418   1.727   2.028   2.283   2.527   2.840
   3.236   3.599
   2.613   2.501   2.252   2.040   1.955   1.940   1.881   1.729   1.518   1.303
   1.112   0.951   0.830   0.765   0.752   0.764   0.774   0.774   0.772   0.774
   0.774   0.764   0.752   0.765   0.830   0.951   1.112   1.303   1.518   1.729
   1.881   1.940   1.955   2.040   2.252   2.501   2.613   2.501   2.252   2.040
   1.955   1.940   1.881   1.729   1.518   1.303   1.112   0.951   0.830   0.765
   0.752   0.764   0.774   0.774   0.772   0.774   0.774   0.764   0.752   0.765
   0.830   0.951   1.112   1.303   1.518   1.729   1.881   1.940   1.955   2.040
   2.252   2.501
   0.890   0.841   0.765   0.789   0.960   1.192   1.366   1.425   1.386   1.289
   1.160   1.023   0.905   0.827   0.791   0.793   0.821   0.856   0.872   0.856
   0.821   0.793   0.791   0.827   0.905   1.023   1.160   1.289   1.386   1.425
   1.366   1.192   0.960   0.789   0.765   0.841   0.890   0.841   0.765   0.789
   0.960   1.192   1.366   1.425   1.386   1.289   1.160   1.023   0.905   0.827
   0.791   0.793   0.821   0.856   0.872   0.856   0.821   0.793   0.791   0.827
   0.905   1.023   1.160   1.289   1.386   1.425   1.366   1.192   0.960   0.789
   0.765   0.841
  -0.179  -0.180  -0.142   0.001   0.255   0.552   0.814   1.003   1.109   1.133
   1.092   1.023   0.959   0.914   0.895   0.927   1.023   1.141   1.195   1.141
   1.023   0.927   0.895   0.914   0.959   1.023   1.092   1.133   1.109   1.003
   0.814   0.552   0.255   0.001  -0.142  -0.180  -0.179  -0.180  -0.142   0.001
   0.255   0.552   0.814   1.003   1.109   1.133   1.092   1.023   0.959   0.914
   0.895   0.927   1.023   1.141   1.195   1.141   1.023   0.927   0.895   0.914
   0.959   1.023   1.092   1.133   1.109   1.003   0.814   0.552   0.255   0.001
  -0.142  -0.180
  -0.120  -0.108  -0.062   0.030   0.158   0.306   0.472   0.655   0.820   0.922
   0.955   0.961   0.972   0.985   1.008   1.100   1.297   1.524   1.627   1.524
   1.297   1.100   1.008   0.985   0.972   0.961   0.955   0.922   0.820   0.655
   0.472   0.306   0.158   0.030  -0.062  -0.108  -0.120  -0.108  -0.062   0.030
   0.158   0.306   0.472   0.655   0.820   0.922   0.955   0.961   0.972   0.985
   1.008   1.100   1.297   1.524   1.627   1.524   1.297   1.100   1.008   0.985
   0.972   0.961   0.955   0.922   0.820   0.655   0.472   0.306   0.158   0.030
  -0.062  -0.108
   0.376   0.381   0.390   0.382   0.347   0.316   0.349   0.473   0.641   0.772
   0.845   0.900   0.962   1.018   1.076   1.216   1.488   1.794   1.931   1.794
   1.488   1.216   1.076   1.018   0.962   0.900   0.845   0.772   0.641   0.473
   0.349   0.316   0.347   0.382   0.390   0.381   0.376   0.381   0.390   0.382
   0.347   0.316   0.349   0.473   0.641   0.772   0.845   0.900   0.962   1.018
   1.076   1.216   1.488   1.794   1.931   1.794   1.488   1.216   1.076   1.018
   0.962   0.900   0.845   0.772   0.641   0.473   0.349   0.316   0.347   0.382
   0.390   0.381
 200       5.00   72    0 5.00   18    0
   0.823   0.824   0.825   0.828   0.832   0.836   0.842   0.848   0.854   0.861
   0.867   0.874   0.880   0.885   0.890   0.894   0.897   0.899   0.900   0.899
   0.897   0.894   0.890   0.885   0.880   0.874   0.867   0.861   0.854   0.848
   0.842   0.836   0.832   0.828   0.825   0.824   0.823   0.824   0.825   0.828
   0.832   0.836   0.842   0.848   0.854   0.861   0.867   0.874   0.880   0.885
   0.890   0.894   0.897   0.899   0.900   0.899   0.897   0.894   0.890   0.885
   0.880   0.874   0.867   0.861   0.854   0.848   0.842   0.836   0.832   0.828
   0.825   0.824
   0.488   0.490   0.496   0.507   0.523   0.543   0.569   0.599   0.633   0.671
   0.713   0.755   0.798   0.839   0.875   0.906   0.930   0.945   0.950   0.945
   0.930   0.906   0.875   0.839   0.798   0.755   0.713   0.671   0.633   0.599
   0.569   0.543   0.523   0.507   0.496   0.490   0.488   0.490   0.496   0.507
   0.523   0.543   0.569   0.599   0.633   0.671   0.713   0.755   0.798   0.839
   0.875   0.906   0.930   0.945   0.950   0.945   0.930   0.906   0.875   0.839
   0.798   0.755   0.713   0.671   0.633   0.599   0.569   0.543   0.523   0.507
   0.496   0.490
   0.527   0.523   0.513   0.497   0.479   0.461   0.448   0.443   0.449   0.470
   0.506   0.557   0.620   0.690   0.761   0.826   0.879   0.913   0.925   0.913
   0.879   0.826   0.761   0.690   0.620   0.557   0.506   0.470   0.449   0.443
   0.448   0.461   0.479   0.497   0.513   0.523   0.527   0.523   0.513   0.497
   0.479   0.461   0.448   0.443   0.449   0.470   0.506   0.557   0.620   0.690
   0.761   0.826   0.879   0.913   0.925   0.913   0.879   0.826   0.761   0.690
   0.620   0.557   0.506   0.470   0.449   0.443   0.448   0.461   0.479   0.497
   0.513   0.523
   1.322   1.306   1.259   1.183   1.082   0.963   0.834   0.705   0.588   0.494
   0.432   0.408   0.424   0.473   0.546   0.627   0.700   0.750   0.768   0.750
   0.700   0.627   0.546   0.473   0.424   0.408   0.432   0.494   0.588   0.705
   0.834   0.963   1.082   1.183   1.259   1.306   1.322   1.306   1.259   1.183
   1.082   0.963   0.834   0.705   0.588   0.494   0.432   0.408   0.424   0.473
   0.546   0.627   0.700   0.750   0.768   0.750   0.700   0.627   0.546   0.473
   0.424   0.408   0.432   0.494   0.588   0.705   0.834   0.963   1.082   1.183
   1.259   1.306
   2.323   2.302   2.239   2.134   1.986   1.799   1.578   1.334   1.080   0.839
   0.630   0.473   0.380   0.352   0.379   0.440   0.510   0.564   0.584   0.564
   0.510   0.440   0.379   0.352   0.380   0.473   0.630   0.839   1.080   1.334
   1.578   1.799   1.986   2.134   2.239   2.302   2.323   2.302   2.239   2.134
   1.986   1.799   1.578   1.334   1.080   0.839   0.630   0.473   0.380   0.352
   0.379   0.440   0.510   0.564   0.584   0.564   0.510   0.440   0.379   0.352
   0.380   0.473   0.630   0.839   1.080   1.334   1.578   1.799   1.986   2.134
   2.239   2.302
   2.678   2.665   2.628   2.563   2.466   2.328   2.143   1.909   1.634   1.334
   1.038   0.776   0.576   0.452   0.403   0.411   0.448   0.485   0.500   0.485
   0.448   0.411   0.403   0.452   0.576   0.776   1.038   1.334   1.634   1.909
   2.143   2.328   2.466   2.563   2.628   2.665   2.678   2.665   2.628   2.563
   2.466   2.328   2.143   1.909   1.634   1.334   1.038   0.776   0.576   0.452
   0.403   0.411   0.448   0.485   0.500   0.485   0.448   0.411   0.403   0.452
   0.576   0.776   1.038   1.334   1.634   1.909   2.143   2.328   2.466   2.563
   2.628   2.665
   2.180   2.179   2.176   2.175   2.174   2.162   2.120   2.027   1.871   1.654
   1.395   1.129   0.892   0.711   0.596   0.539   0.523   0.524   0.526   0.524
   0.523   0.539   0.596   0.711   0.892   1.129   1.395   1.654   1.871   2.027
   2.120   2.162   2.174   2.175   2.176   2.179   2.180   2.179   2.176   2.175
   2.174   2.162   2.120   2.027   1.871   1.654   1.395   1.129   0.892   0.711
   0.596   0.539   0.523   0.524   0.526   0.524   0.523   0.539   0.596   0.711
   0.892   1.129   1.395   1.654   1.871   2.027   2.120   2.162   2.174   2.175
   2.176   2.179
   1.329   1.328   1.333   1.357   1.413   1.497   1.590   1.659   1.673   1.613
   1.484   1.308   1.122   0.955   0.823   0.727   0.662   0.622   0.609   0.622
   0.662   0.727   0.823   0.955   1.122   1.308   1.484   1.613   1.673   1.659
   1.590   1.497   1.413   1.357   1.333   1.328   1.329   1.328   1.333   1.357
   1.413   1.497   1.590   1.659   1.673   1.613   1.484   1.308   1.122   0.955
   0.823   0.727   0.662   0.622   0.609   0.622   0.662   0.727   0.823   0.955
   1.122   1.308   1.484   1.613   1.673   1.659   1.590   1.497   1.413   1.357
   1.333   1.328
   0.656   0.650   0.644   0.660   0.718   0.825   0.967   1.119   1.248   1.322
   1.327   1.272   1.183   1.088   0.996   0.907   0.822   0.755   0.730   0.755
   0.822   0.907   0.996   1.088   1.183   1.272   1.327   1.322   1.248   1.119
   0.967   0.825   0.718   0.660   0.644   0.650   0.656   0.650   0.644   0.660
   0.718   0.825   0.967   1.119   1.248   1.322   1.327   1.272   1.183   1.088
   0.996   0.907   0.822   0.755   0.730   0.755   0.822   0.907   0.996   1.088
   1.183   1.272   1.327   1.322   1.248   1.119   0.967   0.825   0.718   0.660
   0.644   0.650
   0.314   0.311   0.308   0.323   0.368   0.449   0.567   0.720   0.892   1.046
   1.142   1.172   1.159   1.135   1.107   1.057   0.979   0.900   0.866   0.900
   0.979   1.057   1.107   1.135   1.159   1.172   1.142   1.046   0.892   0.720
   0.567   0.449   0.368   0.323   0.308   0.311   0.314   0.311   0.308   0.323
   0.368   0.449   0.567   0.720   0.892   1.046   1.142   1.172   1.159   1.135
   1.107   1.057   0.979   0.900   0.866   0.900   0.979   1.057   1.107   1.135
   1.159   1.172   1.142   1.046   0.892   0.720   0.567   0.449   0.368   0.323
   0.308   0.311
   0.245   0.244   0.250   0.270   0.301   0.339   0.404   0.534   0.735   0.952
   1.106   1.161   1.153   1.145   1.151   1.133   1.061   0.966   0.922   0.966
   1.061   1.133   1.151   1.145   1.153   1.161   1.106   0.952   0.735   0.534
   0.404   0.339   0.301   0.270   0.250   0.244   0.245   0.244   0.250   0.270
   0.301   0.339   0.404   0.534   0.735   0.952   1.106   1.161   1.153   1.145
   1.151   1.133   1.061   0.966   0.922   0.966   1.061   1.133   1.151   1.145
   1.153   1.161   1.106   0.952   0.735   0.534   0.404   0.339   0.301   0.270
   0.250   0.244
   0.343   0.336   0.327   0.331   0.337   0.334   0.361   0.494   0.755   1.052
   1.242   1.260   1.179   1.115   1.107   1.090   1.001   0.875   0.814   0.875
   1.001   1.090   1.107   1.115   1.179   1.260   1.242   1.052   0.755   0.494
   0.361   0.334   0.337   0.331   0.327   0.336   0.343   0.336   0.327   0.331
   0.337   0.334   0.361   0.494   0.755   1.052   1.242   1.260   1.179   1.115
   1.107   1.090   1.001   0.875   0.814   0.875   1.001   1.090   1.107   1.115
   1.179   1.260   1.242   1.052   0.755   0.494   0.361   0.334   0.337   0.331
   0.327   0.336
   0.420   0.401   0.370   0.364   0.372   0.374   0.416   0.596   0.936   1.296
   1.474   1.397   1.192   1.042   1.004   0.979   0.869   0.708   0.630   0.708
   0.869   0.979   1.004   1.042   1.192   1.397   1.474   1.296   0.936   0.596
   0.416   0.374   0.372   0.364   0.370   0.401   0.420   0.401   0.370   0.364
   0.372   0.374   0.416   0.596   0.936   1.296   1.474   1.397   1.192   1.042
   1.004   0.979   0.869   0.708   0.630   0.708   0.869   0.979   1.004   1.042
   1.192   1.397   1.474   1.296   0.936   0.596   0.416   0.374   0.372   0.364
   0.370   0.401
   0.317   0.300   0.287   0.330   0.415   0.500   0.621   0.876   1.267   1.617
   1.705   1.493   1.171   0.967   0.928   0.919   0.816   0.651   0.570   0.651
   0.816   0.919   0.928   0.967   1.171   1.493   1.705   1.617   1.267   0.876
   0.621   0.500   0.415   0.330   0.287   0.300   0.317   0.300   0.287   0.330
   0.415   0.500   0.621   0.876   1.267   1.617   1.705   1.493   1.171   0.967
   0.928   0.919   0.816   0.651   0.570   0.651   0.816   0.919   0.928   0.967
   1.171   1.493   1.705   1.617   1.267   0.876   0.621   0.500   0.415   0.330
   0.287   0.300
   0.218   0.220   0.260   0.385   0.562   0.735   0.932   1.233   1.613   1.873
   1.820   1.484   1.110   0.917   0.913   0.940   0.878   0.757   0.696   0.757
   0.878   0.940   0.913   0.917   1.110   1.484   1.820   1.873   1.613   1.233
   0.932   0.735   0.562   0.385   0.260   0.220   0.218   0.220   0.260   0.385
   0.562   0.735   0.932   1.233   1.613   1.873   1.820   1.484   1.110   0.917
   0.913   0.940   0.878   0.757   0.696   0.757   0.878   0.940   0.913   0.917
   1.110   1.484   1.820   1.873   1.613   1.233   0.932   0.735   0.562   0.385
   0.260   0.220
   0.572   0.584   0.642   0.762   0.900   1.019   1.173   1.437   1.747   1.889
   1.716   1.330   0.991   0.861   0.889   0.932   0.917   0.869   0.845   0.869
   0.917   0.932   0.889   0.861   0.991   1.330   1.716   1.889   1.747   1.437
   1.173   1.019   0.900   0.762   0.642   0.584   0.572   0.584   0.642   0.762
   0.900   1.019   1.173   1.437   1.747   1.889   1.716   1.330   0.991   0.861
   0.889   0.932   0.917   0.869   0.845   0.869   0.917   0.932   0.889   0.861
   0.991   1.330   1.716   1.889   1.747   1.437   1.173   1.019   0.900   0.762
   0.642   0.584
   1.470   1.467   1.462   1.442   1.368   1.259   1.233   1.379   1.598   1.652
   1.429   1.075   0.827   0.767   0.796   0.814   0.821   0.843   0.858   0.843
   0.821   0.814   0.796   0.767   0.827   1.075   1.429   1.652   1.598   1.379
   1.233   1.259   1.368   1.442   1.462   1.467   1.470   1.467   1.462   1.442
   1.368   1.259   1.233   1.379   1.598   1.652   1.429   1.075   0.827   0.767
   0.796   0.814   0.821   0.843   0.858   0.843   0.821   0.814   0.796   0.767
   0.827   1.075   1.429   1.652   1.598   1.379   1.233   1.259   1.368   1.442
   1.462   1.467
   2.292   2.267   2.182   2.008   1.720   1.390   1.190   1.229   1.384   1.400
   1.176   0.872   0.700   0.683   0.696   0.678   0.686   0.747   0.786   0.747
   0.686   0.678   0.696   0.683   0.700   0.872   1.176   1.400   1.384   1.229
   1.190   1.390   1.720   2.008   2.182   2.267   2.292   2.267   2.182   2.008
   1.720   1.390   1.190   1.229   1.384   1.400   1.176   0.872   0.700   0.683
   0.696   0.678   0.686   0.747   0.786   0.747   0.686   0.678   0.696   0.683
   0.700   0.872   1.176   1.400   1.384   1.229   1.190   1.390   1.720   2.008
   2.182   2.267
 111       5.00   72    0 5.00   18    0
   0.299   0.299   0.301   0.303   0.306   0.311   0.315   0.321   0.327   0.332
   0.338   0.344   0.350   0.355   0.359   0.363   0.365   0.367   0.367   0.367
   0.365   0.363   0.359   0.355   0.350   0.344   0.338   0.332   0.327   0.321
   0.315   0.311   0.306   0.303   0.301   0.299   0.299   0.299   0.301   0.303
   0.306   0.311   0.315   0.321   0.327   0.332   0.338   0.344   0.350   0.355
   0.359   0.363   0.365   0.367   0.367   0.367   0.365   0.363   0.359   0.355
   0.350   0.344   0.338   0.332   0.327   0.321   0.315   0.311   0.306   0.303
   0.301   0.299
  -0.088  -0.086  -0.081  -0.071  -0.057  -0.039  -0.017   0.010   0.041   0.076
   0.112   0.150   0.187   0.222   0.253   0.279   0.299   0.311   0.315   0.311
   0.299   0.279   0.253   0.222   0.187   0.150   0.112   0.076   0.041   0.010
  -0.017  -0.039  -0.057  -0.071  -0.081  -0.086  -0.088  -0.086  -0.081  -0.071
  -0.057  -0.039  -0.017   0.010   0.041   0.076   0.112   0.150   0.187   0.222
   0.253   0.279   0.299   0.311   0.315   0.311   0.299   0.279   0.253   0.222
   0.187   0.150   0.112   0.076   0.041   0.010  -0.017  -0.039  -0.057  -0.071
  -0.081  -0.086
  -0.014  -0.021  -0.040  -0.068  -0.100  -0.131  -0.154  -0.166  -0.162  -0.143
  -0.109  -0.063  -0.009   0.047   0.102   0.149   0.186   0.209   0.217   0.209
   0.186   0.149   0.102   0.047  -0.009  -0.063  -0.109  -0.143  -0.162  -0.166
  -0.154  -0.131  -0.100  -0.068  -0.040  -0.021  -0.014  -0.021  -0.040  -0.068
  -0.100  -0.131  -0.154  -0.166  -0.162  -0.143  -0.109  -0.063  -0.009   0.047
   0.102   0.149   0.186   0.209   0.217   0.209   0.186   0.149   0.102   0.047
  -0.009  -0.063  -0.109  -0.143  -0.162  -0.166  -0.154  -0.131  -0.100  -0.068
  -0.040  -0.021
   1.175   1.141   1.043   0.893   0.709   0.512   0.323   0.159   0.032  -0.050
  -0.090  -0.092  -0.068  -0.027   0.021   0.065   0.101   0.123   0.131   0.123
   0.101   0.065   0.021  -0.027  -0.068  -0.092  -0.090  -0.050   0.032   0.159
   0.323   0.512   0.709   0.893   1.043   1.141   1.175   1.141   1.043   0.893
   0.709   0.512   0.323   0.159   0.032  -0.050  -0.090  -0.092  -0.068  -0.027
   0.021   0.065   0.101   0.123   0.131   0.123   0.101   0.065   0.021  -0.027
  -0.068  -0.092  -0.090  -0.050   0.032   0.159   0.323   0.512   0.709   0.893
   1.043   1.141
   3.023   2.955   2.758   2.454   2.076   1.663   1.256   0.888   0.585   0.359
   0.210   0.126   0.091   0.088   0.100   0.115   0.128   0.135   0.138   0.135
   0.128   0.115   0.100   0.088   0.091   0.126   0.210   0.359   0.585   0.888
   1.256   1.663   2.076   2.454   2.758   2.955   3.023   2.955   2.758   2.454
   2.076   1.663   1.256   0.888   0.585   0.359   0.210   0.126   0.091   0.088
   0.100   0.115   0.128   0.135   0.138   0.135   0.128   0.115   0.100   0.088
   0.091   0.126   0.210   0.359   0.585   0.888   1.256   1.663   2.076   2.454
   2.758   2.955
   4.235   4.156   3.929   3.574   3.125   2.623   2.111   1.633   1.219   0.889
   0.648   0.487   0.387   0.330   0.296   0.274   0.259   0.250   0.246   0.250
   0.259   0.274   0.296   0.330   0.387   0.487   0.648   0.889   1.219   1.633
   2.111   2.623   3.125   3.574   3.929   4.156   4.235   4.156   3.929   3.574
   3.125   2.623   2.111   1.633   1.219   0.889   0.648   0.487   0.387   0.330
   0.296   0.274   0.259   0.250   0.246   0.250   0.259   0.274   0.296   0.330
   0.387   0.487   0.648   0.889   1.219   1.633   2.111   2.623   3.125   3.574
   3.929   4.156
   3.883   3.840   3.712   3.502   3.217   2.871   2.484   2.084   1.699   1.355
   1.067   0.842   0.676   0.558   0.477   0.424   0.391   0.373   0.367   0.373
   0.391   0.424   0.477   0.558   0.676   0.842   1.067   1.355   1.699   2.084
   2.484   2.871   3.217   3.502   3.712   3.840   3.883   3.840   3.712   3.502
   3.217   2.871   2.484   2.084   1.699   1.355   1.067   0.842   0.676   0.558
   0.477   0.424   0.391   0.373   0.367   0.373   0.391   0.424   0.477   0.558
   0.676   0.842   1.067   1.355   1.699   2.084   2.484   2.871   3.217   3.502
   3.712   3.840
   2.293   2.309   2.350   2.397   2.422   2.399   2.307   2.144   1.921   1.661
   1.392   1.137   0.915   0.737   0.605   0.518   0.468   0.444   0.437   0.444
   0.468   0.518   0.605   0.737   0.915   1.137   1.392   1.661   1.921   2.144
   2.307   2.399   2.422   2.397   2.350   2.309   2.293   2.309   2.350   2.397
   2.422   2.399   2.307   2.144   1.921   1.661   1.392   1.137   0.915   0.737
   0.605   0.518   0.468   0.444   0.437   0.444   0.468   0.518   0.605   0.737
   0.915   1.137   1.392   1.661   1.921   2.144   2.307   2.399   2.422   2.397
   2.350   2.309
   0.670   0.718   0.857   1.068   1.315   1.554   1.738   1.836   1.836   1.747
   1.589   1.389   1.174   0.971   0.798   0.666   0.578   0.528   0.512   0.528
   0.578   0.666   0.798   0.971   1.174   1.389   1.589   1.747   1.836   1.836
   1.738   1.554   1.315   1.068   0.857   0.718   0.670   0.718   0.857   1.068
   1.315   1.554   1.738   1.836   1.836   1.747   1.589   1.389   1.174   0.971
   0.798   0.666   0.578   0.528   0.512   0.528   0.578   0.666   0.798   0.971
   1.174   1.389   1.589   1.747   1.836   1.836   1.738   1.554   1.315   1.068
   0.857   0.718
  -0.071  -0.041   0.055   0.225   0.464   0.746   1.031   1.281   1.467   1.577
   1.608   1.565   1.462   1.316   1.149   0.981   0.835   0.733   0.696   0.733
   0.835   0.981   1.149   1.316   1.462   1.565   1.608   1.577   1.467   1.281
   1.031   0.746   0.464   0.225   0.055  -0.041  -0.071  -0.041   0.055   0.225
   0.464   0.746   1.031   1.281   1.467   1.577   1.608   1.565   1.462   1.316
   1.149   0.981   0.835   0.733   0.696   0.733   0.835   0.981   1.149   1.316
   1.462   1.565   1.608   1.577   1.467   1.281   1.031   0.746   0.464   0.225
   0.055  -0.041
  -0.008  -0.016  -0.024   0.003   0.097   0.262   0.482   0.732   0.987   1.224
   1.420   1.558   1.626   1.619   1.535   1.383   1.198   1.041   0.980   1.041
   1.198   1.383   1.535   1.619   1.626   1.558   1.420   1.224   0.987   0.732
   0.482   0.262   0.097   0.003  -0.024  -0.016  -0.008  -0.016  -0.024   0.003
   0.097   0.262   0.482   0.732   0.987   1.224   1.420   1.558   1.626   1.619
   1.535   1.383   1.198   1.041   0.980   1.041   1.198   1.383   1.535   1.619
   1.626   1.558   1.420   1.224   0.987   0.732   0.482   0.262   0.097   0.003
  -0.024  -0.016
   0.187   0.166   0.119   0.080   0.085   0.148   0.268   0.436   0.640   0.867
   1.098   1.316   1.508   1.653   1.710   1.647   1.482   1.305   1.229   1.305
   1.482   1.647   1.710   1.653   1.508   1.316   1.098   0.867   0.640   0.436
   0.268   0.148   0.085   0.080   0.119   0.166   0.187   0.166   0.119   0.080
   0.085   0.148   0.268   0.436   0.640   0.867   1.098   1.316   1.508   1.653
   1.710   1.647   1.482   1.305   1.229   1.305   1.482   1.647   1.710   1.653
   1.508   1.316   1.098   0.867   0.640   0.436   0.268   0.148   0.085   0.080
   0.119   0.166
   0.127   0.125   0.122   0.129   0.156   0.212   0.295   0.402   0.527   0.662
   0.806   0.967   1.165   1.392   1.581   1.645   1.557   1.404   1.330   1.404
   1.557   1.645   1.581   1.392   1.165   0.967   0.806   0.662   0.527   0.402
   0.295   0.212   0.156   0.129   0.122   0.125   0.127   0.125   0.122   0.129
   0.156   0.212   0.295   0.402   0.527   0.662   0.806   0.967   1.165   1.392
   1.581   1.645   1.557   1.404   1.330   1.404   1.557   1.645   1.581   1.392
   1.165   0.967   0.806   0.662   0.527   0.402   0.295   0.212   0.156   0.129
   0.122   0.125
   0.068   0.078   0.103   0.135   0.179   0.247   0.340   0.448   0.549   0.627
   0.677   0.731   0.847   1.055   1.299   1.458   1.457   1.355   1.296   1.355
   1.457   1.458   1.299   1.055   0.847   0.731   0.677   0.627   0.549   0.448
   0.340   0.247   0.179   0.135   0.103   0.078   0.068   0.078   0.103   0.135
   0.179   0.247   0.340   0.448   0.549   0.627   0.677   0.731   0.847   1.055
   1.299   1.458   1.457   1.355   1.296   1.355   1.457   1.458   1.299   1.055
   0.847   0.731   0.677   0.627   0.549   0.448   0.340   0.247   0.179   0.135
   0.103   0.078
   0.462   0.452   0.415   0.357   0.308   0.312   0.381   0.490   0.601   0.680
   0.708   0.704   0.731   0.853   1.057   1.237   1.292   1.244   1.205   1.244
   1.292   1.237   1.057   0.853   0.731   0.704   0.708   0.680   0.601   0.490
   0.381   0.312   0.308   0.357   0.415   0.452   0.462   0.452   0.415   0.357
   0.308   0.312   0.381   0.490   0.601   0.680   0.708   0.704   0.731   0.853
   1.057   1.237   1.292   1.244   1.205   1.244   1.292   1.237   1.057   0.853
   0.731   0.704   0.708   0.680   0.601   0.490   0.381   0.312   0.308   0.357
   0.415   0.452
   1.390   1.341   1.199   0.991   0.788   0.662   0.630   0.656   0.703   0.754
   0.790   0.787   0.764   0.788   0.896   1.036   1.116   1.118   1.103   1.118
   1.116   1.036   0.896   0.788   0.764   0.787   0.790   0.754   0.703   0.656
   0.630   0.662   0.788   0.991   1.199   1.341   1.390   1.341   1.199   0.991
   0.788   0.662   0.630   0.656   0.703   0.754   0.790   0.787   0.764   0.788
   0.896   1.036   1.116   1.118   1.103   1.118   1.116   1.036   0.896   0.788
   0.764   0.787   0.790   0.754   0.703   0.656   0.630   0.662   0.788   0.991
   1.199   1.341
   2.461   2.389   2.181   1.878   1.568   1.327   1.156   1.012   0.889   0.827
   0.831   0.839   0.800   0.750   0.762   0.848   0.941   0.989   0.999   0.989
   0.941   0.848   0.762   0.750   0.800   0.839   0.831   0.827   0.889   1.012
   1.156   1.327   1.568   1.878   2.181   2.389   2.461   2.389   2.181   1.878
   1.568   1.327   1.156   1.012   0.889   0.827   0.831   0.839   0.800   0.750
   0.762   0.848   0.941   0.989   0.999   0.989   0.941   0.848   0.762   0.750
   0.800   0.839   0.831   0.827   0.889   1.012   1.156   1.327   1.568   1.878
   2.181   2.389
   3.158   3.082   2.860   2.535   2.193   1.897   1.629   1.340   1.058   0.877
   0.831   0.838   0.795   0.706   0.664   0.717   0.819   0.897   0.923   0.897
   0.819   0.717   0.664   0.706   0.795   0.838   0.831   0.877   1.058   1.340
   1.629   1.897   2.193   2.535   2.860   3.082   3.158   3.082   2.860   2.535
   2.193   1.897   1.629   1.340   1.058   0.877   0.831   0.838   0.795   0.706
   0.664   0.717   0.819   0.897   0.923   0.897   0.819   0.717   0.664   0.706
   0.795   0.838   0.831   0.877   1.058   1.340   1.629   1.897   2.193   2.535
   2.860   3.082
TEXTURE_INDEX=   2.8757
ERR_CF 220         1080     494   34.07   26.31
ERR_CF 200         1080     352   25.14    9.94
ERR_CF 111         1080     334   41.24    7.30
