TEXEVAL                                                                         
Analysis started on 29-Apr-19 14:10:21                                          
 LMAX=16LFMAX=03 CUBIC ORTHO   
 220      5.00 5.00
 200      5.00 5.00
 111      5.00 5.00
 220       5.00   72    0 5.00   15    0
   5.783   5.783   5.783   5.783   5.783   5.783   5.783   5.783   5.783   5.783
   5.783   5.783   5.783   5.783   5.783   5.783   5.783   5.783   5.783   5.783
   5.783   5.783   5.783   5.783   5.783   5.783   5.783   5.783   5.783   5.783
   5.783   5.783   5.783   5.783   5.783   5.783   5.783   5.783   5.783   5.783
   5.783   5.783   5.783   5.783   5.783   5.783   5.783   5.783   5.783   5.783
   5.783   5.783   5.783   5.783   5.783   5.783   5.783   5.783   5.783   5.783
   5.783   5.783   5.783   5.783   5.783   5.783   5.783   5.783   5.783   5.783
   5.783   5.783
   2.278   2.330   2.244   2.295   2.487   2.636   2.646   2.963   3.320   3.605
   4.033   4.132   4.559   5.006   5.341   5.709   5.829   6.100   6.310   6.100
   5.829   5.709   5.341   5.006   4.559   4.132   4.033   3.605   3.320   2.963
   2.646   2.636   2.487   2.295   2.244   2.330   2.278   2.330   2.244   2.295
   2.487   2.636   2.646   2.963   3.320   3.605   4.033   4.132   4.559   5.006
   5.341   5.709   5.829   6.100   6.310   6.100   5.829   5.709   5.341   5.006
   4.559   4.132   4.033   3.605   3.320   2.963   2.646   2.636   2.487   2.295
   2.244   2.330
   0.667   0.621   0.645   0.679   0.793   0.852   0.985   1.078   1.413   1.716
   2.086   2.206   2.830   3.574   4.120   4.596   4.967   5.408   5.790   5.408
   4.967   4.596   4.120   3.574   2.830   2.206   2.086   1.716   1.413   1.078
   0.985   0.852   0.793   0.679   0.645   0.621   0.667   0.621   0.645   0.679
   0.793   0.852   0.985   1.078   1.413   1.716   2.086   2.206   2.830   3.574
   4.120   4.596   4.967   5.408   5.790   5.408   4.967   4.596   4.120   3.574
   2.830   2.206   2.086   1.716   1.413   1.078   0.985   0.852   0.793   0.679
   0.645   0.621
   0.286   0.324   0.317   0.304   0.337   0.396   0.481   0.514   0.596   0.863
   1.082   1.252   1.857   2.446   3.246   3.681   4.256   4.832   5.222   4.832
   4.256   3.681   3.246   2.446   1.857   1.252   1.082   0.863   0.596   0.514
   0.481   0.396   0.337   0.304   0.317   0.324   0.286   0.324   0.317   0.304
   0.337   0.396   0.481   0.514   0.596   0.863   1.082   1.252   1.857   2.446
   3.246   3.681   4.256   4.832   5.222   4.832   4.256   3.681   3.246   2.446
   1.857   1.252   1.082   0.863   0.596   0.514   0.481   0.396   0.337   0.304
   0.317   0.324
   0.254   0.241   0.284   0.241   0.263   0.259   0.340   0.400   0.402   0.581
   0.750   0.835   1.402   1.681   2.428   2.911   3.826   4.253   4.469   4.253
   3.826   2.911   2.428   1.681   1.402   0.835   0.750   0.581   0.402   0.400
   0.340   0.259   0.263   0.241   0.284   0.241   0.254   0.241   0.284   0.241
   0.263   0.259   0.340   0.400   0.402   0.581   0.750   0.835   1.402   1.681
   2.428   2.911   3.826   4.253   4.469   4.253   3.826   2.911   2.428   1.681
   1.402   0.835   0.750   0.581   0.402   0.400   0.340   0.259   0.263   0.241
   0.284   0.241
   0.279   0.243   0.317   0.308   0.343   0.364   0.365   0.354   0.444   0.507
   0.765   0.802   1.152   1.401   2.029   2.436   3.149   3.728   3.467   3.728
   3.149   2.436   2.029   1.401   1.152   0.802   0.765   0.507   0.444   0.354
   0.365   0.364   0.343   0.308   0.317   0.243   0.279   0.243   0.317   0.308
   0.343   0.364   0.365   0.354   0.444   0.507   0.765   0.802   1.152   1.401
   2.029   2.436   3.149   3.728   3.467   3.728   3.149   2.436   2.029   1.401
   1.152   0.802   0.765   0.507   0.444   0.354   0.365   0.364   0.343   0.308
   0.317   0.243
   0.241   0.302   0.326   0.362   0.377   0.425   0.512   0.364   0.475   0.494
   0.777   0.926   1.244   1.424   1.738   2.086   2.394   2.864   2.923   2.864
   2.394   2.086   1.738   1.424   1.244   0.926   0.777   0.494   0.475   0.364
   0.512   0.425   0.377   0.362   0.326   0.302   0.241   0.302   0.326   0.362
   0.377   0.425   0.512   0.364   0.475   0.494   0.777   0.926   1.244   1.424
   1.738   2.086   2.394   2.864   2.923   2.864   2.394   2.086   1.738   1.424
   1.244   0.926   0.777   0.494   0.475   0.364   0.512   0.425   0.377   0.362
   0.326   0.302
   0.353   0.298   0.245   0.365   0.328   0.401   0.634   0.370   0.543   0.579
   0.703   1.044   1.364   1.336   1.691   1.886   1.968   1.973   2.096   1.973
   1.968   1.886   1.691   1.336   1.364   1.044   0.703   0.579   0.543   0.370
   0.634   0.401   0.328   0.365   0.245   0.298   0.353   0.298   0.245   0.365
   0.328   0.401   0.634   0.370   0.543   0.579   0.703   1.044   1.364   1.336
   1.691   1.886   1.968   1.973   2.096   1.973   1.968   1.886   1.691   1.336
   1.364   1.044   0.703   0.579   0.543   0.370   0.634   0.401   0.328   0.365
   0.245   0.298
   0.414   0.266   0.246   0.359   0.379   0.369   0.436   0.386   0.541   0.517
   0.673   0.992   1.162   1.295   1.708   1.706   1.508   1.309   1.199   1.309
   1.508   1.706   1.708   1.295   1.162   0.992   0.673   0.517   0.541   0.386
   0.436   0.369   0.379   0.359   0.246   0.266   0.414   0.266   0.246   0.359
   0.379   0.369   0.436   0.386   0.541   0.517   0.673   0.992   1.162   1.295
   1.708   1.706   1.508   1.309   1.199   1.309   1.508   1.706   1.708   1.295
   1.162   0.992   0.673   0.517   0.541   0.386   0.436   0.369   0.379   0.359
   0.246   0.266
   0.369   0.483   0.333   0.526   0.592   0.447   0.368   0.422   0.542   0.524
   0.634   0.860   1.001   1.357   1.560   1.520   1.134   0.748   1.073   0.748
   1.134   1.520   1.560   1.357   1.001   0.860   0.634   0.524   0.542   0.422
   0.368   0.447   0.592   0.526   0.333   0.483   0.369   0.483   0.333   0.526
   0.592   0.447   0.368   0.422   0.542   0.524   0.634   0.860   1.001   1.357
   1.560   1.520   1.134   0.748   1.073   0.748   1.134   1.520   1.560   1.357
   1.001   0.860   0.634   0.524   0.542   0.422   0.368   0.447   0.592   0.526
   0.333   0.483
   1.374   1.787   1.086   1.377   0.854   0.624   0.597   0.711   0.571   0.452
   0.573   0.804   0.812   1.318   1.393   1.242   0.992   0.753   0.916   0.753
   0.992   1.242   1.393   1.318   0.812   0.804   0.573   0.452   0.571   0.711
   0.597   0.624   0.854   1.377   1.086   1.787   1.374   1.787   1.086   1.377
   0.854   0.624   0.597   0.711   0.571   0.452   0.573   0.804   0.812   1.318
   1.393   1.242   0.992   0.753   0.916   0.753   0.992   1.242   1.393   1.318
   0.812   0.804   0.573   0.452   0.571   0.711   0.597   0.624   0.854   1.377
   1.086   1.787
   4.208   4.197   3.299   3.059   1.517   0.951   1.026   0.977   0.688   0.348
   0.529   0.600   0.824   0.937   1.080   0.799   0.999   0.662   0.513   0.662
   0.999   0.799   1.080   0.937   0.824   0.600   0.529   0.348   0.688   0.977
   1.026   0.951   1.517   3.059   3.299   4.197   4.208   4.197   3.299   3.059
   1.517   0.951   1.026   0.977   0.688   0.348   0.529   0.600   0.824   0.937
   1.080   0.799   0.999   0.662   0.513   0.662   0.999   0.799   1.080   0.937
   0.824   0.600   0.529   0.348   0.688   0.977   1.026   0.951   1.517   3.059
   3.299   4.197
   5.383   4.501   3.601   3.459   2.095   1.653   1.325   1.089   0.941   0.637
   0.916   0.674   0.660   0.679   0.672   0.617   0.761   0.311   0.289   0.311
   0.761   0.617   0.672   0.679   0.660   0.674   0.916   0.637   0.941   1.089
   1.325   1.653   2.095   3.459   3.601   4.501   5.383   4.501   3.601   3.459
   2.095   1.653   1.325   1.089   0.941   0.637   0.916   0.674   0.660   0.679
   0.672   0.617   0.761   0.311   0.289   0.311   0.761   0.617   0.672   0.679
   0.660   0.674   0.916   0.637   0.941   1.089   1.325   1.653   2.095   3.459
   3.601   4.501
   2.609   1.949   1.564   1.760   1.384   1.606   1.305   0.948   0.708   0.792
   1.311   0.659   0.277   0.541   0.441   0.707   0.602   0.230   0.284   0.230
   0.602   0.707   0.441   0.541   0.277   0.659   1.311   0.792   0.708   0.948
   1.305   1.606   1.384   1.760   1.564   1.949   2.609   1.949   1.564   1.760
   1.384   1.606   1.305   0.948   0.708   0.792   1.311   0.659   0.277   0.541
   0.441   0.707   0.602   0.230   0.284   0.230   0.602   0.707   0.441   0.541
   0.277   0.659   1.311   0.792   0.708   0.948   1.305   1.606   1.384   1.760
   1.564   1.949
   0.363   0.329   0.583   0.469   0.554   1.062   0.973   0.737   0.620   0.909
   1.278   0.346   0.448   0.620   0.650   0.796   0.840   0.226   0.560   0.226
   0.840   0.796   0.650   0.620   0.448   0.346   1.278   0.909   0.620   0.737
   0.973   1.062   0.554   0.469   0.583   0.329   0.363   0.329   0.583   0.469
   0.554   1.062   0.973   0.737   0.620   0.909   1.278   0.346   0.448   0.620
   0.650   0.796   0.840   0.226   0.560   0.226   0.840   0.796   0.650   0.620
   0.448   0.346   1.278   0.909   0.620   0.737   0.973   1.062   0.554   0.469
   0.583   0.329
 200       5.00   72    0 5.00   15    0
   0.371   0.371   0.371   0.371   0.371   0.371   0.371   0.371   0.371   0.371
   0.371   0.371   0.371   0.371   0.371   0.371   0.371   0.371   0.371   0.371
   0.371   0.371   0.371   0.371   0.371   0.371   0.371   0.371   0.371   0.371
   0.371   0.371   0.371   0.371   0.371   0.371   0.371   0.371   0.371   0.371
   0.371   0.371   0.371   0.371   0.371   0.371   0.371   0.371   0.371   0.371
   0.371   0.371   0.371   0.371   0.371   0.371   0.371   0.371   0.371   0.371
   0.371   0.371   0.371   0.371   0.371   0.371   0.371   0.371   0.371   0.371
   0.371   0.371
   0.544   0.499   0.527   0.444   0.481   0.478   0.516   0.444   0.470   0.450
   0.414   0.406   0.423   0.393   0.389   0.409   0.409   0.411   0.418   0.411
   0.409   0.409   0.389   0.393   0.423   0.406   0.414   0.450   0.470   0.444
   0.516   0.478   0.481   0.444   0.527   0.499   0.544   0.499   0.527   0.444
   0.481   0.478   0.516   0.444   0.470   0.450   0.414   0.406   0.423   0.393
   0.389   0.409   0.409   0.411   0.418   0.411   0.409   0.409   0.389   0.393
   0.423   0.406   0.414   0.450   0.470   0.444   0.516   0.478   0.481   0.444
   0.527   0.499
   0.702   0.670   0.690   0.660   0.630   0.614   0.599   0.587   0.516   0.519
   0.478   0.450   0.454   0.380   0.407   0.445   0.394   0.428   0.430   0.428
   0.394   0.445   0.407   0.380   0.454   0.450   0.478   0.519   0.516   0.587
   0.599   0.614   0.630   0.660   0.690   0.670   0.702   0.670   0.690   0.660
   0.630   0.614   0.599   0.587   0.516   0.519   0.478   0.450   0.454   0.380
   0.407   0.445   0.394   0.428   0.430   0.428   0.394   0.445   0.407   0.380
   0.454   0.450   0.478   0.519   0.516   0.587   0.599   0.614   0.630   0.660
   0.690   0.670
   1.134   1.166   1.045   1.050   1.065   0.948   0.880   0.795   0.709   0.639
   0.554   0.540   0.469   0.418   0.439   0.478   0.425   0.417   0.391   0.417
   0.425   0.478   0.439   0.418   0.469   0.540   0.554   0.639   0.709   0.795
   0.880   0.948   1.065   1.050   1.045   1.166   1.134   1.166   1.045   1.050
   1.065   0.948   0.880   0.795   0.709   0.639   0.554   0.540   0.469   0.418
   0.439   0.478   0.425   0.417   0.391   0.417   0.425   0.478   0.439   0.418
   0.469   0.540   0.554   0.639   0.709   0.795   0.880   0.948   1.065   1.050
   1.045   1.166
   2.066   2.178   1.970   1.908   1.815   1.616   1.436   1.285   1.095   0.840
   0.729   0.682   0.527   0.489   0.531   0.468   0.502   0.403   0.402   0.403
   0.502   0.468   0.531   0.489   0.527   0.682   0.729   0.840   1.095   1.285
   1.436   1.616   1.815   1.908   1.970   2.178   2.066   2.178   1.970   1.908
   1.815   1.616   1.436   1.285   1.095   0.840   0.729   0.682   0.527   0.489
   0.531   0.468   0.502   0.403   0.402   0.403   0.502   0.468   0.531   0.489
   0.527   0.682   0.729   0.840   1.095   1.285   1.436   1.616   1.815   1.908
   1.970   2.178
   2.926   3.205   2.852   2.849   2.737   2.566   2.427   2.177   1.708   1.345
   1.084   0.891   0.724   0.596   0.647   0.571   0.563   0.477   0.482   0.477
   0.563   0.571   0.647   0.596   0.724   0.891   1.084   1.345   1.708   2.177
   2.427   2.566   2.737   2.849   2.852   3.205   2.926   3.205   2.852   2.849
   2.737   2.566   2.427   2.177   1.708   1.345   1.084   0.891   0.724   0.596
   0.647   0.571   0.563   0.477   0.482   0.477   0.563   0.571   0.647   0.596
   0.724   0.891   1.084   1.345   1.708   2.177   2.427   2.566   2.737   2.849
   2.852   3.205
   2.432   2.633   2.359   2.486   2.691   2.714   2.741   2.576   2.395   2.110
   1.649   1.325   1.128   0.890   0.777   0.713   0.637   0.579   0.536   0.579
   0.637   0.713   0.777   0.890   1.128   1.325   1.649   2.110   2.395   2.576
   2.741   2.714   2.691   2.486   2.359   2.633   2.432   2.633   2.359   2.486
   2.691   2.714   2.741   2.576   2.395   2.110   1.649   1.325   1.128   0.890
   0.777   0.713   0.637   0.579   0.536   0.579   0.637   0.713   0.777   0.890
   1.128   1.325   1.649   2.110   2.395   2.576   2.741   2.714   2.691   2.486
   2.359   2.633
   0.957   1.086   1.152   1.158   1.486   1.627   1.805   1.965   2.364   2.552
   2.105   1.864   1.367   1.214   0.939   0.840   0.707   0.684   0.713   0.684
   0.707   0.840   0.939   1.214   1.367   1.864   2.105   2.552   2.364   1.965
   1.805   1.627   1.486   1.158   1.152   1.086   0.957   1.086   1.152   1.158
   1.486   1.627   1.805   1.965   2.364   2.552   2.105   1.864   1.367   1.214
   0.939   0.840   0.707   0.684   0.713   0.684   0.707   0.840   0.939   1.214
   1.367   1.864   2.105   2.552   2.364   1.965   1.805   1.627   1.486   1.158
   1.152   1.086
   0.246   0.328   0.508   0.381   0.550   0.623   0.882   1.099   1.662   2.028
   2.023   2.027   1.479   1.379   1.127   1.011   0.778   0.782   0.810   0.782
   0.778   1.011   1.127   1.379   1.479   2.027   2.023   2.028   1.662   1.099
   0.882   0.623   0.550   0.381   0.508   0.328   0.246   0.328   0.508   0.381
   0.550   0.623   0.882   1.099   1.662   2.028   2.023   2.027   1.479   1.379
   1.127   1.011   0.778   0.782   0.810   0.782   0.778   1.011   1.127   1.379
   1.479   2.027   2.023   2.028   1.662   1.099   0.882   0.623   0.550   0.381
   0.508   0.328
   0.185   0.151   0.321   0.297   0.302   0.280   0.371   0.661   0.962   1.269
   1.437   1.751   1.704   1.390   1.220   1.048   0.769   0.864   0.572   0.864
   0.769   1.048   1.220   1.390   1.704   1.751   1.437   1.269   0.962   0.661
   0.371   0.280   0.302   0.297   0.321   0.151   0.185   0.151   0.321   0.297
   0.302   0.280   0.371   0.661   0.962   1.269   1.437   1.751   1.704   1.390
   1.220   1.048   0.769   0.864   0.572   0.864   0.769   1.048   1.220   1.390
   1.704   1.751   1.437   1.269   0.962   0.661   0.371   0.280   0.302   0.297
   0.321   0.151
   0.328   0.161   0.270   0.229   0.323   0.219   0.345   0.469   0.581   0.926
   1.038   1.595   1.874   1.707   1.275   1.018   0.864   0.982   0.706   0.982
   0.864   1.018   1.275   1.707   1.874   1.595   1.038   0.926   0.581   0.469
   0.345   0.219   0.323   0.229   0.270   0.161   0.328   0.161   0.270   0.229
   0.323   0.219   0.345   0.469   0.581   0.926   1.038   1.595   1.874   1.707
   1.275   1.018   0.864   0.982   0.706   0.982   0.864   1.018   1.275   1.707
   1.874   1.595   1.038   0.926   0.581   0.469   0.345   0.219   0.323   0.229
   0.270   0.161
   0.301   0.239   0.241   0.232   0.217   0.273   0.386   0.324   0.465   0.748
   1.071   1.605   1.693   1.760   1.185   0.909   0.913   0.898   0.932   0.898
   0.913   0.909   1.185   1.760   1.693   1.605   1.071   0.748   0.465   0.324
   0.386   0.273   0.217   0.232   0.241   0.239   0.301   0.239   0.241   0.232
   0.217   0.273   0.386   0.324   0.465   0.748   1.071   1.605   1.693   1.760
   1.185   0.909   0.913   0.898   0.932   0.898   0.913   0.909   1.185   1.760
   1.693   1.605   1.071   0.748   0.465   0.324   0.386   0.273   0.217   0.232
   0.241   0.239
   0.256   0.310   0.290   0.202   0.173   0.299   0.349   0.307   0.693   0.771
   1.405   1.565   1.347   1.214   1.037   0.701   0.814   0.600   0.915   0.600
   0.814   0.701   1.037   1.214   1.347   1.565   1.405   0.771   0.693   0.307
   0.349   0.299   0.173   0.202   0.290   0.310   0.256   0.310   0.290   0.202
   0.173   0.299   0.349   0.307   0.693   0.771   1.405   1.565   1.347   1.214
   1.037   0.701   0.814   0.600   0.915   0.600   0.814   0.701   1.037   1.214
   1.347   1.565   1.405   0.771   0.693   0.307   0.349   0.299   0.173   0.202
   0.290   0.310
   0.498   0.401   0.450   0.182   0.351   0.300   0.449   0.499   1.102   1.151
   1.792   1.334   1.043   0.714   0.836   0.655   0.617   0.472   0.598   0.472
   0.617   0.655   0.836   0.714   1.043   1.334   1.792   1.151   1.102   0.499
   0.449   0.300   0.351   0.182   0.450   0.401   0.498   0.401   0.450   0.182
   0.351   0.300   0.449   0.499   1.102   1.151   1.792   1.334   1.043   0.714
   0.836   0.655   0.617   0.472   0.598   0.472   0.617   0.655   0.836   0.714
   1.043   1.334   1.792   1.151   1.102   0.499   0.449   0.300   0.351   0.182
   0.450   0.401
   0.414   0.357   0.388   0.424   0.632   0.400   0.682   0.803   1.133   1.267
   1.390   0.655   0.606   0.490   0.398   0.525   0.356   0.325   0.590   0.325
   0.356   0.525   0.398   0.490   0.606   0.655   1.390   1.267   1.133   0.803
   0.682   0.400   0.632   0.424   0.388   0.357   0.414   0.357   0.388   0.424
   0.632   0.400   0.682   0.803   1.133   1.267   1.390   0.655   0.606   0.490
   0.398   0.525   0.356   0.325   0.590   0.325   0.356   0.525   0.398   0.490
   0.606   0.655   1.390   1.267   1.133   0.803   0.682   0.400   0.632   0.424
   0.388   0.357
 111       5.00   72    0 5.00   15    0
   0.092   0.092   0.092   0.092   0.092   0.092   0.092   0.092   0.092   0.092
   0.092   0.092   0.092   0.092   0.092   0.092   0.092   0.092   0.092   0.092
   0.092   0.092   0.092   0.092   0.092   0.092   0.092   0.092   0.092   0.092
   0.092   0.092   0.092   0.092   0.092   0.092   0.092   0.092   0.092   0.092
   0.092   0.092   0.092   0.092   0.092   0.092   0.092   0.092   0.092   0.092
   0.092   0.092   0.092   0.092   0.092   0.092   0.092   0.092   0.092   0.092
   0.092   0.092   0.092   0.092   0.092   0.092   0.092   0.092   0.092   0.092
   0.092   0.092
   0.177   0.148   0.148   0.150   0.150   0.138   0.139   0.129   0.127   0.120
   0.124   0.132   0.131   0.119   0.119   0.128   0.119   0.105   0.137   0.105
   0.119   0.128   0.119   0.119   0.131   0.132   0.124   0.120   0.127   0.129
   0.139   0.138   0.150   0.150   0.148   0.148   0.177   0.148   0.148   0.150
   0.150   0.138   0.139   0.129   0.127   0.120   0.124   0.132   0.131   0.119
   0.119   0.128   0.119   0.105   0.137   0.105   0.119   0.128   0.119   0.119
   0.131   0.132   0.124   0.120   0.127   0.129   0.139   0.138   0.150   0.150
   0.148   0.148
   0.314   0.302   0.309   0.310   0.280   0.228   0.232   0.189   0.187   0.156
   0.167   0.155   0.149   0.142   0.132   0.131   0.144   0.114   0.152   0.114
   0.144   0.131   0.132   0.142   0.149   0.155   0.167   0.156   0.187   0.189
   0.232   0.228   0.280   0.310   0.309   0.302   0.314   0.302   0.309   0.310
   0.280   0.228   0.232   0.189   0.187   0.156   0.167   0.155   0.149   0.142
   0.132   0.131   0.144   0.114   0.152   0.114   0.144   0.131   0.132   0.142
   0.149   0.155   0.167   0.156   0.187   0.189   0.232   0.228   0.280   0.310
   0.309   0.302
   1.154   1.093   1.056   0.930   0.769   0.588   0.468   0.398   0.320   0.244
   0.214   0.207   0.187   0.181   0.162   0.142   0.174   0.142   0.164   0.142
   0.174   0.142   0.162   0.181   0.187   0.207   0.214   0.244   0.320   0.398
   0.468   0.588   0.769   0.930   1.056   1.093   1.154   1.093   1.056   0.930
   0.769   0.588   0.468   0.398   0.320   0.244   0.214   0.207   0.187   0.181
   0.162   0.142   0.174   0.142   0.164   0.142   0.174   0.142   0.162   0.181
   0.187   0.207   0.214   0.244   0.320   0.398   0.468   0.588   0.769   0.930
   1.056   1.093
   3.720   3.594   3.231   2.774   2.280   1.649   1.235   0.922   0.658   0.462
   0.330   0.304   0.209   0.189   0.170   0.151   0.152   0.144   0.149   0.144
   0.152   0.151   0.170   0.189   0.209   0.304   0.330   0.462   0.658   0.922
   1.235   1.649   2.280   2.774   3.231   3.594   3.720   3.594   3.231   2.774
   2.280   1.649   1.235   0.922   0.658   0.462   0.330   0.304   0.209   0.189
   0.170   0.151   0.152   0.144   0.149   0.144   0.152   0.151   0.170   0.189
   0.209   0.304   0.330   0.462   0.658   0.922   1.235   1.649   2.280   2.774
   3.231   3.594
   5.540   5.454   5.141   4.538   4.009   3.010   2.401   1.895   1.296   0.953
   0.670   0.476   0.308   0.279   0.192   0.159   0.145   0.182   0.115   0.182
   0.145   0.159   0.192   0.279   0.308   0.476   0.670   0.953   1.296   1.895
   2.401   3.010   4.009   4.538   5.141   5.454   5.540   5.454   5.141   4.538
   4.009   3.010   2.401   1.895   1.296   0.953   0.670   0.476   0.308   0.279
   0.192   0.159   0.145   0.182   0.115   0.182   0.145   0.159   0.192   0.279
   0.308   0.476   0.670   0.953   1.296   1.895   2.401   3.010   4.009   4.538
   5.141   5.454
   4.324   4.311   4.274   4.125   4.011   3.526   3.059   2.706   2.024   1.587
   1.125   0.758   0.497   0.442   0.342   0.243   0.189   0.252   0.180   0.252
   0.189   0.243   0.342   0.442   0.497   0.758   1.125   1.587   2.024   2.706
   3.059   3.526   4.011   4.125   4.274   4.311   4.324   4.311   4.274   4.125
   4.011   3.526   3.059   2.706   2.024   1.587   1.125   0.758   0.497   0.442
   0.342   0.243   0.189   0.252   0.180   0.252   0.189   0.243   0.342   0.442
   0.497   0.758   1.125   1.587   2.024   2.706   3.059   3.526   4.011   4.125
   4.274   4.311
   1.933   2.122   2.155   2.393   2.698   2.850   2.724   2.694   2.204   1.932
   1.436   1.038   0.740   0.546   0.452   0.333   0.271   0.265   0.270   0.265
   0.271   0.333   0.452   0.546   0.740   1.038   1.436   1.932   2.204   2.694
   2.724   2.850   2.698   2.393   2.155   2.122   1.933   2.122   2.155   2.393
   2.698   2.850   2.724   2.694   2.204   1.932   1.436   1.038   0.740   0.546
   0.452   0.333   0.271   0.265   0.270   0.265   0.271   0.333   0.452   0.546
   0.740   1.038   1.436   1.932   2.204   2.694   2.724   2.850   2.698   2.393
   2.155   2.122
   0.560   0.750   0.874   1.036   1.391   1.608   1.785   2.036   1.889   1.720
   1.461   1.256   1.008   0.745   0.557   0.490   0.378   0.328   0.327   0.328
   0.378   0.490   0.557   0.745   1.008   1.256   1.461   1.720   1.889   2.036
   1.785   1.608   1.391   1.036   0.874   0.750   0.560   0.750   0.874   1.036
   1.391   1.608   1.785   2.036   1.889   1.720   1.461   1.256   1.008   0.745
   0.557   0.490   0.378   0.328   0.327   0.328   0.378   0.490   0.557   0.745
   1.008   1.256   1.461   1.720   1.889   2.036   1.785   1.608   1.391   1.036
   0.874   0.750
   0.292   0.286   0.324   0.400   0.564   0.732   1.022   1.199   1.377   1.366
   1.314   1.418   1.136   1.059   0.838   0.591   0.573   0.460   0.452   0.460
   0.573   0.591   0.838   1.059   1.136   1.418   1.314   1.366   1.377   1.199
   1.022   0.732   0.564   0.400   0.324   0.286   0.292   0.286   0.324   0.400
   0.564   0.732   1.022   1.199   1.377   1.366   1.314   1.418   1.136   1.059
   0.838   0.591   0.573   0.460   0.452   0.460   0.573   0.591   0.838   1.059
   1.136   1.418   1.314   1.366   1.377   1.199   1.022   0.732   0.564   0.400
   0.324   0.286
   0.259   0.149   0.162   0.191   0.263   0.392   0.586   0.634   0.831   1.043
   1.127   1.330   1.279   1.229   1.113   0.757   0.763   0.597   0.728   0.597
   0.763   0.757   1.113   1.229   1.279   1.330   1.127   1.043   0.831   0.634
   0.586   0.392   0.263   0.191   0.162   0.149   0.259   0.149   0.162   0.191
   0.263   0.392   0.586   0.634   0.831   1.043   1.127   1.330   1.279   1.229
   1.113   0.757   0.763   0.597   0.728   0.597   0.763   0.757   1.113   1.229
   1.279   1.330   1.127   1.043   0.831   0.634   0.586   0.392   0.263   0.191
   0.162   0.149
   0.235   0.171   0.161   0.152   0.168   0.258   0.374   0.414   0.509   0.680
   0.800   0.913   1.238   1.325   1.275   1.000   0.973   0.879   0.770   0.879
   0.973   1.000   1.275   1.325   1.238   0.913   0.800   0.680   0.509   0.414
   0.374   0.258   0.168   0.152   0.161   0.171   0.235   0.171   0.161   0.152
   0.168   0.258   0.374   0.414   0.509   0.680   0.800   0.913   1.238   1.325
   1.275   1.000   0.973   0.879   0.770   0.879   0.973   1.000   1.275   1.325
   1.238   0.913   0.800   0.680   0.509   0.414   0.374   0.258   0.168   0.152
   0.161   0.171
   0.314   0.223   0.140   0.160   0.078   0.165   0.253   0.350   0.434   0.544
   0.527   0.646   0.829   1.145   1.256   1.198   1.111   1.013   0.758   1.013
   1.111   1.198   1.256   1.145   0.829   0.646   0.527   0.544   0.434   0.350
   0.253   0.165   0.078   0.160   0.140   0.223   0.314   0.223   0.140   0.160
   0.078   0.165   0.253   0.350   0.434   0.544   0.527   0.646   0.829   1.145
   1.256   1.198   1.111   1.013   0.758   1.013   1.111   1.198   1.256   1.145
   0.829   0.646   0.527   0.544   0.434   0.350   0.253   0.165   0.078   0.160
   0.140   0.223
   0.332   0.233   0.106   0.331   0.137   0.150   0.276   0.469   0.349   0.498
   0.437   0.584   0.649   0.939   1.117   1.365   1.214   0.984   0.887   0.984
   1.214   1.365   1.117   0.939   0.649   0.584   0.437   0.498   0.349   0.469
   0.276   0.150   0.137   0.331   0.106   0.233   0.332   0.233   0.106   0.331
   0.137   0.150   0.276   0.469   0.349   0.498   0.437   0.584   0.649   0.939
   1.117   1.365   1.214   0.984   0.887   0.984   1.214   1.365   1.117   0.939
   0.649   0.584   0.437   0.498   0.349   0.469   0.276   0.150   0.137   0.331
   0.106   0.233
   0.296   0.268   0.193   0.498   0.358   0.348   0.314   0.591   0.254   0.327
   0.348   0.513   0.689   0.805   0.822   1.113   1.252   1.016   1.026   1.016
   1.252   1.113   0.822   0.805   0.689   0.513   0.348   0.327   0.254   0.591
   0.314   0.348   0.358   0.498   0.193   0.268   0.296   0.268   0.193   0.498
   0.358   0.348   0.314   0.591   0.254   0.327   0.348   0.513   0.689   0.805
   0.822   1.113   1.252   1.016   1.026   1.016   1.252   1.113   0.822   0.805
   0.689   0.513   0.348   0.327   0.254   0.591   0.314   0.348   0.358   0.498
   0.193   0.268
  4  1     -5.7127262E-02
  4  2     -4.0667176E-01
  4  3     -7.4756788E-01
  6  1      2.5170126E+00
  6  2     -3.5432593E+00
  6  3      1.1573859E+00
  6  4      2.7982686E-01
  8  1      7.8764411E-02
  8  2      3.2304619E-01
  8  3     -1.6864307E-01
  8  4      9.4388504E-01
  8  5      2.3801354E-01
 10  1     -1.6695947E-01
 10  2     -5.2806205E-03
 10  3      6.5401189E-01
 10  4     -2.0903552E-01
 10  5     -1.2422003E-01
 10  6     -9.5542946E-03
 12  1      8.1754424E-02  2.0752043E+00
 12  2      8.8890612E-02 -2.6115585E+00
 12  3     -8.6254429E-03  2.2304387E+00
 12  4     -7.6083900E-02 -9.3303871E-01
 12  5     -5.3431383E-02 -1.9125596E-01
 12  6     -4.1422940E-01  3.0589211E-01
 12  7     -2.3832915E-01 -2.9487321E-01
 14  1     -1.8824513E-01
 14  2      3.3023502E-01
 14  3     -3.3061727E-01
 14  4      5.5584525E-02
 14  5     -4.2371925E-01
 14  6      2.1710903E-01
 14  7     -1.1278277E-01
 14  8      5.5648386E-01
 16  1     -5.0060886E-02 -1.0390972E-01
 16  2     -4.1279504E-01  2.7954309E-01
 16  3      1.8712956E-01  8.0963054E-02
 16  4     -1.7522030E-01 -4.8313163E-01
 16  5      1.9612104E-01  2.2307696E-01
 16  6      1.5032579E-02  1.6913368E-02
 16  7      2.5434919E-01 -4.9625769E-02
 16  8      4.3040261E-01 -1.7426164E-01
 16  9      8.8964799E-02  2.8007103E-01
 220       5.00   72    0 5.00   18    0
   3.245   3.247   3.251   3.258   3.267   3.279   3.293   3.308   3.324   3.340
   3.357   3.373   3.389   3.402   3.414   3.424   3.431   3.436   3.437   3.436
   3.431   3.424   3.414   3.402   3.389   3.373   3.357   3.340   3.324   3.308
   3.293   3.279   3.267   3.258   3.251   3.247   3.245   3.247   3.251   3.258
   3.267   3.279   3.293   3.308   3.324   3.340   3.357   3.373   3.389   3.402
   3.414   3.424   3.431   3.436   3.437   3.436   3.431   3.424   3.414   3.402
   3.389   3.373   3.357   3.340   3.324   3.308   3.293   3.279   3.267   3.258
   3.251   3.247
   1.954   1.963   1.992   2.039   2.104   2.185   2.281   2.389   2.508   2.632
   2.760   2.888   3.009   3.122   3.221   3.302   3.363   3.400   3.413   3.400
   3.363   3.302   3.221   3.122   3.009   2.888   2.760   2.632   2.508   2.389
   2.281   2.185   2.104   2.039   1.992   1.963   1.954   1.963   1.992   2.039
   2.104   2.185   2.281   2.389   2.508   2.632   2.760   2.888   3.009   3.122
   3.221   3.302   3.363   3.400   3.413   3.400   3.363   3.302   3.221   3.122
   3.009   2.888   2.760   2.632   2.508   2.389   2.281   2.185   2.104   2.039
   1.992   1.963
   0.406   0.419   0.459   0.527   0.624   0.749   0.905   1.090   1.303   1.539
   1.794   2.060   2.327   2.582   2.815   3.011   3.161   3.254   3.286   3.254
   3.161   3.011   2.815   2.582   2.327   2.060   1.794   1.539   1.303   1.090
   0.905   0.749   0.624   0.527   0.459   0.419   0.406   0.419   0.459   0.527
   0.624   0.749   0.905   1.090   1.303   1.539   1.794   2.060   2.327   2.582
   2.815   3.011   3.161   3.254   3.286   3.254   3.161   3.011   2.815   2.582
   2.327   2.060   1.794   1.539   1.303   1.090   0.905   0.749   0.624   0.527
   0.459   0.419
  -0.335  -0.330  -0.313  -0.283  -0.233  -0.157  -0.048   0.102   0.298   0.544
   0.839   1.174   1.537   1.908   2.263   2.576   2.821   2.977   3.031   2.977
   2.821   2.576   2.263   1.908   1.537   1.174   0.839   0.544   0.298   0.102
  -0.048  -0.157  -0.233  -0.283  -0.313  -0.330  -0.335  -0.330  -0.313  -0.283
  -0.233  -0.157  -0.048   0.102   0.298   0.544   0.839   1.174   1.537   1.908
   2.263   2.576   2.821   2.977   3.031   2.977   2.821   2.576   2.263   1.908
   1.537   1.174   0.839   0.544   0.298   0.102  -0.048  -0.157  -0.233  -0.283
  -0.313  -0.330
  -0.121  -0.128  -0.146  -0.174  -0.205  -0.230  -0.236  -0.207  -0.127   0.020
   0.244   0.545   0.912   1.322   1.741   2.128   2.441   2.645   2.716   2.645
   2.441   2.128   1.741   1.322   0.912   0.545   0.244   0.020  -0.127  -0.207
  -0.236  -0.230  -0.205  -0.174  -0.146  -0.128  -0.121  -0.128  -0.146  -0.174
  -0.205  -0.230  -0.236  -0.207  -0.127   0.020   0.244   0.545   0.912   1.322
   1.741   2.128   2.441   2.645   2.716   2.645   2.441   2.128   1.741   1.322
   0.912   0.545   0.244   0.020  -0.127  -0.207  -0.236  -0.230  -0.205  -0.174
  -0.146  -0.128
   0.322   0.315   0.295   0.260   0.208   0.143   0.072   0.011  -0.018   0.012
   0.125   0.332   0.630   0.998   1.398   1.783   2.103   2.314   2.388   2.314
   2.103   1.783   1.398   0.998   0.630   0.332   0.125   0.012  -0.018   0.011
   0.072   0.143   0.208   0.260   0.295   0.315   0.322   0.315   0.295   0.260
   0.208   0.143   0.072   0.011  -0.018   0.012   0.125   0.332   0.630   0.998
   1.398   1.783   2.103   2.314   2.388   2.314   2.103   1.783   1.398   0.998
   0.630   0.332   0.125   0.012  -0.018   0.011   0.072   0.143   0.208   0.260
   0.295   0.315
   0.272   0.281   0.304   0.335   0.361   0.369   0.351   0.312   0.272   0.262
   0.312   0.444   0.658   0.935   1.242   1.538   1.782   1.942   1.997   1.942
   1.782   1.538   1.242   0.935   0.658   0.444   0.312   0.262   0.272   0.312
   0.351   0.369   0.361   0.335   0.304   0.281   0.272   0.281   0.304   0.335
   0.361   0.369   0.351   0.312   0.272   0.262   0.312   0.444   0.658   0.935
   1.242   1.538   1.782   1.942   1.997   1.942   1.782   1.538   1.242   0.935
   0.658   0.444   0.312   0.262   0.272   0.312   0.351   0.369   0.361   0.335
   0.304   0.281
  -0.216  -0.193  -0.124  -0.015   0.117   0.246   0.344   0.400   0.428   0.460
   0.528   0.649   0.816   1.006   1.186   1.332   1.433   1.489   1.506   1.489
   1.433   1.332   1.186   1.006   0.816   0.649   0.528   0.460   0.428   0.400
   0.344   0.246   0.117  -0.015  -0.124  -0.193  -0.216  -0.193  -0.124  -0.015
   0.117   0.246   0.344   0.400   0.428   0.460   0.528   0.649   0.816   1.006
   1.186   1.332   1.433   1.489   1.506   1.489   1.433   1.332   1.186   1.006
   0.816   0.649   0.528   0.460   0.428   0.400   0.344   0.246   0.117  -0.015
  -0.124  -0.193
  -0.349  -0.339  -0.298  -0.207  -0.065   0.099   0.245   0.348   0.422   0.501
   0.617   0.773   0.944   1.085   1.162   1.162   1.107   1.044   1.016   1.044
   1.107   1.162   1.162   1.085   0.944   0.773   0.617   0.501   0.422   0.348
   0.245   0.099  -0.065  -0.207  -0.298  -0.339  -0.349  -0.339  -0.298  -0.207
  -0.065   0.099   0.245   0.348   0.422   0.501   0.617   0.773   0.944   1.085
   1.162   1.162   1.107   1.044   1.016   1.044   1.107   1.162   1.162   1.085
   0.944   0.773   0.617   0.501   0.422   0.348   0.245   0.099  -0.065  -0.207
  -0.298  -0.339
   0.623   0.575   0.466   0.373   0.345   0.372   0.409   0.427   0.442   0.497
   0.618   0.794   0.979   1.112   1.145   1.063   0.907   0.756   0.694   0.756
   0.907   1.063   1.145   1.112   0.979   0.794   0.618   0.497   0.442   0.427
   0.409   0.372   0.345   0.373   0.466   0.575   0.623   0.575   0.466   0.373
   0.345   0.372   0.409   0.427   0.442   0.497   0.618   0.794   0.979   1.112
   1.145   1.063   0.907   0.756   0.694   0.756   0.907   1.063   1.145   1.112
   0.979   0.794   0.618   0.497   0.442   0.427   0.409   0.372   0.345   0.373
   0.466   0.575
   2.563   2.424   2.078   1.682   1.357   1.121   0.932   0.764   0.639   0.596
   0.649   0.776   0.932   1.061   1.105   1.024   0.843   0.656   0.577   0.656
   0.843   1.024   1.105   1.061   0.932   0.776   0.649   0.596   0.639   0.764
   0.932   1.121   1.357   1.682   2.078   2.424   2.563   2.424   2.078   1.682
   1.357   1.121   0.932   0.764   0.639   0.596   0.649   0.776   0.932   1.061
   1.105   1.024   0.843   0.656   0.577   0.656   0.843   1.024   1.105   1.061
   0.932   0.776   0.649   0.596   0.639   0.764   0.932   1.121   1.357   1.682
   2.078   2.424
   4.316   4.100   3.558   2.919   2.356   1.906   1.529   1.205   0.964   0.825
   0.774   0.785   0.846   0.943   1.017   0.986   0.828   0.633   0.545   0.633
   0.828   0.986   1.017   0.943   0.846   0.785   0.774   0.825   0.964   1.205
   1.529   1.906   2.356   2.919   3.558   4.100   4.316   4.100   3.558   2.919
   2.356   1.906   1.529   1.205   0.964   0.825   0.774   0.785   0.846   0.943
   1.017   0.986   0.828   0.633   0.545   0.633   0.828   0.986   1.017   0.943
   0.846   0.785   0.774   0.825   0.964   1.205   1.529   1.906   2.356   2.919
   3.558   4.100
   4.554   4.332   3.783   3.155   2.618   2.184   1.805   1.480   1.246   1.097
   0.976   0.858   0.791   0.830   0.924   0.942   0.805   0.598   0.499   0.598
   0.805   0.942   0.924   0.830   0.791   0.858   0.976   1.097   1.246   1.480
   1.805   2.184   2.618   3.155   3.783   4.332   4.554   4.332   3.783   3.155
   2.618   2.184   1.805   1.480   1.246   1.097   0.976   0.858   0.791   0.830
   0.924   0.942   0.805   0.598   0.499   0.598   0.805   0.942   0.924   0.830
   0.791   0.858   0.976   1.097   1.246   1.480   1.805   2.184   2.618   3.155
   3.783   4.332
   2.999   2.851   2.512   2.184   1.961   1.791   1.609   1.443   1.348   1.294
   1.183   0.992   0.829   0.815   0.916   0.959   0.828   0.603   0.492   0.603
   0.828   0.959   0.916   0.815   0.829   0.992   1.183   1.294   1.348   1.443
   1.609   1.791   1.961   2.184   2.512   2.851   2.999   2.851   2.512   2.184
   1.961   1.791   1.609   1.443   1.348   1.294   1.183   0.992   0.829   0.815
   0.916   0.959   0.828   0.603   0.492   0.603   0.828   0.959   0.916   0.815
   0.829   0.992   1.183   1.294   1.348   1.443   1.609   1.791   1.961   2.184
   2.512   2.851
   0.807   0.761   0.702   0.755   0.916   1.063   1.121   1.153   1.240   1.333
   1.305   1.129   0.947   0.914   1.012   1.068   0.955   0.746   0.642   0.746
   0.955   1.068   1.012   0.914   0.947   1.129   1.305   1.333   1.240   1.153
   1.121   1.063   0.916   0.755   0.702   0.761   0.807   0.761   0.702   0.755
   0.916   1.063   1.121   1.153   1.240   1.333   1.305   1.129   0.947   0.914
   1.012   1.068   0.955   0.746   0.642   0.746   0.955   1.068   1.012   0.914
   0.947   1.129   1.305   1.333   1.240   1.153   1.121   1.063   0.916   0.755
   0.702   0.761
  -0.433  -0.424  -0.339  -0.103   0.224   0.494   0.646   0.777   0.980   1.198
   1.282   1.190   1.054   1.029   1.120   1.192   1.144   1.019   0.954   1.019
   1.144   1.192   1.120   1.029   1.054   1.190   1.282   1.198   0.980   0.777
   0.646   0.494   0.224  -0.103  -0.339  -0.424  -0.433  -0.424  -0.339  -0.103
   0.224   0.494   0.646   0.777   0.980   1.198   1.282   1.190   1.054   1.029
   1.120   1.192   1.144   1.019   0.954   1.019   1.144   1.192   1.120   1.029
   1.054   1.190   1.282   1.198   0.980   0.777   0.646   0.494   0.224  -0.103
  -0.339  -0.424
  -0.213  -0.221  -0.190  -0.048   0.158   0.303   0.365   0.459   0.683   0.966
   1.142   1.149   1.082   1.072   1.149   1.246   1.297   1.301   1.295   1.301
   1.297   1.246   1.149   1.072   1.082   1.149   1.142   0.966   0.683   0.459
   0.365   0.303   0.158  -0.048  -0.190  -0.221  -0.213  -0.221  -0.190  -0.048
   0.158   0.303   0.365   0.459   0.683   0.966   1.142   1.149   1.082   1.072
   1.149   1.246   1.297   1.301   1.295   1.301   1.297   1.246   1.149   1.072
   1.082   1.149   1.142   0.966   0.683   0.459   0.365   0.303   0.158  -0.048
  -0.190  -0.221
   0.504   0.456   0.373   0.348   0.362   0.332   0.263   0.284   0.486   0.786
   1.012   1.082   1.061   1.059   1.125   1.239   1.367   1.469   1.509   1.469
   1.367   1.239   1.125   1.059   1.061   1.082   1.012   0.786   0.486   0.284
   0.263   0.332   0.362   0.348   0.373   0.456   0.504   0.456   0.373   0.348
   0.362   0.332   0.263   0.284   0.486   0.786   1.012   1.082   1.061   1.059
   1.125   1.239   1.367   1.469   1.509   1.469   1.367   1.239   1.125   1.059
   1.061   1.082   1.012   0.786   0.486   0.284   0.263   0.332   0.362   0.348
   0.373   0.456
 200       5.00   72    0 5.00   18    0
   0.692   0.692   0.693   0.696   0.699   0.703   0.707   0.712   0.717   0.723
   0.728   0.734   0.739   0.743   0.747   0.751   0.753   0.755   0.755   0.755
   0.753   0.751   0.747   0.743   0.739   0.734   0.728   0.723   0.717   0.712
   0.707   0.703   0.699   0.696   0.693   0.692   0.692   0.692   0.693   0.696
   0.699   0.703   0.707   0.712   0.717   0.723   0.728   0.734   0.739   0.743
   0.747   0.751   0.753   0.755   0.755   0.755   0.753   0.751   0.747   0.743
   0.739   0.734   0.728   0.723   0.717   0.712   0.707   0.703   0.699   0.696
   0.693   0.692
   0.383   0.384   0.390   0.398   0.411   0.427   0.448   0.472   0.500   0.532
   0.566   0.601   0.637   0.671   0.702   0.728   0.748   0.760   0.764   0.760
   0.748   0.728   0.702   0.671   0.637   0.601   0.566   0.532   0.500   0.472
   0.448   0.427   0.411   0.398   0.390   0.384   0.383   0.384   0.390   0.398
   0.411   0.427   0.448   0.472   0.500   0.532   0.566   0.601   0.637   0.671
   0.702   0.728   0.748   0.760   0.764   0.760   0.748   0.728   0.702   0.671
   0.637   0.601   0.566   0.532   0.500   0.472   0.448   0.427   0.411   0.398
   0.390   0.384
   0.359   0.356   0.347   0.334   0.317   0.300   0.287   0.279   0.281   0.294
   0.321   0.361   0.412   0.471   0.533   0.590   0.637   0.668   0.678   0.668
   0.637   0.590   0.533   0.471   0.412   0.361   0.321   0.294   0.281   0.279
   0.287   0.300   0.317   0.334   0.347   0.356   0.359   0.356   0.347   0.334
   0.317   0.300   0.287   0.279   0.281   0.294   0.321   0.361   0.412   0.471
   0.533   0.590   0.637   0.668   0.678   0.668   0.637   0.590   0.533   0.471
   0.412   0.361   0.321   0.294   0.281   0.279   0.287   0.300   0.317   0.334
   0.347   0.356
   0.990   0.977   0.939   0.878   0.796   0.698   0.587   0.473   0.365   0.272
   0.206   0.174   0.178   0.218   0.283   0.360   0.431   0.482   0.500   0.482
   0.431   0.360   0.283   0.218   0.178   0.174   0.206   0.272   0.365   0.473
   0.587   0.698   0.796   0.878   0.939   0.977   0.990   0.977   0.939   0.878
   0.796   0.698   0.587   0.473   0.365   0.272   0.206   0.174   0.178   0.218
   0.283   0.360   0.431   0.482   0.500   0.482   0.431   0.360   0.283   0.218
   0.178   0.174   0.206   0.272   0.365   0.473   0.587   0.698   0.796   0.878
   0.939   0.977
   1.889   1.874   1.826   1.748   1.638   1.496   1.322   1.119   0.897   0.670
   0.461   0.290   0.180   0.138   0.160   0.226   0.307   0.372   0.397   0.372
   0.307   0.226   0.160   0.138   0.180   0.290   0.461   0.670   0.897   1.119
   1.322   1.496   1.638   1.748   1.826   1.874   1.889   1.874   1.826   1.748
   1.638   1.496   1.322   1.119   0.897   0.670   0.461   0.290   0.180   0.138
   0.160   0.226   0.307   0.372   0.397   0.372   0.307   0.226   0.160   0.138
   0.180   0.290   0.461   0.670   0.897   1.119   1.322   1.496   1.638   1.748
   1.826   1.874
   2.351   2.341   2.311   2.266   2.208   2.131   2.021   1.864   1.650   1.384
   1.087   0.795   0.550   0.386   0.317   0.330   0.390   0.451   0.476   0.451
   0.390   0.330   0.317   0.386   0.550   0.795   1.087   1.384   1.650   1.864
   2.021   2.131   2.208   2.266   2.311   2.341   2.351   2.341   2.311   2.266
   2.208   2.131   2.021   1.864   1.650   1.384   1.087   0.795   0.550   0.386
   0.317   0.330   0.390   0.451   0.476   0.451   0.390   0.330   0.317   0.386
   0.550   0.795   1.087   1.384   1.650   1.864   2.021   2.131   2.208   2.266
   2.311   2.341
   2.089   2.080   2.062   2.055   2.076   2.123   2.176   2.196   2.145   1.997
   1.754   1.445   1.123   0.849   0.667   0.588   0.587   0.617   0.632   0.617
   0.587   0.588   0.667   0.849   1.123   1.445   1.754   1.997   2.145   2.196
   2.176   2.123   2.076   2.055   2.062   2.080   2.089   2.080   2.062   2.055
   2.076   2.123   2.176   2.196   2.145   1.997   1.754   1.445   1.123   0.849
   0.667   0.588   0.587   0.617   0.632   0.617   0.587   0.588   0.667   0.849
   1.123   1.445   1.754   1.997   2.145   2.196   2.176   2.123   2.076   2.055
   2.062   2.080
   1.393   1.377   1.345   1.338   1.393   1.523   1.709   1.906   2.062   2.127
   2.066   1.875   1.588   1.273   1.002   0.821   0.737   0.714   0.713   0.714
   0.737   0.821   1.002   1.273   1.588   1.875   2.066   2.127   2.062   1.906
   1.709   1.523   1.393   1.338   1.345   1.377   1.393   1.377   1.345   1.338
   1.393   1.523   1.709   1.906   2.062   2.127   2.066   1.875   1.588   1.273
   1.002   0.821   0.737   0.714   0.713   0.714   0.737   0.821   1.002   1.273
   1.588   1.875   2.066   2.127   2.062   1.906   1.709   1.523   1.393   1.338
   1.345   1.377
   0.711   0.688   0.645   0.629   0.683   0.816   1.014   1.259   1.526   1.771
   1.931   1.945   1.795   1.525   1.224   0.976   0.823   0.754   0.736   0.754
   0.823   0.976   1.224   1.525   1.795   1.945   1.931   1.771   1.526   1.259
   1.014   0.816   0.683   0.629   0.645   0.688   0.711   0.688   0.645   0.629
   0.683   0.816   1.014   1.259   1.526   1.771   1.931   1.945   1.795   1.525
   1.224   0.976   0.823   0.754   0.736   0.754   0.823   0.976   1.224   1.525
   1.795   1.945   1.931   1.771   1.526   1.259   1.014   0.816   0.683   0.629
   0.645   0.688
   0.307   0.287   0.256   0.260   0.318   0.413   0.528   0.689   0.938   1.273
   1.610   1.825   1.833   1.649   1.370   1.109   0.932   0.845   0.821   0.845
   0.932   1.109   1.370   1.649   1.833   1.825   1.610   1.273   0.938   0.689
   0.528   0.413   0.318   0.260   0.256   0.287   0.307   0.287   0.256   0.260
   0.318   0.413   0.528   0.689   0.938   1.273   1.610   1.825   1.833   1.649
   1.370   1.109   0.932   0.845   0.821   0.845   0.932   1.109   1.370   1.649
   1.833   1.825   1.610   1.273   0.938   0.689   0.528   0.413   0.318   0.260
   0.256   0.287
   0.241   0.219   0.189   0.206   0.271   0.326   0.347   0.403   0.601   0.974
   1.412   1.737   1.825   1.690   1.443   1.206   1.047   0.969   0.947   0.969
   1.047   1.206   1.443   1.690   1.825   1.737   1.412   0.974   0.601   0.403
   0.347   0.326   0.271   0.206   0.189   0.219   0.241   0.219   0.189   0.206
   0.271   0.326   0.347   0.403   0.601   0.974   1.412   1.737   1.825   1.690
   1.443   1.206   1.047   0.969   0.947   0.969   1.047   1.206   1.443   1.690
   1.825   1.737   1.412   0.974   0.601   0.403   0.347   0.326   0.271   0.206
   0.189   0.219
   0.392   0.350   0.277   0.258   0.298   0.323   0.305   0.338   0.554   0.966
   1.421   1.716   1.754   1.593   1.362   1.165   1.038   0.972   0.952   0.972
   1.038   1.165   1.362   1.593   1.754   1.716   1.421   0.966   0.554   0.338
   0.305   0.323   0.298   0.258   0.277   0.350   0.392   0.350   0.277   0.258
   0.298   0.323   0.305   0.338   0.554   0.966   1.421   1.716   1.754   1.593
   1.362   1.165   1.038   0.972   0.952   0.972   1.038   1.165   1.362   1.593
   1.754   1.716   1.421   0.966   0.554   0.338   0.305   0.323   0.298   0.258
   0.277   0.350
   0.475   0.417   0.308   0.256   0.276   0.300   0.316   0.425   0.723   1.151
   1.512   1.641   1.535   1.319   1.116   0.971   0.871   0.806   0.781   0.806
   0.871   0.971   1.116   1.319   1.535   1.641   1.512   1.151   0.723   0.425
   0.316   0.300   0.276   0.256   0.308   0.417   0.475   0.417   0.308   0.256
   0.276   0.300   0.316   0.425   0.723   1.151   1.512   1.641   1.535   1.319
   1.116   0.971   0.871   0.806   0.781   0.806   0.871   0.971   1.116   1.319
   1.535   1.641   1.512   1.151   0.723   0.425   0.316   0.300   0.276   0.256
   0.308   0.417
   0.294   0.262   0.217   0.234   0.307   0.382   0.481   0.699   1.055   1.402
   1.546   1.434   1.191   0.975   0.845   0.764   0.691   0.628   0.603   0.628
   0.691   0.764   0.845   0.975   1.191   1.434   1.546   1.402   1.055   0.699
   0.481   0.382   0.307   0.234   0.217   0.262   0.294   0.262   0.217   0.234
   0.307   0.382   0.481   0.699   1.055   1.402   1.546   1.434   1.191   0.975
   0.845   0.764   0.691   0.628   0.603   0.628   0.691   0.764   0.845   0.975
   1.191   1.434   1.546   1.402   1.055   0.699   0.481   0.382   0.307   0.234
   0.217   0.262
   0.062   0.100   0.217   0.393   0.562   0.692   0.858   1.141   1.465   1.617
   1.473   1.147   0.868   0.741   0.705   0.669   0.624   0.599   0.594   0.599
   0.624   0.669   0.705   0.741   0.868   1.147   1.473   1.617   1.465   1.141
   0.858   0.692   0.562   0.393   0.217   0.100   0.062   0.100   0.217   0.393
   0.562   0.692   0.858   1.141   1.465   1.617   1.473   1.147   0.868   0.741
   0.705   0.669   0.624   0.599   0.594   0.599   0.624   0.669   0.705   0.741
   0.868   1.147   1.473   1.617   1.465   1.141   0.858   0.692   0.562   0.393
   0.217   0.100
   0.264   0.367   0.622   0.894   1.062   1.147   1.297   1.572   1.795   1.713
   1.315   0.886   0.688   0.693   0.704   0.648   0.623   0.681   0.726   0.681
   0.623   0.648   0.704   0.693   0.688   0.886   1.315   1.713   1.795   1.572
   1.297   1.147   1.062   0.894   0.622   0.367   0.264   0.367   0.622   0.894
   1.062   1.147   1.297   1.572   1.795   1.713   1.315   0.886   0.688   0.693
   0.704   0.648   0.623   0.681   0.726   0.681   0.623   0.648   0.704   0.693
   0.688   0.886   1.315   1.713   1.795   1.572   1.297   1.147   1.062   0.894
   0.622   0.367
   1.012   1.137   1.411   1.620   1.631   1.545   1.592   1.813   1.935   1.676
   1.132   0.711   0.651   0.762   0.742   0.599   0.578   0.738   0.846   0.738
   0.578   0.599   0.742   0.762   0.651   0.711   1.132   1.676   1.935   1.813
   1.592   1.545   1.631   1.620   1.411   1.137   1.012   1.137   1.411   1.620
   1.631   1.545   1.592   1.813   1.935   1.676   1.132   0.711   0.651   0.762
   0.742   0.599   0.578   0.738   0.846   0.738   0.578   0.599   0.742   0.762
   0.651   0.711   1.132   1.676   1.935   1.813   1.592   1.545   1.631   1.620
   1.411   1.137
   1.733   1.850   2.079   2.170   2.006   1.755   1.702   1.875   1.940   1.598
   1.005   0.628   0.670   0.831   0.758   0.533   0.506   0.736   0.889   0.736
   0.506   0.533   0.758   0.831   0.670   0.628   1.005   1.598   1.940   1.875
   1.702   1.755   2.006   2.170   2.079   1.850   1.733   1.850   2.079   2.170
   2.006   1.755   1.702   1.875   1.940   1.598   1.005   0.628   0.670   0.831
   0.758   0.533   0.506   0.736   0.889   0.736   0.506   0.533   0.758   0.831
   0.670   0.628   1.005   1.598   1.940   1.875   1.702   1.755   2.006   2.170
   2.079   1.850
 111       5.00   72    0 5.00   18    0
   0.252   0.252   0.254   0.258   0.263   0.268   0.275   0.282   0.290   0.299
   0.307   0.315   0.322   0.329   0.335   0.340   0.344   0.346   0.347   0.346
   0.344   0.340   0.335   0.329   0.322   0.315   0.307   0.299   0.290   0.282
   0.275   0.268   0.263   0.258   0.254   0.252   0.252   0.252   0.254   0.258
   0.263   0.268   0.275   0.282   0.290   0.299   0.307   0.315   0.322   0.329
   0.335   0.340   0.344   0.346   0.347   0.346   0.344   0.340   0.335   0.329
   0.322   0.315   0.307   0.299   0.290   0.282   0.275   0.268   0.263   0.258
   0.254   0.252
  -0.198  -0.195  -0.187  -0.173  -0.153  -0.127  -0.095  -0.056  -0.013   0.036
   0.088   0.141   0.193   0.243   0.287   0.324   0.352   0.369   0.375   0.369
   0.352   0.324   0.287   0.243   0.193   0.141   0.088   0.036  -0.013  -0.056
  -0.095  -0.127  -0.153  -0.173  -0.187  -0.195  -0.198  -0.195  -0.187  -0.173
  -0.153  -0.127  -0.095  -0.056  -0.013   0.036   0.088   0.141   0.193   0.243
   0.287   0.324   0.352   0.369   0.375   0.369   0.352   0.324   0.287   0.243
   0.193   0.141   0.088   0.036  -0.013  -0.056  -0.095  -0.127  -0.153  -0.173
  -0.187  -0.195
  -0.099  -0.107  -0.127  -0.157  -0.191  -0.221  -0.243  -0.250  -0.237  -0.205
  -0.153  -0.084  -0.005   0.079   0.160   0.231   0.287   0.323   0.335   0.323
   0.287   0.231   0.160   0.079  -0.005  -0.084  -0.153  -0.205  -0.237  -0.250
  -0.243  -0.221  -0.191  -0.157  -0.127  -0.107  -0.099  -0.107  -0.127  -0.157
  -0.191  -0.221  -0.243  -0.250  -0.237  -0.205  -0.153  -0.084  -0.005   0.079
   0.160   0.231   0.287   0.323   0.335   0.323   0.287   0.231   0.160   0.079
  -0.005  -0.084  -0.153  -0.205  -0.237  -0.250  -0.243  -0.221  -0.191  -0.157
  -0.127  -0.107
   1.258   1.221   1.114   0.950   0.747   0.526   0.311   0.122  -0.026  -0.125
  -0.171  -0.170  -0.130  -0.066   0.009   0.083   0.144   0.184   0.198   0.184
   0.144   0.083   0.009  -0.066  -0.130  -0.170  -0.171  -0.125  -0.026   0.122
   0.311   0.526   0.747   0.950   1.114   1.221   1.258   1.221   1.114   0.950
   0.747   0.526   0.311   0.122  -0.026  -0.125  -0.171  -0.170  -0.130  -0.066
   0.009   0.083   0.144   0.184   0.198   0.184   0.144   0.083   0.009  -0.066
  -0.130  -0.170  -0.171  -0.125  -0.026   0.122   0.311   0.526   0.747   0.950
   1.114   1.221
   3.271   3.202   3.002   2.690   2.295   1.854   1.406   0.987   0.626   0.340
   0.138   0.016  -0.041  -0.048  -0.025   0.011   0.047   0.072   0.081   0.072
   0.047   0.011  -0.025  -0.048  -0.041   0.016   0.138   0.340   0.626   0.987
   1.406   1.854   2.295   2.690   3.002   3.202   3.271   3.202   3.002   2.690
   2.295   1.854   1.406   0.987   0.626   0.340   0.138   0.016  -0.041  -0.048
  -0.025   0.011   0.047   0.072   0.081   0.072   0.047   0.011  -0.025  -0.048
  -0.041   0.016   0.138   0.340   0.626   0.987   1.406   1.854   2.295   2.690
   3.002   3.202
   4.475   4.406   4.203   3.879   3.456   2.963   2.436   1.913   1.429   1.013
   0.679   0.432   0.266   0.167   0.118   0.101   0.102   0.108   0.111   0.108
   0.102   0.101   0.118   0.167   0.266   0.432   0.679   1.013   1.429   1.913
   2.436   2.963   3.456   3.879   4.203   4.406   4.475   4.406   4.203   3.879
   3.456   2.963   2.436   1.913   1.429   1.013   0.679   0.432   0.266   0.167
   0.118   0.101   0.102   0.108   0.111   0.108   0.102   0.101   0.118   0.167
   0.266   0.432   0.679   1.013   1.429   1.913   2.436   2.963   3.456   3.879
   4.203   4.406
   3.959   3.937   3.865   3.734   3.532   3.251   2.898   2.491   2.058   1.630
   1.238   0.904   0.641   0.454   0.339   0.281   0.263   0.263   0.265   0.263
   0.263   0.281   0.339   0.454   0.641   0.904   1.238   1.630   2.058   2.491
   2.898   3.251   3.532   3.734   3.865   3.937   3.959   3.937   3.865   3.734
   3.532   3.251   2.898   2.491   2.058   1.630   1.238   0.904   0.641   0.454
   0.339   0.281   0.263   0.263   0.265   0.263   0.263   0.281   0.339   0.454
   0.641   0.904   1.238   1.630   2.058   2.491   2.898   3.251   3.532   3.734
   3.865   3.937
   2.203   2.243   2.351   2.495   2.627   2.698   2.672   2.535   2.296   1.983
   1.630   1.275   0.954   0.698   0.526   0.438   0.412   0.416   0.421   0.416
   0.412   0.438   0.526   0.698   0.954   1.275   1.630   1.983   2.296   2.535
   2.672   2.698   2.627   2.495   2.351   2.243   2.203   2.243   2.351   2.495
   2.627   2.698   2.672   2.535   2.296   1.983   1.630   1.275   0.954   0.698
   0.526   0.438   0.412   0.416   0.421   0.416   0.412   0.438   0.526   0.698
   0.954   1.275   1.630   1.983   2.296   2.535   2.672   2.698   2.627   2.495
   2.351   2.243
   0.506   0.573   0.764   1.051   1.383   1.697   1.935   2.061   2.067   1.962
   1.764   1.499   1.204   0.927   0.713   0.582   0.526   0.514   0.515   0.514
   0.526   0.582   0.713   0.927   1.204   1.499   1.764   1.962   2.067   2.061
   1.935   1.697   1.383   1.051   0.764   0.573   0.506   0.573   0.764   1.051
   1.383   1.697   1.935   2.061   2.067   1.962   1.764   1.499   1.204   0.927
   0.713   0.582   0.526   0.514   0.515   0.514   0.526   0.582   0.713   0.927
   1.204   1.499   1.764   1.962   2.067   2.061   1.935   1.697   1.383   1.051
   0.764   0.573
  -0.225  -0.187  -0.064   0.147   0.433   0.748   1.044   1.289   1.475   1.595
   1.636   1.578   1.423   1.209   0.989   0.810   0.688   0.621   0.601   0.621
   0.688   0.810   0.989   1.209   1.423   1.578   1.636   1.595   1.475   1.289
   1.044   0.748   0.433   0.147  -0.064  -0.187  -0.225  -0.187  -0.064   0.147
   0.433   0.748   1.044   1.289   1.475   1.595   1.636   1.578   1.423   1.209
   0.989   0.810   0.688   0.621   0.601   0.621   0.688   0.810   0.989   1.209
   1.423   1.578   1.636   1.595   1.475   1.289   1.044   0.748   0.433   0.147
  -0.064  -0.187
  -0.102  -0.112  -0.117  -0.073   0.044   0.215   0.403   0.597   0.813   1.061
   1.304   1.477   1.529   1.459   1.307   1.118   0.936   0.799   0.748   0.799
   0.936   1.118   1.307   1.459   1.529   1.477   1.304   1.061   0.813   0.597
   0.403   0.215   0.044  -0.073  -0.117  -0.112  -0.102  -0.112  -0.117  -0.073
   0.044   0.215   0.403   0.597   0.813   1.061   1.304   1.477   1.529   1.459
   1.307   1.118   0.936   0.799   0.748   0.799   0.936   1.118   1.307   1.459
   1.529   1.477   1.304   1.061   0.813   0.597   0.403   0.215   0.044  -0.073
  -0.117  -0.112
   0.174   0.143   0.077   0.039   0.064   0.135   0.209   0.281   0.397   0.606
   0.895   1.186   1.397   1.493   1.478   1.367   1.192   1.024   0.953   1.024
   1.192   1.367   1.478   1.493   1.397   1.186   0.895   0.606   0.397   0.281
   0.209   0.135   0.064   0.039   0.077   0.143   0.174   0.143   0.077   0.039
   0.064   0.135   0.209   0.281   0.397   0.606   0.895   1.186   1.397   1.493
   1.478   1.367   1.192   1.024   0.953   1.024   1.192   1.367   1.478   1.493
   1.397   1.186   0.895   0.606   0.397   0.281   0.209   0.135   0.064   0.039
   0.077   0.143
   0.139   0.120   0.081   0.069   0.119   0.212   0.289   0.311   0.319   0.395
   0.577   0.823   1.065   1.267   1.404   1.440   1.361   1.229   1.165   1.229
   1.361   1.440   1.404   1.267   1.065   0.823   0.577   0.395   0.319   0.311
   0.289   0.212   0.119   0.069   0.081   0.120   0.139   0.120   0.081   0.069
   0.119   0.212   0.289   0.311   0.319   0.395   0.577   0.823   1.065   1.267
   1.404   1.440   1.361   1.229   1.165   1.229   1.361   1.440   1.404   1.267
   1.065   0.823   0.577   0.395   0.319   0.311   0.289   0.212   0.119   0.069
   0.081   0.120
  -0.047  -0.041  -0.035  -0.027   0.029   0.166   0.336   0.437   0.440   0.420
   0.461   0.582   0.752   0.960   1.189   1.369   1.427   1.385   1.350   1.385
   1.427   1.369   1.189   0.960   0.752   0.582   0.461   0.420   0.440   0.437
   0.336   0.166   0.029  -0.027  -0.035  -0.041  -0.047  -0.041  -0.035  -0.027
   0.029   0.166   0.336   0.437   0.440   0.420   0.461   0.582   0.752   0.960
   1.189   1.369   1.427   1.385   1.350   1.385   1.427   1.369   1.189   0.960
   0.752   0.582   0.461   0.420   0.440   0.437   0.336   0.166   0.029  -0.027
  -0.035  -0.041
   0.112   0.148   0.186   0.138   0.071   0.137   0.354   0.562   0.621   0.564
   0.517   0.542   0.628   0.777   1.002   1.253   1.427   1.487   1.491   1.487
   1.427   1.253   1.002   0.777   0.628   0.542   0.517   0.564   0.621   0.562
   0.354   0.137   0.071   0.138   0.186   0.148   0.112   0.148   0.186   0.138
   0.071   0.137   0.354   0.562   0.621   0.564   0.517   0.542   0.628   0.777
   1.002   1.253   1.427   1.487   1.491   1.487   1.427   1.253   1.002   0.777
   0.628   0.542   0.517   0.564   0.621   0.562   0.354   0.137   0.071   0.138
   0.186   0.148
   0.883   0.973   1.081   0.969   0.693   0.545   0.658   0.841   0.858   0.721
   0.605   0.600   0.655   0.738   0.895   1.136   1.374   1.519   1.562   1.519
   1.374   1.136   0.895   0.738   0.655   0.600   0.605   0.721   0.858   0.841
   0.658   0.545   0.693   0.969   1.081   0.973   0.883   0.973   1.081   0.969
   0.693   0.545   0.658   0.841   0.858   0.721   0.605   0.600   0.655   0.738
   0.895   1.136   1.374   1.519   1.562   1.519   1.374   1.136   0.895   0.738
   0.655   0.600   0.605   0.721   0.858   0.841   0.658   0.545   0.693   0.969
   1.081   0.973
   1.991   2.162   2.410   2.308   1.855   1.453   1.344   1.341   1.164   0.843
   0.627   0.617   0.690   0.740   0.822   1.016   1.277   1.483   1.558   1.483
   1.277   1.016   0.822   0.740   0.690   0.617   0.627   0.843   1.164   1.341
   1.344   1.453   1.855   2.308   2.410   2.162   1.991   2.162   2.410   2.308
   1.855   1.453   1.344   1.341   1.164   0.843   0.627   0.617   0.690   0.740
   0.822   1.016   1.277   1.483   1.558   1.483   1.277   1.016   0.822   0.740
   0.690   0.617   0.627   0.843   1.164   1.341   1.344   1.453   1.855   2.308
   2.410   2.162
   2.802   3.039   3.412   3.360   2.825   2.257   1.967   1.778   1.404   0.911
   0.602   0.589   0.688   0.730   0.768   0.927   1.193   1.432   1.525   1.432
   1.193   0.927   0.768   0.730   0.688   0.589   0.602   0.911   1.404   1.778
   1.967   2.257   2.825   3.360   3.412   3.039   2.802   3.039   3.412   3.360
   2.825   2.257   1.967   1.778   1.404   0.911   0.602   0.589   0.688   0.730
   0.768   0.927   1.193   1.432   1.525   1.432   1.193   0.927   0.768   0.730
   0.688   0.589   0.602   0.911   1.404   1.778   1.967   2.257   2.825   3.360
   3.412   3.039
TEXTURE_INDEX=   3.4879
ERR_CF 220         1080     500   47.62   28.84
ERR_CF 200         1080     356   30.09   12.15
ERR_CF 111         1080     312   62.21   11.16
