TEXEVAL                                                                         
Analysis started on 29-Apr-19 15:15:36                                          
 LMAX=16LFMAX=03 CUBIC ORTHO   
 220      5.00 5.00
 200      5.00 5.00
 111      5.00 5.00
 220       5.00   72    0 5.00   15    0
   6.383   6.383   6.383   6.383   6.383   6.383   6.383   6.383   6.383   6.383
   6.383   6.383   6.383   6.383   6.383   6.383   6.383   6.383   6.383   6.383
   6.383   6.383   6.383   6.383   6.383   6.383   6.383   6.383   6.383   6.383
   6.383   6.383   6.383   6.383   6.383   6.383   6.383   6.383   6.383   6.383
   6.383   6.383   6.383   6.383   6.383   6.383   6.383   6.383   6.383   6.383
   6.383   6.383   6.383   6.383   6.383   6.383   6.383   6.383   6.383   6.383
   6.383   6.383   6.383   6.383   6.383   6.383   6.383   6.383   6.383   6.383
   6.383   6.383
   2.475   2.383   2.739   2.737   3.017   2.645   3.036   3.089   3.693   3.996
   4.150   4.210   4.782   4.827   7.517   6.224   6.253   6.443   6.912   6.443
   6.253   6.224   7.517   4.827   4.782   4.210   4.150   3.996   3.693   3.089
   3.036   2.645   3.017   2.737   2.739   2.383   2.475   2.383   2.739   2.737
   3.017   2.645   3.036   3.089   3.693   3.996   4.150   4.210   4.782   4.827
   7.517   6.224   6.253   6.443   6.912   6.443   6.253   6.224   7.517   4.827
   4.782   4.210   4.150   3.996   3.693   3.089   3.036   2.645   3.017   2.737
   2.739   2.383
   1.153   0.616   0.794   0.886   0.870   1.360   1.030   1.381   1.355   2.096
   2.182   2.665   2.547   2.954   3.774   4.297   4.956   6.043   5.577   6.043
   4.956   4.297   3.774   2.954   2.547   2.665   2.182   2.096   1.355   1.381
   1.030   1.360   0.870   0.886   0.794   0.616   1.153   0.616   0.794   0.886
   0.870   1.360   1.030   1.381   1.355   2.096   2.182   2.665   2.547   2.954
   3.774   4.297   4.956   6.043   5.577   6.043   4.956   4.297   3.774   2.954
   2.547   2.665   2.182   2.096   1.355   1.381   1.030   1.360   0.870   0.886
   0.794   0.616
   0.762   0.496   0.409   0.583   0.449   0.929   0.643   0.745   0.768   0.919
   0.965   1.404   1.322   1.826   2.316   2.864   3.652   4.840   4.600   4.840
   3.652   2.864   2.316   1.826   1.322   1.404   0.965   0.919   0.768   0.745
   0.643   0.929   0.449   0.583   0.409   0.496   0.762   0.496   0.409   0.583
   0.449   0.929   0.643   0.745   0.768   0.919   0.965   1.404   1.322   1.826
   2.316   2.864   3.652   4.840   4.600   4.840   3.652   2.864   2.316   1.826
   1.322   1.404   0.965   0.919   0.768   0.745   0.643   0.929   0.449   0.583
   0.409   0.496
   0.391   0.580   0.416   0.505   0.414   0.383   0.569   0.361   0.696   0.797
   0.595   0.896   0.888   1.227   1.594   2.483   3.201   3.454   3.588   3.454
   3.201   2.483   1.594   1.227   0.888   0.896   0.595   0.797   0.696   0.361
   0.569   0.383   0.414   0.505   0.416   0.580   0.391   0.580   0.416   0.505
   0.414   0.383   0.569   0.361   0.696   0.797   0.595   0.896   0.888   1.227
   1.594   2.483   3.201   3.454   3.588   3.454   3.201   2.483   1.594   1.227
   0.888   0.896   0.595   0.797   0.696   0.361   0.569   0.383   0.414   0.505
   0.416   0.580
   0.238   0.408   0.338   0.532   0.418   0.417   0.483   0.532   0.661   0.776
   0.740   0.894   0.853   1.444   1.422   1.985   2.930   2.905   3.028   2.905
   2.930   1.985   1.422   1.444   0.853   0.894   0.740   0.776   0.661   0.532
   0.483   0.417   0.418   0.532   0.338   0.408   0.238   0.408   0.338   0.532
   0.418   0.417   0.483   0.532   0.661   0.776   0.740   0.894   0.853   1.444
   1.422   1.985   2.930   2.905   3.028   2.905   2.930   1.985   1.422   1.444
   0.853   0.894   0.740   0.776   0.661   0.532   0.483   0.417   0.418   0.532
   0.338   0.408
   0.230   0.228   0.443   0.307   0.301   0.380   0.537   0.524   0.422   0.638
   0.734   0.951   0.944   1.431   1.596   1.475   2.072   2.174   2.150   2.174
   2.072   1.475   1.596   1.431   0.944   0.951   0.734   0.638   0.422   0.524
   0.537   0.380   0.301   0.307   0.443   0.228   0.230   0.228   0.443   0.307
   0.301   0.380   0.537   0.524   0.422   0.638   0.734   0.951   0.944   1.431
   1.596   1.475   2.072   2.174   2.150   2.174   2.072   1.475   1.596   1.431
   0.944   0.951   0.734   0.638   0.422   0.524   0.537   0.380   0.301   0.307
   0.443   0.228
   0.397   0.469   0.396   0.321   0.367   0.532   0.433   0.378   0.341   0.551
   0.541   0.798   0.781   1.311   1.386   1.529   1.800   1.415   1.906   1.415
   1.800   1.529   1.386   1.311   0.781   0.798   0.541   0.551   0.341   0.378
   0.433   0.532   0.367   0.321   0.396   0.469   0.397   0.469   0.396   0.321
   0.367   0.532   0.433   0.378   0.341   0.551   0.541   0.798   0.781   1.311
   1.386   1.529   1.800   1.415   1.906   1.415   1.800   1.529   1.386   1.311
   0.781   0.798   0.541   0.551   0.341   0.378   0.433   0.532   0.367   0.321
   0.396   0.469
   0.705   0.556   0.248   0.389   0.492   0.539   0.332   0.436   0.298   0.464
   0.365   0.797   0.633   1.093   1.047   1.735   1.639   1.110   1.676   1.110
   1.639   1.735   1.047   1.093   0.633   0.797   0.365   0.464   0.298   0.436
   0.332   0.539   0.492   0.389   0.248   0.556   0.705   0.556   0.248   0.389
   0.492   0.539   0.332   0.436   0.298   0.464   0.365   0.797   0.633   1.093
   1.047   1.735   1.639   1.110   1.676   1.110   1.639   1.735   1.047   1.093
   0.633   0.797   0.365   0.464   0.298   0.436   0.332   0.539   0.492   0.389
   0.248   0.556
   1.190   0.754   0.700   0.328   0.534   0.378   0.852   0.492   0.636   0.779
   0.379   1.121   0.926   0.937   1.197   1.351   0.806   0.996   1.710   0.996
   0.806   1.351   1.197   0.937   0.926   1.121   0.379   0.779   0.636   0.492
   0.852   0.378   0.534   0.328   0.700   0.754   1.190   0.754   0.700   0.328
   0.534   0.378   0.852   0.492   0.636   0.779   0.379   1.121   0.926   0.937
   1.197   1.351   0.806   0.996   1.710   0.996   0.806   1.351   1.197   0.937
   0.926   1.121   0.379   0.779   0.636   0.492   0.852   0.378   0.534   0.328
   0.700   0.754
   1.666   1.465   1.373   0.922   1.105   0.914   0.945   0.546   0.907   0.867
   0.472   0.884   1.047   1.213   1.184   1.121   0.352   0.619   1.362   0.619
   0.352   1.121   1.184   1.213   1.047   0.884   0.472   0.867   0.907   0.546
   0.945   0.914   1.105   0.922   1.373   1.465   1.666   1.465   1.373   0.922
   1.105   0.914   0.945   0.546   0.907   0.867   0.472   0.884   1.047   1.213
   1.184   1.121   0.352   0.619   1.362   0.619   0.352   1.121   1.184   1.213
   1.047   0.884   0.472   0.867   0.907   0.546   0.945   0.914   1.105   0.922
   1.373   1.465
   3.609   3.261   2.883   2.059   1.948   1.651   1.112   0.595   1.348   0.921
   0.756   0.584   0.809   1.425   0.865   0.952   0.363   0.486   0.259   0.486
   0.363   0.952   0.865   1.425   0.809   0.584   0.756   0.921   1.348   0.595
   1.112   1.651   1.948   2.059   2.883   3.261   3.609   3.261   2.883   2.059
   1.948   1.651   1.112   0.595   1.348   0.921   0.756   0.584   0.809   1.425
   0.865   0.952   0.363   0.486   0.259   0.486   0.363   0.952   0.865   1.425
   0.809   0.584   0.756   0.921   1.348   0.595   1.112   1.651   1.948   2.059
   2.883   3.261
   4.074   3.711   3.477   2.762   2.078   2.011   2.217   0.995   1.466   1.178
   0.892   0.794   0.791   1.022   0.674   0.537   0.439   1.093   0.100   1.093
   0.439   0.537   0.674   1.022   0.791   0.794   0.892   1.178   1.466   0.995
   2.217   2.011   2.078   2.762   3.477   3.711   4.074   3.711   3.477   2.762
   2.078   2.011   2.217   0.995   1.466   1.178   0.892   0.794   0.791   1.022
   0.674   0.537   0.439   1.093   0.100   1.093   0.439   0.537   0.674   1.022
   0.791   0.794   0.892   1.178   1.466   0.995   2.217   2.011   2.078   2.762
   3.477   3.711
   1.483   1.964   2.263   1.688   1.389   1.756   1.957   1.223   0.848   0.773
   0.622   1.061   1.688   0.326   0.830   0.570   0.911   1.042   0.692   1.042
   0.911   0.570   0.830   0.326   1.688   1.061   0.622   0.773   0.848   1.223
   1.957   1.756   1.389   1.688   2.263   1.964   1.483   1.964   2.263   1.688
   1.389   1.756   1.957   1.223   0.848   0.773   0.622   1.061   1.688   0.326
   0.830   0.570   0.911   1.042   0.692   1.042   0.911   0.570   0.830   0.326
   1.688   1.061   0.622   0.773   0.848   1.223   1.957   1.756   1.389   1.688
   2.263   1.964
   0.310   0.878   0.935   0.520   0.622   0.875   1.030   0.753   0.362   0.506
   0.725   0.687   1.476   0.093   0.849   1.251   0.812   0.387   0.602   0.387
   0.812   1.251   0.849   0.093   1.476   0.687   0.725   0.506   0.362   0.753
   1.030   0.875   0.622   0.520   0.935   0.878   0.310   0.878   0.935   0.520
   0.622   0.875   1.030   0.753   0.362   0.506   0.725   0.687   1.476   0.093
   0.849   1.251   0.812   0.387   0.602   0.387   0.812   1.251   0.849   0.093
   1.476   0.687   0.725   0.506   0.362   0.753   1.030   0.875   0.622   0.520
   0.935   0.878
 200       5.00   72    0 5.00   15    0
   0.751   0.751   0.751   0.751   0.751   0.751   0.751   0.751   0.751   0.751
   0.751   0.751   0.751   0.751   0.751   0.751   0.751   0.751   0.751   0.751
   0.751   0.751   0.751   0.751   0.751   0.751   0.751   0.751   0.751   0.751
   0.751   0.751   0.751   0.751   0.751   0.751   0.751   0.751   0.751   0.751
   0.751   0.751   0.751   0.751   0.751   0.751   0.751   0.751   0.751   0.751
   0.751   0.751   0.751   0.751   0.751   0.751   0.751   0.751   0.751   0.751
   0.751   0.751   0.751   0.751   0.751   0.751   0.751   0.751   0.751   0.751
   0.751   0.751
   0.658   0.783   0.688   0.868   0.944   1.001   0.584   0.895   0.589   0.962
   1.052   0.794   0.681   0.945   0.700   0.800   1.130   0.687   0.850   0.687
   1.130   0.800   0.700   0.945   0.681   0.794   1.052   0.962   0.589   0.895
   0.584   1.001   0.944   0.868   0.688   0.783   0.658   0.783   0.688   0.868
   0.944   1.001   0.584   0.895   0.589   0.962   1.052   0.794   0.681   0.945
   0.700   0.800   1.130   0.687   0.850   0.687   1.130   0.800   0.700   0.945
   0.681   0.794   1.052   0.962   0.589   0.895   0.584   1.001   0.944   0.868
   0.688   0.783
   0.652   0.863   0.880   0.941   0.774   0.845   0.748   1.027   0.568   1.184
   1.146   0.784   0.523   0.754   0.644   0.899   0.944   0.779   0.891   0.779
   0.944   0.899   0.644   0.754   0.523   0.784   1.146   1.184   0.568   1.027
   0.748   0.845   0.774   0.941   0.880   0.863   0.652   0.863   0.880   0.941
   0.774   0.845   0.748   1.027   0.568   1.184   1.146   0.784   0.523   0.754
   0.644   0.899   0.944   0.779   0.891   0.779   0.944   0.899   0.644   0.754
   0.523   0.784   1.146   1.184   0.568   1.027   0.748   0.845   0.774   0.941
   0.880   0.863
   1.643   1.270   1.270   1.065   1.013   0.794   0.966   0.949   0.854   0.996
   0.966   0.730   0.607   0.657   0.559   1.033   0.935   0.760   0.951   0.760
   0.935   1.033   0.559   0.657   0.607   0.730   0.966   0.996   0.854   0.949
   0.966   0.794   1.013   1.065   1.270   1.270   1.643   1.270   1.270   1.065
   1.013   0.794   0.966   0.949   0.854   0.996   0.966   0.730   0.607   0.657
   0.559   1.033   0.935   0.760   0.951   0.760   0.935   1.033   0.559   0.657
   0.607   0.730   0.966   0.996   0.854   0.949   0.966   0.794   1.013   1.065
   1.270   1.270
   2.598   1.776   1.797   2.176   1.798   1.571   1.534   1.387   1.100   1.147
   1.222   0.845   0.782   0.642   0.905   0.846   0.819   0.761   0.734   0.761
   0.819   0.846   0.905   0.642   0.782   0.845   1.222   1.147   1.100   1.387
   1.534   1.571   1.798   2.176   1.797   1.776   2.598   1.776   1.797   2.176
   1.798   1.571   1.534   1.387   1.100   1.147   1.222   0.845   0.782   0.642
   0.905   0.846   0.819   0.761   0.734   0.761   0.819   0.846   0.905   0.642
   0.782   0.845   1.222   1.147   1.100   1.387   1.534   1.571   1.798   2.176
   1.797   1.776
   2.384   2.296   2.214   2.578   2.089   2.022   2.007   1.898   1.385   1.494
   1.387   1.021   0.773   0.801   1.011   1.068   0.883   1.056   0.861   1.056
   0.883   1.068   1.011   0.801   0.773   1.021   1.387   1.494   1.385   1.898
   2.007   2.022   2.089   2.578   2.214   2.296   2.384   2.296   2.214   2.578
   2.089   2.022   2.007   1.898   1.385   1.494   1.387   1.021   0.773   0.801
   1.011   1.068   0.883   1.056   0.861   1.056   0.883   1.068   1.011   0.801
   0.773   1.021   1.387   1.494   1.385   1.898   2.007   2.022   2.089   2.578
   2.214   2.296
   2.329   1.708   1.808   1.389   1.689   1.825   1.945   1.885   1.476   1.481
   1.482   1.208   1.276   1.051   0.806   1.120   0.920   0.977   0.853   0.977
   0.920   1.120   0.806   1.051   1.276   1.208   1.482   1.481   1.476   1.885
   1.945   1.825   1.689   1.389   1.808   1.708   2.329   1.708   1.808   1.389
   1.689   1.825   1.945   1.885   1.476   1.481   1.482   1.208   1.276   1.051
   0.806   1.120   0.920   0.977   0.853   0.977   0.920   1.120   0.806   1.051
   1.276   1.208   1.482   1.481   1.476   1.885   1.945   1.825   1.689   1.389
   1.808   1.708
   1.359   0.695   0.838   0.474   0.899   1.117   1.307   1.274   1.353   1.654
   2.045   1.593   2.009   1.304   1.081   1.177   1.150   0.916   1.033   0.916
   1.150   1.177   1.081   1.304   2.009   1.593   2.045   1.654   1.353   1.274
   1.307   1.117   0.899   0.474   0.838   0.695   1.359   0.695   0.838   0.474
   0.899   1.117   1.307   1.274   1.353   1.654   2.045   1.593   2.009   1.304
   1.081   1.177   1.150   0.916   1.033   0.916   1.150   1.177   1.081   1.304
   2.009   1.593   2.045   1.654   1.353   1.274   1.307   1.117   0.899   0.474
   0.838   0.695
   0.295   0.295   0.426   0.345   0.519   0.470   0.753   0.735   1.083   1.458
   1.996   2.081   2.223   1.563   1.289   1.261   1.241   1.590   1.208   1.590
   1.241   1.261   1.289   1.563   2.223   2.081   1.996   1.458   1.083   0.735
   0.753   0.470   0.519   0.345   0.426   0.295   0.295   0.295   0.426   0.345
   0.519   0.470   0.753   0.735   1.083   1.458   1.996   2.081   2.223   1.563
   1.289   1.261   1.241   1.590   1.208   1.590   1.241   1.261   1.289   1.563
   2.223   2.081   1.996   1.458   1.083   0.735   0.753   0.470   0.519   0.345
   0.426   0.295
   0.314   0.210   0.285   0.349   0.387   0.256   0.534   0.313   0.761   0.790
   1.232   1.860   1.797   1.761   1.296   1.133   1.080   1.433   0.936   1.433
   1.080   1.133   1.296   1.761   1.797   1.860   1.232   0.790   0.761   0.313
   0.534   0.256   0.387   0.349   0.285   0.210   0.314   0.210   0.285   0.349
   0.387   0.256   0.534   0.313   0.761   0.790   1.232   1.860   1.797   1.761
   1.296   1.133   1.080   1.433   0.936   1.433   1.080   1.133   1.296   1.761
   1.797   1.860   1.232   0.790   0.761   0.313   0.534   0.256   0.387   0.349
   0.285   0.210
   0.170   0.137   0.151   0.219   0.224   0.097   0.170   0.030   0.639   0.563
   0.661   1.153   1.291   1.572   1.261   0.943   1.173   0.970   0.881   0.970
   1.173   0.943   1.261   1.572   1.291   1.153   0.661   0.563   0.639   0.030
   0.170   0.097   0.224   0.219   0.151   0.137   0.170   0.137   0.151   0.219
   0.224   0.097   0.170   0.030   0.639   0.563   0.661   1.153   1.291   1.572
   1.261   0.943   1.173   0.970   0.881   0.970   1.173   0.943   1.261   1.572
   1.291   1.153   0.661   0.563   0.639   0.030   0.170   0.097   0.224   0.219
   0.151   0.137
   0.060   0.276   0.285   0.154   0.373   0.328   0.386   0.041   0.530   0.535
   0.803   1.231   1.073   1.359   0.967   0.847   1.177   1.014   1.483   1.014
   1.177   0.847   0.967   1.359   1.073   1.231   0.803   0.535   0.530   0.041
   0.386   0.328   0.373   0.154   0.285   0.276   0.060   0.276   0.285   0.154
   0.373   0.328   0.386   0.041   0.530   0.535   0.803   1.231   1.073   1.359
   0.967   0.847   1.177   1.014   1.483   1.014   1.177   0.847   0.967   1.359
   1.073   1.231   0.803   0.535   0.530   0.041   0.386   0.328   0.373   0.154
   0.285   0.276
   0.060   0.277   0.303   0.064   0.447   0.628   0.715   0.104   0.489   0.518
   0.884   1.217   0.997   0.970   0.671   0.872   0.550   0.756   0.968   0.756
   0.550   0.872   0.671   0.970   0.997   1.217   0.884   0.518   0.489   0.104
   0.715   0.628   0.447   0.064   0.303   0.277   0.060   0.277   0.303   0.064
   0.447   0.628   0.715   0.104   0.489   0.518   0.884   1.217   0.997   0.970
   0.671   0.872   0.550   0.756   0.968   0.756   0.550   0.872   0.671   0.970
   0.997   1.217   0.884   0.518   0.489   0.104   0.715   0.628   0.447   0.064
   0.303   0.277
   0.604   0.418   0.639   0.108   0.659   0.646   1.123   0.324   0.475   1.102
   0.942   1.033   1.330   1.186   0.652   0.880   0.583   0.686   0.557   0.686
   0.583   0.880   0.652   1.186   1.330   1.033   0.942   1.102   0.475   0.324
   1.123   0.646   0.659   0.108   0.639   0.418   0.604   0.418   0.639   0.108
   0.659   0.646   1.123   0.324   0.475   1.102   0.942   1.033   1.330   1.186
   0.652   0.880   0.583   0.686   0.557   0.686   0.583   0.880   0.652   1.186
   1.330   1.033   0.942   1.102   0.475   0.324   1.123   0.646   0.659   0.108
   0.639   0.418
   1.183   0.658   0.603   0.484   0.734   0.642   0.984   0.533   0.588   1.436
   1.006   1.117   1.328   1.090   0.685   0.791   0.731   0.817   0.582   0.817
   0.731   0.791   0.685   1.090   1.328   1.117   1.006   1.436   0.588   0.533
   0.984   0.642   0.734   0.484   0.603   0.658   1.183   0.658   0.603   0.484
   0.734   0.642   0.984   0.533   0.588   1.436   1.006   1.117   1.328   1.090
   0.685   0.791   0.731   0.817   0.582   0.817   0.731   0.791   0.685   1.090
   1.328   1.117   1.006   1.436   0.588   0.533   0.984   0.642   0.734   0.484
   0.603   0.658
 111       5.00   72    0 5.00   15    0
   0.104   0.104   0.104   0.104   0.104   0.104   0.104   0.104   0.104   0.104
   0.104   0.104   0.104   0.104   0.104   0.104   0.104   0.104   0.104   0.104
   0.104   0.104   0.104   0.104   0.104   0.104   0.104   0.104   0.104   0.104
   0.104   0.104   0.104   0.104   0.104   0.104   0.104   0.104   0.104   0.104
   0.104   0.104   0.104   0.104   0.104   0.104   0.104   0.104   0.104   0.104
   0.104   0.104   0.104   0.104   0.104   0.104   0.104   0.104   0.104   0.104
   0.104   0.104   0.104   0.104   0.104   0.104   0.104   0.104   0.104   0.104
   0.104   0.104
   0.151   0.119   0.140   0.201   0.134   0.148   0.122   0.133   0.192   0.116
   0.207   0.232   0.115   0.123   0.251   0.132   0.098   0.118   0.162   0.118
   0.098   0.132   0.251   0.123   0.115   0.232   0.207   0.116   0.192   0.133
   0.122   0.148   0.134   0.201   0.140   0.119   0.151   0.119   0.140   0.201
   0.134   0.148   0.122   0.133   0.192   0.116   0.207   0.232   0.115   0.123
   0.251   0.132   0.098   0.118   0.162   0.118   0.098   0.132   0.251   0.123
   0.115   0.232   0.207   0.116   0.192   0.133   0.122   0.148   0.134   0.201
   0.140   0.119
   0.265   0.283   0.264   0.216   0.208   0.224   0.242   0.223   0.299   0.316
   0.185   0.282   0.149   0.111   0.143   0.246   0.139   0.121   0.185   0.121
   0.139   0.246   0.143   0.111   0.149   0.282   0.185   0.316   0.299   0.223
   0.242   0.224   0.208   0.216   0.264   0.283   0.265   0.283   0.264   0.216
   0.208   0.224   0.242   0.223   0.299   0.316   0.185   0.282   0.149   0.111
   0.143   0.246   0.139   0.121   0.185   0.121   0.139   0.246   0.143   0.111
   0.149   0.282   0.185   0.316   0.299   0.223   0.242   0.224   0.208   0.216
   0.264   0.283
   0.840   0.948   0.842   0.714   0.648   0.444   0.552   0.310   0.305   0.428
   0.197   0.219   0.169   0.176   0.126   0.214   0.164   0.173   0.099   0.173
   0.164   0.214   0.126   0.176   0.169   0.219   0.197   0.428   0.305   0.310
   0.552   0.444   0.648   0.714   0.842   0.948   0.840   0.948   0.842   0.714
   0.648   0.444   0.552   0.310   0.305   0.428   0.197   0.219   0.169   0.176
   0.126   0.214   0.164   0.173   0.099   0.173   0.164   0.214   0.126   0.176
   0.169   0.219   0.197   0.428   0.305   0.310   0.552   0.444   0.648   0.714
   0.842   0.948
   3.513   2.828   2.614   2.265   1.672   1.404   1.067   0.850   0.521   0.426
   0.306   0.207   0.207   0.297   0.151   0.072   0.210   0.199   0.134   0.199
   0.210   0.072   0.151   0.297   0.207   0.207   0.306   0.426   0.521   0.850
   1.067   1.404   1.672   2.265   2.614   2.828   3.513   2.828   2.614   2.265
   1.672   1.404   1.067   0.850   0.521   0.426   0.306   0.207   0.207   0.297
   0.151   0.072   0.210   0.199   0.134   0.199   0.210   0.072   0.151   0.297
   0.207   0.207   0.306   0.426   0.521   0.850   1.067   1.404   1.672   2.265
   2.614   2.828
   5.541   4.905   4.227   3.771   3.351   2.605   2.195   1.678   1.149   0.893
   0.524   0.373   0.349   0.321   0.279   0.111   0.238   0.150   0.198   0.150
   0.238   0.111   0.279   0.321   0.349   0.373   0.524   0.893   1.149   1.678
   2.195   2.605   3.351   3.771   4.227   4.905   5.541   4.905   4.227   3.771
   3.351   2.605   2.195   1.678   1.149   0.893   0.524   0.373   0.349   0.321
   0.279   0.111   0.238   0.150   0.198   0.150   0.238   0.111   0.279   0.321
   0.349   0.373   0.524   0.893   1.149   1.678   2.195   2.605   3.351   3.771
   4.227   4.905
   4.620   4.833   4.179   3.653   3.987   3.485   3.016   2.273   1.824   1.375
   0.975   0.632   0.404   0.280   0.307   0.191   0.239   0.172   0.161   0.172
   0.239   0.191   0.307   0.280   0.404   0.632   0.975   1.375   1.824   2.273
   3.016   3.485   3.987   3.653   4.179   4.833   4.620   4.833   4.179   3.653
   3.987   3.485   3.016   2.273   1.824   1.375   0.975   0.632   0.404   0.280
   0.307   0.191   0.239   0.172   0.161   0.172   0.239   0.191   0.307   0.280
   0.404   0.632   0.975   1.375   1.824   2.273   3.016   3.485   3.987   3.653
   4.179   4.833
   2.856   2.737   2.841   2.488   3.075   3.623   2.708   2.477   2.279   1.601
   1.399   0.942   0.555   0.573   0.403   0.386   0.278   0.386   0.151   0.386
   0.278   0.386   0.403   0.573   0.555   0.942   1.399   1.601   2.279   2.477
   2.708   3.623   3.075   2.488   2.841   2.737   2.856   2.737   2.841   2.488
   3.075   3.623   2.708   2.477   2.279   1.601   1.399   0.942   0.555   0.573
   0.403   0.386   0.278   0.386   0.151   0.386   0.278   0.386   0.403   0.573
   0.555   0.942   1.399   1.601   2.279   2.477   2.708   3.623   3.075   2.488
   2.841   2.737
   1.118   1.021   1.219   1.395   1.853   2.207   1.921   2.121   2.221   1.786
   1.558   1.261   0.868   0.876   0.586   0.583   0.400   0.522   0.385   0.522
   0.400   0.583   0.586   0.876   0.868   1.261   1.558   1.786   2.221   2.121
   1.921   2.207   1.853   1.395   1.219   1.021   1.118   1.021   1.219   1.395
   1.853   2.207   1.921   2.121   2.221   1.786   1.558   1.261   0.868   0.876
   0.586   0.583   0.400   0.522   0.385   0.522   0.400   0.583   0.586   0.876
   0.868   1.261   1.558   1.786   2.221   2.121   1.921   2.207   1.853   1.395
   1.219   1.021
   0.341   0.478   0.416   0.573   0.746   0.785   1.172   1.424   1.727   1.676
   1.622   1.251   1.287   1.104   0.647   0.608   0.583   0.522   0.488   0.522
   0.583   0.608   0.647   1.104   1.287   1.251   1.622   1.676   1.727   1.424
   1.172   0.785   0.746   0.573   0.416   0.478   0.341   0.478   0.416   0.573
   0.746   0.785   1.172   1.424   1.727   1.676   1.622   1.251   1.287   1.104
   0.647   0.608   0.583   0.522   0.488   0.522   0.583   0.608   0.647   1.104
   1.287   1.251   1.622   1.676   1.727   1.424   1.172   0.785   0.746   0.573
   0.416   0.478
   0.233   0.260   0.233   0.179   0.268   0.378   0.819   0.865   1.224   1.225
   1.370   1.345   1.219   1.119   0.769   0.761   0.636   0.607   0.577   0.607
   0.636   0.761   0.769   1.119   1.219   1.345   1.370   1.225   1.224   0.865
   0.819   0.378   0.268   0.179   0.233   0.260   0.233   0.260   0.233   0.179
   0.268   0.378   0.819   0.865   1.224   1.225   1.370   1.345   1.219   1.119
   0.769   0.761   0.636   0.607   0.577   0.607   0.636   0.761   0.769   1.119
   1.219   1.345   1.370   1.225   1.224   0.865   0.819   0.378   0.268   0.179
   0.233   0.260
   0.228   0.219   0.131   0.227   0.294   0.318   0.609   0.597   0.795   0.981
   1.033   1.281   1.040   0.986   1.031   0.910   0.698   0.718   0.576   0.718
   0.698   0.910   1.031   0.986   1.040   1.281   1.033   0.981   0.795   0.597
   0.609   0.318   0.294   0.227   0.131   0.219   0.228   0.219   0.131   0.227
   0.294   0.318   0.609   0.597   0.795   0.981   1.033   1.281   1.040   0.986
   1.031   0.910   0.698   0.718   0.576   0.718   0.698   0.910   1.031   0.986
   1.040   1.281   1.033   0.981   0.795   0.597   0.609   0.318   0.294   0.227
   0.131   0.219
   0.219   0.237   0.181   0.224   0.372   0.434   0.465   0.512   0.661   1.008
   0.810   0.832   1.054   1.011   0.877   1.031   0.856   0.931   0.636   0.931
   0.856   1.031   0.877   1.011   1.054   0.832   0.810   1.008   0.661   0.512
   0.465   0.434   0.372   0.224   0.181   0.237   0.219   0.237   0.181   0.224
   0.372   0.434   0.465   0.512   0.661   1.008   0.810   0.832   1.054   1.011
   0.877   1.031   0.856   0.931   0.636   0.931   0.856   1.031   0.877   1.011
   1.054   0.832   0.810   1.008   0.661   0.512   0.465   0.434   0.372   0.224
   0.181   0.237
   0.121   0.233   0.259   0.194   0.419   0.456   0.415   0.502   0.702   0.884
   0.505   0.570   0.794   0.889   0.643   1.032   0.858   0.877   0.712   0.877
   0.858   1.032   0.643   0.889   0.794   0.570   0.505   0.884   0.702   0.502
   0.415   0.456   0.419   0.194   0.259   0.233   0.121   0.233   0.259   0.194
   0.419   0.456   0.415   0.502   0.702   0.884   0.505   0.570   0.794   0.889
   0.643   1.032   0.858   0.877   0.712   0.877   0.858   1.032   0.643   0.889
   0.794   0.570   0.505   0.884   0.702   0.502   0.415   0.456   0.419   0.194
   0.259   0.233
   0.299   0.387   0.503   0.496   0.503   0.603   0.439   0.607   0.951   0.670
   0.603   0.479   0.790   0.886   0.930   0.966   0.874   0.810   0.796   0.810
   0.874   0.966   0.930   0.886   0.790   0.479   0.603   0.670   0.951   0.607
   0.439   0.603   0.503   0.496   0.503   0.387   0.299   0.387   0.503   0.496
   0.503   0.603   0.439   0.607   0.951   0.670   0.603   0.479   0.790   0.886
   0.930   0.966   0.874   0.810   0.796   0.810   0.874   0.966   0.930   0.886
   0.790   0.479   0.603   0.670   0.951   0.607   0.439   0.603   0.503   0.496
   0.503   0.387
  4  1      2.7278821E-01
  4  2     -9.1896886E-01
  4  3     -3.9566178E-02
  6  1      2.5311184E+00
  6  2     -2.8957477E+00
  6  3      9.3554765E-01
  6  4      1.9973301E-01
  8  1      2.5582140E-01
  8  2      2.0164751E-01
  8  3      1.6745504E-01
  8  4      6.2272068E-01
  8  5     -7.9429957E-02
 10  1      4.9516612E-02
 10  2     -5.7355427E-01
 10  3      8.9413163E-01
 10  4     -3.0219984E-01
 10  5      1.3219495E-01
 10  6      3.6097084E-02
 12  1     -3.0008200E-01  1.8873675E+00
 12  2     -6.7032433E-02 -2.3169469E+00
 12  3      2.3685166E-01  1.4978676E+00
 12  4      2.9634640E-01 -4.9911226E-01
 12  5     -3.0747975E-02  7.1577104E-02
 12  6     -3.7207515E-01  7.2636536E-02
 12  7      7.7033431E-01  7.1270256E-01
 14  1      1.0336043E-01
 14  2      3.8702198E-02
 14  3     -1.3407018E-01
 14  4      1.1425424E-01
 14  5     -1.7798874E-01
 14  6      2.5651695E-01
 14  7      3.4440659E-01
 14  8      1.1371916E-01
 16  1      5.3827333E-01 -4.5377678E-02
 16  2     -4.8300605E-01 -3.9818004E-03
 16  3      2.3021271E-01  2.8345215E-01
 16  4     -1.6119027E-02 -6.2886795E-01
 16  5      6.8668168E-02  2.1717580E-01
 16  6     -3.0691637E-02 -1.6667640E-01
 16  7      3.6669902E-01 -1.6846497E-01
 16  8      2.2734129E-01  3.4209886E-02
 16  9     -6.0600559E-02 -6.7549616E-02
 220       5.00   72    0 5.00   18    0
   3.533   3.535   3.539   3.545   3.554   3.566   3.579   3.593   3.608   3.624
   3.640   3.655   3.670   3.683   3.694   3.703   3.710   3.714   3.716   3.714
   3.710   3.703   3.694   3.683   3.670   3.655   3.640   3.624   3.608   3.593
   3.579   3.566   3.554   3.545   3.539   3.535   3.533   3.535   3.539   3.545
   3.554   3.566   3.579   3.593   3.608   3.624   3.640   3.655   3.670   3.683
   3.694   3.703   3.710   3.714   3.716   3.714   3.710   3.703   3.694   3.683
   3.670   3.655   3.640   3.624   3.608   3.593   3.579   3.566   3.554   3.545
   3.539   3.535
   2.059   2.068   2.096   2.141   2.202   2.279   2.370   2.472   2.584   2.700
   2.820   2.938   3.051   3.155   3.246   3.320   3.376   3.410   3.422   3.410
   3.376   3.320   3.246   3.155   3.051   2.938   2.820   2.700   2.584   2.472
   2.370   2.279   2.202   2.141   2.096   2.068   2.059   2.068   2.096   2.141
   2.202   2.279   2.370   2.472   2.584   2.700   2.820   2.938   3.051   3.155
   3.246   3.320   3.376   3.410   3.422   3.410   3.376   3.320   3.246   3.155
   3.051   2.938   2.820   2.700   2.584   2.472   2.370   2.279   2.202   2.141
   2.096   2.068
   0.389   0.402   0.441   0.507   0.599   0.719   0.865   1.037   1.233   1.448
   1.677   1.914   2.149   2.372   2.573   2.743   2.871   2.951   2.978   2.951
   2.871   2.743   2.573   2.372   2.149   1.914   1.677   1.448   1.233   1.037
   0.865   0.719   0.599   0.507   0.441   0.402   0.389   0.402   0.441   0.507
   0.599   0.719   0.865   1.037   1.233   1.448   1.677   1.914   2.149   2.372
   2.573   2.743   2.871   2.951   2.978   2.951   2.871   2.743   2.573   2.372
   2.149   1.914   1.677   1.448   1.233   1.037   0.865   0.719   0.599   0.507
   0.441   0.402
  -0.285  -0.279  -0.261  -0.228  -0.176  -0.101   0.004   0.143   0.319   0.534
   0.784   1.064   1.361   1.660   1.943   2.190   2.383   2.505   2.547   2.505
   2.383   2.190   1.943   1.660   1.361   1.064   0.784   0.534   0.319   0.143
   0.004  -0.101  -0.176  -0.228  -0.261  -0.279  -0.285  -0.279  -0.261  -0.228
  -0.176  -0.101   0.004   0.143   0.319   0.534   0.784   1.064   1.361   1.660
   1.943   2.190   2.383   2.505   2.547   2.505   2.383   2.190   1.943   1.660
   1.361   1.064   0.784   0.534   0.319   0.143   0.004  -0.101  -0.176  -0.228
  -0.261  -0.279
   0.035   0.030   0.017  -0.003  -0.022  -0.034  -0.028   0.005   0.079   0.201
   0.377   0.607   0.881   1.183   1.489   1.770   1.997   2.144   2.196   2.144
   1.997   1.770   1.489   1.183   0.881   0.607   0.377   0.201   0.079   0.005
  -0.028  -0.034  -0.022  -0.003   0.017   0.030   0.035   0.030   0.017  -0.003
  -0.022  -0.034  -0.028   0.005   0.079   0.201   0.377   0.607   0.881   1.183
   1.489   1.770   1.997   2.144   2.196   2.144   1.997   1.770   1.489   1.183
   0.881   0.607   0.377   0.201   0.079   0.005  -0.028  -0.034  -0.022  -0.003
   0.017   0.030
   0.476   0.469   0.449   0.417   0.375   0.325   0.275   0.235   0.219   0.244
   0.325   0.469   0.674   0.928   1.205   1.475   1.701   1.851   1.904   1.851
   1.701   1.475   1.205   0.928   0.674   0.469   0.325   0.244   0.219   0.235
   0.275   0.325   0.375   0.417   0.449   0.469   0.476   0.469   0.449   0.417
   0.375   0.325   0.275   0.235   0.219   0.244   0.325   0.469   0.674   0.928
   1.205   1.475   1.701   1.851   1.904   1.851   1.701   1.475   1.205   0.928
   0.674   0.469   0.325   0.244   0.219   0.235   0.275   0.325   0.375   0.417
   0.449   0.469
   0.414   0.415   0.419   0.424   0.429   0.426   0.411   0.385   0.360   0.355
   0.390   0.479   0.624   0.818   1.040   1.265   1.458   1.590   1.637   1.590
   1.458   1.265   1.040   0.818   0.624   0.479   0.390   0.355   0.360   0.385
   0.411   0.426   0.429   0.424   0.419   0.415   0.414   0.415   0.419   0.424
   0.429   0.426   0.411   0.385   0.360   0.355   0.390   0.479   0.624   0.818
   1.040   1.265   1.458   1.590   1.637   1.590   1.458   1.265   1.040   0.818
   0.624   0.479   0.390   0.355   0.360   0.385   0.411   0.426   0.429   0.424
   0.419   0.415
   0.062   0.066   0.084   0.125   0.189   0.261   0.322   0.358   0.378   0.401
   0.451   0.537   0.659   0.806   0.965   1.121   1.257   1.350   1.383   1.350
   1.257   1.121   0.965   0.806   0.659   0.537   0.451   0.401   0.378   0.358
   0.322   0.261   0.189   0.125   0.084   0.066   0.062   0.066   0.084   0.125
   0.189   0.261   0.322   0.358   0.378   0.401   0.451   0.537   0.659   0.806
   0.965   1.121   1.257   1.350   1.383   1.350   1.257   1.121   0.965   0.806
   0.659   0.537   0.451   0.401   0.378   0.358   0.322   0.261   0.189   0.125
   0.084   0.066
   0.096   0.081   0.054   0.055   0.109   0.200   0.289   0.350   0.389   0.436
   0.516   0.628   0.752   0.864   0.956   1.030   1.090   1.132   1.148   1.132
   1.090   1.030   0.956   0.864   0.752   0.628   0.516   0.436   0.389   0.350
   0.289   0.200   0.109   0.055   0.054   0.081   0.096   0.081   0.054   0.055
   0.109   0.200   0.289   0.350   0.389   0.436   0.516   0.628   0.752   0.864
   0.956   1.030   1.090   1.132   1.148   1.132   1.090   1.030   0.956   0.864
   0.752   0.628   0.516   0.436   0.389   0.350   0.289   0.200   0.109   0.055
   0.054   0.081
   0.957   0.891   0.738   0.596   0.533   0.543   0.566   0.560   0.540   0.552
   0.630   0.756   0.879   0.955   0.977   0.966   0.949   0.939   0.937   0.939
   0.949   0.966   0.977   0.955   0.879   0.756   0.630   0.552   0.540   0.560
   0.566   0.543   0.533   0.596   0.738   0.891   0.957   0.891   0.738   0.596
   0.533   0.543   0.566   0.560   0.540   0.552   0.630   0.756   0.879   0.955
   0.977   0.966   0.949   0.939   0.937   0.939   0.949   0.966   0.977   0.955
   0.879   0.756   0.630   0.552   0.540   0.560   0.566   0.543   0.533   0.596
   0.738   0.891
   2.430   2.297   1.974   1.631   1.390   1.254   1.141   0.999   0.852   0.776
   0.807   0.909   1.005   1.034   0.992   0.912   0.834   0.783   0.765   0.783
   0.834   0.912   0.992   1.034   1.005   0.909   0.807   0.776   0.852   0.999
   1.141   1.254   1.390   1.631   1.974   2.297   2.430   2.297   1.974   1.631
   1.390   1.254   1.141   0.999   0.852   0.776   0.807   0.909   1.005   1.034
   0.992   0.912   0.834   0.783   0.765   0.783   0.834   0.912   0.992   1.034
   1.005   0.909   0.807   0.776   0.852   0.999   1.141   1.254   1.390   1.631
   1.974   2.297
   3.691   3.510   3.069   2.587   2.222   1.973   1.743   1.473   1.209   1.042
   1.010   1.059   1.101   1.078   0.992   0.875   0.765   0.687   0.658   0.687
   0.765   0.875   0.992   1.078   1.101   1.059   1.010   1.042   1.209   1.473
   1.743   1.973   2.222   2.587   3.069   3.510   3.691   3.510   3.069   2.587
   2.222   1.973   1.743   1.473   1.209   1.042   1.010   1.059   1.101   1.078
   0.992   0.875   0.765   0.687   0.658   0.687   0.765   0.875   0.992   1.078
   1.101   1.059   1.010   1.042   1.209   1.473   1.743   1.973   2.222   2.587
   3.069   3.510
   3.805   3.635   3.225   2.789   2.470   2.246   2.011   1.716   1.424   1.232
   1.167   1.166   1.149   1.084   0.985   0.871   0.758   0.667   0.631   0.667
   0.758   0.871   0.985   1.084   1.149   1.166   1.167   1.232   1.424   1.716
   2.011   2.246   2.470   2.789   3.225   3.635   3.805   3.635   3.225   2.789
   2.470   2.246   2.011   1.716   1.424   1.232   1.167   1.166   1.149   1.084
   0.985   0.871   0.758   0.667   0.631   0.667   0.758   0.871   0.985   1.084
   1.149   1.166   1.167   1.232   1.424   1.716   2.011   2.246   2.470   2.789
   3.225   3.635
   2.526   2.428   2.206   2.010   1.917   1.871   1.767   1.577   1.375   1.251
   1.214   1.199   1.148   1.067   0.983   0.901   0.807   0.718   0.679   0.718
   0.807   0.901   0.983   1.067   1.148   1.199   1.214   1.251   1.375   1.577
   1.767   1.871   1.917   2.010   2.206   2.428   2.526   2.428   2.206   2.010
   1.917   1.871   1.767   1.577   1.375   1.251   1.214   1.199   1.148   1.067
   0.983   0.901   0.807   0.718   0.679   0.718   0.807   0.901   0.983   1.067
   1.148   1.199   1.214   1.251   1.375   1.577   1.767   1.871   1.917   2.010
   2.206   2.428
   0.701   0.690   0.696   0.778   0.943   1.111   1.191   1.167   1.115   1.110
   1.148   1.167   1.126   1.055   0.997   0.952   0.894   0.827   0.795   0.827
   0.894   0.952   0.997   1.055   1.126   1.167   1.148   1.110   1.115   1.167
   1.191   1.111   0.943   0.778   0.696   0.690   0.701   0.690   0.696   0.778
   0.943   1.111   1.191   1.167   1.115   1.110   1.148   1.167   1.126   1.055
   0.997   0.952   0.894   0.827   0.795   0.827   0.894   0.952   0.997   1.055
   1.126   1.167   1.148   1.110   1.115   1.167   1.191   1.111   0.943   0.778
   0.696   0.690
  -0.373  -0.338  -0.224  -0.024   0.238   0.496   0.679   0.772   0.831   0.921
   1.038   1.122   1.127   1.079   1.035   1.018   1.005   0.983   0.971   0.983
   1.005   1.018   1.035   1.079   1.127   1.122   1.038   0.921   0.831   0.772
   0.679   0.496   0.238  -0.024  -0.224  -0.338  -0.373  -0.338  -0.224  -0.024
   0.238   0.496   0.679   0.772   0.831   0.921   1.038   1.122   1.127   1.079
   1.035   1.018   1.005   0.983   0.971   0.983   1.005   1.018   1.035   1.079
   1.127   1.122   1.038   0.921   0.831   0.772   0.679   0.496   0.238  -0.024
  -0.224  -0.338
  -0.210  -0.189  -0.125  -0.017   0.139   0.320   0.480   0.588   0.673   0.794
   0.960   1.107   1.166   1.139   1.093   1.086   1.117   1.152   1.166   1.152
   1.117   1.086   1.093   1.139   1.166   1.107   0.960   0.794   0.673   0.588
   0.480   0.320   0.139  -0.017  -0.125  -0.189  -0.210  -0.189  -0.125  -0.017
   0.139   0.320   0.480   0.588   0.673   0.794   0.960   1.107   1.166   1.139
   1.093   1.086   1.117   1.152   1.166   1.152   1.117   1.086   1.093   1.139
   1.166   1.107   0.960   0.794   0.673   0.588   0.480   0.320   0.139  -0.017
  -0.125  -0.189
   0.402   0.390   0.358   0.327   0.335   0.400   0.492   0.567   0.634   0.748
   0.931   1.115   1.209   1.192   1.138   1.132   1.190   1.266   1.300   1.266
   1.190   1.132   1.138   1.192   1.209   1.115   0.931   0.748   0.634   0.567
   0.492   0.400   0.335   0.327   0.358   0.390   0.402   0.390   0.358   0.327
   0.335   0.400   0.492   0.567   0.634   0.748   0.931   1.115   1.209   1.192
   1.138   1.132   1.190   1.266   1.300   1.266   1.190   1.132   1.138   1.192
   1.209   1.115   0.931   0.748   0.634   0.567   0.492   0.400   0.335   0.327
   0.358   0.390
 200       5.00   72    0 5.00   18    0
   0.913   0.913   0.915   0.917   0.921   0.925   0.930   0.935   0.941   0.947
   0.953   0.959   0.965   0.970   0.975   0.978   0.981   0.983   0.983   0.983
   0.981   0.978   0.975   0.970   0.965   0.959   0.953   0.947   0.941   0.935
   0.930   0.925   0.921   0.917   0.915   0.913   0.913   0.913   0.915   0.917
   0.921   0.925   0.930   0.935   0.941   0.947   0.953   0.959   0.965   0.970
   0.975   0.978   0.981   0.983   0.983   0.983   0.981   0.978   0.975   0.970
   0.965   0.959   0.953   0.947   0.941   0.935   0.930   0.925   0.921   0.917
   0.915   0.913
   0.514   0.516   0.521   0.531   0.545   0.564   0.587   0.614   0.646   0.681
   0.719   0.759   0.799   0.837   0.871   0.900   0.922   0.936   0.941   0.936
   0.922   0.900   0.871   0.837   0.799   0.759   0.719   0.681   0.646   0.614
   0.587   0.564   0.545   0.531   0.521   0.516   0.514   0.516   0.521   0.531
   0.545   0.564   0.587   0.614   0.646   0.681   0.719   0.759   0.799   0.837
   0.871   0.900   0.922   0.936   0.941   0.936   0.922   0.900   0.871   0.837
   0.799   0.759   0.719   0.681   0.646   0.614   0.587   0.564   0.545   0.531
   0.521   0.516
   0.493   0.489   0.479   0.464   0.447   0.431   0.420   0.417   0.426   0.448
   0.485   0.536   0.598   0.665   0.734   0.797   0.847   0.879   0.891   0.879
   0.847   0.797   0.734   0.665   0.598   0.536   0.485   0.448   0.426   0.417
   0.420   0.431   0.447   0.464   0.479   0.489   0.493   0.489   0.479   0.464
   0.447   0.431   0.420   0.417   0.426   0.448   0.485   0.536   0.598   0.665
   0.734   0.797   0.847   0.879   0.891   0.879   0.847   0.797   0.734   0.665
   0.598   0.536   0.485   0.448   0.426   0.417   0.420   0.431   0.447   0.464
   0.479   0.489
   1.192   1.178   1.135   1.068   0.981   0.880   0.774   0.673   0.585   0.518
   0.481   0.477   0.505   0.560   0.634   0.713   0.783   0.831   0.848   0.831
   0.783   0.713   0.634   0.560   0.505   0.477   0.481   0.518   0.585   0.673
   0.774   0.880   0.981   1.068   1.135   1.178   1.192   1.178   1.135   1.068
   0.981   0.880   0.774   0.673   0.585   0.518   0.481   0.477   0.505   0.560
   0.634   0.713   0.783   0.831   0.848   0.831   0.783   0.713   0.634   0.560
   0.505   0.477   0.481   0.518   0.585   0.673   0.774   0.880   0.981   1.068
   1.135   1.178
   1.956   1.937   1.882   1.794   1.676   1.534   1.374   1.205   1.036   0.878
   0.744   0.646   0.592   0.583   0.614   0.671   0.734   0.782   0.800   0.782
   0.734   0.671   0.614   0.583   0.592   0.646   0.744   0.878   1.036   1.205
   1.374   1.534   1.676   1.794   1.882   1.937   1.956   1.937   1.882   1.794
   1.676   1.534   1.374   1.205   1.036   0.878   0.744   0.646   0.592   0.583
   0.614   0.671   0.734   0.782   0.800   0.782   0.734   0.671   0.614   0.583
   0.592   0.646   0.744   0.878   1.036   1.205   1.374   1.534   1.676   1.794
   1.882   1.937
   2.032   2.019   1.983   1.927   1.856   1.773   1.679   1.570   1.446   1.305
   1.153   1.002   0.868   0.770   0.718   0.711   0.732   0.759   0.770   0.759
   0.732   0.711   0.718   0.770   0.868   1.002   1.153   1.305   1.446   1.570
   1.679   1.773   1.856   1.927   1.983   2.019   2.032   2.019   1.983   1.927
   1.856   1.773   1.679   1.570   1.446   1.305   1.153   1.002   0.868   0.770
   0.718   0.711   0.732   0.759   0.770   0.759   0.732   0.711   0.718   0.770
   0.868   1.002   1.153   1.305   1.446   1.570   1.679   1.773   1.856   1.927
   1.983   2.019
   1.515   1.507   1.486   1.465   1.455   1.466   1.499   1.546   1.586   1.595
   1.550   1.444   1.289   1.121   0.977   0.883   0.842   0.834   0.835   0.834
   0.842   0.883   0.977   1.121   1.289   1.444   1.550   1.595   1.586   1.546
   1.499   1.466   1.455   1.465   1.486   1.507   1.515   1.507   1.486   1.465
   1.455   1.466   1.499   1.546   1.586   1.595   1.550   1.444   1.289   1.121
   0.977   0.883   0.842   0.834   0.835   0.834   0.842   0.883   0.977   1.121
   1.289   1.444   1.550   1.595   1.586   1.546   1.499   1.466   1.455   1.465
   1.486   1.507
   1.000   0.988   0.959   0.932   0.931   0.976   1.080   1.245   1.451   1.652
   1.791   1.815   1.714   1.527   1.322   1.163   1.075   1.043   1.038   1.043
   1.075   1.163   1.322   1.527   1.714   1.815   1.791   1.652   1.451   1.245
   1.080   0.976   0.931   0.932   0.959   0.988   1.000   0.988   0.959   0.932
   0.931   0.976   1.080   1.245   1.451   1.652   1.791   1.815   1.714   1.527
   1.322   1.163   1.075   1.043   1.038   1.043   1.075   1.163   1.322   1.527
   1.714   1.815   1.791   1.652   1.451   1.245   1.080   0.976   0.931   0.932
   0.959   0.988
   0.684   0.672   0.642   0.614   0.604   0.627   0.705   0.869   1.130   1.455
   1.756   1.934   1.932   1.781   1.572   1.402   1.317   1.298   1.299   1.298
   1.317   1.402   1.572   1.781   1.932   1.934   1.756   1.455   1.130   0.869
   0.705   0.627   0.604   0.614   0.642   0.672   0.684   0.672   0.642   0.614
   0.604   0.627   0.705   0.869   1.130   1.455   1.756   1.934   1.932   1.781
   1.572   1.402   1.317   1.298   1.299   1.298   1.317   1.402   1.572   1.781
   1.932   1.934   1.756   1.455   1.130   0.869   0.705   0.627   0.604   0.614
   0.642   0.672
   0.364   0.362   0.366   0.386   0.413   0.430   0.446   0.522   0.726   1.067
   1.452   1.738   1.828   1.736   1.570   1.446   1.412   1.437   1.456   1.437
   1.412   1.446   1.570   1.736   1.828   1.738   1.452   1.067   0.726   0.522
   0.446   0.430   0.413   0.386   0.366   0.362   0.364   0.362   0.366   0.386
   0.413   0.430   0.446   0.522   0.726   1.067   1.452   1.738   1.828   1.736
   1.570   1.446   1.412   1.437   1.456   1.437   1.412   1.446   1.570   1.736
   1.828   1.738   1.452   1.067   0.726   0.522   0.446   0.430   0.413   0.386
   0.366   0.362
   0.069   0.075   0.107   0.182   0.271   0.312   0.287   0.271   0.386   0.682
   1.075   1.393   1.519   1.467   1.352   1.289   1.311   1.371   1.402   1.371
   1.311   1.289   1.352   1.467   1.519   1.393   1.075   0.682   0.386   0.271
   0.287   0.312   0.271   0.182   0.107   0.075   0.069   0.075   0.107   0.182
   0.271   0.312   0.287   0.271   0.386   0.682   1.075   1.393   1.519   1.467
   1.352   1.289   1.311   1.371   1.402   1.371   1.311   1.289   1.352   1.467
   1.519   1.393   1.075   0.682   0.386   0.271   0.287   0.312   0.271   0.182
   0.107   0.075
   0.088   0.080   0.088   0.155   0.258   0.310   0.267   0.206   0.271   0.529
   0.888   1.167   1.256   1.194   1.103   1.073   1.105   1.152   1.173   1.152
   1.105   1.073   1.103   1.194   1.256   1.167   0.888   0.529   0.271   0.206
   0.267   0.310   0.258   0.155   0.088   0.080   0.088   0.080   0.088   0.155
   0.258   0.310   0.267   0.206   0.271   0.529   0.888   1.167   1.256   1.194
   1.103   1.073   1.105   1.152   1.173   1.152   1.105   1.073   1.103   1.194
   1.256   1.167   0.888   0.529   0.271   0.206   0.267   0.310   0.258   0.155
   0.088   0.080
   0.356   0.328   0.287   0.308   0.389   0.443   0.412   0.359   0.423   0.664
   0.974   1.173   1.179   1.066   0.963   0.924   0.918   0.910   0.903   0.910
   0.918   0.924   0.963   1.066   1.179   1.173   0.974   0.664   0.423   0.359
   0.412   0.443   0.389   0.308   0.287   0.328   0.356   0.328   0.287   0.308
   0.389   0.443   0.412   0.359   0.423   0.664   0.974   1.173   1.179   1.066
   0.963   0.924   0.918   0.910   0.903   0.910   0.918   0.924   0.963   1.066
   1.179   1.173   0.974   0.664   0.423   0.359   0.412   0.443   0.389   0.308
   0.287   0.328
   0.455   0.422   0.376   0.402   0.516   0.632   0.666   0.650   0.706   0.901
   1.146   1.275   1.213   1.045   0.905   0.838   0.798   0.755   0.733   0.755
   0.798   0.838   0.905   1.045   1.213   1.275   1.146   0.901   0.706   0.650
   0.666   0.632   0.516   0.402   0.376   0.422   0.455   0.422   0.376   0.402
   0.516   0.632   0.666   0.650   0.706   0.901   1.146   1.275   1.213   1.045
   0.905   0.838   0.798   0.755   0.733   0.755   0.798   0.838   0.905   1.045
   1.213   1.275   1.146   0.901   0.706   0.650   0.666   0.632   0.516   0.402
   0.376   0.422
   0.399   0.371   0.343   0.416   0.621   0.864   1.001   0.990   0.941   0.996
   1.154   1.270   1.215   1.020   0.827   0.733   0.727   0.746   0.755   0.746
   0.727   0.733   0.827   1.020   1.215   1.270   1.154   0.996   0.941   0.990
   1.001   0.864   0.621   0.416   0.343   0.371   0.399   0.371   0.343   0.416
   0.621   0.864   1.001   0.990   0.941   0.996   1.154   1.270   1.215   1.020
   0.827   0.733   0.727   0.746   0.755   0.746   0.727   0.733   0.827   1.020
   1.215   1.270   1.154   0.996   0.941   0.990   1.001   0.864   0.621   0.416
   0.343   0.371
   0.847   0.791   0.696   0.718   0.946   1.279   1.473   1.367   1.073   0.873
   0.927   1.105   1.149   0.959   0.693   0.579   0.688   0.887   0.983   0.887
   0.688   0.579   0.693   0.959   1.149   1.105   0.927   0.873   1.073   1.367
   1.473   1.279   0.946   0.718   0.696   0.791   0.847   0.791   0.696   0.718
   0.946   1.279   1.473   1.367   1.073   0.873   0.927   1.105   1.149   0.959
   0.693   0.579   0.688   0.887   0.983   0.887   0.688   0.579   0.693   0.959
   1.149   1.105   0.927   0.873   1.073   1.367   1.473   1.279   0.946   0.718
   0.696   0.791
   2.093   1.961   1.674   1.488   1.593   1.897   2.049   1.763   1.147   0.649
   0.603   0.888   1.075   0.906   0.558   0.424   0.680   1.108   1.315   1.108
   0.680   0.424   0.558   0.906   1.075   0.888   0.603   0.649   1.147   1.763
   2.049   1.897   1.593   1.488   1.674   1.961   2.093   1.961   1.674   1.488
   1.593   1.897   2.049   1.763   1.147   0.649   0.603   0.888   1.075   0.906
   0.558   0.424   0.680   1.108   1.315   1.108   0.680   0.424   0.558   0.906
   1.075   0.888   0.603   0.649   1.147   1.763   2.049   1.897   1.593   1.488
   1.674   1.961
   3.290   3.085   2.616   2.221   2.173   2.399   2.480   2.041   1.193   0.490
   0.383   0.749   1.039   0.885   0.480   0.331   0.689   1.277   1.560   1.277
   0.689   0.331   0.480   0.885   1.039   0.749   0.383   0.490   1.193   2.041
   2.480   2.399   2.173   2.221   2.616   3.085   3.290   3.085   2.616   2.221
   2.173   2.399   2.480   2.041   1.193   0.490   0.383   0.749   1.039   0.885
   0.480   0.331   0.689   1.277   1.560   1.277   0.689   0.331   0.480   0.885
   1.039   0.749   0.383   0.490   1.193   2.041   2.480   2.399   2.173   2.221
   2.616   3.085
 111       5.00   72    0 5.00   18    0
   0.084   0.085   0.086   0.089   0.092   0.097   0.101   0.107   0.113   0.119
   0.125   0.131   0.136   0.141   0.145   0.149   0.151   0.153   0.154   0.153
   0.151   0.149   0.145   0.141   0.136   0.131   0.125   0.119   0.113   0.107
   0.101   0.097   0.092   0.089   0.086   0.085   0.084   0.085   0.086   0.089
   0.092   0.097   0.101   0.107   0.113   0.119   0.125   0.131   0.136   0.141
   0.145   0.149   0.151   0.153   0.154   0.153   0.151   0.149   0.145   0.141
   0.136   0.131   0.125   0.119   0.113   0.107   0.101   0.097   0.092   0.089
   0.086   0.085
  -0.262  -0.259  -0.251  -0.238  -0.219  -0.196  -0.167  -0.135  -0.099  -0.060
  -0.020   0.020   0.058   0.093   0.125   0.150   0.169   0.181   0.185   0.181
   0.169   0.150   0.125   0.093   0.058   0.020  -0.020  -0.060  -0.099  -0.135
  -0.167  -0.196  -0.219  -0.238  -0.251  -0.259  -0.262  -0.259  -0.251  -0.238
  -0.219  -0.196  -0.167  -0.135  -0.099  -0.060  -0.020   0.020   0.058   0.093
   0.125   0.150   0.169   0.181   0.185   0.181   0.169   0.150   0.125   0.093
   0.058   0.020  -0.020  -0.060  -0.099  -0.135  -0.167  -0.196  -0.219  -0.238
  -0.251  -0.259
  -0.258  -0.260  -0.267  -0.275  -0.281  -0.282  -0.274  -0.255  -0.224  -0.182
  -0.129  -0.071  -0.011   0.048   0.101   0.144   0.177   0.198   0.204   0.198
   0.177   0.144   0.101   0.048  -0.011  -0.071  -0.129  -0.182  -0.224  -0.255
  -0.274  -0.282  -0.281  -0.275  -0.267  -0.260  -0.258  -0.260  -0.267  -0.275
  -0.281  -0.282  -0.274  -0.255  -0.224  -0.182  -0.129  -0.071  -0.011   0.048
   0.101   0.144   0.177   0.198   0.204   0.198   0.177   0.144   0.101   0.048
  -0.011  -0.071  -0.129  -0.182  -0.224  -0.255  -0.274  -0.282  -0.281  -0.275
  -0.267  -0.260
   0.749   0.724   0.654   0.548   0.420   0.287   0.165   0.067   0.001  -0.031
  -0.032  -0.010   0.027   0.069   0.109   0.141   0.165   0.178   0.183   0.178
   0.165   0.141   0.109   0.069   0.027  -0.010  -0.032  -0.031   0.001   0.067
   0.165   0.287   0.420   0.548   0.654   0.724   0.749   0.724   0.654   0.548
   0.420   0.287   0.165   0.067   0.001  -0.031  -0.032  -0.010   0.027   0.069
   0.109   0.141   0.165   0.178   0.183   0.178   0.165   0.141   0.109   0.069
   0.027  -0.010  -0.032  -0.031   0.001   0.067   0.165   0.287   0.420   0.548
   0.654   0.724
   2.555   2.498   2.334   2.082   1.771   1.433   1.103   0.809   0.570   0.395
   0.281   0.219   0.191   0.182   0.177   0.171   0.163   0.156   0.153   0.156
   0.163   0.171   0.177   0.182   0.191   0.219   0.281   0.395   0.570   0.809
   1.103   1.433   1.771   2.082   2.334   2.498   2.555   2.498   2.334   2.082
   1.771   1.433   1.103   0.809   0.570   0.395   0.281   0.219   0.191   0.182
   0.177   0.171   0.163   0.156   0.153   0.156   0.163   0.171   0.177   0.182
   0.191   0.219   0.281   0.395   0.570   0.809   1.103   1.433   1.771   2.082
   2.334   2.498
   4.053   3.983   3.781   3.464   3.061   2.605   2.134   1.682   1.281   0.952
   0.703   0.529   0.415   0.342   0.291   0.250   0.216   0.193   0.185   0.193
   0.216   0.250   0.291   0.342   0.415   0.529   0.703   0.952   1.281   1.682
   2.134   2.605   3.061   3.464   3.781   3.983   4.053   3.983   3.781   3.464
   3.061   2.605   2.134   1.682   1.281   0.952   0.703   0.529   0.415   0.342
   0.291   0.250   0.216   0.193   0.185   0.193   0.216   0.250   0.291   0.342
   0.415   0.529   0.703   0.952   1.281   1.682   2.134   2.605   3.061   3.464
   3.781   3.983
   4.152   4.112   3.994   3.799   3.531   3.195   2.798   2.360   1.911   1.487
   1.122   0.835   0.630   0.495   0.411   0.360   0.330   0.313   0.307   0.313
   0.330   0.360   0.411   0.495   0.630   0.835   1.122   1.487   1.911   2.360
   2.798   3.195   3.531   3.799   3.994   4.112   4.152   4.112   3.994   3.799
   3.531   3.195   2.798   2.360   1.911   1.487   1.122   0.835   0.630   0.495
   0.411   0.360   0.330   0.313   0.307   0.313   0.330   0.360   0.411   0.495
   0.630   0.835   1.122   1.487   1.911   2.360   2.798   3.195   3.531   3.799
   3.994   4.112
   2.813   2.826   2.862   2.910   2.943   2.922   2.808   2.582   2.254   1.865
   1.470   1.118   0.840   0.646   0.530   0.476   0.460   0.462   0.465   0.462
   0.460   0.476   0.530   0.646   0.840   1.118   1.470   1.865   2.254   2.582
   2.808   2.922   2.943   2.910   2.862   2.826   2.813   2.826   2.862   2.910
   2.943   2.922   2.808   2.582   2.254   1.865   1.470   1.118   0.840   0.646
   0.530   0.476   0.460   0.462   0.465   0.462   0.460   0.476   0.530   0.646
   0.840   1.118   1.470   1.865   2.254   2.582   2.808   2.922   2.943   2.910
   2.862   2.826
   1.086   1.127   1.250   1.454   1.713   1.974   2.167   2.235   2.157   1.955
   1.676   1.371   1.084   0.848   0.683   0.594   0.567   0.573   0.580   0.573
   0.567   0.594   0.683   0.848   1.084   1.371   1.676   1.955   2.157   2.235
   2.167   1.974   1.713   1.454   1.250   1.127   1.086   1.127   1.250   1.454
   1.713   1.974   2.167   2.235   2.157   1.955   1.676   1.371   1.084   0.848
   0.683   0.594   0.567   0.573   0.580   0.573   0.567   0.594   0.683   0.848
   1.084   1.371   1.676   1.955   2.157   2.235   2.167   1.974   1.713   1.454
   1.250   1.127
   0.075   0.097   0.176   0.336   0.588   0.904   1.226   1.493   1.662   1.721
   1.674   1.535   1.329   1.092   0.877   0.728   0.659   0.645   0.646   0.645
   0.659   0.728   0.877   1.092   1.329   1.535   1.674   1.721   1.662   1.493
   1.226   0.904   0.588   0.336   0.176   0.097   0.075   0.097   0.176   0.336
   0.588   0.904   1.226   1.493   1.662   1.721   1.674   1.535   1.329   1.092
   0.877   0.728   0.659   0.645   0.646   0.645   0.659   0.728   0.877   1.092
   1.329   1.535   1.674   1.721   1.662   1.493   1.226   0.904   0.588   0.336
   0.176   0.097
  -0.042  -0.048  -0.052  -0.018   0.086   0.269   0.516   0.798   1.075   1.311
   1.469   1.515   1.437   1.261   1.048   0.872   0.772   0.738   0.734   0.738
   0.772   0.872   1.048   1.261   1.437   1.515   1.469   1.311   1.075   0.798
   0.516   0.269   0.086  -0.018  -0.052  -0.048  -0.042  -0.048  -0.052  -0.018
   0.086   0.269   0.516   0.798   1.075   1.311   1.469   1.515   1.437   1.261
   1.048   0.872   0.772   0.738   0.734   0.738   0.772   0.872   1.048   1.261
   1.437   1.515   1.469   1.311   1.075   0.798   0.516   0.269   0.086  -0.018
  -0.052  -0.048
   0.121   0.122   0.123   0.128   0.149   0.205   0.321   0.501   0.726   0.959
   1.157   1.280   1.307   1.240   1.118   0.996   0.917   0.885   0.879   0.885
   0.917   0.996   1.118   1.240   1.307   1.280   1.157   0.959   0.726   0.501
   0.321   0.205   0.149   0.128   0.123   0.122   0.121   0.122   0.123   0.128
   0.149   0.205   0.321   0.501   0.726   0.959   1.157   1.280   1.307   1.240
   1.118   0.996   0.917   0.885   0.879   0.885   0.917   0.996   1.118   1.240
   1.307   1.280   1.157   0.959   0.726   0.501   0.321   0.205   0.149   0.128
   0.123   0.122
   0.078   0.109   0.181   0.256   0.310   0.355   0.425   0.533   0.660   0.772
   0.860   0.936   1.010   1.068   1.091   1.078   1.050   1.029   1.023   1.029
   1.050   1.078   1.091   1.068   1.010   0.936   0.860   0.772   0.660   0.533
   0.425   0.355   0.310   0.256   0.181   0.109   0.078   0.109   0.181   0.256
   0.310   0.355   0.425   0.533   0.660   0.772   0.860   0.936   1.010   1.068
   1.091   1.078   1.050   1.029   1.023   1.029   1.050   1.078   1.091   1.068
   1.010   0.936   0.860   0.772   0.660   0.533   0.425   0.355   0.310   0.256
   0.181   0.109
  -0.009   0.021   0.096   0.181   0.258   0.341   0.452   0.580   0.673   0.691
   0.662   0.667   0.760   0.912   1.048   1.114   1.119   1.102   1.093   1.102
   1.119   1.114   1.048   0.912   0.760   0.667   0.662   0.691   0.673   0.580
   0.452   0.341   0.258   0.181   0.096   0.021  -0.009   0.021   0.096   0.181
   0.258   0.341   0.452   0.580   0.673   0.691   0.662   0.667   0.760   0.912
   1.048   1.114   1.119   1.102   1.093   1.102   1.119   1.114   1.048   0.912
   0.760   0.667   0.662   0.691   0.673   0.580   0.452   0.341   0.258   0.181
   0.096   0.021
   0.276   0.260   0.224   0.197   0.212   0.290   0.427   0.577   0.666   0.658
   0.604   0.607   0.720   0.895   1.039   1.106   1.122   1.126   1.128   1.126
   1.122   1.106   1.039   0.895   0.720   0.607   0.604   0.658   0.666   0.577
   0.427   0.290   0.212   0.197   0.224   0.260   0.276   0.260   0.224   0.197
   0.212   0.290   0.427   0.577   0.666   0.658   0.604   0.607   0.720   0.895
   1.039   1.106   1.122   1.126   1.128   1.126   1.122   1.106   1.039   0.895
   0.720   0.607   0.604   0.658   0.666   0.577   0.427   0.290   0.212   0.197
   0.224   0.260
   0.999   0.934   0.788   0.664   0.628   0.673   0.746   0.792   0.777   0.720
   0.689   0.745   0.874   0.989   1.034   1.047   1.102   1.196   1.245   1.196
   1.102   1.047   1.034   0.989   0.874   0.745   0.689   0.720   0.777   0.792
   0.746   0.673   0.628   0.664   0.788   0.934   0.999   0.934   0.788   0.664
   0.628   0.673   0.746   0.792   0.777   0.720   0.689   0.745   0.874   0.989
   1.034   1.047   1.102   1.196   1.245   1.196   1.102   1.047   1.034   0.989
   0.874   0.745   0.689   0.720   0.777   0.792   0.746   0.673   0.628   0.664
   0.788   0.934
   1.808   1.735   1.591   1.509   1.536   1.584   1.534   1.347   1.094   0.901
   0.861   0.962   1.080   1.087   0.992   0.954   1.099   1.347   1.471   1.347
   1.099   0.954   0.992   1.087   1.080   0.962   0.861   0.901   1.094   1.347
   1.534   1.584   1.536   1.509   1.591   1.735   1.808   1.735   1.591   1.509
   1.536   1.584   1.534   1.347   1.094   0.901   0.861   0.962   1.080   1.087
   0.992   0.954   1.099   1.347   1.471   1.347   1.099   0.954   0.992   1.087
   1.080   0.962   0.861   0.901   1.094   1.347   1.534   1.584   1.536   1.509
   1.591   1.735
   2.308   2.253   2.170   2.193   2.325   2.405   2.259   1.872   1.405   1.075
   1.000   1.114   1.210   1.132   0.941   0.881   1.110   1.485   1.669   1.485
   1.110   0.881   0.941   1.132   1.210   1.114   1.000   1.075   1.405   1.872
   2.259   2.405   2.325   2.193   2.170   2.253   2.308   2.253   2.170   2.193
   2.325   2.405   2.259   1.872   1.405   1.075   1.000   1.114   1.210   1.132
   0.941   0.881   1.110   1.485   1.669   1.485   1.110   0.881   0.941   1.132
   1.210   1.114   1.000   1.075   1.405   1.872   2.259   2.405   2.325   2.193
   2.170   2.253
TEXTURE_INDEX=   2.9677
ERR_CF 220         1080     518   45.81   27.82
ERR_CF 200         1080     418   32.04   15.51
ERR_CF 111         1080     278   41.88    8.18
