TEXEVAL                                                                         
Analysis started on 15-Feb-19 10:49:01                                          
 LMAX=16LFMAX=03 CUBIC ORTHO   
 220      5.00 5.00
 200      5.00 5.00
 111      5.00 5.00
 220       5.00   72    0 5.00   15    0
   5.111   5.111   5.111   5.111   5.111   5.111   5.111   5.111   5.111   5.111
   5.111   5.111   5.111   5.111   5.111   5.111   5.111   5.111   5.111   5.111
   5.111   5.111   5.111   5.111   5.111   5.111   5.111   5.111   5.111   5.111
   5.111   5.111   5.111   5.111   5.111   5.111   5.111   5.111   5.111   5.111
   5.111   5.111   5.111   5.111   5.111   5.111   5.111   5.111   5.111   5.111
   5.111   5.111   5.111   5.111   5.111   5.111   5.111   5.111   5.111   5.111
   5.111   5.111   5.111   5.111   5.111   5.111   5.111   5.111   5.111   5.111
   5.111   5.111
   1.657   1.693   1.689   1.824   1.878   1.936   2.132   2.256   2.481   2.791
   3.060   3.435   3.910   4.403   4.901   5.364   5.648   5.925   6.012   5.925
   5.648   5.364   4.901   4.403   3.910   3.435   3.060   2.791   2.481   2.256
   2.132   1.936   1.878   1.824   1.689   1.693   1.657   1.693   1.689   1.824
   1.878   1.936   2.132   2.256   2.481   2.791   3.060   3.435   3.910   4.403
   4.901   5.364   5.648   5.925   6.012   5.925   5.648   5.364   4.901   4.403
   3.910   3.435   3.060   2.791   2.481   2.256   2.132   1.936   1.878   1.824
   1.689   1.693
   0.315   0.358   0.328   0.394   0.427   0.416   0.497   0.654   0.786   1.065
   1.283   1.741   2.182   3.014   3.722   4.647   5.465   6.058   6.352   6.058
   5.465   4.647   3.722   3.014   2.182   1.741   1.283   1.065   0.786   0.654
   0.497   0.416   0.427   0.394   0.328   0.358   0.315   0.358   0.328   0.394
   0.427   0.416   0.497   0.654   0.786   1.065   1.283   1.741   2.182   3.014
   3.722   4.647   5.465   6.058   6.352   6.058   5.465   4.647   3.722   3.014
   2.182   1.741   1.283   1.065   0.786   0.654   0.497   0.416   0.427   0.394
   0.328   0.358
   0.216   0.177   0.179   0.201   0.206   0.162   0.169   0.224   0.320   0.422
   0.504   0.775   1.196   1.859   2.757   4.001   5.426   6.424   6.790   6.424
   5.426   4.001   2.757   1.859   1.196   0.775   0.504   0.422   0.320   0.224
   0.169   0.162   0.206   0.201   0.179   0.177   0.216   0.177   0.179   0.201
   0.206   0.162   0.169   0.224   0.320   0.422   0.504   0.775   1.196   1.859
   2.757   4.001   5.426   6.424   6.790   6.424   5.426   4.001   2.757   1.859
   1.196   0.775   0.504   0.422   0.320   0.224   0.169   0.162   0.206   0.201
   0.179   0.177
   0.186   0.118   0.132   0.138   0.158   0.126   0.135   0.192   0.248   0.256
   0.255   0.362   0.683   1.028   1.905   3.186   4.951   6.348   7.150   6.348
   4.951   3.186   1.905   1.028   0.683   0.362   0.255   0.256   0.248   0.192
   0.135   0.126   0.158   0.138   0.132   0.118   0.186   0.118   0.132   0.138
   0.158   0.126   0.135   0.192   0.248   0.256   0.255   0.362   0.683   1.028
   1.905   3.186   4.951   6.348   7.150   6.348   4.951   3.186   1.905   1.028
   0.683   0.362   0.255   0.256   0.248   0.192   0.135   0.126   0.158   0.138
   0.132   0.118
   0.099   0.110   0.119   0.102   0.112   0.127   0.127   0.166   0.208   0.255
   0.206   0.346   0.444   0.864   1.645   2.903   4.407   5.431   5.863   5.431
   4.407   2.903   1.645   0.864   0.444   0.346   0.206   0.255   0.208   0.166
   0.127   0.127   0.112   0.102   0.119   0.110   0.099   0.110   0.119   0.102
   0.112   0.127   0.127   0.166   0.208   0.255   0.206   0.346   0.444   0.864
   1.645   2.903   4.407   5.431   5.863   5.431   4.407   2.903   1.645   0.864
   0.444   0.346   0.206   0.255   0.208   0.166   0.127   0.127   0.112   0.102
   0.119   0.110
   0.103   0.099   0.110   0.132   0.107   0.121   0.110   0.141   0.172   0.242
   0.172   0.423   0.561   1.175   2.039   3.240   3.739   3.572   3.317   3.572
   3.739   3.240   2.039   1.175   0.561   0.423   0.172   0.242   0.172   0.141
   0.110   0.121   0.107   0.132   0.110   0.099   0.103   0.099   0.110   0.132
   0.107   0.121   0.110   0.141   0.172   0.242   0.172   0.423   0.561   1.175
   2.039   3.240   3.739   3.572   3.317   3.572   3.739   3.240   2.039   1.175
   0.561   0.423   0.172   0.242   0.172   0.141   0.110   0.121   0.107   0.132
   0.110   0.099
   0.069   0.087   0.071   0.132   0.095   0.106   0.086   0.136   0.190   0.213
   0.224   0.422   0.707   1.542   2.561   3.310   2.706   1.629   1.376   1.629
   2.706   3.310   2.561   1.542   0.707   0.422   0.224   0.213   0.190   0.136
   0.086   0.106   0.095   0.132   0.071   0.087   0.069   0.087   0.071   0.132
   0.095   0.106   0.086   0.136   0.190   0.213   0.224   0.422   0.707   1.542
   2.561   3.310   2.706   1.629   1.376   1.629   2.706   3.310   2.561   1.542
   0.707   0.422   0.224   0.213   0.190   0.136   0.086   0.106   0.095   0.132
   0.071   0.087
   0.048   0.144   0.138   0.141   0.121   0.124   0.143   0.112   0.208   0.211
   0.287   0.389   0.699   1.580   2.863   2.673   1.623   0.623   0.465   0.623
   1.623   2.673   2.863   1.580   0.699   0.389   0.287   0.211   0.208   0.112
   0.143   0.124   0.121   0.141   0.138   0.144   0.048   0.144   0.138   0.141
   0.121   0.124   0.143   0.112   0.208   0.211   0.287   0.389   0.699   1.580
   2.863   2.673   1.623   0.623   0.465   0.623   1.623   2.673   2.863   1.580
   0.699   0.389   0.287   0.211   0.208   0.112   0.143   0.124   0.121   0.141
   0.138   0.144
   0.426   0.344   0.294   0.152   0.221   0.126   0.175   0.128   0.193   0.223
   0.204   0.310   0.645   1.436   2.728   1.869   0.832   0.259   0.213   0.259
   0.832   1.869   2.728   1.436   0.645   0.310   0.204   0.223   0.193   0.128
   0.175   0.126   0.221   0.152   0.294   0.344   0.426   0.344   0.294   0.152
   0.221   0.126   0.175   0.128   0.193   0.223   0.204   0.310   0.645   1.436
   2.728   1.869   0.832   0.259   0.213   0.259   0.832   1.869   2.728   1.436
   0.645   0.310   0.204   0.223   0.193   0.128   0.175   0.126   0.221   0.152
   0.294   0.344
   2.670   2.068   1.168   0.466   0.533   0.233   0.231   0.213   0.192   0.260
   0.118   0.399   0.623   1.193   2.313   1.333   0.442   0.152   0.091   0.152
   0.442   1.333   2.313   1.193   0.623   0.399   0.118   0.260   0.192   0.213
   0.231   0.233   0.533   0.466   1.168   2.068   2.670   2.068   1.168   0.466
   0.533   0.233   0.231   0.213   0.192   0.260   0.118   0.399   0.623   1.193
   2.313   1.333   0.442   0.152   0.091   0.152   0.442   1.333   2.313   1.193
   0.623   0.399   0.118   0.260   0.192   0.213   0.231   0.233   0.533   0.466
   1.168   2.068
   8.406   6.537   3.735   1.564   1.172   0.616   0.465   0.391   0.154   0.308
   0.168   0.464   0.690   0.970   1.708   0.961   0.318   0.170   0.033   0.170
   0.318   0.961   1.708   0.970   0.690   0.464   0.168   0.308   0.154   0.391
   0.465   0.616   1.172   1.564   3.735   6.537   8.406   6.537   3.735   1.564
   1.172   0.616   0.465   0.391   0.154   0.308   0.168   0.464   0.690   0.970
   1.708   0.961   0.318   0.170   0.033   0.170   0.318   0.961   1.708   0.970
   0.690   0.464   0.168   0.308   0.154   0.391   0.465   0.616   1.172   1.564
   3.735   6.537
   9.103   7.149   4.687   2.793   2.035   1.507   1.008   0.712   0.378   0.394
   0.237   0.470   0.540   0.641   1.467   0.992   0.338   0.193   0.080   0.193
   0.338   0.992   1.467   0.641   0.540   0.470   0.237   0.394   0.378   0.712
   1.008   1.507   2.035   2.793   4.687   7.149   9.103   7.149   4.687   2.793
   2.035   1.507   1.008   0.712   0.378   0.394   0.237   0.470   0.540   0.641
   1.467   0.992   0.338   0.193   0.080   0.193   0.338   0.992   1.467   0.641
   0.540   0.470   0.237   0.394   0.378   0.712   1.008   1.507   2.035   2.793
   4.687   7.149
   3.405   2.865   2.264   2.259   1.816   1.839   1.441   1.407   1.178   0.692
   0.425   0.427   0.449   0.388   1.419   1.238   0.480   0.298   0.202   0.298
   0.480   1.238   1.419   0.388   0.449   0.427   0.425   0.692   1.178   1.407
   1.441   1.839   1.816   2.259   2.264   2.865   3.405   2.865   2.264   2.259
   1.816   1.839   1.441   1.407   1.178   0.692   0.425   0.427   0.449   0.388
   1.419   1.238   0.480   0.298   0.202   0.298   0.480   1.238   1.419   0.388
   0.449   0.427   0.425   0.692   1.178   1.407   1.441   1.839   1.816   2.259
   2.264   2.865
   0.528   0.581   0.426   0.829   0.670   0.908   1.123   1.402   1.614   1.243
   0.976   0.491   0.407   0.280   1.100   1.297   0.707   0.499   0.349   0.499
   0.707   1.297   1.100   0.280   0.407   0.491   0.976   1.243   1.614   1.402
   1.123   0.908   0.670   0.829   0.426   0.581   0.528   0.581   0.426   0.829
   0.670   0.908   1.123   1.402   1.614   1.243   0.976   0.491   0.407   0.280
   1.100   1.297   0.707   0.499   0.349   0.499   0.707   1.297   1.100   0.280
   0.407   0.491   0.976   1.243   1.614   1.402   1.123   0.908   0.670   0.829
   0.426   0.581
 200       5.00   72    0 5.00   15    0
   0.181   0.181   0.181   0.181   0.181   0.181   0.181   0.181   0.181   0.181
   0.181   0.181   0.181   0.181   0.181   0.181   0.181   0.181   0.181   0.181
   0.181   0.181   0.181   0.181   0.181   0.181   0.181   0.181   0.181   0.181
   0.181   0.181   0.181   0.181   0.181   0.181   0.181   0.181   0.181   0.181
   0.181   0.181   0.181   0.181   0.181   0.181   0.181   0.181   0.181   0.181
   0.181   0.181   0.181   0.181   0.181   0.181   0.181   0.181   0.181   0.181
   0.181   0.181   0.181   0.181   0.181   0.181   0.181   0.181   0.181   0.181
   0.181   0.181
   0.219   0.209   0.211   0.207   0.208   0.213   0.213   0.199   0.203   0.195
   0.197   0.204   0.195   0.185   0.192   0.200   0.167   0.179   0.179   0.179
   0.167   0.200   0.192   0.185   0.195   0.204   0.197   0.195   0.203   0.199
   0.213   0.213   0.208   0.207   0.211   0.209   0.219   0.209   0.211   0.207
   0.208   0.213   0.213   0.199   0.203   0.195   0.197   0.204   0.195   0.185
   0.192   0.200   0.167   0.179   0.179   0.179   0.167   0.200   0.192   0.185
   0.195   0.204   0.197   0.195   0.203   0.199   0.213   0.213   0.208   0.207
   0.211   0.209
   0.263   0.247   0.262   0.248   0.227   0.229   0.228   0.209   0.199   0.214
   0.179   0.161   0.177   0.191   0.159   0.183   0.143   0.179   0.142   0.179
   0.143   0.183   0.159   0.191   0.177   0.161   0.179   0.214   0.199   0.209
   0.228   0.229   0.227   0.248   0.262   0.247   0.263   0.247   0.262   0.248
   0.227   0.229   0.228   0.209   0.199   0.214   0.179   0.161   0.177   0.191
   0.159   0.183   0.143   0.179   0.142   0.179   0.143   0.183   0.159   0.191
   0.177   0.161   0.179   0.214   0.199   0.209   0.228   0.229   0.227   0.248
   0.262   0.247
   0.464   0.433   0.459   0.421   0.370   0.309   0.298   0.274   0.251   0.266
   0.205   0.152   0.175   0.166   0.168   0.163   0.146   0.192   0.146   0.192
   0.146   0.163   0.168   0.166   0.175   0.152   0.205   0.266   0.251   0.274
   0.298   0.309   0.370   0.421   0.459   0.433   0.464   0.433   0.459   0.421
   0.370   0.309   0.298   0.274   0.251   0.266   0.205   0.152   0.175   0.166
   0.168   0.163   0.146   0.192   0.146   0.192   0.146   0.163   0.168   0.166
   0.175   0.152   0.205   0.266   0.251   0.274   0.298   0.309   0.370   0.421
   0.459   0.433
   1.362   1.307   1.292   1.141   1.022   0.875   0.675   0.588   0.429   0.347
   0.259   0.186   0.160   0.135   0.132   0.136   0.139   0.176   0.142   0.176
   0.139   0.136   0.132   0.135   0.160   0.186   0.259   0.347   0.429   0.588
   0.675   0.875   1.022   1.141   1.292   1.307   1.362   1.307   1.292   1.141
   1.022   0.875   0.675   0.588   0.429   0.347   0.259   0.186   0.160   0.135
   0.132   0.136   0.139   0.176   0.142   0.176   0.139   0.136   0.132   0.135
   0.160   0.186   0.259   0.347   0.429   0.588   0.675   0.875   1.022   1.141
   1.292   1.307
   3.406   3.151   3.206   3.057   2.862   2.632   2.253   1.760   1.265   0.854
   0.453   0.299   0.180   0.183   0.141   0.150   0.139   0.140   0.109   0.140
   0.139   0.150   0.141   0.183   0.180   0.299   0.453   0.854   1.265   1.760
   2.253   2.632   2.862   3.057   3.206   3.151   3.406   3.151   3.206   3.057
   2.862   2.632   2.253   1.760   1.265   0.854   0.453   0.299   0.180   0.183
   0.141   0.150   0.139   0.140   0.109   0.140   0.139   0.150   0.141   0.183
   0.180   0.299   0.453   0.854   1.265   1.760   2.253   2.632   2.862   3.057
   3.206   3.151
   3.501   3.365   3.543   3.771   3.741   3.913   3.965   3.579   3.058   2.230
   1.300   0.801   0.471   0.302   0.259   0.209   0.221   0.199   0.191   0.199
   0.221   0.209   0.259   0.302   0.471   0.801   1.300   2.230   3.058   3.579
   3.965   3.913   3.741   3.771   3.543   3.365   3.501   3.365   3.543   3.771
   3.741   3.913   3.965   3.579   3.058   2.230   1.300   0.801   0.471   0.302
   0.259   0.209   0.221   0.199   0.191   0.199   0.221   0.209   0.259   0.302
   0.471   0.801   1.300   2.230   3.058   3.579   3.965   3.913   3.741   3.771
   3.543   3.365
   1.327   1.424   1.582   1.879   1.968   2.517   2.941   3.468   3.636   3.564
   2.737   1.873   1.137   0.611   0.474   0.402   0.389   0.358   0.411   0.358
   0.389   0.402   0.474   0.611   1.137   1.873   2.737   3.564   3.636   3.468
   2.941   2.517   1.968   1.879   1.582   1.424   1.327   1.424   1.582   1.879
   1.968   2.517   2.941   3.468   3.636   3.564   2.737   1.873   1.137   0.611
   0.474   0.402   0.389   0.358   0.411   0.358   0.389   0.402   0.474   0.611
   1.137   1.873   2.737   3.564   3.636   3.468   2.941   2.517   1.968   1.879
   1.582   1.424
   0.183   0.279   0.306   0.376   0.368   0.632   0.931   1.452   2.039   2.998
   3.333   2.943   2.023   1.214   0.787   0.586   0.565   0.420   0.533   0.420
   0.565   0.586   0.787   1.214   2.023   2.943   3.333   2.998   2.039   1.452
   0.931   0.632   0.368   0.376   0.306   0.279   0.183   0.279   0.306   0.376
   0.368   0.632   0.931   1.452   2.039   2.998   3.333   2.943   2.023   1.214
   0.787   0.586   0.565   0.420   0.533   0.420   0.565   0.586   0.787   1.214
   2.023   2.943   3.333   2.998   2.039   1.452   0.931   0.632   0.368   0.376
   0.306   0.279
   0.082   0.173   0.113   0.160   0.144   0.126   0.275   0.362   0.657   1.384
   2.458   3.371   2.908   1.878   1.012   0.651   0.570   0.414   0.422   0.414
   0.570   0.651   1.012   1.878   2.908   3.371   2.458   1.384   0.657   0.362
   0.275   0.126   0.144   0.160   0.113   0.173   0.082   0.173   0.113   0.160
   0.144   0.126   0.275   0.362   0.657   1.384   2.458   3.371   2.908   1.878
   1.012   0.651   0.570   0.414   0.422   0.414   0.570   0.651   1.012   1.878
   2.908   3.371   2.458   1.384   0.657   0.362   0.275   0.126   0.144   0.160
   0.113   0.173
   0.082   0.133   0.073   0.144   0.136   0.059   0.116   0.284   0.300   0.588
   1.541   3.266   3.862   2.068   0.917   0.605   0.368   0.315   0.241   0.315
   0.368   0.605   0.917   2.068   3.862   3.266   1.541   0.588   0.300   0.284
   0.116   0.059   0.136   0.144   0.073   0.133   0.082   0.133   0.073   0.144
   0.136   0.059   0.116   0.284   0.300   0.588   1.541   3.266   3.862   2.068
   0.917   0.605   0.368   0.315   0.241   0.315   0.368   0.605   0.917   2.068
   3.862   3.266   1.541   0.588   0.300   0.284   0.116   0.059   0.136   0.144
   0.073   0.133
   0.107   0.092   0.075   0.110   0.097   0.017   0.048   0.182   0.231   0.510
   1.398   3.401   4.248   1.752   0.595   0.436   0.171   0.128   0.075   0.128
   0.171   0.436   0.595   1.752   4.248   3.401   1.398   0.510   0.231   0.182
   0.048   0.017   0.097   0.110   0.075   0.092   0.107   0.092   0.075   0.110
   0.097   0.017   0.048   0.182   0.231   0.510   1.398   3.401   4.248   1.752
   0.595   0.436   0.171   0.128   0.075   0.128   0.171   0.436   0.595   1.752
   4.248   3.401   1.398   0.510   0.231   0.182   0.048   0.017   0.097   0.110
   0.075   0.092
   0.173   0.096   0.110   0.106   0.094   0.049   0.167   0.134   0.352   0.901
   2.140   3.789   3.353   1.276   0.398   0.338   0.113   0.088   0.099   0.088
   0.113   0.338   0.398   1.276   3.353   3.789   2.140   0.901   0.352   0.134
   0.167   0.049   0.094   0.106   0.110   0.096   0.173   0.096   0.110   0.106
   0.094   0.049   0.167   0.134   0.352   0.901   2.140   3.789   3.353   1.276
   0.398   0.338   0.113   0.088   0.099   0.088   0.113   0.338   0.398   1.276
   3.353   3.789   2.140   0.901   0.352   0.134   0.167   0.049   0.094   0.106
   0.110   0.096
   0.213   0.181   0.124   0.185   0.206   0.172   0.440   0.491   1.163   2.098
   3.418   2.968   1.864   0.696   0.388   0.368   0.295   0.158   0.190   0.158
   0.295   0.368   0.388   0.696   1.864   2.968   3.418   2.098   1.163   0.491
   0.440   0.172   0.206   0.185   0.124   0.181   0.213   0.181   0.124   0.185
   0.206   0.172   0.440   0.491   1.163   2.098   3.418   2.968   1.864   0.696
   0.388   0.368   0.295   0.158   0.190   0.158   0.295   0.368   0.388   0.696
   1.864   2.968   3.418   2.098   1.163   0.491   0.440   0.172   0.206   0.185
   0.124   0.181
   0.398   0.195   0.152   0.333   0.275   0.400   0.704   1.273   2.654   3.352
   3.246   1.426   0.897   0.504   0.418   0.422   0.328   0.277   0.228   0.277
   0.328   0.422   0.418   0.504   0.897   1.426   3.246   3.352   2.654   1.273
   0.704   0.400   0.275   0.333   0.152   0.195   0.398   0.195   0.152   0.333
   0.275   0.400   0.704   1.273   2.654   3.352   3.246   1.426   0.897   0.504
   0.418   0.422   0.328   0.277   0.228   0.277   0.328   0.422   0.418   0.504
   0.897   1.426   3.246   3.352   2.654   1.273   0.704   0.400   0.275   0.333
   0.152   0.195
 111       5.00   72    0 5.00   15    0
   0.092   0.092   0.092   0.092   0.092   0.092   0.092   0.092   0.092   0.092
   0.092   0.092   0.092   0.092   0.092   0.092   0.092   0.092   0.092   0.092
   0.092   0.092   0.092   0.092   0.092   0.092   0.092   0.092   0.092   0.092
   0.092   0.092   0.092   0.092   0.092   0.092   0.092   0.092   0.092   0.092
   0.092   0.092   0.092   0.092   0.092   0.092   0.092   0.092   0.092   0.092
   0.092   0.092   0.092   0.092   0.092   0.092   0.092   0.092   0.092   0.092
   0.092   0.092   0.092   0.092   0.092   0.092   0.092   0.092   0.092   0.092
   0.092   0.092
   0.112   0.109   0.121   0.120   0.102   0.108   0.099   0.094   0.101   0.098
   0.099   0.097   0.089   0.092   0.090   0.097   0.090   0.091   0.098   0.091
   0.090   0.097   0.090   0.092   0.089   0.097   0.099   0.098   0.101   0.094
   0.099   0.108   0.102   0.120   0.121   0.109   0.112   0.109   0.121   0.120
   0.102   0.108   0.099   0.094   0.101   0.098   0.099   0.097   0.089   0.092
   0.090   0.097   0.090   0.091   0.098   0.091   0.090   0.097   0.090   0.092
   0.089   0.097   0.099   0.098   0.101   0.094   0.099   0.108   0.102   0.120
   0.121   0.109
   0.332   0.342   0.304   0.273   0.207   0.184   0.158   0.133   0.122   0.107
   0.102   0.101   0.090   0.083   0.086   0.094   0.087   0.085   0.091   0.085
   0.087   0.094   0.086   0.083   0.090   0.101   0.102   0.107   0.122   0.133
   0.158   0.184   0.207   0.273   0.304   0.342   0.332   0.342   0.304   0.273
   0.207   0.184   0.158   0.133   0.122   0.107   0.102   0.101   0.090   0.083
   0.086   0.094   0.087   0.085   0.091   0.085   0.087   0.094   0.086   0.083
   0.090   0.101   0.102   0.107   0.122   0.133   0.158   0.184   0.207   0.273
   0.304   0.342
   2.189   2.017   1.601   1.250   0.843   0.543   0.345   0.221   0.145   0.093
   0.088   0.073   0.057   0.058   0.045   0.052   0.052   0.059   0.063   0.059
   0.052   0.052   0.045   0.058   0.057   0.073   0.088   0.093   0.145   0.221
   0.345   0.543   0.843   1.250   1.601   2.017   2.189   2.017   1.601   1.250
   0.843   0.543   0.345   0.221   0.145   0.093   0.088   0.073   0.057   0.058
   0.045   0.052   0.052   0.059   0.063   0.059   0.052   0.052   0.045   0.058
   0.057   0.073   0.088   0.093   0.145   0.221   0.345   0.543   0.843   1.250
   1.601   2.017
   6.867   6.425   5.398   4.155   2.934   1.867   1.088   0.568   0.274   0.157
   0.071   0.027   0.011   0.018   0.003   0.005   0.013   0.016   0.016   0.016
   0.013   0.005   0.003   0.018   0.011   0.027   0.071   0.157   0.274   0.568
   1.088   1.867   2.934   4.155   5.398   6.425   6.867   6.425   5.398   4.155
   2.934   1.867   1.088   0.568   0.274   0.157   0.071   0.027   0.011   0.018
   0.003   0.005   0.013   0.016   0.016   0.016   0.013   0.005   0.003   0.018
   0.011   0.027   0.071   0.157   0.274   0.568   1.088   1.867   2.934   4.155
   5.398   6.425
   7.655   7.524   6.662   5.628   4.582   3.553   2.491   1.545   0.841   0.432
   0.241   0.121   0.093   0.048   0.029   0.029   0.019   0.014   0.031   0.014
   0.019   0.029   0.029   0.048   0.093   0.121   0.241   0.432   0.841   1.545
   2.491   3.553   4.582   5.628   6.662   7.524   7.655   7.524   6.662   5.628
   4.582   3.553   2.491   1.545   0.841   0.432   0.241   0.121   0.093   0.048
   0.029   0.029   0.019   0.014   0.031   0.014   0.019   0.029   0.029   0.048
   0.093   0.121   0.241   0.432   0.841   1.545   2.491   3.553   4.582   5.628
   6.662   7.524
   3.503   3.664   3.483   3.423   3.416   3.486   3.201   2.643   1.876   1.098
   0.579   0.323   0.232   0.150   0.095   0.091   0.075   0.078   0.074   0.078
   0.075   0.091   0.095   0.150   0.232   0.323   0.579   1.098   1.876   2.643
   3.201   3.486   3.416   3.423   3.483   3.664   3.503   3.664   3.483   3.423
   3.416   3.486   3.201   2.643   1.876   1.098   0.579   0.323   0.232   0.150
   0.095   0.091   0.075   0.078   0.074   0.078   0.075   0.091   0.095   0.150
   0.232   0.323   0.579   1.098   1.876   2.643   3.201   3.486   3.416   3.423
   3.483   3.664
   1.123   1.113   1.203   1.258   1.478   1.921   2.367   2.634   2.573   1.971
   1.221   0.645   0.366   0.250   0.183   0.173   0.145   0.108   0.141   0.108
   0.145   0.173   0.183   0.250   0.366   0.645   1.221   1.971   2.573   2.634
   2.367   1.921   1.478   1.258   1.203   1.113   1.123   1.113   1.203   1.258
   1.478   1.921   2.367   2.634   2.573   1.971   1.221   0.645   0.366   0.250
   0.183   0.173   0.145   0.108   0.141   0.108   0.145   0.173   0.183   0.250
   0.366   0.645   1.221   1.971   2.573   2.634   2.367   1.921   1.478   1.258
   1.203   1.113
   0.474   0.415   0.470   0.459   0.573   0.712   1.114   1.594   2.160   2.331
   2.090   1.326   0.686   0.380   0.322   0.252   0.212   0.157   0.199   0.157
   0.212   0.252   0.322   0.380   0.686   1.326   2.090   2.331   2.160   1.594
   1.114   0.712   0.573   0.459   0.470   0.415   0.474   0.415   0.470   0.459
   0.573   0.712   1.114   1.594   2.160   2.331   2.090   1.326   0.686   0.380
   0.322   0.252   0.212   0.157   0.199   0.157   0.212   0.252   0.322   0.380
   0.686   1.326   2.090   2.331   2.160   1.594   1.114   0.712   0.573   0.459
   0.470   0.415
   0.241   0.223   0.205   0.189   0.257   0.251   0.396   0.693   1.213   1.917
   2.415   2.239   1.504   0.776   0.486   0.359   0.340   0.241   0.233   0.241
   0.340   0.359   0.486   0.776   1.504   2.239   2.415   1.917   1.213   0.693
   0.396   0.251   0.257   0.189   0.205   0.223   0.241   0.223   0.205   0.189
   0.257   0.251   0.396   0.693   1.213   1.917   2.415   2.239   1.504   0.776
   0.486   0.359   0.340   0.241   0.233   0.241   0.340   0.359   0.486   0.776
   1.504   2.239   2.415   1.917   1.213   0.693   0.396   0.251   0.257   0.189
   0.205   0.223
   0.194   0.187   0.178   0.131   0.128   0.134   0.159   0.294   0.561   1.076
   1.743   2.286   2.329   1.781   1.007   0.590   0.465   0.352   0.316   0.352
   0.465   0.590   1.007   1.781   2.329   2.286   1.743   1.076   0.561   0.294
   0.159   0.134   0.128   0.131   0.178   0.187   0.194   0.187   0.178   0.131
   0.128   0.134   0.159   0.294   0.561   1.076   1.743   2.286   2.329   1.781
   1.007   0.590   0.465   0.352   0.316   0.352   0.465   0.590   1.007   1.781
   2.329   2.286   1.743   1.076   0.561   0.294   0.159   0.134   0.128   0.131
   0.178   0.187
   0.289   0.222   0.214   0.133   0.085   0.124   0.120   0.188   0.305   0.458
   0.789   1.308   2.008   2.412   1.984   1.358   0.693   0.632   0.522   0.632
   0.693   1.358   1.984   2.412   2.008   1.308   0.789   0.458   0.305   0.188
   0.120   0.124   0.085   0.133   0.214   0.222   0.289   0.222   0.214   0.133
   0.085   0.124   0.120   0.188   0.305   0.458   0.789   1.308   2.008   2.412
   1.984   1.358   0.693   0.632   0.522   0.632   0.693   1.358   1.984   2.412
   2.008   1.308   0.789   0.458   0.305   0.188   0.120   0.124   0.085   0.133
   0.214   0.222
   0.347   0.287   0.270   0.170   0.119   0.127   0.105   0.191   0.242   0.335
   0.364   0.515   0.954   1.655   2.079   2.135   1.600   1.101   0.752   1.101
   1.600   2.135   2.079   1.655   0.954   0.515   0.364   0.335   0.242   0.191
   0.105   0.127   0.119   0.170   0.270   0.287   0.347   0.287   0.270   0.170
   0.119   0.127   0.105   0.191   0.242   0.335   0.364   0.515   0.954   1.655
   2.079   2.135   1.600   1.101   0.752   1.101   1.600   2.135   2.079   1.655
   0.954   0.515   0.364   0.335   0.242   0.191   0.105   0.127   0.119   0.170
   0.270   0.287
   0.347   0.301   0.239   0.126   0.115   0.136   0.144   0.215   0.258   0.329
   0.243   0.292   0.324   0.641   1.193   1.772   2.347   1.867   1.238   1.867
   2.347   1.772   1.193   0.641   0.324   0.292   0.243   0.329   0.258   0.215
   0.144   0.136   0.115   0.126   0.239   0.301   0.347   0.301   0.239   0.126
   0.115   0.136   0.144   0.215   0.258   0.329   0.243   0.292   0.324   0.641
   1.193   1.772   2.347   1.867   1.238   1.867   2.347   1.772   1.193   0.641
   0.324   0.292   0.243   0.329   0.258   0.215   0.144   0.136   0.115   0.126
   0.239   0.301
   0.562   0.498   0.193   0.215   0.161   0.203   0.164   0.310   0.356   0.374
   0.207   0.297   0.249   0.389   0.680   1.078   1.954   2.317   2.019   2.317
   1.954   1.078   0.680   0.389   0.249   0.297   0.207   0.374   0.356   0.310
   0.164   0.203   0.161   0.215   0.193   0.498   0.562   0.498   0.193   0.215
   0.161   0.203   0.164   0.310   0.356   0.374   0.207   0.297   0.249   0.389
   0.680   1.078   1.954   2.317   2.019   2.317   1.954   1.078   0.680   0.389
   0.249   0.297   0.207   0.374   0.356   0.310   0.164   0.203   0.161   0.215
   0.193   0.498
  4  1     -5.4376876E-01
  4  2     -3.4792479E-02
  4  3     -2.1857476E+00
  6  1      2.3632835E+00
  6  2     -4.5361655E+00
  6  3      2.0105659E+00
  6  4      4.9378812E-01
  8  1     -4.1439167E-01
  8  2      3.8599282E-01
  8  3     -8.1893312E-02
  8  4      2.4873710E+00
  8  5      9.7814366E-01
 10  1     -1.2988641E+00
 10  2      1.0668667E+00
 10  3      9.8257576E-01
 10  4      3.6441775E-01
 10  5     -7.9961532E-02
 10  6     -1.1364795E+00
 12  1     -3.2410227E-02  2.1128126E+00
 12  2     -2.4830247E-01 -3.1892379E+00
 12  3     -1.7251013E-02  3.8248454E+00
 12  4     -3.2800522E-01 -2.2344229E+00
 12  5     -3.3033429E-01 -5.1795580E-01
 12  6     -2.3142734E+00  1.0320187E+00
 12  7      1.4784974E-01  8.2412090E-02
 14  1     -4.3279007E-01
 14  2      6.2481499E-01
 14  3     -5.8375626E-01
 14  4      1.5982574E-01
 14  5     -1.8871480E+00
 14  6      1.0133728E+00
 14  7      2.3545157E-02
 14  8      3.6371578E-01
 16  1     -2.8289348E-02 -8.3769350E-01
 16  2     -1.7985125E-01  1.2246993E+00
 16  3      5.5608244E-01 -5.6432206E-01
 16  4     -2.1125521E-01 -9.9667417E-01
 16  5     -2.8285114E-02  4.9369016E-01
 16  6      2.1789326E-01  9.7318981E-02
 16  7      1.4462884E+00  3.1563896E-02
 16  8      9.0132692E-01 -2.5412591E-01
 16  9      4.8244267E-02  8.5138352E-02
 220       5.00   72    0 5.00   18    0
   2.992   2.993   2.997   3.004   3.013   3.025   3.038   3.053   3.069   3.085
   3.101   3.117   3.133   3.146   3.158   3.168   3.175   3.179   3.181   3.179
   3.175   3.168   3.158   3.146   3.133   3.117   3.101   3.085   3.069   3.053
   3.038   3.025   3.013   3.004   2.997   2.993   2.992   2.993   2.997   3.004
   3.013   3.025   3.038   3.053   3.069   3.085   3.101   3.117   3.133   3.146
   3.158   3.168   3.175   3.179   3.181   3.179   3.175   3.168   3.158   3.146
   3.133   3.117   3.101   3.085   3.069   3.053   3.038   3.025   3.013   3.004
   2.997   2.993
   1.816   1.825   1.851   1.894   1.954   2.030   2.122   2.227   2.345   2.471
   2.603   2.736   2.865   2.987   3.094   3.184   3.251   3.293   3.307   3.293
   3.251   3.184   3.094   2.987   2.865   2.736   2.603   2.471   2.345   2.227
   2.122   2.030   1.954   1.894   1.851   1.825   1.816   1.825   1.851   1.894
   1.954   2.030   2.122   2.227   2.345   2.471   2.603   2.736   2.865   2.987
   3.094   3.184   3.251   3.293   3.307   3.293   3.251   3.184   3.094   2.987
   2.865   2.736   2.603   2.471   2.345   2.227   2.122   2.030   1.954   1.894
   1.851   1.825
   0.376   0.385   0.413   0.462   0.536   0.639   0.776   0.949   1.162   1.412
   1.696   2.003   2.322   2.637   2.929   3.180   3.373   3.495   3.537   3.495
   3.373   3.180   2.929   2.637   2.322   2.003   1.696   1.412   1.162   0.949
   0.776   0.639   0.536   0.462   0.413   0.385   0.376   0.385   0.413   0.462
   0.536   0.639   0.776   0.949   1.162   1.412   1.696   2.003   2.322   2.637
   2.929   3.180   3.373   3.495   3.537   3.495   3.373   3.180   2.929   2.637
   2.322   2.003   1.696   1.412   1.162   0.949   0.776   0.639   0.536   0.462
   0.413   0.385
  -0.334  -0.338  -0.346  -0.355  -0.355  -0.334  -0.274  -0.160   0.027   0.299
   0.658   1.097   1.595   2.122   2.637   3.097   3.460   3.693   3.773   3.693
   3.460   3.097   2.637   2.122   1.595   1.097   0.658   0.299   0.027  -0.160
  -0.274  -0.334  -0.355  -0.355  -0.346  -0.338  -0.334  -0.338  -0.346  -0.355
  -0.355  -0.334  -0.274  -0.160   0.027   0.299   0.658   1.097   1.595   2.122
   2.637   3.097   3.460   3.693   3.773   3.693   3.460   3.097   2.637   2.122
   1.595   1.097   0.658   0.299   0.027  -0.160  -0.274  -0.334  -0.355  -0.355
  -0.346  -0.338
  -0.127  -0.139  -0.177  -0.242  -0.331  -0.434  -0.529  -0.582  -0.552  -0.402
  -0.104   0.345   0.923   1.584   2.262   2.886   3.389   3.714   3.826   3.714
   3.389   2.886   2.262   1.584   0.923   0.345  -0.104  -0.402  -0.552  -0.582
  -0.529  -0.434  -0.331  -0.242  -0.177  -0.139  -0.127  -0.139  -0.177  -0.242
  -0.331  -0.434  -0.529  -0.582  -0.552  -0.402  -0.104   0.345   0.923   1.584
   2.262   2.886   3.389   3.714   3.826   3.714   3.389   2.886   2.262   1.584
   0.923   0.345  -0.104  -0.402  -0.552  -0.582  -0.529  -0.434  -0.331  -0.242
  -0.177  -0.139
   0.284   0.288   0.291   0.274   0.211   0.085  -0.097  -0.298  -0.452  -0.485
  -0.335   0.020   0.560   1.220   1.915   2.555   3.065   3.391   3.504   3.391
   3.065   2.555   1.915   1.220   0.560   0.020  -0.335  -0.485  -0.452  -0.298
  -0.097   0.085   0.211   0.274   0.291   0.288   0.284   0.288   0.291   0.274
   0.211   0.085  -0.097  -0.298  -0.452  -0.485  -0.335   0.020   0.560   1.220
   1.915   2.555   3.065   3.391   3.504   3.391   3.065   2.555   1.915   1.220
   0.560   0.020  -0.335  -0.485  -0.452  -0.298  -0.097   0.085   0.211   0.274
   0.291   0.288
   0.107   0.146   0.252   0.390   0.502   0.525   0.421   0.210  -0.028  -0.179
  -0.141   0.125   0.585   1.147   1.703   2.169   2.502   2.695   2.757   2.695
   2.502   2.169   1.703   1.147   0.585   0.125  -0.141  -0.179  -0.028   0.210
   0.421   0.525   0.502   0.390   0.252   0.146   0.107   0.146   0.252   0.390
   0.502   0.525   0.421   0.210  -0.028  -0.179  -0.141   0.125   0.585   1.147
   1.703   2.169   2.502   2.695   2.757   2.695   2.502   2.169   1.703   1.147
   0.585   0.125  -0.141  -0.179  -0.028   0.210   0.421   0.525   0.502   0.390
   0.252   0.146
  -0.552  -0.505  -0.358  -0.110   0.190   0.441   0.536   0.444   0.244   0.094
   0.135   0.413   0.852   1.308   1.648   1.812   1.829   1.783   1.756   1.783
   1.829   1.812   1.648   1.308   0.852   0.413   0.135   0.094   0.244   0.444
   0.536   0.441   0.190  -0.110  -0.358  -0.505  -0.552  -0.505  -0.358  -0.110
   0.190   0.441   0.536   0.444   0.244   0.094   0.135   0.413   0.852   1.308
   1.648   1.812   1.829   1.783   1.756   1.783   1.829   1.812   1.648   1.308
   0.852   0.413   0.135   0.094   0.244   0.444   0.536   0.441   0.190  -0.110
  -0.358  -0.505
  -0.580  -0.618  -0.663  -0.575  -0.298   0.064   0.320   0.351   0.218   0.117
   0.234   0.608   1.104   1.509   1.660   1.528   1.227   0.938   0.821   0.938
   1.227   1.528   1.660   1.509   1.104   0.608   0.234   0.117   0.218   0.351
   0.320   0.064  -0.298  -0.575  -0.663  -0.618  -0.580  -0.618  -0.663  -0.575
  -0.298   0.064   0.320   0.351   0.218   0.117   0.234   0.608   1.104   1.509
   1.660   1.528   1.227   0.938   0.821   0.938   1.227   1.528   1.660   1.509
   1.104   0.608   0.234   0.117   0.218   0.351   0.320   0.064  -0.298  -0.575
  -0.663  -0.618
   1.080   0.840   0.304  -0.140  -0.227  -0.011   0.228   0.262   0.109  -0.002
   0.151   0.599   1.158   1.560   1.617   1.321   0.834   0.399   0.227   0.399
   0.834   1.321   1.617   1.560   1.158   0.599   0.151  -0.002   0.109   0.262
   0.228  -0.011  -0.227  -0.140   0.304   0.840   1.080   0.840   0.304  -0.140
  -0.227  -0.011   0.228   0.262   0.109  -0.002   0.151   0.599   1.158   1.560
   1.617   1.321   0.834   0.399   0.227   0.399   0.834   1.321   1.617   1.560
   1.158   0.599   0.151  -0.002   0.109   0.262   0.228  -0.011  -0.227  -0.140
   0.304   0.840
   4.112   3.620   2.453   1.283   0.621   0.489   0.539   0.444   0.177  -0.030
   0.053   0.457   0.995   1.400   1.475   1.189   0.684   0.217   0.028   0.217
   0.684   1.189   1.475   1.400   0.995   0.457   0.053  -0.030   0.177   0.444
   0.539   0.489   0.621   1.283   2.453   3.620   4.112   3.620   2.453   1.283
   0.621   0.489   0.539   0.444   0.177  -0.030   0.053   0.457   0.995   1.400
   1.475   1.189   0.684   0.217   0.028   0.217   0.684   1.189   1.475   1.400
   0.995   0.457   0.053  -0.030   0.177   0.444   0.539   0.489   0.621   1.283
   2.453   3.620
   6.656   5.999   4.416   2.754   1.669   1.234   1.082   0.854   0.492   0.182
   0.116   0.337   0.736   1.123   1.299   1.143   0.709   0.243   0.042   0.243
   0.709   1.143   1.299   1.123   0.736   0.337   0.116   0.182   0.492   0.854
   1.082   1.234   1.669   2.754   4.416   5.999   6.656   5.999   4.416   2.754
   1.669   1.234   1.082   0.854   0.492   0.182   0.116   0.337   0.736   1.123
   1.299   1.143   0.709   0.243   0.042   0.243   0.709   1.143   1.299   1.123
   0.736   0.337   0.116   0.182   0.492   0.854   1.082   1.234   1.669   2.754
   4.416   5.999
   6.750   6.137   4.664   3.122   2.106   1.669   1.490   1.273   0.956   0.637
   0.420   0.376   0.547   0.886   1.187   1.185   0.803   0.291   0.055   0.291
   0.803   1.185   1.187   0.886   0.547   0.376   0.420   0.637   0.956   1.273
   1.490   1.669   2.106   3.122   4.664   6.137   6.750   6.137   4.664   3.122
   2.106   1.669   1.490   1.273   0.956   0.637   0.420   0.376   0.547   0.886
   1.187   1.185   0.803   0.291   0.055   0.291   0.803   1.185   1.187   0.886
   0.547   0.376   0.420   0.637   0.956   1.273   1.490   1.669   2.106   3.122
   4.664   6.137
   4.181   3.813   2.956   2.128   1.669   1.552   1.553   1.512   1.393   1.188
   0.895   0.612   0.543   0.791   1.160   1.262   0.904   0.340   0.068   0.340
   0.904   1.262   1.160   0.791   0.543   0.612   0.895   1.188   1.393   1.512
   1.553   1.552   1.669   2.128   2.956   3.813   4.181   3.813   2.956   2.128
   1.669   1.552   1.553   1.512   1.393   1.188   0.895   0.612   0.543   0.791
   1.160   1.262   0.904   0.340   0.068   0.340   0.904   1.262   1.160   0.791
   0.543   0.612   0.895   1.188   1.393   1.512   1.553   1.552   1.669   2.128
   2.956   3.813
   0.853   0.776   0.646   0.643   0.819   1.069   1.283   1.450   1.573   1.565
   1.328   0.951   0.714   0.821   1.140   1.286   1.027   0.559   0.326   0.559
   1.027   1.286   1.140   0.821   0.714   0.951   1.328   1.565   1.573   1.450
   1.283   1.069   0.819   0.643   0.646   0.776   0.853   0.776   0.646   0.643
   0.819   1.069   1.283   1.450   1.573   1.565   1.328   0.951   0.714   0.821
   1.140   1.286   1.027   0.559   0.326   0.559   1.027   1.286   1.140   0.821
   0.714   0.951   1.328   1.565   1.573   1.450   1.283   1.069   0.819   0.643
   0.646   0.776
  -0.907  -0.824  -0.572  -0.187   0.224   0.552   0.793   1.037   1.318   1.522
   1.491   1.232   0.958   0.888   1.035   1.202   1.216   1.102   1.032   1.102
   1.216   1.202   1.035   0.888   0.958   1.232   1.491   1.522   1.318   1.037
   0.793   0.552   0.224  -0.187  -0.572  -0.824  -0.907  -0.824  -0.572  -0.187
   0.224   0.552   0.793   1.037   1.318   1.522   1.491   1.232   0.958   0.888
   1.035   1.202   1.216   1.102   1.032   1.102   1.216   1.202   1.035   0.888
   0.958   1.232   1.491   1.522   1.318   1.037   0.793   0.552   0.224  -0.187
  -0.572  -0.824
  -0.494  -0.427  -0.250  -0.034   0.129   0.200   0.249   0.407   0.725   1.104
   1.357   1.363   1.161   0.924   0.850   1.045   1.448   1.850   2.018   1.850
   1.448   1.045   0.850   0.924   1.161   1.363   1.357   1.104   0.725   0.407
   0.249   0.200   0.129  -0.034  -0.250  -0.427  -0.494  -0.427  -0.250  -0.034
   0.129   0.200   0.249   0.407   0.725   1.104   1.357   1.363   1.161   0.924
   0.850   1.045   1.448   1.850   2.018   1.850   1.448   1.045   0.850   0.924
   1.161   1.363   1.357   1.104   0.725   0.407   0.249   0.200   0.129  -0.034
  -0.250  -0.427
   0.595   0.585   0.544   0.443   0.263   0.039  -0.119  -0.078   0.220   0.698
   1.160   1.385   1.266   0.927   0.701   0.921   1.616   2.405   2.752   2.405
   1.616   0.921   0.701   0.927   1.266   1.385   1.160   0.698   0.220  -0.078
  -0.119   0.039   0.263   0.443   0.544   0.585   0.595   0.585   0.544   0.443
   0.263   0.039  -0.119  -0.078   0.220   0.698   1.160   1.385   1.266   0.927
   0.701   0.921   1.616   2.405   2.752   2.405   1.616   0.921   0.701   0.927
   1.266   1.385   1.160   0.698   0.220  -0.078  -0.119   0.039   0.263   0.443
   0.544   0.585
 200       5.00   72    0 5.00   18    0
   0.332   0.333   0.334   0.336   0.339   0.342   0.347   0.351   0.356   0.361
   0.366   0.371   0.376   0.381   0.384   0.387   0.390   0.391   0.392   0.391
   0.390   0.387   0.384   0.381   0.376   0.371   0.366   0.361   0.356   0.351
   0.347   0.342   0.339   0.336   0.334   0.333   0.332   0.333   0.334   0.336
   0.339   0.342   0.347   0.351   0.356   0.361   0.366   0.371   0.376   0.381
   0.384   0.387   0.390   0.391   0.392   0.391   0.390   0.387   0.384   0.381
   0.376   0.371   0.366   0.361   0.356   0.351   0.347   0.342   0.339   0.336
   0.334   0.333
   0.072   0.074   0.078   0.085   0.096   0.110   0.129   0.153   0.182   0.216
   0.253   0.294   0.335   0.376   0.414   0.446   0.471   0.487   0.492   0.487
   0.471   0.446   0.414   0.376   0.335   0.294   0.253   0.216   0.182   0.153
   0.129   0.110   0.096   0.085   0.078   0.074   0.072   0.074   0.078   0.085
   0.096   0.110   0.129   0.153   0.182   0.216   0.253   0.294   0.335   0.376
   0.414   0.446   0.471   0.487   0.492   0.487   0.471   0.446   0.414   0.376
   0.335   0.294   0.253   0.216   0.182   0.153   0.129   0.110   0.096   0.085
   0.078   0.074
  -0.011  -0.015  -0.025  -0.041  -0.059  -0.078  -0.091  -0.095  -0.084  -0.055
  -0.004   0.069   0.160   0.264   0.372   0.472   0.553   0.607   0.625   0.607
   0.553   0.472   0.372   0.264   0.160   0.069  -0.004  -0.055  -0.084  -0.095
  -0.091  -0.078  -0.059  -0.041  -0.025  -0.015  -0.011  -0.015  -0.025  -0.041
  -0.059  -0.078  -0.091  -0.095  -0.084  -0.055  -0.004   0.069   0.160   0.264
   0.372   0.472   0.553   0.607   0.625   0.607   0.553   0.472   0.372   0.264
   0.160   0.069  -0.004  -0.055  -0.084  -0.095  -0.091  -0.078  -0.059  -0.041
  -0.025  -0.015
   0.541   0.529   0.495   0.437   0.356   0.254   0.139   0.018  -0.093  -0.178
  -0.219  -0.204  -0.126   0.007   0.179   0.362   0.525   0.637   0.677   0.637
   0.525   0.362   0.179   0.007  -0.126  -0.204  -0.219  -0.178  -0.093   0.018
   0.139   0.254   0.356   0.437   0.495   0.529   0.541   0.529   0.495   0.437
   0.356   0.254   0.139   0.018  -0.093  -0.178  -0.219  -0.204  -0.126   0.007
   0.179   0.362   0.525   0.637   0.677   0.637   0.525   0.362   0.179   0.007
  -0.126  -0.204  -0.219  -0.178  -0.093   0.018   0.139   0.254   0.356   0.437
   0.495   0.529
   1.680   1.668   1.633   1.569   1.468   1.320   1.118   0.864   0.572   0.271
   0.001  -0.194  -0.280  -0.243  -0.096   0.119   0.340   0.506   0.567   0.506
   0.340   0.119  -0.096  -0.243  -0.280  -0.194   0.001   0.271   0.572   0.864
   1.118   1.320   1.468   1.569   1.633   1.668   1.680   1.668   1.633   1.569
   1.468   1.320   1.118   0.864   0.572   0.271   0.001  -0.194  -0.280  -0.243
  -0.096   0.119   0.340   0.506   0.567   0.506   0.340   0.119  -0.096  -0.243
  -0.280  -0.194   0.001   0.271   0.572   0.864   1.118   1.320   1.468   1.569
   1.633   1.668
   2.723   2.717   2.701   2.678   2.640   2.564   2.417   2.166   1.800   1.337
   0.828   0.349  -0.023  -0.226  -0.243  -0.106   0.103   0.284   0.355   0.284
   0.103  -0.106  -0.243  -0.226  -0.023   0.349   0.828   1.337   1.800   2.166
   2.417   2.564   2.640   2.678   2.701   2.717   2.723   2.717   2.701   2.678
   2.640   2.564   2.417   2.166   1.800   1.337   0.828   0.349  -0.023  -0.226
  -0.243  -0.106   0.103   0.284   0.355   0.284   0.103  -0.106  -0.243  -0.226
  -0.023   0.349   0.828   1.337   1.800   2.166   2.417   2.564   2.640   2.678
   2.701   2.717
   2.886   2.869   2.840   2.838   2.891   2.980   3.046   3.011   2.816   2.439
   1.903   1.279   0.668   0.185  -0.084  -0.123   0.000   0.156   0.225   0.156
   0.000  -0.123  -0.084   0.185   0.668   1.279   1.903   2.439   2.816   3.011
   3.046   2.980   2.891   2.838   2.840   2.869   2.886   2.869   2.840   2.838
   2.891   2.980   3.046   3.011   2.816   2.439   1.903   1.279   0.668   0.185
  -0.084  -0.123   0.000   0.156   0.225   0.156   0.000  -0.123  -0.084   0.185
   0.668   1.279   1.903   2.439   2.816   3.011   3.046   2.980   2.891   2.838
   2.840   2.869
   2.039   1.988   1.887   1.845   1.945   2.182   2.478   2.735   2.875   2.849
   2.615   2.158   1.529   0.865   0.349   0.104   0.119   0.248   0.317   0.248
   0.119   0.104   0.349   0.865   1.529   2.158   2.615   2.849   2.875   2.735
   2.478   2.182   1.945   1.845   1.887   1.988   2.039   1.988   1.887   1.845
   1.945   2.182   2.478   2.735   2.875   2.849   2.615   2.158   1.529   0.865
   0.349   0.104   0.119   0.248   0.317   0.248   0.119   0.104   0.349   0.865
   1.529   2.158   2.615   2.849   2.875   2.735   2.478   2.182   1.945   1.845
   1.887   1.988
   0.868   0.782   0.610   0.526   0.640   0.922   1.268   1.623   2.000   2.395
   2.691   2.690   2.278   1.561   0.836   0.398   0.334   0.475   0.562   0.475
   0.334   0.398   0.836   1.561   2.278   2.690   2.691   2.395   2.000   1.623
   1.268   0.922   0.640   0.526   0.610   0.782   0.868   0.782   0.610   0.526
   0.640   0.922   1.268   1.623   2.000   2.395   2.691   2.690   2.278   1.561
   0.836   0.398   0.334   0.475   0.562   0.475   0.334   0.398   0.836   1.561
   2.278   2.690   2.691   2.395   2.000   1.623   1.268   0.922   0.640   0.526
   0.610   0.782
   0.196   0.102  -0.072  -0.120   0.027   0.238   0.377   0.504   0.851   1.552
   2.406   2.957   2.838   2.092   1.157   0.535   0.423   0.613   0.735   0.613
   0.423   0.535   1.157   2.092   2.838   2.957   2.406   1.552   0.851   0.504
   0.377   0.238   0.027  -0.120  -0.072   0.102   0.196   0.102  -0.072  -0.120
   0.027   0.238   0.377   0.504   0.851   1.552   2.406   2.957   2.838   2.092
   1.157   0.535   0.423   0.613   0.735   0.613   0.423   0.535   1.157   2.092
   2.838   2.957   2.406   1.552   0.851   0.504   0.377   0.238   0.027  -0.120
  -0.072   0.102
   0.200   0.118  -0.003   0.040   0.226   0.301   0.103  -0.142   0.052   0.951
   2.240   3.195   3.236   2.392   1.248   0.467   0.308   0.524   0.667   0.524
   0.308   0.467   1.248   2.392   3.236   3.195   2.240   0.951   0.052  -0.142
   0.103   0.301   0.226   0.040  -0.003   0.118   0.200   0.118  -0.003   0.040
   0.226   0.301   0.103  -0.142   0.052   0.951   2.240   3.195   3.236   2.392
   1.248   0.467   0.308   0.524   0.667   0.524   0.308   0.467   1.248   2.392
   3.236   3.195   2.240   0.951   0.052  -0.142   0.103   0.301   0.226   0.040
  -0.003   0.118
   0.388   0.318   0.237   0.329   0.508   0.457   0.048  -0.352  -0.129   0.957
   2.434   3.431   3.368   2.387   1.165   0.351   0.146   0.294   0.403   0.294
   0.146   0.351   1.165   2.387   3.368   3.431   2.434   0.957  -0.129  -0.352
   0.048   0.457   0.508   0.329   0.237   0.318   0.388   0.318   0.237   0.329
   0.508   0.457   0.048  -0.352  -0.129   0.957   2.434   3.431   3.368   2.387
   1.165   0.351   0.146   0.294   0.403   0.294   0.146   0.351   1.165   2.387
   3.368   3.431   2.434   0.957  -0.129  -0.352   0.048   0.457   0.508   0.329
   0.237   0.318
   0.292   0.230   0.160   0.235   0.368   0.298  -0.004  -0.136   0.395   1.600
   2.864   3.423   3.003   1.974   0.963   0.354   0.143   0.130   0.144   0.130
   0.143   0.354   0.963   1.974   3.003   3.423   2.864   1.600   0.395  -0.136
  -0.004   0.298   0.368   0.235   0.160   0.230   0.292   0.230   0.160   0.235
   0.368   0.298  -0.004  -0.136   0.395   1.600   2.864   3.423   3.003   1.974
   0.963   0.354   0.143   0.130   0.144   0.130   0.143   0.354   0.963   1.974
   3.003   3.423   2.864   1.600   0.395  -0.136  -0.004   0.298   0.368   0.235
   0.160   0.230
  -0.018  -0.062  -0.110  -0.048   0.085   0.168   0.268   0.671   1.541   2.582
   3.180   2.951   2.101   1.208   0.678   0.468   0.323   0.145   0.053   0.145
   0.323   0.468   0.678   1.208   2.101   2.951   3.180   2.582   1.541   0.671
   0.268   0.168   0.085  -0.048  -0.110  -0.062  -0.018  -0.062  -0.110  -0.048
   0.085   0.168   0.268   0.671   1.541   2.582   3.180   2.951   2.101   1.208
   0.678   0.468   0.323   0.145   0.053   0.145   0.323   0.468   0.678   1.208
   2.101   2.951   3.180   2.582   1.541   0.671   0.268   0.168   0.085  -0.048
  -0.110  -0.062
  -0.129  -0.152  -0.170  -0.088   0.130   0.495   1.076   1.910   2.799   3.291
   3.016   2.076   1.034   0.444   0.396   0.534   0.494   0.273   0.145   0.273
   0.494   0.534   0.396   0.444   1.034   2.076   3.016   3.291   2.799   1.910
   1.076   0.495   0.130  -0.088  -0.170  -0.152  -0.129  -0.152  -0.170  -0.088
   0.130   0.495   1.076   1.910   2.799   3.291   3.016   2.076   1.034   0.444
   0.396   0.534   0.494   0.273   0.145   0.273   0.494   0.534   0.396   0.444
   1.034   2.076   3.016   3.291   2.799   1.910   1.076   0.495   0.130  -0.088
  -0.170  -0.152
   0.181   0.145   0.093   0.154   0.464   1.103   2.008   2.913   3.396   3.143
   2.225   1.111   0.334   0.110   0.253   0.430   0.456   0.373   0.322   0.373
   0.456   0.430   0.253   0.110   0.334   1.111   2.225   3.143   3.396   2.913
   2.008   1.103   0.464   0.154   0.093   0.145   0.181   0.145   0.093   0.154
   0.464   1.103   2.008   2.913   3.396   3.143   2.225   1.111   0.334   0.110
   0.253   0.430   0.456   0.373   0.322   0.373   0.456   0.430   0.253   0.110
   0.334   1.111   2.225   3.143   3.396   2.913   2.008   1.103   0.464   0.154
   0.093   0.145
   0.722   0.631   0.446   0.391   0.719   1.512   2.513   3.187   3.074   2.194
   1.087   0.365   0.201   0.288   0.290   0.200   0.219   0.380   0.478   0.380
   0.219   0.200   0.290   0.288   0.201   0.365   1.087   2.194   3.074   3.187
   2.513   1.512   0.719   0.391   0.446   0.631   0.722   0.631   0.446   0.391
   0.719   1.512   2.513   3.187   3.074   2.194   1.087   0.365   0.201   0.288
   0.290   0.200   0.219   0.380   0.478   0.380   0.219   0.200   0.290   0.288
   0.201   0.365   1.087   2.194   3.074   3.187   2.513   1.512   0.719   0.391
   0.446   0.631
   1.122   0.975   0.656   0.477   0.773   1.610   2.590   3.024   2.488   1.281
   0.241  -0.016   0.334   0.596   0.386   0.014  -0.003   0.345   0.563   0.345
  -0.003   0.014   0.386   0.596   0.334  -0.016   0.241   1.281   2.488   3.024
   2.590   1.610   0.773   0.477   0.656   0.975   1.122   0.975   0.656   0.477
   0.773   1.610   2.590   3.024   2.488   1.281   0.241  -0.016   0.334   0.596
   0.386   0.014  -0.003   0.345   0.563   0.345  -0.003   0.014   0.386   0.596
   0.334  -0.016   0.241   1.281   2.488   3.024   2.590   1.610   0.773   0.477
   0.656   0.975
 111       5.00   72    0 5.00   18    0
   0.272   0.273   0.277   0.283   0.291   0.301   0.313   0.326   0.340   0.354
   0.369   0.383   0.396   0.409   0.419   0.428   0.435   0.439   0.440   0.439
   0.435   0.428   0.419   0.409   0.396   0.383   0.369   0.354   0.340   0.326
   0.313   0.301   0.291   0.283   0.277   0.273   0.272   0.273   0.277   0.283
   0.291   0.301   0.313   0.326   0.340   0.354   0.369   0.383   0.396   0.409
   0.419   0.428   0.435   0.439   0.440   0.439   0.435   0.428   0.419   0.409
   0.396   0.383   0.369   0.354   0.340   0.326   0.313   0.301   0.291   0.283
   0.277   0.273
  -0.433  -0.430  -0.422  -0.406  -0.382  -0.349  -0.305  -0.249  -0.181  -0.103
  -0.015   0.077   0.171   0.262   0.345   0.415   0.469   0.502   0.513   0.502
   0.469   0.415   0.345   0.262   0.171   0.077  -0.015  -0.103  -0.181  -0.249
  -0.305  -0.349  -0.382  -0.406  -0.422  -0.430  -0.433  -0.430  -0.422  -0.406
  -0.382  -0.349  -0.305  -0.249  -0.181  -0.103  -0.015   0.077   0.171   0.262
   0.345   0.415   0.469   0.502   0.513   0.502   0.469   0.415   0.345   0.262
   0.171   0.077  -0.015  -0.103  -0.181  -0.249  -0.305  -0.349  -0.382  -0.406
  -0.422  -0.430
   0.085   0.063  -0.002  -0.099  -0.215  -0.331  -0.430  -0.497  -0.520  -0.495
  -0.420  -0.302  -0.153   0.012   0.178   0.328   0.447   0.523   0.549   0.523
   0.447   0.328   0.178   0.012  -0.153  -0.302  -0.420  -0.495  -0.520  -0.497
  -0.430  -0.331  -0.215  -0.099  -0.002   0.063   0.085   0.063  -0.002  -0.099
  -0.215  -0.331  -0.430  -0.497  -0.520  -0.495  -0.420  -0.302  -0.153   0.012
   0.178   0.328   0.447   0.523   0.549   0.523   0.447   0.328   0.178   0.012
  -0.153  -0.302  -0.420  -0.495  -0.520  -0.497  -0.430  -0.331  -0.215  -0.099
  -0.002   0.063
   2.671   2.589   2.351   1.985   1.534   1.047   0.574   0.161  -0.159  -0.367
  -0.459  -0.444  -0.345  -0.188  -0.006   0.173   0.321   0.418   0.452   0.418
   0.321   0.173  -0.006  -0.188  -0.345  -0.444  -0.459  -0.367  -0.159   0.161
   0.574   1.047   1.534   1.985   2.351   2.589   2.671   2.589   2.351   1.985
   1.534   1.047   0.574   0.161  -0.159  -0.367  -0.459  -0.444  -0.345  -0.188
  -0.006   0.173   0.321   0.418   0.452   0.418   0.321   0.173  -0.006  -0.188
  -0.345  -0.444  -0.459  -0.367  -0.159   0.161   0.574   1.047   1.534   1.985
   2.351   2.589
   5.439   5.306   4.923   4.333   3.599   2.796   2.001   1.280   0.681   0.233
  -0.059  -0.208  -0.238  -0.182  -0.075   0.050   0.164   0.242   0.270   0.242
   0.164   0.050  -0.075  -0.182  -0.238  -0.208  -0.059   0.233   0.681   1.280
   2.001   2.796   3.599   4.333   4.923   5.306   5.439   5.306   4.923   4.333
   3.599   2.796   2.001   1.280   0.681   0.233  -0.059  -0.208  -0.238  -0.182
  -0.075   0.050   0.164   0.242   0.270   0.242   0.164   0.050  -0.075  -0.182
  -0.238  -0.208  -0.059   0.233   0.681   1.280   2.001   2.796   3.599   4.333
   4.923   5.306
   5.877   5.761   5.424   4.901   4.244   3.514   2.774   2.076   1.461   0.949
   0.549   0.259   0.075  -0.014  -0.024   0.022   0.090   0.149   0.172   0.149
   0.090   0.022  -0.024  -0.014   0.075   0.259   0.549   0.949   1.461   2.076
   2.774   3.514   4.244   4.901   5.424   5.761   5.877   5.761   5.424   4.901
   4.244   3.514   2.774   2.076   1.461   0.949   0.549   0.259   0.075  -0.014
  -0.024   0.022   0.090   0.149   0.172   0.149   0.090   0.022  -0.024  -0.014
   0.075   0.259   0.549   0.949   1.461   2.076   2.774   3.514   4.244   4.901
   5.424   5.761
   3.783   3.749   3.649   3.484   3.261   2.988   2.675   2.329   1.954   1.551
   1.130   0.722   0.370   0.123   0.011   0.026   0.119   0.217   0.258   0.217
   0.119   0.026   0.011   0.123   0.370   0.722   1.130   1.551   1.954   2.329
   2.675   2.988   3.261   3.484   3.649   3.749   3.783   3.749   3.649   3.484
   3.261   2.988   2.675   2.329   1.954   1.551   1.130   0.722   0.370   0.123
   0.011   0.026   0.119   0.217   0.258   0.217   0.119   0.026   0.011   0.123
   0.370   0.722   1.130   1.551   1.954   2.329   2.675   2.988   3.261   3.484
   3.649   3.749
   1.201   1.247   1.379   1.571   1.792   2.004   2.173   2.257   2.215   2.011
   1.639   1.146   0.632   0.221   0.009   0.015   0.167   0.339   0.412   0.339
   0.167   0.015   0.009   0.221   0.632   1.146   1.639   2.011   2.215   2.257
   2.173   2.004   1.792   1.571   1.379   1.247   1.201   1.247   1.379   1.571
   1.792   2.004   2.173   2.257   2.215   2.011   1.639   1.146   0.632   0.221
   0.009   0.015   0.167   0.339   0.412   0.339   0.167   0.015   0.009   0.221
   0.632   1.146   1.639   2.011   2.215   2.257   2.173   2.004   1.792   1.571
   1.379   1.247
  -0.111  -0.052   0.120   0.389   0.732   1.120   1.521   1.891   2.160   2.243
   2.073   1.655   1.092   0.555   0.203   0.104   0.200   0.352   0.421   0.352
   0.200   0.104   0.203   0.555   1.092   1.655   2.073   2.243   2.160   1.891
   1.521   1.120   0.732   0.389   0.120  -0.052  -0.111  -0.052   0.120   0.389
   0.732   1.120   1.521   1.891   2.160   2.243   2.073   1.655   1.092   0.555
   0.203   0.104   0.200   0.352   0.421   0.352   0.200   0.104   0.203   0.555
   1.092   1.655   2.073   2.243   2.160   1.891   1.521   1.120   0.732   0.389
   0.120  -0.052
  -0.173  -0.162  -0.121  -0.031   0.126   0.363   0.693   1.121   1.602   2.024
   2.240   2.153   1.786   1.277   0.802   0.477   0.319   0.273   0.267   0.273
   0.319   0.477   0.802   1.277   1.786   2.153   2.240   2.024   1.602   1.121
   0.693   0.363   0.126  -0.031  -0.121  -0.162  -0.173  -0.162  -0.121  -0.031
   0.126   0.363   0.693   1.121   1.602   2.024   2.240   2.153   1.786   1.277
   0.802   0.477   0.319   0.273   0.267   0.273   0.319   0.477   0.802   1.277
   1.786   2.153   2.240   2.024   1.602   1.121   0.693   0.363   0.126  -0.031
  -0.121  -0.162
   0.104   0.068  -0.016  -0.099  -0.146  -0.137  -0.032   0.234   0.701   1.304
   1.876   2.230   2.270   2.028   1.608   1.123   0.671   0.344   0.224   0.344
   0.671   1.123   1.608   2.028   2.270   2.230   1.876   1.304   0.701   0.234
  -0.032  -0.137  -0.146  -0.099  -0.016   0.068   0.104   0.068  -0.016  -0.099
  -0.146  -0.137  -0.032   0.234   0.701   1.304   1.876   2.230   2.270   2.028
   1.608   1.123   0.671   0.344   0.224   0.344   0.671   1.123   1.608   2.028
   2.270   2.230   1.876   1.304   0.701   0.234  -0.032  -0.137  -0.146  -0.099
  -0.016   0.068
   0.226   0.179   0.079  -0.008  -0.060  -0.115  -0.184  -0.184   0.010   0.447
   1.041   1.618   2.030   2.201   2.104   1.754   1.247   0.786   0.599   0.786
   1.247   1.754   2.104   2.201   2.030   1.618   1.041   0.447   0.010  -0.184
  -0.184  -0.115  -0.060  -0.008   0.079   0.179   0.226   0.179   0.079  -0.008
  -0.060  -0.115  -0.184  -0.184   0.010   0.447   1.041   1.618   2.030   2.201
   2.104   1.754   1.247   0.786   0.599   0.786   1.247   1.754   2.104   2.201
   2.030   1.618   1.041   0.447   0.010  -0.184  -0.184  -0.115  -0.060  -0.008
   0.079   0.179
   0.190   0.141   0.054   0.037   0.111   0.183   0.147   0.015  -0.084  -0.019
   0.246   0.660   1.147   1.622   1.962   2.036   1.829   1.520   1.375   1.520
   1.829   2.036   1.962   1.622   1.147   0.660   0.246  -0.019  -0.084   0.015
   0.147   0.183   0.111   0.037   0.054   0.141   0.190   0.141   0.054   0.037
   0.111   0.183   0.147   0.015  -0.084  -0.019   0.246   0.660   1.147   1.622
   1.962   2.036   1.829   1.520   1.375   1.520   1.829   2.036   1.962   1.622
   1.147   0.660   0.246  -0.019  -0.084   0.015   0.147   0.183   0.111   0.037
   0.054   0.141
   0.076   0.004  -0.136  -0.190  -0.076   0.140   0.309   0.333   0.229   0.090
   0.004   0.048   0.292   0.760   1.353   1.869   2.148   2.210   2.202   2.210
   2.148   1.869   1.353   0.760   0.292   0.048   0.004   0.090   0.229   0.333
   0.309   0.140  -0.076  -0.190  -0.136   0.004   0.076   0.004  -0.136  -0.190
  -0.076   0.140   0.309   0.333   0.229   0.090   0.004   0.048   0.292   0.760
   1.353   1.869   2.148   2.210   2.202   2.210   2.148   1.869   1.353   0.760
   0.292   0.048   0.004   0.090   0.229   0.333   0.309   0.140  -0.076  -0.190
  -0.136   0.004
   0.167   0.093  -0.087  -0.260  -0.302  -0.161   0.100   0.349   0.473   0.436
   0.273   0.081   0.007   0.203   0.715   1.422   2.101   2.562   2.721   2.562
   2.101   1.422   0.715   0.203   0.007   0.081   0.273   0.436   0.473   0.349
   0.100  -0.161  -0.302  -0.260  -0.087   0.093   0.167   0.093  -0.087  -0.260
  -0.302  -0.161   0.100   0.349   0.473   0.436   0.273   0.081   0.007   0.203
   0.715   1.422   2.101   2.562   2.721   2.562   2.101   1.422   0.715   0.203
   0.007   0.081   0.273   0.436   0.473   0.349   0.100  -0.161  -0.302  -0.260
  -0.087   0.093
   0.999   1.016   0.995   0.820   0.515   0.250   0.172   0.273   0.434   0.543
   0.536   0.401   0.200   0.102   0.321   0.942   1.805   2.559   2.857   2.559
   1.805   0.942   0.321   0.102   0.200   0.401   0.536   0.543   0.434   0.273
   0.172   0.250   0.515   0.820   0.995   1.016   0.999   1.016   0.995   0.820
   0.515   0.250   0.172   0.273   0.434   0.543   0.536   0.401   0.200   0.102
   0.321   0.942   1.805   2.559   2.857   2.559   1.805   0.942   0.321   0.102
   0.200   0.401   0.536   0.543   0.434   0.273   0.172   0.250   0.515   0.820
   0.995   1.016
   2.613   2.815   3.169   3.193   2.668   1.808   0.998   0.472   0.257   0.284
   0.438   0.542   0.447   0.215   0.157   0.585   1.477   2.396   2.787   2.396
   1.477   0.585   0.157   0.215   0.447   0.542   0.438   0.284   0.257   0.472
   0.998   1.808   2.668   3.193   3.169   2.815   2.613   2.815   3.169   3.193
   2.668   1.808   0.998   0.472   0.257   0.284   0.438   0.542   0.447   0.215
   0.157   0.585   1.477   2.396   2.787   2.396   1.477   0.585   0.157   0.215
   0.447   0.542   0.438   0.284   0.257   0.472   0.998   1.808   2.668   3.193
   3.169   2.815
   4.013   4.371   5.058   5.303   4.671   3.366   1.930   0.792   0.134  -0.028
   0.186   0.484   0.542   0.303   0.107   0.404   1.280   2.270   2.705   2.270
   1.280   0.404   0.107   0.303   0.542   0.484   0.186  -0.028   0.134   0.792
   1.930   3.366   4.671   5.303   5.058   4.371   4.013   4.371   5.058   5.303
   4.671   3.366   1.930   0.792   0.134  -0.028   0.186   0.484   0.542   0.303
   0.107   0.404   1.280   2.270   2.705   2.270   1.280   0.404   0.107   0.303
   0.542   0.484   0.186  -0.028   0.134   0.792   1.930   3.366   4.671   5.303
   5.058   4.371
TEXTURE_INDEX=   6.6573
ERR_CF 220         1080     460   89.69   26.26
ERR_CF 200         1080     284   88.19   19.67
ERR_CF 111         1072     290  158.29   17.47
