TEXEVAL                                                                         
Analysis started on 15-Feb-19 11:27:08                                          
 LMAX=16LFMAX=03 CUBIC ORTHO   
 220      5.00 5.00
 200      5.00 5.00
 111      5.00 5.00
 220       5.00   72    0 5.00   15    0
   4.495   4.495   4.495   4.495   4.495   4.495   4.495   4.495   4.495   4.495
   4.495   4.495   4.495   4.495   4.495   4.495   4.495   4.495   4.495   4.495
   4.495   4.495   4.495   4.495   4.495   4.495   4.495   4.495   4.495   4.495
   4.495   4.495   4.495   4.495   4.495   4.495   4.495   4.495   4.495   4.495
   4.495   4.495   4.495   4.495   4.495   4.495   4.495   4.495   4.495   4.495
   4.495   4.495   4.495   4.495   4.495   4.495   4.495   4.495   4.495   4.495
   4.495   4.495   4.495   4.495   4.495   4.495   4.495   4.495   4.495   4.495
   4.495   4.495
   1.652   1.686   1.680   1.768   1.849   1.963   2.088   2.254   2.425   2.524
   2.826   3.117   3.471   3.848   4.072   4.431   4.691   4.781   4.946   4.781
   4.691   4.431   4.072   3.848   3.471   3.117   2.826   2.524   2.425   2.254
   2.088   1.963   1.849   1.768   1.680   1.686   1.652   1.686   1.680   1.768
   1.849   1.963   2.088   2.254   2.425   2.524   2.826   3.117   3.471   3.848
   4.072   4.431   4.691   4.781   4.946   4.781   4.691   4.431   4.072   3.848
   3.471   3.117   2.826   2.524   2.425   2.254   2.088   1.963   1.849   1.768
   1.680   1.686
   0.605   0.581   0.586   0.650   0.641   0.765   0.796   0.898   1.072   1.235
   1.455   1.815   2.231   2.712   3.209   3.804   4.257   4.484   4.668   4.484
   4.257   3.804   3.209   2.712   2.231   1.815   1.455   1.235   1.072   0.898
   0.796   0.765   0.641   0.650   0.586   0.581   0.605   0.581   0.586   0.650
   0.641   0.765   0.796   0.898   1.072   1.235   1.455   1.815   2.231   2.712
   3.209   3.804   4.257   4.484   4.668   4.484   4.257   3.804   3.209   2.712
   2.231   1.815   1.455   1.235   1.072   0.898   0.796   0.765   0.641   0.650
   0.586   0.581
   0.414   0.400   0.398   0.409   0.411   0.465   0.463   0.529   0.664   0.782
   0.916   1.189   1.478   1.978   2.583   3.345   3.932   4.300   4.308   4.300
   3.932   3.345   2.583   1.978   1.478   1.189   0.916   0.782   0.664   0.529
   0.463   0.465   0.411   0.409   0.398   0.400   0.414   0.400   0.398   0.409
   0.411   0.465   0.463   0.529   0.664   0.782   0.916   1.189   1.478   1.978
   2.583   3.345   3.932   4.300   4.308   4.300   3.932   3.345   2.583   1.978
   1.478   1.189   0.916   0.782   0.664   0.529   0.463   0.465   0.411   0.409
   0.398   0.400
   0.405   0.378   0.372   0.388   0.434   0.425   0.477   0.500   0.603   0.690
   0.733   0.925   1.127   1.621   2.205   2.939   3.598   4.118   4.154   4.118
   3.598   2.939   2.205   1.621   1.127   0.925   0.733   0.690   0.603   0.500
   0.477   0.425   0.434   0.388   0.372   0.378   0.405   0.378   0.372   0.388
   0.434   0.425   0.477   0.500   0.603   0.690   0.733   0.925   1.127   1.621
   2.205   2.939   3.598   4.118   4.154   4.118   3.598   2.939   2.205   1.621
   1.127   0.925   0.733   0.690   0.603   0.500   0.477   0.425   0.434   0.388
   0.372   0.378
   0.426   0.385   0.366   0.375   0.397   0.445   0.509   0.546   0.632   0.681
   0.733   0.969   1.176   1.448   1.969   2.576   3.236   3.715   3.677   3.715
   3.236   2.576   1.969   1.448   1.176   0.969   0.733   0.681   0.632   0.546
   0.509   0.445   0.397   0.375   0.366   0.385   0.426   0.385   0.366   0.375
   0.397   0.445   0.509   0.546   0.632   0.681   0.733   0.969   1.176   1.448
   1.969   2.576   3.236   3.715   3.677   3.715   3.236   2.576   1.969   1.448
   1.176   0.969   0.733   0.681   0.632   0.546   0.509   0.445   0.397   0.375
   0.366   0.385
   0.354   0.355   0.364   0.349   0.405   0.448   0.494   0.576   0.656   0.699
   0.811   1.064   1.143   1.363   1.769   2.183   2.730   3.017   2.912   3.017
   2.730   2.183   1.769   1.363   1.143   1.064   0.811   0.699   0.656   0.576
   0.494   0.448   0.405   0.349   0.364   0.355   0.354   0.355   0.364   0.349
   0.405   0.448   0.494   0.576   0.656   0.699   0.811   1.064   1.143   1.363
   1.769   2.183   2.730   3.017   2.912   3.017   2.730   2.183   1.769   1.363
   1.143   1.064   0.811   0.699   0.656   0.576   0.494   0.448   0.405   0.349
   0.364   0.355
   0.339   0.369   0.414   0.389   0.485   0.458   0.508   0.568   0.676   0.716
   0.757   0.961   1.057   1.224   1.549   1.670   1.965   2.144   2.106   2.144
   1.965   1.670   1.549   1.224   1.057   0.961   0.757   0.716   0.676   0.568
   0.508   0.458   0.485   0.389   0.414   0.369   0.339   0.369   0.414   0.389
   0.485   0.458   0.508   0.568   0.676   0.716   0.757   0.961   1.057   1.224
   1.549   1.670   1.965   2.144   2.106   2.144   1.965   1.670   1.549   1.224
   1.057   0.961   0.757   0.716   0.676   0.568   0.508   0.458   0.485   0.389
   0.414   0.369
   0.419   0.380   0.390   0.426   0.463   0.459   0.541   0.519   0.562   0.613
   0.729   0.825   0.996   0.986   1.322   1.324   1.375   1.416   1.359   1.416
   1.375   1.324   1.322   0.986   0.996   0.825   0.729   0.613   0.562   0.519
   0.541   0.459   0.463   0.426   0.390   0.380   0.419   0.380   0.390   0.426
   0.463   0.459   0.541   0.519   0.562   0.613   0.729   0.825   0.996   0.986
   1.322   1.324   1.375   1.416   1.359   1.416   1.375   1.324   1.322   0.986
   0.996   0.825   0.729   0.613   0.562   0.519   0.541   0.459   0.463   0.426
   0.390   0.380
   0.533   0.494   0.487   0.552   0.484   0.525   0.594   0.624   0.540   0.677
   0.702   0.727   0.820   0.779   1.068   1.143   1.058   0.991   0.874   0.991
   1.058   1.143   1.068   0.779   0.820   0.727   0.702   0.677   0.540   0.624
   0.594   0.525   0.484   0.552   0.487   0.494   0.533   0.494   0.487   0.552
   0.484   0.525   0.594   0.624   0.540   0.677   0.702   0.727   0.820   0.779
   1.068   1.143   1.058   0.991   0.874   0.991   1.058   1.143   1.068   0.779
   0.820   0.727   0.702   0.677   0.540   0.624   0.594   0.525   0.484   0.552
   0.487   0.494
   1.240   1.370   1.198   1.144   0.880   0.877   0.780   0.805   0.722   0.736
   0.533   0.727   0.798   0.741   0.923   1.011   0.855   0.711   0.719   0.711
   0.855   1.011   0.923   0.741   0.798   0.727   0.533   0.736   0.722   0.805
   0.780   0.877   0.880   1.144   1.198   1.370   1.240   1.370   1.198   1.144
   0.880   0.877   0.780   0.805   0.722   0.736   0.533   0.727   0.798   0.741
   0.923   1.011   0.855   0.711   0.719   0.711   0.855   1.011   0.923   0.741
   0.798   0.727   0.533   0.736   0.722   0.805   0.780   0.877   0.880   1.144
   1.198   1.370
   3.549   3.575   3.096   2.487   1.814   1.596   1.220   0.907   0.908   0.636
   0.471   0.701   0.765   0.859   0.855   0.838   0.865   0.438   0.431   0.438
   0.865   0.838   0.855   0.859   0.765   0.701   0.471   0.636   0.908   0.907
   1.220   1.596   1.814   2.487   3.096   3.575   3.549   3.575   3.096   2.487
   1.814   1.596   1.220   0.907   0.908   0.636   0.471   0.701   0.765   0.859
   0.855   0.838   0.865   0.438   0.431   0.438   0.865   0.838   0.855   0.859
   0.765   0.701   0.471   0.636   0.908   0.907   1.220   1.596   1.814   2.487
   3.096   3.575
   4.208   3.780   3.657   3.081   2.354   2.070   1.690   1.291   1.104   0.827
   0.689   0.620   0.603   0.854   0.745   0.695   0.870   0.440   0.477   0.440
   0.870   0.695   0.745   0.854   0.603   0.620   0.689   0.827   1.104   1.291
   1.690   2.070   2.354   3.081   3.657   3.780   4.208   3.780   3.657   3.081
   2.354   2.070   1.690   1.291   1.104   0.827   0.689   0.620   0.603   0.854
   0.745   0.695   0.870   0.440   0.477   0.440   0.870   0.695   0.745   0.854
   0.603   0.620   0.689   0.827   1.104   1.291   1.690   2.070   2.354   3.081
   3.657   3.780
   1.992   1.642   1.725   1.640   1.570   1.691   1.675   1.514   1.314   1.006
   0.912   0.737   0.505   0.705   0.684   0.834   0.842   0.691   0.712   0.691
   0.842   0.834   0.684   0.705   0.505   0.737   0.912   1.006   1.314   1.514
   1.675   1.691   1.570   1.640   1.725   1.642   1.992   1.642   1.725   1.640
   1.570   1.691   1.675   1.514   1.314   1.006   0.912   0.737   0.505   0.705
   0.684   0.834   0.842   0.691   0.712   0.691   0.842   0.834   0.684   0.705
   0.505   0.737   0.912   1.006   1.314   1.514   1.675   1.691   1.570   1.640
   1.725   1.642
   0.694   0.497   0.527   0.474   0.780   0.933   1.073   1.256   1.349   1.117
   1.041   0.728   0.578   0.559   0.812   0.874   0.970   1.066   1.070   1.066
   0.970   0.874   0.812   0.559   0.578   0.728   1.041   1.117   1.349   1.256
   1.073   0.933   0.780   0.474   0.527   0.497   0.694   0.497   0.527   0.474
   0.780   0.933   1.073   1.256   1.349   1.117   1.041   0.728   0.578   0.559
   0.812   0.874   0.970   1.066   1.070   1.066   0.970   0.874   0.812   0.559
   0.578   0.728   1.041   1.117   1.349   1.256   1.073   0.933   0.780   0.474
   0.527   0.497
 200       5.00   72    0 5.00   15    0
   0.659   0.659   0.659   0.659   0.659   0.659   0.659   0.659   0.659   0.659
   0.659   0.659   0.659   0.659   0.659   0.659   0.659   0.659   0.659   0.659
   0.659   0.659   0.659   0.659   0.659   0.659   0.659   0.659   0.659   0.659
   0.659   0.659   0.659   0.659   0.659   0.659   0.659   0.659   0.659   0.659
   0.659   0.659   0.659   0.659   0.659   0.659   0.659   0.659   0.659   0.659
   0.659   0.659   0.659   0.659   0.659   0.659   0.659   0.659   0.659   0.659
   0.659   0.659   0.659   0.659   0.659   0.659   0.659   0.659   0.659   0.659
   0.659   0.659
   0.860   0.842   0.828   0.831   0.822   0.811   0.790   0.788   0.794   0.793
   0.741   0.728   0.730   0.704   0.723   0.709   0.695   0.696   0.641   0.696
   0.695   0.709   0.723   0.704   0.730   0.728   0.741   0.793   0.794   0.788
   0.790   0.811   0.822   0.831   0.828   0.842   0.860   0.842   0.828   0.831
   0.822   0.811   0.790   0.788   0.794   0.793   0.741   0.728   0.730   0.704
   0.723   0.709   0.695   0.696   0.641   0.696   0.695   0.709   0.723   0.704
   0.730   0.728   0.741   0.793   0.794   0.788   0.790   0.811   0.822   0.831
   0.828   0.842
   1.088   1.082   1.041   1.028   1.010   0.994   0.943   0.900   0.878   0.847
   0.786   0.765   0.730   0.706   0.701   0.661   0.669   0.651   0.614   0.651
   0.669   0.661   0.701   0.706   0.730   0.765   0.786   0.847   0.878   0.900
   0.943   0.994   1.010   1.028   1.041   1.082   1.088   1.082   1.041   1.028
   1.010   0.994   0.943   0.900   0.878   0.847   0.786   0.765   0.730   0.706
   0.701   0.661   0.669   0.651   0.614   0.651   0.669   0.661   0.701   0.706
   0.730   0.765   0.786   0.847   0.878   0.900   0.943   0.994   1.010   1.028
   1.041   1.082
   1.513   1.528   1.470   1.393   1.411   1.329   1.223   1.092   1.011   0.958
   0.885   0.835   0.769   0.735   0.683   0.644   0.653   0.647   0.599   0.647
   0.653   0.644   0.683   0.735   0.769   0.835   0.885   0.958   1.011   1.092
   1.223   1.329   1.411   1.393   1.470   1.528   1.513   1.528   1.470   1.393
   1.411   1.329   1.223   1.092   1.011   0.958   0.885   0.835   0.769   0.735
   0.683   0.644   0.653   0.647   0.599   0.647   0.653   0.644   0.683   0.735
   0.769   0.835   0.885   0.958   1.011   1.092   1.223   1.329   1.411   1.393
   1.470   1.528
   2.428   2.383   2.310   2.207   2.165   1.921   1.730   1.518   1.306   1.197
   0.994   0.900   0.831   0.773   0.704   0.685   0.664   0.651   0.624   0.651
   0.664   0.685   0.704   0.773   0.831   0.900   0.994   1.197   1.306   1.518
   1.730   1.921   2.165   2.207   2.310   2.383   2.428   2.383   2.310   2.207
   2.165   1.921   1.730   1.518   1.306   1.197   0.994   0.900   0.831   0.773
   0.704   0.685   0.664   0.651   0.624   0.651   0.664   0.685   0.704   0.773
   0.831   0.900   0.994   1.197   1.306   1.518   1.730   1.921   2.165   2.207
   2.310   2.383
   3.183   3.091   3.113   2.931   2.853   2.616   2.441   2.087   1.750   1.520
   1.213   1.028   0.937   0.860   0.824   0.702   0.712   0.697   0.723   0.697
   0.712   0.702   0.824   0.860   0.937   1.028   1.213   1.520   1.750   2.087
   2.441   2.616   2.853   2.931   3.113   3.091   3.183   3.091   3.113   2.931
   2.853   2.616   2.441   2.087   1.750   1.520   1.213   1.028   0.937   0.860
   0.824   0.702   0.712   0.697   0.723   0.697   0.712   0.702   0.824   0.860
   0.937   1.028   1.213   1.520   1.750   2.087   2.441   2.616   2.853   2.931
   3.113   3.091
   2.259   2.240   2.390   2.251   2.364   2.355   2.337   2.152   1.952   1.721
   1.511   1.205   1.084   0.958   0.915   0.807   0.818   0.788   0.806   0.788
   0.818   0.807   0.915   0.958   1.084   1.205   1.511   1.721   1.952   2.152
   2.337   2.355   2.364   2.251   2.390   2.240   2.259   2.240   2.390   2.251
   2.364   2.355   2.337   2.152   1.952   1.721   1.511   1.205   1.084   0.958
   0.915   0.807   0.818   0.788   0.806   0.788   0.818   0.807   0.915   0.958
   1.084   1.205   1.511   1.721   1.952   2.152   2.337   2.355   2.364   2.251
   2.390   2.240
   0.852   0.893   0.961   0.988   1.127   1.279   1.405   1.589   1.722   1.663
   1.592   1.388   1.173   1.029   0.910   0.897   0.908   0.804   0.799   0.804
   0.908   0.897   0.910   1.029   1.173   1.388   1.592   1.663   1.722   1.589
   1.405   1.279   1.127   0.988   0.961   0.893   0.852   0.893   0.961   0.988
   1.127   1.279   1.405   1.589   1.722   1.663   1.592   1.388   1.173   1.029
   0.910   0.897   0.908   0.804   0.799   0.804   0.908   0.897   0.910   1.029
   1.173   1.388   1.592   1.663   1.722   1.589   1.405   1.279   1.127   0.988
   0.961   0.893
   0.405   0.358   0.358   0.417   0.495   0.627   0.720   0.973   1.203   1.346
   1.453   1.473   1.225   1.072   0.912   0.858   0.863   0.828   0.806   0.828
   0.863   0.858   0.912   1.072   1.225   1.473   1.453   1.346   1.203   0.973
   0.720   0.627   0.495   0.417   0.358   0.358   0.405   0.358   0.358   0.417
   0.495   0.627   0.720   0.973   1.203   1.346   1.453   1.473   1.225   1.072
   0.912   0.858   0.863   0.828   0.806   0.828   0.863   0.858   0.912   1.072
   1.225   1.473   1.453   1.346   1.203   0.973   0.720   0.627   0.495   0.417
   0.358   0.358
   0.335   0.204   0.189   0.245   0.335   0.390   0.421   0.619   0.749   1.020
   1.306   1.407   1.300   1.156   0.989   0.866   0.831   0.891   0.858   0.891
   0.831   0.866   0.989   1.156   1.300   1.407   1.306   1.020   0.749   0.619
   0.421   0.390   0.335   0.245   0.189   0.204   0.335   0.204   0.189   0.245
   0.335   0.390   0.421   0.619   0.749   1.020   1.306   1.407   1.300   1.156
   0.989   0.866   0.831   0.891   0.858   0.891   0.831   0.866   0.989   1.156
   1.300   1.407   1.306   1.020   0.749   0.619   0.421   0.390   0.335   0.245
   0.189   0.204
   0.224   0.209   0.203   0.184   0.189   0.315   0.351   0.471   0.578   0.887
   1.193   1.247   1.319   1.146   0.989   0.800   0.890   0.897   0.844   0.897
   0.890   0.800   0.989   1.146   1.319   1.247   1.193   0.887   0.578   0.471
   0.351   0.315   0.189   0.184   0.203   0.209   0.224   0.209   0.203   0.184
   0.189   0.315   0.351   0.471   0.578   0.887   1.193   1.247   1.319   1.146
   0.989   0.800   0.890   0.897   0.844   0.897   0.890   0.800   0.989   1.146
   1.319   1.247   1.193   0.887   0.578   0.471   0.351   0.315   0.189   0.184
   0.203   0.209
   0.164   0.162   0.249   0.142   0.139   0.262   0.305   0.386   0.523   0.968
   1.167   1.244   1.250   0.994   0.907   0.762   0.919   0.770   0.820   0.770
   0.919   0.762   0.907   0.994   1.250   1.244   1.167   0.968   0.523   0.386
   0.305   0.262   0.139   0.142   0.249   0.162   0.164   0.162   0.249   0.142
   0.139   0.262   0.305   0.386   0.523   0.968   1.167   1.244   1.250   0.994
   0.907   0.762   0.919   0.770   0.820   0.770   0.919   0.762   0.907   0.994
   1.250   1.244   1.167   0.968   0.523   0.386   0.305   0.262   0.139   0.142
   0.249   0.162
   0.232   0.214   0.278   0.201   0.308   0.251   0.388   0.483   0.587   0.982
   1.240   1.230   1.049   0.838   0.830   0.767   0.817   0.792   0.832   0.792
   0.817   0.767   0.830   0.838   1.049   1.230   1.240   0.982   0.587   0.483
   0.388   0.251   0.308   0.201   0.278   0.214   0.232   0.214   0.278   0.201
   0.308   0.251   0.388   0.483   0.587   0.982   1.240   1.230   1.049   0.838
   0.830   0.767   0.817   0.792   0.832   0.792   0.817   0.767   0.830   0.838
   1.049   1.230   1.240   0.982   0.587   0.483   0.388   0.251   0.308   0.201
   0.278   0.214
   0.327   0.393   0.433   0.338   0.385   0.330   0.497   0.696   0.887   1.089
   1.346   1.125   0.867   0.788   0.735   0.658   0.675   0.816   0.778   0.816
   0.675   0.658   0.735   0.788   0.867   1.125   1.346   1.089   0.887   0.696
   0.497   0.330   0.385   0.338   0.433   0.393   0.327   0.393   0.433   0.338
   0.385   0.330   0.497   0.696   0.887   1.089   1.346   1.125   0.867   0.788
   0.735   0.658   0.675   0.816   0.778   0.816   0.675   0.658   0.735   0.788
   0.867   1.125   1.346   1.089   0.887   0.696   0.497   0.330   0.385   0.338
   0.433   0.393
   0.592   0.739   0.615   0.564   0.509   0.515   0.654   0.834   1.054   1.312
   1.316   1.172   0.854   0.789   0.731   0.592   0.678   0.703   0.601   0.703
   0.678   0.592   0.731   0.789   0.854   1.172   1.316   1.312   1.054   0.834
   0.654   0.515   0.509   0.564   0.615   0.739   0.592   0.739   0.615   0.564
   0.509   0.515   0.654   0.834   1.054   1.312   1.316   1.172   0.854   0.789
   0.731   0.592   0.678   0.703   0.601   0.703   0.678   0.592   0.731   0.789
   0.854   1.172   1.316   1.312   1.054   0.834   0.654   0.515   0.509   0.564
   0.615   0.739
 111       5.00   72    0 5.00   15    0
   0.118   0.118   0.118   0.118   0.118   0.118   0.118   0.118   0.118   0.118
   0.118   0.118   0.118   0.118   0.118   0.118   0.118   0.118   0.118   0.118
   0.118   0.118   0.118   0.118   0.118   0.118   0.118   0.118   0.118   0.118
   0.118   0.118   0.118   0.118   0.118   0.118   0.118   0.118   0.118   0.118
   0.118   0.118   0.118   0.118   0.118   0.118   0.118   0.118   0.118   0.118
   0.118   0.118   0.118   0.118   0.118   0.118   0.118   0.118   0.118   0.118
   0.118   0.118   0.118   0.118   0.118   0.118   0.118   0.118   0.118   0.118
   0.118   0.118
   0.162   0.171   0.168   0.163   0.159   0.153   0.155   0.145   0.143   0.143
   0.138   0.136   0.139   0.134   0.135   0.135   0.136   0.135   0.129   0.135
   0.136   0.135   0.135   0.134   0.139   0.136   0.138   0.143   0.143   0.145
   0.155   0.153   0.159   0.163   0.168   0.171   0.162   0.171   0.168   0.163
   0.159   0.153   0.155   0.145   0.143   0.143   0.138   0.136   0.139   0.134
   0.135   0.135   0.136   0.135   0.129   0.135   0.136   0.135   0.135   0.134
   0.139   0.136   0.138   0.143   0.143   0.145   0.155   0.153   0.159   0.163
   0.168   0.171
   0.253   0.278   0.280   0.261   0.245   0.237   0.226   0.206   0.188   0.188
   0.176   0.167   0.163   0.160   0.148   0.146   0.151   0.150   0.149   0.150
   0.151   0.146   0.148   0.160   0.163   0.167   0.176   0.188   0.188   0.206
   0.226   0.237   0.245   0.261   0.280   0.278   0.253   0.278   0.280   0.261
   0.245   0.237   0.226   0.206   0.188   0.188   0.176   0.167   0.163   0.160
   0.148   0.146   0.151   0.150   0.149   0.150   0.151   0.146   0.148   0.160
   0.163   0.167   0.176   0.188   0.188   0.206   0.226   0.237   0.245   0.261
   0.280   0.278
   0.768   0.761   0.712   0.671   0.576   0.483   0.413   0.378   0.315   0.285
   0.249   0.227   0.203   0.193   0.166   0.168   0.168   0.163   0.164   0.163
   0.168   0.168   0.166   0.193   0.203   0.227   0.249   0.285   0.315   0.378
   0.413   0.483   0.576   0.671   0.712   0.761   0.768   0.761   0.712   0.671
   0.576   0.483   0.413   0.378   0.315   0.285   0.249   0.227   0.203   0.193
   0.166   0.168   0.168   0.163   0.164   0.163   0.168   0.168   0.166   0.193
   0.203   0.227   0.249   0.285   0.315   0.378   0.413   0.483   0.576   0.671
   0.712   0.761
   2.656   2.570   2.403   2.142   1.764   1.369   1.070   0.845   0.621   0.517
   0.392   0.328   0.270   0.236   0.190   0.181   0.164   0.161   0.157   0.161
   0.164   0.181   0.190   0.236   0.270   0.328   0.392   0.517   0.621   0.845
   1.070   1.369   1.764   2.142   2.403   2.570   2.656   2.570   2.403   2.142
   1.764   1.369   1.070   0.845   0.621   0.517   0.392   0.328   0.270   0.236
   0.190   0.181   0.164   0.161   0.157   0.161   0.164   0.181   0.190   0.236
   0.270   0.328   0.392   0.517   0.621   0.845   1.070   1.369   1.764   2.142
   2.403   2.570
   4.506   4.353   4.210   3.914   3.428   2.906   2.283   1.756   1.209   0.969
   0.686   0.512   0.393   0.298   0.247   0.218   0.191   0.187   0.189   0.187
   0.191   0.218   0.247   0.298   0.393   0.512   0.686   0.969   1.209   1.756
   2.283   2.906   3.428   3.914   4.210   4.353   4.506   4.353   4.210   3.914
   3.428   2.906   2.283   1.756   1.209   0.969   0.686   0.512   0.393   0.298
   0.247   0.218   0.191   0.187   0.189   0.187   0.191   0.218   0.247   0.298
   0.393   0.512   0.686   0.969   1.209   1.756   2.283   2.906   3.428   3.914
   4.210   4.353
   3.869   3.759   3.849   3.845   3.777   3.459   3.039   2.545   1.936   1.564
   1.154   0.791   0.589   0.452   0.380   0.310   0.268   0.255   0.251   0.255
   0.268   0.310   0.380   0.452   0.589   0.791   1.154   1.564   1.936   2.545
   3.039   3.459   3.777   3.845   3.849   3.759   3.869   3.759   3.849   3.845
   3.777   3.459   3.039   2.545   1.936   1.564   1.154   0.791   0.589   0.452
   0.380   0.310   0.268   0.255   0.251   0.255   0.268   0.310   0.380   0.452
   0.589   0.791   1.154   1.564   1.936   2.545   3.039   3.459   3.777   3.845
   3.849   3.759
   2.007   1.999   2.196   2.346   2.633   2.675   2.662   2.487   2.264   1.967
   1.548   1.147   0.874   0.681   0.551   0.446   0.373   0.357   0.365   0.357
   0.373   0.446   0.551   0.681   0.874   1.147   1.548   1.967   2.264   2.487
   2.662   2.675   2.633   2.346   2.196   1.999   2.007   1.999   2.196   2.346
   2.633   2.675   2.662   2.487   2.264   1.967   1.548   1.147   0.874   0.681
   0.551   0.446   0.373   0.357   0.365   0.357   0.373   0.446   0.551   0.681
   0.874   1.147   1.548   1.967   2.264   2.487   2.662   2.675   2.633   2.346
   2.196   1.999
   0.799   0.880   0.949   1.123   1.315   1.622   1.807   1.918   1.923   1.887
   1.696   1.384   1.156   0.915   0.721   0.590   0.558   0.485   0.517   0.485
   0.558   0.590   0.721   0.915   1.156   1.384   1.696   1.887   1.923   1.918
   1.807   1.622   1.315   1.123   0.949   0.880   0.799   0.880   0.949   1.123
   1.315   1.622   1.807   1.918   1.923   1.887   1.696   1.384   1.156   0.915
   0.721   0.590   0.558   0.485   0.517   0.485   0.558   0.590   0.721   0.915
   1.156   1.384   1.696   1.887   1.923   1.918   1.807   1.622   1.315   1.123
   0.949   0.880
   0.387   0.426   0.421   0.550   0.550   0.805   1.085   1.353   1.449   1.615
   1.637   1.490   1.372   1.129   0.939   0.843   0.746   0.618   0.660   0.618
   0.746   0.843   0.939   1.129   1.372   1.490   1.637   1.615   1.449   1.353
   1.085   0.805   0.550   0.550   0.421   0.426   0.387   0.426   0.421   0.550
   0.550   0.805   1.085   1.353   1.449   1.615   1.637   1.490   1.372   1.129
   0.939   0.843   0.746   0.618   0.660   0.618   0.746   0.843   0.939   1.129
   1.372   1.490   1.637   1.615   1.449   1.353   1.085   0.805   0.550   0.550
   0.421   0.426
   0.305   0.310   0.275   0.366   0.291   0.467   0.655   0.897   1.085   1.233
   1.358   1.440   1.468   1.308   1.203   1.124   0.875   0.816   0.845   0.816
   0.875   1.124   1.203   1.308   1.468   1.440   1.358   1.233   1.085   0.897
   0.655   0.467   0.291   0.366   0.275   0.310   0.305   0.310   0.275   0.366
   0.291   0.467   0.655   0.897   1.085   1.233   1.358   1.440   1.468   1.308
   1.203   1.124   0.875   0.816   0.845   0.816   0.875   1.124   1.203   1.308
   1.468   1.440   1.358   1.233   1.085   0.897   0.655   0.467   0.291   0.366
   0.275   0.310
   0.258   0.295   0.293   0.320   0.232   0.342   0.469   0.632   0.767   0.873
   1.030   1.200   1.265   1.350   1.401   1.215   1.063   0.947   1.010   0.947
   1.063   1.215   1.401   1.350   1.265   1.200   1.030   0.873   0.767   0.632
   0.469   0.342   0.232   0.320   0.293   0.295   0.258   0.295   0.293   0.320
   0.232   0.342   0.469   0.632   0.767   0.873   1.030   1.200   1.265   1.350
   1.401   1.215   1.063   0.947   1.010   0.947   1.063   1.215   1.401   1.350
   1.265   1.200   1.030   0.873   0.767   0.632   0.469   0.342   0.232   0.320
   0.293   0.295
   0.259   0.275   0.310   0.268   0.246   0.277   0.418   0.548   0.654   0.760
   0.822   0.882   0.932   1.184   1.365   1.238   1.161   1.045   1.147   1.045
   1.161   1.238   1.365   1.184   0.932   0.882   0.822   0.760   0.654   0.548
   0.418   0.277   0.246   0.268   0.310   0.275   0.259   0.275   0.310   0.268
   0.246   0.277   0.418   0.548   0.654   0.760   0.822   0.882   0.932   1.184
   1.365   1.238   1.161   1.045   1.147   1.045   1.161   1.238   1.365   1.184
   0.932   0.882   0.822   0.760   0.654   0.548   0.418   0.277   0.246   0.268
   0.310   0.275
   0.359   0.312   0.323   0.279   0.280   0.340   0.417   0.535   0.673   0.656
   0.710   0.655   0.799   1.020   1.089   1.121   1.137   1.049   1.184   1.049
   1.137   1.121   1.089   1.020   0.799   0.655   0.710   0.656   0.673   0.535
   0.417   0.340   0.280   0.279   0.323   0.312   0.359   0.312   0.323   0.279
   0.280   0.340   0.417   0.535   0.673   0.656   0.710   0.655   0.799   1.020
   1.089   1.121   1.137   1.049   1.184   1.049   1.137   1.121   1.089   1.020
   0.799   0.655   0.710   0.656   0.673   0.535   0.417   0.340   0.280   0.279
   0.323   0.312
   0.625   0.565   0.553   0.402   0.388   0.443   0.462   0.572   0.679   0.614
   0.667   0.615   0.852   0.842   0.888   0.943   1.212   0.992   1.002   0.992
   1.212   0.943   0.888   0.842   0.852   0.615   0.667   0.614   0.679   0.572
   0.462   0.443   0.388   0.402   0.553   0.565   0.625   0.565   0.553   0.402
   0.388   0.443   0.462   0.572   0.679   0.614   0.667   0.615   0.852   0.842
   0.888   0.943   1.212   0.992   1.002   0.992   1.212   0.943   0.888   0.842
   0.852   0.615   0.667   0.614   0.679   0.572   0.462   0.443   0.388   0.402
   0.553   0.565
  4  1      4.6953520E-01
  4  2     -3.3294931E-01
  4  3     -4.0967794E-01
  6  1      2.0440323E+00
  6  2     -3.1559799E+00
  6  3      1.0215938E+00
  6  4     -1.4656755E-01
  8  1     -3.2429965E-01
  8  2      2.5747314E-01
  8  3      9.4680187E-02
  8  4      3.6777431E-01
  8  5      5.3890286E-01
 10  1      1.0650933E-01
 10  2     -3.4866618E-01
 10  3      4.4784985E-01
 10  4     -8.9621344E-02
 10  5     -4.4908628E-02
 10  6      8.4334190E-03
 12  1     -1.3889267E-01  1.6453878E+00
 12  2      3.8921826E-02 -2.0982150E+00
 12  3     -6.8809054E-02  1.8548698E+00
 12  4      8.8627259E-02 -9.0494176E-01
 12  5      7.1326865E-02  2.7875331E-02
 12  6     -3.8828516E-01  2.2910979E-01
 12  7     -1.3852122E-01 -9.9030835E-02
 14  1     -4.2381964E-01
 14  2      3.7615589E-01
 14  3     -1.1239622E-01
 14  4      1.2449251E-01
 14  5     -6.3638850E-02
 14  6      9.6227635E-02
 14  7     -3.5683748E-03
 14  8      1.0789404E-01
 16  1      2.3212773E-02  8.3642025E-02
 16  2     -2.8315720E-01 -1.9189079E-02
 16  3      2.3638319E-01  1.0347000E-01
 16  4     -7.4145522E-02 -3.0447962E-01
 16  5      2.7886365E-02  2.0477453E-01
 16  6     -3.6349800E-02  1.2948265E-02
 16  7      5.0358733E-02  3.1125250E-02
 16  8      1.3278837E-01  4.3794518E-02
 16  9      1.2450328E-02  2.2387801E-02
 220       5.00   72    0 5.00   18    0
   2.572   2.573   2.577   2.582   2.590   2.599   2.610   2.622   2.635   2.649
   2.662   2.675   2.687   2.698   2.708   2.716   2.722   2.725   2.726   2.725
   2.722   2.716   2.708   2.698   2.687   2.675   2.662   2.649   2.635   2.622
   2.610   2.599   2.590   2.582   2.577   2.573   2.572   2.573   2.577   2.582
   2.590   2.599   2.610   2.622   2.635   2.649   2.662   2.675   2.687   2.698
   2.708   2.716   2.722   2.725   2.726   2.725   2.722   2.716   2.708   2.698
   2.687   2.675   2.662   2.649   2.635   2.622   2.610   2.599   2.590   2.582
   2.577   2.573
   1.582   1.589   1.612   1.648   1.699   1.763   1.839   1.925   2.020   2.120
   2.224   2.328   2.428   2.520   2.602   2.669   2.720   2.751   2.761   2.751
   2.720   2.669   2.602   2.520   2.428   2.328   2.224   2.120   2.020   1.925
   1.839   1.763   1.699   1.648   1.612   1.589   1.582   1.589   1.612   1.648
   1.699   1.763   1.839   1.925   2.020   2.120   2.224   2.328   2.428   2.520
   2.602   2.669   2.720   2.751   2.761   2.751   2.720   2.669   2.602   2.520
   2.428   2.328   2.224   2.120   2.020   1.925   1.839   1.763   1.699   1.648
   1.612   1.589
   0.414   0.423   0.452   0.500   0.571   0.665   0.784   0.929   1.099   1.292
   1.504   1.727   1.953   2.171   2.371   2.541   2.670   2.752   2.779   2.752
   2.670   2.541   2.371   2.171   1.953   1.727   1.504   1.292   1.099   0.929
   0.784   0.665   0.571   0.500   0.452   0.423   0.414   0.423   0.452   0.500
   0.571   0.665   0.784   0.929   1.099   1.292   1.504   1.727   1.953   2.171
   2.371   2.541   2.670   2.752   2.779   2.752   2.670   2.541   2.371   2.171
   1.953   1.727   1.504   1.292   1.099   0.929   0.784   0.665   0.571   0.500
   0.452   0.423
  -0.116  -0.115  -0.110  -0.099  -0.073  -0.027   0.048   0.162   0.321   0.527
   0.781   1.074   1.395   1.726   2.043   2.323   2.543   2.684   2.732   2.684
   2.543   2.323   2.043   1.726   1.395   1.074   0.781   0.527   0.321   0.162
   0.048  -0.027  -0.073  -0.099  -0.110  -0.115  -0.116  -0.115  -0.110  -0.099
  -0.073  -0.027   0.048   0.162   0.321   0.527   0.781   1.074   1.395   1.726
   2.043   2.323   2.543   2.684   2.732   2.684   2.543   2.323   2.043   1.726
   1.395   1.074   0.781   0.527   0.321   0.162   0.048  -0.027  -0.073  -0.099
  -0.110  -0.115
   0.075   0.066   0.042   0.007  -0.034  -0.069  -0.086  -0.068   0.000   0.132
   0.336   0.612   0.950   1.327   1.712   2.068   2.355   2.543   2.608   2.543
   2.355   2.068   1.712   1.327   0.950   0.612   0.336   0.132   0.000  -0.068
  -0.086  -0.069  -0.034   0.007   0.042   0.066   0.075   0.066   0.042   0.007
  -0.034  -0.069  -0.086  -0.068   0.000   0.132   0.336   0.612   0.950   1.327
   1.712   2.068   2.355   2.543   2.608   2.543   2.355   2.068   1.712   1.327
   0.950   0.612   0.336   0.132   0.000  -0.068  -0.086  -0.069  -0.034   0.007
   0.042   0.066
   0.406   0.401   0.384   0.355   0.311   0.256   0.197   0.148   0.129   0.164
   0.272   0.465   0.742   1.084   1.460   1.824   2.128   2.331   2.402   2.331
   2.128   1.824   1.460   1.084   0.742   0.465   0.272   0.164   0.129   0.148
   0.197   0.256   0.311   0.355   0.384   0.401   0.406   0.401   0.384   0.355
   0.311   0.256   0.197   0.148   0.129   0.164   0.272   0.465   0.742   1.084
   1.460   1.824   2.128   2.331   2.402   2.331   2.128   1.824   1.460   1.084
   0.742   0.465   0.272   0.164   0.129   0.148   0.197   0.256   0.311   0.355
   0.384   0.401
   0.341   0.352   0.384   0.426   0.465   0.487   0.484   0.459   0.427   0.412
   0.445   0.548   0.732   0.988   1.289   1.593   1.856   2.033   2.096   2.033
   1.856   1.593   1.289   0.988   0.732   0.548   0.445   0.412   0.427   0.459
   0.484   0.487   0.465   0.426   0.384   0.352   0.341   0.352   0.384   0.426
   0.465   0.487   0.484   0.459   0.427   0.412   0.445   0.548   0.732   0.988
   1.289   1.593   1.856   2.033   2.096   2.033   1.856   1.593   1.289   0.988
   0.732   0.548   0.445   0.412   0.427   0.459   0.484   0.487   0.465   0.426
   0.384   0.352
  -0.045  -0.018   0.057   0.171   0.305   0.432   0.530   0.584   0.601   0.601
   0.615   0.671   0.784   0.951   1.154   1.360   1.536   1.655   1.696   1.655
   1.536   1.360   1.154   0.951   0.784   0.671   0.615   0.601   0.601   0.584
   0.530   0.432   0.305   0.171   0.057  -0.018  -0.045  -0.018   0.057   0.171
   0.305   0.432   0.530   0.584   0.601   0.601   0.615   0.671   0.784   0.951
   1.154   1.360   1.536   1.655   1.696   1.655   1.536   1.360   1.154   0.951
   0.784   0.671   0.615   0.601   0.601   0.584   0.530   0.432   0.305   0.171
   0.057  -0.018
  -0.121  -0.106  -0.056   0.035   0.164   0.310   0.443   0.539   0.595   0.625
   0.657   0.713   0.803   0.918   1.040   1.147   1.223   1.266   1.280   1.266
   1.223   1.147   1.040   0.918   0.803   0.713   0.657   0.625   0.595   0.539
   0.443   0.310   0.164   0.035  -0.056  -0.106  -0.121  -0.106  -0.056   0.035
   0.164   0.310   0.443   0.539   0.595   0.625   0.657   0.713   0.803   0.918
   1.040   1.147   1.223   1.266   1.280   1.266   1.223   1.147   1.040   0.918
   0.803   0.713   0.657   0.625   0.595   0.539   0.443   0.310   0.164   0.035
  -0.056  -0.106
   0.685   0.654   0.580   0.511   0.482   0.497   0.534   0.564   0.580   0.594
   0.627   0.694   0.791   0.894   0.973   1.006   0.995   0.966   0.952   0.966
   0.995   1.006   0.973   0.894   0.791   0.694   0.627   0.594   0.580   0.564
   0.534   0.497   0.482   0.511   0.580   0.654   0.685   0.654   0.580   0.511
   0.482   0.497   0.534   0.564   0.580   0.594   0.627   0.694   0.791   0.894
   0.973   1.006   0.995   0.966   0.952   0.966   0.995   1.006   0.973   0.894
   0.791   0.694   0.627   0.594   0.580   0.564   0.534   0.497   0.482   0.511
   0.580   0.654
   2.257   2.158   1.904   1.594   1.319   1.113   0.964   0.842   0.740   0.670
   0.651   0.693   0.783   0.886   0.953   0.950   0.883   0.800   0.764   0.800
   0.883   0.950   0.953   0.886   0.783   0.693   0.651   0.670   0.740   0.842
   0.964   1.113   1.319   1.594   1.904   2.158   2.257   2.158   1.904   1.594
   1.319   1.113   0.964   0.842   0.740   0.670   0.651   0.693   0.783   0.886
   0.953   0.950   0.883   0.800   0.764   0.800   0.883   0.950   0.953   0.886
   0.783   0.693   0.651   0.670   0.740   0.842   0.964   1.113   1.319   1.594
   1.904   2.158
   3.671   3.522   3.135   2.653   2.205   1.842   1.550   1.297   1.074   0.894
   0.779   0.744   0.786   0.871   0.939   0.934   0.849   0.742   0.694   0.742
   0.849   0.934   0.939   0.871   0.786   0.744   0.779   0.894   1.074   1.297
   1.550   1.842   2.205   2.653   3.135   3.522   3.671   3.522   3.135   2.653
   2.205   1.842   1.550   1.297   1.074   0.894   0.779   0.744   0.786   0.871
   0.939   0.934   0.849   0.742   0.694   0.742   0.849   0.934   0.939   0.871
   0.786   0.744   0.779   0.894   1.074   1.297   1.550   1.842   2.205   2.653
   3.135   3.522
   3.852   3.706   3.334   2.887   2.489   2.174   1.911   1.659   1.406   1.167
   0.965   0.831   0.788   0.829   0.895   0.912   0.848   0.750   0.703   0.750
   0.848   0.912   0.895   0.829   0.788   0.831   0.965   1.167   1.406   1.659
   1.911   2.174   2.489   2.887   3.334   3.706   3.852   3.706   3.334   2.887
   2.489   2.174   1.911   1.659   1.406   1.167   0.965   0.831   0.788   0.829
   0.895   0.912   0.848   0.750   0.703   0.750   0.848   0.912   0.895   0.829
   0.788   0.831   0.965   1.167   1.406   1.659   1.911   2.174   2.489   2.887
   3.334   3.706
   2.555   2.468   2.264   2.058   1.927   1.862   1.804   1.704   1.550   1.351
   1.129   0.926   0.802   0.787   0.845   0.895   0.880   0.821   0.789   0.821
   0.880   0.895   0.845   0.787   0.802   0.926   1.129   1.351   1.550   1.704
   1.804   1.862   1.927   2.058   2.264   2.468   2.555   2.468   2.264   2.058
   1.927   1.862   1.804   1.704   1.550   1.351   1.129   0.926   0.802   0.787
   0.845   0.895   0.880   0.821   0.789   0.821   0.880   0.895   0.845   0.787
   0.802   0.926   1.129   1.351   1.550   1.704   1.804   1.862   1.927   2.058
   2.264   2.468
   0.720   0.709   0.710   0.783   0.946   1.150   1.325   1.426   1.440   1.364
   1.205   1.007   0.847   0.791   0.837   0.919   0.967   0.971   0.965   0.971
   0.967   0.919   0.837   0.791   0.847   1.007   1.205   1.364   1.440   1.426
   1.325   1.150   0.946   0.783   0.710   0.709   0.720   0.709   0.710   0.783
   0.946   1.150   1.325   1.426   1.440   1.364   1.205   1.007   0.847   0.791
   0.837   0.919   0.967   0.971   0.965   0.971   0.967   0.919   0.837   0.791
   0.847   1.007   1.205   1.364   1.440   1.426   1.325   1.150   0.946   0.783
   0.710   0.709
  -0.327  -0.299  -0.201  -0.014   0.247   0.532   0.792   1.002   1.150   1.214
   1.173   1.049   0.915   0.849   0.886   0.991   1.103   1.179   1.204   1.179
   1.103   0.991   0.886   0.849   0.915   1.049   1.173   1.214   1.150   1.002
   0.792   0.532   0.247  -0.014  -0.201  -0.299  -0.327  -0.299  -0.201  -0.014
   0.247   0.532   0.792   1.002   1.150   1.214   1.173   1.049   0.915   0.849
   0.886   0.991   1.103   1.179   1.204   1.179   1.103   0.991   0.886   0.849
   0.915   1.049   1.173   1.214   1.150   1.002   0.792   0.532   0.247  -0.014
  -0.201  -0.299
  -0.147  -0.131  -0.080   0.012   0.138   0.284   0.446   0.632   0.829   0.992
   1.069   1.048   0.974   0.924   0.955   1.074   1.238   1.377   1.431   1.377
   1.238   1.074   0.955   0.924   0.974   1.048   1.069   0.992   0.829   0.632
   0.446   0.284   0.138   0.012  -0.080  -0.131  -0.147  -0.131  -0.080   0.012
   0.138   0.284   0.446   0.632   0.829   0.992   1.069   1.048   0.974   0.924
   0.955   1.074   1.238   1.377   1.431   1.377   1.238   1.074   0.955   0.924
   0.974   1.048   1.069   0.992   0.829   0.632   0.446   0.284   0.138   0.012
  -0.080  -0.131
   0.456   0.443   0.408   0.360   0.311   0.283   0.314   0.432   0.624   0.832
   0.980   1.030   1.005   0.972   1.002   1.127   1.319   1.495   1.567   1.495
   1.319   1.127   1.002   0.972   1.005   1.030   0.980   0.832   0.624   0.432
   0.314   0.283   0.311   0.360   0.408   0.443   0.456   0.443   0.408   0.360
   0.311   0.283   0.314   0.432   0.624   0.832   0.980   1.030   1.005   0.972
   1.002   1.127   1.319   1.495   1.567   1.495   1.319   1.127   1.002   0.972
   1.005   1.030   0.980   0.832   0.624   0.432   0.314   0.283   0.311   0.360
   0.408   0.443
 200       5.00   72    0 5.00   18    0
   0.827   0.828   0.829   0.831   0.834   0.837   0.841   0.845   0.849   0.854
   0.859   0.864   0.868   0.872   0.875   0.878   0.880   0.882   0.882   0.882
   0.880   0.878   0.875   0.872   0.868   0.864   0.859   0.854   0.849   0.845
   0.841   0.837   0.834   0.831   0.829   0.828   0.827   0.828   0.829   0.831
   0.834   0.837   0.841   0.845   0.849   0.854   0.859   0.864   0.868   0.872
   0.875   0.878   0.880   0.882   0.882   0.882   0.880   0.878   0.875   0.872
   0.868   0.864   0.859   0.854   0.849   0.845   0.841   0.837   0.834   0.831
   0.829   0.828
   0.587   0.588   0.592   0.599   0.608   0.621   0.637   0.657   0.679   0.705
   0.733   0.762   0.792   0.820   0.846   0.868   0.884   0.895   0.898   0.895
   0.884   0.868   0.846   0.820   0.792   0.762   0.733   0.705   0.679   0.657
   0.637   0.621   0.608   0.599   0.592   0.588   0.587   0.588   0.592   0.599
   0.608   0.621   0.637   0.657   0.679   0.705   0.733   0.762   0.792   0.820
   0.846   0.868   0.884   0.895   0.898   0.895   0.884   0.868   0.846   0.820
   0.792   0.762   0.733   0.705   0.679   0.657   0.637   0.621   0.608   0.599
   0.592   0.588
   0.692   0.688   0.677   0.660   0.639   0.617   0.597   0.583   0.577   0.581
   0.598   0.626   0.665   0.710   0.757   0.801   0.837   0.861   0.869   0.861
   0.837   0.801   0.757   0.710   0.665   0.626   0.598   0.581   0.577   0.583
   0.597   0.617   0.639   0.660   0.677   0.688   0.692   0.688   0.677   0.660
   0.639   0.617   0.597   0.583   0.577   0.581   0.598   0.626   0.665   0.710
   0.757   0.801   0.837   0.861   0.869   0.861   0.837   0.801   0.757   0.710
   0.665   0.626   0.598   0.581   0.577   0.583   0.597   0.617   0.639   0.660
   0.677   0.688
   1.423   1.409   1.368   1.302   1.215   1.111   0.998   0.882   0.774   0.683
   0.615   0.578   0.570   0.591   0.632   0.682   0.730   0.764   0.776   0.764
   0.730   0.682   0.632   0.591   0.570   0.578   0.615   0.683   0.774   0.882
   0.998   1.111   1.215   1.302   1.368   1.409   1.423   1.409   1.368   1.302
   1.215   1.111   0.998   0.882   0.774   0.683   0.615   0.578   0.570   0.591
   0.632   0.682   0.730   0.764   0.776   0.764   0.730   0.682   0.632   0.591
   0.570   0.578   0.615   0.683   0.774   0.882   0.998   1.111   1.215   1.302
   1.368   1.409
   2.254   2.237   2.186   2.102   1.983   1.833   1.654   1.454   1.244   1.040
   0.857   0.710   0.612   0.565   0.564   0.594   0.637   0.673   0.687   0.673
   0.637   0.594   0.564   0.565   0.612   0.710   0.857   1.040   1.244   1.454
   1.654   1.833   1.983   2.102   2.186   2.237   2.254   2.237   2.186   2.102
   1.983   1.833   1.654   1.454   1.244   1.040   0.857   0.710   0.612   0.565
   0.564   0.594   0.637   0.673   0.687   0.673   0.637   0.594   0.564   0.565
   0.612   0.710   0.857   1.040   1.244   1.454   1.654   1.833   1.983   2.102
   2.186   2.237
   2.451   2.443   2.418   2.373   2.304   2.204   2.068   1.894   1.685   1.451
   1.211   0.988   0.805   0.680   0.617   0.608   0.630   0.657   0.669   0.657
   0.630   0.608   0.617   0.680   0.805   0.988   1.211   1.451   1.685   1.894
   2.068   2.204   2.304   2.373   2.418   2.443   2.451   2.443   2.418   2.373
   2.304   2.204   2.068   1.894   1.685   1.451   1.211   0.988   0.805   0.680
   0.617   0.608   0.630   0.657   0.669   0.657   0.630   0.608   0.617   0.680
   0.805   0.988   1.211   1.451   1.685   1.894   2.068   2.204   2.304   2.373
   2.418   2.443
   1.897   1.900   1.907   1.919   1.931   1.936   1.923   1.877   1.787   1.646
   1.462   1.251   1.044   0.871   0.755   0.700   0.691   0.702   0.709   0.702
   0.691   0.700   0.755   0.871   1.044   1.251   1.462   1.646   1.787   1.877
   1.923   1.936   1.931   1.919   1.907   1.900   1.897   1.900   1.907   1.919
   1.931   1.936   1.923   1.877   1.787   1.646   1.462   1.251   1.044   0.871
   0.755   0.700   0.691   0.702   0.709   0.702   0.691   0.700   0.755   0.871
   1.044   1.251   1.462   1.646   1.787   1.877   1.923   1.936   1.931   1.919
   1.907   1.900
   1.094   1.098   1.114   1.147   1.200   1.274   1.361   1.448   1.514   1.532
   1.485   1.370   1.206   1.031   0.886   0.795   0.757   0.752   0.753   0.752
   0.757   0.795   0.886   1.031   1.206   1.370   1.485   1.532   1.514   1.448
   1.361   1.274   1.200   1.147   1.114   1.098   1.094   1.098   1.114   1.147
   1.200   1.274   1.361   1.448   1.514   1.532   1.485   1.370   1.206   1.031
   0.886   0.795   0.757   0.752   0.753   0.752   0.757   0.795   0.886   1.031
   1.206   1.370   1.485   1.532   1.514   1.448   1.361   1.274   1.200   1.147
   1.114   1.098
   0.508   0.510   0.520   0.545   0.594   0.673   0.787   0.935   1.104   1.259
   1.355   1.357   1.266   1.117   0.967   0.860   0.808   0.794   0.793   0.794
   0.808   0.860   0.967   1.117   1.266   1.357   1.355   1.259   1.104   0.935
   0.787   0.673   0.594   0.545   0.520   0.510   0.508   0.510   0.520   0.545
   0.594   0.673   0.787   0.935   1.104   1.259   1.355   1.357   1.266   1.117
   0.967   0.860   0.808   0.794   0.793   0.794   0.808   0.860   0.967   1.117
   1.266   1.357   1.355   1.259   1.104   0.935   0.787   0.673   0.594   0.545
   0.520   0.510
   0.227   0.229   0.240   0.266   0.309   0.370   0.462   0.606   0.809   1.040
   1.232   1.318   1.279   1.154   1.012   0.910   0.865   0.858   0.860   0.858
   0.865   0.910   1.012   1.154   1.279   1.318   1.232   1.040   0.809   0.606
   0.462   0.370   0.309   0.266   0.240   0.229   0.227   0.229   0.240   0.266
   0.309   0.370   0.462   0.606   0.809   1.040   1.232   1.318   1.279   1.154
   1.012   0.910   0.865   0.858   0.860   0.858   0.865   0.910   1.012   1.154
   1.279   1.318   1.232   1.040   0.809   0.606   0.462   0.370   0.309   0.266
   0.240   0.229
   0.155   0.156   0.169   0.199   0.244   0.293   0.360   0.485   0.695   0.962
   1.198   1.312   1.281   1.157   1.026   0.947   0.926   0.936   0.944   0.936
   0.926   0.947   1.026   1.157   1.281   1.312   1.198   0.962   0.695   0.485
   0.360   0.293   0.244   0.199   0.169   0.156   0.155   0.156   0.169   0.199
   0.244   0.293   0.360   0.485   0.695   0.962   1.198   1.312   1.281   1.157
   1.026   0.947   0.926   0.936   0.944   0.936   0.926   0.947   1.026   1.157
   1.281   1.312   1.198   0.962   0.695   0.485   0.360   0.293   0.244   0.199
   0.169   0.156
   0.223   0.217   0.211   0.226   0.258   0.294   0.347   0.469   0.697   0.989
   1.233   1.326   1.258   1.113   0.992   0.944   0.952   0.975   0.985   0.975
   0.952   0.944   0.992   1.113   1.258   1.326   1.233   0.989   0.697   0.469
   0.347   0.294   0.258   0.226   0.211   0.217   0.223   0.217   0.211   0.226
   0.258   0.294   0.347   0.469   0.697   0.989   1.233   1.326   1.258   1.113
   0.992   0.944   0.952   0.975   0.985   0.975   0.952   0.944   0.992   1.113
   1.258   1.326   1.233   0.989   0.697   0.469   0.347   0.294   0.258   0.226
   0.211   0.217
   0.330   0.316   0.293   0.291   0.311   0.341   0.398   0.540   0.794   1.096
   1.311   1.340   1.209   1.037   0.928   0.907   0.928   0.948   0.954   0.948
   0.928   0.907   0.928   1.037   1.209   1.340   1.311   1.096   0.794   0.540
   0.398   0.341   0.311   0.291   0.293   0.316   0.330   0.316   0.293   0.291
   0.311   0.341   0.398   0.540   0.794   1.096   1.311   1.340   1.209   1.037
   0.928   0.907   0.928   0.948   0.954   0.948   0.928   0.907   0.928   1.037
   1.209   1.340   1.311   1.096   0.794   0.540   0.398   0.341   0.311   0.291
   0.293   0.316
   0.364   0.359   0.359   0.383   0.428   0.486   0.579   0.757   1.024   1.292
   1.426   1.361   1.164   0.974   0.883   0.878   0.897   0.901   0.899   0.901
   0.897   0.878   0.883   0.974   1.164   1.361   1.426   1.292   1.024   0.757
   0.579   0.486   0.428   0.383   0.359   0.359   0.364   0.359   0.359   0.383
   0.428   0.486   0.579   0.757   1.024   1.292   1.426   1.361   1.164   0.974
   0.883   0.878   0.897   0.901   0.899   0.901   0.897   0.878   0.883   0.974
   1.164   1.361   1.426   1.292   1.024   0.757   0.579   0.486   0.428   0.383
   0.359   0.359
   0.442   0.457   0.502   0.569   0.648   0.742   0.883   1.096   1.343   1.519
   1.523   1.353   1.115   0.936   0.867   0.873   0.890   0.891   0.887   0.891
   0.890   0.873   0.867   0.936   1.115   1.353   1.523   1.519   1.343   1.096
   0.883   0.742   0.648   0.569   0.502   0.457   0.442   0.457   0.502   0.569
   0.648   0.742   0.883   1.096   1.343   1.519   1.523   1.353   1.115   0.936
   0.867   0.873   0.890   0.891   0.887   0.891   0.890   0.873   0.867   0.936
   1.115   1.353   1.523   1.519   1.343   1.096   0.883   0.742   0.648   0.569
   0.502   0.457
   0.880   0.897   0.933   0.961   0.984   1.043   1.186   1.403   1.593   1.639
   1.498   1.246   1.008   0.869   0.831   0.850   0.885   0.912   0.923   0.912
   0.885   0.850   0.831   0.869   1.008   1.246   1.498   1.639   1.593   1.403
   1.186   1.043   0.984   0.961   0.933   0.897   0.880   0.897   0.933   0.961
   0.984   1.043   1.186   1.403   1.593   1.639   1.498   1.246   1.008   0.869
   0.831   0.850   0.885   0.912   0.923   0.912   0.885   0.850   0.831   0.869
   1.008   1.246   1.498   1.639   1.593   1.403   1.186   1.043   0.984   0.961
   0.933   0.897
   1.721   1.708   1.648   1.520   1.366   1.292   1.371   1.551   1.668   1.589
   1.332   1.035   0.831   0.748   0.743   0.779   0.849   0.927   0.963   0.927
   0.849   0.779   0.743   0.748   0.831   1.035   1.332   1.589   1.668   1.551
   1.371   1.292   1.366   1.520   1.648   1.708   1.721   1.708   1.648   1.520
   1.366   1.292   1.371   1.551   1.668   1.589   1.332   1.035   0.831   0.748
   0.743   0.779   0.849   0.927   0.963   0.927   0.849   0.779   0.743   0.748
   0.831   1.035   1.332   1.589   1.668   1.551   1.371   1.292   1.366   1.520
   1.648   1.708
   2.447   2.400   2.239   1.956   1.634   1.428   1.434   1.573   1.638   1.484
   1.164   0.854   0.683   0.641   0.656   0.707   0.806   0.926   0.981   0.926
   0.806   0.707   0.656   0.641   0.683   0.854   1.164   1.484   1.638   1.573
   1.434   1.428   1.634   1.956   2.239   2.400   2.447   2.400   2.239   1.956
   1.634   1.428   1.434   1.573   1.638   1.484   1.164   0.854   0.683   0.641
   0.656   0.707   0.806   0.926   0.981   0.926   0.806   0.707   0.656   0.641
   0.683   0.854   1.164   1.484   1.638   1.573   1.434   1.428   1.634   1.956
   2.239   2.400
 111       5.00   72    0 5.00   18    0
   0.234   0.234   0.236   0.238   0.242   0.246   0.251   0.256   0.261   0.267
   0.273   0.279   0.284   0.289   0.294   0.297   0.300   0.301   0.302   0.301
   0.300   0.297   0.294   0.289   0.284   0.279   0.273   0.267   0.261   0.256
   0.251   0.246   0.242   0.238   0.236   0.234   0.234   0.234   0.236   0.238
   0.242   0.246   0.251   0.256   0.261   0.267   0.273   0.279   0.284   0.289
   0.294   0.297   0.300   0.301   0.302   0.301   0.300   0.297   0.294   0.289
   0.284   0.279   0.273   0.267   0.261   0.256   0.251   0.246   0.242   0.238
   0.236   0.234
  -0.141  -0.139  -0.132  -0.121  -0.106  -0.086  -0.062  -0.033   0.000   0.036
   0.074   0.113   0.151   0.187   0.219   0.246   0.266   0.278   0.283   0.278
   0.266   0.246   0.219   0.187   0.151   0.113   0.074   0.036   0.000  -0.033
  -0.062  -0.086  -0.106  -0.121  -0.132  -0.139  -0.141  -0.139  -0.132  -0.121
  -0.106  -0.086  -0.062  -0.033   0.000   0.036   0.074   0.113   0.151   0.187
   0.219   0.246   0.266   0.278   0.283   0.278   0.266   0.246   0.219   0.187
   0.151   0.113   0.074   0.036   0.000  -0.033  -0.062  -0.086  -0.106  -0.121
  -0.132  -0.139
  -0.147  -0.151  -0.162  -0.179  -0.196  -0.212  -0.221  -0.219  -0.205  -0.177
  -0.136  -0.083  -0.023   0.040   0.100   0.154   0.196   0.222   0.231   0.222
   0.196   0.154   0.100   0.040  -0.023  -0.083  -0.136  -0.177  -0.205  -0.219
  -0.221  -0.212  -0.196  -0.179  -0.162  -0.151  -0.147  -0.151  -0.162  -0.179
  -0.196  -0.212  -0.221  -0.219  -0.205  -0.177  -0.136  -0.083  -0.023   0.040
   0.100   0.154   0.196   0.222   0.231   0.222   0.196   0.154   0.100   0.040
  -0.023  -0.083  -0.136  -0.177  -0.205  -0.219  -0.221  -0.212  -0.196  -0.179
  -0.162  -0.151
   0.852   0.828   0.759   0.652   0.517   0.369   0.221   0.088  -0.019  -0.092
  -0.127  -0.126  -0.097  -0.047   0.013   0.072   0.121   0.154   0.165   0.154
   0.121   0.072   0.013  -0.047  -0.097  -0.126  -0.127  -0.092  -0.019   0.088
   0.221   0.369   0.517   0.652   0.759   0.828   0.852   0.828   0.759   0.652
   0.517   0.369   0.221   0.088  -0.019  -0.092  -0.127  -0.126  -0.097  -0.047
   0.013   0.072   0.121   0.154   0.165   0.154   0.121   0.072   0.013  -0.047
  -0.097  -0.126  -0.127  -0.092  -0.019   0.088   0.221   0.369   0.517   0.652
   0.759   0.828
   2.551   2.506   2.373   2.161   1.885   1.566   1.229   0.901   0.606   0.365
   0.189   0.077   0.024   0.016   0.037   0.070   0.104   0.128   0.136   0.128
   0.104   0.070   0.037   0.016   0.024   0.077   0.189   0.365   0.606   0.901
   1.229   1.566   1.885   2.161   2.373   2.506   2.551   2.506   2.373   2.161
   1.885   1.566   1.229   0.901   0.606   0.365   0.189   0.077   0.024   0.016
   0.037   0.070   0.104   0.128   0.136   0.128   0.104   0.070   0.037   0.016
   0.024   0.077   0.189   0.365   0.606   0.901   1.229   1.566   1.885   2.161
   2.373   2.506
   3.802   3.759   3.628   3.408   3.102   2.722   2.289   1.837   1.400   1.012
   0.696   0.463   0.310   0.223   0.184   0.173   0.176   0.181   0.184   0.181
   0.176   0.173   0.184   0.223   0.310   0.463   0.696   1.012   1.400   1.837
   2.289   2.722   3.102   3.408   3.628   3.759   3.802   3.759   3.628   3.408
   3.102   2.722   2.289   1.837   1.400   1.012   0.696   0.463   0.310   0.223
   0.184   0.173   0.176   0.181   0.184   0.181   0.176   0.173   0.184   0.223
   0.310   0.463   0.696   1.012   1.400   1.837   2.289   2.722   3.102   3.408
   3.628   3.759
   3.641   3.636   3.608   3.535   3.390   3.153   2.825   2.427   1.994   1.570
   1.190   0.879   0.648   0.489   0.391   0.334   0.305   0.292   0.288   0.292
   0.305   0.334   0.391   0.489   0.648   0.879   1.190   1.570   1.994   2.427
   2.825   3.153   3.390   3.535   3.608   3.636   3.641   3.636   3.608   3.535
   3.390   3.153   2.825   2.427   1.994   1.570   1.190   0.879   0.648   0.489
   0.391   0.334   0.305   0.292   0.288   0.292   0.305   0.334   0.391   0.489
   0.648   0.879   1.190   1.570   1.994   2.427   2.825   3.153   3.390   3.535
   3.608   3.636
   2.233   2.276   2.389   2.529   2.641   2.677   2.609   2.435   2.174   1.860
   1.531   1.222   0.959   0.754   0.606   0.508   0.449   0.418   0.409   0.418
   0.449   0.508   0.606   0.754   0.959   1.222   1.531   1.860   2.174   2.435
   2.609   2.677   2.641   2.529   2.389   2.276   2.233   2.276   2.389   2.529
   2.641   2.677   2.609   2.435   2.174   1.860   1.531   1.222   0.959   0.754
   0.606   0.508   0.449   0.418   0.409   0.418   0.449   0.508   0.606   0.754
   0.959   1.222   1.531   1.860   2.174   2.435   2.609   2.677   2.641   2.529
   2.389   2.276
   0.695   0.757   0.930   1.174   1.441   1.683   1.865   1.959   1.956   1.859
   1.687   1.469   1.239   1.025   0.845   0.708   0.614   0.561   0.544   0.561
   0.614   0.708   0.845   1.025   1.239   1.469   1.687   1.859   1.956   1.959
   1.865   1.683   1.441   1.174   0.930   0.757   0.695   0.757   0.930   1.174
   1.441   1.683   1.865   1.959   1.956   1.859   1.687   1.469   1.239   1.025
   0.845   0.708   0.614   0.561   0.544   0.561   0.614   0.708   0.845   1.025
   1.239   1.469   1.687   1.859   1.956   1.959   1.865   1.683   1.441   1.174
   0.930   0.757
  -0.008   0.029   0.133   0.296   0.510   0.763   1.038   1.301   1.512   1.637
   1.663   1.599   1.470   1.304   1.128   0.966   0.836   0.752   0.723   0.752
   0.836   0.966   1.128   1.304   1.470   1.599   1.663   1.637   1.512   1.301
   1.038   0.763   0.510   0.296   0.133   0.029  -0.008   0.029   0.133   0.296
   0.510   0.763   1.038   1.301   1.512   1.637   1.663   1.599   1.470   1.304
   1.128   0.966   0.836   0.752   0.723   0.752   0.836   0.966   1.128   1.304
   1.470   1.599   1.663   1.637   1.512   1.301   1.038   0.763   0.510   0.296
   0.133   0.029
   0.102   0.097   0.087   0.091   0.142   0.272   0.489   0.765   1.048   1.288
   1.455   1.545   1.559   1.503   1.390   1.241   1.094   0.986   0.947   0.986
   1.094   1.241   1.390   1.503   1.559   1.545   1.455   1.288   1.048   0.765
   0.489   0.272   0.142   0.091   0.087   0.097   0.102   0.097   0.087   0.091
   0.142   0.272   0.489   0.765   1.048   1.288   1.455   1.545   1.559   1.503
   1.390   1.241   1.094   0.986   0.947   0.986   1.094   1.241   1.390   1.503
   1.559   1.545   1.455   1.288   1.048   0.765   0.489   0.272   0.142   0.091
   0.087   0.097
   0.320   0.299   0.242   0.171   0.132   0.170   0.301   0.501   0.722   0.931
   1.121   1.293   1.434   1.513   1.506   1.422   1.300   1.198   1.158   1.198
   1.300   1.422   1.506   1.513   1.434   1.293   1.121   0.931   0.722   0.501
   0.301   0.170   0.132   0.171   0.242   0.299   0.320   0.299   0.242   0.171
   0.132   0.170   0.301   0.501   0.722   0.931   1.121   1.293   1.434   1.513
   1.506   1.422   1.300   1.198   1.158   1.198   1.300   1.422   1.506   1.513
   1.434   1.293   1.121   0.931   0.722   0.501   0.301   0.170   0.132   0.171
   0.242   0.299
   0.215   0.207   0.185   0.158   0.156   0.213   0.332   0.476   0.601   0.703
   0.819   0.979   1.172   1.340   1.429   1.428   1.371   1.309   1.283   1.309
   1.371   1.428   1.429   1.340   1.172   0.979   0.819   0.703   0.601   0.476
   0.332   0.213   0.156   0.158   0.185   0.207   0.215   0.207   0.185   0.158
   0.156   0.213   0.332   0.476   0.601   0.703   0.819   0.979   1.172   1.340
   1.429   1.428   1.371   1.309   1.283   1.309   1.371   1.428   1.429   1.340
   1.172   0.979   0.819   0.703   0.601   0.476   0.332   0.213   0.156   0.158
   0.185   0.207
   0.057   0.063   0.075   0.095   0.146   0.258   0.418   0.567   0.652   0.677
   0.705   0.796   0.951   1.116   1.236   1.293   1.306   1.302   1.299   1.302
   1.306   1.293   1.236   1.116   0.951   0.796   0.705   0.677   0.652   0.567
   0.418   0.258   0.146   0.095   0.075   0.063   0.057   0.063   0.075   0.095
   0.146   0.258   0.418   0.567   0.652   0.677   0.705   0.796   0.951   1.116
   1.236   1.293   1.306   1.302   1.299   1.302   1.306   1.293   1.236   1.116
   0.951   0.796   0.705   0.677   0.652   0.567   0.418   0.258   0.146   0.095
   0.075   0.063
   0.352   0.349   0.334   0.310   0.312   0.388   0.537   0.692   0.781   0.789
   0.773   0.792   0.863   0.957   1.043   1.115   1.177   1.225   1.243   1.225
   1.177   1.115   1.043   0.957   0.863   0.792   0.773   0.789   0.781   0.692
   0.537   0.388   0.312   0.310   0.334   0.349   0.352   0.349   0.334   0.310
   0.312   0.388   0.537   0.692   0.781   0.789   0.773   0.792   0.863   0.957
   1.043   1.115   1.177   1.225   1.243   1.225   1.177   1.115   1.043   0.957
   0.863   0.792   0.773   0.789   0.781   0.692   0.537   0.388   0.312   0.310
   0.334   0.349
   1.190   1.171   1.099   0.970   0.829   0.750   0.768   0.841   0.893   0.891
   0.859   0.835   0.835   0.856   0.897   0.966   1.056   1.137   1.170   1.137
   1.056   0.966   0.897   0.856   0.835   0.835   0.859   0.891   0.893   0.841
   0.768   0.750   0.829   0.970   1.099   1.171   1.190   1.171   1.099   0.970
   0.829   0.750   0.768   0.841   0.893   0.891   0.859   0.835   0.835   0.856
   0.897   0.966   1.056   1.137   1.170   1.137   1.056   0.966   0.897   0.856
   0.835   0.835   0.859   0.891   0.893   0.841   0.768   0.750   0.829   0.970
   1.099   1.171
   2.173   2.149   2.052   1.846   1.561   1.288   1.103   1.005   0.948   0.895
   0.842   0.799   0.771   0.762   0.791   0.867   0.976   1.073   1.112   1.073
   0.976   0.867   0.791   0.762   0.771   0.799   0.842   0.895   0.948   1.005
   1.103   1.288   1.561   1.846   2.052   2.149   2.173   2.149   2.052   1.846
   1.561   1.288   1.103   1.005   0.948   0.895   0.842   0.799   0.771   0.762
   0.791   0.867   0.976   1.073   1.112   1.073   0.976   0.867   0.791   0.762
   0.771   0.799   0.842   0.895   0.948   1.005   1.103   1.288   1.561   1.846
   2.052   2.149
   2.803   2.786   2.694   2.464   2.104   1.704   1.365   1.124   0.962   0.849
   0.773   0.724   0.694   0.689   0.726   0.817   0.938   1.041   1.081   1.041
   0.938   0.817   0.726   0.689   0.694   0.724   0.773   0.849   0.962   1.124
   1.365   1.704   2.104   2.464   2.694   2.786   2.803   2.786   2.694   2.464
   2.104   1.704   1.365   1.124   0.962   0.849   0.773   0.724   0.694   0.689
   0.726   0.817   0.938   1.041   1.081   1.041   0.938   0.817   0.726   0.689
   0.694   0.724   0.773   0.849   0.962   1.124   1.365   1.704   2.104   2.464
   2.694   2.786
TEXTURE_INDEX=   2.7652
ERR_CF 220         1080     496   30.66   24.71
ERR_CF 200         1080     338   17.08   10.72
ERR_CF 111         1080     332   42.38    8.11
