TEXEVAL                                                                         
Analysis started on 15-Feb-19 12:43:30                                          
 LMAX=16LFMAX=03 CUBIC ORTHO   
 220      5.00 5.00
 200      5.00 5.00
 111      5.00 5.00
 220       5.00   72    0 5.00   15    0
   3.263   3.263   3.263   3.263   3.263   3.263   3.263   3.263   3.263   3.263
   3.263   3.263   3.263   3.263   3.263   3.263   3.263   3.263   3.263   3.263
   3.263   3.263   3.263   3.263   3.263   3.263   3.263   3.263   3.263   3.263
   3.263   3.263   3.263   3.263   3.263   3.263   3.263   3.263   3.263   3.263
   3.263   3.263   3.263   3.263   3.263   3.263   3.263   3.263   3.263   3.263
   3.263   3.263   3.263   3.263   3.263   3.263   3.263   3.263   3.263   3.263
   3.263   3.263   3.263   3.263   3.263   3.263   3.263   3.263   3.263   3.263
   3.263   3.263
   1.426   1.353   1.409   1.445   1.525   1.596   1.643   1.738   1.938   1.995
   2.223   2.485   2.629   2.901   3.108   3.249   3.563   3.653   3.706   3.653
   3.563   3.249   3.108   2.901   2.629   2.485   2.223   1.995   1.938   1.738
   1.643   1.596   1.525   1.445   1.409   1.353   1.426   1.353   1.409   1.445
   1.525   1.596   1.643   1.738   1.938   1.995   2.223   2.485   2.629   2.901
   3.108   3.249   3.563   3.653   3.706   3.653   3.563   3.249   3.108   2.901
   2.629   2.485   2.223   1.995   1.938   1.738   1.643   1.596   1.525   1.445
   1.409   1.353
   0.609   0.528   0.599   0.600   0.647   0.692   0.718   0.838   0.921   1.059
   1.292   1.573   1.776   2.099   2.547   2.907   3.401   3.581   3.675   3.581
   3.401   2.907   2.547   2.099   1.776   1.573   1.292   1.059   0.921   0.838
   0.718   0.692   0.647   0.600   0.599   0.528   0.609   0.528   0.599   0.600
   0.647   0.692   0.718   0.838   0.921   1.059   1.292   1.573   1.776   2.099
   2.547   2.907   3.401   3.581   3.675   3.581   3.401   2.907   2.547   2.099
   1.776   1.573   1.292   1.059   0.921   0.838   0.718   0.692   0.647   0.600
   0.599   0.528
   0.382   0.423   0.459   0.437   0.425   0.431   0.480   0.537   0.551   0.730
   0.857   1.030   1.215   1.608   2.084   2.602   3.140   3.532   3.675   3.532
   3.140   2.602   2.084   1.608   1.215   1.030   0.857   0.730   0.551   0.537
   0.480   0.431   0.425   0.437   0.459   0.423   0.382   0.423   0.459   0.437
   0.425   0.431   0.480   0.537   0.551   0.730   0.857   1.030   1.215   1.608
   2.084   2.602   3.140   3.532   3.675   3.532   3.140   2.602   2.084   1.608
   1.215   1.030   0.857   0.730   0.551   0.537   0.480   0.431   0.425   0.437
   0.459   0.423
   0.295   0.397   0.423   0.463   0.390   0.409   0.494   0.495   0.520   0.595
   0.791   0.805   1.065   1.346   1.743   2.414   2.858   3.468   3.625   3.468
   2.858   2.414   1.743   1.346   1.065   0.805   0.791   0.595   0.520   0.495
   0.494   0.409   0.390   0.463   0.423   0.397   0.295   0.397   0.423   0.463
   0.390   0.409   0.494   0.495   0.520   0.595   0.791   0.805   1.065   1.346
   1.743   2.414   2.858   3.468   3.625   3.468   2.858   2.414   1.743   1.346
   1.065   0.805   0.791   0.595   0.520   0.495   0.494   0.409   0.390   0.463
   0.423   0.397
   0.294   0.342   0.391   0.423   0.393   0.466   0.523   0.569   0.648   0.638
   0.804   0.881   1.044   1.252   1.594   2.209   2.716   3.135   3.185   3.135
   2.716   2.209   1.594   1.252   1.044   0.881   0.804   0.638   0.648   0.569
   0.523   0.466   0.393   0.423   0.391   0.342   0.294   0.342   0.391   0.423
   0.393   0.466   0.523   0.569   0.648   0.638   0.804   0.881   1.044   1.252
   1.594   2.209   2.716   3.135   3.185   3.135   2.716   2.209   1.594   1.252
   1.044   0.881   0.804   0.638   0.648   0.569   0.523   0.466   0.393   0.423
   0.391   0.342
   0.321   0.370   0.342   0.374   0.381   0.451   0.486   0.546   0.626   0.713
   0.702   0.944   0.996   1.195   1.461   1.965   2.247   2.450   2.433   2.450
   2.247   1.965   1.461   1.195   0.996   0.944   0.702   0.713   0.626   0.546
   0.486   0.451   0.381   0.374   0.342   0.370   0.321   0.370   0.342   0.374
   0.381   0.451   0.486   0.546   0.626   0.713   0.702   0.944   0.996   1.195
   1.461   1.965   2.247   2.450   2.433   2.450   2.247   1.965   1.461   1.195
   0.996   0.944   0.702   0.713   0.626   0.546   0.486   0.451   0.381   0.374
   0.342   0.370
   0.415   0.404   0.404   0.383   0.434   0.424   0.597   0.579   0.566   0.701
   0.555   0.870   1.091   1.154   1.312   1.750   1.594   1.793   1.764   1.793
   1.594   1.750   1.312   1.154   1.091   0.870   0.555   0.701   0.566   0.579
   0.597   0.424   0.434   0.383   0.404   0.404   0.415   0.404   0.404   0.383
   0.434   0.424   0.597   0.579   0.566   0.701   0.555   0.870   1.091   1.154
   1.312   1.750   1.594   1.793   1.764   1.793   1.594   1.750   1.312   1.154
   1.091   0.870   0.555   0.701   0.566   0.579   0.597   0.424   0.434   0.383
   0.404   0.404
   0.543   0.396   0.430   0.399   0.491   0.500   0.668   0.564   0.499   0.672
   0.516   0.797   0.964   1.040   1.151   1.394   1.201   1.386   1.101   1.386
   1.201   1.394   1.151   1.040   0.964   0.797   0.516   0.672   0.499   0.564
   0.668   0.500   0.491   0.399   0.430   0.396   0.543   0.396   0.430   0.399
   0.491   0.500   0.668   0.564   0.499   0.672   0.516   0.797   0.964   1.040
   1.151   1.394   1.201   1.386   1.101   1.386   1.201   1.394   1.151   1.040
   0.964   0.797   0.516   0.672   0.499   0.564   0.668   0.500   0.491   0.399
   0.430   0.396
   0.574   0.547   0.561   0.558   0.640   0.561   0.617   0.531   0.562   0.654
   0.625   0.751   0.807   0.919   1.086   1.156   1.034   1.005   0.778   1.005
   1.034   1.156   1.086   0.919   0.807   0.751   0.625   0.654   0.562   0.531
   0.617   0.561   0.640   0.558   0.561   0.547   0.574   0.547   0.561   0.558
   0.640   0.561   0.617   0.531   0.562   0.654   0.625   0.751   0.807   0.919
   1.086   1.156   1.034   1.005   0.778   1.005   1.034   1.156   1.086   0.919
   0.807   0.751   0.625   0.654   0.562   0.531   0.617   0.561   0.640   0.558
   0.561   0.547
   1.354   1.242   1.296   0.940   1.088   0.783   0.684   0.735   0.765   0.628
   0.694   0.727   0.819   0.933   1.170   1.049   0.906   0.940   0.707   0.940
   0.906   1.049   1.170   0.933   0.819   0.727   0.694   0.628   0.765   0.735
   0.684   0.783   1.088   0.940   1.296   1.242   1.354   1.242   1.296   0.940
   1.088   0.783   0.684   0.735   0.765   0.628   0.694   0.727   0.819   0.933
   1.170   1.049   0.906   0.940   0.707   0.940   0.906   1.049   1.170   0.933
   0.819   0.727   0.694   0.628   0.765   0.735   0.684   0.783   1.088   0.940
   1.296   1.242
   3.434   3.087   2.716   1.941   1.879   1.573   1.118   1.195   0.939   0.784
   0.635   0.716   0.729   0.769   1.115   0.850   0.822   0.998   0.646   0.998
   0.822   0.850   1.115   0.769   0.729   0.716   0.635   0.784   0.939   1.195
   1.118   1.573   1.879   1.941   2.716   3.087   3.434   3.087   2.716   1.941
   1.879   1.573   1.118   1.195   0.939   0.784   0.635   0.716   0.729   0.769
   1.115   0.850   0.822   0.998   0.646   0.998   0.822   0.850   1.115   0.769
   0.729   0.716   0.635   0.784   0.939   1.195   1.118   1.573   1.879   1.941
   2.716   3.087
   4.136   3.644   3.095   2.639   2.328   2.137   1.549   1.265   1.050   0.876
   0.886   0.876   0.813   0.707   0.910   0.836   0.719   0.752   0.805   0.752
   0.719   0.836   0.910   0.707   0.813   0.876   0.886   0.876   1.050   1.265
   1.549   2.137   2.328   2.639   3.095   3.644   4.136   3.644   3.095   2.639
   2.328   2.137   1.549   1.265   1.050   0.876   0.886   0.876   0.813   0.707
   0.910   0.836   0.719   0.752   0.805   0.752   0.719   0.836   0.910   0.707
   0.813   0.876   0.886   0.876   1.050   1.265   1.549   2.137   2.328   2.639
   3.095   3.644
   2.282   2.031   1.740   1.662   1.692   1.671   1.506   1.247   1.370   1.003
   1.387   0.901   0.988   0.856   0.807   0.786   0.814   0.704   0.838   0.704
   0.814   0.786   0.807   0.856   0.988   0.901   1.387   1.003   1.370   1.247
   1.506   1.671   1.692   1.662   1.740   2.031   2.282   2.031   1.740   1.662
   1.692   1.671   1.506   1.247   1.370   1.003   1.387   0.901   0.988   0.856
   0.807   0.786   0.814   0.704   0.838   0.704   0.814   0.786   0.807   0.856
   0.988   0.901   1.387   1.003   1.370   1.247   1.506   1.671   1.692   1.662
   1.740   2.031
   0.881   0.953   0.688   0.679   0.676   0.929   1.057   1.115   1.357   1.233
   1.187   0.801   0.898   0.842   0.951   0.821   0.940   0.923   1.032   0.923
   0.940   0.821   0.951   0.842   0.898   0.801   1.187   1.233   1.357   1.115
   1.057   0.929   0.676   0.679   0.688   0.953   0.881   0.953   0.688   0.679
   0.676   0.929   1.057   1.115   1.357   1.233   1.187   0.801   0.898   0.842
   0.951   0.821   0.940   0.923   1.032   0.923   0.940   0.821   0.951   0.842
   0.898   0.801   1.187   1.233   1.357   1.115   1.057   0.929   0.676   0.679
   0.688   0.953
 200       5.00   72    0 5.00   15    0
   0.852   0.852   0.852   0.852   0.852   0.852   0.852   0.852   0.852   0.852
   0.852   0.852   0.852   0.852   0.852   0.852   0.852   0.852   0.852   0.852
   0.852   0.852   0.852   0.852   0.852   0.852   0.852   0.852   0.852   0.852
   0.852   0.852   0.852   0.852   0.852   0.852   0.852   0.852   0.852   0.852
   0.852   0.852   0.852   0.852   0.852   0.852   0.852   0.852   0.852   0.852
   0.852   0.852   0.852   0.852   0.852   0.852   0.852   0.852   0.852   0.852
   0.852   0.852   0.852   0.852   0.852   0.852   0.852   0.852   0.852   0.852
   0.852   0.852
   0.929   0.975   0.934   0.964   0.964   0.946   0.959   0.933   0.862   0.891
   0.840   0.811   0.887   0.834   0.822   0.812   0.842   0.806   0.806   0.806
   0.842   0.812   0.822   0.834   0.887   0.811   0.840   0.891   0.862   0.933
   0.959   0.946   0.964   0.964   0.934   0.975   0.929   0.975   0.934   0.964
   0.964   0.946   0.959   0.933   0.862   0.891   0.840   0.811   0.887   0.834
   0.822   0.812   0.842   0.806   0.806   0.806   0.842   0.812   0.822   0.834
   0.887   0.811   0.840   0.891   0.862   0.933   0.959   0.946   0.964   0.964
   0.934   0.975
   1.224   1.166   1.132   1.134   1.118   1.040   1.048   1.011   0.905   0.932
   0.858   0.804   0.814   0.793   0.754   0.787   0.748   0.730   0.707   0.730
   0.748   0.787   0.754   0.793   0.814   0.804   0.858   0.932   0.905   1.011
   1.048   1.040   1.118   1.134   1.132   1.166   1.224   1.166   1.132   1.134
   1.118   1.040   1.048   1.011   0.905   0.932   0.858   0.804   0.814   0.793
   0.754   0.787   0.748   0.730   0.707   0.730   0.748   0.787   0.754   0.793
   0.814   0.804   0.858   0.932   0.905   1.011   1.048   1.040   1.118   1.134
   1.132   1.166
   1.600   1.502   1.472   1.430   1.382   1.282   1.212   1.142   1.048   0.954
   0.920   0.827   0.786   0.780   0.711   0.729   0.639   0.715   0.697   0.715
   0.639   0.729   0.711   0.780   0.786   0.827   0.920   0.954   1.048   1.142
   1.212   1.282   1.382   1.430   1.472   1.502   1.600   1.502   1.472   1.430
   1.382   1.282   1.212   1.142   1.048   0.954   0.920   0.827   0.786   0.780
   0.711   0.729   0.639   0.715   0.697   0.715   0.639   0.729   0.711   0.780
   0.786   0.827   0.920   0.954   1.048   1.142   1.212   1.282   1.382   1.430
   1.472   1.502
   2.229   2.270   2.197   2.089   1.979   1.678   1.604   1.362   1.333   1.127
   0.972   0.889   0.763   0.791   0.705   0.647   0.624   0.660   0.671   0.660
   0.624   0.647   0.705   0.791   0.763   0.889   0.972   1.127   1.333   1.362
   1.604   1.678   1.979   2.089   2.197   2.270   2.229   2.270   2.197   2.089
   1.979   1.678   1.604   1.362   1.333   1.127   0.972   0.889   0.763   0.791
   0.705   0.647   0.624   0.660   0.671   0.660   0.624   0.647   0.705   0.791
   0.763   0.889   0.972   1.127   1.333   1.362   1.604   1.678   1.979   2.089
   2.197   2.270
   2.712   2.818   2.792   2.647   2.622   2.159   2.053   1.732   1.611   1.305
   1.053   0.944   0.798   0.789   0.710   0.724   0.663   0.660   0.667   0.660
   0.663   0.724   0.710   0.789   0.798   0.944   1.053   1.305   1.611   1.732
   2.053   2.159   2.622   2.647   2.792   2.818   2.712   2.818   2.792   2.647
   2.622   2.159   2.053   1.732   1.611   1.305   1.053   0.944   0.798   0.789
   0.710   0.724   0.663   0.660   0.667   0.660   0.663   0.724   0.710   0.789
   0.798   0.944   1.053   1.305   1.611   1.732   2.053   2.159   2.622   2.647
   2.792   2.818
   1.956   2.004   1.998   2.135   2.170   2.003   2.039   1.885   1.797   1.491
   1.258   1.033   0.949   0.841   0.810   0.874   0.719   0.766   0.734   0.766
   0.719   0.874   0.810   0.841   0.949   1.033   1.258   1.491   1.797   1.885
   2.039   2.003   2.170   2.135   1.998   2.004   1.956   2.004   1.998   2.135
   2.170   2.003   2.039   1.885   1.797   1.491   1.258   1.033   0.949   0.841
   0.810   0.874   0.719   0.766   0.734   0.766   0.719   0.874   0.810   0.841
   0.949   1.033   1.258   1.491   1.797   1.885   2.039   2.003   2.170   2.135
   1.998   2.004
   0.883   0.820   0.790   1.060   1.100   1.150   1.445   1.461   1.654   1.646
   1.564   1.166   1.083   0.947   0.940   0.925   0.779   0.830   0.695   0.830
   0.779   0.925   0.940   0.947   1.083   1.166   1.564   1.646   1.654   1.461
   1.445   1.150   1.100   1.060   0.790   0.820   0.883   0.820   0.790   1.060
   1.100   1.150   1.445   1.461   1.654   1.646   1.564   1.166   1.083   0.947
   0.940   0.925   0.779   0.830   0.695   0.830   0.779   0.925   0.940   0.947
   1.083   1.166   1.564   1.646   1.654   1.461   1.445   1.150   1.100   1.060
   0.790   0.820
   0.511   0.412   0.392   0.528   0.523   0.565   0.789   0.867   1.194   1.413
   1.603   1.371   1.149   1.063   1.028   0.861   0.854   0.859   0.687   0.859
   0.854   0.861   1.028   1.063   1.149   1.371   1.603   1.413   1.194   0.867
   0.789   0.565   0.523   0.528   0.392   0.412   0.511   0.412   0.392   0.528
   0.523   0.565   0.789   0.867   1.194   1.413   1.603   1.371   1.149   1.063
   1.028   0.861   0.854   0.859   0.687   0.859   0.854   0.861   1.028   1.063
   1.149   1.371   1.603   1.413   1.194   0.867   0.789   0.565   0.523   0.528
   0.392   0.412
   0.353   0.291   0.306   0.391   0.298   0.452   0.500   0.562   0.780   1.063
   1.348   1.444   1.287   1.305   1.107   0.916   0.937   0.835   0.781   0.835
   0.937   0.916   1.107   1.305   1.287   1.444   1.348   1.063   0.780   0.562
   0.500   0.452   0.298   0.391   0.306   0.291   0.353   0.291   0.306   0.391
   0.298   0.452   0.500   0.562   0.780   1.063   1.348   1.444   1.287   1.305
   1.107   0.916   0.937   0.835   0.781   0.835   0.937   0.916   1.107   1.305
   1.287   1.444   1.348   1.063   0.780   0.562   0.500   0.452   0.298   0.391
   0.306   0.291
   0.255   0.222   0.310   0.380   0.295   0.441   0.355   0.536   0.660   0.847
   1.180   1.323   1.361   1.339   1.090   1.076   1.042   0.881   0.977   0.881
   1.042   1.076   1.090   1.339   1.361   1.323   1.180   0.847   0.660   0.536
   0.355   0.441   0.295   0.380   0.310   0.222   0.255   0.222   0.310   0.380
   0.295   0.441   0.355   0.536   0.660   0.847   1.180   1.323   1.361   1.339
   1.090   1.076   1.042   0.881   0.977   0.881   1.042   1.076   1.090   1.339
   1.361   1.323   1.180   0.847   0.660   0.536   0.355   0.441   0.295   0.380
   0.310   0.222
   0.267   0.260   0.317   0.343   0.327   0.389   0.283   0.546   0.706   0.825
   1.291   1.286   1.235   1.077   1.136   0.882   0.969   0.952   0.940   0.952
   0.969   0.882   1.136   1.077   1.235   1.286   1.291   0.825   0.706   0.546
   0.283   0.389   0.327   0.343   0.317   0.260   0.267   0.260   0.317   0.343
   0.327   0.389   0.283   0.546   0.706   0.825   1.291   1.286   1.235   1.077
   1.136   0.882   0.969   0.952   0.940   0.952   0.969   0.882   1.136   1.077
   1.235   1.286   1.291   0.825   0.706   0.546   0.283   0.389   0.327   0.343
   0.317   0.260
   0.263   0.414   0.308   0.238   0.281   0.394   0.360   0.607   0.742   1.012
   1.319   1.401   1.084   0.964   0.956   0.722   0.710   0.767   0.667   0.767
   0.710   0.722   0.956   0.964   1.084   1.401   1.319   1.012   0.742   0.607
   0.360   0.394   0.281   0.238   0.308   0.414   0.263   0.414   0.308   0.238
   0.281   0.394   0.360   0.607   0.742   1.012   1.319   1.401   1.084   0.964
   0.956   0.722   0.710   0.767   0.667   0.767   0.710   0.722   0.956   0.964
   1.084   1.401   1.319   1.012   0.742   0.607   0.360   0.394   0.281   0.238
   0.308   0.414
   0.392   0.646   0.403   0.431   0.319   0.592   0.505   0.765   1.008   1.287
   1.490   1.515   0.902   0.915   0.566   0.803   0.658   0.642   0.672   0.642
   0.658   0.803   0.566   0.915   0.902   1.515   1.490   1.287   1.008   0.765
   0.505   0.592   0.319   0.431   0.403   0.646   0.392   0.646   0.403   0.431
   0.319   0.592   0.505   0.765   1.008   1.287   1.490   1.515   0.902   0.915
   0.566   0.803   0.658   0.642   0.672   0.642   0.658   0.803   0.566   0.915
   0.902   1.515   1.490   1.287   1.008   0.765   0.505   0.592   0.319   0.431
   0.403   0.646
   0.656   0.692   0.472   0.513   0.476   0.744   0.628   0.908   1.275   1.278
   1.638   1.219   0.843   0.751   0.610   0.525   0.666   0.622   0.789   0.622
   0.666   0.525   0.610   0.751   0.843   1.219   1.638   1.278   1.275   0.908
   0.628   0.744   0.476   0.513   0.472   0.692   0.656   0.692   0.472   0.513
   0.476   0.744   0.628   0.908   1.275   1.278   1.638   1.219   0.843   0.751
   0.610   0.525   0.666   0.622   0.789   0.622   0.666   0.525   0.610   0.751
   0.843   1.219   1.638   1.278   1.275   0.908   0.628   0.744   0.476   0.513
   0.472   0.692
 111       5.00   72    0 5.00   15    0
   0.171   0.171   0.171   0.171   0.171   0.171   0.171   0.171   0.171   0.171
   0.171   0.171   0.171   0.171   0.171   0.171   0.171   0.171   0.171   0.171
   0.171   0.171   0.171   0.171   0.171   0.171   0.171   0.171   0.171   0.171
   0.171   0.171   0.171   0.171   0.171   0.171   0.171   0.171   0.171   0.171
   0.171   0.171   0.171   0.171   0.171   0.171   0.171   0.171   0.171   0.171
   0.171   0.171   0.171   0.171   0.171   0.171   0.171   0.171   0.171   0.171
   0.171   0.171   0.171   0.171   0.171   0.171   0.171   0.171   0.171   0.171
   0.171   0.171
   0.189   0.175   0.176   0.171   0.192   0.171   0.174   0.175   0.179   0.180
   0.178   0.168   0.167   0.171   0.169   0.166   0.161   0.175   0.177   0.175
   0.161   0.166   0.169   0.171   0.167   0.168   0.178   0.180   0.179   0.175
   0.174   0.171   0.192   0.171   0.176   0.175   0.189   0.175   0.176   0.171
   0.192   0.171   0.174   0.175   0.179   0.180   0.178   0.168   0.167   0.171
   0.169   0.166   0.161   0.175   0.177   0.175   0.161   0.166   0.169   0.171
   0.167   0.168   0.178   0.180   0.179   0.175   0.174   0.171   0.192   0.171
   0.176   0.175
   0.260   0.239   0.247   0.234   0.250   0.238   0.207   0.211   0.208   0.192
   0.203   0.193   0.176   0.180   0.182   0.174   0.178   0.174   0.168   0.174
   0.178   0.174   0.182   0.180   0.176   0.193   0.203   0.192   0.208   0.211
   0.207   0.238   0.250   0.234   0.247   0.239   0.260   0.239   0.247   0.234
   0.250   0.238   0.207   0.211   0.208   0.192   0.203   0.193   0.176   0.180
   0.182   0.174   0.178   0.174   0.168   0.174   0.178   0.174   0.182   0.180
   0.176   0.193   0.203   0.192   0.208   0.211   0.207   0.238   0.250   0.234
   0.247   0.239
   0.600   0.592   0.577   0.533   0.473   0.446   0.356   0.340   0.284   0.272
   0.262   0.247   0.220   0.218   0.216   0.186   0.201   0.186   0.164   0.186
   0.201   0.186   0.216   0.218   0.220   0.247   0.262   0.272   0.284   0.340
   0.356   0.446   0.473   0.533   0.577   0.592   0.600   0.592   0.577   0.533
   0.473   0.446   0.356   0.340   0.284   0.272   0.262   0.247   0.220   0.218
   0.216   0.186   0.201   0.186   0.164   0.186   0.201   0.186   0.216   0.218
   0.220   0.247   0.262   0.272   0.284   0.340   0.356   0.446   0.473   0.533
   0.577   0.592
   2.136   2.061   1.894   1.640   1.457   1.075   0.842   0.667   0.507   0.474
   0.369   0.325   0.291   0.262   0.245   0.220   0.206   0.210   0.208   0.210
   0.206   0.220   0.245   0.262   0.291   0.325   0.369   0.474   0.507   0.667
   0.842   1.075   1.457   1.640   1.894   2.061   2.136   2.061   1.894   1.640
   1.457   1.075   0.842   0.667   0.507   0.474   0.369   0.325   0.291   0.262
   0.245   0.220   0.206   0.210   0.208   0.210   0.206   0.220   0.245   0.262
   0.291   0.325   0.369   0.474   0.507   0.667   0.842   1.075   1.457   1.640
   1.894   2.061
   4.011   3.862   3.629   3.243   2.939   2.272   1.834   1.420   1.069   0.849
   0.572   0.458   0.395   0.319   0.261   0.258   0.230   0.238   0.276   0.238
   0.230   0.258   0.261   0.319   0.395   0.458   0.572   0.849   1.069   1.420
   1.834   2.272   2.939   3.243   3.629   3.862   4.011   3.862   3.629   3.243
   2.939   2.272   1.834   1.420   1.069   0.849   0.572   0.458   0.395   0.319
   0.261   0.258   0.230   0.238   0.276   0.238   0.230   0.258   0.261   0.319
   0.395   0.458   0.572   0.849   1.069   1.420   1.834   2.272   2.939   3.243
   3.629   3.862
   3.753   3.689   3.517   3.468   3.284   2.913   2.629   2.199   1.828   1.383
   0.967   0.747   0.603   0.474   0.364   0.337   0.324   0.306   0.293   0.306
   0.324   0.337   0.364   0.474   0.603   0.747   0.967   1.383   1.828   2.199
   2.629   2.913   3.284   3.468   3.517   3.689   3.753   3.689   3.517   3.468
   3.284   2.913   2.629   2.199   1.828   1.383   0.967   0.747   0.603   0.474
   0.364   0.337   0.324   0.306   0.293   0.306   0.324   0.337   0.364   0.474
   0.603   0.747   0.967   1.383   1.828   2.199   2.629   2.913   3.284   3.468
   3.517   3.689
   2.037   2.096   2.096   2.287   2.360   2.481   2.487   2.290   2.169   1.775
   1.429   1.106   0.829   0.690   0.552   0.451   0.466   0.460   0.314   0.460
   0.466   0.451   0.552   0.690   0.829   1.106   1.429   1.775   2.169   2.290
   2.487   2.481   2.360   2.287   2.096   2.096   2.037   2.096   2.096   2.287
   2.360   2.481   2.487   2.290   2.169   1.775   1.429   1.106   0.829   0.690
   0.552   0.451   0.466   0.460   0.314   0.460   0.466   0.451   0.552   0.690
   0.829   1.106   1.429   1.775   2.169   2.290   2.487   2.481   2.360   2.287
   2.096   2.096
   0.856   0.938   1.038   1.147   1.326   1.703   1.864   1.919   2.007   1.847
   1.619   1.319   1.040   0.897   0.752   0.592   0.622   0.587   0.425   0.587
   0.622   0.592   0.752   0.897   1.040   1.319   1.619   1.847   2.007   1.919
   1.864   1.703   1.326   1.147   1.038   0.938   0.856   0.938   1.038   1.147
   1.326   1.703   1.864   1.919   2.007   1.847   1.619   1.319   1.040   0.897
   0.752   0.592   0.622   0.587   0.425   0.587   0.622   0.592   0.752   0.897
   1.040   1.319   1.619   1.847   2.007   1.919   1.864   1.703   1.326   1.147
   1.038   0.938
   0.472   0.521   0.527   0.565   0.660   0.976   1.282   1.474   1.716   1.691
   1.646   1.401   1.329   1.110   0.987   0.841   0.779   0.779   0.664   0.779
   0.779   0.841   0.987   1.110   1.329   1.401   1.646   1.691   1.716   1.474
   1.282   0.976   0.660   0.565   0.527   0.521   0.472   0.521   0.527   0.565
   0.660   0.976   1.282   1.474   1.716   1.691   1.646   1.401   1.329   1.110
   0.987   0.841   0.779   0.779   0.664   0.779   0.779   0.841   0.987   1.110
   1.329   1.401   1.646   1.691   1.716   1.474   1.282   0.976   0.660   0.565
   0.527   0.521
   0.432   0.411   0.386   0.383   0.441   0.558   0.815   1.047   1.308   1.383
   1.512   1.412   1.360   1.350   1.256   1.097   0.947   0.937   0.885   0.937
   0.947   1.097   1.256   1.350   1.360   1.412   1.512   1.383   1.308   1.047
   0.815   0.558   0.441   0.383   0.386   0.411   0.432   0.411   0.386   0.383
   0.441   0.558   0.815   1.047   1.308   1.383   1.512   1.412   1.360   1.350
   1.256   1.097   0.947   0.937   0.885   0.937   0.947   1.097   1.256   1.350
   1.360   1.412   1.512   1.383   1.308   1.047   0.815   0.558   0.441   0.383
   0.386   0.411
   0.402   0.410   0.392   0.345   0.352   0.434   0.552   0.779   0.925   1.083
   1.154   1.260   1.164   1.304   1.456   1.233   1.168   1.081   0.946   1.081
   1.168   1.233   1.456   1.304   1.164   1.260   1.154   1.083   0.925   0.779
   0.552   0.434   0.352   0.345   0.392   0.410   0.402   0.410   0.392   0.345
   0.352   0.434   0.552   0.779   0.925   1.083   1.154   1.260   1.164   1.304
   1.456   1.233   1.168   1.081   0.946   1.081   1.168   1.233   1.456   1.304
   1.164   1.260   1.154   1.083   0.925   0.779   0.552   0.434   0.352   0.345
   0.392   0.410
   0.361   0.387   0.426   0.341   0.294   0.325   0.404   0.544   0.707   0.801
   0.842   0.981   0.978   1.104   1.224   1.242   1.217   1.127   0.927   1.127
   1.217   1.242   1.224   1.104   0.978   0.981   0.842   0.801   0.707   0.544
   0.404   0.325   0.294   0.341   0.426   0.387   0.361   0.387   0.426   0.341
   0.294   0.325   0.404   0.544   0.707   0.801   0.842   0.981   0.978   1.104
   1.224   1.242   1.217   1.127   0.927   1.127   1.217   1.242   1.224   1.104
   0.978   0.981   0.842   0.801   0.707   0.544   0.404   0.325   0.294   0.341
   0.426   0.387
   0.408   0.407   0.512   0.345   0.423   0.323   0.428   0.437   0.634   0.589
   0.704   0.843   0.891   1.067   1.067   1.370   1.224   1.031   1.129   1.031
   1.224   1.370   1.067   1.067   0.891   0.843   0.704   0.589   0.634   0.437
   0.428   0.323   0.423   0.345   0.512   0.407   0.408   0.407   0.512   0.345
   0.423   0.323   0.428   0.437   0.634   0.589   0.704   0.843   0.891   1.067
   1.067   1.370   1.224   1.031   1.129   1.031   1.224   1.370   1.067   1.067
   0.891   0.843   0.704   0.589   0.634   0.437   0.428   0.323   0.423   0.345
   0.512   0.407
   0.714   0.675   0.682   0.545   0.485   0.541   0.442   0.529   0.591   0.650
   0.635   0.749   0.811   0.993   1.184   1.301   1.104   0.885   1.055   0.885
   1.104   1.301   1.184   0.993   0.811   0.749   0.635   0.650   0.591   0.529
   0.442   0.541   0.485   0.545   0.682   0.675   0.714   0.675   0.682   0.545
   0.485   0.541   0.442   0.529   0.591   0.650   0.635   0.749   0.811   0.993
   1.184   1.301   1.104   0.885   1.055   0.885   1.104   1.301   1.184   0.993
   0.811   0.749   0.635   0.650   0.591   0.529   0.442   0.541   0.485   0.545
   0.682   0.675
  4  1      4.8122141E-01
  4  2     -3.3364788E-01
  4  3     -4.6636515E-01
  6  1      1.7028738E+00
  6  2     -2.7270993E+00
  6  3      9.6378867E-01
  6  4     -8.1761382E-02
  8  1     -2.3274091E-01
  8  2      3.3159835E-01
  8  3      1.3330948E-01
  8  4      4.4148544E-01
  8  5      5.6755920E-01
 10  1      1.7454902E-01
 10  2     -3.7368404E-01
 10  3      5.5231840E-01
 10  4     -1.9660241E-01
 10  5      1.3448100E-03
 10  6      1.3250836E-01
 12  1     -1.1818696E-01  1.3056097E+00
 12  2      1.5107709E-02 -1.7088170E+00
 12  3      5.9937939E-02  1.6214741E+00
 12  4     -3.7886978E-02 -6.1657147E-01
 12  5     -1.0246178E-02  2.4152985E-02
 12  6     -3.1266900E-01  1.8644363E-01
 12  7      9.3920860E-02  6.2296171E-02
 14  1     -4.3610130E-01
 14  2      3.4833336E-01
 14  3     -1.1701874E-01
 14  4      1.8394446E-03
 14  5     -1.2985109E-01
 14  6      5.9696584E-02
 14  7      2.1884187E-01
 14  8      3.1785531E-02
 16  1     -2.1174404E-02  1.7269480E-01
 16  2     -2.2249623E-01 -1.4247048E-01
 16  3      1.2099949E-01  1.7935322E-01
 16  4     -1.8405855E-01 -3.2380313E-01
 16  5      9.8769085E-02  1.4986365E-01
 16  6      6.4290414E-02 -1.1586471E-01
 16  7      5.9805341E-02 -3.1538615E-02
 16  8      2.7366242E-01 -3.5719589E-02
 16  9      1.8497115E-01  4.7791100E-02
 220       5.00   72    0 5.00   18    0
   2.253   2.254   2.256   2.261   2.267   2.275   2.283   2.293   2.304   2.314
   2.325   2.336   2.346   2.355   2.362   2.369   2.373   2.376   2.377   2.376
   2.373   2.369   2.362   2.355   2.346   2.336   2.325   2.314   2.304   2.293
   2.283   2.275   2.267   2.261   2.256   2.254   2.253   2.254   2.256   2.261
   2.267   2.275   2.283   2.293   2.304   2.314   2.325   2.336   2.346   2.355
   2.362   2.369   2.373   2.376   2.377   2.376   2.373   2.369   2.362   2.355
   2.346   2.336   2.325   2.314   2.304   2.293   2.283   2.275   2.267   2.261
   2.256   2.254
   1.472   1.478   1.496   1.526   1.567   1.619   1.681   1.750   1.827   1.908
   1.992   2.076   2.156   2.231   2.297   2.351   2.392   2.417   2.425   2.417
   2.392   2.351   2.297   2.231   2.156   2.076   1.992   1.908   1.827   1.750
   1.681   1.619   1.567   1.526   1.496   1.478   1.472   1.478   1.496   1.526
   1.567   1.619   1.681   1.750   1.827   1.908   1.992   2.076   2.156   2.231
   2.297   2.351   2.392   2.417   2.425   2.417   2.392   2.351   2.297   2.231
   2.156   2.076   1.992   1.908   1.827   1.750   1.681   1.619   1.567   1.526
   1.496   1.478
   0.539   0.547   0.571   0.611   0.669   0.747   0.844   0.961   1.099   1.255
   1.425   1.605   1.788   1.964   2.126   2.264   2.369   2.435   2.458   2.435
   2.369   2.264   2.126   1.964   1.788   1.605   1.425   1.255   1.099   0.961
   0.844   0.747   0.669   0.611   0.571   0.547   0.539   0.547   0.571   0.611
   0.669   0.747   0.844   0.961   1.099   1.255   1.425   1.605   1.788   1.964
   2.126   2.264   2.369   2.435   2.458   2.435   2.369   2.264   2.126   1.964
   1.788   1.605   1.425   1.255   1.099   0.961   0.844   0.747   0.669   0.611
   0.571   0.547
   0.093   0.094   0.100   0.113   0.136   0.176   0.239   0.331   0.459   0.624
   0.828   1.065   1.326   1.596   1.857   2.089   2.272   2.389   2.429   2.389
   2.272   2.089   1.857   1.596   1.326   1.065   0.828   0.624   0.459   0.331
   0.239   0.176   0.136   0.113   0.100   0.094   0.093   0.094   0.100   0.113
   0.136   0.176   0.239   0.331   0.459   0.624   0.828   1.065   1.326   1.596
   1.857   2.089   2.272   2.389   2.429   2.389   2.272   2.089   1.857   1.596
   1.326   1.065   0.828   0.624   0.459   0.331   0.239   0.176   0.136   0.113
   0.100   0.094
   0.218   0.212   0.194   0.167   0.136   0.109   0.096   0.110   0.163   0.268
   0.433   0.659   0.938   1.253   1.578   1.879   2.125   2.286   2.342   2.286
   2.125   1.879   1.578   1.253   0.938   0.659   0.433   0.268   0.163   0.110
   0.096   0.109   0.136   0.167   0.194   0.212   0.218   0.212   0.194   0.167
   0.136   0.109   0.096   0.110   0.163   0.268   0.433   0.659   0.938   1.253
   1.578   1.879   2.125   2.286   2.342   2.286   2.125   1.879   1.578   1.253
   0.938   0.659   0.433   0.268   0.163   0.110   0.096   0.109   0.136   0.167
   0.194   0.212
   0.488   0.481   0.461   0.429   0.386   0.336   0.285   0.245   0.231   0.263
   0.356   0.522   0.760   1.055   1.379   1.693   1.957   2.132   2.194   2.132
   1.957   1.693   1.379   1.055   0.760   0.522   0.356   0.263   0.231   0.245
   0.285   0.336   0.386   0.429   0.461   0.481   0.488   0.481   0.461   0.429
   0.386   0.336   0.285   0.245   0.231   0.263   0.356   0.522   0.760   1.055
   1.379   1.693   1.957   2.132   2.194   2.132   1.957   1.693   1.379   1.055
   0.760   0.522   0.356   0.263   0.231   0.245   0.285   0.336   0.386   0.429
   0.461   0.481
   0.483   0.484   0.488   0.494   0.499   0.498   0.488   0.471   0.455   0.461
   0.508   0.613   0.784   1.011   1.270   1.529   1.748   1.896   1.947   1.896
   1.748   1.529   1.270   1.011   0.784   0.613   0.508   0.461   0.455   0.471
   0.488   0.498   0.499   0.494   0.488   0.484   0.483   0.484   0.488   0.494
   0.499   0.498   0.488   0.471   0.455   0.461   0.508   0.613   0.784   1.011
   1.270   1.529   1.748   1.896   1.947   1.896   1.748   1.529   1.270   1.011
   0.784   0.613   0.508   0.461   0.455   0.471   0.488   0.498   0.499   0.494
   0.488   0.484
   0.234   0.241   0.264   0.308   0.372   0.446   0.514   0.566   0.601   0.632
   0.679   0.759   0.877   1.028   1.195   1.354   1.484   1.568   1.597   1.568
   1.484   1.354   1.195   1.028   0.877   0.759   0.679   0.632   0.601   0.566
   0.514   0.446   0.372   0.308   0.264   0.241   0.234   0.241   0.264   0.308
   0.372   0.446   0.514   0.566   0.601   0.632   0.679   0.759   0.877   1.028
   1.195   1.354   1.484   1.568   1.597   1.568   1.484   1.354   1.195   1.028
   0.877   0.759   0.679   0.632   0.601   0.566   0.514   0.446   0.372   0.308
   0.264   0.241
   0.206   0.201   0.196   0.216   0.275   0.364   0.461   0.543   0.607   0.663
   0.728   0.811   0.912   1.016   1.109   1.177   1.215   1.231   1.235   1.231
   1.215   1.177   1.109   1.016   0.912   0.811   0.728   0.663   0.607   0.543
   0.461   0.364   0.275   0.216   0.196   0.201   0.206   0.201   0.196   0.216
   0.275   0.364   0.461   0.543   0.607   0.663   0.728   0.811   0.912   1.016
   1.109   1.177   1.215   1.231   1.235   1.231   1.215   1.177   1.109   1.016
   0.912   0.811   0.728   0.663   0.607   0.543   0.461   0.364   0.275   0.216
   0.196   0.201
   0.858   0.815   0.714   0.615   0.563   0.560   0.578   0.593   0.606   0.631
   0.684   0.767   0.866   0.958   1.021   1.042   1.026   0.999   0.985   0.999
   1.026   1.042   1.021   0.958   0.866   0.767   0.684   0.631   0.606   0.593
   0.578   0.560   0.563   0.615   0.714   0.815   0.858   0.815   0.714   0.615
   0.563   0.560   0.578   0.593   0.606   0.631   0.684   0.767   0.866   0.958
   1.021   1.042   1.026   0.999   0.985   0.999   1.026   1.042   1.021   0.958
   0.866   0.767   0.684   0.631   0.606   0.593   0.578   0.560   0.563   0.615
   0.714   0.815
   2.135   2.036   1.790   1.509   1.277   1.111   0.976   0.850   0.743   0.680
   0.675   0.723   0.802   0.887   0.948   0.965   0.938   0.896   0.876   0.896
   0.938   0.965   0.948   0.887   0.802   0.723   0.675   0.680   0.743   0.850
   0.976   1.111   1.277   1.509   1.790   2.036   2.135   2.036   1.790   1.509
   1.277   1.111   0.976   0.850   0.743   0.680   0.675   0.723   0.802   0.887
   0.948   0.965   0.938   0.896   0.876   0.896   0.938   0.965   0.948   0.887
   0.802   0.723   0.675   0.680   0.743   0.850   0.976   1.111   1.277   1.509
   1.790   2.036
   3.321   3.173   2.805   2.380   2.019   1.734   1.481   1.235   1.018   0.864
   0.782   0.759   0.782   0.835   0.891   0.915   0.893   0.850   0.829   0.850
   0.893   0.915   0.891   0.835   0.782   0.759   0.782   0.864   1.018   1.235
   1.481   1.734   2.019   2.380   2.805   3.173   3.321   3.173   2.805   2.380
   2.019   1.734   1.481   1.235   1.018   0.864   0.782   0.759   0.782   0.835
   0.891   0.915   0.893   0.850   0.829   0.850   0.893   0.915   0.891   0.835
   0.782   0.759   0.782   0.864   1.018   1.235   1.481   1.734   2.019   2.380
   2.805   3.173
   3.519   3.361   2.981   2.567   2.244   2.001   1.769   1.521   1.288   1.102
   0.965   0.868   0.815   0.815   0.848   0.869   0.849   0.806   0.784   0.806
   0.849   0.869   0.848   0.815   0.815   0.868   0.965   1.102   1.288   1.521
   1.769   2.001   2.244   2.567   2.981   3.361   3.519   3.361   2.981   2.567
   2.244   2.001   1.769   1.521   1.288   1.102   0.965   0.868   0.815   0.815
   0.848   0.869   0.849   0.806   0.784   0.806   0.849   0.869   0.848   0.815
   0.815   0.868   0.965   1.102   1.288   1.521   1.769   2.001   2.244   2.567
   2.981   3.361
   2.473   2.356   2.097   1.870   1.763   1.723   1.658   1.540   1.403   1.267
   1.126   0.982   0.872   0.829   0.838   0.851   0.835   0.801   0.784   0.801
   0.835   0.851   0.838   0.829   0.872   0.982   1.126   1.267   1.403   1.540
   1.658   1.723   1.763   1.870   2.097   2.356   2.473   2.356   2.097   1.870
   1.763   1.723   1.658   1.540   1.403   1.267   1.126   0.982   0.872   0.829
   0.838   0.851   0.835   0.801   0.784   0.801   0.835   0.851   0.838   0.829
   0.872   0.982   1.126   1.267   1.403   1.540   1.658   1.723   1.763   1.870
   2.097   2.356
   0.920   0.869   0.786   0.800   0.939   1.117   1.243   1.304   1.321   1.289
   1.189   1.044   0.922   0.870   0.873   0.893   0.905   0.911   0.912   0.911
   0.905   0.893   0.873   0.870   0.922   1.044   1.189   1.289   1.321   1.304
   1.243   1.117   0.939   0.800   0.786   0.869   0.920   0.869   0.786   0.800
   0.939   1.117   1.243   1.304   1.321   1.289   1.189   1.044   0.922   0.870
   0.873   0.893   0.905   0.911   0.912   0.911   0.905   0.893   0.873   0.870
   0.922   1.044   1.189   1.289   1.321   1.304   1.243   1.117   0.939   0.800
   0.786   0.869
  -0.032  -0.037  -0.008   0.126   0.351   0.587   0.788   0.964   1.116   1.191
   1.152   1.041   0.948   0.917   0.933   0.977   1.051   1.133   1.170   1.133
   1.051   0.977   0.933   0.917   0.948   1.041   1.152   1.191   1.116   0.964
   0.788   0.587   0.351   0.126  -0.008  -0.037  -0.032  -0.037  -0.008   0.126
   0.351   0.587   0.788   0.964   1.116   1.191   1.152   1.041   0.948   0.917
   0.933   0.977   1.051   1.133   1.170   1.133   1.051   0.977   0.933   0.917
   0.948   1.041   1.152   1.191   1.116   0.964   0.788   0.587   0.351   0.126
  -0.008  -0.037
   0.026   0.027   0.055   0.137   0.250   0.360   0.488   0.678   0.903   1.054
   1.069   1.002   0.950   0.949   0.981   1.056   1.203   1.376   1.456   1.376
   1.203   1.056   0.981   0.949   0.950   1.002   1.069   1.054   0.903   0.678
   0.488   0.360   0.250   0.137   0.055   0.027   0.026   0.027   0.055   0.137
   0.250   0.360   0.488   0.678   0.903   1.054   1.069   1.002   0.950   0.949
   0.981   1.056   1.203   1.376   1.456   1.376   1.203   1.056   0.981   0.949
   0.950   1.002   1.069   1.054   0.903   0.678   0.488   0.360   0.250   0.137
   0.055   0.027
   0.470   0.459   0.439   0.420   0.385   0.342   0.366   0.527   0.773   0.960
   1.006   0.967   0.944   0.961   1.002   1.097   1.294   1.529   1.638   1.529
   1.294   1.097   1.002   0.961   0.944   0.967   1.006   0.960   0.773   0.527
   0.366   0.342   0.385   0.420   0.439   0.459   0.470   0.459   0.439   0.420
   0.385   0.342   0.366   0.527   0.773   0.960   1.006   0.967   0.944   0.961
   1.002   1.097   1.294   1.529   1.638   1.529   1.294   1.097   1.002   0.961
   0.944   0.967   1.006   0.960   0.773   0.527   0.366   0.342   0.385   0.420
   0.439   0.459
 200       5.00   72    0 5.00   18    0
   0.939   0.940   0.941   0.942   0.945   0.947   0.951   0.954   0.958   0.962
   0.966   0.970   0.974   0.977   0.980   0.982   0.984   0.985   0.986   0.985
   0.984   0.982   0.980   0.977   0.974   0.970   0.966   0.962   0.958   0.954
   0.951   0.947   0.945   0.942   0.941   0.940   0.939   0.940   0.941   0.942
   0.945   0.947   0.951   0.954   0.958   0.962   0.966   0.970   0.974   0.977
   0.980   0.982   0.984   0.985   0.986   0.985   0.984   0.982   0.980   0.977
   0.974   0.970   0.966   0.962   0.958   0.954   0.951   0.947   0.945   0.942
   0.941   0.940
   0.725   0.726   0.729   0.734   0.742   0.752   0.765   0.780   0.799   0.819
   0.842   0.866   0.890   0.913   0.935   0.953   0.967   0.975   0.978   0.975
   0.967   0.953   0.935   0.913   0.890   0.866   0.842   0.819   0.799   0.780
   0.765   0.752   0.742   0.734   0.729   0.726   0.725   0.726   0.729   0.734
   0.742   0.752   0.765   0.780   0.799   0.819   0.842   0.866   0.890   0.913
   0.935   0.953   0.967   0.975   0.978   0.975   0.967   0.953   0.935   0.913
   0.890   0.866   0.842   0.819   0.799   0.780   0.765   0.752   0.742   0.734
   0.729   0.726
   0.824   0.820   0.810   0.793   0.773   0.750   0.728   0.710   0.698   0.695
   0.702   0.721   0.749   0.784   0.822   0.859   0.889   0.909   0.916   0.909
   0.889   0.859   0.822   0.784   0.749   0.721   0.702   0.695   0.698   0.710
   0.728   0.750   0.773   0.793   0.810   0.820   0.824   0.820   0.810   0.793
   0.773   0.750   0.728   0.710   0.698   0.695   0.702   0.721   0.749   0.784
   0.822   0.859   0.889   0.909   0.916   0.909   0.889   0.859   0.822   0.784
   0.749   0.721   0.702   0.695   0.698   0.710   0.728   0.750   0.773   0.793
   0.810   0.820
   1.472   1.460   1.424   1.366   1.287   1.191   1.084   0.971   0.862   0.765
   0.690   0.643   0.626   0.639   0.673   0.719   0.764   0.797   0.809   0.797
   0.764   0.719   0.673   0.639   0.626   0.643   0.690   0.765   0.862   0.971
   1.084   1.191   1.287   1.366   1.424   1.460   1.472   1.460   1.424   1.366
   1.287   1.191   1.084   0.971   0.862   0.765   0.690   0.643   0.626   0.639
   0.673   0.719   0.764   0.797   0.809   0.797   0.764   0.719   0.673   0.639
   0.626   0.643   0.690   0.765   0.862   0.971   1.084   1.191   1.287   1.366
   1.424   1.460
   2.177   2.162   2.119   2.046   1.942   1.807   1.643   1.454   1.252   1.051
   0.868   0.721   0.623   0.580   0.586   0.625   0.678   0.720   0.736   0.720
   0.678   0.625   0.586   0.580   0.623   0.721   0.868   1.051   1.252   1.454
   1.643   1.807   1.942   2.046   2.119   2.162   2.177   2.162   2.119   2.046
   1.942   1.807   1.643   1.454   1.252   1.051   0.868   0.721   0.623   0.580
   0.586   0.625   0.678   0.720   0.736   0.720   0.678   0.625   0.586   0.580
   0.623   0.721   0.868   1.051   1.252   1.454   1.643   1.807   1.942   2.046
   2.119   2.162
   2.287   2.279   2.254   2.212   2.150   2.064   1.947   1.793   1.602   1.384
   1.156   0.946   0.777   0.670   0.628   0.640   0.681   0.721   0.738   0.721
   0.681   0.640   0.628   0.670   0.777   0.946   1.156   1.384   1.602   1.793
   1.947   2.064   2.150   2.212   2.254   2.279   2.287   2.279   2.254   2.212
   2.150   2.064   1.947   1.793   1.602   1.384   1.156   0.946   0.777   0.670
   0.628   0.640   0.681   0.721   0.738   0.721   0.681   0.640   0.628   0.670
   0.777   0.946   1.156   1.384   1.602   1.793   1.947   2.064   2.150   2.212
   2.254   2.279
   1.738   1.735   1.727   1.722   1.725   1.734   1.738   1.720   1.661   1.550
   1.391   1.203   1.016   0.864   0.767   0.727   0.728   0.744   0.753   0.744
   0.728   0.727   0.767   0.864   1.016   1.203   1.391   1.550   1.661   1.720
   1.738   1.734   1.725   1.722   1.727   1.735   1.738   1.735   1.727   1.722
   1.725   1.734   1.738   1.720   1.661   1.550   1.391   1.203   1.016   0.864
   0.767   0.727   0.728   0.744   0.753   0.744   0.728   0.727   0.767   0.864
   1.016   1.203   1.391   1.550   1.661   1.720   1.738   1.734   1.725   1.722
   1.727   1.735
   1.011   1.005   0.994   0.996   1.027   1.096   1.200   1.318   1.419   1.472
   1.454   1.362   1.217   1.056   0.916   0.816   0.760   0.736   0.730   0.736
   0.760   0.816   0.916   1.056   1.217   1.362   1.454   1.472   1.419   1.318
   1.200   1.096   1.027   0.996   0.994   1.005   1.011   1.005   0.994   0.996
   1.027   1.096   1.200   1.318   1.419   1.472   1.454   1.362   1.217   1.056
   0.916   0.816   0.760   0.736   0.730   0.736   0.760   0.816   0.916   1.056
   1.217   1.362   1.454   1.472   1.419   1.318   1.200   1.096   1.027   0.996
   0.994   1.005
   0.512   0.505   0.493   0.493   0.523   0.596   0.717   0.884   1.075   1.251
   1.365   1.383   1.310   1.177   1.027   0.895   0.797   0.738   0.719   0.738
   0.797   0.895   1.027   1.177   1.310   1.383   1.365   1.251   1.075   0.884
   0.717   0.596   0.523   0.493   0.493   0.505   0.512   0.505   0.493   0.493
   0.523   0.596   0.717   0.884   1.075   1.251   1.365   1.383   1.310   1.177
   1.027   0.895   0.797   0.738   0.719   0.738   0.797   0.895   1.027   1.177
   1.310   1.383   1.365   1.251   1.075   0.884   0.717   0.596   0.523   0.493
   0.493   0.505
   0.287   0.288   0.294   0.316   0.352   0.404   0.484   0.620   0.819   1.048
   1.238   1.331   1.314   1.221   1.098   0.979   0.879   0.810   0.785   0.810
   0.879   0.979   1.098   1.221   1.314   1.331   1.238   1.048   0.819   0.620
   0.484   0.404   0.352   0.316   0.294   0.288   0.287   0.288   0.294   0.316
   0.352   0.404   0.484   0.620   0.819   1.048   1.238   1.331   1.314   1.221
   1.098   0.979   0.879   0.810   0.785   0.810   0.879   0.979   1.098   1.221
   1.314   1.331   1.238   1.048   0.819   0.620   0.484   0.404   0.352   0.316
   0.294   0.288
   0.245   0.248   0.266   0.306   0.351   0.381   0.412   0.504   0.697   0.957
   1.185   1.296   1.283   1.203   1.114   1.036   0.964   0.903   0.879   0.903
   0.964   1.036   1.114   1.203   1.283   1.296   1.185   0.957   0.697   0.504
   0.412   0.381   0.351   0.306   0.266   0.248   0.245   0.248   0.266   0.306
   0.351   0.381   0.412   0.504   0.697   0.957   1.185   1.296   1.283   1.203
   1.114   1.036   0.964   0.903   0.879   0.903   0.964   1.036   1.114   1.203
   1.283   1.296   1.185   0.957   0.697   0.504   0.412   0.381   0.351   0.306
   0.266   0.248
   0.334   0.322   0.309   0.326   0.359   0.368   0.373   0.458   0.685   0.996
   1.242   1.318   1.244   1.127   1.048   1.005   0.960   0.908   0.883   0.908
   0.960   1.005   1.048   1.127   1.244   1.318   1.242   0.996   0.685   0.458
   0.373   0.368   0.359   0.326   0.309   0.322   0.334   0.322   0.309   0.326
   0.359   0.368   0.373   0.458   0.685   0.996   1.242   1.318   1.244   1.127
   1.048   1.005   0.960   0.908   0.883   0.908   0.960   1.005   1.048   1.127
   1.244   1.318   1.242   0.996   0.685   0.458   0.373   0.368   0.359   0.326
   0.309   0.322
   0.450   0.414   0.355   0.342   0.373   0.391   0.407   0.523   0.804   1.156
   1.384   1.375   1.198   1.015   0.923   0.896   0.868   0.822   0.798   0.822
   0.868   0.896   0.923   1.015   1.198   1.375   1.384   1.156   0.804   0.523
   0.407   0.391   0.373   0.342   0.355   0.414   0.450   0.414   0.355   0.342
   0.373   0.391   0.407   0.523   0.804   1.156   1.384   1.375   1.198   1.015
   0.923   0.896   0.868   0.822   0.798   0.822   0.868   0.896   0.923   1.015
   1.198   1.375   1.384   1.156   0.804   0.523   0.407   0.391   0.373   0.342
   0.355   0.414
   0.472   0.428   0.361   0.377   0.471   0.558   0.628   0.781   1.077   1.398
   1.538   1.414   1.144   0.915   0.813   0.798   0.794   0.776   0.764   0.776
   0.794   0.798   0.813   0.915   1.144   1.414   1.538   1.398   1.077   0.781
   0.628   0.558   0.471   0.377   0.361   0.428   0.472   0.428   0.361   0.377
   0.471   0.558   0.628   0.781   1.077   1.398   1.538   1.414   1.144   0.915
   0.813   0.798   0.794   0.776   0.764   0.776   0.794   0.798   0.813   0.915
   1.144   1.414   1.538   1.398   1.077   0.781   0.628   0.558   0.471   0.377
   0.361   0.428
   0.520   0.478   0.433   0.509   0.694   0.870   1.000   1.166   1.409   1.610
   1.605   1.380   1.080   0.860   0.763   0.756   0.800   0.857   0.884   0.857
   0.800   0.756   0.763   0.860   1.080   1.380   1.605   1.610   1.409   1.166
   1.000   0.870   0.694   0.509   0.433   0.478   0.520   0.478   0.433   0.509
   0.694   0.870   1.000   1.166   1.409   1.610   1.605   1.380   1.080   0.860
   0.763   0.756   0.800   0.857   0.884   0.857   0.800   0.756   0.763   0.860
   1.080   1.380   1.605   1.610   1.409   1.166   1.000   0.870   0.694   0.509
   0.433   0.478
   0.924   0.868   0.793   0.840   1.011   1.188   1.322   1.463   1.615   1.664
   1.521   1.253   1.004   0.838   0.739   0.721   0.824   0.997   1.084   0.997
   0.824   0.721   0.739   0.838   1.004   1.253   1.521   1.664   1.615   1.463
   1.322   1.188   1.011   0.840   0.793   0.868   0.924   0.868   0.793   0.840
   1.011   1.188   1.322   1.463   1.615   1.664   1.521   1.253   1.004   0.838
   0.739   0.721   0.824   0.997   1.084   0.997   0.824   0.721   0.739   0.838
   1.004   1.253   1.521   1.664   1.615   1.463   1.322   1.188   1.011   0.840
   0.793   0.868
   1.745   1.644   1.446   1.328   1.333   1.386   1.449   1.539   1.609   1.544
   1.322   1.077   0.923   0.817   0.693   0.636   0.786   1.076   1.227   1.076
   0.786   0.636   0.693   0.817   0.923   1.077   1.322   1.544   1.609   1.539
   1.449   1.386   1.333   1.328   1.446   1.644   1.745   1.644   1.446   1.328
   1.333   1.386   1.449   1.539   1.609   1.544   1.322   1.077   0.923   0.817
   0.693   0.636   0.786   1.076   1.227   1.076   0.786   0.636   0.693   0.817
   0.923   1.077   1.322   1.544   1.609   1.539   1.449   1.386   1.333   1.328
   1.446   1.644
   2.465   2.320   2.000   1.711   1.542   1.458   1.442   1.490   1.518   1.401
   1.155   0.947   0.865   0.797   0.644   0.548   0.720   1.083   1.275   1.083
   0.720   0.548   0.644   0.797   0.865   0.947   1.155   1.401   1.518   1.490
   1.442   1.458   1.542   1.711   2.000   2.320   2.465   2.320   2.000   1.711
   1.542   1.458   1.442   1.490   1.518   1.401   1.155   0.947   0.865   0.797
   0.644   0.548   0.720   1.083   1.275   1.083   0.720   0.548   0.644   0.797
   0.865   0.947   1.155   1.401   1.518   1.490   1.442   1.458   1.542   1.711
   2.000   2.320
 111       5.00   72    0 5.00   18    0
   0.338   0.338   0.339   0.341   0.343   0.345   0.348   0.352   0.356   0.359
   0.363   0.367   0.371   0.374   0.376   0.379   0.380   0.381   0.382   0.381
   0.380   0.379   0.376   0.374   0.371   0.367   0.363   0.359   0.356   0.352
   0.348   0.345   0.343   0.341   0.339   0.338   0.338   0.338   0.339   0.341
   0.343   0.345   0.348   0.352   0.356   0.359   0.363   0.367   0.371   0.374
   0.376   0.379   0.380   0.381   0.382   0.381   0.380   0.379   0.376   0.374
   0.371   0.367   0.363   0.359   0.356   0.352   0.348   0.345   0.343   0.341
   0.339   0.338
   0.075   0.076   0.080   0.086   0.096   0.108   0.123   0.141   0.162   0.185
   0.210   0.236   0.261   0.285   0.306   0.324   0.337   0.345   0.348   0.345
   0.337   0.324   0.306   0.285   0.261   0.236   0.210   0.185   0.162   0.141
   0.123   0.108   0.096   0.086   0.080   0.076   0.075   0.076   0.080   0.086
   0.096   0.108   0.123   0.141   0.162   0.185   0.210   0.236   0.261   0.285
   0.306   0.324   0.337   0.345   0.348   0.345   0.337   0.324   0.306   0.285
   0.261   0.236   0.210   0.185   0.162   0.141   0.123   0.108   0.096   0.086
   0.080   0.076
   0.081   0.077   0.065   0.048   0.028   0.009  -0.004  -0.009  -0.004   0.012
   0.038   0.073   0.114   0.157   0.199   0.236   0.264   0.282   0.288   0.282
   0.264   0.236   0.199   0.157   0.114   0.073   0.038   0.012  -0.004  -0.009
  -0.004   0.009   0.028   0.048   0.065   0.077   0.081   0.077   0.065   0.048
   0.028   0.009  -0.004  -0.009  -0.004   0.012   0.038   0.073   0.114   0.157
   0.199   0.236   0.264   0.282   0.288   0.282   0.264   0.236   0.199   0.157
   0.114   0.073   0.038   0.012  -0.004  -0.009  -0.004   0.009   0.028   0.048
   0.065   0.077
   0.881   0.859   0.795   0.695   0.573   0.440   0.311   0.197   0.109   0.051
   0.023   0.024   0.047   0.084   0.127   0.169   0.203   0.225   0.232   0.225
   0.203   0.169   0.127   0.084   0.047   0.024   0.023   0.051   0.109   0.197
   0.311   0.440   0.573   0.695   0.795   0.859   0.881   0.859   0.795   0.695
   0.573   0.440   0.311   0.197   0.109   0.051   0.023   0.024   0.047   0.084
   0.127   0.169   0.203   0.225   0.232   0.225   0.203   0.169   0.127   0.084
   0.047   0.024   0.023   0.051   0.109   0.197   0.311   0.440   0.573   0.695
   0.795   0.859
   2.331   2.286   2.153   1.946   1.684   1.391   1.094   0.816   0.576   0.387
   0.255   0.176   0.142   0.141   0.157   0.181   0.203   0.217   0.223   0.217
   0.203   0.181   0.157   0.141   0.142   0.176   0.255   0.387   0.576   0.816
   1.094   1.391   1.684   1.946   2.153   2.286   2.331   2.286   2.153   1.946
   1.684   1.391   1.094   0.816   0.576   0.387   0.255   0.176   0.142   0.141
   0.157   0.181   0.203   0.217   0.223   0.217   0.203   0.181   0.157   0.141
   0.142   0.176   0.255   0.387   0.576   0.816   1.094   1.391   1.684   1.946
   2.153   2.286
   3.508   3.456   3.303   3.060   2.744   2.377   1.985   1.593   1.230   0.917
   0.669   0.492   0.379   0.318   0.290   0.280   0.277   0.277   0.277   0.277
   0.277   0.280   0.290   0.318   0.379   0.492   0.669   0.917   1.230   1.593
   1.985   2.377   2.744   3.060   3.303   3.456   3.508   3.456   3.303   3.060
   2.744   2.377   1.985   1.593   1.230   0.917   0.669   0.492   0.379   0.318
   0.290   0.280   0.277   0.277   0.277   0.277   0.277   0.280   0.290   0.318
   0.379   0.492   0.669   0.917   1.230   1.593   1.985   2.377   2.744   3.060
   3.303   3.456
   3.472   3.445   3.366   3.233   3.045   2.799   2.499   2.155   1.789   1.430
   1.109   0.851   0.663   0.540   0.465   0.420   0.392   0.376   0.370   0.376
   0.392   0.420   0.465   0.540   0.663   0.851   1.109   1.430   1.789   2.155
   2.499   2.799   3.045   3.233   3.366   3.445   3.472   3.445   3.366   3.233
   3.045   2.799   2.499   2.155   1.789   1.430   1.109   0.851   0.663   0.540
   0.465   0.420   0.392   0.376   0.370   0.376   0.392   0.420   0.465   0.540
   0.663   0.851   1.109   1.430   1.789   2.155   2.499   2.799   3.045   3.233
   3.366   3.445
   2.226   2.242   2.287   2.351   2.411   2.437   2.394   2.261   2.037   1.749
   1.440   1.156   0.926   0.760   0.647   0.571   0.518   0.485   0.474   0.485
   0.518   0.571   0.647   0.760   0.926   1.156   1.440   1.749   2.037   2.261
   2.394   2.437   2.411   2.351   2.287   2.242   2.226   2.242   2.287   2.351
   2.411   2.437   2.394   2.261   2.037   1.749   1.440   1.156   0.926   0.760
   0.647   0.571   0.518   0.485   0.474   0.485   0.518   0.571   0.647   0.760
   0.926   1.156   1.440   1.749   2.037   2.261   2.394   2.437   2.411   2.351
   2.287   2.242
   0.775   0.813   0.926   1.112   1.352   1.606   1.818   1.936   1.931   1.810
   1.609   1.380   1.167   0.994   0.860   0.754   0.670   0.612   0.591   0.612
   0.670   0.754   0.860   0.994   1.167   1.380   1.609   1.810   1.931   1.936
   1.818   1.606   1.352   1.112   0.926   0.813   0.775   0.813   0.926   1.112
   1.352   1.606   1.818   1.936   1.931   1.810   1.609   1.380   1.167   0.994
   0.860   0.754   0.670   0.612   0.591   0.612   0.670   0.754   0.860   0.994
   1.167   1.380   1.609   1.810   1.931   1.936   1.818   1.606   1.352   1.112
   0.926   0.813
   0.092   0.114   0.188   0.332   0.555   0.839   1.139   1.401   1.576   1.642
   1.608   1.506   1.377   1.244   1.116   0.991   0.873   0.784   0.751   0.784
   0.873   0.991   1.116   1.244   1.377   1.506   1.608   1.642   1.576   1.401
   1.139   0.839   0.555   0.332   0.188   0.114   0.092   0.114   0.188   0.332
   0.555   0.839   1.139   1.401   1.576   1.642   1.608   1.506   1.377   1.244
   1.116   0.991   0.873   0.784   0.751   0.784   0.873   0.991   1.116   1.244
   1.377   1.506   1.608   1.642   1.576   1.401   1.139   0.839   0.555   0.332
   0.188   0.114
   0.195   0.188   0.180   0.201   0.281   0.435   0.652   0.903   1.143   1.332
   1.444   1.483   1.470   1.422   1.345   1.234   1.102   0.990   0.945   0.990
   1.102   1.234   1.345   1.422   1.470   1.483   1.444   1.332   1.143   0.903
   0.652   0.435   0.281   0.201   0.180   0.188   0.195   0.188   0.180   0.201
   0.281   0.435   0.652   0.903   1.143   1.332   1.444   1.483   1.470   1.422
   1.345   1.234   1.102   0.990   0.945   0.990   1.102   1.234   1.345   1.422
   1.470   1.483   1.444   1.332   1.143   0.903   0.652   0.435   0.281   0.201
   0.180   0.188
   0.400   0.385   0.348   0.307   0.289   0.321   0.421   0.589   0.798   1.005
   1.173   1.291   1.370   1.424   1.438   1.389   1.281   1.165   1.115   1.165
   1.281   1.389   1.438   1.424   1.370   1.291   1.173   1.005   0.798   0.589
   0.421   0.321   0.289   0.307   0.348   0.385   0.400   0.385   0.348   0.307
   0.289   0.321   0.421   0.589   0.798   1.005   1.173   1.291   1.370   1.424
   1.438   1.389   1.281   1.165   1.115   1.165   1.281   1.389   1.438   1.424
   1.370   1.291   1.173   1.005   0.798   0.589   0.421   0.321   0.289   0.307
   0.348   0.385
   0.316   0.313   0.301   0.284   0.275   0.295   0.363   0.484   0.639   0.792
   0.918   1.022   1.132   1.261   1.374   1.411   1.351   1.250   1.200   1.250
   1.351   1.411   1.374   1.261   1.132   1.022   0.918   0.792   0.639   0.484
   0.363   0.295   0.275   0.284   0.301   0.313   0.316   0.313   0.301   0.284
   0.275   0.295   0.363   0.484   0.639   0.792   0.918   1.022   1.132   1.261
   1.374   1.411   1.351   1.250   1.200   1.250   1.351   1.411   1.374   1.261
   1.132   1.022   0.918   0.792   0.639   0.484   0.363   0.295   0.275   0.284
   0.301   0.313
   0.254   0.249   0.237   0.227   0.241   0.299   0.406   0.541   0.667   0.752
   0.794   0.830   0.913   1.064   1.233   1.334   1.320   1.240   1.197   1.240
   1.320   1.334   1.233   1.064   0.913   0.830   0.794   0.752   0.667   0.541
   0.406   0.299   0.241   0.227   0.237   0.249   0.254   0.249   0.237   0.227
   0.241   0.299   0.406   0.541   0.667   0.752   0.794   0.830   0.913   1.064
   1.233   1.334   1.320   1.240   1.197   1.240   1.320   1.334   1.233   1.064
   0.913   0.830   0.794   0.752   0.667   0.541   0.406   0.299   0.241   0.227
   0.237   0.249
   0.643   0.613   0.535   0.446   0.401   0.441   0.558   0.696   0.792   0.817
   0.792   0.771   0.811   0.932   1.094   1.213   1.235   1.190   1.160   1.190
   1.235   1.213   1.094   0.932   0.811   0.771   0.792   0.817   0.792   0.696
   0.558   0.441   0.401   0.446   0.535   0.613   0.643   0.613   0.535   0.446
   0.401   0.441   0.558   0.696   0.792   0.817   0.792   0.771   0.811   0.932
   1.094   1.213   1.235   1.190   1.160   1.190   1.235   1.213   1.094   0.932
   0.811   0.771   0.792   0.817   0.792   0.696   0.558   0.441   0.401   0.446
   0.535   0.613
   1.410   1.354   1.202   1.008   0.854   0.798   0.832   0.885   0.894   0.852
   0.795   0.763   0.780   0.851   0.961   1.068   1.133   1.150   1.150   1.150
   1.133   1.068   0.961   0.851   0.780   0.763   0.795   0.852   0.894   0.885
   0.832   0.798   0.854   1.008   1.202   1.354   1.410   1.354   1.202   1.008
   0.854   0.798   0.832   0.885   0.894   0.852   0.795   0.763   0.780   0.851
   0.961   1.068   1.133   1.150   1.150   1.150   1.133   1.068   0.961   0.851
   0.780   0.763   0.795   0.852   0.894   0.885   0.832   0.798   0.854   1.008
   1.202   1.354
   2.113   2.055   1.889   1.654   1.424   1.260   1.155   1.052   0.921   0.794
   0.724   0.716   0.736   0.765   0.819   0.916   1.038   1.139   1.178   1.139
   1.038   0.916   0.819   0.765   0.736   0.716   0.724   0.794   0.921   1.052
   1.155   1.260   1.424   1.654   1.889   2.055   2.113   2.055   1.889   1.654
   1.424   1.260   1.155   1.052   0.921   0.794   0.724   0.716   0.736   0.765
   0.819   0.916   1.038   1.139   1.178   1.139   1.038   0.916   0.819   0.765
   0.736   0.716   0.724   0.794   0.921   1.052   1.155   1.260   1.424   1.654
   1.889   2.055
   2.472   2.426   2.284   2.063   1.813   1.587   1.379   1.151   0.905   0.712
   0.635   0.652   0.684   0.691   0.713   0.808   0.977   1.141   1.210   1.141
   0.977   0.808   0.713   0.691   0.684   0.652   0.635   0.712   0.905   1.151
   1.379   1.587   1.813   2.063   2.284   2.426   2.472   2.426   2.284   2.063
   1.813   1.587   1.379   1.151   0.905   0.712   0.635   0.652   0.684   0.691
   0.713   0.808   0.977   1.141   1.210   1.141   0.977   0.808   0.713   0.691
   0.684   0.652   0.635   0.712   0.905   1.151   1.379   1.587   1.813   2.063
   2.284   2.426
TEXTURE_INDEX=   2.3351
ERR_CF 220         1080     504   20.51   16.94
ERR_CF 200         1080     378   12.72   10.05
ERR_CF 111         1080     344   28.96    7.52
