TEXEVAL                                                                         
Analysis started on 07-Sep-20 12:46:09                                          
 LMAX=14LFMAX=03 CUBIC ORTHO   
 110      5.00 5.00
 200      5.00 5.00
 211      5.00 5.00
 110       5.00   72    0 5.00   15    0
   0.159   0.159   0.159   0.159   0.159   0.159   0.159   0.159   0.159   0.159
   0.159   0.159   0.159   0.159   0.159   0.159   0.159   0.159   0.159   0.159
   0.159   0.159   0.159   0.159   0.159   0.159   0.159   0.159   0.159   0.159
   0.159   0.159   0.159   0.159   0.159   0.159   0.159   0.159   0.159   0.159
   0.159   0.159   0.159   0.159   0.159   0.159   0.159   0.159   0.159   0.159
   0.159   0.159   0.159   0.159   0.159   0.159   0.159   0.159   0.159   0.159
   0.159   0.159   0.159   0.159   0.159   0.159   0.159   0.159   0.159   0.159
   0.159   0.159
   0.112   0.136   0.134   0.133   0.145   0.133   0.137   0.150   0.159   0.160
   0.156   0.160   0.152   0.159   0.155   0.171   0.158   0.174   0.169   0.174
   0.158   0.171   0.155   0.159   0.152   0.160   0.156   0.160   0.159   0.150
   0.137   0.133   0.145   0.133   0.134   0.136   0.112   0.136   0.134   0.133
   0.145   0.133   0.137   0.150   0.159   0.160   0.156   0.160   0.152   0.159
   0.155   0.171   0.158   0.174   0.169   0.174   0.158   0.171   0.155   0.159
   0.152   0.160   0.156   0.160   0.159   0.150   0.137   0.133   0.145   0.133
   0.134   0.136
   0.150   0.157   0.158   0.158   0.141   0.161   0.177   0.181   0.201   0.192
   0.191   0.188   0.216   0.213   0.210   0.232   0.191   0.227   0.255   0.227
   0.191   0.232   0.210   0.213   0.216   0.188   0.191   0.192   0.201   0.181
   0.177   0.161   0.141   0.158   0.158   0.157   0.150   0.157   0.158   0.158
   0.141   0.161   0.177   0.181   0.201   0.192   0.191   0.188   0.216   0.213
   0.210   0.232   0.191   0.227   0.255   0.227   0.191   0.232   0.210   0.213
   0.216   0.188   0.191   0.192   0.201   0.181   0.177   0.161   0.141   0.158
   0.158   0.157
   0.260   0.271   0.256   0.289   0.269   0.281   0.261   0.240   0.276   0.255
   0.265   0.278   0.317   0.309   0.315   0.345   0.263   0.350   0.341   0.350
   0.263   0.345   0.315   0.309   0.317   0.278   0.265   0.255   0.276   0.240
   0.261   0.281   0.269   0.289   0.256   0.271   0.260   0.271   0.256   0.289
   0.269   0.281   0.261   0.240   0.276   0.255   0.265   0.278   0.317   0.309
   0.315   0.345   0.263   0.350   0.341   0.350   0.263   0.345   0.315   0.309
   0.317   0.278   0.265   0.255   0.276   0.240   0.261   0.281   0.269   0.289
   0.256   0.271
   0.855   0.865   0.845   0.821   0.721   0.721   0.601   0.486   0.489   0.444
   0.408   0.428   0.431   0.413   0.440   0.450   0.356   0.478   0.432   0.478
   0.356   0.450   0.440   0.413   0.431   0.428   0.408   0.444   0.489   0.486
   0.601   0.721   0.721   0.821   0.845   0.865   0.855   0.865   0.845   0.821
   0.721   0.721   0.601   0.486   0.489   0.444   0.408   0.428   0.431   0.413
   0.440   0.450   0.356   0.478   0.432   0.478   0.356   0.450   0.440   0.413
   0.431   0.428   0.408   0.444   0.489   0.486   0.601   0.721   0.721   0.821
   0.845   0.865
   2.370   2.444   2.329   2.229   1.950   1.841   1.543   1.335   1.188   0.959
   0.776   0.682   0.639   0.599   0.588   0.557   0.442   0.592   0.662   0.592
   0.442   0.557   0.588   0.599   0.639   0.682   0.776   0.959   1.188   1.335
   1.543   1.841   1.950   2.229   2.329   2.444   2.370   2.444   2.329   2.229
   1.950   1.841   1.543   1.335   1.188   0.959   0.776   0.682   0.639   0.599
   0.588   0.557   0.442   0.592   0.662   0.592   0.442   0.557   0.588   0.599
   0.639   0.682   0.776   0.959   1.188   1.335   1.543   1.841   1.950   2.229
   2.329   2.444
   2.999   3.217   2.998   3.162   3.021   3.063   2.700   2.420   2.142   1.706
   1.397   1.149   0.946   0.875   0.752   0.703   0.567   0.727   0.819   0.727
   0.567   0.703   0.752   0.875   0.946   1.149   1.397   1.706   2.142   2.420
   2.700   3.063   3.021   3.162   2.998   3.217   2.999   3.217   2.998   3.162
   3.021   3.063   2.700   2.420   2.142   1.706   1.397   1.149   0.946   0.875
   0.752   0.703   0.567   0.727   0.819   0.727   0.567   0.703   0.752   0.875
   0.946   1.149   1.397   1.706   2.142   2.420   2.700   3.063   3.021   3.162
   2.998   3.217
   1.724   1.925   1.806   2.138   2.297   2.569   2.662   2.585   2.566   2.227
   1.882   1.520   1.232   1.037   0.893   0.742   0.552   0.727   0.682   0.727
   0.552   0.742   0.893   1.037   1.232   1.520   1.882   2.227   2.566   2.585
   2.662   2.569   2.297   2.138   1.806   1.925   1.724   1.925   1.806   2.138
   2.297   2.569   2.662   2.585   2.566   2.227   1.882   1.520   1.232   1.037
   0.893   0.742   0.552   0.727   0.682   0.727   0.552   0.742   0.893   1.037
   1.232   1.520   1.882   2.227   2.566   2.585   2.662   2.569   2.297   2.138
   1.806   1.925
   0.540   0.678   0.623   0.823   0.995   1.205   1.549   1.841   2.057   2.078
   1.875   1.629   1.416   1.131   0.936   0.724   0.475   0.663   0.592   0.663
   0.475   0.724   0.936   1.131   1.416   1.629   1.875   2.078   2.057   1.841
   1.549   1.205   0.995   0.823   0.623   0.678   0.540   0.678   0.623   0.823
   0.995   1.205   1.549   1.841   2.057   2.078   1.875   1.629   1.416   1.131
   0.936   0.724   0.475   0.663   0.592   0.663   0.475   0.724   0.936   1.131
   1.416   1.629   1.875   2.078   2.057   1.841   1.549   1.205   0.995   0.823
   0.623   0.678
   0.255   0.305   0.297   0.372   0.445   0.623   0.760   1.071   1.210   1.447
   1.491   1.456   1.383   1.276   0.951   0.858   0.507   0.604   0.575   0.604
   0.507   0.858   0.951   1.276   1.383   1.456   1.491   1.447   1.210   1.071
   0.760   0.623   0.445   0.372   0.297   0.305   0.255   0.305   0.297   0.372
   0.445   0.623   0.760   1.071   1.210   1.447   1.491   1.456   1.383   1.276
   0.951   0.858   0.507   0.604   0.575   0.604   0.507   0.858   0.951   1.276
   1.383   1.456   1.491   1.447   1.210   1.071   0.760   0.623   0.445   0.372
   0.297   0.305
   0.157   0.187   0.241   0.251   0.329   0.418   0.523   0.726   0.819   0.932
   1.167   1.151   1.175   1.235   1.019   0.983   0.568   0.646   0.532   0.646
   0.568   0.983   1.019   1.235   1.175   1.151   1.167   0.932   0.819   0.726
   0.523   0.418   0.329   0.251   0.241   0.187   0.157   0.187   0.241   0.251
   0.329   0.418   0.523   0.726   0.819   0.932   1.167   1.151   1.175   1.235
   1.019   0.983   0.568   0.646   0.532   0.646   0.568   0.983   1.019   1.235
   1.175   1.151   1.167   0.932   0.819   0.726   0.523   0.418   0.329   0.251
   0.241   0.187
   0.061   0.142   0.171   0.204   0.310   0.352   0.451   0.612   0.701   0.688
   0.991   0.959   0.972   1.120   1.022   0.921   0.600   0.771   0.662   0.771
   0.600   0.921   1.022   1.120   0.972   0.959   0.991   0.688   0.701   0.612
   0.451   0.352   0.310   0.204   0.171   0.142   0.061   0.142   0.171   0.204
   0.310   0.352   0.451   0.612   0.701   0.688   0.991   0.959   0.972   1.120
   1.022   0.921   0.600   0.771   0.662   0.771   0.600   0.921   1.022   1.120
   0.972   0.959   0.991   0.688   0.701   0.612   0.451   0.352   0.310   0.204
   0.171   0.142
   0.118   0.087   0.134   0.192   0.305   0.322   0.448   0.578   0.596   0.699
   0.836   0.887   0.906   1.106   1.033   0.951   0.693   0.916   0.854   0.916
   0.693   0.951   1.033   1.106   0.906   0.887   0.836   0.699   0.596   0.578
   0.448   0.322   0.305   0.192   0.134   0.087   0.118   0.087   0.134   0.192
   0.305   0.322   0.448   0.578   0.596   0.699   0.836   0.887   0.906   1.106
   1.033   0.951   0.693   0.916   0.854   0.916   0.693   0.951   1.033   1.106
   0.906   0.887   0.836   0.699   0.596   0.578   0.448   0.322   0.305   0.192
   0.134   0.087
   0.136   0.085   0.101   0.162   0.302   0.404   0.474   0.558   0.667   0.716
   0.807   0.886   0.887   1.017   1.267   1.098   0.867   1.211   1.069   1.211
   0.867   1.098   1.267   1.017   0.887   0.886   0.807   0.716   0.667   0.558
   0.474   0.404   0.302   0.162   0.101   0.085   0.136   0.085   0.101   0.162
   0.302   0.404   0.474   0.558   0.667   0.716   0.807   0.886   0.887   1.017
   1.267   1.098   0.867   1.211   1.069   1.211   0.867   1.098   1.267   1.017
   0.887   0.886   0.807   0.716   0.667   0.558   0.474   0.404   0.302   0.162
   0.101   0.085
   0.222   0.251   0.166   0.284   0.342   0.581   0.704   0.686   0.896   0.827
   0.952   0.937   0.970   1.049   1.417   1.207   1.121   1.405   1.570   1.405
   1.121   1.207   1.417   1.049   0.970   0.937   0.952   0.827   0.896   0.686
   0.704   0.581   0.342   0.284   0.166   0.251   0.222   0.251   0.166   0.284
   0.342   0.581   0.704   0.686   0.896   0.827   0.952   0.937   0.970   1.049
   1.417   1.207   1.121   1.405   1.570   1.405   1.121   1.207   1.417   1.049
   0.970   0.937   0.952   0.827   0.896   0.686   0.704   0.581   0.342   0.284
   0.166   0.251
 200       5.00   72    0 5.00   15    0
   3.248   3.248   3.248   3.248   3.248   3.248   3.248   3.248   3.248   3.248
   3.248   3.248   3.248   3.248   3.248   3.248   3.248   3.248   3.248   3.248
   3.248   3.248   3.248   3.248   3.248   3.248   3.248   3.248   3.248   3.248
   3.248   3.248   3.248   3.248   3.248   3.248   3.248   3.248   3.248   3.248
   3.248   3.248   3.248   3.248   3.248   3.248   3.248   3.248   3.248   3.248
   3.248   3.248   3.248   3.248   3.248   3.248   3.248   3.248   3.248   3.248
   3.248   3.248   3.248   3.248   3.248   3.248   3.248   3.248   3.248   3.248
   3.248   3.248
   1.535   1.544   1.635   1.737   1.790   1.849   1.776   2.077   2.358   2.281
   2.600   2.736   2.967   2.927   3.033   3.392   2.547   3.567   3.397   3.567
   2.547   3.392   3.033   2.927   2.967   2.736   2.600   2.281   2.358   2.077
   1.776   1.849   1.790   1.737   1.635   1.544   1.535   1.544   1.635   1.737
   1.790   1.849   1.776   2.077   2.358   2.281   2.600   2.736   2.967   2.927
   3.033   3.392   2.547   3.567   3.397   3.567   2.547   3.392   3.033   2.927
   2.967   2.736   2.600   2.281   2.358   2.077   1.776   1.849   1.790   1.737
   1.635   1.544
   0.540   0.582   0.578   0.650   0.612   0.778   0.860   1.069   1.095   1.378
   1.726   1.841   2.040   2.276   2.635   2.777   2.094   2.938   3.012   2.938
   2.094   2.777   2.635   2.276   2.040   1.841   1.726   1.378   1.095   1.069
   0.860   0.778   0.612   0.650   0.578   0.582   0.540   0.582   0.578   0.650
   0.612   0.778   0.860   1.069   1.095   1.378   1.726   1.841   2.040   2.276
   2.635   2.777   2.094   2.938   3.012   2.938   2.094   2.777   2.635   2.276
   2.040   1.841   1.726   1.378   1.095   1.069   0.860   0.778   0.612   0.650
   0.578   0.582
   0.280   0.188   0.313   0.216   0.281   0.408   0.498   0.557   0.456   0.874
   1.190   1.305   1.463   1.701   2.118   2.130   1.727   2.378   2.328   2.378
   1.727   2.130   2.118   1.701   1.463   1.305   1.190   0.874   0.456   0.557
   0.498   0.408   0.281   0.216   0.313   0.188   0.280   0.188   0.313   0.216
   0.281   0.408   0.498   0.557   0.456   0.874   1.190   1.305   1.463   1.701
   2.118   2.130   1.727   2.378   2.328   2.378   1.727   2.130   2.118   1.701
   1.463   1.305   1.190   0.874   0.456   0.557   0.498   0.408   0.281   0.216
   0.313   0.188
   0.304   0.191   0.212   0.133   0.223   0.377   0.349   0.498   0.384   0.636
   0.966   1.092   1.152   1.564   1.671   1.742   1.427   1.843   1.828   1.843
   1.427   1.742   1.671   1.564   1.152   1.092   0.966   0.636   0.384   0.498
   0.349   0.377   0.223   0.133   0.212   0.191   0.304   0.191   0.212   0.133
   0.223   0.377   0.349   0.498   0.384   0.636   0.966   1.092   1.152   1.564
   1.671   1.742   1.427   1.843   1.828   1.843   1.427   1.742   1.671   1.564
   1.152   1.092   0.966   0.636   0.384   0.498   0.349   0.377   0.223   0.133
   0.212   0.191
   0.422   0.193   0.169   0.208   0.339   0.320   0.300   0.501   0.554   0.608
   0.831   0.910   1.177   1.270   1.380   1.448   1.093   1.377   1.615   1.377
   1.093   1.448   1.380   1.270   1.177   0.910   0.831   0.608   0.554   0.501
   0.300   0.320   0.339   0.208   0.169   0.193   0.422   0.193   0.169   0.208
   0.339   0.320   0.300   0.501   0.554   0.608   0.831   0.910   1.177   1.270
   1.380   1.448   1.093   1.377   1.615   1.377   1.093   1.448   1.380   1.270
   1.177   0.910   0.831   0.608   0.554   0.501   0.300   0.320   0.339   0.208
   0.169   0.193
   0.484   0.134   0.167   0.176   0.275   0.176   0.184   0.386   0.625   0.479
   0.647   0.687   0.991   0.974   1.031   1.106   0.762   0.921   0.959   0.921
   0.762   1.106   1.031   0.974   0.991   0.687   0.647   0.479   0.625   0.386
   0.184   0.176   0.275   0.176   0.167   0.134   0.484   0.134   0.167   0.176
   0.275   0.176   0.184   0.386   0.625   0.479   0.647   0.687   0.991   0.974
   1.031   1.106   0.762   0.921   0.959   0.921   0.762   1.106   1.031   0.974
   0.991   0.687   0.647   0.479   0.625   0.386   0.184   0.176   0.275   0.176
   0.167   0.134
   0.345   0.277   0.360   0.167   0.327   0.158   0.353   0.514   0.575   0.531
   0.612   0.710   1.125   1.071   1.043   0.894   0.675   0.770   0.686   0.770
   0.675   0.894   1.043   1.071   1.125   0.710   0.612   0.531   0.575   0.514
   0.353   0.158   0.327   0.167   0.360   0.277   0.345   0.277   0.360   0.167
   0.327   0.158   0.353   0.514   0.575   0.531   0.612   0.710   1.125   1.071
   1.043   0.894   0.675   0.770   0.686   0.770   0.675   0.894   1.043   1.071
   1.125   0.710   0.612   0.531   0.575   0.514   0.353   0.158   0.327   0.167
   0.360   0.277
   0.295   0.519   0.635   0.570   0.621   0.316   0.565   0.653   0.770   0.735
   0.838   1.092   1.423   1.291   1.232   1.006   0.866   0.834   1.063   0.834
   0.866   1.006   1.232   1.291   1.423   1.092   0.838   0.735   0.770   0.653
   0.565   0.316   0.621   0.570   0.635   0.519   0.295   0.519   0.635   0.570
   0.621   0.316   0.565   0.653   0.770   0.735   0.838   1.092   1.423   1.291
   1.232   1.006   0.866   0.834   1.063   0.834   0.866   1.006   1.232   1.291
   1.423   1.092   0.838   0.735   0.770   0.653   0.565   0.316   0.621   0.570
   0.635   0.519
   0.703   0.685   0.750   0.907   0.631   0.916   0.945   0.877   0.786   1.014
   1.150   1.174   1.313   1.447   1.422   1.195   0.765   0.781   1.329   0.781
   0.765   1.195   1.422   1.447   1.313   1.174   1.150   1.014   0.786   0.877
   0.945   0.916   0.631   0.907   0.750   0.685   0.703   0.685   0.750   0.907
   0.631   0.916   0.945   0.877   0.786   1.014   1.150   1.174   1.313   1.447
   1.422   1.195   0.765   0.781   1.329   0.781   0.765   1.195   1.422   1.447
   1.313   1.174   1.150   1.014   0.786   0.877   0.945   0.916   0.631   0.907
   0.750   0.685
   1.758   1.250   1.115   1.268   1.050   1.470   1.399   0.925   0.848   1.081
   1.248   1.119   1.361   1.492   1.501   1.209   0.642   0.934   1.219   0.934
   0.642   1.209   1.501   1.492   1.361   1.119   1.248   1.081   0.848   0.925
   1.399   1.470   1.050   1.268   1.115   1.250   1.758   1.250   1.115   1.268
   1.050   1.470   1.399   0.925   0.848   1.081   1.248   1.119   1.361   1.492
   1.501   1.209   0.642   0.934   1.219   0.934   0.642   1.209   1.501   1.492
   1.361   1.119   1.248   1.081   0.848   0.925   1.399   1.470   1.050   1.268
   1.115   1.250
   2.438   2.354   2.090   2.122   1.272   1.877   1.353   0.908   0.917   1.026
   1.162   1.378   1.406   1.722   1.448   1.358   0.840   1.148   1.200   1.148
   0.840   1.358   1.448   1.722   1.406   1.378   1.162   1.026   0.917   0.908
   1.353   1.877   1.272   2.122   2.090   2.354   2.438   2.354   2.090   2.122
   1.272   1.877   1.353   0.908   0.917   1.026   1.162   1.378   1.406   1.722
   1.448   1.358   0.840   1.148   1.200   1.148   0.840   1.358   1.448   1.722
   1.406   1.378   1.162   1.026   0.917   0.908   1.353   1.877   1.272   2.122
   2.090   2.354
   1.966   2.420   2.330   2.435   1.089   1.627   1.338   1.067   0.772   0.931
   1.114   1.290   1.157   1.732   1.062   1.248   0.595   1.187   1.505   1.187
   0.595   1.248   1.062   1.732   1.157   1.290   1.114   0.931   0.772   1.067
   1.338   1.627   1.089   2.435   2.330   2.420   1.966   2.420   2.330   2.435
   1.089   1.627   1.338   1.067   0.772   0.931   1.114   1.290   1.157   1.732
   1.062   1.248   0.595   1.187   1.505   1.187   0.595   1.248   1.062   1.732
   1.157   1.290   1.114   0.931   0.772   1.067   1.338   1.627   1.089   2.435
   2.330   2.420
   1.312   1.382   1.560   1.828   1.074   1.194   1.137   0.982   0.850   0.753
   1.286   1.019   1.201   1.135   1.060   0.697   0.430   0.997   1.222   0.997
   0.430   0.697   1.060   1.135   1.201   1.019   1.286   0.753   0.850   0.982
   1.137   1.194   1.074   1.828   1.560   1.382   1.312   1.382   1.560   1.828
   1.074   1.194   1.137   0.982   0.850   0.753   1.286   1.019   1.201   1.135
   1.060   0.697   0.430   0.997   1.222   0.997   0.430   0.697   1.060   1.135
   1.201   1.019   1.286   0.753   0.850   0.982   1.137   1.194   1.074   1.828
   1.560   1.382
   0.577   0.580   1.005   0.960   0.905   0.958   0.876   1.029   0.802   1.316
   0.997   0.750   1.231   0.941   1.556   0.807   0.304   0.894   0.869   0.894
   0.304   0.807   1.556   0.941   1.231   0.750   0.997   1.316   0.802   1.029
   0.876   0.958   0.905   0.960   1.005   0.580   0.577   0.580   1.005   0.960
   0.905   0.958   0.876   1.029   0.802   1.316   0.997   0.750   1.231   0.941
   1.556   0.807   0.304   0.894   0.869   0.894   0.304   0.807   1.556   0.941
   1.231   0.750   0.997   1.316   0.802   1.029   0.876   0.958   0.905   0.960
   1.005   0.580
 211       5.00   72    0 5.00   15    0
   2.553   2.553   2.553   2.553   2.553   2.553   2.553   2.553   2.553   2.553
   2.553   2.553   2.553   2.553   2.553   2.553   2.553   2.553   2.553   2.553
   2.553   2.553   2.553   2.553   2.553   2.553   2.553   2.553   2.553   2.553
   2.553   2.553   2.553   2.553   2.553   2.553   2.553   2.553   2.553   2.553
   2.553   2.553   2.553   2.553   2.553   2.553   2.553   2.553   2.553   2.553
   2.553   2.553   2.553   2.553   2.553   2.553   2.553   2.553   2.553   2.553
   2.553   2.553   2.553   2.553   2.553   2.553   2.553   2.553   2.553   2.553
   2.553   2.553
   1.639   1.583   1.511   1.626   1.584   1.646   1.688   1.724   1.803   1.862
   1.984   2.056   2.204   2.234   2.457   2.472   1.899   2.708   2.637   2.708
   1.899   2.472   2.457   2.234   2.204   2.056   1.984   1.862   1.803   1.724
   1.688   1.646   1.584   1.626   1.511   1.583   1.639   1.583   1.511   1.626
   1.584   1.646   1.688   1.724   1.803   1.862   1.984   2.056   2.204   2.234
   2.457   2.472   1.899   2.708   2.637   2.708   1.899   2.472   2.457   2.234
   2.204   2.056   1.984   1.862   1.803   1.724   1.688   1.646   1.584   1.626
   1.511   1.583
   1.300   1.207   1.145   1.260   1.230   1.216   1.220   1.170   1.289   1.387
   1.459   1.578   1.716   1.834   2.110   2.250   1.765   2.559   2.533   2.559
   1.765   2.250   2.110   1.834   1.716   1.578   1.459   1.387   1.289   1.170
   1.220   1.216   1.230   1.260   1.145   1.207   1.300   1.207   1.145   1.260
   1.230   1.216   1.220   1.170   1.289   1.387   1.459   1.578   1.716   1.834
   2.110   2.250   1.765   2.559   2.533   2.559   1.765   2.250   2.110   1.834
   1.716   1.578   1.459   1.387   1.289   1.170   1.220   1.216   1.230   1.260
   1.145   1.207
   1.422   1.406   1.252   1.384   1.379   1.196   1.193   1.104   1.171   1.186
   1.223   1.233   1.404   1.504   1.802   2.047   1.616   2.398   2.248   2.398
   1.616   2.047   1.802   1.504   1.404   1.233   1.223   1.186   1.171   1.104
   1.193   1.196   1.379   1.384   1.252   1.406   1.422   1.406   1.252   1.384
   1.379   1.196   1.193   1.104   1.171   1.186   1.223   1.233   1.404   1.504
   1.802   2.047   1.616   2.398   2.248   2.398   1.616   2.047   1.802   1.504
   1.404   1.233   1.223   1.186   1.171   1.104   1.193   1.196   1.379   1.384
   1.252   1.406
   1.546   1.438   1.306   1.380   1.358   1.183   1.211   1.099   1.002   1.015
   1.020   0.993   1.159   1.232   1.475   1.666   1.398   2.107   1.973   2.107
   1.398   1.666   1.475   1.232   1.159   0.993   1.020   1.015   1.002   1.099
   1.211   1.183   1.358   1.380   1.306   1.438   1.546   1.438   1.306   1.380
   1.358   1.183   1.211   1.099   1.002   1.015   1.020   0.993   1.159   1.232
   1.475   1.666   1.398   2.107   1.973   2.107   1.398   1.666   1.475   1.232
   1.159   0.993   1.020   1.015   1.002   1.099   1.211   1.183   1.358   1.380
   1.306   1.438
   1.113   0.937   1.062   1.044   0.991   0.975   1.038   0.892   0.726   0.747
   0.777   0.714   0.823   0.913   1.035   1.210   1.096   1.601   1.514   1.601
   1.096   1.210   1.035   0.913   0.823   0.714   0.777   0.747   0.726   0.892
   1.038   0.975   0.991   1.044   1.062   0.937   1.113   0.937   1.062   1.044
   0.991   0.975   1.038   0.892   0.726   0.747   0.777   0.714   0.823   0.913
   1.035   1.210   1.096   1.601   1.514   1.601   1.096   1.210   1.035   0.913
   0.823   0.714   0.777   0.747   0.726   0.892   1.038   0.975   0.991   1.044
   1.062   0.937
   0.712   0.728   0.791   0.798   0.782   0.763   0.769   0.728   0.620   0.680
   0.650   0.589   0.662   0.598   0.671   0.936   0.802   1.218   1.067   1.218
   0.802   0.936   0.671   0.598   0.662   0.589   0.650   0.680   0.620   0.728
   0.769   0.763   0.782   0.798   0.791   0.728   0.712   0.728   0.791   0.798
   0.782   0.763   0.769   0.728   0.620   0.680   0.650   0.589   0.662   0.598
   0.671   0.936   0.802   1.218   1.067   1.218   0.802   0.936   0.671   0.598
   0.662   0.589   0.650   0.680   0.620   0.728   0.769   0.763   0.782   0.798
   0.791   0.728
   0.732   0.997   0.805   0.793   0.765   0.748   0.785   0.694   0.698   0.727
   0.735   0.695   0.677   0.688   0.703   0.826   0.696   1.086   1.041   1.086
   0.696   0.826   0.703   0.688   0.677   0.695   0.735   0.727   0.698   0.694
   0.785   0.748   0.765   0.793   0.805   0.997   0.732   0.997   0.805   0.793
   0.765   0.748   0.785   0.694   0.698   0.727   0.735   0.695   0.677   0.688
   0.703   0.826   0.696   1.086   1.041   1.086   0.696   0.826   0.703   0.688
   0.677   0.695   0.735   0.727   0.698   0.694   0.785   0.748   0.765   0.793
   0.805   0.997
   0.732   0.855   0.742   0.782   0.721   0.614   0.781   0.671   0.712   0.701
   0.932   0.725   0.687   0.848   0.845   0.898   0.660   1.023   0.990   1.023
   0.660   0.898   0.845   0.848   0.687   0.725   0.932   0.701   0.712   0.671
   0.781   0.614   0.721   0.782   0.742   0.855   0.732   0.855   0.742   0.782
   0.721   0.614   0.781   0.671   0.712   0.701   0.932   0.725   0.687   0.848
   0.845   0.898   0.660   1.023   0.990   1.023   0.660   0.898   0.845   0.848
   0.687   0.725   0.932   0.701   0.712   0.671   0.781   0.614   0.721   0.782
   0.742   0.855
   0.606   0.636   0.669   0.646   0.633   0.559   0.589   0.494   0.557   0.734
   0.797   0.772   0.796   0.979   0.878   1.000   0.648   1.006   0.991   1.006
   0.648   1.000   0.878   0.979   0.796   0.772   0.797   0.734   0.557   0.494
   0.589   0.559   0.633   0.646   0.669   0.636   0.606   0.636   0.669   0.646
   0.633   0.559   0.589   0.494   0.557   0.734   0.797   0.772   0.796   0.979
   0.878   1.000   0.648   1.006   0.991   1.006   0.648   1.000   0.878   0.979
   0.796   0.772   0.797   0.734   0.557   0.494   0.589   0.559   0.633   0.646
   0.669   0.636
   0.635   0.901   1.030   0.876   0.865   0.948   0.731   0.538   0.685   0.744
   0.781   0.862   0.975   1.030   0.894   1.077   0.751   0.958   1.036   0.958
   0.751   1.077   0.894   1.030   0.975   0.862   0.781   0.744   0.685   0.538
   0.731   0.948   0.865   0.876   1.030   0.901   0.635   0.901   1.030   0.876
   0.865   0.948   0.731   0.538   0.685   0.744   0.781   0.862   0.975   1.030
   0.894   1.077   0.751   0.958   1.036   0.958   0.751   1.077   0.894   1.030
   0.975   0.862   0.781   0.744   0.685   0.538   0.731   0.948   0.865   0.876
   1.030   0.901
   1.386   1.768   1.836   1.758   1.898   1.490   1.177   1.081   1.030   0.769
   0.959   0.978   0.995   0.942   0.978   0.974   0.748   0.941   0.956   0.941
   0.748   0.974   0.978   0.942   0.995   0.978   0.959   0.769   1.030   1.081
   1.177   1.490   1.898   1.758   1.836   1.768   1.386   1.768   1.836   1.758
   1.898   1.490   1.177   1.081   1.030   0.769   0.959   0.978   0.995   0.942
   0.978   0.974   0.748   0.941   0.956   0.941   0.748   0.974   0.978   0.942
   0.995   0.978   0.959   0.769   1.030   1.081   1.177   1.490   1.898   1.758
   1.836   1.768
   1.762   2.089   1.699   1.988   2.295   1.783   1.610   1.266   1.190   1.009
   0.937   1.230   1.063   0.902   0.976   1.014   0.724   1.035   0.983   1.035
   0.724   1.014   0.976   0.902   1.063   1.230   0.937   1.009   1.190   1.266
   1.610   1.783   2.295   1.988   1.699   2.089   1.762   2.089   1.699   1.988
   2.295   1.783   1.610   1.266   1.190   1.009   0.937   1.230   1.063   0.902
   0.976   1.014   0.724   1.035   0.983   1.035   0.724   1.014   0.976   0.902
   1.063   1.230   0.937   1.009   1.190   1.266   1.610   1.783   2.295   1.988
   1.699   2.089
   1.089   1.231   0.888   1.579   1.504   1.591   1.486   1.212   1.222   1.072
   1.151   1.125   0.977   1.097   0.797   1.197   0.820   1.221   1.215   1.221
   0.820   1.197   0.797   1.097   0.977   1.125   1.151   1.072   1.222   1.212
   1.486   1.591   1.504   1.579   0.888   1.231   1.089   1.231   0.888   1.579
   1.504   1.591   1.486   1.212   1.222   1.072   1.151   1.125   0.977   1.097
   0.797   1.197   0.820   1.221   1.215   1.221   0.820   1.197   0.797   1.097
   0.977   1.125   1.151   1.072   1.222   1.212   1.486   1.591   1.504   1.579
   0.888   1.231
   0.587   0.592   0.587   1.271   0.794   1.127   0.827   1.086   1.017   0.977
   1.137   0.716   0.749   1.249   0.656   1.124   0.551   1.067   1.029   1.067
   0.551   1.124   0.656   1.249   0.749   0.716   1.137   0.977   1.017   1.086
   0.827   1.127   0.794   1.271   0.587   0.592   0.587   0.592   0.587   1.271
   0.794   1.127   0.827   1.086   1.017   0.977   1.137   0.716   0.749   1.249
   0.656   1.124   0.551   1.067   1.029   1.067   0.551   1.124   0.656   1.249
   0.749   0.716   1.137   0.977   1.017   1.086   0.827   1.127   0.794   1.271
   0.587   0.592
  4  1     -9.0136221E-02
  4  2     -3.5581693E-01
  4  3     -2.7287772E-01
  6  1     -2.7598244E+00
  6  2      2.1991973E+00
  6  3     -1.1065216E+00
  6  4     -2.5995625E-01
  8  1      4.9560213E-01
  8  2     -4.6363080E-01
  8  3     -3.8455317E-01
  8  4      4.6794188E-01
  8  5     -3.1197325E-02
 10  1      3.3156767E-01
 10  2      3.1317234E-01
 10  3     -1.4697764E-01
 10  4     -2.9883307E-01
 10  5      5.3757147E-01
 10  6      3.3538998E-01
 12  1      1.1891143E-01  1.5484191E+00
 12  2     -3.0690965E-01 -1.8748318E+00
 12  3      1.5773816E-01  1.0998813E+00
 12  4      8.7559666E-02 -4.9699581E-01
 12  5     -7.0686668E-02  3.3887916E-02
 12  6     -1.4071906E-01 -5.5312366E-02
 12  7     -1.6157235E-01  3.0391403E-01
 14  1     -4.7371721E-01
 14  2      2.4548566E-01
 14  3      2.4600790E-01
 14  4     -3.6088411E-01
 14  5      2.7893711E-01
 14  6     -1.3317006E-01
 14  7     -2.2564618E-01
 14  8      3.7939457E-01
 110       5.00   72    0 5.00   18    0
   0.201   0.201   0.202   0.204   0.207   0.210   0.213   0.217   0.221   0.226
   0.230   0.234   0.238   0.242   0.245   0.247   0.249   0.251   0.251   0.251
   0.249   0.247   0.245   0.242   0.238   0.234   0.230   0.226   0.221   0.217
   0.213   0.210   0.207   0.204   0.202   0.201   0.201   0.201   0.202   0.204
   0.207   0.210   0.213   0.217   0.221   0.226   0.230   0.234   0.238   0.242
   0.245   0.247   0.249   0.251   0.251   0.251   0.249   0.247   0.245   0.242
   0.238   0.234   0.230   0.226   0.221   0.217   0.213   0.210   0.207   0.204
   0.202   0.201
  -0.023  -0.021  -0.016  -0.006   0.007   0.023   0.044   0.067   0.093   0.122
   0.152   0.182   0.212   0.241   0.266   0.287   0.303   0.313   0.316   0.313
   0.303   0.287   0.266   0.241   0.212   0.182   0.152   0.122   0.093   0.067
   0.044   0.023   0.007  -0.006  -0.016  -0.021  -0.023  -0.021  -0.016  -0.006
   0.007   0.023   0.044   0.067   0.093   0.122   0.152   0.182   0.212   0.241
   0.266   0.287   0.303   0.313   0.316   0.313   0.303   0.287   0.266   0.241
   0.212   0.182   0.152   0.122   0.093   0.067   0.044   0.023   0.007  -0.006
  -0.016  -0.021
  -0.036  -0.037  -0.038  -0.038  -0.038  -0.033  -0.024  -0.009   0.015   0.047
   0.088   0.136   0.190   0.246   0.299   0.347   0.385   0.409   0.417   0.409
   0.385   0.347   0.299   0.246   0.190   0.136   0.088   0.047   0.015  -0.009
  -0.024  -0.033  -0.038  -0.038  -0.038  -0.037  -0.036  -0.037  -0.038  -0.038
  -0.038  -0.033  -0.024  -0.009   0.015   0.047   0.088   0.136   0.190   0.246
   0.299   0.347   0.385   0.409   0.417   0.409   0.385   0.347   0.299   0.246
   0.190   0.136   0.088   0.047   0.015  -0.009  -0.024  -0.033  -0.038  -0.038
  -0.038  -0.037
   0.559   0.550   0.526   0.488   0.438   0.381   0.322   0.266   0.221   0.192
   0.183   0.197   0.233   0.286   0.349   0.413   0.468   0.505   0.518   0.505
   0.468   0.413   0.349   0.286   0.233   0.197   0.183   0.192   0.221   0.266
   0.322   0.381   0.438   0.488   0.526   0.550   0.559   0.550   0.526   0.488
   0.438   0.381   0.322   0.266   0.221   0.192   0.183   0.197   0.233   0.286
   0.349   0.413   0.468   0.505   0.518   0.505   0.468   0.413   0.349   0.286
   0.233   0.197   0.183   0.192   0.221   0.266   0.322   0.381   0.438   0.488
   0.526   0.550
   1.641   1.627   1.583   1.511   1.410   1.284   1.136   0.976   0.815   0.665
   0.541   0.454   0.409   0.406   0.438   0.489   0.543   0.584   0.599   0.584
   0.543   0.489   0.438   0.406   0.409   0.454   0.541   0.665   0.815   0.976
   1.136   1.284   1.410   1.511   1.583   1.627   1.641   1.627   1.583   1.511
   1.410   1.284   1.136   0.976   0.815   0.665   0.541   0.454   0.409   0.406
   0.438   0.489   0.543   0.584   0.599   0.584   0.543   0.489   0.438   0.406
   0.409   0.454   0.541   0.665   0.815   0.976   1.136   1.284   1.410   1.511
   1.583   1.627
   2.570   2.560   2.530   2.475   2.385   2.256   2.084   1.870   1.625   1.367
   1.116   0.898   0.732   0.628   0.584   0.588   0.616   0.645   0.657   0.645
   0.616   0.588   0.584   0.628   0.732   0.898   1.116   1.367   1.625   1.870
   2.084   2.256   2.385   2.475   2.530   2.560   2.570   2.560   2.530   2.475
   2.385   2.256   2.084   1.870   1.625   1.367   1.116   0.898   0.732   0.628
   0.584   0.588   0.616   0.645   0.657   0.645   0.616   0.588   0.584   0.628
   0.732   0.898   1.116   1.367   1.625   1.870   2.084   2.256   2.385   2.475
   2.530   2.560
   2.701   2.708   2.728   2.747   2.751   2.719   2.634   2.484   2.268   1.995
   1.690   1.385   1.115   0.905   0.769   0.701   0.682   0.685   0.688   0.685
   0.682   0.701   0.769   0.905   1.115   1.385   1.690   1.995   2.268   2.484
   2.634   2.719   2.751   2.747   2.728   2.708   2.701   2.708   2.728   2.747
   2.751   2.719   2.634   2.484   2.268   1.995   1.690   1.385   1.115   0.905
   0.769   0.701   0.682   0.685   0.688   0.685   0.682   0.701   0.769   0.905
   1.115   1.385   1.690   1.995   2.268   2.484   2.634   2.719   2.751   2.747
   2.728   2.708
   1.956   1.981   2.053   2.158   2.278   2.388   2.462   2.473   2.402   2.241
   2.000   1.710   1.411   1.143   0.937   0.801   0.727   0.696   0.688   0.696
   0.727   0.801   0.937   1.143   1.411   1.710   2.000   2.241   2.402   2.473
   2.462   2.388   2.278   2.158   2.053   1.981   1.956   1.981   2.053   2.158
   2.278   2.388   2.462   2.473   2.402   2.241   2.000   1.710   1.411   1.143
   0.937   0.801   0.727   0.696   0.688   0.696   0.727   0.801   0.937   1.143
   1.411   1.710   2.000   2.241   2.402   2.473   2.462   2.388   2.278   2.158
   2.053   1.981
   0.897   0.927   1.014   1.151   1.326   1.524   1.722   1.891   1.998   2.015
   1.929   1.751   1.514   1.262   1.036   0.860   0.743   0.678   0.658   0.678
   0.743   0.860   1.036   1.262   1.514   1.751   1.929   2.015   1.998   1.891
   1.722   1.524   1.326   1.151   1.014   0.927   0.897   0.927   1.014   1.151
   1.326   1.524   1.722   1.891   1.998   2.015   1.929   1.751   1.514   1.262
   1.036   0.860   0.743   0.678   0.658   0.678   0.743   0.860   1.036   1.262
   1.514   1.751   1.929   2.015   1.998   1.891   1.722   1.524   1.326   1.151
   1.014   0.927
   0.220   0.240   0.299   0.396   0.531   0.704   0.913   1.141   1.355   1.515
   1.583   1.549   1.427   1.250   1.057   0.881   0.743   0.655   0.624   0.655
   0.743   0.881   1.057   1.250   1.427   1.549   1.583   1.515   1.355   1.141
   0.913   0.704   0.531   0.396   0.299   0.240   0.220   0.240   0.299   0.396
   0.531   0.704   0.913   1.141   1.355   1.515   1.583   1.549   1.427   1.250
   1.057   0.881   0.743   0.655   0.624   0.655   0.743   0.881   1.057   1.250
   1.427   1.549   1.583   1.515   1.355   1.141   0.913   0.704   0.531   0.396
   0.299   0.240
   0.148   0.154   0.171   0.202   0.251   0.333   0.460   0.635   0.843   1.042
   1.190   1.257   1.240   1.156   1.031   0.890   0.758   0.662   0.627   0.662
   0.758   0.890   1.031   1.156   1.240   1.257   1.190   1.042   0.843   0.635
   0.460   0.333   0.251   0.202   0.171   0.154   0.148   0.154   0.171   0.202
   0.251   0.333   0.460   0.635   0.843   1.042   1.190   1.257   1.240   1.156
   1.031   0.890   0.758   0.662   0.627   0.662   0.758   0.890   1.031   1.156
   1.240   1.257   1.190   1.042   0.843   0.635   0.460   0.333   0.251   0.202
   0.171   0.154
   0.322   0.321   0.319   0.319   0.325   0.344   0.391   0.480   0.613   0.768
   0.909   1.005   1.046   1.039   0.991   0.910   0.811   0.726   0.693   0.726
   0.811   0.910   0.991   1.039   1.046   1.005   0.909   0.768   0.613   0.480
   0.391   0.344   0.325   0.319   0.319   0.321   0.322   0.321   0.319   0.319
   0.325   0.344   0.391   0.480   0.613   0.768   0.909   1.005   1.046   1.039
   0.991   0.910   0.811   0.726   0.693   0.726   0.811   0.910   0.991   1.039
   1.046   1.005   0.909   0.768   0.613   0.480   0.391   0.344   0.325   0.319
   0.319   0.321
   0.278   0.277   0.282   0.308   0.355   0.405   0.450   0.498   0.568   0.661
   0.758   0.837   0.893   0.931   0.951   0.941   0.898   0.845   0.821   0.845
   0.898   0.941   0.951   0.931   0.893   0.837   0.758   0.661   0.568   0.498
   0.450   0.405   0.355   0.308   0.282   0.277   0.278   0.277   0.282   0.308
   0.355   0.405   0.450   0.498   0.568   0.661   0.758   0.837   0.893   0.931
   0.951   0.941   0.898   0.845   0.821   0.845   0.898   0.941   0.951   0.931
   0.893   0.837   0.758   0.661   0.568   0.498   0.450   0.405   0.355   0.308
   0.282   0.277
   0.011   0.006   0.016   0.086   0.219   0.365   0.471   0.526   0.567   0.622
   0.688   0.747   0.796   0.850   0.915   0.972   0.997   0.993   0.987   0.993
   0.997   0.972   0.915   0.850   0.796   0.747   0.688   0.622   0.567   0.526
   0.471   0.365   0.219   0.086   0.016   0.006   0.011   0.006   0.016   0.086
   0.219   0.365   0.471   0.526   0.567   0.622   0.688   0.747   0.796   0.850
   0.915   0.972   0.997   0.993   0.987   0.993   0.997   0.972   0.915   0.850
   0.796   0.747   0.688   0.622   0.567   0.526   0.471   0.365   0.219   0.086
   0.016   0.006
   0.018  -0.006  -0.027   0.046   0.232   0.445   0.581   0.616   0.610   0.632
   0.687   0.740   0.774   0.818   0.897   1.000   1.090   1.141   1.156   1.141
   1.090   1.000   0.897   0.818   0.774   0.740   0.687   0.632   0.610   0.616
   0.581   0.445   0.232   0.046  -0.027  -0.006   0.018  -0.006  -0.027   0.046
   0.232   0.445   0.581   0.616   0.610   0.632   0.687   0.740   0.774   0.818
   0.897   1.000   1.090   1.141   1.156   1.141   1.090   1.000   0.897   0.818
   0.774   0.740   0.687   0.632   0.610   0.616   0.581   0.445   0.232   0.046
  -0.027  -0.006
   0.745   0.686   0.590   0.601   0.757   0.941   1.003   0.918   0.795   0.746
   0.782   0.831   0.845   0.852   0.911   1.031   1.169   1.270   1.305   1.270
   1.169   1.031   0.911   0.852   0.845   0.831   0.782   0.746   0.795   0.918
   1.003   0.941   0.757   0.601   0.590   0.686   0.745   0.686   0.590   0.601
   0.757   0.941   1.003   0.918   0.795   0.746   0.782   0.831   0.845   0.852
   0.911   1.031   1.169   1.270   1.305   1.270   1.169   1.031   0.911   0.852
   0.845   0.831   0.782   0.746   0.795   0.918   1.003   0.941   0.757   0.601
   0.590   0.686
   1.999   1.903   1.717   1.630   1.698   1.774   1.681   1.405   1.109   0.954
   0.951   0.987   0.973   0.934   0.952   1.066   1.230   1.366   1.417   1.366
   1.230   1.066   0.952   0.934   0.973   0.987   0.951   0.954   1.109   1.405
   1.681   1.774   1.698   1.630   1.717   1.903   1.999   1.903   1.717   1.630
   1.698   1.774   1.681   1.405   1.109   0.954   0.951   0.987   0.973   0.934
   0.952   1.066   1.230   1.366   1.417   1.366   1.230   1.066   0.952   0.934
   0.973   0.987   0.951   0.954   1.109   1.405   1.681   1.774   1.698   1.630
   1.717   1.903
   2.990   2.869   2.622   2.464   2.456   2.438   2.218   1.794   1.365   1.126
   1.088   1.111   1.076   1.003   0.990   1.091   1.265   1.418   1.478   1.418
   1.265   1.091   0.990   1.003   1.076   1.111   1.088   1.126   1.365   1.794
   2.218   2.438   2.456   2.464   2.622   2.869   2.990   2.869   2.622   2.464
   2.456   2.438   2.218   1.794   1.365   1.126   1.088   1.111   1.076   1.003
   0.990   1.091   1.265   1.418   1.478   1.418   1.265   1.091   0.990   1.003
   1.076   1.111   1.088   1.126   1.365   1.794   2.218   2.438   2.456   2.464
   2.622   2.869
 200       5.00   72    0 5.00   18    0
   2.633   2.634   2.637   2.642   2.648   2.656   2.665   2.675   2.686   2.698
   2.709   2.720   2.730   2.739   2.747   2.754   2.758   2.761   2.762   2.761
   2.758   2.754   2.747   2.739   2.730   2.720   2.709   2.698   2.686   2.675
   2.665   2.656   2.648   2.642   2.637   2.634   2.633   2.634   2.637   2.642
   2.648   2.656   2.665   2.675   2.686   2.698   2.709   2.720   2.730   2.739
   2.747   2.754   2.758   2.761   2.762   2.761   2.758   2.754   2.747   2.739
   2.730   2.720   2.709   2.698   2.686   2.675   2.665   2.656   2.648   2.642
   2.637   2.634
   1.677   1.684   1.706   1.741   1.790   1.850   1.919   1.997   2.080   2.166
   2.253   2.337   2.416   2.488   2.551   2.601   2.639   2.662   2.670   2.662
   2.639   2.601   2.551   2.488   2.416   2.337   2.253   2.166   2.080   1.997
   1.919   1.850   1.790   1.741   1.706   1.684   1.677   1.684   1.706   1.741
   1.790   1.850   1.919   1.997   2.080   2.166   2.253   2.337   2.416   2.488
   2.551   2.601   2.639   2.662   2.670   2.662   2.639   2.601   2.551   2.488
   2.416   2.337   2.253   2.166   2.080   1.997   1.919   1.850   1.790   1.741
   1.706   1.684
   0.493   0.506   0.546   0.612   0.702   0.815   0.949   1.100   1.264   1.436
   1.612   1.784   1.948   2.097   2.227   2.333   2.410   2.458   2.474   2.458
   2.410   2.333   2.227   2.097   1.948   1.784   1.612   1.436   1.264   1.100
   0.949   0.815   0.702   0.612   0.546   0.506   0.493   0.506   0.546   0.612
   0.702   0.815   0.949   1.100   1.264   1.436   1.612   1.784   1.948   2.097
   2.227   2.333   2.410   2.458   2.474   2.458   2.410   2.333   2.227   2.097
   1.948   1.784   1.612   1.436   1.264   1.100   0.949   0.815   0.702   0.612
   0.546   0.506
  -0.134  -0.123  -0.087  -0.028   0.059   0.172   0.313   0.481   0.670   0.877
   1.092   1.308   1.514   1.702   1.865   1.996   2.092   2.150   2.170   2.150
   2.092   1.996   1.865   1.702   1.514   1.308   1.092   0.877   0.670   0.481
   0.313   0.172   0.059  -0.028  -0.087  -0.123  -0.134  -0.123  -0.087  -0.028
   0.059   0.172   0.313   0.481   0.670   0.877   1.092   1.308   1.514   1.702
   1.865   1.996   2.092   2.150   2.170   2.150   2.092   1.996   1.865   1.702
   1.514   1.308   1.092   0.877   0.670   0.481   0.313   0.172   0.059  -0.028
  -0.087  -0.123
  -0.035  -0.034  -0.027  -0.010   0.022   0.078   0.163   0.281   0.433   0.613
   0.812   1.015   1.211   1.385   1.529   1.639   1.714   1.758   1.772   1.758
   1.714   1.639   1.529   1.385   1.211   1.015   0.812   0.613   0.433   0.281
   0.163   0.078   0.022  -0.010  -0.027  -0.034  -0.035  -0.034  -0.027  -0.010
   0.022   0.078   0.163   0.281   0.433   0.613   0.812   1.015   1.211   1.385
   1.529   1.639   1.714   1.758   1.772   1.758   1.714   1.639   1.529   1.385
   1.211   1.015   0.812   0.613   0.433   0.281   0.163   0.078   0.022  -0.010
  -0.027  -0.034
   0.323   0.315   0.296   0.269   0.244   0.234   0.250   0.304   0.400   0.536
   0.699   0.872   1.034   1.166   1.259   1.313   1.337   1.344   1.345   1.344
   1.337   1.313   1.259   1.166   1.034   0.872   0.699   0.536   0.400   0.304
   0.250   0.234   0.244   0.269   0.296   0.315   0.323   0.315   0.296   0.269
   0.244   0.234   0.250   0.304   0.400   0.536   0.699   0.872   1.034   1.166
   1.259   1.313   1.337   1.344   1.345   1.344   1.337   1.313   1.259   1.166
   1.034   0.872   0.699   0.536   0.400   0.304   0.250   0.234   0.244   0.269
   0.296   0.315
   0.424   0.419   0.403   0.379   0.349   0.323   0.314   0.337   0.404   0.518
   0.666   0.825   0.964   1.059   1.097   1.084   1.043   1.002   0.985   1.002
   1.043   1.084   1.097   1.059   0.964   0.825   0.666   0.518   0.404   0.337
   0.314   0.323   0.349   0.379   0.403   0.419   0.424   0.419   0.403   0.379
   0.349   0.323   0.314   0.337   0.404   0.518   0.666   0.825   0.964   1.059
   1.097   1.084   1.043   1.002   0.985   1.002   1.043   1.084   1.097   1.059
   0.964   0.825   0.666   0.518   0.404   0.337   0.314   0.323   0.349   0.379
   0.403   0.419
   0.257   0.264   0.284   0.307   0.326   0.338   0.351   0.381   0.448   0.560
   0.711   0.873   1.008   1.080   1.074   1.003   0.902   0.817   0.784   0.817
   0.902   1.003   1.074   1.080   1.008   0.873   0.711   0.560   0.448   0.381
   0.351   0.338   0.326   0.307   0.284   0.264   0.257   0.264   0.284   0.307
   0.326   0.338   0.351   0.381   0.448   0.560   0.711   0.873   1.008   1.080
   1.074   1.003   0.902   0.817   0.784   0.817   0.902   1.003   1.074   1.080
   1.008   0.873   0.711   0.560   0.448   0.381   0.351   0.338   0.326   0.307
   0.284   0.264
   0.265   0.281   0.327   0.387   0.444   0.487   0.516   0.547   0.606   0.711
   0.862   1.026   1.158   1.213   1.175   1.063   0.923   0.810   0.767   0.810
   0.923   1.063   1.175   1.213   1.158   1.026   0.862   0.711   0.606   0.547
   0.516   0.487   0.444   0.387   0.327   0.281   0.265   0.281   0.327   0.387
   0.444   0.487   0.516   0.547   0.606   0.711   0.862   1.026   1.158   1.213
   1.175   1.063   0.923   0.810   0.767   0.810   0.923   1.063   1.175   1.213
   1.158   1.026   0.862   0.711   0.606   0.547   0.516   0.487   0.444   0.387
   0.327   0.281
   0.801   0.808   0.828   0.851   0.865   0.861   0.841   0.825   0.844   0.924
   1.062   1.222   1.344   1.380   1.318   1.185   1.035   0.921   0.879   0.921
   1.035   1.185   1.318   1.380   1.344   1.222   1.062   0.924   0.844   0.825
   0.841   0.861   0.865   0.851   0.828   0.808   0.801   0.808   0.828   0.851
   0.865   0.861   0.841   0.825   0.844   0.924   1.062   1.222   1.344   1.380
   1.318   1.185   1.035   0.921   0.879   0.921   1.035   1.185   1.318   1.380
   1.344   1.222   1.062   0.924   0.844   0.825   0.841   0.861   0.865   0.851
   0.828   0.808
   1.678   1.660   1.607   1.524   1.415   1.287   1.157   1.052   1.010   1.058
   1.188   1.347   1.461   1.478   1.396   1.262   1.133   1.049   1.020   1.049
   1.133   1.262   1.396   1.478   1.461   1.347   1.188   1.058   1.010   1.052
   1.157   1.287   1.415   1.524   1.607   1.660   1.678   1.660   1.607   1.524
   1.415   1.287   1.157   1.052   1.010   1.058   1.188   1.347   1.461   1.478
   1.396   1.262   1.133   1.049   1.020   1.049   1.133   1.262   1.396   1.478
   1.461   1.347   1.188   1.058   1.010   1.052   1.157   1.287   1.415   1.524
   1.607   1.660
   2.287   2.251   2.145   1.974   1.755   1.512   1.277   1.092   1.001   1.032
   1.168   1.339   1.453   1.453   1.354   1.230   1.145   1.113   1.108   1.113
   1.145   1.230   1.354   1.453   1.453   1.339   1.168   1.032   1.001   1.092
   1.277   1.512   1.755   1.974   2.145   2.251   2.287   2.251   2.145   1.974
   1.755   1.512   1.277   1.092   1.001   1.032   1.168   1.339   1.453   1.453
   1.354   1.230   1.145   1.113   1.108   1.113   1.145   1.230   1.354   1.453
   1.453   1.339   1.168   1.032   1.001   1.092   1.277   1.512   1.755   1.974
   2.145   2.251
   2.152   2.132   2.061   1.919   1.706   1.449   1.195   0.995   0.895   0.924
   1.067   1.247   1.356   1.336   1.219   1.104   1.066   1.092   1.113   1.092
   1.066   1.104   1.219   1.336   1.356   1.247   1.067   0.924   0.895   0.995
   1.195   1.449   1.706   1.919   2.061   2.132   2.152   2.132   2.061   1.919
   1.706   1.449   1.195   0.995   0.895   0.924   1.067   1.247   1.356   1.336
   1.219   1.104   1.066   1.092   1.113   1.092   1.066   1.104   1.219   1.336
   1.356   1.247   1.067   0.924   0.895   0.995   1.195   1.449   1.706   1.919
   2.061   2.132
   1.371   1.402   1.456   1.461   1.377   1.224   1.057   0.924   0.859   0.889
   1.010   1.163   1.248   1.200   1.060   0.944   0.937   1.007   1.049   1.007
   0.937   0.944   1.060   1.200   1.248   1.163   1.010   0.889   0.859   0.924
   1.057   1.224   1.377   1.461   1.456   1.402   1.371   1.402   1.456   1.461
   1.377   1.224   1.057   0.924   0.859   0.889   1.010   1.163   1.248   1.200
   1.060   0.944   0.937   1.007   1.049   1.007   0.937   0.944   1.060   1.200
   1.248   1.163   1.010   0.889   0.859   0.924   1.057   1.224   1.377   1.461
   1.456   1.402
   0.515   0.601   0.793   0.958   1.020   1.004   0.976   0.967   0.969   0.990
   1.049   1.132   1.167   1.088   0.926   0.799   0.800   0.888   0.940   0.888
   0.800   0.799   0.926   1.088   1.167   1.132   1.049   0.990   0.969   0.967
   0.976   1.004   1.020   0.958   0.793   0.601   0.515   0.601   0.793   0.958
   1.020   1.004   0.976   0.967   0.969   0.990   1.049   1.132   1.167   1.088
   0.926   0.799   0.800   0.888   0.940   0.888   0.800   0.799   0.926   1.088
   1.167   1.132   1.049   0.990   0.969   0.967   0.976   1.004   1.020   0.958
   0.793   0.601
   0.118   0.231   0.484   0.703   0.808   0.858   0.944   1.065   1.149   1.158
   1.134   1.123   1.098   0.996   0.824   0.686   0.675   0.758   0.809   0.758
   0.675   0.686   0.824   0.996   1.098   1.123   1.134   1.158   1.149   1.065
   0.944   0.858   0.808   0.703   0.484   0.231   0.118   0.231   0.484   0.703
   0.808   0.858   0.944   1.065   1.149   1.158   1.134   1.123   1.098   0.996
   0.824   0.686   0.675   0.758   0.809   0.758   0.675   0.686   0.824   0.996
   1.098   1.123   1.134   1.158   1.149   1.065   0.944   0.858   0.808   0.703
   0.484   0.231
   0.240   0.347   0.568   0.721   0.750   0.770   0.906   1.127   1.286   1.290
   1.192   1.096   1.024   0.913   0.746   0.603   0.575   0.641   0.685   0.641
   0.575   0.603   0.746   0.913   1.024   1.096   1.192   1.290   1.286   1.127
   0.906   0.770   0.750   0.721   0.568   0.347   0.240   0.347   0.568   0.721
   0.750   0.770   0.906   1.127   1.286   1.290   1.192   1.096   1.024   0.913
   0.746   0.603   0.575   0.641   0.685   0.641   0.575   0.603   0.746   0.913
   1.024   1.096   1.192   1.290   1.286   1.127   0.906   0.770   0.750   0.721
   0.568   0.347
   0.499   0.589   0.756   0.822   0.757   0.722   0.866   1.139   1.343   1.348
   1.209   1.066   0.968   0.858   0.699   0.556   0.517   0.570   0.608   0.570
   0.517   0.556   0.699   0.858   0.968   1.066   1.209   1.348   1.343   1.139
   0.866   0.722   0.757   0.822   0.756   0.589   0.499   0.589   0.756   0.822
   0.757   0.722   0.866   1.139   1.343   1.348   1.209   1.066   0.968   0.858
   0.699   0.556   0.517   0.570   0.608   0.570   0.517   0.556   0.699   0.858
   0.968   1.066   1.209   1.348   1.343   1.139   0.866   0.722   0.757   0.822
   0.756   0.589
 211       5.00   72    0 5.00   18    0
   1.436   1.437   1.438   1.440   1.442   1.445   1.448   1.452   1.456   1.461
   1.465   1.469   1.473   1.476   1.479   1.482   1.484   1.485   1.485   1.485
   1.484   1.482   1.479   1.476   1.473   1.469   1.465   1.461   1.456   1.452
   1.448   1.445   1.442   1.440   1.438   1.437   1.436   1.437   1.438   1.440
   1.442   1.445   1.448   1.452   1.456   1.461   1.465   1.469   1.473   1.476
   1.479   1.482   1.484   1.485   1.485   1.485   1.484   1.482   1.479   1.476
   1.473   1.469   1.465   1.461   1.456   1.452   1.448   1.445   1.442   1.440
   1.438   1.437
   1.205   1.207   1.213   1.224   1.240   1.259   1.282   1.309   1.339   1.371
   1.404   1.437   1.470   1.500   1.528   1.550   1.567   1.578   1.581   1.578
   1.567   1.550   1.528   1.500   1.470   1.437   1.404   1.371   1.339   1.309
   1.282   1.259   1.240   1.224   1.213   1.207   1.205   1.207   1.213   1.224
   1.240   1.259   1.282   1.309   1.339   1.371   1.404   1.437   1.470   1.500
   1.528   1.550   1.567   1.578   1.581   1.578   1.567   1.550   1.528   1.500
   1.470   1.437   1.404   1.371   1.339   1.309   1.282   1.259   1.240   1.224
   1.213   1.207
   0.929   0.931   0.937   0.949   0.966   0.990   1.022   1.063   1.113   1.173
   1.240   1.313   1.390   1.465   1.536   1.597   1.644   1.673   1.683   1.673
   1.644   1.597   1.536   1.465   1.390   1.313   1.240   1.173   1.113   1.063
   1.022   0.990   0.966   0.949   0.937   0.931   0.929   0.931   0.937   0.949
   0.966   0.990   1.022   1.063   1.113   1.173   1.240   1.313   1.390   1.465
   1.536   1.597   1.644   1.673   1.683   1.673   1.644   1.597   1.536   1.465
   1.390   1.313   1.240   1.173   1.113   1.063   1.022   0.990   0.966   0.949
   0.937   0.931
   0.821   0.819   0.813   0.806   0.799   0.797   0.802   0.820   0.854   0.908
   0.982   1.076   1.185   1.304   1.422   1.529   1.615   1.671   1.690   1.671
   1.615   1.529   1.422   1.304   1.185   1.076   0.982   0.908   0.854   0.820
   0.802   0.797   0.799   0.806   0.813   0.819   0.821   0.819   0.813   0.806
   0.799   0.797   0.802   0.820   0.854   0.908   0.982   1.076   1.185   1.304
   1.422   1.529   1.615   1.671   1.690   1.671   1.615   1.529   1.422   1.304
   1.185   1.076   0.982   0.908   0.854   0.820   0.802   0.797   0.799   0.806
   0.813   0.819
   0.927   0.921   0.901   0.870   0.831   0.787   0.745   0.711   0.694   0.701
   0.740   0.813   0.919   1.051   1.197   1.340   1.459   1.539   1.567   1.539
   1.459   1.340   1.197   1.051   0.919   0.813   0.740   0.701   0.694   0.711
   0.745   0.787   0.831   0.870   0.901   0.921   0.927   0.921   0.901   0.870
   0.831   0.787   0.745   0.711   0.694   0.701   0.740   0.813   0.919   1.051
   1.197   1.340   1.459   1.539   1.567   1.539   1.459   1.340   1.197   1.051
   0.919   0.813   0.740   0.701   0.694   0.711   0.745   0.787   0.831   0.870
   0.901   0.921
   1.083   1.076   1.055   1.019   0.970   0.909   0.840   0.769   0.704   0.655
   0.636   0.656   0.720   0.827   0.964   1.112   1.244   1.336   1.369   1.336
   1.244   1.112   0.964   0.827   0.720   0.656   0.636   0.655   0.704   0.769
   0.840   0.909   0.970   1.019   1.055   1.076   1.083   1.076   1.055   1.019
   0.970   0.909   0.840   0.769   0.704   0.655   0.636   0.656   0.720   0.827
   0.964   1.112   1.244   1.336   1.369   1.336   1.244   1.112   0.964   0.827
   0.720   0.656   0.636   0.655   0.704   0.769   0.840   0.909   0.970   1.019
   1.055   1.076
   1.075   1.071   1.061   1.043   1.014   0.974   0.924   0.865   0.800   0.737
   0.686   0.660   0.673   0.730   0.827   0.948   1.066   1.152   1.183   1.152
   1.066   0.948   0.827   0.730   0.673   0.660   0.686   0.737   0.800   0.865
   0.924   0.974   1.014   1.043   1.061   1.071   1.075   1.071   1.061   1.043
   1.014   0.974   0.924   0.865   0.800   0.737   0.686   0.660   0.673   0.730
   0.827   0.948   1.066   1.152   1.183   1.152   1.066   0.948   0.827   0.730
   0.673   0.660   0.686   0.737   0.800   0.865   0.924   0.974   1.014   1.043
   1.061   1.071
   0.862   0.863   0.865   0.866   0.862   0.855   0.846   0.836   0.824   0.805
   0.780   0.757   0.748   0.768   0.820   0.898   0.982   1.047   1.071   1.047
   0.982   0.898   0.820   0.768   0.748   0.757   0.780   0.805   0.824   0.836
   0.846   0.855   0.862   0.866   0.865   0.863   0.862   0.863   0.865   0.866
   0.862   0.855   0.846   0.836   0.824   0.805   0.780   0.757   0.748   0.768
   0.820   0.898   0.982   1.047   1.071   1.047   0.982   0.898   0.820   0.768
   0.748   0.757   0.780   0.805   0.824   0.836   0.846   0.855   0.862   0.866
   0.865   0.863
   0.652   0.657   0.667   0.673   0.669   0.662   0.663   0.683   0.724   0.772
   0.813   0.839   0.854   0.870   0.898   0.939   0.985   1.020   1.034   1.020
   0.985   0.939   0.898   0.870   0.854   0.839   0.813   0.772   0.724   0.683
   0.663   0.662   0.669   0.673   0.667   0.657   0.652   0.657   0.667   0.673
   0.669   0.662   0.663   0.683   0.724   0.772   0.813   0.839   0.854   0.870
   0.898   0.939   0.985   1.020   1.034   1.020   0.985   0.939   0.898   0.870
   0.854   0.839   0.813   0.772   0.724   0.683   0.663   0.662   0.669   0.673
   0.667   0.657
   0.709   0.720   0.744   0.752   0.727   0.673   0.621   0.602   0.635   0.708
   0.795   0.870   0.926   0.964   0.993   1.014   1.028   1.034   1.036   1.034
   1.028   1.014   0.993   0.964   0.926   0.870   0.795   0.708   0.635   0.602
   0.621   0.673   0.727   0.752   0.744   0.720   0.709   0.720   0.744   0.752
   0.727   0.673   0.621   0.602   0.635   0.708   0.795   0.870   0.926   0.964
   0.993   1.014   1.028   1.034   1.036   1.034   1.028   1.014   0.993   0.964
   0.926   0.870   0.795   0.708   0.635   0.602   0.621   0.673   0.727   0.752
   0.744   0.720
   1.070   1.097   1.152   1.183   1.145   1.033   0.889   0.773   0.726   0.750
   0.816   0.891   0.961   1.018   1.059   1.076   1.068   1.049   1.040   1.049
   1.068   1.076   1.059   1.018   0.961   0.891   0.816   0.750   0.726   0.773
   0.889   1.033   1.145   1.183   1.152   1.097   1.070   1.097   1.152   1.183
   1.145   1.033   0.889   0.773   0.726   0.750   0.816   0.891   0.961   1.018
   1.059   1.076   1.068   1.049   1.040   1.049   1.068   1.076   1.059   1.018
   0.961   0.891   0.816   0.750   0.726   0.773   0.889   1.033   1.145   1.183
   1.152   1.097
   1.471   1.514   1.612   1.688   1.670   1.536   1.328   1.125   0.987   0.927
   0.922   0.943   0.979   1.030   1.079   1.100   1.082   1.044   1.025   1.044
   1.082   1.100   1.079   1.030   0.979   0.943   0.922   0.927   0.987   1.125
   1.328   1.536   1.670   1.688   1.612   1.514   1.471   1.514   1.612   1.688
   1.670   1.536   1.328   1.125   0.987   0.927   0.922   0.943   0.979   1.030
   1.079   1.100   1.082   1.044   1.025   1.044   1.082   1.100   1.079   1.030
   0.979   0.943   0.922   0.927   0.987   1.125   1.328   1.536   1.670   1.688
   1.612   1.514
   1.569   1.618   1.737   1.850   1.877   1.778   1.584   1.373   1.210   1.112
   1.052   1.007   0.986   1.006   1.054   1.084   1.067   1.020   0.995   1.020
   1.067   1.084   1.054   1.006   0.986   1.007   1.052   1.112   1.210   1.373
   1.584   1.778   1.877   1.850   1.737   1.618   1.569   1.618   1.737   1.850
   1.877   1.778   1.584   1.373   1.210   1.112   1.052   1.007   0.986   1.006
   1.054   1.084   1.067   1.020   0.995   1.020   1.067   1.084   1.054   1.006
   0.986   1.007   1.052   1.112   1.210   1.373   1.584   1.778   1.877   1.850
   1.737   1.618
   1.285   1.319   1.409   1.518   1.583   1.554   1.439   1.302   1.206   1.158
   1.114   1.045   0.978   0.961   0.999   1.041   1.036   0.992   0.967   0.992
   1.036   1.041   0.999   0.961   0.978   1.045   1.114   1.158   1.206   1.302
   1.439   1.554   1.583   1.518   1.409   1.319   1.285   1.319   1.409   1.518
   1.583   1.554   1.439   1.302   1.206   1.158   1.114   1.045   0.978   0.961
   0.999   1.041   1.036   0.992   0.967   0.992   1.036   1.041   0.999   0.961
   0.978   1.045   1.114   1.158   1.206   1.302   1.439   1.554   1.583   1.518
   1.409   1.319
   0.884   0.884   0.902   0.961   1.037   1.070   1.040   0.995   1.001   1.059
   1.098   1.061   0.976   0.925   0.947   0.998   1.013   0.984   0.963   0.984
   1.013   0.998   0.947   0.925   0.976   1.061   1.098   1.059   1.001   0.995
   1.040   1.070   1.037   0.961   0.902   0.884   0.884   0.884   0.902   0.961
   1.037   1.070   1.040   0.995   1.001   1.059   1.098   1.061   0.976   0.925
   0.947   0.998   1.013   0.984   0.963   0.984   1.013   0.998   0.947   0.925
   0.976   1.061   1.098   1.059   1.001   0.995   1.040   1.070   1.037   0.961
   0.902   0.884
   0.716   0.677   0.611   0.604   0.668   0.729   0.732   0.722   0.788   0.939
   1.076   1.097   1.013   0.930   0.927   0.980   1.015   1.006   0.993   1.006
   1.015   0.980   0.927   0.930   1.013   1.097   1.076   0.939   0.788   0.722
   0.732   0.729   0.668   0.604   0.611   0.677   0.716   0.677   0.611   0.604
   0.668   0.729   0.732   0.722   0.788   0.939   1.076   1.097   1.013   0.930
   0.927   0.980   1.015   1.006   0.993   1.006   1.015   0.980   0.927   0.930
   1.013   1.097   1.076   0.939   0.788   0.722   0.732   0.729   0.668   0.604
   0.611   0.677
   0.863   0.795   0.665   0.608   0.655   0.711   0.693   0.651   0.709   0.898
   1.100   1.169   1.088   0.975   0.943   0.990   1.039   1.049   1.044   1.049
   1.039   0.990   0.943   0.975   1.088   1.169   1.100   0.898   0.709   0.651
   0.693   0.711   0.655   0.608   0.665   0.795   0.863   0.795   0.665   0.608
   0.655   0.711   0.693   0.651   0.709   0.898   1.100   1.169   1.088   0.975
   0.943   0.990   1.039   1.049   1.044   1.049   1.039   0.990   0.943   0.975
   1.088   1.169   1.100   0.898   0.709   0.651   0.693   0.711   0.655   0.608
   0.665   0.795
   1.079   0.996   0.835   0.755   0.793   0.836   0.786   0.698   0.723   0.914
   1.142   1.234   1.153   1.020   0.967   1.007   1.063   1.083   1.083   1.083
   1.063   1.007   0.967   1.020   1.153   1.234   1.142   0.914   0.723   0.698
   0.786   0.836   0.793   0.755   0.835   0.996   1.079   0.996   0.835   0.755
   0.793   0.836   0.786   0.698   0.723   0.914   1.142   1.234   1.153   1.020
   0.967   1.007   1.063   1.083   1.083   1.083   1.063   1.007   0.967   1.020
   1.153   1.234   1.142   0.914   0.723   0.698   0.786   0.836   0.793   0.755
   0.835   0.996
TEXTURE_INDEX=   2.4963
ERR_CF 110         1080     274   33.59   11.31
ERR_CF 200         1080     596   21.97   11.62
ERR_CF 211         1080     604   19.39   20.38
