A11K1_ujra_tex_R 5.52 0.72 0.26
A11K2_ujra_tex_R 5.07 0.29 0.41
A1_ujra_tex_R 2.24 0.92 0.54
A3K_ujra_tex_R 4.64 0.91 0.17
A4K_1_ujra_tex_R 4.94 0.93 0.16
A4K_2_ujra_tex_R 4.65 0.88 0.21
A5_ujra_tex_R 1.74 0.99 0.44
A6_ujra_tex_R 2 0.86 0.55
A9K2_ujra_tex_R 5.06 0.49 0.11
A9K_ujra_tex_R 4.52 0.68 0.29
