VL_30_T2_ujra_tex_R 1.58 2.94 0.54
VL_31_T2_ujra_tex_R 1.6 3.54 0.58
VL32_T2_ujra_tex_R 1.54 3.82 0.55
VL50_T2_ujra_tex_R 1.24 1.57 0.64
VL51_T2_ujra_tex_R 1.24 1.77 0.55
VL52_T2_ujra_tex_R 1.15 1.6 0.9
VL_53_T2_ujra_tex_R 1.28 1.58 0.98
VL_54_T2_ujra_tex_R 1.46 1.95 0.67
VL_55_T2_ujra_tex_R 1.37 2.03 0.57
VL80_ujra_tex_R 1.36 2.56 0.28
V81_ujra_tex_R 1.12 1.8 0.42
V82_ujra_tex_R 1.47 2.28 0.41
