Mn13_035_jelolt_tex_R 1.47 0.66 0.54
Mn13_035_sima_tex_R 8 8 8
Mn13_055_jelolt_tex_R 1.34 0.67 0.45
Mn13_055_sima_tex_R 1.29 0.69 0.49
Mn13_jelolt_tex_R 1.16 0.92 0.58
Mn13_sima_tex_R 1.39 0.86 0.65
Mn14_024_jelolt_tex_R 1.39 0.62 0.49
Mn14_024_sima_tex_R 0.37 0.66 0.37
Mn14_0335_jelolt_tex_R_R 1.3 0.58 0.42
Mn14_0335_sima_tex_R 1.44 0.7 0.36
Mn14_jelolt_tex_R 1.24 0.92 0.63
Mn14_sima_tex_R 1.31 0.78 0.61
