TEXEVAL                                                                         
Analysis started on 30-Jul-18 08:58:41                                          
 LMAX=16LFMAX=03 CUBIC ORTHO   
 220      5.00 5.00
 200      5.00 5.00
 111      5.00 5.00
 220       5.00   72    0 5.00   15    0
   4.655   4.655   4.655   4.655   4.655   4.655   4.655   4.655   4.655   4.655
   4.655   4.655   4.655   4.655   4.655   4.655   4.655   4.655   4.655   4.655
   4.655   4.655   4.655   4.655   4.655   4.655   4.655   4.655   4.655   4.655
   4.655   4.655   4.655   4.655   4.655   4.655   4.655   4.655   4.655   4.655
   4.655   4.655   4.655   4.655   4.655   4.655   4.655   4.655   4.655   4.655
   4.655   4.655   4.655   4.655   4.655   4.655   4.655   4.655   4.655   4.655
   4.655   4.655   4.655   4.655   4.655   4.655   4.655   4.655   4.655   4.655
   4.655   4.655
   1.313   1.195   1.461   1.719   1.308   1.395   1.787   1.877   1.786   2.542
   2.361   2.779   3.126   3.459   4.376   4.541   4.250   4.561   4.627   4.561
   4.250   4.541   4.376   3.459   3.126   2.779   2.361   2.542   1.786   1.877
   1.787   1.395   1.308   1.719   1.461   1.195   1.313   1.195   1.461   1.719
   1.308   1.395   1.787   1.877   1.786   2.542   2.361   2.779   3.126   3.459
   4.376   4.541   4.250   4.561   4.627   4.561   4.250   4.541   4.376   3.459
   3.126   2.779   2.361   2.542   1.786   1.877   1.787   1.395   1.308   1.719
   1.461   1.195
   0.316   0.308   0.262   0.374   0.318   0.491   0.471   0.432   0.761   0.757
   1.041   1.516   1.649   2.073   3.024   3.858   3.344   4.166   4.404   4.166
   3.344   3.858   3.024   2.073   1.649   1.516   1.041   0.757   0.761   0.432
   0.471   0.491   0.318   0.374   0.262   0.308   0.316   0.308   0.262   0.374
   0.318   0.491   0.471   0.432   0.761   0.757   1.041   1.516   1.649   2.073
   3.024   3.858   3.344   4.166   4.404   4.166   3.344   3.858   3.024   2.073
   1.649   1.516   1.041   0.757   0.761   0.432   0.471   0.491   0.318   0.374
   0.262   0.308
   0.232   0.171   0.196   0.264   0.296   0.359   0.223   0.257   0.434   0.511
   0.711   0.823   1.154   1.638   2.446   3.374   3.445   4.324   4.588   4.324
   3.445   3.374   2.446   1.638   1.154   0.823   0.711   0.511   0.434   0.257
   0.223   0.359   0.296   0.264   0.196   0.171   0.232   0.171   0.196   0.264
   0.296   0.359   0.223   0.257   0.434   0.511   0.711   0.823   1.154   1.638
   2.446   3.374   3.445   4.324   4.588   4.324   3.445   3.374   2.446   1.638
   1.154   0.823   0.711   0.511   0.434   0.257   0.223   0.359   0.296   0.264
   0.196   0.171
   0.258   0.209   0.173   0.276   0.262   0.283   0.300   0.324   0.462   0.498
   0.647   0.732   1.036   1.361   2.317   2.804   3.431   4.253   5.003   4.253
   3.431   2.804   2.317   1.361   1.036   0.732   0.647   0.498   0.462   0.324
   0.300   0.283   0.262   0.276   0.173   0.209   0.258   0.209   0.173   0.276
   0.262   0.283   0.300   0.324   0.462   0.498   0.647   0.732   1.036   1.361
   2.317   2.804   3.431   4.253   5.003   4.253   3.431   2.804   2.317   1.361
   1.036   0.732   0.647   0.498   0.462   0.324   0.300   0.283   0.262   0.276
   0.173   0.209
   0.177   0.229   0.235   0.230   0.232   0.351   0.415   0.413   0.564   0.547
   0.608   0.892   1.084   1.222   1.986   2.809   3.571   4.218   4.879   4.218
   3.571   2.809   1.986   1.222   1.084   0.892   0.608   0.547   0.564   0.413
   0.415   0.351   0.232   0.230   0.235   0.229   0.177   0.229   0.235   0.230
   0.232   0.351   0.415   0.413   0.564   0.547   0.608   0.892   1.084   1.222
   1.986   2.809   3.571   4.218   4.879   4.218   3.571   2.809   1.986   1.222
   1.084   0.892   0.608   0.547   0.564   0.413   0.415   0.351   0.232   0.230
   0.235   0.229
   0.551   0.321   0.367   0.310   0.284   0.356   0.342   0.376   0.622   0.641
   0.581   0.794   1.024   1.247   1.862   2.626   3.223   3.455   3.775   3.455
   3.223   2.626   1.862   1.247   1.024   0.794   0.581   0.641   0.622   0.376
   0.342   0.356   0.284   0.310   0.367   0.321   0.551   0.321   0.367   0.310
   0.284   0.356   0.342   0.376   0.622   0.641   0.581   0.794   1.024   1.247
   1.862   2.626   3.223   3.455   3.775   3.455   3.223   2.626   1.862   1.247
   1.024   0.794   0.581   0.641   0.622   0.376   0.342   0.356   0.284   0.310
   0.367   0.321
   0.674   0.498   0.463   0.539   0.286   0.379   0.291   0.311   0.535   0.481
   0.445   0.536   0.856   1.047   1.688   2.141   2.288   2.361   2.740   2.361
   2.288   2.141   1.688   1.047   0.856   0.536   0.445   0.481   0.535   0.311
   0.291   0.379   0.286   0.539   0.463   0.498   0.674   0.498   0.463   0.539
   0.286   0.379   0.291   0.311   0.535   0.481   0.445   0.536   0.856   1.047
   1.688   2.141   2.288   2.361   2.740   2.361   2.288   2.141   1.688   1.047
   0.856   0.536   0.445   0.481   0.535   0.311   0.291   0.379   0.286   0.539
   0.463   0.498
   0.722   0.731   0.546   0.584   0.402   0.382   0.402   0.356   0.439   0.307
   0.419   0.349   0.638   0.843   1.175   1.483   1.575   1.579   1.974   1.579
   1.575   1.483   1.175   0.843   0.638   0.349   0.419   0.307   0.439   0.356
   0.402   0.382   0.402   0.584   0.546   0.731   0.722   0.731   0.546   0.584
   0.402   0.382   0.402   0.356   0.439   0.307   0.419   0.349   0.638   0.843
   1.175   1.483   1.575   1.579   1.974   1.579   1.575   1.483   1.175   0.843
   0.638   0.349   0.419   0.307   0.439   0.356   0.402   0.382   0.402   0.584
   0.546   0.731
   1.164   0.853   0.787   0.708   0.573   0.421   0.610   0.439   0.522   0.238
   0.435   0.343   0.469   0.743   0.772   1.011   1.161   1.033   1.371   1.033
   1.161   1.011   0.772   0.743   0.469   0.343   0.435   0.238   0.522   0.439
   0.610   0.421   0.573   0.708   0.787   0.853   1.164   0.853   0.787   0.708
   0.573   0.421   0.610   0.439   0.522   0.238   0.435   0.343   0.469   0.743
   0.772   1.011   1.161   1.033   1.371   1.033   1.161   1.011   0.772   0.743
   0.469   0.343   0.435   0.238   0.522   0.439   0.610   0.421   0.573   0.708
   0.787   0.853
   1.980   1.690   1.277   1.261   0.961   0.904   0.854   0.578   0.613   0.403
   0.406   0.362   0.415   0.580   0.599   0.682   0.837   0.766   1.009   0.766
   0.837   0.682   0.599   0.580   0.415   0.362   0.406   0.403   0.613   0.578
   0.854   0.904   0.961   1.261   1.277   1.690   1.980   1.690   1.277   1.261
   0.961   0.904   0.854   0.578   0.613   0.403   0.406   0.362   0.415   0.580
   0.599   0.682   0.837   0.766   1.009   0.766   0.837   0.682   0.599   0.580
   0.415   0.362   0.406   0.403   0.613   0.578   0.854   0.904   0.961   1.261
   1.277   1.690
   3.881   3.542   2.147   2.338   1.787   1.787   1.437   1.172   0.979   0.679
   0.633   0.451   0.410   0.595   0.543   0.411   0.680   0.609   0.811   0.609
   0.680   0.411   0.543   0.595   0.410   0.451   0.633   0.679   0.979   1.172
   1.437   1.787   1.787   2.338   2.147   3.542   3.881   3.542   2.147   2.338
   1.787   1.787   1.437   1.172   0.979   0.679   0.633   0.451   0.410   0.595
   0.543   0.411   0.680   0.609   0.811   0.609   0.680   0.411   0.543   0.595
   0.410   0.451   0.633   0.679   0.979   1.172   1.437   1.787   1.787   2.338
   2.147   3.542
   3.911   3.524   2.418   2.528   2.022   2.354   2.216   1.955   1.493   1.067
   0.912   0.665   0.568   0.542   0.503   0.386   0.606   0.520   0.642   0.520
   0.606   0.386   0.503   0.542   0.568   0.665   0.912   1.067   1.493   1.955
   2.216   2.354   2.022   2.528   2.418   3.524   3.911   3.524   2.418   2.528
   2.022   2.354   2.216   1.955   1.493   1.067   0.912   0.665   0.568   0.542
   0.503   0.386   0.606   0.520   0.642   0.520   0.606   0.386   0.503   0.542
   0.568   0.665   0.912   1.067   1.493   1.955   2.216   2.354   2.022   2.528
   2.418   3.524
   1.894   1.564   1.550   1.480   1.289   1.932   2.096   2.260   1.965   1.448
   1.084   0.915   0.814   0.640   0.455   0.538   0.534   0.733   0.486   0.733
   0.534   0.538   0.455   0.640   0.814   0.915   1.084   1.448   1.965   2.260
   2.096   1.932   1.289   1.480   1.550   1.564   1.894   1.564   1.550   1.480
   1.289   1.932   2.096   2.260   1.965   1.448   1.084   0.915   0.814   0.640
   0.455   0.538   0.534   0.733   0.486   0.733   0.534   0.538   0.455   0.640
   0.814   0.915   1.084   1.448   1.965   2.260   2.096   1.932   1.289   1.480
   1.550   1.564
   0.733   0.581   0.878   0.694   0.535   0.947   1.296   1.839   2.391   1.708
   1.393   1.133   0.924   0.806   0.542   0.712   0.644   0.991   0.536   0.991
   0.644   0.712   0.542   0.806   0.924   1.133   1.393   1.708   2.391   1.839
   1.296   0.947   0.535   0.694   0.878   0.581   0.733   0.581   0.878   0.694
   0.535   0.947   1.296   1.839   2.391   1.708   1.393   1.133   0.924   0.806
   0.542   0.712   0.644   0.991   0.536   0.991   0.644   0.712   0.542   0.806
   0.924   1.133   1.393   1.708   2.391   1.839   1.296   0.947   0.535   0.694
   0.878   0.581
 200       5.00   72    0 5.00   15    0
   1.892   1.892   1.892   1.892   1.892   1.892   1.892   1.892   1.892   1.892
   1.892   1.892   1.892   1.892   1.892   1.892   1.892   1.892   1.892   1.892
   1.892   1.892   1.892   1.892   1.892   1.892   1.892   1.892   1.892   1.892
   1.892   1.892   1.892   1.892   1.892   1.892   1.892   1.892   1.892   1.892
   1.892   1.892   1.892   1.892   1.892   1.892   1.892   1.892   1.892   1.892
   1.892   1.892   1.892   1.892   1.892   1.892   1.892   1.892   1.892   1.892
   1.892   1.892   1.892   1.892   1.892   1.892   1.892   1.892   1.892   1.892
   1.892   1.892
   1.115   1.362   1.171   1.502   1.127   1.224   1.039   1.467   1.348   1.146
   1.077   1.321   1.658   1.319   1.495   1.598   1.400   1.740   1.546   1.740
   1.400   1.598   1.495   1.319   1.658   1.321   1.077   1.146   1.348   1.467
   1.039   1.224   1.127   1.502   1.171   1.362   1.115   1.362   1.171   1.502
   1.127   1.224   1.039   1.467   1.348   1.146   1.077   1.321   1.658   1.319
   1.495   1.598   1.400   1.740   1.546   1.740   1.400   1.598   1.495   1.319
   1.658   1.321   1.077   1.146   1.348   1.467   1.039   1.224   1.127   1.502
   1.171   1.362
   1.044   1.136   1.095   0.852   0.845   0.926   0.840   1.008   0.849   0.857
   0.891   1.051   0.916   0.963   1.043   1.191   1.075   1.382   1.135   1.382
   1.075   1.191   1.043   0.963   0.916   1.051   0.891   0.857   0.849   1.008
   0.840   0.926   0.845   0.852   1.095   1.136   1.044   1.136   1.095   0.852
   0.845   0.926   0.840   1.008   0.849   0.857   0.891   1.051   0.916   0.963
   1.043   1.191   1.075   1.382   1.135   1.382   1.075   1.191   1.043   0.963
   0.916   1.051   0.891   0.857   0.849   1.008   0.840   0.926   0.845   0.852
   1.095   1.136
   0.906   1.038   0.896   0.843   1.024   1.084   1.136   0.984   0.844   0.949
   0.866   0.937   0.643   1.008   1.031   0.947   0.939   1.136   0.712   1.136
   0.939   0.947   1.031   1.008   0.643   0.937   0.866   0.949   0.844   0.984
   1.136   1.084   1.024   0.843   0.896   1.038   0.906   1.038   0.896   0.843
   1.024   1.084   1.136   0.984   0.844   0.949   0.866   0.937   0.643   1.008
   1.031   0.947   0.939   1.136   0.712   1.136   0.939   0.947   1.031   1.008
   0.643   0.937   0.866   0.949   0.844   0.984   1.136   1.084   1.024   0.843
   0.896   1.038
   1.627   1.484   1.613   1.608   1.507   1.555   1.495   1.162   1.134   1.164
   0.857   0.900   0.714   0.957   0.809   0.990   0.929   1.099   0.740   1.099
   0.929   0.990   0.809   0.957   0.714   0.900   0.857   1.164   1.134   1.162
   1.495   1.555   1.507   1.608   1.613   1.484   1.627   1.484   1.613   1.608
   1.507   1.555   1.495   1.162   1.134   1.164   0.857   0.900   0.714   0.957
   0.809   0.990   0.929   1.099   0.740   1.099   0.929   0.990   0.809   0.957
   0.714   0.900   0.857   1.164   1.134   1.162   1.495   1.555   1.507   1.608
   1.613   1.484
   3.551   2.865   3.126   2.965   2.754   2.277   2.120   1.786   1.231   1.003
   0.799   0.810   0.711   0.758   0.714   0.974   0.896   0.978   0.837   0.978
   0.896   0.974   0.714   0.758   0.711   0.810   0.799   1.003   1.231   1.786
   2.120   2.277   2.754   2.965   3.126   2.865   3.551   2.865   3.126   2.965
   2.754   2.277   2.120   1.786   1.231   1.003   0.799   0.810   0.711   0.758
   0.714   0.974   0.896   0.978   0.837   0.978   0.896   0.974   0.714   0.758
   0.711   0.810   0.799   1.003   1.231   1.786   2.120   2.277   2.754   2.965
   3.126   2.865
   3.497   3.221   3.105   3.050   3.252   2.671   2.432   2.053   1.445   1.050
   0.638   0.848   0.821   0.954   0.686   0.801   0.869   0.995   1.291   0.995
   0.869   0.801   0.686   0.954   0.821   0.848   0.638   1.050   1.445   2.053
   2.432   2.671   3.252   3.050   3.105   3.221   3.497   3.221   3.105   3.050
   3.252   2.671   2.432   2.053   1.445   1.050   0.638   0.848   0.821   0.954
   0.686   0.801   0.869   0.995   1.291   0.995   0.869   0.801   0.686   0.954
   0.821   0.848   0.638   1.050   1.445   2.053   2.432   2.671   3.252   3.050
   3.105   3.221
   1.461   1.501   1.400   1.629   1.760   1.768   1.663   1.451   1.352   0.977
   0.617   0.698   0.746   1.070   0.736   0.894   0.900   1.062   1.254   1.062
   0.900   0.894   0.736   1.070   0.746   0.698   0.617   0.977   1.352   1.451
   1.663   1.768   1.760   1.629   1.400   1.501   1.461   1.501   1.400   1.629
   1.760   1.768   1.663   1.451   1.352   0.977   0.617   0.698   0.746   1.070
   0.736   0.894   0.900   1.062   1.254   1.062   0.900   0.894   0.736   1.070
   0.746   0.698   0.617   0.977   1.352   1.451   1.663   1.768   1.760   1.629
   1.400   1.501
   0.391   0.350   0.338   0.624   0.555   0.661   0.790   0.818   0.894   0.733
   0.612   0.653   0.557   0.735   0.810   1.022   1.049   1.372   1.126   1.372
   1.049   1.022   0.810   0.735   0.557   0.653   0.612   0.733   0.894   0.818
   0.790   0.661   0.555   0.624   0.338   0.350   0.391   0.350   0.338   0.624
   0.555   0.661   0.790   0.818   0.894   0.733   0.612   0.653   0.557   0.735
   0.810   1.022   1.049   1.372   1.126   1.372   1.049   1.022   0.810   0.735
   0.557   0.653   0.612   0.733   0.894   0.818   0.790   0.661   0.555   0.624
   0.338   0.350
   0.119   0.215   0.124   0.310   0.242   0.301   0.383   0.463   0.662   0.585
   0.719   0.675   0.606   0.597   0.763   0.914   1.268   1.509   1.460   1.509
   1.268   0.914   0.763   0.597   0.606   0.675   0.719   0.585   0.662   0.463
   0.383   0.301   0.242   0.310   0.124   0.215   0.119   0.215   0.124   0.310
   0.242   0.301   0.383   0.463   0.662   0.585   0.719   0.675   0.606   0.597
   0.763   0.914   1.268   1.509   1.460   1.509   1.268   0.914   0.763   0.597
   0.606   0.675   0.719   0.585   0.662   0.463   0.383   0.301   0.242   0.310
   0.124   0.215
   0.090   0.256   0.206   0.311   0.127   0.168   0.274   0.310   0.570   0.716
   0.807   0.740   0.877   0.758   0.637   0.840   1.215   1.298   1.450   1.298
   1.215   0.840   0.637   0.758   0.877   0.740   0.807   0.716   0.570   0.310
   0.274   0.168   0.127   0.311   0.206   0.256   0.090   0.256   0.206   0.311
   0.127   0.168   0.274   0.310   0.570   0.716   0.807   0.740   0.877   0.758
   0.637   0.840   1.215   1.298   1.450   1.298   1.215   0.840   0.637   0.758
   0.877   0.740   0.807   0.716   0.570   0.310   0.274   0.168   0.127   0.311
   0.206   0.256
   0.084   0.248   0.177   0.256   0.082   0.242   0.341   0.353   0.590   0.946
   0.854   0.913   1.028   0.910   0.702   0.735   1.114   1.312   1.369   1.312
   1.114   0.735   0.702   0.910   1.028   0.913   0.854   0.946   0.590   0.353
   0.341   0.242   0.082   0.256   0.177   0.248   0.084   0.248   0.177   0.256
   0.082   0.242   0.341   0.353   0.590   0.946   0.854   0.913   1.028   0.910
   0.702   0.735   1.114   1.312   1.369   1.312   1.114   0.735   0.702   0.910
   1.028   0.913   0.854   0.946   0.590   0.353   0.341   0.242   0.082   0.256
   0.177   0.248
   0.111   0.290   0.199   0.216   0.279   0.557   0.483   0.720   0.707   0.890
   1.304   1.365   1.308   1.192   0.827   0.865   1.097   1.488   1.281   1.488
   1.097   0.865   0.827   1.192   1.308   1.365   1.304   0.890   0.707   0.720
   0.483   0.557   0.279   0.216   0.199   0.290   0.111   0.290   0.199   0.216
   0.279   0.557   0.483   0.720   0.707   0.890   1.304   1.365   1.308   1.192
   0.827   0.865   1.097   1.488   1.281   1.488   1.097   0.865   0.827   1.192
   1.308   1.365   1.304   0.890   0.707   0.720   0.483   0.557   0.279   0.216
   0.199   0.290
   0.199   0.365   0.403   0.347   0.620   0.692   0.743   1.068   0.912   1.312
   1.785   1.763   1.248   1.202   0.863   1.226   1.055   1.482   1.260   1.482
   1.055   1.226   0.863   1.202   1.248   1.763   1.785   1.312   0.912   1.068
   0.743   0.692   0.620   0.347   0.403   0.365   0.199   0.365   0.403   0.347
   0.620   0.692   0.743   1.068   0.912   1.312   1.785   1.763   1.248   1.202
   0.863   1.226   1.055   1.482   1.260   1.482   1.055   1.226   0.863   1.202
   1.248   1.763   1.785   1.312   0.912   1.068   0.743   0.692   0.620   0.347
   0.403   0.365
   0.358   0.488   0.545   0.642   0.799   0.715   0.889   1.064   1.274   1.775
   1.651   1.391   0.877   0.762   0.792   1.234   1.120   1.303   1.557   1.303
   1.120   1.234   0.792   0.762   0.877   1.391   1.651   1.775   1.274   1.064
   0.889   0.715   0.799   0.642   0.545   0.488   0.358   0.488   0.545   0.642
   0.799   0.715   0.889   1.064   1.274   1.775   1.651   1.391   0.877   0.762
   0.792   1.234   1.120   1.303   1.557   1.303   1.120   1.234   0.792   0.762
   0.877   1.391   1.651   1.775   1.274   1.064   0.889   0.715   0.799   0.642
   0.545   0.488
 111       5.00   72    0 5.00   15    0
   0.025   0.025   0.025   0.025   0.025   0.025   0.025   0.025   0.025   0.025
   0.025   0.025   0.025   0.025   0.025   0.025   0.025   0.025   0.025   0.025
   0.025   0.025   0.025   0.025   0.025   0.025   0.025   0.025   0.025   0.025
   0.025   0.025   0.025   0.025   0.025   0.025   0.025   0.025   0.025   0.025
   0.025   0.025   0.025   0.025   0.025   0.025   0.025   0.025   0.025   0.025
   0.025   0.025   0.025   0.025   0.025   0.025   0.025   0.025   0.025   0.025
   0.025   0.025   0.025   0.025   0.025   0.025   0.025   0.025   0.025   0.025
   0.025   0.025
   0.112   0.065   0.057   0.028   0.020   0.023   0.039   0.025   0.040   0.036
   0.056   0.043   0.021   0.054   0.025   0.014   0.046   0.018   0.024   0.018
   0.046   0.014   0.025   0.054   0.021   0.043   0.056   0.036   0.040   0.025
   0.039   0.023   0.020   0.028   0.057   0.065   0.112   0.065   0.057   0.028
   0.020   0.023   0.039   0.025   0.040   0.036   0.056   0.043   0.021   0.054
   0.025   0.014   0.046   0.018   0.024   0.018   0.046   0.014   0.025   0.054
   0.021   0.043   0.056   0.036   0.040   0.025   0.039   0.023   0.020   0.028
   0.057   0.065
   0.230   0.271   0.182   0.145   0.104   0.099   0.163   0.110   0.064   0.057
   0.051   0.062   0.045   0.044   0.073   0.018   0.015   0.028   0.045   0.028
   0.015   0.018   0.073   0.044   0.045   0.062   0.051   0.057   0.064   0.110
   0.163   0.099   0.104   0.145   0.182   0.271   0.230   0.271   0.182   0.145
   0.104   0.099   0.163   0.110   0.064   0.057   0.051   0.062   0.045   0.044
   0.073   0.018   0.015   0.028   0.045   0.028   0.015   0.018   0.073   0.044
   0.045   0.062   0.051   0.057   0.064   0.110   0.163   0.099   0.104   0.145
   0.182   0.271
   1.207   1.510   1.129   0.886   0.755   0.639   0.469   0.332   0.207   0.190
   0.104   0.114   0.073   0.055   0.081   0.059   0.015   0.034   0.061   0.034
   0.015   0.059   0.081   0.055   0.073   0.114   0.104   0.190   0.207   0.332
   0.469   0.639   0.755   0.886   1.129   1.510   1.207   1.510   1.129   0.886
   0.755   0.639   0.469   0.332   0.207   0.190   0.104   0.114   0.073   0.055
   0.081   0.059   0.015   0.034   0.061   0.034   0.015   0.059   0.081   0.055
   0.073   0.114   0.104   0.190   0.207   0.332   0.469   0.639   0.755   0.886
   1.129   1.510
   4.291   4.124   3.603   2.958   2.665   1.977   1.417   0.940   0.585   0.557
   0.277   0.165   0.080   0.080   0.027   0.063   0.020   0.011   0.047   0.011
   0.020   0.063   0.027   0.080   0.080   0.165   0.277   0.557   0.585   0.940
   1.417   1.977   2.665   2.958   3.603   4.124   4.291   4.124   3.603   2.958
   2.665   1.977   1.417   0.940   0.585   0.557   0.277   0.165   0.080   0.080
   0.027   0.063   0.020   0.011   0.047   0.011   0.020   0.063   0.027   0.080
   0.080   0.165   0.277   0.557   0.585   0.940   1.417   1.977   2.665   2.958
   3.603   4.124
   5.222   5.153   4.686   3.912   3.437   2.845   2.322   1.777   1.321   0.999
   0.693   0.317   0.226   0.159   0.123   0.042   0.026   0.024   0.042   0.024
   0.026   0.042   0.123   0.159   0.226   0.317   0.693   0.999   1.321   1.777
   2.322   2.845   3.437   3.912   4.686   5.153   5.222   5.153   4.686   3.912
   3.437   2.845   2.322   1.777   1.321   0.999   0.693   0.317   0.226   0.159
   0.123   0.042   0.026   0.024   0.042   0.024   0.026   0.042   0.123   0.159
   0.226   0.317   0.693   0.999   1.321   1.777   2.322   2.845   3.437   3.912
   4.686   5.153
   4.363   4.079   3.915   3.438   2.802   2.761   2.313   1.896   1.485   1.232
   0.957   0.578   0.453   0.334   0.250   0.114   0.115   0.097   0.080   0.097
   0.115   0.114   0.250   0.334   0.453   0.578   0.957   1.232   1.485   1.896
   2.313   2.761   2.802   3.438   3.915   4.079   4.363   4.079   3.915   3.438
   2.802   2.761   2.313   1.896   1.485   1.232   0.957   0.578   0.453   0.334
   0.250   0.114   0.115   0.097   0.080   0.097   0.115   0.114   0.250   0.334
   0.453   0.578   0.957   1.232   1.485   1.896   2.313   2.761   2.802   3.438
   3.915   4.079
   2.833   2.357   2.666   2.769   2.459   2.662   2.277   1.721   1.347   1.210
   0.830   0.703   0.661   0.492   0.484   0.244   0.231   0.263   0.286   0.263
   0.231   0.244   0.484   0.492   0.661   0.703   0.830   1.210   1.347   1.721
   2.277   2.662   2.459   2.769   2.666   2.357   2.833   2.357   2.666   2.769
   2.459   2.662   2.277   1.721   1.347   1.210   0.830   0.703   0.661   0.492
   0.484   0.244   0.231   0.263   0.286   0.263   0.231   0.244   0.484   0.492
   0.661   0.703   0.830   1.210   1.347   1.721   2.277   2.662   2.459   2.769
   2.666   2.357
   0.515   0.651   0.892   1.204   1.393   2.033   2.231   1.903   1.668   1.237
   1.011   0.848   0.825   0.621   0.639   0.469   0.394   0.418   0.415   0.418
   0.394   0.469   0.639   0.621   0.825   0.848   1.011   1.237   1.668   1.903
   2.231   2.033   1.393   1.204   0.892   0.651   0.515   0.651   0.892   1.204
   1.393   2.033   2.231   1.903   1.668   1.237   1.011   0.848   0.825   0.621
   0.639   0.469   0.394   0.418   0.415   0.418   0.394   0.469   0.639   0.621
   0.825   0.848   1.011   1.237   1.668   1.903   2.231   2.033   1.393   1.204
   0.892   0.651
   0.066   0.111   0.097   0.224   0.349   0.915   1.571   1.939   1.896   1.609
   1.298   1.311   0.972   0.877   0.865   0.621   0.646   0.529   0.557   0.529
   0.646   0.621   0.865   0.877   0.972   1.311   1.298   1.609   1.896   1.939
   1.571   0.915   0.349   0.224   0.097   0.111   0.066   0.111   0.097   0.224
   0.349   0.915   1.571   1.939   1.896   1.609   1.298   1.311   0.972   0.877
   0.865   0.621   0.646   0.529   0.557   0.529   0.646   0.621   0.865   0.877
   0.972   1.311   1.298   1.609   1.896   1.939   1.571   0.915   0.349   0.224
   0.097   0.111
   0.052   0.083   0.079   0.097   0.088   0.260   0.812   1.597   1.830   2.078
   1.812   1.877   1.566   1.452   1.302   0.836   0.839   0.782   0.745   0.782
   0.839   0.836   1.302   1.452   1.566   1.877   1.812   2.078   1.830   1.597
   0.812   0.260   0.088   0.097   0.079   0.083   0.052   0.083   0.079   0.097
   0.088   0.260   0.812   1.597   1.830   2.078   1.812   1.877   1.566   1.452
   1.302   0.836   0.839   0.782   0.745   0.782   0.839   0.836   1.302   1.452
   1.566   1.877   1.812   2.078   1.830   1.597   0.812   0.260   0.088   0.097
   0.079   0.083
   0.044   0.047   0.138   0.048   0.067   0.162   0.561   1.114   1.571   1.984
   1.946   1.887   1.722   1.623   1.515   1.270   1.066   0.991   0.912   0.991
   1.066   1.270   1.515   1.623   1.722   1.887   1.946   1.984   1.571   1.114
   0.561   0.162   0.067   0.048   0.138   0.047   0.044   0.047   0.138   0.048
   0.067   0.162   0.561   1.114   1.571   1.984   1.946   1.887   1.722   1.623
   1.515   1.270   1.066   0.991   0.912   0.991   1.066   1.270   1.515   1.623
   1.722   1.887   1.946   1.984   1.571   1.114   0.561   0.162   0.067   0.048
   0.138   0.047
   0.038   0.090   0.141   0.038   0.035   0.167   0.494   0.685   1.293   1.375
   1.439   1.332   1.191   1.355   1.483   1.440   1.357   1.021   1.107   1.021
   1.357   1.440   1.483   1.355   1.191   1.332   1.439   1.375   1.293   0.685
   0.494   0.167   0.035   0.038   0.141   0.090   0.038   0.090   0.141   0.038
   0.035   0.167   0.494   0.685   1.293   1.375   1.439   1.332   1.191   1.355
   1.483   1.440   1.357   1.021   1.107   1.021   1.357   1.440   1.483   1.355
   1.191   1.332   1.439   1.375   1.293   0.685   0.494   0.167   0.035   0.038
   0.141   0.090
   0.057   0.111   0.105   0.065   0.082   0.106   0.368   0.616   1.158   1.115
   1.241   0.917   0.902   1.230   1.237   1.282   1.275   1.076   0.936   1.076
   1.275   1.282   1.237   1.230   0.902   0.917   1.241   1.115   1.158   0.616
   0.368   0.106   0.082   0.065   0.105   0.111   0.057   0.111   0.105   0.065
   0.082   0.106   0.368   0.616   1.158   1.115   1.241   0.917   0.902   1.230
   1.237   1.282   1.275   1.076   0.936   1.076   1.275   1.282   1.237   1.230
   0.902   0.917   1.241   1.115   1.158   0.616   0.368   0.106   0.082   0.065
   0.105   0.111
   0.190   0.100   0.139   0.111   0.391   0.293   0.419   0.863   1.040   0.976
   0.992   0.850   0.715   1.006   0.839   1.027   0.954   0.921   0.728   0.921
   0.954   1.027   0.839   1.006   0.715   0.850   0.992   0.976   1.040   0.863
   0.419   0.293   0.391   0.111   0.139   0.100   0.190   0.100   0.139   0.111
   0.391   0.293   0.419   0.863   1.040   0.976   0.992   0.850   0.715   1.006
   0.839   1.027   0.954   0.921   0.728   0.921   0.954   1.027   0.839   1.006
   0.715   0.850   0.992   0.976   1.040   0.863   0.419   0.293   0.391   0.111
   0.139   0.100
  4  1      5.0353596E-01
  4  2     -3.6108138E-01
  4  3      5.4814028E-01
  6  1      1.6152411E+00
  6  2     -3.6698771E+00
  6  3      1.2167562E+00
  6  4     -3.0717506E-01
  8  1     -5.6526909E-01
  8  2     -1.6935490E-01
  8  3      1.3938466E+00
  8  4     -3.1958972E-01
  8  5      1.0726459E+00
 10  1     -6.9807398E-01
 10  2      5.6864817E-02
 10  3      9.8514005E-01
 10  4     -9.2095636E-02
 10  5      2.4585196E-01
 10  6      1.2645688E-01
 12  1      2.5617067E-01  1.9575307E+00
 12  2     -4.9793385E-01 -2.0232328E+00
 12  3      1.8368323E-01  1.9110113E+00
 12  4     -2.8520523E-01 -1.0145566E+00
 12  5      2.1544478E-01  1.6558851E-01
 12  6     -6.0652867E-01  3.7105673E-01
 12  7      3.9510159E-01  3.6055342E-01
 14  1     -2.7816746E-01
 14  2      2.9874809E-01
 14  3      3.4006124E-01
 14  4     -6.7069932E-01
 14  5      3.3274439E-01
 14  6     -1.0663191E-01
 14  7      5.3452282E-01
 14  8     -3.5104368E-01
 16  1      4.8670554E-01 -2.3150944E-01
 16  2     -1.9933542E-01  4.8480165E-01
 16  3      1.5654876E-01 -2.8697523E-01
 16  4     -1.1281044E-01 -5.4240217E-01
 16  5     -1.7613266E-01  1.1469630E-01
 16  6      9.7448373E-02 -1.6130374E-01
 16  7      4.4547517E-01 -1.4474711E-01
 16  8     -3.4694900E-02  1.9593196E-01
 16  9     -2.1079295E-02 -8.8852738E-02
 220       5.00   72    0 5.00   18    0
   2.404   2.405   2.408   2.413   2.420   2.429   2.439   2.450   2.462   2.474
   2.486   2.498   2.510   2.520   2.529   2.536   2.541   2.544   2.545   2.544
   2.541   2.536   2.529   2.520   2.510   2.498   2.486   2.474   2.462   2.450
   2.439   2.429   2.420   2.413   2.408   2.405   2.404   2.405   2.408   2.413
   2.420   2.429   2.439   2.450   2.462   2.474   2.486   2.498   2.510   2.520
   2.529   2.536   2.541   2.544   2.545   2.544   2.541   2.536   2.529   2.520
   2.510   2.498   2.486   2.474   2.462   2.450   2.439   2.429   2.420   2.413
   2.408   2.405
   1.377   1.384   1.404   1.437   1.484   1.542   1.612   1.692   1.780   1.875
   1.973   2.071   2.167   2.256   2.334   2.400   2.449   2.479   2.489   2.479
   2.449   2.400   2.334   2.256   2.167   2.071   1.973   1.875   1.780   1.692
   1.612   1.542   1.484   1.437   1.404   1.384   1.377   1.384   1.404   1.437
   1.484   1.542   1.612   1.692   1.780   1.875   1.973   2.071   2.167   2.256
   2.334   2.400   2.449   2.479   2.489   2.479   2.449   2.400   2.334   2.256
   2.167   2.071   1.973   1.875   1.780   1.692   1.612   1.542   1.484   1.437
   1.404   1.384
   0.195   0.204   0.230   0.274   0.339   0.426   0.537   0.675   0.839   1.027
   1.237   1.463   1.694   1.921   2.131   2.312   2.450   2.538   2.568   2.538
   2.450   2.312   2.131   1.921   1.694   1.463   1.237   1.027   0.839   0.675
   0.537   0.426   0.339   0.274   0.230   0.204   0.195   0.204   0.230   0.274
   0.339   0.426   0.537   0.675   0.839   1.027   1.237   1.463   1.694   1.921
   2.131   2.312   2.450   2.538   2.568   2.538   2.450   2.312   2.131   1.921
   1.694   1.463   1.237   1.027   0.839   0.675   0.537   0.426   0.339   0.274
   0.230   0.204
  -0.297  -0.295  -0.288  -0.273  -0.246  -0.201  -0.128  -0.018   0.139   0.351
   0.619   0.939   1.299   1.678   2.050   2.382   2.646   2.816   2.875   2.816
   2.646   2.382   2.050   1.678   1.299   0.939   0.619   0.351   0.139  -0.018
  -0.128  -0.201  -0.246  -0.273  -0.288  -0.295  -0.297  -0.295  -0.288  -0.273
  -0.246  -0.201  -0.128  -0.018   0.139   0.351   0.619   0.939   1.299   1.678
   2.050   2.382   2.646   2.816   2.875   2.816   2.646   2.382   2.050   1.678
   1.299   0.939   0.619   0.351   0.139  -0.018  -0.128  -0.201  -0.246  -0.273
  -0.288  -0.295
  -0.056  -0.059  -0.070  -0.089  -0.115  -0.141  -0.158  -0.146  -0.083   0.054
   0.283   0.611   1.029   1.511   2.015   2.488   2.876   3.131   3.220   3.131
   2.876   2.488   2.015   1.511   1.029   0.611   0.283   0.054  -0.083  -0.146
  -0.158  -0.141  -0.115  -0.089  -0.070  -0.059  -0.056  -0.059  -0.070  -0.089
  -0.115  -0.141  -0.158  -0.146  -0.083   0.054   0.283   0.611   1.029   1.511
   2.015   2.488   2.876   3.131   3.220   3.131   2.876   2.488   2.015   1.511
   1.029   0.611   0.283   0.054  -0.083  -0.146  -0.158  -0.141  -0.115  -0.089
  -0.070  -0.059
   0.315   0.316   0.318   0.312   0.289   0.243   0.176   0.105   0.062   0.083
   0.208   0.459   0.841   1.330   1.877   2.415   2.870   3.174   3.281   3.174
   2.870   2.415   1.877   1.330   0.841   0.459   0.208   0.083   0.062   0.105
   0.176   0.243   0.289   0.312   0.318   0.316   0.315   0.316   0.318   0.312
   0.289   0.243   0.176   0.105   0.062   0.083   0.208   0.459   0.841   1.330
   1.877   2.415   2.870   3.174   3.281   3.174   2.870   2.415   1.877   1.330
   0.841   0.459   0.208   0.083   0.062   0.105   0.176   0.243   0.289   0.312
   0.318   0.316
   0.340   0.352   0.384   0.426   0.463   0.474   0.446   0.380   0.301   0.254
   0.286   0.437   0.721   1.124   1.604   2.096   2.525   2.818   2.922   2.818
   2.525   2.096   1.604   1.124   0.721   0.437   0.286   0.254   0.301   0.380
   0.446   0.474   0.463   0.426   0.384   0.352   0.340   0.352   0.384   0.426
   0.463   0.474   0.446   0.380   0.301   0.254   0.286   0.437   0.721   1.124
   1.604   2.096   2.525   2.818   2.922   2.818   2.525   2.096   1.604   1.124
   0.721   0.437   0.286   0.254   0.301   0.380   0.446   0.474   0.463   0.426
   0.384   0.352
   0.165   0.170   0.194   0.246   0.324   0.406   0.459   0.463   0.427   0.388
   0.393   0.482   0.668   0.945   1.286   1.649   1.976   2.206   2.289   2.206
   1.976   1.649   1.286   0.945   0.668   0.482   0.393   0.388   0.427   0.463
   0.459   0.406   0.324   0.246   0.194   0.170   0.165   0.170   0.194   0.246
   0.324   0.406   0.459   0.463   0.427   0.388   0.393   0.482   0.668   0.945
   1.286   1.649   1.976   2.206   2.289   2.206   1.976   1.649   1.286   0.945
   0.668   0.482   0.393   0.388   0.427   0.463   0.459   0.406   0.324   0.246
   0.194   0.170
   0.331   0.301   0.237   0.197   0.223   0.302   0.385   0.427   0.422   0.407
   0.426   0.503   0.635   0.807   1.006   1.223   1.433   1.591   1.650   1.591
   1.433   1.223   1.006   0.807   0.635   0.503   0.426   0.407   0.422   0.427
   0.385   0.302   0.223   0.197   0.237   0.301   0.331   0.301   0.237   0.197
   0.223   0.302   0.385   0.427   0.422   0.407   0.426   0.503   0.635   0.807
   1.006   1.223   1.433   1.591   1.650   1.591   1.433   1.223   1.006   0.807
   0.635   0.503   0.426   0.407   0.422   0.427   0.385   0.302   0.223   0.197
   0.237   0.301
   1.186   1.097   0.886   0.676   0.564   0.551   0.564   0.534   0.454   0.384
   0.382   0.458   0.574   0.686   0.787   0.896   1.020   1.129   1.173   1.129
   1.020   0.896   0.787   0.686   0.574   0.458   0.382   0.384   0.454   0.534
   0.564   0.551   0.564   0.676   0.886   1.097   1.186   1.097   0.886   0.676
   0.564   0.551   0.564   0.534   0.454   0.384   0.382   0.458   0.574   0.686
   0.787   0.896   1.020   1.129   1.173   1.129   1.020   0.896   0.787   0.686
   0.574   0.458   0.382   0.384   0.454   0.534   0.564   0.551   0.564   0.676
   0.886   1.097
   2.475   2.332   1.988   1.623   1.380   1.261   1.159   0.977   0.721   0.492
   0.389   0.424   0.523   0.603   0.645   0.686   0.758   0.840   0.878   0.840
   0.758   0.686   0.645   0.603   0.523   0.424   0.389   0.492   0.721   0.977
   1.159   1.261   1.380   1.623   1.988   2.332   2.475   2.332   1.988   1.623
   1.380   1.261   1.159   0.977   0.721   0.492   0.389   0.424   0.523   0.603
   0.645   0.686   0.758   0.840   0.878   0.840   0.758   0.686   0.645   0.603
   0.523   0.424   0.389   0.492   0.721   0.977   1.159   1.261   1.380   1.623
   1.988   2.332
   3.442   3.278   2.884   2.473   2.206   2.074   1.933   1.653   1.241   0.835
   0.584   0.523   0.568   0.608   0.606   0.597   0.627   0.683   0.711   0.683
   0.627   0.597   0.606   0.608   0.568   0.523   0.584   0.835   1.241   1.653
   1.933   2.074   2.206   2.473   2.884   3.278   3.442   3.278   2.884   2.473
   2.206   2.074   1.933   1.653   1.241   0.835   0.584   0.523   0.568   0.608
   0.606   0.597   0.627   0.683   0.711   0.683   0.627   0.597   0.606   0.608
   0.568   0.523   0.584   0.835   1.241   1.653   1.933   2.074   2.206   2.473
   2.884   3.278
   3.367   3.224   2.890   2.566   2.408   2.401   2.381   2.183   1.780   1.304
   0.935   0.753   0.705   0.686   0.643   0.598   0.591   0.619   0.636   0.619
   0.591   0.598   0.643   0.686   0.705   0.753   0.935   1.304   1.780   2.183
   2.381   2.401   2.408   2.566   2.890   3.224   3.367   3.224   2.890   2.566
   2.408   2.401   2.381   2.183   1.780   1.304   0.935   0.753   0.705   0.686
   0.643   0.598   0.591   0.619   0.636   0.619   0.591   0.598   0.643   0.686
   0.705   0.753   0.935   1.304   1.780   2.183   2.381   2.401   2.408   2.566
   2.890   3.224
   2.196   2.106   1.904   1.746   1.760   1.949   2.166   2.218   2.018   1.639
   1.250   0.978   0.832   0.748   0.680   0.631   0.625   0.649   0.665   0.649
   0.625   0.631   0.680   0.748   0.832   0.978   1.250   1.639   2.018   2.218
   2.166   1.949   1.760   1.746   1.904   2.106   2.196   2.106   1.904   1.746
   1.760   1.949   2.166   2.218   2.018   1.639   1.250   0.978   0.832   0.748
   0.680   0.631   0.625   0.649   0.665   0.649   0.625   0.631   0.680   0.748
   0.832   0.978   1.250   1.639   2.018   2.218   2.166   1.949   1.760   1.746
   1.904   2.106
   0.688   0.658   0.598   0.586   0.719   1.034   1.441   1.758   1.836   1.666
   1.371   1.092   0.892   0.764   0.692   0.683   0.737   0.814   0.850   0.814
   0.737   0.683   0.692   0.764   0.892   1.092   1.371   1.666   1.836   1.758
   1.441   1.034   0.719   0.586   0.598   0.658   0.688   0.658   0.598   0.586
   0.719   1.034   1.441   1.758   1.836   1.666   1.371   1.092   0.892   0.764
   0.692   0.683   0.737   0.814   0.850   0.814   0.737   0.683   0.692   0.764
   0.892   1.092   1.371   1.666   1.836   1.758   1.441   1.034   0.719   0.586
   0.598   0.658
  -0.188  -0.173  -0.139  -0.093   0.025   0.294   0.708   1.133   1.403   1.446
   1.319   1.130   0.949   0.808   0.743   0.794   0.954   1.135   1.214   1.135
   0.954   0.794   0.743   0.808   0.949   1.130   1.319   1.446   1.403   1.133
   0.708   0.294   0.025  -0.093  -0.139  -0.173  -0.188  -0.173  -0.139  -0.093
   0.025   0.294   0.708   1.133   1.403   1.446   1.319   1.130   0.949   0.808
   0.743   0.794   0.954   1.135   1.214   1.135   0.954   0.794   0.743   0.808
   0.949   1.130   1.319   1.446   1.403   1.133   0.708   0.294   0.025  -0.093
  -0.139  -0.173
  -0.134  -0.095  -0.027  -0.007  -0.011   0.075   0.325   0.679   0.995   1.178
   1.226   1.180   1.070   0.938   0.874   0.973   1.239   1.532   1.659   1.532
   1.239   0.973   0.874   0.938   1.070   1.180   1.226   1.178   0.995   0.679
   0.325   0.075  -0.011  -0.007  -0.027  -0.095  -0.134  -0.095  -0.027  -0.007
  -0.011   0.075   0.325   0.679   0.995   1.178   1.226   1.180   1.070   0.938
   0.874   0.973   1.239   1.532   1.659   1.532   1.239   0.973   0.874   0.938
   1.070   1.180   1.226   1.178   0.995   0.679   0.325   0.075  -0.011  -0.007
  -0.027  -0.095
   0.263   0.309   0.378   0.354   0.236   0.158   0.243   0.485   0.776   1.017
   1.175   1.237   1.190   1.070   1.000   1.122   1.450   1.815   1.974   1.815
   1.450   1.122   1.000   1.070   1.190   1.237   1.175   1.017   0.776   0.485
   0.243   0.158   0.236   0.354   0.378   0.309   0.263   0.309   0.378   0.354
   0.236   0.158   0.243   0.485   0.776   1.017   1.175   1.237   1.190   1.070
   1.000   1.122   1.450   1.815   1.974   1.815   1.450   1.122   1.000   1.070
   1.190   1.237   1.175   1.017   0.776   0.485   0.243   0.158   0.236   0.354
   0.378   0.309
 200       5.00   72    0 5.00   18    0
   1.555   1.555   1.557   1.559   1.563   1.567   1.572   1.577   1.583   1.589
   1.596   1.601   1.607   1.612   1.616   1.620   1.623   1.624   1.625   1.624
   1.623   1.620   1.616   1.612   1.607   1.601   1.596   1.589   1.583   1.577
   1.572   1.567   1.563   1.559   1.557   1.555   1.555   1.555   1.557   1.559
   1.563   1.567   1.572   1.577   1.583   1.589   1.596   1.601   1.607   1.612
   1.616   1.620   1.623   1.624   1.625   1.624   1.623   1.620   1.616   1.612
   1.607   1.601   1.596   1.589   1.583   1.577   1.572   1.567   1.563   1.559
   1.557   1.555
   0.859   0.863   0.872   0.888   0.910   0.938   0.970   1.006   1.045   1.086
   1.128   1.169   1.209   1.246   1.278   1.304   1.324   1.336   1.340   1.336
   1.324   1.304   1.278   1.246   1.209   1.169   1.128   1.086   1.045   1.006
   0.970   0.938   0.910   0.888   0.872   0.863   0.859   0.863   0.872   0.888
   0.910   0.938   0.970   1.006   1.045   1.086   1.128   1.169   1.209   1.246
   1.278   1.304   1.324   1.336   1.340   1.336   1.324   1.304   1.278   1.246
   1.209   1.169   1.128   1.086   1.045   1.006   0.970   0.938   0.910   0.888
   0.872   0.863
   0.348   0.351   0.361   0.377   0.400   0.428   0.462   0.503   0.549   0.602
   0.660   0.722   0.786   0.850   0.910   0.961   1.001   1.026   1.035   1.026
   1.001   0.961   0.910   0.850   0.786   0.722   0.660   0.602   0.549   0.503
   0.462   0.428   0.400   0.377   0.361   0.351   0.348   0.351   0.361   0.377
   0.400   0.428   0.462   0.503   0.549   0.602   0.660   0.722   0.786   0.850
   0.910   0.961   1.001   1.026   1.035   1.026   1.001   0.961   0.910   0.850
   0.786   0.722   0.660   0.602   0.549   0.503   0.462   0.428   0.400   0.377
   0.361   0.351
   0.761   0.758   0.749   0.734   0.711   0.681   0.647   0.612   0.584   0.567
   0.568   0.589   0.629   0.685   0.750   0.813   0.867   0.903   0.915   0.903
   0.867   0.813   0.750   0.685   0.629   0.589   0.568   0.567   0.584   0.612
   0.647   0.681   0.711   0.734   0.749   0.758   0.761   0.758   0.749   0.734
   0.711   0.681   0.647   0.612   0.584   0.567   0.568   0.589   0.629   0.685
   0.750   0.813   0.867   0.903   0.915   0.903   0.867   0.813   0.750   0.685
   0.629   0.589   0.568   0.567   0.584   0.612   0.647   0.681   0.711   0.734
   0.749   0.758
   1.874   1.863   1.827   1.763   1.667   1.537   1.378   1.204   1.031   0.878
   0.762   0.694   0.674   0.696   0.747   0.812   0.873   0.915   0.930   0.915
   0.873   0.812   0.747   0.696   0.674   0.694   0.762   0.878   1.031   1.204
   1.378   1.537   1.667   1.763   1.827   1.863   1.874   1.863   1.827   1.763
   1.667   1.537   1.378   1.204   1.031   0.878   0.762   0.694   0.674   0.696
   0.747   0.812   0.873   0.915   0.930   0.915   0.873   0.812   0.747   0.696
   0.674   0.694   0.762   0.878   1.031   1.204   1.378   1.537   1.667   1.763
   1.827   1.863
   2.758   2.743   2.693   2.600   2.451   2.243   1.981   1.686   1.389   1.123
   0.915   0.781   0.720   0.721   0.763   0.824   0.883   0.926   0.941   0.926
   0.883   0.824   0.763   0.721   0.720   0.781   0.915   1.123   1.389   1.686
   1.981   2.243   2.451   2.600   2.693   2.743   2.758   2.743   2.693   2.600
   2.451   2.243   1.981   1.686   1.389   1.123   0.915   0.781   0.720   0.721
   0.763   0.824   0.883   0.926   0.941   0.926   0.883   0.824   0.763   0.721
   0.720   0.781   0.915   1.123   1.389   1.686   1.981   2.243   2.451   2.600
   2.693   2.743
   2.708   2.697   2.660   2.583   2.449   2.247   1.979   1.669   1.355   1.081
   0.881   0.765   0.726   0.742   0.790   0.850   0.906   0.945   0.959   0.945
   0.906   0.850   0.790   0.742   0.726   0.765   0.881   1.081   1.355   1.669
   1.979   2.247   2.449   2.583   2.660   2.697   2.708   2.697   2.660   2.583
   2.449   2.247   1.979   1.669   1.355   1.081   0.881   0.765   0.726   0.742
   0.790   0.850   0.906   0.945   0.959   0.945   0.906   0.850   0.790   0.742
   0.726   0.765   0.881   1.081   1.355   1.669   1.979   2.247   2.449   2.583
   2.660   2.697
   1.816   1.814   1.807   1.787   1.737   1.637   1.476   1.266   1.047   0.867
   0.757   0.722   0.742   0.795   0.865   0.944   1.020   1.078   1.100   1.078
   1.020   0.944   0.865   0.795   0.742   0.722   0.757   0.867   1.047   1.266
   1.476   1.637   1.737   1.787   1.807   1.814   1.816   1.814   1.807   1.787
   1.737   1.637   1.476   1.266   1.047   0.867   0.757   0.722   0.742   0.795
   0.865   0.944   1.020   1.078   1.100   1.078   1.020   0.944   0.865   0.795
   0.742   0.722   0.757   0.867   1.047   1.266   1.476   1.637   1.737   1.787
   1.807   1.814
   0.748   0.749   0.761   0.797   0.851   0.891   0.883   0.819   0.732   0.668
   0.655   0.688   0.744   0.813   0.905   1.033   1.183   1.309   1.359   1.309
   1.183   1.033   0.905   0.813   0.744   0.688   0.655   0.668   0.732   0.819
   0.883   0.891   0.851   0.797   0.761   0.749   0.748   0.749   0.761   0.797
   0.851   0.891   0.883   0.819   0.732   0.668   0.655   0.688   0.744   0.813
   0.905   1.033   1.183   1.309   1.359   1.309   1.183   1.033   0.905   0.813
   0.744   0.688   0.655   0.668   0.732   0.819   0.883   0.891   0.851   0.797
   0.761   0.749
   0.131   0.121   0.115   0.156   0.257   0.382   0.478   0.520   0.535   0.561
   0.612   0.665   0.700   0.733   0.820   0.999   1.247   1.469   1.558   1.469
   1.247   0.999   0.820   0.733   0.700   0.665   0.612   0.561   0.535   0.520
   0.478   0.382   0.257   0.156   0.115   0.121   0.131   0.121   0.115   0.156
   0.257   0.382   0.478   0.520   0.535   0.561   0.612   0.665   0.700   0.733
   0.820   0.999   1.247   1.469   1.558   1.469   1.247   0.999   0.820   0.733
   0.700   0.665   0.612   0.561   0.535   0.520   0.478   0.382   0.257   0.156
   0.115   0.121
   0.111   0.085   0.038   0.029   0.089   0.192   0.292   0.376   0.469   0.588
   0.704   0.760   0.736   0.687   0.717   0.893   1.180   1.448   1.558   1.448
   1.180   0.893   0.717   0.687   0.736   0.760   0.704   0.588   0.469   0.376
   0.292   0.192   0.089   0.029   0.038   0.085   0.111   0.085   0.038   0.029
   0.089   0.192   0.292   0.376   0.469   0.588   0.704   0.760   0.736   0.687
   0.717   0.893   1.180   1.448   1.558   1.448   1.180   0.893   0.717   0.687
   0.736   0.760   0.704   0.588   0.469   0.376   0.292   0.192   0.089   0.029
   0.038   0.085
   0.327   0.304   0.257   0.223   0.220   0.241   0.288   0.390   0.578   0.822
   1.026   1.086   0.993   0.849   0.793   0.898   1.119   1.333   1.420   1.333
   1.119   0.898   0.793   0.849   0.993   1.086   1.026   0.822   0.578   0.390
   0.288   0.241   0.220   0.223   0.257   0.304   0.327   0.304   0.257   0.223
   0.220   0.241   0.288   0.390   0.578   0.822   1.026   1.086   0.993   0.849
   0.793   0.898   1.119   1.333   1.420   1.333   1.119   0.898   0.793   0.849
   0.993   1.086   1.026   0.822   0.578   0.390   0.288   0.241   0.220   0.223
   0.257   0.304
   0.311   0.329   0.374   0.422   0.443   0.439   0.465   0.605   0.890   1.240
   1.487   1.509   1.332   1.115   1.010   1.053   1.172   1.276   1.314   1.276
   1.172   1.053   1.010   1.115   1.332   1.509   1.487   1.240   0.890   0.605
   0.465   0.439   0.443   0.422   0.374   0.329   0.311   0.329   0.374   0.422
   0.443   0.439   0.465   0.605   0.890   1.240   1.487   1.509   1.332   1.115
   1.010   1.053   1.172   1.276   1.314   1.276   1.172   1.053   1.010   1.115
   1.332   1.509   1.487   1.240   0.890   0.605   0.465   0.439   0.443   0.422
   0.374   0.329
   0.058   0.123   0.286   0.474   0.615   0.693   0.774   0.956   1.270   1.607
   1.781   1.684   1.404   1.154   1.083   1.165   1.272   1.324   1.334   1.324
   1.272   1.165   1.083   1.154   1.404   1.684   1.781   1.607   1.270   0.956
   0.774   0.693   0.615   0.474   0.286   0.123   0.058   0.123   0.286   0.474
   0.615   0.693   0.774   0.956   1.270   1.607   1.781   1.684   1.404   1.154
   1.083   1.165   1.272   1.324   1.334   1.324   1.272   1.165   1.083   1.154
   1.404   1.684   1.781   1.607   1.270   0.956   0.774   0.693   0.615   0.474
   0.286   0.123
   0.198   0.237   0.354   0.528   0.723   0.896   1.047   1.218   1.437   1.633
   1.662   1.446   1.095   0.846   0.855   1.065   1.294   1.422   1.457   1.422
   1.294   1.065   0.855   0.846   1.095   1.446   1.662   1.633   1.437   1.218
   1.047   0.896   0.723   0.528   0.354   0.237   0.198   0.237   0.354   0.528
   0.723   0.896   1.047   1.218   1.437   1.633   1.662   1.446   1.095   0.846
   0.855   1.065   1.294   1.422   1.457   1.422   1.294   1.065   0.855   0.846
   1.095   1.446   1.662   1.633   1.437   1.218   1.047   0.896   0.723   0.528
   0.354   0.237
   1.386   1.274   1.029   0.845   0.842   0.977   1.116   1.185   1.217   1.247
   1.211   1.017   0.703   0.472   0.517   0.831   1.230   1.522   1.624   1.522
   1.230   0.831   0.517   0.472   0.703   1.017   1.211   1.247   1.217   1.185
   1.116   0.977   0.842   0.845   1.029   1.274   1.386   1.274   1.029   0.845
   0.842   0.977   1.116   1.185   1.217   1.247   1.211   1.017   0.703   0.472
   0.517   0.831   1.230   1.522   1.624   1.522   1.230   0.831   0.517   0.472
   0.703   1.017   1.211   1.247   1.217   1.185   1.116   0.977   0.842   0.845
   1.029   1.274
   3.398   3.050   2.231   1.432   1.011   0.953   0.982   0.894   0.739   0.678
   0.727   0.723   0.555   0.343   0.336   0.655   1.167   1.614   1.787   1.614
   1.167   0.655   0.336   0.343   0.555   0.723   0.727   0.678   0.739   0.894
   0.982   0.953   1.011   1.432   2.231   3.050   3.398   3.050   2.231   1.432
   1.011   0.953   0.982   0.894   0.739   0.678   0.727   0.723   0.555   0.343
   0.336   0.655   1.167   1.614   1.787   1.614   1.167   0.655   0.336   0.343
   0.555   0.723   0.727   0.678   0.739   0.894   0.982   0.953   1.011   1.432
   2.231   3.050
   5.005   4.476   3.214   1.925   1.151   0.906   0.825   0.618   0.352   0.275
   0.446   0.635   0.604   0.402   0.325   0.597   1.147   1.678   1.894   1.678
   1.147   0.597   0.325   0.402   0.604   0.635   0.446   0.275   0.352   0.618
   0.825   0.906   1.151   1.925   3.214   4.476   5.005   4.476   3.214   1.925
   1.151   0.906   0.825   0.618   0.352   0.275   0.446   0.635   0.604   0.402
   0.325   0.597   1.147   1.678   1.894   1.678   1.147   0.597   0.325   0.402
   0.604   0.635   0.446   0.275   0.352   0.618   0.825   0.906   1.151   1.925
   3.214   4.476
 111       5.00   72    0 5.00   18    0
   0.134   0.135   0.136   0.139   0.143   0.148   0.154   0.161   0.168   0.175
   0.183   0.190   0.196   0.203   0.208   0.212   0.215   0.217   0.218   0.217
   0.215   0.212   0.208   0.203   0.196   0.190   0.183   0.175   0.168   0.161
   0.154   0.148   0.143   0.139   0.136   0.135   0.134   0.135   0.136   0.139
   0.143   0.148   0.154   0.161   0.168   0.175   0.183   0.190   0.196   0.203
   0.208   0.212   0.215   0.217   0.218   0.217   0.215   0.212   0.208   0.203
   0.196   0.190   0.183   0.175   0.168   0.161   0.154   0.148   0.143   0.139
   0.136   0.135
  -0.238  -0.236  -0.231  -0.222  -0.208  -0.189  -0.165  -0.135  -0.100  -0.060
  -0.017   0.028   0.074   0.117   0.155   0.188   0.212   0.228   0.233   0.228
   0.212   0.188   0.155   0.117   0.074   0.028  -0.017  -0.060  -0.100  -0.135
  -0.165  -0.189  -0.208  -0.222  -0.231  -0.236  -0.238  -0.236  -0.231  -0.222
  -0.208  -0.189  -0.165  -0.135  -0.100  -0.060  -0.017   0.028   0.074   0.117
   0.155   0.188   0.212   0.228   0.233   0.228   0.212   0.188   0.155   0.117
   0.074   0.028  -0.017  -0.060  -0.100  -0.135  -0.165  -0.189  -0.208  -0.222
  -0.231  -0.236
   0.032   0.022  -0.008  -0.053  -0.105  -0.157  -0.200  -0.228  -0.235  -0.221
  -0.187  -0.135  -0.073  -0.006   0.059   0.116   0.161   0.189   0.199   0.189
   0.161   0.116   0.059  -0.006  -0.073  -0.135  -0.187  -0.221  -0.235  -0.228
  -0.200  -0.157  -0.105  -0.053  -0.008   0.022   0.032   0.022  -0.008  -0.053
  -0.105  -0.157  -0.200  -0.228  -0.235  -0.221  -0.187  -0.135  -0.073  -0.006
   0.059   0.116   0.161   0.189   0.199   0.189   0.161   0.116   0.059  -0.006
  -0.073  -0.135  -0.187  -0.221  -0.235  -0.228  -0.200  -0.157  -0.105  -0.053
  -0.008   0.022
   1.543   1.498   1.371   1.176   0.937   0.683   0.439   0.228   0.067  -0.040
  -0.094  -0.105  -0.085  -0.048  -0.006   0.032   0.061   0.078   0.084   0.078
   0.061   0.032  -0.006  -0.048  -0.085  -0.105  -0.094  -0.040   0.067   0.228
   0.439   0.683   0.937   1.176   1.371   1.498   1.543   1.498   1.371   1.176
   0.937   0.683   0.439   0.228   0.067  -0.040  -0.094  -0.105  -0.085  -0.048
  -0.006   0.032   0.061   0.078   0.084   0.078   0.061   0.032  -0.006  -0.048
  -0.085  -0.105  -0.094  -0.040   0.067   0.228   0.439   0.683   0.937   1.176
   1.371   1.498
   3.511   3.429   3.191   2.828   2.379   1.896   1.425   1.007   0.670   0.422
   0.260   0.166   0.115   0.084   0.057   0.027  -0.005  -0.029  -0.038  -0.029
  -0.005   0.027   0.057   0.084   0.115   0.166   0.260   0.422   0.670   1.007
   1.425   1.896   2.379   2.828   3.191   3.429   3.511   3.429   3.191   2.828
   2.379   1.896   1.425   1.007   0.670   0.422   0.260   0.166   0.115   0.084
   0.057   0.027  -0.005  -0.029  -0.038  -0.029  -0.005   0.027   0.057   0.084
   0.115   0.166   0.260   0.422   0.670   1.007   1.425   1.896   2.379   2.828
   3.191   3.429
   4.500   4.410   4.150   3.747   3.245   2.693   2.140   1.633   1.205   0.876
   0.646   0.496   0.397   0.316   0.233   0.140   0.049  -0.019  -0.044  -0.019
   0.049   0.140   0.233   0.316   0.397   0.496   0.646   0.876   1.205   1.633
   2.140   2.693   3.245   3.747   4.150   4.410   4.500   4.410   4.150   3.747
   3.245   2.693   2.140   1.633   1.205   0.876   0.646   0.496   0.397   0.316
   0.233   0.140   0.049  -0.019  -0.044  -0.019   0.049   0.140   0.233   0.316
   0.397   0.496   0.646   0.876   1.205   1.633   2.140   2.693   3.245   3.747
   4.150   4.410
   3.864   3.814   3.668   3.435   3.127   2.758   2.345   1.914   1.500   1.141
   0.863   0.674   0.555   0.472   0.391   0.298   0.201   0.126   0.097   0.126
   0.201   0.298   0.391   0.472   0.555   0.674   0.863   1.141   1.500   1.914
   2.345   2.758   3.127   3.435   3.668   3.814   3.864   3.814   3.668   3.435
   3.127   2.758   2.345   1.914   1.500   1.141   0.863   0.674   0.555   0.472
   0.391   0.298   0.201   0.126   0.097   0.126   0.201   0.298   0.391   0.472
   0.555   0.674   0.863   1.141   1.500   1.914   2.345   2.758   3.127   3.435
   3.668   3.814
   2.221   2.234   2.269   2.316   2.351   2.332   2.218   1.991   1.668   1.309
   0.983   0.742   0.598   0.524   0.475   0.422   0.358   0.304   0.283   0.304
   0.358   0.422   0.475   0.524   0.598   0.742   0.983   1.309   1.668   1.991
   2.218   2.332   2.351   2.316   2.269   2.234   2.221   2.234   2.269   2.316
   2.351   2.332   2.218   1.991   1.668   1.309   0.983   0.742   0.598   0.524
   0.475   0.422   0.358   0.304   0.283   0.304   0.358   0.422   0.475   0.524
   0.598   0.742   0.983   1.309   1.668   1.991   2.218   2.332   2.351   2.316
   2.269   2.234
   0.676   0.723   0.867   1.104   1.408   1.712   1.925   1.972   1.830   1.551
   1.231   0.959   0.779   0.677   0.612   0.550   0.483   0.429   0.407   0.429
   0.483   0.550   0.612   0.677   0.779   0.959   1.231   1.551   1.830   1.972
   1.925   1.712   1.408   1.104   0.867   0.723   0.676   0.723   0.867   1.104
   1.408   1.712   1.925   1.972   1.830   1.551   1.231   0.959   0.779   0.677
   0.612   0.550   0.483   0.429   0.407   0.429   0.483   0.550   0.612   0.677
   0.779   0.959   1.231   1.551   1.830   1.972   1.925   1.712   1.408   1.104
   0.867   0.723
  -0.106  -0.077   0.026   0.239   0.583   1.024   1.467   1.792   1.918   1.845
   1.650   1.430   1.241   1.087   0.941   0.792   0.653   0.553   0.517   0.553
   0.653   0.792   0.941   1.087   1.241   1.430   1.650   1.845   1.918   1.792
   1.467   1.024   0.583   0.239   0.026  -0.077  -0.106  -0.077   0.026   0.239
   0.583   1.024   1.467   1.792   1.918   1.845   1.650   1.430   1.241   1.087
   0.941   0.792   0.653   0.553   0.517   0.553   0.653   0.792   0.941   1.087
   1.241   1.430   1.650   1.845   1.918   1.792   1.467   1.024   0.583   0.239
   0.026  -0.077
  -0.153  -0.168  -0.187  -0.143   0.043   0.411   0.914   1.424   1.802   1.974
   1.969   1.868   1.732   1.571   1.374   1.152   0.947   0.804   0.754   0.804
   0.947   1.152   1.374   1.571   1.732   1.868   1.969   1.974   1.802   1.424
   0.914   0.411   0.043  -0.143  -0.187  -0.168  -0.153  -0.168  -0.187  -0.143
   0.043   0.411   0.914   1.424   1.802   1.974   1.969   1.868   1.732   1.571
   1.374   1.152   0.947   0.804   0.754   0.804   0.947   1.152   1.374   1.571
   1.732   1.868   1.969   1.974   1.802   1.424   0.914   0.411   0.043  -0.143
  -0.187  -0.168
   0.079   0.048  -0.035  -0.123  -0.119   0.078   0.494   1.029   1.507   1.798
   1.897   1.885   1.839   1.768   1.646   1.474   1.296   1.167   1.120   1.167
   1.296   1.474   1.646   1.768   1.839   1.885   1.897   1.798   1.507   1.029
   0.494   0.078  -0.119  -0.123  -0.035   0.048   0.079   0.048  -0.035  -0.123
  -0.119   0.078   0.494   1.029   1.507   1.798   1.897   1.885   1.839   1.768
   1.646   1.474   1.296   1.167   1.120   1.167   1.296   1.474   1.646   1.768
   1.839   1.885   1.897   1.798   1.507   1.029   0.494   0.078  -0.119  -0.123
  -0.035   0.048
   0.110   0.107   0.079   0.012  -0.038   0.047   0.343   0.789   1.206   1.441
   1.487   1.463   1.482   1.551   1.601   1.578   1.498   1.417   1.385   1.417
   1.498   1.578   1.601   1.551   1.482   1.463   1.487   1.441   1.206   0.789
   0.343   0.047  -0.038   0.012   0.079   0.107   0.110   0.107   0.079   0.012
  -0.038   0.047   0.343   0.789   1.206   1.441   1.487   1.463   1.482   1.551
   1.601   1.578   1.498   1.417   1.385   1.417   1.498   1.578   1.601   1.551
   1.482   1.463   1.487   1.441   1.206   0.789   0.343   0.047  -0.038   0.012
   0.079   0.107
  -0.139  -0.109  -0.048  -0.004   0.027   0.127   0.372   0.725   1.036   1.158
   1.094   0.995   1.014   1.166   1.340   1.425   1.405   1.342   1.312   1.342
   1.405   1.425   1.340   1.166   1.014   0.995   1.094   1.158   1.036   0.725
   0.372   0.127   0.027  -0.004  -0.048  -0.109  -0.139  -0.109  -0.048  -0.004
   0.027   0.127   0.372   0.725   1.036   1.158   1.094   0.995   1.014   1.166
   1.340   1.425   1.405   1.342   1.312   1.342   1.405   1.425   1.340   1.166
   1.014   0.995   1.094   1.158   1.036   0.725   0.372   0.127   0.027  -0.004
  -0.048  -0.109
  -0.163  -0.151  -0.109  -0.026   0.098   0.266   0.495   0.767   0.995   1.069
   0.976   0.836   0.801   0.906   1.053   1.121   1.080   0.996   0.955   0.996
   1.080   1.121   1.053   0.906   0.801   0.836   0.976   1.069   0.995   0.767
   0.495   0.266   0.098  -0.026  -0.109  -0.151  -0.163  -0.151  -0.109  -0.026
   0.098   0.266   0.495   0.767   0.995   1.069   0.976   0.836   0.801   0.906
   1.053   1.121   1.080   0.996   0.955   0.996   1.080   1.121   1.053   0.906
   0.801   0.836   0.976   1.069   0.995   0.767   0.495   0.266   0.098  -0.026
  -0.109  -0.151
   0.677   0.598   0.455   0.412   0.516   0.673   0.797   0.897   1.004   1.082
   1.066   0.961   0.853   0.812   0.817   0.801   0.736   0.659   0.624   0.659
   0.736   0.801   0.817   0.812   0.853   0.961   1.066   1.082   1.004   0.897
   0.797   0.673   0.516   0.412   0.455   0.598   0.677   0.598   0.455   0.412
   0.516   0.673   0.797   0.897   1.004   1.082   1.066   0.961   0.853   0.812
   0.817   0.801   0.736   0.659   0.624   0.659   0.736   0.801   0.817   0.812
   0.853   0.961   1.066   1.082   1.004   0.897   0.797   0.673   0.516   0.412
   0.455   0.598
   2.296   2.094   1.681   1.405   1.376   1.406   1.302   1.109   1.011   1.069
   1.156   1.122   0.956   0.758   0.617   0.550   0.532   0.534   0.536   0.534
   0.532   0.550   0.617   0.758   0.956   1.122   1.156   1.069   1.011   1.109
   1.302   1.406   1.376   1.405   1.681   2.094   2.296   2.094   1.681   1.405
   1.376   1.406   1.302   1.109   1.011   1.069   1.156   1.122   0.956   0.758
   0.617   0.550   0.532   0.534   0.536   0.534   0.532   0.550   0.617   0.758
   0.956   1.122   1.156   1.069   1.011   1.109   1.302   1.406   1.376   1.405
   1.681   2.094
   3.650   3.362   2.754   2.296   2.143   2.042   1.731   1.289   1.010   1.027
   1.173   1.189   0.992   0.700   0.481   0.413   0.467   0.556   0.597   0.556
   0.467   0.413   0.481   0.700   0.992   1.189   1.173   1.027   1.010   1.289
   1.731   2.042   2.143   2.296   2.754   3.362   3.650   3.362   2.754   2.296
   2.143   2.042   1.731   1.289   1.010   1.027   1.173   1.189   0.992   0.700
   0.481   0.413   0.467   0.556   0.597   0.556   0.467   0.413   0.481   0.700
   0.992   1.189   1.173   1.027   1.010   1.289   1.731   2.042   2.143   2.296
   2.754   3.362
TEXTURE_INDEX=   3.3557
ERR_CF 220         1080     488   33.27   22.38
ERR_CF 200         1080     518   20.74   15.41
ERR_CF 111         1080     360  136.29    9.73
