TEXEVAL                                                                         
Analysis started on 30-Jul-18 08:59:08                                          
 LMAX=16LFMAX=03 CUBIC ORTHO   
 220      5.00 5.00
 200      5.00 5.00
 111      5.00 5.00
 220       5.00   72    0 5.00   15    0
   2.026   2.026   2.026   2.026   2.026   2.026   2.026   2.026   2.026   2.026
   2.026   2.026   2.026   2.026   2.026   2.026   2.026   2.026   2.026   2.026
   2.026   2.026   2.026   2.026   2.026   2.026   2.026   2.026   2.026   2.026
   2.026   2.026   2.026   2.026   2.026   2.026   2.026   2.026   2.026   2.026
   2.026   2.026   2.026   2.026   2.026   2.026   2.026   2.026   2.026   2.026
   2.026   2.026   2.026   2.026   2.026   2.026   2.026   2.026   2.026   2.026
   2.026   2.026   2.026   2.026   2.026   2.026   2.026   2.026   2.026   2.026
   2.026   2.026
   1.014   0.950   0.878   1.092   1.172   1.020   1.152   1.354   1.206   1.542
   1.585   1.622   1.644   1.859   2.069   2.033   2.315   2.307   2.484   2.307
   2.315   2.033   2.069   1.859   1.644   1.622   1.585   1.542   1.206   1.354
   1.152   1.020   1.172   1.092   0.878   0.950   1.014   0.950   0.878   1.092
   1.172   1.020   1.152   1.354   1.206   1.542   1.585   1.622   1.644   1.859
   2.069   2.033   2.315   2.307   2.484   2.307   2.315   2.033   2.069   1.859
   1.644   1.622   1.585   1.542   1.206   1.354   1.152   1.020   1.172   1.092
   0.878   0.950
   0.728   0.593   0.486   0.788   0.740   0.596   0.705   0.695   0.936   1.136
   1.162   1.032   1.269   1.642   2.006   2.080   2.500   2.850   3.013   2.850
   2.500   2.080   2.006   1.642   1.269   1.032   1.162   1.136   0.936   0.695
   0.705   0.596   0.740   0.788   0.486   0.593   0.728   0.593   0.486   0.788
   0.740   0.596   0.705   0.695   0.936   1.136   1.162   1.032   1.269   1.642
   2.006   2.080   2.500   2.850   3.013   2.850   2.500   2.080   2.006   1.642
   1.269   1.032   1.162   1.136   0.936   0.695   0.705   0.596   0.740   0.788
   0.486   0.593
   0.571   0.549   0.440   0.555   0.524   0.502   0.534   0.541   0.793   1.058
   1.001   0.949   1.179   1.512   1.904   2.197   2.526   3.194   3.328   3.194
   2.526   2.197   1.904   1.512   1.179   0.949   1.001   1.058   0.793   0.541
   0.534   0.502   0.524   0.555   0.440   0.549   0.571   0.549   0.440   0.555
   0.524   0.502   0.534   0.541   0.793   1.058   1.001   0.949   1.179   1.512
   1.904   2.197   2.526   3.194   3.328   3.194   2.526   2.197   1.904   1.512
   1.179   0.949   1.001   1.058   0.793   0.541   0.534   0.502   0.524   0.555
   0.440   0.549
   0.503   0.635   0.441   0.435   0.470   0.492   0.552   0.542   0.689   0.902
   0.964   1.056   1.159   1.450   1.687   2.161   2.560   3.014   3.263   3.014
   2.560   2.161   1.687   1.450   1.159   1.056   0.964   0.902   0.689   0.542
   0.552   0.492   0.470   0.435   0.441   0.635   0.503   0.635   0.441   0.435
   0.470   0.492   0.552   0.542   0.689   0.902   0.964   1.056   1.159   1.450
   1.687   2.161   2.560   3.014   3.263   3.014   2.560   2.161   1.687   1.450
   1.159   1.056   0.964   0.902   0.689   0.542   0.552   0.492   0.470   0.435
   0.441   0.635
   0.549   0.587   0.414   0.409   0.445   0.554   0.536   0.486   0.692   0.840
   0.840   1.073   1.009   1.533   1.573   1.998   2.487   3.061   3.148   3.061
   2.487   1.998   1.573   1.533   1.009   1.073   0.840   0.840   0.692   0.486
   0.536   0.554   0.445   0.409   0.414   0.587   0.549   0.587   0.414   0.409
   0.445   0.554   0.536   0.486   0.692   0.840   0.840   1.073   1.009   1.533
   1.573   1.998   2.487   3.061   3.148   3.061   2.487   1.998   1.573   1.533
   1.009   1.073   0.840   0.840   0.692   0.486   0.536   0.554   0.445   0.409
   0.414   0.587
   0.606   0.541   0.571   0.632   0.632   0.602   0.608   0.582   0.792   0.787
   0.713   0.974   1.044   1.373   1.494   2.126   2.535   3.010   3.039   3.010
   2.535   2.126   1.494   1.373   1.044   0.974   0.713   0.787   0.792   0.582
   0.608   0.602   0.632   0.632   0.571   0.541   0.606   0.541   0.571   0.632
   0.632   0.602   0.608   0.582   0.792   0.787   0.713   0.974   1.044   1.373
   1.494   2.126   2.535   3.010   3.039   3.010   2.535   2.126   1.494   1.373
   1.044   0.974   0.713   0.787   0.792   0.582   0.608   0.602   0.632   0.632
   0.571   0.541
   1.156   0.990   0.803   0.935   0.852   0.782   0.618   0.759   0.717   0.660
   0.712   0.822   1.045   1.048   1.522   2.001   2.527   2.813   2.752   2.813
   2.527   2.001   1.522   1.048   1.045   0.822   0.712   0.660   0.717   0.759
   0.618   0.782   0.852   0.935   0.803   0.990   1.156   0.990   0.803   0.935
   0.852   0.782   0.618   0.759   0.717   0.660   0.712   0.822   1.045   1.048
   1.522   2.001   2.527   2.813   2.752   2.813   2.527   2.001   1.522   1.048
   1.045   0.822   0.712   0.660   0.717   0.759   0.618   0.782   0.852   0.935
   0.803   0.990
   1.579   1.437   1.063   1.130   0.862   0.901   0.747   0.789   0.607   0.585
   0.689   0.758   0.871   0.812   1.344   1.498   2.023   2.458   2.165   2.458
   2.023   1.498   1.344   0.812   0.871   0.758   0.689   0.585   0.607   0.789
   0.747   0.901   0.862   1.130   1.063   1.437   1.579   1.437   1.063   1.130
   0.862   0.901   0.747   0.789   0.607   0.585   0.689   0.758   0.871   0.812
   1.344   1.498   2.023   2.458   2.165   2.458   2.023   1.498   1.344   0.812
   0.871   0.758   0.689   0.585   0.607   0.789   0.747   0.901   0.862   1.130
   1.063   1.437
   1.888   1.628   1.366   1.109   1.028   0.909   0.917   0.700   0.676   0.650
   0.625   0.638   0.651   0.785   0.946   1.106   1.474   1.792   1.659   1.792
   1.474   1.106   0.946   0.785   0.651   0.638   0.625   0.650   0.676   0.700
   0.917   0.909   1.028   1.109   1.366   1.628   1.888   1.628   1.366   1.109
   1.028   0.909   0.917   0.700   0.676   0.650   0.625   0.638   0.651   0.785
   0.946   1.106   1.474   1.792   1.659   1.792   1.474   1.106   0.946   0.785
   0.651   0.638   0.625   0.650   0.676   0.700   0.917   0.909   1.028   1.109
   1.366   1.628
   2.198   1.780   1.732   1.290   1.468   1.271   1.110   0.749   0.788   0.853
   0.683   0.640   0.567   0.887   0.762   0.880   1.155   1.324   1.224   1.324
   1.155   0.880   0.762   0.887   0.567   0.640   0.683   0.853   0.788   0.749
   1.110   1.271   1.468   1.290   1.732   1.780   2.198   1.780   1.732   1.290
   1.468   1.271   1.110   0.749   0.788   0.853   0.683   0.640   0.567   0.887
   0.762   0.880   1.155   1.324   1.224   1.324   1.155   0.880   0.762   0.887
   0.567   0.640   0.683   0.853   0.788   0.749   1.110   1.271   1.468   1.290
   1.732   1.780
   2.226   2.124   2.001   1.770   1.807   1.530   1.349   1.018   0.897   0.868
   0.730   0.669   0.655   0.795   0.666   0.652   0.945   0.988   0.746   0.988
   0.945   0.652   0.666   0.795   0.655   0.669   0.730   0.868   0.897   1.018
   1.349   1.530   1.807   1.770   2.001   2.124   2.226   2.124   2.001   1.770
   1.807   1.530   1.349   1.018   0.897   0.868   0.730   0.669   0.655   0.795
   0.666   0.652   0.945   0.988   0.746   0.988   0.945   0.652   0.666   0.795
   0.655   0.669   0.730   0.868   0.897   1.018   1.349   1.530   1.807   1.770
   2.001   2.124
   2.030   1.923   1.723   1.582   1.700   1.356   1.249   1.146   1.043   0.844
   0.898   0.657   0.887   0.764   0.677   0.726   0.708   0.624   0.397   0.624
   0.708   0.726   0.677   0.764   0.887   0.657   0.898   0.844   1.043   1.146
   1.249   1.356   1.700   1.582   1.723   1.923   2.030   1.923   1.723   1.582
   1.700   1.356   1.249   1.146   1.043   0.844   0.898   0.657   0.887   0.764
   0.677   0.726   0.708   0.624   0.397   0.624   0.708   0.726   0.677   0.764
   0.887   0.657   0.898   0.844   1.043   1.146   1.249   1.356   1.700   1.582
   1.723   1.923
   1.472   0.997   1.397   1.103   1.279   1.048   1.235   1.250   1.216   1.239
   1.296   0.880   0.900   0.775   0.682   0.781   0.505   0.527   0.703   0.527
   0.505   0.781   0.682   0.775   0.900   0.880   1.296   1.239   1.216   1.250
   1.235   1.048   1.279   1.103   1.397   0.997   1.472   0.997   1.397   1.103
   1.279   1.048   1.235   1.250   1.216   1.239   1.296   0.880   0.900   0.775
   0.682   0.781   0.505   0.527   0.703   0.527   0.505   0.781   0.682   0.775
   0.900   0.880   1.296   1.239   1.216   1.250   1.235   1.048   1.279   1.103
   1.397   0.997
   1.000   0.554   0.888   0.785   1.003   0.695   1.007   1.250   1.309   1.533
   1.263   1.026   0.742   0.579   0.640   0.545   0.541   0.602   0.813   0.602
   0.541   0.545   0.640   0.579   0.742   1.026   1.263   1.533   1.309   1.250
   1.007   0.695   1.003   0.785   0.888   0.554   1.000   0.554   0.888   0.785
   1.003   0.695   1.007   1.250   1.309   1.533   1.263   1.026   0.742   0.579
   0.640   0.545   0.541   0.602   0.813   0.602   0.541   0.545   0.640   0.579
   0.742   1.026   1.263   1.533   1.309   1.250   1.007   0.695   1.003   0.785
   0.888   0.554
 200       5.00   72    0 5.00   15    0
   3.322   3.322   3.322   3.322   3.322   3.322   3.322   3.322   3.322   3.322
   3.322   3.322   3.322   3.322   3.322   3.322   3.322   3.322   3.322   3.322
   3.322   3.322   3.322   3.322   3.322   3.322   3.322   3.322   3.322   3.322
   3.322   3.322   3.322   3.322   3.322   3.322   3.322   3.322   3.322   3.322
   3.322   3.322   3.322   3.322   3.322   3.322   3.322   3.322   3.322   3.322
   3.322   3.322   3.322   3.322   3.322   3.322   3.322   3.322   3.322   3.322
   3.322   3.322   3.322   3.322   3.322   3.322   3.322   3.322   3.322   3.322
   3.322   3.322
   2.980   2.596   2.698   2.757   2.365   2.984   3.041   2.822   3.002   2.828
   3.184   2.918   2.754   2.723   2.550   2.715   2.369   2.378   2.203   2.378
   2.369   2.715   2.550   2.723   2.754   2.918   3.184   2.828   3.002   2.822
   3.041   2.984   2.365   2.757   2.698   2.596   2.980   2.596   2.698   2.757
   2.365   2.984   3.041   2.822   3.002   2.828   3.184   2.918   2.754   2.723
   2.550   2.715   2.369   2.378   2.203   2.378   2.369   2.715   2.550   2.723
   2.754   2.918   3.184   2.828   3.002   2.822   3.041   2.984   2.365   2.757
   2.698   2.596
   2.226   1.901   2.107   2.097   1.661   1.997   1.875   2.018   2.414   2.028
   1.887   2.064   2.079   1.971   1.886   2.103   1.915   2.083   1.822   2.083
   1.915   2.103   1.886   1.971   2.079   2.064   1.887   2.028   2.414   2.018
   1.875   1.997   1.661   2.097   2.107   1.901   2.226   1.901   2.107   2.097
   1.661   1.997   1.875   2.018   2.414   2.028   1.887   2.064   2.079   1.971
   1.886   2.103   1.915   2.083   1.822   2.083   1.915   2.103   1.886   1.971
   2.079   2.064   1.887   2.028   2.414   2.018   1.875   1.997   1.661   2.097
   2.107   1.901
   1.851   1.639   1.796   1.814   1.792   1.728   1.628   1.541   1.580   1.552
   1.505   1.311   1.383   1.335   1.308   1.560   1.454   1.574   1.632   1.574
   1.454   1.560   1.308   1.335   1.383   1.311   1.505   1.552   1.580   1.541
   1.628   1.728   1.792   1.814   1.796   1.639   1.851   1.639   1.796   1.814
   1.792   1.728   1.628   1.541   1.580   1.552   1.505   1.311   1.383   1.335
   1.308   1.560   1.454   1.574   1.632   1.574   1.454   1.560   1.308   1.335
   1.383   1.311   1.505   1.552   1.580   1.541   1.628   1.728   1.792   1.814
   1.796   1.639
   1.635   1.865   2.008   1.857   1.992   1.925   1.639   1.303   1.376   1.281
   1.366   1.073   1.058   1.030   0.958   1.063   1.305   1.264   1.607   1.264
   1.305   1.063   0.958   1.030   1.058   1.073   1.366   1.281   1.376   1.303
   1.639   1.925   1.992   1.857   2.008   1.865   1.635   1.865   2.008   1.857
   1.992   1.925   1.639   1.303   1.376   1.281   1.366   1.073   1.058   1.030
   0.958   1.063   1.305   1.264   1.607   1.264   1.305   1.063   0.958   1.030
   1.058   1.073   1.366   1.281   1.376   1.303   1.639   1.925   1.992   1.857
   2.008   1.865
   2.009   2.117   1.988   1.879   2.052   2.120   1.739   1.345   1.302   1.194
   1.134   1.039   0.905   0.842   0.997   0.997   1.124   1.080   1.465   1.080
   1.124   0.997   0.997   0.842   0.905   1.039   1.134   1.194   1.302   1.345
   1.739   2.120   2.052   1.879   1.988   2.117   2.009   2.117   1.988   1.879
   2.052   2.120   1.739   1.345   1.302   1.194   1.134   1.039   0.905   0.842
   0.997   0.997   1.124   1.080   1.465   1.080   1.124   0.997   0.997   0.842
   0.905   1.039   1.134   1.194   1.302   1.345   1.739   2.120   2.052   1.879
   1.988   2.117
   1.793   1.780   1.593   1.715   1.853   1.698   1.515   1.192   0.997   0.908
   0.883   0.900   0.656   0.608   0.846   0.881   0.907   0.852   0.922   0.852
   0.907   0.881   0.846   0.608   0.656   0.900   0.883   0.908   0.997   1.192
   1.515   1.698   1.853   1.715   1.593   1.780   1.793   1.780   1.593   1.715
   1.853   1.698   1.515   1.192   0.997   0.908   0.883   0.900   0.656   0.608
   0.846   0.881   0.907   0.852   0.922   0.852   0.907   0.881   0.846   0.608
   0.656   0.900   0.883   0.908   0.997   1.192   1.515   1.698   1.853   1.715
   1.593   1.780
   0.894   1.157   1.041   1.154   1.076   1.006   0.845   0.782   0.662   0.604
   0.584   0.673   0.480   0.696   0.682   0.652   0.882   0.602   0.625   0.602
   0.882   0.652   0.682   0.696   0.480   0.673   0.584   0.604   0.662   0.782
   0.845   1.006   1.076   1.154   1.041   1.157   0.894   1.157   1.041   1.154
   1.076   1.006   0.845   0.782   0.662   0.604   0.584   0.673   0.480   0.696
   0.682   0.652   0.882   0.602   0.625   0.602   0.882   0.652   0.682   0.696
   0.480   0.673   0.584   0.604   0.662   0.782   0.845   1.006   1.076   1.154
   1.041   1.157
   0.464   0.581   0.445   0.572   0.423   0.567   0.412   0.547   0.364   0.372
   0.381   0.391   0.375   0.635   0.631   0.548   0.713   0.589   0.542   0.589
   0.713   0.548   0.631   0.635   0.375   0.391   0.381   0.372   0.364   0.547
   0.412   0.567   0.423   0.572   0.445   0.581   0.464   0.581   0.445   0.572
   0.423   0.567   0.412   0.547   0.364   0.372   0.381   0.391   0.375   0.635
   0.631   0.548   0.713   0.589   0.542   0.589   0.713   0.548   0.631   0.635
   0.375   0.391   0.381   0.372   0.364   0.547   0.412   0.567   0.423   0.572
   0.445   0.581
   0.419   0.292   0.309   0.421   0.284   0.341   0.324   0.344   0.244   0.297
   0.325   0.372   0.228   0.438   0.461   0.485   0.622   0.699   0.411   0.699
   0.622   0.485   0.461   0.438   0.228   0.372   0.325   0.297   0.244   0.344
   0.324   0.341   0.284   0.421   0.309   0.292   0.419   0.292   0.309   0.421
   0.284   0.341   0.324   0.344   0.244   0.297   0.325   0.372   0.228   0.438
   0.461   0.485   0.622   0.699   0.411   0.699   0.622   0.485   0.461   0.438
   0.228   0.372   0.325   0.297   0.244   0.344   0.324   0.341   0.284   0.421
   0.309   0.292
   0.480   0.239   0.452   0.363   0.340   0.327   0.341   0.310   0.326   0.365
   0.280   0.372   0.269   0.577   0.550   0.603   0.878   0.886   0.905   0.886
   0.878   0.603   0.550   0.577   0.269   0.372   0.280   0.365   0.326   0.310
   0.341   0.327   0.340   0.363   0.452   0.239   0.480   0.239   0.452   0.363
   0.340   0.327   0.341   0.310   0.326   0.365   0.280   0.372   0.269   0.577
   0.550   0.603   0.878   0.886   0.905   0.886   0.878   0.603   0.550   0.577
   0.269   0.372   0.280   0.365   0.326   0.310   0.341   0.327   0.340   0.363
   0.452   0.239
   0.482   0.372   0.393   0.302   0.362   0.405   0.413   0.433   0.391   0.371
   0.322   0.367   0.452   0.550   0.600   0.801   0.984   1.169   1.229   1.169
   0.984   0.801   0.600   0.550   0.452   0.367   0.322   0.371   0.391   0.433
   0.413   0.405   0.362   0.302   0.393   0.372   0.482   0.372   0.393   0.302
   0.362   0.405   0.413   0.433   0.391   0.371   0.322   0.367   0.452   0.550
   0.600   0.801   0.984   1.169   1.229   1.169   0.984   0.801   0.600   0.550
   0.452   0.367   0.322   0.371   0.391   0.433   0.413   0.405   0.362   0.302
   0.393   0.372
   0.558   0.478   0.383   0.403   0.488   0.554   0.543   0.494   0.474   0.342
   0.411   0.487   0.531   0.623   0.687   0.773   1.001   1.312   1.354   1.312
   1.001   0.773   0.687   0.623   0.531   0.487   0.411   0.342   0.474   0.494
   0.543   0.554   0.488   0.403   0.383   0.478   0.558   0.478   0.383   0.403
   0.488   0.554   0.543   0.494   0.474   0.342   0.411   0.487   0.531   0.623
   0.687   0.773   1.001   1.312   1.354   1.312   1.001   0.773   0.687   0.623
   0.531   0.487   0.411   0.342   0.474   0.494   0.543   0.554   0.488   0.403
   0.383   0.478
   0.714   0.524   0.608   0.632   0.733   0.760   0.804   0.599   0.561   0.558
   0.387   0.572   0.628   0.803   0.842   0.813   1.224   1.591   1.796   1.591
   1.224   0.813   0.842   0.803   0.628   0.572   0.387   0.558   0.561   0.599
   0.804   0.760   0.733   0.632   0.608   0.524   0.714   0.524   0.608   0.632
   0.733   0.760   0.804   0.599   0.561   0.558   0.387   0.572   0.628   0.803
   0.842   0.813   1.224   1.591   1.796   1.591   1.224   0.813   0.842   0.803
   0.628   0.572   0.387   0.558   0.561   0.599   0.804   0.760   0.733   0.632
   0.608   0.524
   0.698   0.763   1.000   0.812   0.856   0.697   0.741   0.805   0.498   0.509
   0.357   0.531   0.708   0.777   0.946   0.976   1.162   1.695   1.748   1.695
   1.162   0.976   0.946   0.777   0.708   0.531   0.357   0.509   0.498   0.805
   0.741   0.697   0.856   0.812   1.000   0.763   0.698   0.763   1.000   0.812
   0.856   0.697   0.741   0.805   0.498   0.509   0.357   0.531   0.708   0.777
   0.946   0.976   1.162   1.695   1.748   1.695   1.162   0.976   0.946   0.777
   0.708   0.531   0.357   0.509   0.498   0.805   0.741   0.697   0.856   0.812
   1.000   0.763
 111       5.00   72    0 5.00   15    0
   0.072   0.072   0.072   0.072   0.072   0.072   0.072   0.072   0.072   0.072
   0.072   0.072   0.072   0.072   0.072   0.072   0.072   0.072   0.072   0.072
   0.072   0.072   0.072   0.072   0.072   0.072   0.072   0.072   0.072   0.072
   0.072   0.072   0.072   0.072   0.072   0.072   0.072   0.072   0.072   0.072
   0.072   0.072   0.072   0.072   0.072   0.072   0.072   0.072   0.072   0.072
   0.072   0.072   0.072   0.072   0.072   0.072   0.072   0.072   0.072   0.072
   0.072   0.072   0.072   0.072   0.072   0.072   0.072   0.072   0.072   0.072
   0.072   0.072
   0.242   0.172   0.174   0.151   0.130   0.128   0.124   0.135   0.142   0.166
   0.138   0.145   0.140   0.190   0.145   0.083   0.094   0.099   0.221   0.099
   0.094   0.083   0.145   0.190   0.140   0.145   0.138   0.166   0.142   0.135
   0.124   0.128   0.130   0.151   0.174   0.172   0.242   0.172   0.174   0.151
   0.130   0.128   0.124   0.135   0.142   0.166   0.138   0.145   0.140   0.190
   0.145   0.083   0.094   0.099   0.221   0.099   0.094   0.083   0.145   0.190
   0.140   0.145   0.138   0.166   0.142   0.135   0.124   0.128   0.130   0.151
   0.174   0.172
   0.423   0.406   0.410   0.348   0.243   0.223   0.295   0.226   0.321   0.206
   0.268   0.245   0.172   0.185   0.207   0.158   0.150   0.121   0.263   0.121
   0.150   0.158   0.207   0.185   0.172   0.245   0.268   0.206   0.321   0.226
   0.295   0.223   0.243   0.348   0.410   0.406   0.423   0.406   0.410   0.348
   0.243   0.223   0.295   0.226   0.321   0.206   0.268   0.245   0.172   0.185
   0.207   0.158   0.150   0.121   0.263   0.121   0.150   0.158   0.207   0.185
   0.172   0.245   0.268   0.206   0.321   0.226   0.295   0.223   0.243   0.348
   0.410   0.406
   1.003   0.884   0.839   0.856   0.759   0.725   0.930   0.505   0.559   0.321
   0.392   0.331   0.224   0.180   0.209   0.281   0.264   0.174   0.115   0.174
   0.264   0.281   0.209   0.180   0.224   0.331   0.392   0.321   0.559   0.505
   0.930   0.725   0.759   0.856   0.839   0.884   1.003   0.884   0.839   0.856
   0.759   0.725   0.930   0.505   0.559   0.321   0.392   0.331   0.224   0.180
   0.209   0.281   0.264   0.174   0.115   0.174   0.264   0.281   0.209   0.180
   0.224   0.331   0.392   0.321   0.559   0.505   0.930   0.725   0.759   0.856
   0.839   0.884
   1.976   1.743   1.669   1.615   1.447   1.326   1.459   0.910   0.866   0.778
   0.668   0.528   0.401   0.309   0.301   0.324   0.337   0.274   0.162   0.274
   0.337   0.324   0.301   0.309   0.401   0.528   0.668   0.778   0.866   0.910
   1.459   1.326   1.447   1.615   1.669   1.743   1.976   1.743   1.669   1.615
   1.447   1.326   1.459   0.910   0.866   0.778   0.668   0.528   0.401   0.309
   0.301   0.324   0.337   0.274   0.162   0.274   0.337   0.324   0.301   0.309
   0.401   0.528   0.668   0.778   0.866   0.910   1.459   1.326   1.447   1.615
   1.669   1.743
   2.461   2.552   2.473   2.292   2.038   2.007   1.712   1.422   1.275   1.154
   0.958   0.759   0.544   0.519   0.504   0.438   0.421   0.336   0.546   0.336
   0.421   0.438   0.504   0.519   0.544   0.759   0.958   1.154   1.275   1.422
   1.712   2.007   2.038   2.292   2.473   2.552   2.461   2.552   2.473   2.292
   2.038   2.007   1.712   1.422   1.275   1.154   0.958   0.759   0.544   0.519
   0.504   0.438   0.421   0.336   0.546   0.336   0.421   0.438   0.504   0.519
   0.544   0.759   0.958   1.154   1.275   1.422   1.712   2.007   2.038   2.292
   2.473   2.552
   2.457   2.775   2.883   3.073   2.931   2.583   2.091   1.882   1.610   1.220
   1.071   0.805   0.656   0.653   0.609   0.719   0.489   0.427   0.724   0.427
   0.489   0.719   0.609   0.653   0.656   0.805   1.071   1.220   1.610   1.882
   2.091   2.583   2.931   3.073   2.883   2.775   2.457   2.775   2.883   3.073
   2.931   2.583   2.091   1.882   1.610   1.220   1.071   0.805   0.656   0.653
   0.609   0.719   0.489   0.427   0.724   0.427   0.489   0.719   0.609   0.653
   0.656   0.805   1.071   1.220   1.610   1.882   2.091   2.583   2.931   3.073
   2.883   2.775
   1.951   2.020   2.412   2.916   3.018   2.750   2.553   2.229   1.949   1.343
   1.219   0.986   0.795   0.816   0.670   0.777   0.596   0.596   0.556   0.596
   0.596   0.777   0.670   0.816   0.795   0.986   1.219   1.343   1.949   2.229
   2.553   2.750   3.018   2.916   2.412   2.020   1.951   2.020   2.412   2.916
   3.018   2.750   2.553   2.229   1.949   1.343   1.219   0.986   0.795   0.816
   0.670   0.777   0.596   0.596   0.556   0.596   0.596   0.777   0.670   0.816
   0.795   0.986   1.219   1.343   1.949   2.229   2.553   2.750   3.018   2.916
   2.412   2.020
   0.930   0.821   1.149   1.405   1.821   2.273   2.527   2.596   2.430   1.943
   1.530   1.198   0.991   0.899   0.719   0.644   0.738   0.615   0.869   0.615
   0.738   0.644   0.719   0.899   0.991   1.198   1.530   1.943   2.430   2.596
   2.527   2.273   1.821   1.405   1.149   0.821   0.930   0.821   1.149   1.405
   1.821   2.273   2.527   2.596   2.430   1.943   1.530   1.198   0.991   0.899
   0.719   0.644   0.738   0.615   0.869   0.615   0.738   0.644   0.719   0.899
   0.991   1.198   1.530   1.943   2.430   2.596   2.527   2.273   1.821   1.405
   1.149   0.821
   0.286   0.290   0.406   0.517   0.883   1.390   1.974   2.593   2.917   2.634
   2.019   1.542   1.190   1.004   0.935   0.689   0.876   0.817   1.063   0.817
   0.876   0.689   0.935   1.004   1.190   1.542   2.019   2.634   2.917   2.593
   1.974   1.390   0.883   0.517   0.406   0.290   0.286   0.290   0.406   0.517
   0.883   1.390   1.974   2.593   2.917   2.634   2.019   1.542   1.190   1.004
   0.935   0.689   0.876   0.817   1.063   0.817   0.876   0.689   0.935   1.004
   1.190   1.542   2.019   2.634   2.917   2.593   1.974   1.390   0.883   0.517
   0.406   0.290
   0.319   0.245   0.202   0.357   0.410   0.785   1.345   2.213   2.690   3.003
   2.338   1.871   1.428   1.224   1.142   0.882   0.991   1.119   1.207   1.119
   0.991   0.882   1.142   1.224   1.428   1.871   2.338   3.003   2.690   2.213
   1.345   0.785   0.410   0.357   0.202   0.245   0.319   0.245   0.202   0.357
   0.410   0.785   1.345   2.213   2.690   3.003   2.338   1.871   1.428   1.224
   1.142   0.882   0.991   1.119   1.207   1.119   0.991   0.882   1.142   1.224
   1.428   1.871   2.338   3.003   2.690   2.213   1.345   0.785   0.410   0.357
   0.202   0.245
   0.351   0.219   0.224   0.267   0.308   0.468   0.773   1.618   2.259   3.113
   2.248   2.026   1.451   1.065   1.121   0.888   0.894   0.964   1.266   0.964
   0.894   0.888   1.121   1.065   1.451   2.026   2.248   3.113   2.259   1.618
   0.773   0.468   0.308   0.267   0.224   0.219   0.351   0.219   0.224   0.267
   0.308   0.468   0.773   1.618   2.259   3.113   2.248   2.026   1.451   1.065
   1.121   0.888   0.894   0.964   1.266   0.964   0.894   0.888   1.121   1.065
   1.451   2.026   2.248   3.113   2.259   1.618   0.773   0.468   0.308   0.267
   0.224   0.219
   0.261   0.189   0.244   0.211   0.336   0.328   0.635   1.170   1.918   2.450
   1.909   1.809   1.255   0.791   0.976   0.756   0.814   0.790   0.931   0.790
   0.814   0.756   0.976   0.791   1.255   1.809   1.909   2.450   1.918   1.170
   0.635   0.328   0.336   0.211   0.244   0.189   0.261   0.189   0.244   0.211
   0.336   0.328   0.635   1.170   1.918   2.450   1.909   1.809   1.255   0.791
   0.976   0.756   0.814   0.790   0.931   0.790   0.814   0.756   0.976   0.791
   1.255   1.809   1.909   2.450   1.918   1.170   0.635   0.328   0.336   0.211
   0.244   0.189
   0.274   0.203   0.178   0.206   0.357   0.427   0.628   1.064   1.425   1.543
   1.472   1.275   1.126   0.685   0.792   0.672   0.689   0.756   0.702   0.756
   0.689   0.672   0.792   0.685   1.126   1.275   1.472   1.543   1.425   1.064
   0.628   0.427   0.357   0.206   0.178   0.203   0.274   0.203   0.178   0.206
   0.357   0.427   0.628   1.064   1.425   1.543   1.472   1.275   1.126   0.685
   0.792   0.672   0.689   0.756   0.702   0.756   0.689   0.672   0.792   0.685
   1.126   1.275   1.472   1.543   1.425   1.064   0.628   0.427   0.357   0.206
   0.178   0.203
   0.314   0.249   0.245   0.368   0.435   0.677   0.832   0.972   1.120   1.125
   1.164   1.109   1.023   0.741   0.645   0.617   0.583   0.638   0.565   0.638
   0.583   0.617   0.645   0.741   1.023   1.109   1.164   1.125   1.120   0.972
   0.832   0.677   0.435   0.368   0.245   0.249   0.314   0.249   0.245   0.368
   0.435   0.677   0.832   0.972   1.120   1.125   1.164   1.109   1.023   0.741
   0.645   0.617   0.583   0.638   0.565   0.638   0.583   0.617   0.645   0.741
   1.023   1.109   1.164   1.125   1.120   0.972   0.832   0.677   0.435   0.368
   0.245   0.249
  4  1      1.7191911E+00
  4  2     -2.4381445E-01
  4  3      1.5111458E+00
  6  1      7.3747363E-01
  6  2     -2.1633861E+00
  6  3      1.5003059E+00
  6  4      1.7852048E-01
  8  1      2.7331320E-01
  8  2     -2.6255720E-01
  8  3      9.2801812E-01
  8  4     -4.5898989E-01
  8  5      9.4905628E-01
 10  1      1.0551311E-02
 10  2     -4.5323809E-01
 10  3      7.6065938E-01
 10  4     -6.9682483E-01
 10  5      9.7127158E-01
 10  6      1.1469241E-02
 12  1      5.6744308E-01  7.6736949E-01
 12  2     -2.9161643E-01 -8.0327432E-01
 12  3      3.6334709E-01  7.2579640E-01
 12  4     -1.3377360E-01 -7.2303900E-01
 12  5      2.6921904E-01  4.6045203E-01
 12  6     -1.2304292E-01 -1.0320691E-02
 12  7      8.1597173E-01  4.2554190E-02
 14  1     -3.0682216E-01
 14  2     -2.4585871E-01
 14  3      3.8106254E-01
 14  4     -2.3183484E-01
 14  5      7.1583616E-01
 14  6     -1.9292710E-01
 14  7      2.7476891E-01
 14  8      1.4682755E-01
 16  1      3.8940464E-02  2.9812025E-01
 16  2     -2.0281655E-01 -5.2779060E-02
 16  3      1.6213373E-01  1.3030006E-01
 16  4     -2.7632256E-01 -2.6226832E-01
 16  5     -5.3441414E-02  3.8145452E-01
 16  6      2.0555780E-02 -1.6055271E-01
 16  7      1.9933014E-02  3.0540991E-01
 16  8     -1.0870125E-01  2.2612386E-02
 16  9      2.1831220E-01 -1.0093404E-01
 220       5.00   72    0 5.00   18    0
   1.290   1.290   1.292   1.296   1.300   1.306   1.313   1.320   1.328   1.336
   1.344   1.352   1.359   1.366   1.372   1.376   1.380   1.382   1.383   1.382
   1.380   1.376   1.372   1.366   1.359   1.352   1.344   1.336   1.328   1.320
   1.313   1.306   1.300   1.296   1.292   1.290   1.290   1.290   1.292   1.296
   1.300   1.306   1.313   1.320   1.328   1.336   1.344   1.352   1.359   1.366
   1.372   1.376   1.380   1.382   1.383   1.382   1.380   1.376   1.372   1.366
   1.359   1.352   1.344   1.336   1.328   1.320   1.313   1.306   1.300   1.296
   1.292   1.290
   0.860   0.864   0.877   0.899   0.930   0.968   1.013   1.065   1.121   1.182
   1.244   1.307   1.367   1.423   1.473   1.514   1.545   1.564   1.570   1.564
   1.545   1.514   1.473   1.423   1.367   1.307   1.244   1.182   1.121   1.065
   1.013   0.968   0.930   0.899   0.877   0.864   0.860   0.864   0.877   0.899
   0.930   0.968   1.013   1.065   1.121   1.182   1.244   1.307   1.367   1.423
   1.473   1.514   1.545   1.564   1.570   1.564   1.545   1.514   1.473   1.423
   1.367   1.307   1.244   1.182   1.121   1.065   1.013   0.968   0.930   0.899
   0.877   0.864
   0.376   0.382   0.400   0.430   0.474   0.531   0.602   0.688   0.789   0.903
   1.029   1.163   1.300   1.435   1.560   1.667   1.749   1.801   1.819   1.801
   1.749   1.667   1.560   1.435   1.300   1.163   1.029   0.903   0.789   0.688
   0.602   0.531   0.474   0.430   0.400   0.382   0.376   0.382   0.400   0.430
   0.474   0.531   0.602   0.688   0.789   0.903   1.029   1.163   1.300   1.435
   1.560   1.667   1.749   1.801   1.819   1.801   1.749   1.667   1.560   1.435
   1.300   1.163   1.029   0.903   0.789   0.688   0.602   0.531   0.474   0.430
   0.400   0.382
   0.165   0.168   0.178   0.196   0.223   0.261   0.312   0.382   0.474   0.592
   0.739   0.914   1.113   1.324   1.533   1.723   1.876   1.975   2.010   1.975
   1.876   1.723   1.533   1.324   1.113   0.914   0.739   0.592   0.474   0.382
   0.312   0.261   0.223   0.196   0.178   0.168   0.165   0.168   0.178   0.196
   0.223   0.261   0.312   0.382   0.474   0.592   0.739   0.914   1.113   1.324
   1.533   1.723   1.876   1.975   2.010   1.975   1.876   1.723   1.533   1.324
   1.113   0.914   0.739   0.592   0.474   0.382   0.312   0.261   0.223   0.196
   0.178   0.168
   0.213   0.215   0.219   0.225   0.233   0.242   0.256   0.279   0.319   0.389
   0.501   0.663   0.877   1.135   1.416   1.690   1.921   2.076   2.130   2.076
   1.921   1.690   1.416   1.135   0.877   0.663   0.501   0.389   0.319   0.279
   0.256   0.242   0.233   0.225   0.219   0.215   0.213   0.215   0.219   0.225
   0.233   0.242   0.256   0.279   0.319   0.389   0.501   0.663   0.877   1.135
   1.416   1.690   1.921   2.076   2.130   2.076   1.921   1.690   1.416   1.135
   0.877   0.663   0.501   0.389   0.319   0.279   0.256   0.242   0.233   0.225
   0.219   0.215
   0.342   0.343   0.347   0.354   0.361   0.368   0.370   0.368   0.367   0.381
   0.431   0.540   0.724   0.986   1.306   1.645   1.946   2.155   2.230   2.155
   1.946   1.645   1.306   0.986   0.724   0.540   0.431   0.381   0.367   0.368
   0.370   0.368   0.361   0.354   0.347   0.343   0.342   0.343   0.347   0.354
   0.361   0.368   0.370   0.368   0.367   0.381   0.431   0.540   0.724   0.986
   1.306   1.645   1.946   2.155   2.230   2.155   1.946   1.645   1.306   0.986
   0.724   0.540   0.431   0.381   0.367   0.368   0.370   0.368   0.361   0.354
   0.347   0.343
   0.510   0.504   0.492   0.482   0.482   0.494   0.512   0.525   0.526   0.519
   0.524   0.574   0.703   0.930   1.250   1.618   1.967   2.217   2.309   2.217
   1.967   1.618   1.250   0.930   0.703   0.574   0.524   0.519   0.526   0.525
   0.512   0.494   0.482   0.482   0.492   0.504   0.510   0.504   0.492   0.482
   0.482   0.494   0.512   0.525   0.526   0.519   0.524   0.574   0.703   0.930
   1.250   1.618   1.967   2.217   2.309   2.217   1.967   1.618   1.250   0.930
   0.703   0.574   0.524   0.519   0.526   0.525   0.512   0.494   0.482   0.482
   0.492   0.504
   0.822   0.798   0.735   0.661   0.606   0.587   0.602   0.634   0.657   0.661
   0.653   0.664   0.737   0.911   1.196   1.557   1.920   2.191   2.292   2.191
   1.920   1.557   1.196   0.911   0.737   0.664   0.653   0.661   0.657   0.634
   0.602   0.587   0.606   0.661   0.735   0.798   0.822   0.798   0.735   0.661
   0.606   0.587   0.602   0.634   0.657   0.661   0.653   0.664   0.737   0.911
   1.196   1.557   1.920   2.191   2.292   2.191   1.920   1.557   1.196   0.911
   0.737   0.664   0.653   0.661   0.657   0.634   0.602   0.587   0.606   0.661
   0.735   0.798
   1.311   1.262   1.132   0.968   0.819   0.722   0.684   0.688   0.705   0.712
   0.703   0.698   0.734   0.854   1.083   1.402   1.743   2.008   2.109   2.008
   1.743   1.402   1.083   0.854   0.734   0.698   0.703   0.712   0.705   0.688
   0.684   0.722   0.819   0.968   1.132   1.262   1.311   1.262   1.132   0.968
   0.819   0.722   0.684   0.688   0.705   0.712   0.703   0.698   0.734   0.854
   1.083   1.402   1.743   2.008   2.109   2.008   1.743   1.402   1.083   0.854
   0.734   0.698   0.703   0.712   0.705   0.688   0.684   0.722   0.819   0.968
   1.132   1.262
   1.838   1.775   1.606   1.382   1.159   0.978   0.853   0.777   0.734   0.706
   0.687   0.678   0.697   0.772   0.932   1.174   1.453   1.679   1.766   1.679
   1.453   1.174   0.932   0.772   0.697   0.678   0.687   0.706   0.734   0.777
   0.853   0.978   1.159   1.382   1.606   1.775   1.838   1.775   1.606   1.382
   1.159   0.978   0.853   0.777   0.734   0.706   0.687   0.678   0.697   0.772
   0.932   1.174   1.453   1.679   1.766   1.679   1.453   1.174   0.932   0.772
   0.697   0.678   0.687   0.706   0.734   0.777   0.853   0.978   1.159   1.382
   1.606   1.775
   2.217   2.158   1.997   1.777   1.542   1.322   1.131   0.970   0.843   0.754
   0.706   0.692   0.703   0.739   0.819   0.957   1.134   1.290   1.353   1.290
   1.134   0.957   0.819   0.739   0.703   0.692   0.706   0.754   0.843   0.970
   1.131   1.322   1.542   1.777   1.997   2.158   2.217   2.158   1.997   1.777
   1.542   1.322   1.131   0.970   0.843   0.754   0.706   0.692   0.703   0.739
   0.819   0.957   1.134   1.290   1.353   1.290   1.134   0.957   0.819   0.739
   0.703   0.692   0.706   0.754   0.843   0.970   1.131   1.322   1.542   1.777
   1.997   2.158
   2.318   2.273   2.151   1.982   1.794   1.602   1.412   1.227   1.057   0.920
   0.832   0.793   0.782   0.777   0.780   0.809   0.877   0.952   0.986   0.952
   0.877   0.809   0.780   0.777   0.782   0.793   0.832   0.920   1.057   1.227
   1.412   1.602   1.794   1.982   2.151   2.273   2.318   2.273   2.151   1.982
   1.794   1.602   1.412   1.227   1.057   0.920   0.832   0.793   0.782   0.777
   0.780   0.809   0.877   0.952   0.986   0.952   0.877   0.809   0.780   0.777
   0.782   0.793   0.832   0.920   1.057   1.227   1.412   1.602   1.794   1.982
   2.151   2.273
   2.065   2.035   1.956   1.853   1.745   1.640   1.536   1.426   1.301   1.163
   1.031   0.930   0.864   0.816   0.769   0.733   0.727   0.746   0.758   0.746
   0.727   0.733   0.769   0.816   0.864   0.930   1.031   1.163   1.301   1.426
   1.536   1.640   1.745   1.853   1.956   2.035   2.065   2.035   1.956   1.853
   1.745   1.640   1.536   1.426   1.301   1.163   1.031   0.930   0.864   0.816
   0.769   0.733   0.727   0.746   0.758   0.746   0.727   0.733   0.769   0.816
   0.864   0.930   1.031   1.163   1.301   1.426   1.536   1.640   1.745   1.853
   1.956   2.035
   1.484   1.466   1.427   1.389   1.370   1.377   1.413   1.461   1.472   1.393
   1.224   1.029   0.878   0.790   0.739   0.704   0.686   0.687   0.691   0.687
   0.686   0.704   0.739   0.790   0.878   1.029   1.224   1.393   1.472   1.461
   1.413   1.377   1.370   1.389   1.427   1.466   1.484   1.466   1.427   1.389
   1.370   1.377   1.413   1.461   1.472   1.393   1.224   1.029   0.878   0.790
   0.739   0.704   0.686   0.687   0.691   0.687   0.686   0.704   0.739   0.790
   0.878   1.029   1.224   1.393   1.472   1.461   1.413   1.377   1.370   1.389
   1.427   1.466
   0.793   0.786   0.778   0.793   0.841   0.934   1.096   1.319   1.513   1.549
   1.379   1.099   0.862   0.747   0.723   0.726   0.725   0.723   0.723   0.723
   0.725   0.726   0.723   0.747   0.862   1.099   1.379   1.549   1.513   1.319
   1.096   0.934   0.841   0.793   0.778   0.786   0.793   0.786   0.778   0.793
   0.841   0.934   1.096   1.319   1.513   1.549   1.379   1.099   0.862   0.747
   0.723   0.726   0.725   0.723   0.723   0.723   0.725   0.726   0.723   0.747
   0.862   1.099   1.379   1.549   1.513   1.319   1.096   0.934   0.841   0.793
   0.778   0.786
   0.325   0.322   0.327   0.361   0.421   0.524   0.730   1.072   1.441   1.630
   1.520   1.211   0.923   0.795   0.793   0.814   0.802   0.772   0.757   0.772
   0.802   0.814   0.793   0.795   0.923   1.211   1.520   1.630   1.441   1.072
   0.730   0.524   0.421   0.361   0.327   0.322   0.325   0.322   0.327   0.361
   0.421   0.524   0.730   1.072   1.441   1.630   1.520   1.211   0.923   0.795
   0.793   0.814   0.802   0.772   0.757   0.772   0.802   0.814   0.793   0.795
   0.923   1.211   1.520   1.630   1.441   1.072   0.730   0.524   0.421   0.361
   0.327   0.322
   0.228   0.221   0.216   0.227   0.242   0.280   0.446   0.827   1.324   1.668
   1.662   1.384   1.090   0.958   0.953   0.946   0.875   0.781   0.739   0.781
   0.875   0.946   0.953   0.958   1.090   1.384   1.662   1.668   1.324   0.827
   0.446   0.280   0.242   0.227   0.216   0.221   0.228   0.221   0.216   0.227
   0.242   0.280   0.446   0.827   1.324   1.668   1.662   1.384   1.090   0.958
   0.953   0.946   0.875   0.781   0.739   0.781   0.875   0.946   0.953   0.958
   1.090   1.384   1.662   1.668   1.324   0.827   0.446   0.280   0.242   0.227
   0.216   0.221
   0.318   0.304   0.281   0.262   0.225   0.192   0.301   0.680   1.241   1.683
   1.761   1.525   1.245   1.112   1.093   1.048   0.917   0.767   0.702   0.767
   0.917   1.048   1.093   1.112   1.245   1.525   1.761   1.683   1.241   0.680
   0.301   0.192   0.225   0.262   0.281   0.304   0.318   0.304   0.281   0.262
   0.225   0.192   0.301   0.680   1.241   1.683   1.761   1.525   1.245   1.112
   1.093   1.048   0.917   0.767   0.702   0.767   0.917   1.048   1.093   1.112
   1.245   1.525   1.761   1.683   1.241   0.680   0.301   0.192   0.225   0.262
   0.281   0.304
 200       5.00   72    0 5.00   18    0
   2.950   2.950   2.951   2.952   2.953   2.954   2.956   2.958   2.960   2.962
   2.964   2.967   2.969   2.970   2.972   2.973   2.974   2.975   2.975   2.975
   2.974   2.973   2.972   2.970   2.969   2.967   2.964   2.962   2.960   2.958
   2.956   2.954   2.953   2.952   2.951   2.950   2.950   2.950   2.951   2.952
   2.953   2.954   2.956   2.958   2.960   2.962   2.964   2.967   2.969   2.970
   2.972   2.973   2.974   2.975   2.975   2.975   2.974   2.973   2.972   2.970
   2.969   2.967   2.964   2.962   2.960   2.958   2.956   2.954   2.953   2.952
   2.951   2.950
   2.354   2.355   2.357   2.360   2.364   2.370   2.377   2.386   2.396   2.408
   2.421   2.434   2.448   2.462   2.475   2.485   2.494   2.499   2.501   2.499
   2.494   2.485   2.475   2.462   2.448   2.434   2.421   2.408   2.396   2.386
   2.377   2.370   2.364   2.360   2.357   2.355   2.354   2.355   2.357   2.360
   2.364   2.370   2.377   2.386   2.396   2.408   2.421   2.434   2.448   2.462
   2.475   2.485   2.494   2.499   2.501   2.499   2.494   2.485   2.475   2.462
   2.448   2.434   2.421   2.408   2.396   2.386   2.377   2.370   2.364   2.360
   2.357   2.355
   1.761   1.760   1.755   1.748   1.739   1.729   1.718   1.710   1.705   1.705
   1.712   1.726   1.747   1.773   1.801   1.828   1.851   1.866   1.871   1.866
   1.851   1.828   1.801   1.773   1.747   1.726   1.712   1.705   1.705   1.710
   1.718   1.729   1.739   1.748   1.755   1.760   1.761   1.760   1.755   1.748
   1.739   1.729   1.718   1.710   1.705   1.705   1.712   1.726   1.747   1.773
   1.801   1.828   1.851   1.866   1.871   1.866   1.851   1.828   1.801   1.773
   1.747   1.726   1.712   1.705   1.705   1.710   1.718   1.729   1.739   1.748
   1.755   1.760
   1.626   1.622   1.609   1.585   1.550   1.504   1.447   1.385   1.323   1.270
   1.233   1.217   1.224   1.252   1.295   1.344   1.389   1.421   1.432   1.421
   1.389   1.344   1.295   1.252   1.224   1.217   1.233   1.270   1.323   1.385
   1.447   1.504   1.550   1.585   1.609   1.622   1.626   1.622   1.609   1.585
   1.550   1.504   1.447   1.385   1.323   1.270   1.233   1.217   1.224   1.252
   1.295   1.344   1.389   1.421   1.432   1.421   1.389   1.344   1.295   1.252
   1.224   1.217   1.233   1.270   1.323   1.385   1.447   1.504   1.550   1.585
   1.609   1.622
   1.796   1.793   1.782   1.758   1.712   1.640   1.540   1.419   1.288   1.164
   1.063   0.998   0.977   0.999   1.053   1.124   1.194   1.244   1.262   1.244
   1.194   1.124   1.053   0.999   0.977   0.998   1.063   1.164   1.288   1.419
   1.540   1.640   1.712   1.758   1.782   1.793   1.796   1.793   1.782   1.758
   1.712   1.640   1.540   1.419   1.288   1.164   1.063   0.998   0.977   0.999
   1.053   1.124   1.194   1.244   1.262   1.244   1.194   1.124   1.053   0.999
   0.977   0.998   1.063   1.164   1.288   1.419   1.540   1.640   1.712   1.758
   1.782   1.793
   1.835   1.836   1.837   1.825   1.787   1.712   1.597   1.448   1.283   1.124
   0.993   0.907   0.874   0.891   0.947   1.023   1.099   1.153   1.173   1.153
   1.099   1.023   0.947   0.891   0.874   0.907   0.993   1.124   1.283   1.448
   1.597   1.712   1.787   1.825   1.837   1.836   1.835   1.836   1.837   1.825
   1.787   1.712   1.597   1.448   1.283   1.124   0.993   0.907   0.874   0.891
   0.947   1.023   1.099   1.153   1.173   1.153   1.099   1.023   0.947   0.891
   0.874   0.907   0.993   1.124   1.283   1.448   1.597   1.712   1.787   1.825
   1.837   1.836
   1.566   1.568   1.570   1.558   1.520   1.444   1.329   1.188   1.041   0.913
   0.822   0.775   0.770   0.795   0.838   0.887   0.931   0.963   0.974   0.963
   0.931   0.887   0.838   0.795   0.770   0.775   0.822   0.913   1.041   1.188
   1.329   1.444   1.520   1.558   1.570   1.568   1.566   1.568   1.570   1.558
   1.520   1.444   1.329   1.188   1.041   0.913   0.822   0.775   0.770   0.795
   0.838   0.887   0.931   0.963   0.974   0.963   0.931   0.887   0.838   0.795
   0.770   0.775   0.822   0.913   1.041   1.188   1.329   1.444   1.520   1.558
   1.570   1.568
   1.115   1.113   1.104   1.081   1.033   0.954   0.845   0.725   0.621   0.559
   0.550   0.585   0.638   0.684   0.709   0.716   0.712   0.708   0.706   0.708
   0.712   0.716   0.709   0.684   0.638   0.585   0.550   0.559   0.621   0.725
   0.845   0.954   1.033   1.081   1.104   1.113   1.115   1.113   1.104   1.081
   1.033   0.954   0.845   0.725   0.621   0.559   0.550   0.585   0.638   0.684
   0.709   0.716   0.712   0.708   0.706   0.708   0.712   0.716   0.709   0.684
   0.638   0.585   0.550   0.559   0.621   0.725   0.845   0.954   1.033   1.081
   1.104   1.113
   0.647   0.643   0.632   0.614   0.584   0.533   0.456   0.367   0.296   0.278
   0.325   0.420   0.522   0.591   0.617   0.611   0.598   0.589   0.587   0.589
   0.598   0.611   0.617   0.591   0.522   0.420   0.325   0.278   0.296   0.367
   0.456   0.533   0.584   0.614   0.632   0.643   0.647   0.643   0.632   0.614
   0.584   0.533   0.456   0.367   0.296   0.278   0.325   0.420   0.522   0.591
   0.617   0.611   0.598   0.589   0.587   0.589   0.598   0.611   0.617   0.591
   0.522   0.420   0.325   0.278   0.296   0.367   0.456   0.533   0.584   0.614
   0.632   0.643
   0.298   0.294   0.288   0.293   0.312   0.330   0.322   0.282   0.231   0.211
   0.251   0.346   0.455   0.540   0.591   0.630   0.676   0.723   0.743   0.723
   0.676   0.630   0.591   0.540   0.455   0.346   0.251   0.211   0.231   0.282
   0.322   0.330   0.312   0.293   0.288   0.294   0.298   0.294   0.288   0.293
   0.312   0.330   0.322   0.282   0.231   0.211   0.251   0.346   0.455   0.540
   0.591   0.630   0.676   0.723   0.743   0.723   0.676   0.630   0.591   0.540
   0.455   0.346   0.251   0.211   0.231   0.282   0.322   0.330   0.312   0.293
   0.288   0.294
   0.213   0.203   0.186   0.190   0.233   0.302   0.361   0.375   0.345   0.307
   0.308   0.364   0.451   0.536   0.619   0.726   0.868   1.003   1.060   1.003
   0.868   0.726   0.619   0.536   0.451   0.364   0.308   0.307   0.345   0.375
   0.361   0.302   0.233   0.190   0.186   0.203   0.213   0.203   0.186   0.190
   0.233   0.302   0.361   0.375   0.345   0.307   0.308   0.364   0.451   0.536
   0.619   0.726   0.868   1.003   1.060   1.003   0.868   0.726   0.619   0.536
   0.451   0.364   0.308   0.307   0.345   0.375   0.361   0.302   0.233   0.190
   0.186   0.203
   0.378   0.362   0.329   0.307   0.321   0.375   0.441   0.480   0.470   0.429
   0.408   0.441   0.514   0.596   0.689   0.831   1.037   1.239   1.326   1.239
   1.037   0.831   0.689   0.596   0.514   0.441   0.408   0.429   0.470   0.480
   0.441   0.375   0.321   0.307   0.329   0.362   0.378   0.362   0.329   0.307
   0.321   0.375   0.441   0.480   0.470   0.429   0.408   0.441   0.514   0.596
   0.689   0.831   1.037   1.239   1.326   1.239   1.037   0.831   0.689   0.596
   0.514   0.441   0.408   0.429   0.470   0.480   0.441   0.375   0.321   0.307
   0.329   0.362
   0.505   0.506   0.508   0.512   0.519   0.534   0.556   0.566   0.546   0.505
   0.489   0.535   0.627   0.717   0.797   0.927   1.143   1.374   1.476   1.374
   1.143   0.927   0.797   0.717   0.627   0.535   0.489   0.505   0.546   0.566
   0.556   0.534   0.519   0.512   0.508   0.506   0.505   0.506   0.508   0.512
   0.519   0.534   0.556   0.566   0.546   0.505   0.489   0.535   0.627   0.717
   0.797   0.927   1.143   1.374   1.476   1.374   1.143   0.927   0.797   0.717
   0.627   0.535   0.489   0.505   0.546   0.566   0.556   0.534   0.519   0.512
   0.508   0.506
   0.436   0.465   0.544   0.646   0.730   0.763   0.746   0.695   0.621   0.551
   0.535   0.609   0.739   0.847   0.914   1.027   1.258   1.529   1.652   1.529
   1.258   1.027   0.914   0.847   0.739   0.609   0.535   0.551   0.621   0.695
   0.746   0.763   0.730   0.646   0.544   0.465   0.436   0.465   0.544   0.646
   0.730   0.763   0.746   0.695   0.621   0.551   0.535   0.609   0.739   0.847
   0.914   1.027   1.258   1.529   1.652   1.529   1.258   1.027   0.914   0.847
   0.739   0.609   0.535   0.551   0.621   0.695   0.746   0.763   0.730   0.646
   0.544   0.465
   0.636   0.638   0.672   0.770   0.899   0.978   0.957   0.852   0.709   0.588
   0.557   0.647   0.802   0.918   0.982   1.124   1.449   1.839   2.019   1.839
   1.449   1.124   0.982   0.918   0.802   0.647   0.557   0.588   0.709   0.852
   0.957   0.978   0.899   0.770   0.672   0.638   0.636   0.638   0.672   0.770
   0.899   0.978   0.957   0.852   0.709   0.588   0.557   0.647   0.802   0.918
   0.982   1.124   1.449   1.839   2.019   1.839   1.449   1.124   0.982   0.918
   0.802   0.647   0.557   0.588   0.709   0.852   0.957   0.978   0.899   0.770
   0.672   0.638
   1.843   1.694   1.375   1.130   1.065   1.085   1.051   0.919   0.740   0.597
   0.567   0.668   0.818   0.905   0.960   1.180   1.692   2.294   2.567   2.294
   1.692   1.180   0.960   0.905   0.818   0.668   0.567   0.597   0.740   0.919
   1.051   1.085   1.065   1.130   1.375   1.694   1.843   1.694   1.375   1.130
   1.065   1.085   1.051   0.919   0.740   0.597   0.567   0.668   0.818   0.905
   0.960   1.180   1.692   2.294   2.567   2.294   1.692   1.180   0.960   0.905
   0.818   0.668   0.567   0.597   0.740   0.919   1.051   1.085   1.065   1.130
   1.375   1.694
   3.977   3.579   2.660   1.773   1.262   1.074   0.980   0.840   0.673   0.561
   0.572   0.693   0.818   0.847   0.874   1.179   1.901   2.739   3.116   2.739
   1.901   1.179   0.874   0.847   0.818   0.693   0.572   0.561   0.673   0.840
   0.980   1.074   1.262   1.773   2.660   3.579   3.977   3.579   2.660   1.773
   1.262   1.074   0.980   0.840   0.673   0.561   0.572   0.693   0.818   0.847
   0.874   1.179   1.901   2.739   3.116   2.739   1.901   1.179   0.874   0.847
   0.818   0.693   0.572   0.561   0.673   0.840   0.980   1.074   1.262   1.773
   2.660   3.579
   5.737   5.143   3.741   2.321   1.416   1.026   0.865   0.725   0.586   0.518
   0.574   0.716   0.821   0.800   0.799   1.155   2.015   3.008   3.453   3.008
   2.015   1.155   0.799   0.800   0.821   0.716   0.574   0.518   0.586   0.725
   0.865   1.026   1.416   2.321   3.741   5.143   5.737   5.143   3.741   2.321
   1.416   1.026   0.865   0.725   0.586   0.518   0.574   0.716   0.821   0.800
   0.799   1.155   2.015   3.008   3.453   3.008   2.015   1.155   0.799   0.800
   0.821   0.716   0.574   0.518   0.586   0.725   0.865   1.026   1.416   2.321
   3.741   5.143
 111       5.00   72    0 5.00   18    0
  -0.041  -0.041  -0.042  -0.042  -0.042  -0.042  -0.042  -0.043  -0.043  -0.043
  -0.044  -0.044  -0.044  -0.045  -0.045  -0.045  -0.045  -0.046  -0.046  -0.046
  -0.045  -0.045  -0.045  -0.045  -0.044  -0.044  -0.044  -0.043  -0.043  -0.043
  -0.042  -0.042  -0.042  -0.042  -0.042  -0.041  -0.041  -0.041  -0.042  -0.042
  -0.042  -0.042  -0.042  -0.043  -0.043  -0.043  -0.044  -0.044  -0.044  -0.045
  -0.045  -0.045  -0.045  -0.046  -0.046  -0.046  -0.045  -0.045  -0.045  -0.045
  -0.044  -0.044  -0.044  -0.043  -0.043  -0.043  -0.042  -0.042  -0.042  -0.042
  -0.042  -0.041
   0.016   0.016   0.015   0.013   0.010   0.007   0.004   0.000  -0.004  -0.009
  -0.013  -0.017  -0.022  -0.026  -0.029  -0.032  -0.035  -0.036  -0.036  -0.036
  -0.035  -0.032  -0.029  -0.026  -0.022  -0.017  -0.013  -0.009  -0.004   0.000
   0.004   0.007   0.010   0.013   0.015   0.016   0.016   0.016   0.015   0.013
   0.010   0.007   0.004   0.000  -0.004  -0.009  -0.013  -0.017  -0.022  -0.026
  -0.029  -0.032  -0.035  -0.036  -0.036  -0.036  -0.035  -0.032  -0.029  -0.026
  -0.022  -0.017  -0.013  -0.009  -0.004   0.000   0.004   0.007   0.010   0.013
   0.015   0.016
   0.189   0.186   0.179   0.168   0.153   0.135   0.116   0.097   0.078   0.060
   0.043   0.026   0.011  -0.004  -0.017  -0.029  -0.038  -0.044  -0.046  -0.044
  -0.038  -0.029  -0.017  -0.004   0.011   0.026   0.043   0.060   0.078   0.097
   0.116   0.135   0.153   0.168   0.179   0.186   0.189   0.186   0.179   0.168
   0.153   0.135   0.116   0.097   0.078   0.060   0.043   0.026   0.011  -0.004
  -0.017  -0.029  -0.038  -0.044  -0.046  -0.044  -0.038  -0.029  -0.017  -0.004
   0.011   0.026   0.043   0.060   0.078   0.097   0.116   0.135   0.153   0.168
   0.179   0.186
   0.635   0.626   0.600   0.559   0.504   0.440   0.371   0.303   0.241   0.187
   0.144   0.108   0.078   0.051   0.024  -0.002  -0.024  -0.040  -0.045  -0.040
  -0.024  -0.002   0.024   0.051   0.078   0.108   0.144   0.187   0.241   0.303
   0.371   0.440   0.504   0.559   0.600   0.626   0.635   0.626   0.600   0.559
   0.504   0.440   0.371   0.303   0.241   0.187   0.144   0.108   0.078   0.051
   0.024  -0.002  -0.024  -0.040  -0.045  -0.040  -0.024  -0.002   0.024   0.051
   0.078   0.108   0.144   0.187   0.241   0.303   0.371   0.440   0.504   0.559
   0.600   0.626
   1.421   1.406   1.359   1.278   1.162   1.017   0.852   0.684   0.530   0.405
   0.315   0.257   0.221   0.192   0.161   0.124   0.086   0.057   0.046   0.057
   0.086   0.124   0.161   0.192   0.221   0.257   0.315   0.405   0.530   0.684
   0.852   1.017   1.162   1.278   1.359   1.406   1.421   1.406   1.359   1.278
   1.162   1.017   0.852   0.684   0.530   0.405   0.315   0.257   0.221   0.192
   0.161   0.124   0.086   0.057   0.046   0.057   0.086   0.124   0.161   0.192
   0.221   0.257   0.315   0.405   0.530   0.684   0.852   1.017   1.162   1.278
   1.359   1.406
   2.213   2.205   2.176   2.107   1.976   1.775   1.514   1.221   0.936   0.698
   0.534   0.445   0.411   0.401   0.385   0.347   0.295   0.249   0.230   0.249
   0.295   0.347   0.385   0.401   0.411   0.445   0.534   0.698   0.936   1.221
   1.514   1.775   1.976   2.107   2.176   2.205   2.213   2.205   2.176   2.107
   1.976   1.775   1.514   1.221   0.936   0.698   0.534   0.445   0.411   0.401
   0.385   0.347   0.295   0.249   0.230   0.249   0.295   0.347   0.385   0.401
   0.411   0.445   0.534   0.698   0.936   1.221   1.514   1.775   1.976   2.107
   2.176   2.205
   2.405   2.431   2.493   2.542   2.520   2.386   2.130   1.779   1.392   1.036
   0.771   0.622   0.575   0.582   0.589   0.560   0.499   0.435   0.409   0.435
   0.499   0.560   0.589   0.582   0.575   0.622   0.771   1.036   1.392   1.779
   2.130   2.386   2.520   2.542   2.493   2.431   2.405   2.431   2.493   2.542
   2.520   2.386   2.130   1.779   1.392   1.036   0.771   0.622   0.575   0.582
   0.589   0.560   0.499   0.435   0.409   0.435   0.499   0.560   0.589   0.582
   0.575   0.622   0.771   1.036   1.392   1.779   2.130   2.386   2.520   2.542
   2.493   2.431
   1.754   1.824   2.008   2.236   2.425   2.503   2.427   2.197   1.848   1.450
   1.090   0.837   0.717   0.697   0.709   0.693   0.632   0.561   0.530   0.561
   0.632   0.693   0.709   0.697   0.717   0.837   1.090   1.450   1.848   2.197
   2.427   2.503   2.425   2.236   2.008   1.824   1.754   1.824   2.008   2.236
   2.425   2.503   2.427   2.197   1.848   1.450   1.090   0.837   0.717   0.697
   0.709   0.693   0.632   0.561   0.530   0.561   0.632   0.693   0.709   0.697
   0.717   0.837   1.090   1.450   1.848   2.197   2.427   2.503   2.425   2.236
   2.008   1.824
   0.746   0.832   1.067   1.393   1.747   2.069   2.302   2.389   2.284   1.995
   1.597   1.213   0.949   0.835   0.817   0.811   0.770   0.711   0.682   0.711
   0.770   0.811   0.817   0.835   0.949   1.213   1.597   1.995   2.284   2.389
   2.302   2.069   1.747   1.393   1.067   0.832   0.746   0.832   1.067   1.393
   1.747   2.069   2.302   2.389   2.284   1.995   1.597   1.213   0.949   0.835
   0.817   0.811   0.770   0.711   0.682   0.711   0.770   0.811   0.817   0.835
   0.949   1.213   1.597   1.995   2.284   2.389   2.302   2.069   1.747   1.393
   1.067   0.832
   0.117   0.175   0.336   0.586   0.924   1.364   1.874   2.347   2.621   2.576
   2.229   1.739   1.308   1.063   0.993   0.999   0.994   0.965   0.947   0.965
   0.994   0.999   0.993   1.063   1.308   1.739   2.229   2.576   2.621   2.347
   1.874   1.364   0.924   0.586   0.336   0.175   0.117   0.175   0.336   0.586
   0.924   1.364   1.874   2.347   2.621   2.576   2.229   1.739   1.308   1.063
   0.993   0.999   0.994   0.965   0.947   0.965   0.994   0.999   0.993   1.063
   1.308   1.739   2.229   2.576   2.621   2.347   1.874   1.364   0.924   0.586
   0.336   0.175
   0.080   0.093   0.129   0.200   0.373   0.749   1.364   2.097   2.694   2.910
   2.679   2.160   1.627   1.285   1.172   1.188   1.222   1.228   1.225   1.228
   1.222   1.188   1.172   1.285   1.627   2.160   2.679   2.910   2.694   2.097
   1.364   0.749   0.373   0.200   0.129   0.093   0.080   0.093   0.129   0.200
   0.373   0.749   1.364   2.097   2.694   2.910   2.679   2.160   1.627   1.285
   1.172   1.188   1.222   1.228   1.225   1.228   1.222   1.188   1.172   1.285
   1.627   2.160   2.679   2.910   2.694   2.097   1.364   0.749   0.373   0.200
   0.129   0.093
   0.234   0.229   0.203   0.161   0.184   0.417   0.953   1.708   2.411   2.767
   2.655   2.205   1.691   1.339   1.208   1.222   1.273   1.305   1.314   1.305
   1.273   1.222   1.208   1.339   1.691   2.205   2.655   2.767   2.411   1.708
   0.953   0.417   0.184   0.161   0.203   0.229   0.234   0.229   0.203   0.161
   0.184   0.417   0.953   1.708   2.411   2.767   2.655   2.205   1.691   1.339
   1.208   1.222   1.273   1.305   1.314   1.305   1.273   1.222   1.208   1.339
   1.691   2.205   2.655   2.767   2.411   1.708   0.953   0.417   0.184   0.161
   0.203   0.229
   0.203   0.211   0.216   0.199   0.204   0.351   0.740   1.331   1.915   2.244
   2.204   1.887   1.500   1.213   1.080   1.063   1.102   1.147   1.166   1.147
   1.102   1.063   1.080   1.213   1.500   1.887   2.204   2.244   1.915   1.331
   0.740   0.351   0.204   0.199   0.216   0.211   0.203   0.211   0.216   0.199
   0.204   0.351   0.740   1.331   1.915   2.244   2.204   1.887   1.500   1.213
   1.080   1.063   1.102   1.147   1.166   1.147   1.102   1.063   1.080   1.213
   1.500   1.887   2.204   2.244   1.915   1.331   0.740   0.351   0.204   0.199
   0.216   0.211
   0.084   0.106   0.160   0.226   0.310   0.464   0.741   1.125   1.492   1.693
   1.669   1.485   1.257   1.060   0.920   0.850   0.857   0.908   0.936   0.908
   0.857   0.850   0.920   1.060   1.257   1.485   1.669   1.693   1.492   1.125
   0.741   0.464   0.310   0.226   0.160   0.106   0.084   0.106   0.160   0.226
   0.310   0.464   0.741   1.125   1.492   1.693   1.669   1.485   1.257   1.060
   0.920   0.850   0.857   0.908   0.936   0.908   0.857   0.850   0.920   1.060
   1.257   1.485   1.669   1.693   1.492   1.125   0.741   0.464   0.310   0.226
   0.160   0.106
   0.181   0.198   0.256   0.362   0.507   0.683   0.891   1.117   1.297   1.362
   1.309   1.202   1.092   0.970   0.824   0.703   0.676   0.728   0.764   0.728
   0.676   0.703   0.824   0.970   1.092   1.202   1.309   1.362   1.297   1.117
   0.891   0.683   0.507   0.362   0.256   0.198   0.181   0.198   0.256   0.362
   0.507   0.683   0.891   1.117   1.297   1.362   1.309   1.202   1.092   0.970
   0.824   0.703   0.676   0.728   0.764   0.728   0.676   0.703   0.824   0.970
   1.092   1.202   1.309   1.362   1.297   1.117   0.891   0.683   0.507   0.362
   0.256   0.198
   0.535   0.542   0.584   0.680   0.813   0.947   1.070   1.181   1.241   1.206
   1.094   0.989   0.929   0.861   0.733   0.592   0.540   0.584   0.621   0.584
   0.540   0.592   0.733   0.861   0.929   0.989   1.094   1.206   1.241   1.181
   1.070   0.947   0.813   0.680   0.584   0.542   0.535   0.542   0.584   0.680
   0.813   0.947   1.070   1.181   1.241   1.206   1.094   0.989   0.929   0.861
   0.733   0.592   0.540   0.584   0.621   0.584   0.540   0.592   0.733   0.861
   0.929   0.989   1.094   1.206   1.241   1.181   1.070   0.947   0.813   0.680
   0.584   0.542
   0.908   0.923   0.977   1.069   1.152   1.184   1.184   1.190   1.175   1.071
   0.891   0.738   0.682   0.659   0.575   0.447   0.381   0.406   0.435   0.406
   0.381   0.447   0.575   0.659   0.682   0.738   0.891   1.071   1.175   1.190
   1.184   1.184   1.152   1.069   0.977   0.923   0.908   0.923   0.977   1.069
   1.152   1.184   1.184   1.190   1.175   1.071   0.891   0.738   0.682   0.659
   0.575   0.447   0.381   0.406   0.435   0.406   0.381   0.447   0.575   0.659
   0.682   0.738   0.891   1.071   1.175   1.190   1.184   1.184   1.152   1.069
   0.977   0.923
   1.110   1.140   1.226   1.330   1.376   1.322   1.223   1.156   1.096   0.954
   0.725   0.529   0.464   0.471   0.426   0.318   0.246   0.254   0.275   0.254
   0.246   0.318   0.426   0.471   0.464   0.529   0.725   0.954   1.096   1.156
   1.223   1.322   1.376   1.330   1.226   1.140   1.110   1.140   1.226   1.330
   1.376   1.322   1.223   1.156   1.096   0.954   0.725   0.529   0.464   0.471
   0.426   0.318   0.246   0.254   0.275   0.254   0.246   0.318   0.426   0.471
   0.464   0.529   0.725   0.954   1.096   1.156   1.223   1.322   1.376   1.330
   1.226   1.140
TEXTURE_INDEX=   2.6029
ERR_CF 220         1080     554   21.38   19.93
ERR_CF 200         1080     498   13.34   10.45
ERR_CF 111         1080     372   41.06   11.31
