TEXEVAL                                                                         
Analysis started on 01-Feb-21 15:04:46                                          
 LMAX=14LFMAX=03 CUBIC ORTHO   
 211      5.00 5.00
 200      5.00 5.00
 110      5.00 5.00
 211       5.00   72    0 5.00   15    0
   1.106   1.106   1.106   1.106   1.106   1.106   1.106   1.106   1.106   1.106
   1.106   1.106   1.106   1.106   1.106   1.106   1.106   1.106   1.106   1.106
   1.106   1.106   1.106   1.106   1.106   1.106   1.106   1.106   1.106   1.106
   1.106   1.106   1.106   1.106   1.106   1.106   1.106   1.106   1.106   1.106
   1.106   1.106   1.106   1.106   1.106   1.106   1.106   1.106   1.106   1.106
   1.106   1.106   1.106   1.106   1.106   1.106   1.106   1.106   1.106   1.106
   1.106   1.106   1.106   1.106   1.106   1.106   1.106   1.106   1.106   1.106
   1.106   1.106
   0.701   0.700   0.695   0.772   0.830   0.847   0.869   0.891   0.917   0.959
   1.012   1.059   1.098   1.142   1.188   1.222   1.192   1.204   1.209   1.204
   1.192   1.222   1.188   1.142   1.098   1.059   1.012   0.959   0.917   0.891
   0.869   0.847   0.830   0.772   0.695   0.700   0.701   0.700   0.695   0.772
   0.830   0.847   0.869   0.891   0.917   0.959   1.012   1.059   1.098   1.142
   1.188   1.222   1.192   1.204   1.209   1.204   1.192   1.222   1.188   1.142
   1.098   1.059   1.012   0.959   0.917   0.891   0.869   0.847   0.830   0.772
   0.695   0.700
   0.705   0.723   0.770   0.753   0.734   0.758   0.836   0.891   0.878   0.917
   0.970   1.036   1.041   1.143   1.211   1.282   1.333   1.388   1.356   1.388
   1.333   1.282   1.211   1.143   1.041   1.036   0.970   0.917   0.878   0.891
   0.836   0.758   0.734   0.753   0.770   0.723   0.705   0.723   0.770   0.753
   0.734   0.758   0.836   0.891   0.878   0.917   0.970   1.036   1.041   1.143
   1.211   1.282   1.333   1.388   1.356   1.388   1.333   1.282   1.211   1.143
   1.041   1.036   0.970   0.917   0.878   0.891   0.836   0.758   0.734   0.753
   0.770   0.723
   1.141   1.170   1.156   1.079   0.999   0.971   1.052   1.006   0.966   1.038
   1.047   1.067   1.089   1.271   1.399   1.422   1.534   1.657   1.712   1.657
   1.534   1.422   1.399   1.271   1.089   1.067   1.047   1.038   0.966   1.006
   1.052   0.971   0.999   1.079   1.156   1.170   1.141   1.170   1.156   1.079
   0.999   0.971   1.052   1.006   0.966   1.038   1.047   1.067   1.089   1.271
   1.399   1.422   1.534   1.657   1.712   1.657   1.534   1.422   1.399   1.271
   1.089   1.067   1.047   1.038   0.966   1.006   1.052   0.971   0.999   1.079
   1.156   1.170
   1.409   1.357   1.235   1.175   1.100   1.092   1.159   0.982   0.875   0.906
   0.911   0.894   0.986   1.152   1.302   1.485   1.704   1.770   1.863   1.770
   1.704   1.485   1.302   1.152   0.986   0.894   0.911   0.906   0.875   0.982
   1.159   1.092   1.100   1.175   1.235   1.357   1.409   1.357   1.235   1.175
   1.100   1.092   1.159   0.982   0.875   0.906   0.911   0.894   0.986   1.152
   1.302   1.485   1.704   1.770   1.863   1.770   1.704   1.485   1.302   1.152
   0.986   0.894   0.911   0.906   0.875   0.982   1.159   1.092   1.100   1.175
   1.235   1.357
   1.093   1.136   1.115   1.131   1.081   1.095   1.108   0.969   0.832   0.787
   0.821   0.835   0.908   0.941   1.148   1.467   1.706   2.153   2.337   2.153
   1.706   1.467   1.148   0.941   0.908   0.835   0.821   0.787   0.832   0.969
   1.108   1.095   1.081   1.131   1.115   1.136   1.093   1.136   1.115   1.131
   1.081   1.095   1.108   0.969   0.832   0.787   0.821   0.835   0.908   0.941
   1.148   1.467   1.706   2.153   2.337   2.153   1.706   1.467   1.148   0.941
   0.908   0.835   0.821   0.787   0.832   0.969   1.108   1.095   1.081   1.131
   1.115   1.136
   1.696   1.697   1.549   1.418   1.352   1.243   1.108   1.009   0.885   0.831
   0.861   0.891   0.940   0.999   1.208   1.539   1.673   2.257   2.623   2.257
   1.673   1.539   1.208   0.999   0.940   0.891   0.861   0.831   0.885   1.009
   1.108   1.243   1.352   1.418   1.549   1.697   1.696   1.697   1.549   1.418
   1.352   1.243   1.108   1.009   0.885   0.831   0.861   0.891   0.940   0.999
   1.208   1.539   1.673   2.257   2.623   2.257   1.673   1.539   1.208   0.999
   0.940   0.891   0.861   0.831   0.885   1.009   1.108   1.243   1.352   1.418
   1.549   1.697
   2.263   2.117   1.848   1.426   1.279   1.165   1.044   0.972   0.863   0.890
   0.866   0.802   0.938   1.038   1.180   1.407   1.590   1.779   1.886   1.779
   1.590   1.407   1.180   1.038   0.938   0.802   0.866   0.890   0.863   0.972
   1.044   1.165   1.279   1.426   1.848   2.117   2.263   2.117   1.848   1.426
   1.279   1.165   1.044   0.972   0.863   0.890   0.866   0.802   0.938   1.038
   1.180   1.407   1.590   1.779   1.886   1.779   1.590   1.407   1.180   1.038
   0.938   0.802   0.866   0.890   0.863   0.972   1.044   1.165   1.279   1.426
   1.848   2.117
   1.318   1.388   1.329   0.938   0.838   0.817   0.792   0.825   0.770   0.832
   0.868   0.870   0.817   0.820   0.910   0.963   1.086   1.068   1.000   1.068
   1.086   0.963   0.910   0.820   0.817   0.870   0.868   0.832   0.770   0.825
   0.792   0.817   0.838   0.938   1.329   1.388   1.318   1.388   1.329   0.938
   0.838   0.817   0.792   0.825   0.770   0.832   0.868   0.870   0.817   0.820
   0.910   0.963   1.086   1.068   1.000   1.068   1.086   0.963   0.910   0.820
   0.817   0.870   0.868   0.832   0.770   0.825   0.792   0.817   0.838   0.938
   1.329   1.388
   0.705   0.783   0.764   0.626   0.745   0.742   0.715   0.623   0.568   0.692
   0.882   0.900   0.718   0.660   0.722   0.713   0.712   0.673   0.631   0.673
   0.712   0.713   0.722   0.660   0.718   0.900   0.882   0.692   0.568   0.623
   0.715   0.742   0.745   0.626   0.764   0.783   0.705   0.783   0.764   0.626
   0.745   0.742   0.715   0.623   0.568   0.692   0.882   0.900   0.718   0.660
   0.722   0.713   0.712   0.673   0.631   0.673   0.712   0.713   0.722   0.660
   0.718   0.900   0.882   0.692   0.568   0.623   0.715   0.742   0.745   0.626
   0.764   0.783
   0.906   0.730   0.632   0.598   0.703   0.613   0.514   0.497   0.475   0.490
   0.845   0.872   0.751   0.704   0.703   0.688   0.553   0.556   0.495   0.556
   0.553   0.688   0.703   0.704   0.751   0.872   0.845   0.490   0.475   0.497
   0.514   0.613   0.703   0.598   0.632   0.730   0.906   0.730   0.632   0.598
   0.703   0.613   0.514   0.497   0.475   0.490   0.845   0.872   0.751   0.704
   0.703   0.688   0.553   0.556   0.495   0.556   0.553   0.688   0.703   0.704
   0.751   0.872   0.845   0.490   0.475   0.497   0.514   0.613   0.703   0.598
   0.632   0.730
   1.435   1.428   1.300   1.282   1.012   0.827   0.868   0.971   0.794   0.865
   1.168   1.099   1.109   1.062   0.755   0.848   0.764   0.635   0.619   0.635
   0.764   0.848   0.755   1.062   1.109   1.099   1.168   0.865   0.794   0.971
   0.868   0.827   1.012   1.282   1.300   1.428   1.435   1.428   1.300   1.282
   1.012   0.827   0.868   0.971   0.794   0.865   1.168   1.099   1.109   1.062
   0.755   0.848   0.764   0.635   0.619   0.635   0.764   0.848   0.755   1.062
   1.109   1.099   1.168   0.865   0.794   0.971   0.868   0.827   1.012   1.282
   1.300   1.428
   2.111   2.083   2.137   2.075   1.922   2.019   2.059   2.016   1.800   1.825
   1.657   1.704   1.655   1.532   1.214   1.475   1.471   1.264   1.587   1.264
   1.471   1.475   1.214   1.532   1.655   1.704   1.657   1.825   1.800   2.016
   2.059   2.019   1.922   2.075   2.137   2.083   2.111   2.083   2.137   2.075
   1.922   2.019   2.059   2.016   1.800   1.825   1.657   1.704   1.655   1.532
   1.214   1.475   1.471   1.264   1.587   1.264   1.471   1.475   1.214   1.532
   1.655   1.704   1.657   1.825   1.800   2.016   2.059   2.019   1.922   2.075
   2.137   2.083
   1.876   1.731   1.970   1.827   2.240   2.379   2.219   1.862   1.773   1.822
   1.503   1.608   1.664   1.747   1.570   1.646   1.409   1.668   2.350   1.668
   1.409   1.646   1.570   1.747   1.664   1.608   1.503   1.822   1.773   1.862
   2.219   2.379   2.240   1.827   1.970   1.731   1.876   1.731   1.970   1.827
   2.240   2.379   2.219   1.862   1.773   1.822   1.503   1.608   1.664   1.747
   1.570   1.646   1.409   1.668   2.350   1.668   1.409   1.646   1.570   1.747
   1.664   1.608   1.503   1.822   1.773   1.862   2.219   2.379   2.240   1.827
   1.970   1.731
   0.771   1.031   1.317   0.791   1.278   1.156   1.091   0.603   0.745   1.069
   0.905   0.627   0.961   1.214   0.944   0.909   0.739   1.077   1.510   1.077
   0.739   0.909   0.944   1.214   0.961   0.627   0.905   1.069   0.745   0.603
   1.091   1.156   1.278   0.791   1.317   1.031   0.771   1.031   1.317   0.791
   1.278   1.156   1.091   0.603   0.745   1.069   0.905   0.627   0.961   1.214
   0.944   0.909   0.739   1.077   1.510   1.077   0.739   0.909   0.944   1.214
   0.961   0.627   0.905   1.069   0.745   0.603   1.091   1.156   1.278   0.791
   1.317   1.031
 200       5.00   72    0 5.00   15    0
  14.523  14.523  14.523  14.523  14.523  14.523  14.523  14.523  14.523  14.523
  14.523  14.523  14.523  14.523  14.523  14.523  14.523  14.523  14.523  14.523
  14.523  14.523  14.523  14.523  14.523  14.523  14.523  14.523  14.523  14.523
  14.523  14.523  14.523  14.523  14.523  14.523  14.523  14.523  14.523  14.523
  14.523  14.523  14.523  14.523  14.523  14.523  14.523  14.523  14.523  14.523
  14.523  14.523  14.523  14.523  14.523  14.523  14.523  14.523  14.523  14.523
  14.523  14.523  14.523  14.523  14.523  14.523  14.523  14.523  14.523  14.523
  14.523  14.523
   6.947   7.061   6.920   6.819   6.996   6.997   7.141   7.269   7.046   7.142
   7.283   7.485   7.540   7.622   7.798   7.776   7.766   7.708   7.865   7.708
   7.766   7.776   7.798   7.622   7.540   7.485   7.283   7.142   7.046   7.269
   7.141   6.997   6.996   6.819   6.920   7.061   6.947   7.061   6.920   6.819
   6.996   6.997   7.141   7.269   7.046   7.142   7.283   7.485   7.540   7.622
   7.798   7.776   7.766   7.708   7.865   7.708   7.766   7.776   7.798   7.622
   7.540   7.485   7.283   7.142   7.046   7.269   7.141   6.997   6.996   6.819
   6.920   7.061
   2.330   2.412   2.412   2.400   2.417   2.393   2.541   2.573   2.511   2.528
   2.555   2.758   2.696   2.706   2.740   2.713   2.873   2.892   2.943   2.892
   2.873   2.713   2.740   2.706   2.696   2.758   2.555   2.528   2.511   2.573
   2.541   2.393   2.417   2.400   2.412   2.412   2.330   2.412   2.412   2.400
   2.417   2.393   2.541   2.573   2.511   2.528   2.555   2.758   2.696   2.706
   2.740   2.713   2.873   2.892   2.943   2.892   2.873   2.713   2.740   2.706
   2.696   2.758   2.555   2.528   2.511   2.573   2.541   2.393   2.417   2.400
   2.412   2.412
   0.890   0.899   0.943   0.998   0.918   0.819   0.939   0.978   0.992   1.092
   1.079   1.109   1.162   1.131   1.147   1.117   1.221   1.243   1.189   1.243
   1.221   1.117   1.147   1.131   1.162   1.109   1.079   1.092   0.992   0.978
   0.939   0.819   0.918   0.998   0.943   0.899   0.890   0.899   0.943   0.998
   0.918   0.819   0.939   0.978   0.992   1.092   1.079   1.109   1.162   1.131
   1.147   1.117   1.221   1.243   1.189   1.243   1.221   1.117   1.147   1.131
   1.162   1.109   1.079   1.092   0.992   0.978   0.939   0.819   0.918   0.998
   0.943   0.899
   0.329   0.313   0.406   0.341   0.329   0.383   0.365   0.396   0.467   0.527
   0.587   0.555   0.515   0.551   0.635   0.600   0.587   0.525   0.572   0.525
   0.587   0.600   0.635   0.551   0.515   0.555   0.587   0.527   0.467   0.396
   0.365   0.383   0.329   0.341   0.406   0.313   0.329   0.313   0.406   0.341
   0.329   0.383   0.365   0.396   0.467   0.527   0.587   0.555   0.515   0.551
   0.635   0.600   0.587   0.525   0.572   0.525   0.587   0.600   0.635   0.551
   0.515   0.555   0.587   0.527   0.467   0.396   0.365   0.383   0.329   0.341
   0.406   0.313
   0.071   0.106   0.201   0.094   0.094   0.171   0.133   0.186   0.241   0.236
   0.330   0.344   0.240   0.255   0.296   0.271   0.227   0.184   0.338   0.184
   0.227   0.271   0.296   0.255   0.240   0.344   0.330   0.236   0.241   0.186
   0.133   0.171   0.094   0.094   0.201   0.106   0.071   0.106   0.201   0.094
   0.094   0.171   0.133   0.186   0.241   0.236   0.330   0.344   0.240   0.255
   0.296   0.271   0.227   0.184   0.338   0.184   0.227   0.271   0.296   0.255
   0.240   0.344   0.330   0.236   0.241   0.186   0.133   0.171   0.094   0.094
   0.201   0.106
   0.068   0.074   0.127   0.079   0.075   0.083   0.083   0.092   0.076   0.174
   0.225   0.173   0.174   0.143   0.147   0.132   0.145   0.152   0.185   0.152
   0.145   0.132   0.147   0.143   0.174   0.173   0.225   0.174   0.076   0.092
   0.083   0.083   0.075   0.079   0.127   0.074   0.068   0.074   0.127   0.079
   0.075   0.083   0.083   0.092   0.076   0.174   0.225   0.173   0.174   0.143
   0.147   0.132   0.145   0.152   0.185   0.152   0.145   0.132   0.147   0.143
   0.174   0.173   0.225   0.174   0.076   0.092   0.083   0.083   0.075   0.079
   0.127   0.074
   0.110   0.098   0.096   0.062   0.067   0.063   0.102   0.107   0.117   0.202
   0.131   0.180   0.163   0.152   0.193   0.175   0.130   0.104   0.080   0.104
   0.130   0.175   0.193   0.152   0.163   0.180   0.131   0.202   0.117   0.107
   0.102   0.063   0.067   0.062   0.096   0.098   0.110   0.098   0.096   0.062
   0.067   0.063   0.102   0.107   0.117   0.202   0.131   0.180   0.163   0.152
   0.193   0.175   0.130   0.104   0.080   0.104   0.130   0.175   0.193   0.152
   0.163   0.180   0.131   0.202   0.117   0.107   0.102   0.063   0.067   0.062
   0.096   0.098
   0.075   0.111   0.158   0.074   0.186   0.248   0.254   0.333   0.190   0.287
   0.338   0.439   0.379   0.227   0.222   0.274   0.171   0.140   0.246   0.140
   0.171   0.274   0.222   0.227   0.379   0.439   0.338   0.287   0.190   0.333
   0.254   0.248   0.186   0.074   0.158   0.111   0.075   0.111   0.158   0.074
   0.186   0.248   0.254   0.333   0.190   0.287   0.338   0.439   0.379   0.227
   0.222   0.274   0.171   0.140   0.246   0.140   0.171   0.274   0.222   0.227
   0.379   0.439   0.338   0.287   0.190   0.333   0.254   0.248   0.186   0.074
   0.158   0.111
   0.308   0.392   0.521   0.370   0.449   0.528   0.563   0.698   0.398   0.536
   0.706   0.679   0.650   0.551   0.313   0.443   0.373   0.438   0.522   0.438
   0.373   0.443   0.313   0.551   0.650   0.679   0.706   0.536   0.398   0.698
   0.563   0.528   0.449   0.370   0.521   0.392   0.308   0.392   0.521   0.370
   0.449   0.528   0.563   0.698   0.398   0.536   0.706   0.679   0.650   0.551
   0.313   0.443   0.373   0.438   0.522   0.438   0.373   0.443   0.313   0.551
   0.650   0.679   0.706   0.536   0.398   0.698   0.563   0.528   0.449   0.370
   0.521   0.392
   1.011   0.686   0.681   0.588   0.505   0.646   0.654   0.599   0.553   0.691
   0.771   0.525   0.580   0.674   0.569   0.565   0.617   0.586   0.642   0.586
   0.617   0.565   0.569   0.674   0.580   0.525   0.771   0.691   0.553   0.599
   0.654   0.646   0.505   0.588   0.681   0.686   1.011   0.686   0.681   0.588
   0.505   0.646   0.654   0.599   0.553   0.691   0.771   0.525   0.580   0.674
   0.569   0.565   0.617   0.586   0.642   0.586   0.617   0.565   0.569   0.674
   0.580   0.525   0.771   0.691   0.553   0.599   0.654   0.646   0.505   0.588
   0.681   0.686
   1.175   1.092   0.809   0.818   0.701   0.639   0.539   0.326   0.407   0.676
   0.650   0.572   0.841   0.882   0.855   0.799   0.840   0.573   0.855   0.573
   0.840   0.799   0.855   0.882   0.841   0.572   0.650   0.676   0.407   0.326
   0.539   0.639   0.701   0.818   0.809   1.092   1.175   1.092   0.809   0.818
   0.701   0.639   0.539   0.326   0.407   0.676   0.650   0.572   0.841   0.882
   0.855   0.799   0.840   0.573   0.855   0.573   0.840   0.799   0.855   0.882
   0.841   0.572   0.650   0.676   0.407   0.326   0.539   0.639   0.701   0.818
   0.809   1.092
   0.894   1.057   0.647   0.889   0.819   0.494   0.329   0.343   0.394   0.642
   0.610   0.490   0.654   0.772   0.737   0.918   0.819   0.610   0.708   0.610
   0.819   0.918   0.737   0.772   0.654   0.490   0.610   0.642   0.394   0.343
   0.329   0.494   0.819   0.889   0.647   1.057   0.894   1.057   0.647   0.889
   0.819   0.494   0.329   0.343   0.394   0.642   0.610   0.490   0.654   0.772
   0.737   0.918   0.819   0.610   0.708   0.610   0.819   0.918   0.737   0.772
   0.654   0.490   0.610   0.642   0.394   0.343   0.329   0.494   0.819   0.889
   0.647   1.057
   0.983   0.602   0.386   0.763   0.648   0.411   0.405   0.658   0.510   0.411
   0.478   0.356   0.360   0.270   0.283   0.646   0.421   0.403   0.541   0.403
   0.421   0.646   0.283   0.270   0.360   0.356   0.478   0.411   0.510   0.658
   0.405   0.411   0.648   0.763   0.386   0.602   0.983   0.602   0.386   0.763
   0.648   0.411   0.405   0.658   0.510   0.411   0.478   0.356   0.360   0.270
   0.283   0.646   0.421   0.403   0.541   0.403   0.421   0.646   0.283   0.270
   0.360   0.356   0.478   0.411   0.510   0.658   0.405   0.411   0.648   0.763
   0.386   0.602
   1.025   0.797   0.634   0.809   0.860   0.786   0.663   1.048   1.080   0.722
   0.558   0.504   0.791   0.672   0.185   0.608   0.701   0.919   1.399   0.919
   0.701   0.608   0.185   0.672   0.791   0.504   0.558   0.722   1.080   1.048
   0.663   0.786   0.860   0.809   0.634   0.797   1.025   0.797   0.634   0.809
   0.860   0.786   0.663   1.048   1.080   0.722   0.558   0.504   0.791   0.672
   0.185   0.608   0.701   0.919   1.399   0.919   0.701   0.608   0.185   0.672
   0.791   0.504   0.558   0.722   1.080   1.048   0.663   0.786   0.860   0.809
   0.634   0.797
 110       5.00   72    0 5.00   15    0
   0.040   0.040   0.040   0.040   0.040   0.040   0.040   0.040   0.040   0.040
   0.040   0.040   0.040   0.040   0.040   0.040   0.040   0.040   0.040   0.040
   0.040   0.040   0.040   0.040   0.040   0.040   0.040   0.040   0.040   0.040
   0.040   0.040   0.040   0.040   0.040   0.040   0.040   0.040   0.040   0.040
   0.040   0.040   0.040   0.040   0.040   0.040   0.040   0.040   0.040   0.040
   0.040   0.040   0.040   0.040   0.040   0.040   0.040   0.040   0.040   0.040
   0.040   0.040   0.040   0.040   0.040   0.040   0.040   0.040   0.040   0.040
   0.040   0.040
   0.051   0.049   0.050   0.051   0.050   0.051   0.042   0.050   0.056   0.057
   0.049   0.041   0.039   0.032   0.039   0.048   0.048   0.046   0.043   0.046
   0.048   0.048   0.039   0.032   0.039   0.041   0.049   0.057   0.056   0.050
   0.042   0.051   0.050   0.051   0.050   0.049   0.051   0.049   0.050   0.051
   0.050   0.051   0.042   0.050   0.056   0.057   0.049   0.041   0.039   0.032
   0.039   0.048   0.048   0.046   0.043   0.046   0.048   0.048   0.039   0.032
   0.039   0.041   0.049   0.057   0.056   0.050   0.042   0.051   0.050   0.051
   0.050   0.049
   0.071   0.069   0.067   0.068   0.074   0.079   0.065   0.083   0.086   0.087
   0.079   0.060   0.062   0.056   0.055   0.076   0.074   0.066   0.059   0.066
   0.074   0.076   0.055   0.056   0.062   0.060   0.079   0.087   0.086   0.083
   0.065   0.079   0.074   0.068   0.067   0.069   0.071   0.069   0.067   0.068
   0.074   0.079   0.065   0.083   0.086   0.087   0.079   0.060   0.062   0.056
   0.055   0.076   0.074   0.066   0.059   0.066   0.074   0.076   0.055   0.056
   0.062   0.060   0.079   0.087   0.086   0.083   0.065   0.079   0.074   0.068
   0.067   0.069
   0.194   0.172   0.162   0.153   0.148   0.150   0.156   0.166   0.137   0.123
   0.133   0.113   0.113   0.113   0.118   0.115   0.109   0.120   0.100   0.120
   0.109   0.115   0.118   0.113   0.113   0.113   0.133   0.123   0.137   0.166
   0.156   0.150   0.148   0.153   0.162   0.172   0.194   0.172   0.162   0.153
   0.148   0.150   0.156   0.166   0.137   0.123   0.133   0.113   0.113   0.113
   0.118   0.115   0.109   0.120   0.100   0.120   0.109   0.115   0.118   0.113
   0.113   0.113   0.133   0.123   0.137   0.166   0.156   0.150   0.148   0.153
   0.162   0.172
   0.527   0.521   0.529   0.493   0.430   0.427   0.379   0.343   0.308   0.295
   0.277   0.272   0.287   0.269   0.265   0.244   0.250   0.254   0.237   0.254
   0.250   0.244   0.265   0.269   0.287   0.272   0.277   0.295   0.308   0.343
   0.379   0.427   0.430   0.493   0.529   0.521   0.527   0.521   0.529   0.493
   0.430   0.427   0.379   0.343   0.308   0.295   0.277   0.272   0.287   0.269
   0.265   0.244   0.250   0.254   0.237   0.254   0.250   0.244   0.265   0.269
   0.287   0.272   0.277   0.295   0.308   0.343   0.379   0.427   0.430   0.493
   0.529   0.521
   1.513   1.466   1.424   1.394   1.311   1.273   1.149   1.025   0.909   0.801
   0.727   0.698   0.672   0.622   0.578   0.563   0.566   0.584   0.661   0.584
   0.566   0.563   0.578   0.622   0.672   0.698   0.727   0.801   0.909   1.025
   1.149   1.273   1.311   1.394   1.424   1.466   1.513   1.466   1.424   1.394
   1.311   1.273   1.149   1.025   0.909   0.801   0.727   0.698   0.672   0.622
   0.578   0.563   0.566   0.584   0.661   0.584   0.566   0.563   0.578   0.622
   0.672   0.698   0.727   0.801   0.909   1.025   1.149   1.273   1.311   1.394
   1.424   1.466
   2.342   2.279   2.248   2.288   2.336   2.399   2.396   2.239   1.957   1.638
   1.474   1.368   1.254   1.145   1.052   1.060   1.066   1.078   1.109   1.078
   1.066   1.060   1.052   1.145   1.254   1.368   1.474   1.638   1.957   2.239
   2.396   2.399   2.336   2.288   2.248   2.279   2.342   2.279   2.248   2.288
   2.336   2.399   2.396   2.239   1.957   1.638   1.474   1.368   1.254   1.145
   1.052   1.060   1.066   1.078   1.109   1.078   1.066   1.060   1.052   1.145
   1.254   1.368   1.474   1.638   1.957   2.239   2.396   2.399   2.336   2.288
   2.248   2.279
   1.815   1.839   1.953   2.056   2.237   2.509   2.810   2.979   2.836   2.516
   2.258   2.038   1.809   1.618   1.530   1.463   1.408   1.341   1.203   1.341
   1.408   1.463   1.530   1.618   1.809   2.038   2.258   2.516   2.836   2.979
   2.810   2.509   2.237   2.056   1.953   1.839   1.815   1.839   1.953   2.056
   2.237   2.509   2.810   2.979   2.836   2.516   2.258   2.038   1.809   1.618
   1.530   1.463   1.408   1.341   1.203   1.341   1.408   1.463   1.530   1.618
   1.809   2.038   2.258   2.516   2.836   2.979   2.810   2.509   2.237   2.056
   1.953   1.839
   1.025   1.085   1.236   1.418   1.581   1.832   2.238   2.773   2.960   3.040
   3.057   2.816   2.474   2.013   1.765   1.587   1.486   1.361   1.220   1.361
   1.486   1.587   1.765   2.013   2.474   2.816   3.057   3.040   2.960   2.773
   2.238   1.832   1.581   1.418   1.236   1.085   1.025   1.085   1.236   1.418
   1.581   1.832   2.238   2.773   2.960   3.040   3.057   2.816   2.474   2.013
   1.765   1.587   1.486   1.361   1.220   1.361   1.486   1.587   1.765   2.013
   2.474   2.816   3.057   3.040   2.960   2.773   2.238   1.832   1.581   1.418
   1.236   1.085
   0.912   0.829   0.913   1.094   1.160   1.269   1.524   1.982   2.227   2.497
   2.804   2.662   2.344   1.837   1.576   1.419   1.262   1.141   1.062   1.141
   1.262   1.419   1.576   1.837   2.344   2.662   2.804   2.497   2.227   1.982
   1.524   1.269   1.160   1.094   0.913   0.829   0.912   0.829   0.913   1.094
   1.160   1.269   1.524   1.982   2.227   2.497   2.804   2.662   2.344   1.837
   1.576   1.419   1.262   1.141   1.062   1.141   1.262   1.419   1.576   1.837
   2.344   2.662   2.804   2.497   2.227   1.982   1.524   1.269   1.160   1.094
   0.913   0.829
   0.754   0.695   0.815   0.816   0.798   0.925   0.994   1.131   1.287   1.348
   1.479   1.519   1.428   1.207   1.130   1.101   0.993   0.909   0.804   0.909
   0.993   1.101   1.130   1.207   1.428   1.519   1.479   1.348   1.287   1.131
   0.994   0.925   0.798   0.816   0.815   0.695   0.754   0.695   0.815   0.816
   0.798   0.925   0.994   1.131   1.287   1.348   1.479   1.519   1.428   1.207
   1.130   1.101   0.993   0.909   0.804   0.909   0.993   1.101   1.130   1.207
   1.428   1.519   1.479   1.348   1.287   1.131   0.994   0.925   0.798   0.816
   0.815   0.695
   0.551   0.517   0.630   0.475   0.532   0.674   0.672   0.597   0.671   0.617
   0.580   0.685   0.808   0.783   0.710   0.756   0.744   0.663   0.588   0.663
   0.744   0.756   0.710   0.783   0.808   0.685   0.580   0.617   0.671   0.597
   0.672   0.674   0.532   0.475   0.630   0.517   0.551   0.517   0.630   0.475
   0.532   0.674   0.672   0.597   0.671   0.617   0.580   0.685   0.808   0.783
   0.710   0.756   0.744   0.663   0.588   0.663   0.744   0.756   0.710   0.783
   0.808   0.685   0.580   0.617   0.671   0.597   0.672   0.674   0.532   0.475
   0.630   0.517
   0.298   0.212   0.323   0.167   0.292   0.469   0.539   0.448   0.323   0.278
   0.313   0.278   0.354   0.425   0.406   0.409   0.368   0.410   0.449   0.410
   0.368   0.409   0.406   0.425   0.354   0.278   0.313   0.278   0.323   0.448
   0.539   0.469   0.292   0.167   0.323   0.212   0.298   0.212   0.323   0.167
   0.292   0.469   0.539   0.448   0.323   0.278   0.313   0.278   0.354   0.425
   0.406   0.409   0.368   0.410   0.449   0.410   0.368   0.409   0.406   0.425
   0.354   0.278   0.313   0.278   0.323   0.448   0.539   0.469   0.292   0.167
   0.323   0.212
   0.236   0.198   0.275   0.114   0.218   0.411   0.478   0.451   0.205   0.326
   0.263   0.184   0.121   0.211   0.289   0.327   0.233   0.354   0.401   0.354
   0.233   0.327   0.289   0.211   0.121   0.184   0.263   0.326   0.205   0.451
   0.478   0.411   0.218   0.114   0.275   0.198   0.236   0.198   0.275   0.114
   0.218   0.411   0.478   0.451   0.205   0.326   0.263   0.184   0.121   0.211
   0.289   0.327   0.233   0.354   0.401   0.354   0.233   0.327   0.289   0.211
   0.121   0.184   0.263   0.326   0.205   0.451   0.478   0.411   0.218   0.114
   0.275   0.198
   0.458   0.460   0.313   0.148   0.251   0.412   0.442   0.361   0.157   0.388
   0.287   0.178   0.155   0.365   0.303   0.457   0.447   0.405   0.400   0.405
   0.447   0.457   0.303   0.365   0.155   0.178   0.287   0.388   0.157   0.361
   0.442   0.412   0.251   0.148   0.313   0.460   0.458   0.460   0.313   0.148
   0.251   0.412   0.442   0.361   0.157   0.388   0.287   0.178   0.155   0.365
   0.303   0.457   0.447   0.405   0.400   0.405   0.447   0.457   0.303   0.365
   0.155   0.178   0.287   0.388   0.157   0.361   0.442   0.412   0.251   0.148
   0.313   0.460
  4  1      2.9906573E+00
  4  2     -3.1857002E-04
  4  3     -6.5252238E-01
  6  1     -3.4911977E+00
  6  2      8.0215592E-01
  6  3     -1.3155086E+00
  6  4     -1.4701866E-01
  8  1      3.6672019E+00
  8  2      1.1591330E-01
  8  3     -8.4510529E-01
  8  4      2.4770168E-02
  8  5      3.0252424E-01
 10  1     -1.9784522E+00
 10  2      4.0615972E-01
 10  3     -9.6870486E-01
 10  4     -3.8991663E-01
 10  5      7.3555307E-02
 10  6      4.7997757E-01
 12  1      1.9245332E+00  2.0468268E+00
 12  2      2.9646371E-01 -8.2677543E-01
 12  3     -4.7499726E-01  9.0808636E-01
 12  4     -2.0494962E-01 -5.1051443E-01
 12  5     -4.5859339E-02  2.8937775E-01
 12  6      6.9184587E-02  1.2380421E-01
 12  7      3.0616909E-01  1.9597320E-01
 14  1     -2.4475040E+00
 14  2      4.1984841E-01
 14  3     -1.1348186E-01
 14  4     -5.4213433E-01
 14  5      1.2817957E-01
 14  6     -1.5516455E-02
 14  7      2.4727668E-01
 14  8      1.8067514E-01
 211       5.00   72    0 5.00   18    0
   0.555   0.555   0.556   0.556   0.556   0.557   0.557   0.558   0.559   0.559
   0.560   0.561   0.561   0.562   0.563   0.563   0.563   0.564   0.564   0.564
   0.563   0.563   0.563   0.562   0.561   0.561   0.560   0.559   0.559   0.558
   0.557   0.557   0.556   0.556   0.556   0.555   0.555   0.555   0.556   0.556
   0.556   0.557   0.557   0.558   0.559   0.559   0.560   0.561   0.561   0.562
   0.563   0.563   0.563   0.564   0.564   0.564   0.563   0.563   0.563   0.562
   0.561   0.561   0.560   0.559   0.559   0.558   0.557   0.557   0.556   0.556
   0.556   0.555
   0.679   0.679   0.680   0.682   0.684   0.687   0.691   0.696   0.702   0.709
   0.716   0.724   0.733   0.741   0.748   0.754   0.759   0.762   0.764   0.762
   0.759   0.754   0.748   0.741   0.733   0.724   0.716   0.709   0.702   0.696
   0.691   0.687   0.684   0.682   0.680   0.679   0.679   0.679   0.680   0.682
   0.684   0.687   0.691   0.696   0.702   0.709   0.716   0.724   0.733   0.741
   0.748   0.754   0.759   0.762   0.764   0.762   0.759   0.754   0.748   0.741
   0.733   0.724   0.716   0.709   0.702   0.696   0.691   0.687   0.684   0.682
   0.680   0.679
   0.707   0.707   0.707   0.707   0.708   0.710   0.715   0.722   0.734   0.751
   0.773   0.799   0.829   0.861   0.893   0.922   0.944   0.959   0.964   0.959
   0.944   0.922   0.893   0.861   0.829   0.799   0.773   0.751   0.734   0.722
   0.715   0.710   0.708   0.707   0.707   0.707   0.707   0.707   0.707   0.707
   0.708   0.710   0.715   0.722   0.734   0.751   0.773   0.799   0.829   0.861
   0.893   0.922   0.944   0.959   0.964   0.959   0.944   0.922   0.893   0.861
   0.829   0.799   0.773   0.751   0.734   0.722   0.715   0.710   0.708   0.707
   0.707   0.707
   0.585   0.583   0.579   0.573   0.564   0.554   0.546   0.543   0.547   0.564
   0.597   0.646   0.711   0.788   0.869   0.946   1.010   1.052   1.066   1.052
   1.010   0.946   0.869   0.788   0.711   0.646   0.597   0.564   0.547   0.543
   0.546   0.554   0.564   0.573   0.579   0.583   0.585   0.583   0.579   0.573
   0.564   0.554   0.546   0.543   0.547   0.564   0.597   0.646   0.711   0.788
   0.869   0.946   1.010   1.052   1.066   1.052   1.010   0.946   0.869   0.788
   0.711   0.646   0.597   0.564   0.547   0.543   0.546   0.554   0.564   0.573
   0.579   0.583
   0.595   0.592   0.582   0.564   0.537   0.502   0.462   0.422   0.392   0.383
   0.404   0.462   0.557   0.685   0.831   0.977   1.101   1.185   1.215   1.185
   1.101   0.977   0.831   0.685   0.557   0.462   0.404   0.383   0.392   0.422
   0.462   0.502   0.537   0.564   0.582   0.592   0.595   0.592   0.582   0.564
   0.537   0.502   0.462   0.422   0.392   0.383   0.404   0.462   0.557   0.685
   0.831   0.977   1.101   1.185   1.215   1.185   1.101   0.977   0.831   0.685
   0.557   0.462   0.404   0.383   0.392   0.422   0.462   0.502   0.537   0.564
   0.582   0.592
   0.994   0.988   0.969   0.935   0.884   0.816   0.734   0.646   0.564   0.506
   0.490   0.530   0.632   0.790   0.986   1.191   1.373   1.497   1.541   1.497
   1.373   1.191   0.986   0.790   0.632   0.530   0.490   0.506   0.564   0.646
   0.734   0.816   0.884   0.935   0.969   0.988   0.994   0.988   0.969   0.935
   0.884   0.816   0.734   0.646   0.564   0.506   0.490   0.530   0.632   0.790
   0.986   1.191   1.373   1.497   1.541   1.497   1.373   1.191   0.986   0.790
   0.632   0.530   0.490   0.506   0.564   0.646   0.734   0.816   0.884   0.935
   0.969   0.988
   1.567   1.555   1.520   1.463   1.386   1.291   1.182   1.066   0.955   0.866
   0.818   0.830   0.910   1.058   1.255   1.472   1.668   1.805   1.855   1.805
   1.668   1.472   1.255   1.058   0.910   0.830   0.818   0.866   0.955   1.066
   1.182   1.291   1.386   1.463   1.520   1.555   1.567   1.555   1.520   1.463
   1.386   1.291   1.182   1.066   0.955   0.866   0.818   0.830   0.910   1.058
   1.255   1.472   1.668   1.805   1.855   1.805   1.668   1.472   1.255   1.058
   0.910   0.830   0.818   0.866   0.955   1.066   1.182   1.291   1.386   1.463
   1.520   1.555
   1.769   1.747   1.686   1.599   1.498   1.394   1.294   1.201   1.120   1.057
   1.023   1.028   1.079   1.179   1.319   1.479   1.629   1.737   1.776   1.737
   1.629   1.479   1.319   1.179   1.079   1.028   1.023   1.057   1.120   1.201
   1.294   1.394   1.498   1.599   1.686   1.747   1.769   1.747   1.686   1.599
   1.498   1.394   1.294   1.201   1.120   1.057   1.023   1.028   1.079   1.179
   1.319   1.479   1.629   1.737   1.776   1.737   1.629   1.479   1.319   1.179
   1.079   1.028   1.023   1.057   1.120   1.201   1.294   1.394   1.498   1.599
   1.686   1.747
   1.374   1.341   1.255   1.140   1.027   0.935   0.874   0.843   0.837   0.850
   0.876   0.909   0.945   0.987   1.038   1.099   1.161   1.210   1.228   1.210
   1.161   1.099   1.038   0.987   0.945   0.909   0.876   0.850   0.837   0.843
   0.874   0.935   1.027   1.140   1.255   1.341   1.374   1.341   1.255   1.140
   1.027   0.935   0.874   0.843   0.837   0.850   0.876   0.909   0.945   0.987
   1.038   1.099   1.161   1.210   1.228   1.210   1.161   1.099   1.038   0.987
   0.945   0.909   0.876   0.850   0.837   0.843   0.874   0.935   1.027   1.140
   1.255   1.341
   0.832   0.794   0.697   0.577   0.474   0.409   0.386   0.402   0.452   0.527
   0.612   0.684   0.724   0.726   0.704   0.680   0.666   0.664   0.665   0.664
   0.666   0.680   0.704   0.726   0.724   0.684   0.612   0.527   0.452   0.402
   0.386   0.409   0.474   0.577   0.697   0.794   0.832   0.794   0.697   0.577
   0.474   0.409   0.386   0.402   0.452   0.527   0.612   0.684   0.724   0.726
   0.704   0.680   0.666   0.664   0.665   0.664   0.666   0.680   0.704   0.726
   0.724   0.684   0.612   0.527   0.452   0.402   0.386   0.409   0.474   0.577
   0.697   0.794
   0.807   0.773   0.690   0.599   0.534   0.500   0.487   0.488   0.513   0.576
   0.667   0.755   0.804   0.798   0.752   0.700   0.667   0.655   0.653   0.655
   0.667   0.700   0.752   0.798   0.804   0.755   0.667   0.576   0.513   0.488
   0.487   0.500   0.534   0.599   0.690   0.773   0.807   0.773   0.690   0.599
   0.534   0.500   0.487   0.488   0.513   0.576   0.667   0.755   0.804   0.798
   0.752   0.700   0.667   0.655   0.653   0.655   0.667   0.700   0.752   0.798
   0.804   0.755   0.667   0.576   0.513   0.488   0.487   0.500   0.534   0.599
   0.690   0.773
   1.399   1.375   1.323   1.283   1.274   1.270   1.237   1.168   1.100   1.082
   1.127   1.202   1.255   1.260   1.232   1.208   1.211   1.231   1.242   1.231
   1.211   1.208   1.232   1.260   1.255   1.202   1.127   1.082   1.100   1.168
   1.237   1.270   1.274   1.283   1.323   1.375   1.399   1.375   1.323   1.283
   1.274   1.270   1.237   1.168   1.100   1.082   1.127   1.202   1.255   1.260
   1.232   1.208   1.211   1.231   1.242   1.231   1.211   1.208   1.232   1.260
   1.255   1.202   1.127   1.082   1.100   1.168   1.237   1.270   1.274   1.283
   1.323   1.375
   1.994   1.978   1.953   1.960   2.002   2.024   1.968   1.829   1.673   1.581
   1.583   1.642   1.693   1.707   1.702   1.719   1.773   1.837   1.865   1.837
   1.773   1.719   1.702   1.707   1.693   1.642   1.583   1.581   1.673   1.829
   1.968   2.024   2.002   1.960   1.953   1.978   1.994   1.978   1.953   1.960
   2.002   2.024   1.968   1.829   1.673   1.581   1.583   1.642   1.693   1.707
   1.702   1.719   1.773   1.837   1.865   1.837   1.773   1.719   1.702   1.707
   1.693   1.642   1.583   1.581   1.673   1.829   1.968   2.024   2.002   1.960
   1.953   1.978
   1.946   1.932   1.918   1.948   2.017   2.057   1.994   1.834   1.661   1.571
   1.585   1.652   1.698   1.701   1.696   1.728   1.807   1.892   1.928   1.892
   1.807   1.728   1.696   1.701   1.698   1.652   1.585   1.571   1.661   1.834
   1.994   2.057   2.017   1.948   1.918   1.932   1.946   1.932   1.918   1.948
   2.017   2.057   1.994   1.834   1.661   1.571   1.585   1.652   1.698   1.701
   1.696   1.728   1.807   1.892   1.928   1.892   1.807   1.728   1.696   1.701
   1.698   1.652   1.585   1.571   1.661   1.834   1.994   2.057   2.017   1.948
   1.918   1.932
   1.286   1.271   1.257   1.291   1.363   1.401   1.341   1.204   1.086   1.069
   1.148   1.241   1.276   1.251   1.220   1.238   1.306   1.383   1.415   1.383
   1.306   1.238   1.220   1.251   1.276   1.241   1.148   1.069   1.086   1.204
   1.341   1.401   1.363   1.291   1.257   1.271   1.286   1.271   1.257   1.291
   1.363   1.401   1.341   1.204   1.086   1.069   1.148   1.241   1.276   1.251
   1.220   1.238   1.306   1.383   1.415   1.383   1.306   1.238   1.220   1.251
   1.276   1.241   1.148   1.069   1.086   1.204   1.341   1.401   1.363   1.291
   1.257   1.271
   0.619   0.608   0.601   0.636   0.696   0.712   0.641   0.529   0.481   0.551
   0.694   0.804   0.815   0.754   0.696   0.694   0.740   0.794   0.817   0.794
   0.740   0.694   0.696   0.754   0.815   0.804   0.694   0.551   0.481   0.529
   0.641   0.712   0.696   0.636   0.601   0.608   0.619   0.608   0.601   0.636
   0.696   0.712   0.641   0.529   0.481   0.551   0.694   0.804   0.815   0.754
   0.696   0.694   0.740   0.794   0.817   0.794   0.740   0.694   0.696   0.754
   0.815   0.804   0.694   0.551   0.481   0.529   0.641   0.712   0.696   0.636
   0.601   0.608
   0.393   0.391   0.402   0.447   0.494   0.477   0.376   0.264   0.252   0.373
   0.544   0.644   0.622   0.531   0.461   0.453   0.488   0.523   0.537   0.523
   0.488   0.453   0.461   0.531   0.622   0.644   0.544   0.373   0.252   0.264
   0.376   0.477   0.494   0.447   0.402   0.391   0.393   0.391   0.402   0.447
   0.494   0.477   0.376   0.264   0.252   0.373   0.544   0.644   0.622   0.531
   0.461   0.453   0.488   0.523   0.537   0.523   0.488   0.453   0.461   0.531
   0.622   0.644   0.544   0.373   0.252   0.264   0.376   0.477   0.494   0.447
   0.402   0.391
   0.465   0.471   0.500   0.556   0.596   0.554   0.425   0.300   0.293   0.427
   0.600   0.682   0.634   0.527   0.456   0.453   0.486   0.514   0.524   0.514
   0.486   0.453   0.456   0.527   0.634   0.682   0.600   0.427   0.293   0.300
   0.425   0.554   0.596   0.556   0.500   0.471   0.465   0.471   0.500   0.556
   0.596   0.554   0.425   0.300   0.293   0.427   0.600   0.682   0.634   0.527
   0.456   0.453   0.486   0.514   0.524   0.514   0.486   0.453   0.456   0.527
   0.634   0.682   0.600   0.427   0.293   0.300   0.425   0.554   0.596   0.556
   0.500   0.471
 200       5.00   72    0 5.00   18    0
  10.351  10.352  10.352  10.354  10.356  10.358  10.361  10.365  10.368  10.372
  10.375  10.379  10.382  10.385  10.387  10.389  10.391  10.392  10.392  10.392
  10.391  10.389  10.387  10.385  10.382  10.379  10.375  10.372  10.368  10.365
  10.361  10.358  10.356  10.354  10.352  10.352  10.351  10.352  10.352  10.354
  10.356  10.358  10.361  10.365  10.368  10.372  10.375  10.379  10.382  10.385
  10.387  10.389  10.391  10.392  10.392  10.392  10.391  10.389  10.387  10.385
  10.382  10.379  10.375  10.372  10.368  10.365  10.361  10.358  10.356  10.354
  10.352  10.352
   7.382   7.384   7.391   7.401   7.415   7.433   7.454   7.477   7.502   7.528
   7.554   7.580   7.604   7.626   7.645   7.660   7.672   7.679   7.681   7.679
   7.672   7.660   7.645   7.626   7.604   7.580   7.554   7.528   7.502   7.477
   7.454   7.433   7.415   7.401   7.391   7.384   7.382   7.384   7.391   7.401
   7.415   7.433   7.454   7.477   7.502   7.528   7.554   7.580   7.604   7.626
   7.645   7.660   7.672   7.679   7.681   7.679   7.672   7.660   7.645   7.626
   7.604   7.580   7.554   7.528   7.502   7.477   7.454   7.433   7.415   7.401
   7.391   7.384
   3.461   3.464   3.474   3.489   3.511   3.540   3.575   3.615   3.659   3.707
   3.756   3.804   3.850   3.891   3.927   3.956   3.977   3.990   3.995   3.990
   3.977   3.956   3.927   3.891   3.850   3.804   3.756   3.707   3.659   3.615
   3.575   3.540   3.511   3.489   3.474   3.464   3.461   3.464   3.474   3.489
   3.511   3.540   3.575   3.615   3.659   3.707   3.756   3.804   3.850   3.891
   3.927   3.956   3.977   3.990   3.995   3.990   3.977   3.956   3.927   3.891
   3.850   3.804   3.756   3.707   3.659   3.615   3.575   3.540   3.511   3.489
   3.474   3.464
   0.807   0.808   0.810   0.816   0.827   0.846   0.874   0.910   0.956   1.007
   1.062   1.116   1.166   1.210   1.246   1.273   1.291   1.302   1.305   1.302
   1.291   1.273   1.246   1.210   1.166   1.116   1.062   1.007   0.956   0.910
   0.874   0.846   0.827   0.816   0.810   0.808   0.807   0.808   0.810   0.816
   0.827   0.846   0.874   0.910   0.956   1.007   1.062   1.116   1.166   1.210
   1.246   1.273   1.291   1.302   1.305   1.302   1.291   1.273   1.246   1.210
   1.166   1.116   1.062   1.007   0.956   0.910   0.874   0.846   0.827   0.816
   0.810   0.808
   0.076   0.072   0.062   0.048   0.037   0.032   0.040   0.061   0.096   0.141
   0.190   0.237   0.277   0.306   0.322   0.328   0.328   0.325   0.324   0.325
   0.328   0.328   0.322   0.306   0.277   0.237   0.190   0.141   0.096   0.061
   0.040   0.032   0.037   0.048   0.062   0.072   0.076   0.072   0.062   0.048
   0.037   0.032   0.040   0.061   0.096   0.141   0.190   0.237   0.277   0.306
   0.322   0.328   0.328   0.325   0.324   0.325   0.328   0.328   0.322   0.306
   0.277   0.237   0.190   0.141   0.096   0.061   0.040   0.032   0.037   0.048
   0.062   0.072
   0.316   0.310   0.294   0.273   0.252   0.238   0.237   0.252   0.282   0.324
   0.369   0.409   0.437   0.448   0.442   0.423   0.399   0.380   0.373   0.380
   0.399   0.423   0.442   0.448   0.437   0.409   0.369   0.324   0.282   0.252
   0.237   0.238   0.252   0.273   0.294   0.310   0.316   0.310   0.294   0.273
   0.252   0.238   0.237   0.252   0.282   0.324   0.369   0.409   0.437   0.448
   0.442   0.423   0.399   0.380   0.373   0.380   0.399   0.423   0.442   0.448
   0.437   0.409   0.369   0.324   0.282   0.252   0.237   0.238   0.252   0.273
   0.294   0.310
   0.367   0.367   0.366   0.367   0.369   0.376   0.390   0.414   0.446   0.485
   0.525   0.558   0.579   0.581   0.565   0.535   0.501   0.474   0.464   0.474
   0.501   0.535   0.565   0.581   0.579   0.558   0.525   0.485   0.446   0.414
   0.390   0.376   0.369   0.367   0.366   0.367   0.367   0.367   0.366   0.367
   0.369   0.376   0.390   0.414   0.446   0.485   0.525   0.558   0.579   0.581
   0.565   0.535   0.501   0.474   0.464   0.474   0.501   0.535   0.565   0.581
   0.579   0.558   0.525   0.485   0.446   0.414   0.390   0.376   0.369   0.367
   0.366   0.367
   0.033   0.043   0.071   0.110   0.156   0.201   0.243   0.279   0.308   0.333
   0.352   0.368   0.377   0.376   0.364   0.341   0.312   0.289   0.280   0.289
   0.312   0.341   0.364   0.376   0.377   0.368   0.352   0.333   0.308   0.279
   0.243   0.201   0.156   0.110   0.071   0.043   0.033   0.043   0.071   0.110
   0.156   0.201   0.243   0.279   0.308   0.333   0.352   0.368   0.377   0.376
   0.364   0.341   0.312   0.289   0.280   0.289   0.312   0.341   0.364   0.376
   0.377   0.368   0.352   0.333   0.308   0.279   0.243   0.201   0.156   0.110
   0.071   0.043
  -0.111  -0.096  -0.055   0.004   0.070   0.135   0.191   0.234   0.257   0.261
   0.252   0.237   0.225   0.216   0.205   0.187   0.163   0.142   0.134   0.142
   0.163   0.187   0.205   0.216   0.225   0.237   0.252   0.261   0.257   0.234
   0.191   0.135   0.070   0.004  -0.055  -0.096  -0.111  -0.096  -0.055   0.004
   0.070   0.135   0.191   0.234   0.257   0.261   0.252   0.237   0.225   0.216
   0.205   0.187   0.163   0.142   0.134   0.142   0.163   0.187   0.205   0.216
   0.225   0.237   0.252   0.261   0.257   0.234   0.191   0.135   0.070   0.004
  -0.055  -0.096
   0.295   0.301   0.317   0.340   0.368   0.405   0.451   0.497   0.529   0.535
   0.515   0.481   0.449   0.424   0.400   0.369   0.331   0.298   0.285   0.298
   0.331   0.369   0.400   0.424   0.449   0.481   0.515   0.535   0.529   0.497
   0.451   0.405   0.368   0.340   0.317   0.301   0.295   0.301   0.317   0.340
   0.368   0.405   0.451   0.497   0.529   0.535   0.515   0.481   0.449   0.424
   0.400   0.369   0.331   0.298   0.285   0.298   0.331   0.369   0.400   0.424
   0.449   0.481   0.515   0.535   0.529   0.497   0.451   0.405   0.368   0.340
   0.317   0.301
   0.916   0.902   0.862   0.802   0.742   0.709   0.721   0.772   0.832   0.871
   0.874   0.852   0.820   0.789   0.752   0.701   0.639   0.587   0.566   0.587
   0.639   0.701   0.752   0.789   0.820   0.852   0.874   0.871   0.832   0.772
   0.721   0.709   0.742   0.802   0.862   0.902   0.916   0.902   0.862   0.802
   0.742   0.709   0.721   0.772   0.832   0.871   0.874   0.852   0.820   0.789
   0.752   0.701   0.639   0.587   0.566   0.587   0.639   0.701   0.752   0.789
   0.820   0.852   0.874   0.871   0.832   0.772   0.721   0.709   0.742   0.802
   0.862   0.902
   1.190   1.161   1.074   0.942   0.798   0.691   0.660   0.701   0.778   0.845
   0.878   0.882   0.874   0.862   0.839   0.797   0.743   0.695   0.675   0.695
   0.743   0.797   0.839   0.862   0.874   0.882   0.878   0.845   0.778   0.701
   0.660   0.691   0.798   0.942   1.074   1.161   1.190   1.161   1.074   0.942
   0.798   0.691   0.660   0.701   0.778   0.845   0.878   0.882   0.874   0.862
   0.839   0.797   0.743   0.695   0.675   0.695   0.743   0.797   0.839   0.862
   0.874   0.882   0.878   0.845   0.778   0.701   0.660   0.691   0.798   0.942
   1.074   1.161
   1.002   0.976   0.895   0.759   0.599   0.464   0.397   0.400   0.440   0.479
   0.500   0.512   0.527   0.547   0.566   0.581   0.593   0.603   0.607   0.603
   0.593   0.581   0.566   0.547   0.527   0.512   0.500   0.479   0.440   0.400
   0.397   0.464   0.599   0.759   0.895   0.976   1.002   0.976   0.895   0.759
   0.599   0.464   0.397   0.400   0.440   0.479   0.500   0.512   0.527   0.547
   0.566   0.581   0.593   0.603   0.607   0.603   0.593   0.581   0.566   0.547
   0.527   0.512   0.500   0.479   0.440   0.400   0.397   0.464   0.599   0.759
   0.895   0.976
   0.724   0.719   0.693   0.633   0.543   0.452   0.385   0.341   0.301   0.259
   0.223   0.208   0.213   0.231   0.270   0.349   0.465   0.576   0.623   0.576
   0.465   0.349   0.270   0.231   0.213   0.208   0.223   0.259   0.301   0.341
   0.385   0.452   0.543   0.633   0.693   0.719   0.724   0.719   0.693   0.633
   0.543   0.452   0.385   0.341   0.301   0.259   0.223   0.208   0.213   0.231
   0.270   0.349   0.465   0.576   0.623   0.576   0.465   0.349   0.270   0.231
   0.213   0.208   0.223   0.259   0.301   0.341   0.385   0.452   0.543   0.633
   0.693   0.719
   0.704   0.720   0.756   0.795   0.824   0.843   0.840   0.798   0.713   0.616
   0.542   0.495   0.444   0.378   0.340   0.405   0.588   0.796   0.888   0.796
   0.588   0.405   0.340   0.378   0.444   0.495   0.542   0.616   0.713   0.798
   0.840   0.843   0.824   0.795   0.756   0.720   0.704   0.720   0.756   0.795
   0.824   0.843   0.840   0.798   0.713   0.616   0.542   0.495   0.444   0.378
   0.340   0.405   0.588   0.796   0.888   0.796   0.588   0.405   0.340   0.378
   0.444   0.495   0.542   0.616   0.713   0.798   0.840   0.843   0.824   0.795
   0.756   0.720
   0.922   0.940   0.995   1.091   1.228   1.386   1.516   1.570   1.550   1.506
   1.480   1.441   1.311   1.069   0.826   0.751   0.905   1.156   1.276   1.156
   0.905   0.751   0.826   1.069   1.311   1.441   1.480   1.506   1.550   1.570
   1.516   1.386   1.228   1.091   0.995   0.940   0.922   0.940   0.995   1.091
   1.228   1.386   1.516   1.570   1.550   1.506   1.480   1.441   1.311   1.069
   0.826   0.751   0.905   1.156   1.276   1.156   0.905   0.751   0.826   1.069
   1.311   1.441   1.480   1.506   1.550   1.570   1.516   1.386   1.228   1.091
   0.995   0.940
   1.147   1.148   1.172   1.265   1.463   1.746   2.035   2.253   2.388   2.493
   2.594   2.609   2.405   1.958   1.450   1.157   1.204   1.438   1.565   1.438
   1.204   1.157   1.450   1.958   2.405   2.609   2.594   2.493   2.388   2.253
   2.035   1.746   1.463   1.265   1.172   1.148   1.147   1.148   1.172   1.265
   1.463   1.746   2.035   2.253   2.388   2.493   2.594   2.609   2.405   1.958
   1.450   1.157   1.204   1.438   1.565   1.438   1.204   1.157   1.450   1.958
   2.405   2.609   2.594   2.493   2.388   2.253   2.035   1.746   1.463   1.265
   1.172   1.148
   1.253   1.236   1.222   1.290   1.509   1.864   2.264   2.609   2.876   3.113
   3.325   3.393   3.147   2.561   1.864   1.405   1.357   1.560   1.683   1.560
   1.357   1.405   1.864   2.561   3.147   3.393   3.325   3.113   2.876   2.609
   2.264   1.864   1.509   1.290   1.222   1.236   1.253   1.236   1.222   1.290
   1.509   1.864   2.264   2.609   2.876   3.113   3.325   3.393   3.147   2.561
   1.864   1.405   1.357   1.560   1.683   1.560   1.357   1.405   1.864   2.561
   3.147   3.393   3.325   3.113   2.876   2.609   2.264   1.864   1.509   1.290
   1.222   1.236
 110       5.00   72    0 5.00   18    0
  -0.410  -0.410  -0.410  -0.409  -0.408  -0.407  -0.406  -0.404  -0.402  -0.401
  -0.399  -0.397  -0.396  -0.394  -0.393  -0.392  -0.391  -0.391  -0.391  -0.391
  -0.391  -0.392  -0.393  -0.394  -0.396  -0.397  -0.399  -0.401  -0.402  -0.404
  -0.406  -0.407  -0.408  -0.409  -0.410  -0.410  -0.410  -0.410  -0.410  -0.409
  -0.408  -0.407  -0.406  -0.404  -0.402  -0.401  -0.399  -0.397  -0.396  -0.394
  -0.393  -0.392  -0.391  -0.391  -0.391  -0.391  -0.391  -0.392  -0.393  -0.394
  -0.396  -0.397  -0.399  -0.401  -0.402  -0.404  -0.406  -0.407  -0.408  -0.409
  -0.410  -0.410
  -0.224  -0.224  -0.222  -0.219  -0.215  -0.210  -0.203  -0.195  -0.185  -0.174
  -0.162  -0.148  -0.135  -0.122  -0.111  -0.101  -0.093  -0.088  -0.087  -0.088
  -0.093  -0.101  -0.111  -0.122  -0.135  -0.148  -0.162  -0.174  -0.185  -0.195
  -0.203  -0.210  -0.215  -0.219  -0.222  -0.224  -0.224  -0.224  -0.222  -0.219
  -0.215  -0.210  -0.203  -0.195  -0.185  -0.174  -0.162  -0.148  -0.135  -0.122
  -0.111  -0.101  -0.093  -0.088  -0.087  -0.088  -0.093  -0.101  -0.111  -0.122
  -0.135  -0.148  -0.162  -0.174  -0.185  -0.195  -0.203  -0.210  -0.215  -0.219
  -0.222  -0.224
   0.012   0.011   0.008   0.003  -0.003  -0.008  -0.011  -0.011  -0.006   0.006
   0.023   0.047   0.076   0.109   0.141   0.171   0.194   0.210   0.215   0.210
   0.194   0.171   0.141   0.109   0.076   0.047   0.023   0.006  -0.006  -0.011
  -0.011  -0.008  -0.003   0.003   0.008   0.011   0.012   0.011   0.008   0.003
  -0.003  -0.008  -0.011  -0.011  -0.006   0.006   0.023   0.047   0.076   0.109
   0.141   0.171   0.194   0.210   0.215   0.210   0.194   0.171   0.141   0.109
   0.076   0.047   0.023   0.006  -0.006  -0.011  -0.011  -0.008  -0.003   0.003
   0.008   0.011
   0.254   0.249   0.235   0.212   0.181   0.144   0.105   0.066   0.034   0.013
   0.007   0.020   0.050   0.096   0.150   0.205   0.253   0.285   0.296   0.285
   0.253   0.205   0.150   0.096   0.050   0.020   0.007   0.013   0.034   0.066
   0.105   0.144   0.181   0.212   0.235   0.249   0.254   0.249   0.235   0.212
   0.181   0.144   0.105   0.066   0.034   0.013   0.007   0.020   0.050   0.096
   0.150   0.205   0.253   0.285   0.296   0.285   0.253   0.205   0.150   0.096
   0.050   0.020   0.007   0.013   0.034   0.066   0.105   0.144   0.181   0.212
   0.235   0.249
   0.624   0.620   0.605   0.578   0.536   0.477   0.401   0.312   0.219   0.132
   0.063   0.022   0.016   0.044   0.099   0.168   0.234   0.282   0.299   0.282
   0.234   0.168   0.099   0.044   0.016   0.022   0.063   0.132   0.219   0.312
   0.401   0.477   0.536   0.578   0.605   0.620   0.624   0.620   0.605   0.578
   0.536   0.477   0.401   0.312   0.219   0.132   0.063   0.022   0.016   0.044
   0.099   0.168   0.234   0.282   0.299   0.282   0.234   0.168   0.099   0.044
   0.016   0.022   0.063   0.132   0.219   0.312   0.401   0.477   0.536   0.578
   0.605   0.620
   1.181   1.187   1.199   1.211   1.211   1.187   1.128   1.031   0.900   0.750
   0.599   0.470   0.382   0.345   0.356   0.401   0.459   0.506   0.524   0.506
   0.459   0.401   0.356   0.345   0.382   0.470   0.599   0.750   0.900   1.031
   1.128   1.187   1.211   1.211   1.199   1.187   1.181   1.187   1.199   1.211
   1.211   1.187   1.128   1.031   0.900   0.750   0.599   0.470   0.382   0.345
   0.356   0.401   0.459   0.506   0.524   0.506   0.459   0.401   0.356   0.345
   0.382   0.470   0.599   0.750   0.900   1.031   1.128   1.187   1.211   1.211
   1.199   1.187
   1.685   1.707   1.769   1.860   1.959   2.043   2.087   2.068   1.978   1.823
   1.624   1.412   1.222   1.081   0.999   0.973   0.983   1.003   1.012   1.003
   0.983   0.973   0.999   1.081   1.222   1.412   1.624   1.823   1.978   2.068
   2.087   2.043   1.959   1.860   1.769   1.707   1.685   1.707   1.769   1.860
   1.959   2.043   2.087   2.068   1.978   1.823   1.624   1.412   1.222   1.081
   0.999   0.973   0.983   1.003   1.012   1.003   0.983   0.973   0.999   1.081
   1.222   1.412   1.624   1.823   1.978   2.068   2.087   2.043   1.959   1.860
   1.769   1.707
   1.767   1.801   1.903   2.065   2.271   2.491   2.687   2.818   2.852   2.777
   2.604   2.365   2.102   1.861   1.672   1.548   1.483   1.457   1.451   1.457
   1.483   1.548   1.672   1.861   2.102   2.365   2.604   2.777   2.852   2.818
   2.687   2.491   2.271   2.065   1.903   1.801   1.767   1.801   1.903   2.065
   2.271   2.491   2.687   2.818   2.852   2.777   2.604   2.365   2.102   1.861
   1.672   1.548   1.483   1.457   1.451   1.457   1.483   1.548   1.672   1.861
   2.102   2.365   2.604   2.777   2.852   2.818   2.687   2.491   2.271   2.065
   1.903   1.801
   1.363   1.394   1.491   1.663   1.910   2.210   2.521   2.789   2.963   3.012
   2.928   2.733   2.467   2.183   1.928   1.733   1.607   1.541   1.522   1.541
   1.607   1.733   1.928   2.183   2.467   2.733   2.928   3.012   2.963   2.789
   2.521   2.210   1.910   1.663   1.491   1.394   1.363   1.394   1.491   1.663
   1.910   2.210   2.521   2.789   2.963   3.012   2.928   2.733   2.467   2.183
   1.928   1.733   1.607   1.541   1.522   1.541   1.607   1.733   1.928   2.183
   2.467   2.733   2.928   3.012   2.963   2.789   2.521   2.210   1.910   1.663
   1.491   1.394
   0.847   0.857   0.901   1.009   1.202   1.473   1.786   2.086   2.320   2.449
   2.457   2.347   2.149   1.905   1.666   1.471   1.340   1.269   1.247   1.269
   1.340   1.471   1.666   1.905   2.149   2.347   2.457   2.449   2.320   2.086
   1.786   1.473   1.202   1.009   0.901   0.857   0.847   0.857   0.901   1.009
   1.202   1.473   1.786   2.086   2.320   2.449   2.457   2.347   2.149   1.905
   1.666   1.471   1.340   1.269   1.247   1.269   1.340   1.471   1.666   1.905
   2.149   2.347   2.457   2.449   2.320   2.086   1.786   1.473   1.202   1.009
   0.901   0.857
   0.618   0.603   0.580   0.595   0.683   0.847   1.054   1.260   1.428   1.540
   1.582   1.551   1.453   1.310   1.159   1.036   0.959   0.922   0.912   0.922
   0.959   1.036   1.159   1.310   1.453   1.551   1.582   1.540   1.428   1.260
   1.054   0.847   0.683   0.595   0.580   0.603   0.618   0.603   0.580   0.595
   0.683   0.847   1.054   1.260   1.428   1.540   1.582   1.551   1.453   1.310
   1.159   1.036   0.959   0.922   0.912   0.922   0.959   1.036   1.159   1.310
   1.453   1.551   1.582   1.540   1.428   1.260   1.054   0.847   0.683   0.595
   0.580   0.603
   0.637   0.608   0.547   0.506   0.521   0.586   0.664   0.724   0.758   0.782
   0.802   0.813   0.799   0.762   0.718   0.690   0.687   0.699   0.707   0.699
   0.687   0.690   0.718   0.762   0.799   0.813   0.802   0.782   0.758   0.724
   0.664   0.586   0.521   0.506   0.547   0.608   0.637   0.608   0.547   0.506
   0.521   0.586   0.664   0.724   0.758   0.782   0.802   0.813   0.799   0.762
   0.718   0.690   0.687   0.699   0.707   0.699   0.687   0.690   0.718   0.762
   0.799   0.813   0.802   0.782   0.758   0.724   0.664   0.586   0.521   0.506
   0.547   0.608
   0.524   0.497   0.442   0.411   0.431   0.475   0.493   0.460   0.396   0.345
   0.335   0.358   0.389   0.414   0.437   0.471   0.516   0.556   0.573   0.556
   0.516   0.471   0.437   0.414   0.389   0.358   0.335   0.345   0.396   0.460
   0.493   0.475   0.431   0.411   0.442   0.497   0.524   0.497   0.442   0.411
   0.431   0.475   0.493   0.460   0.396   0.345   0.335   0.358   0.389   0.414
   0.437   0.471   0.516   0.556   0.573   0.556   0.516   0.471   0.437   0.414
   0.389   0.358   0.335   0.345   0.396   0.460   0.493   0.475   0.431   0.411
   0.442   0.497
   0.153   0.135   0.108   0.122   0.193   0.278   0.316   0.284   0.215   0.161
   0.151   0.176   0.213   0.249   0.288   0.336   0.387   0.427   0.442   0.427
   0.387   0.336   0.288   0.249   0.213   0.176   0.151   0.161   0.215   0.284
   0.316   0.278   0.193   0.122   0.108   0.135   0.153   0.135   0.108   0.122
   0.193   0.278   0.316   0.284   0.215   0.161   0.151   0.176   0.213   0.249
   0.288   0.336   0.387   0.427   0.442   0.427   0.387   0.336   0.288   0.249
   0.213   0.176   0.151   0.161   0.215   0.284   0.316   0.278   0.193   0.122
   0.108   0.135
  -0.024  -0.039  -0.057  -0.028   0.062   0.167   0.233   0.240   0.221   0.212
   0.224   0.243   0.259   0.283   0.324   0.379   0.429   0.459   0.469   0.459
   0.429   0.379   0.324   0.283   0.259   0.243   0.224   0.212   0.221   0.240
   0.233   0.167   0.062  -0.028  -0.057  -0.039  -0.024  -0.039  -0.057  -0.028
   0.062   0.167   0.233   0.240   0.221   0.212   0.224   0.243   0.259   0.283
   0.324   0.379   0.429   0.459   0.469   0.459   0.429   0.379   0.324   0.283
   0.259   0.243   0.224   0.212   0.221   0.240   0.233   0.167   0.062  -0.028
  -0.057  -0.039
   0.567   0.541   0.491   0.467   0.488   0.525   0.545   0.546   0.551   0.570
   0.584   0.576   0.562   0.583   0.657   0.757   0.839   0.882   0.893   0.882
   0.839   0.757   0.657   0.583   0.562   0.576   0.584   0.570   0.551   0.546
   0.545   0.525   0.488   0.467   0.491   0.541   0.567   0.541   0.491   0.467
   0.488   0.525   0.545   0.546   0.551   0.570   0.584   0.576   0.562   0.583
   0.657   0.757   0.839   0.882   0.893   0.882   0.839   0.757   0.657   0.583
   0.562   0.576   0.584   0.570   0.551   0.546   0.545   0.525   0.488   0.467
   0.491   0.541
   1.839   1.794   1.686   1.564   1.455   1.353   1.256   1.184   1.155   1.153
   1.134   1.080   1.037   1.075   1.214   1.398   1.547   1.625   1.647   1.625
   1.547   1.398   1.214   1.075   1.037   1.080   1.134   1.153   1.155   1.184
   1.256   1.353   1.455   1.564   1.686   1.794   1.839   1.794   1.686   1.564
   1.455   1.353   1.256   1.184   1.155   1.153   1.134   1.080   1.037   1.075
   1.214   1.398   1.547   1.625   1.647   1.625   1.547   1.398   1.214   1.075
   1.037   1.080   1.134   1.153   1.155   1.184   1.256   1.353   1.455   1.564
   1.686   1.794
   2.916   2.857   2.704   2.505   2.292   2.077   1.877   1.730   1.655   1.618
   1.561   1.469   1.409   1.466   1.659   1.911   2.118   2.229   2.261   2.229
   2.118   1.911   1.659   1.466   1.409   1.469   1.561   1.618   1.655   1.730
   1.877   2.077   2.292   2.505   2.704   2.857   2.916   2.857   2.704   2.505
   2.292   2.077   1.877   1.730   1.655   1.618   1.561   1.469   1.409   1.466
   1.659   1.911   2.118   2.229   2.261   2.229   2.118   1.911   1.659   1.466
   1.409   1.469   1.561   1.618   1.655   1.730   1.877   2.077   2.292   2.505
   2.704   2.857
TEXTURE_INDEX=   4.8969
ERR_CF 211         1080     614   23.81   23.48
ERR_CF 200         1080     278   56.75   21.96
ERR_CF 110         1080     344  130.22    9.33
