TEXEVAL                                                                         
Analysis started on 03-Oct-19 19:34:16                                          
 LMAX=14LFMAX=03 CUBIC ORTHO   
 220      5.00 5.00
 200      5.00 5.00
 111      5.00 5.00
 220       5.00   72    0 5.00   15    0
   1.642   1.642   1.642   1.642   1.642   1.642   1.642   1.642   1.642   1.642
   1.642   1.642   1.642   1.642   1.642   1.642   1.642   1.642   1.642   1.642
   1.642   1.642   1.642   1.642   1.642   1.642   1.642   1.642   1.642   1.642
   1.642   1.642   1.642   1.642   1.642   1.642   1.642   1.642   1.642   1.642
   1.642   1.642   1.642   1.642   1.642   1.642   1.642   1.642   1.642   1.642
   1.642   1.642   1.642   1.642   1.642   1.642   1.642   1.642   1.642   1.642
   1.642   1.642   1.642   1.642   1.642   1.642   1.642   1.642   1.642   1.642
   1.642   1.642
   1.069   1.012   0.749   1.018   1.023   1.319   1.008   1.253   1.064   1.425
   0.915   1.170   1.345   1.495   1.477   1.729   1.479   1.662   1.193   1.662
   1.479   1.729   1.477   1.495   1.345   1.170   0.915   1.425   1.064   1.253
   1.008   1.319   1.023   1.018   0.749   1.012   1.069   1.012   0.749   1.018
   1.023   1.319   1.008   1.253   1.064   1.425   0.915   1.170   1.345   1.495
   1.477   1.729   1.479   1.662   1.193   1.662   1.479   1.729   1.477   1.495
   1.345   1.170   0.915   1.425   1.064   1.253   1.008   1.319   1.023   1.018
   0.749   1.012
   0.773   0.308   0.438   0.619   0.656   0.778   0.438   0.920   0.732   1.014
   0.653   0.911   1.076   1.124   1.254   1.318   1.174   1.094   1.282   1.094
   1.174   1.318   1.254   1.124   1.076   0.911   0.653   1.014   0.732   0.920
   0.438   0.778   0.656   0.619   0.438   0.308   0.773   0.308   0.438   0.619
   0.656   0.778   0.438   0.920   0.732   1.014   0.653   0.911   1.076   1.124
   1.254   1.318   1.174   1.094   1.282   1.094   1.174   1.318   1.254   1.124
   1.076   0.911   0.653   1.014   0.732   0.920   0.438   0.778   0.656   0.619
   0.438   0.308
   0.434   0.125   0.445   0.313   0.354   0.362   0.193   0.660   0.506   0.620
   0.735   0.907   1.036   0.762   1.138   1.015   1.258   1.092   1.415   1.092
   1.258   1.015   1.138   0.762   1.036   0.907   0.735   0.620   0.506   0.660
   0.193   0.362   0.354   0.313   0.445   0.125   0.434   0.125   0.445   0.313
   0.354   0.362   0.193   0.660   0.506   0.620   0.735   0.907   1.036   0.762
   1.138   1.015   1.258   1.092   1.415   1.092   1.258   1.015   1.138   0.762
   1.036   0.907   0.735   0.620   0.506   0.660   0.193   0.362   0.354   0.313
   0.445   0.125
   0.192   0.262   0.570   0.302   0.323   0.362   0.264   0.524   0.540   0.356
   0.552   0.709   0.874   0.678   1.080   1.071   1.131   1.233   1.249   1.233
   1.131   1.071   1.080   0.678   0.874   0.709   0.552   0.356   0.540   0.524
   0.264   0.362   0.323   0.302   0.570   0.262   0.192   0.262   0.570   0.302
   0.323   0.362   0.264   0.524   0.540   0.356   0.552   0.709   0.874   0.678
   1.080   1.071   1.131   1.233   1.249   1.233   1.131   1.071   1.080   0.678
   0.874   0.709   0.552   0.356   0.540   0.524   0.264   0.362   0.323   0.302
   0.570   0.262
   0.173   0.359   0.268   0.232   0.561   0.349   0.317   0.572   0.512   0.232
   0.228   0.276   0.442   0.665   1.147   0.957   0.973   1.036   1.247   1.036
   0.973   0.957   1.147   0.665   0.442   0.276   0.228   0.232   0.512   0.572
   0.317   0.349   0.561   0.232   0.268   0.359   0.173   0.359   0.268   0.232
   0.561   0.349   0.317   0.572   0.512   0.232   0.228   0.276   0.442   0.665
   1.147   0.957   0.973   1.036   1.247   1.036   0.973   0.957   1.147   0.665
   0.442   0.276   0.228   0.232   0.512   0.572   0.317   0.349   0.561   0.232
   0.268   0.359
   0.425   0.496   0.736   0.314   0.522   0.399   0.566   0.880   0.612   0.834
   0.270   0.505   0.401   0.667   1.085   1.168   1.306   1.096   0.911   1.096
   1.306   1.168   1.085   0.667   0.401   0.505   0.270   0.834   0.612   0.880
   0.566   0.399   0.522   0.314   0.736   0.496   0.425   0.496   0.736   0.314
   0.522   0.399   0.566   0.880   0.612   0.834   0.270   0.505   0.401   0.667
   1.085   1.168   1.306   1.096   0.911   1.096   1.306   1.168   1.085   0.667
   0.401   0.505   0.270   0.834   0.612   0.880   0.566   0.399   0.522   0.314
   0.736   0.496
   0.567   0.885   1.114   0.220   0.450   0.284   0.498   0.866   0.462   0.869
   0.409   0.484   0.493   0.340   0.627   0.914   1.170   0.895   0.256   0.895
   1.170   0.914   0.627   0.340   0.493   0.484   0.409   0.869   0.462   0.866
   0.498   0.284   0.450   0.220   1.114   0.885   0.567   0.885   1.114   0.220
   0.450   0.284   0.498   0.866   0.462   0.869   0.409   0.484   0.493   0.340
   0.627   0.914   1.170   0.895   0.256   0.895   1.170   0.914   0.627   0.340
   0.493   0.484   0.409   0.869   0.462   0.866   0.498   0.284   0.450   0.220
   1.114   0.885
   0.980   1.102   0.430   0.213   0.577   0.576   0.206   0.291   0.377   0.198
   0.425   0.002   0.425   0.160   0.723   0.163   0.846   0.584   0.674   0.584
   0.846   0.163   0.723   0.160   0.425   0.002   0.425   0.198   0.377   0.291
   0.206   0.576   0.577   0.213   0.430   1.102   0.980   1.102   0.430   0.213
   0.577   0.576   0.206   0.291   0.377   0.198   0.425   0.002   0.425   0.160
   0.723   0.163   0.846   0.584   0.674   0.584   0.846   0.163   0.723   0.160
   0.425   0.002   0.425   0.198   0.377   0.291   0.206   0.576   0.577   0.213
   0.430   1.102
   1.032   1.154   0.250   0.565   0.750   1.004   0.636   0.198   0.542   0.444
   0.216   0.147   0.568   0.435   0.649   0.489   0.870   0.845   1.076   0.845
   0.870   0.489   0.649   0.435   0.568   0.147   0.216   0.444   0.542   0.198
   0.636   1.004   0.750   0.565   0.250   1.154   1.032   1.154   0.250   0.565
   0.750   1.004   0.636   0.198   0.542   0.444   0.216   0.147   0.568   0.435
   0.649   0.489   0.870   0.845   1.076   0.845   0.870   0.489   0.649   0.435
   0.568   0.147   0.216   0.444   0.542   0.198   0.636   1.004   0.750   0.565
   0.250   1.154
   0.308   0.910   0.320   0.715   0.572   0.499   0.808   0.150   0.565   0.352
   0.000   0.205   0.352   0.346   0.157   0.833   0.842   0.626   0.645   0.626
   0.842   0.833   0.157   0.346   0.352   0.205   0.000   0.352   0.565   0.150
   0.808   0.499   0.572   0.715   0.320   0.910   0.308   0.910   0.320   0.715
   0.572   0.499   0.808   0.150   0.565   0.352   0.000   0.205   0.352   0.346
   0.157   0.833   0.842   0.626   0.645   0.626   0.842   0.833   0.157   0.346
   0.352   0.205   0.000   0.352   0.565   0.150   0.808   0.499   0.572   0.715
   0.320   0.910
   1.698   1.189   1.542   1.558   0.771   1.576   0.475   1.032   0.611   0.332
   0.409   0.707   1.116   0.474   0.234   0.842   0.608   0.375   0.723   0.375
   0.608   0.842   0.234   0.474   1.116   0.707   0.409   0.332   0.611   1.032
   0.475   1.576   0.771   1.558   1.542   1.189   1.698   1.189   1.542   1.558
   0.771   1.576   0.475   1.032   0.611   0.332   0.409   0.707   1.116   0.474
   0.234   0.842   0.608   0.375   0.723   0.375   0.608   0.842   0.234   0.474
   1.116   0.707   0.409   0.332   0.611   1.032   0.475   1.576   0.771   1.558
   1.542   1.189
   3.123   1.686   2.525   2.500   1.586   2.513   0.804   1.868   0.615   0.833
   1.414   1.553   2.020   2.014   0.644   1.112   0.671   1.157   1.819   1.157
   0.671   1.112   0.644   2.014   2.020   1.553   1.414   0.833   0.615   1.868
   0.804   2.513   1.586   2.500   2.525   1.686   3.123   1.686   2.525   2.500
   1.586   2.513   0.804   1.868   0.615   0.833   1.414   1.553   2.020   2.014
   0.644   1.112   0.671   1.157   1.819   1.157   0.671   1.112   0.644   2.014
   2.020   1.553   1.414   0.833   0.615   1.868   0.804   2.513   1.586   2.500
   2.525   1.686
   2.494   2.733   1.279   1.481   1.111   1.541   1.065   0.883   1.531   1.920
   1.225   1.253   1.985   1.761   0.515   1.051   0.501   1.555   1.944   1.555
   0.501   1.051   0.515   1.761   1.985   1.253   1.225   1.920   1.531   0.883
   1.065   1.541   1.111   1.481   1.279   2.733   2.494   2.733   1.279   1.481
   1.111   1.541   1.065   0.883   1.531   1.920   1.225   1.253   1.985   1.761
   0.515   1.051   0.501   1.555   1.944   1.555   0.501   1.051   0.515   1.761
   1.985   1.253   1.225   1.920   1.531   0.883   1.065   1.541   1.111   1.481
   1.279   2.733
   1.236   2.231   0.952   0.616   0.174   1.365   1.013   0.789   2.241   2.797
   0.521   0.490   1.983   0.663   0.807   1.091   0.742   0.651   0.605   0.651
   0.742   1.091   0.807   0.663   1.983   0.490   0.521   2.797   2.241   0.789
   1.013   1.365   0.174   0.616   0.952   2.231   1.236   2.231   0.952   0.616
   0.174   1.365   1.013   0.789   2.241   2.797   0.521   0.490   1.983   0.663
   0.807   1.091   0.742   0.651   0.605   0.651   0.742   1.091   0.807   0.663
   1.983   0.490   0.521   2.797   2.241   0.789   1.013   1.365   0.174   0.616
   0.952   2.231
 200       5.00   72    0 5.00   15    0
   3.667   3.667   3.667   3.667   3.667   3.667   3.667   3.667   3.667   3.667
   3.667   3.667   3.667   3.667   3.667   3.667   3.667   3.667   3.667   3.667
   3.667   3.667   3.667   3.667   3.667   3.667   3.667   3.667   3.667   3.667
   3.667   3.667   3.667   3.667   3.667   3.667   3.667   3.667   3.667   3.667
   3.667   3.667   3.667   3.667   3.667   3.667   3.667   3.667   3.667   3.667
   3.667   3.667   3.667   3.667   3.667   3.667   3.667   3.667   3.667   3.667
   3.667   3.667   3.667   3.667   3.667   3.667   3.667   3.667   3.667   3.667
   3.667   3.667
   2.733   2.479   2.684   2.434   2.545   2.301   2.261   3.066   2.793   2.595
   2.764   2.883   2.830   2.478   2.455   2.430   2.327   2.511   2.658   2.511
   2.327   2.430   2.455   2.478   2.830   2.883   2.764   2.595   2.793   3.066
   2.261   2.301   2.545   2.434   2.684   2.479   2.733   2.479   2.684   2.434
   2.545   2.301   2.261   3.066   2.793   2.595   2.764   2.883   2.830   2.478
   2.455   2.430   2.327   2.511   2.658   2.511   2.327   2.430   2.455   2.478
   2.830   2.883   2.764   2.595   2.793   3.066   2.261   2.301   2.545   2.434
   2.684   2.479
   1.635   1.290   1.656   1.588   1.486   1.549   1.339   1.522   1.754   1.244
   1.963   1.463   1.823   1.697   1.770   1.988   1.858   1.598   1.722   1.598
   1.858   1.988   1.770   1.697   1.823   1.463   1.963   1.244   1.754   1.522
   1.339   1.549   1.486   1.588   1.656   1.290   1.635   1.290   1.656   1.588
   1.486   1.549   1.339   1.522   1.754   1.244   1.963   1.463   1.823   1.697
   1.770   1.988   1.858   1.598   1.722   1.598   1.858   1.988   1.770   1.697
   1.823   1.463   1.963   1.244   1.754   1.522   1.339   1.549   1.486   1.588
   1.656   1.290
   1.048   0.793   1.028   0.979   1.287   1.362   1.084   1.149   1.327   0.851
   1.289   1.006   0.962   0.936   1.415   1.329   1.597   1.270   1.224   1.270
   1.597   1.329   1.415   0.936   0.962   1.006   1.289   0.851   1.327   1.149
   1.084   1.362   1.287   0.979   1.028   0.793   1.048   0.793   1.028   0.979
   1.287   1.362   1.084   1.149   1.327   0.851   1.289   1.006   0.962   0.936
   1.415   1.329   1.597   1.270   1.224   1.270   1.597   1.329   1.415   0.936
   0.962   1.006   1.289   0.851   1.327   1.149   1.084   1.362   1.287   0.979
   1.028   0.793
   0.823   0.928   0.973   0.760   0.929   1.153   1.172   0.741   1.038   0.827
   0.937   0.921   0.622   0.448   0.965   0.900   0.930   1.044   0.651   1.044
   0.930   0.900   0.965   0.448   0.622   0.921   0.937   0.827   1.038   0.741
   1.172   1.153   0.929   0.760   0.973   0.928   0.823   0.928   0.973   0.760
   0.929   1.153   1.172   0.741   1.038   0.827   0.937   0.921   0.622   0.448
   0.965   0.900   0.930   1.044   0.651   1.044   0.930   0.900   0.965   0.448
   0.622   0.921   0.937   0.827   1.038   0.741   1.172   1.153   0.929   0.760
   0.973   0.928
   0.447   1.026   0.907   0.944   1.013   1.424   0.998   1.114   0.829   1.139
   0.795   0.886   0.900   0.592   0.743   0.497   0.663   0.692   0.844   0.692
   0.663   0.497   0.743   0.592   0.900   0.886   0.795   1.139   0.829   1.114
   0.998   1.424   1.013   0.944   0.907   1.026   0.447   1.026   0.907   0.944
   1.013   1.424   0.998   1.114   0.829   1.139   0.795   0.886   0.900   0.592
   0.743   0.497   0.663   0.692   0.844   0.692   0.663   0.497   0.743   0.592
   0.900   0.886   0.795   1.139   0.829   1.114   0.998   1.424   1.013   0.944
   0.907   1.026
   0.480   0.720   0.805   1.030   0.940   1.606   1.082   1.212   0.688   0.993
   0.438   0.603   0.753   0.390   0.726   0.389   0.592   0.384   0.854   0.384
   0.592   0.389   0.726   0.390   0.753   0.603   0.438   0.993   0.688   1.212
   1.082   1.606   0.940   1.030   0.805   0.720   0.480   0.720   0.805   1.030
   0.940   1.606   1.082   1.212   0.688   0.993   0.438   0.603   0.753   0.390
   0.726   0.389   0.592   0.384   0.854   0.384   0.592   0.389   0.726   0.390
   0.753   0.603   0.438   0.993   0.688   1.212   1.082   1.606   0.940   1.030
   0.805   0.720
   0.644   0.409   0.557   0.896   0.633   1.151   1.008   0.757   0.760   0.609
   0.336   0.301   0.616   0.005   0.367   0.333   0.714   0.383   0.789   0.383
   0.714   0.333   0.367   0.005   0.616   0.301   0.336   0.609   0.760   0.757
   1.008   1.151   0.633   0.896   0.557   0.409   0.644   0.409   0.557   0.896
   0.633   1.151   1.008   0.757   0.760   0.609   0.336   0.301   0.616   0.005
   0.367   0.333   0.714   0.383   0.789   0.383   0.714   0.333   0.367   0.005
   0.616   0.301   0.336   0.609   0.760   0.757   1.008   1.151   0.633   0.896
   0.557   0.409
   0.887   0.799   0.729   0.742   0.687   0.901   0.947   0.859   0.937   0.893
   0.530   0.592   0.736   0.438   0.908   0.276   1.253   0.756   0.822   0.756
   1.253   0.276   0.908   0.438   0.736   0.592   0.530   0.893   0.937   0.859
   0.947   0.901   0.687   0.742   0.729   0.799   0.887   0.799   0.729   0.742
   0.687   0.901   0.947   0.859   0.937   0.893   0.530   0.592   0.736   0.438
   0.908   0.276   1.253   0.756   0.822   0.756   1.253   0.276   0.908   0.438
   0.736   0.592   0.530   0.893   0.937   0.859   0.947   0.901   0.687   0.742
   0.729   0.799
   0.974   0.973   1.220   0.750   0.866   0.978   1.270   1.125   0.658   1.024
   0.769   0.734   0.439   0.868   1.418   0.473   1.464   1.096   1.627   1.096
   1.464   0.473   1.418   0.868   0.439   0.734   0.769   1.024   0.658   1.125
   1.270   0.978   0.866   0.750   1.220   0.973   0.974   0.973   1.220   0.750
   0.866   0.978   1.270   1.125   0.658   1.024   0.769   0.734   0.439   0.868
   1.418   0.473   1.464   1.096   1.627   1.096   1.464   0.473   1.418   0.868
   0.439   0.734   0.769   1.024   0.658   1.125   1.270   0.978   0.866   0.750
   1.220   0.973
   0.803   0.389   1.356   0.668   1.056   0.541   0.827   0.688   0.885   0.487
   1.734   0.860   0.291   0.971   1.069   1.246   1.401   0.831   1.423   0.831
   1.401   1.246   1.069   0.971   0.291   0.860   1.734   0.487   0.885   0.688
   0.827   0.541   1.056   0.668   1.356   0.389   0.803   0.389   1.356   0.668
   1.056   0.541   0.827   0.688   0.885   0.487   1.734   0.860   0.291   0.971
   1.069   1.246   1.401   0.831   1.423   0.831   1.401   1.246   1.069   0.971
   0.291   0.860   1.734   0.487   0.885   0.688   0.827   0.541   1.056   0.668
   1.356   0.389
   0.665   0.096   0.957   0.502   1.158   0.114   0.390   0.378   0.905   0.549
   1.643   0.807   0.483   1.033   0.782   1.367   0.990   0.705   1.358   0.705
   0.990   1.367   0.782   1.033   0.483   0.807   1.643   0.549   0.905   0.378
   0.390   0.114   1.158   0.502   0.957   0.096   0.665   0.096   0.957   0.502
   1.158   0.114   0.390   0.378   0.905   0.549   1.643   0.807   0.483   1.033
   0.782   1.367   0.990   0.705   1.358   0.705   0.990   1.367   0.782   1.033
   0.483   0.807   1.643   0.549   0.905   0.378   0.390   0.114   1.158   0.502
   0.957   0.096
   0.305   0.405   0.867   0.264   1.318   0.662   0.792   0.744   0.349   0.858
   0.395   0.313   0.669   0.722   1.080   0.500   0.494   0.736   1.450   0.736
   0.494   0.500   1.080   0.722   0.669   0.313   0.395   0.858   0.349   0.744
   0.792   0.662   1.318   0.264   0.867   0.405   0.305   0.405   0.867   0.264
   1.318   0.662   0.792   0.744   0.349   0.858   0.395   0.313   0.669   0.722
   1.080   0.500   0.494   0.736   1.450   0.736   0.494   0.500   1.080   0.722
   0.669   0.313   0.395   0.858   0.349   0.744   0.792   0.662   1.318   0.264
   0.867   0.405
   0.755   1.239   1.655   0.898   2.242   1.590   1.630   2.464   0.593   1.382
   1.578   0.593   1.030   1.271   1.935   1.205   0.868   0.607   0.664   0.607
   0.868   1.205   1.935   1.271   1.030   0.593   1.578   1.382   0.593   2.464
   1.630   1.590   2.242   0.898   1.655   1.239   0.755   1.239   1.655   0.898
   2.242   1.590   1.630   2.464   0.593   1.382   1.578   0.593   1.030   1.271
   1.935   1.205   0.868   0.607   0.664   0.607   0.868   1.205   1.935   1.271
   1.030   0.593   1.578   1.382   0.593   2.464   1.630   1.590   2.242   0.898
   1.655   1.239
   0.871   1.084   1.074   1.473   2.273   1.769   1.048   2.156   1.121   1.074
   2.002   0.815   0.874   1.099   1.676   1.159   1.767   0.286   0.572   0.286
   1.767   1.159   1.676   1.099   0.874   0.815   2.002   1.074   1.121   2.156
   1.048   1.769   2.273   1.473   1.074   1.084   0.871   1.084   1.074   1.473
   2.273   1.769   1.048   2.156   1.121   1.074   2.002   0.815   0.874   1.099
   1.676   1.159   1.767   0.286   0.572   0.286   1.767   1.159   1.676   1.099
   0.874   0.815   2.002   1.074   1.121   2.156   1.048   1.769   2.273   1.473
   1.074   1.084
 111       5.00   72    0 5.00   15    0
   0.318   0.318   0.318   0.318   0.318   0.318   0.318   0.318   0.318   0.318
   0.318   0.318   0.318   0.318   0.318   0.318   0.318   0.318   0.318   0.318
   0.318   0.318   0.318   0.318   0.318   0.318   0.318   0.318   0.318   0.318
   0.318   0.318   0.318   0.318   0.318   0.318   0.318   0.318   0.318   0.318
   0.318   0.318   0.318   0.318   0.318   0.318   0.318   0.318   0.318   0.318
   0.318   0.318   0.318   0.318   0.318   0.318   0.318   0.318   0.318   0.318
   0.318   0.318   0.318   0.318   0.318   0.318   0.318   0.318   0.318   0.318
   0.318   0.318
   0.406   0.447   0.330   0.423   0.374   0.399   0.392   0.379   0.311   0.287
   0.289   0.390   0.259   0.305   0.334   0.405   0.297   0.253   0.208   0.253
   0.297   0.405   0.334   0.305   0.259   0.390   0.289   0.287   0.311   0.379
   0.392   0.399   0.374   0.423   0.330   0.447   0.406   0.447   0.330   0.423
   0.374   0.399   0.392   0.379   0.311   0.287   0.289   0.390   0.259   0.305
   0.334   0.405   0.297   0.253   0.208   0.253   0.297   0.405   0.334   0.305
   0.259   0.390   0.289   0.287   0.311   0.379   0.392   0.399   0.374   0.423
   0.330   0.447
   0.626   0.607   0.509   0.626   0.668   0.538   0.631   0.519   0.428   0.408
   0.401   0.474   0.272   0.212   0.350   0.442   0.322   0.254   0.374   0.254
   0.322   0.442   0.350   0.212   0.272   0.474   0.401   0.408   0.428   0.519
   0.631   0.538   0.668   0.626   0.509   0.607   0.626   0.607   0.509   0.626
   0.668   0.538   0.631   0.519   0.428   0.408   0.401   0.474   0.272   0.212
   0.350   0.442   0.322   0.254   0.374   0.254   0.322   0.442   0.350   0.212
   0.272   0.474   0.401   0.408   0.428   0.519   0.631   0.538   0.668   0.626
   0.509   0.607
   0.742   0.856   0.767   0.735   1.073   0.762   0.738   0.643   0.657   0.657
   0.405   0.386   0.386   0.323   0.283   0.441   0.336   0.216   0.388   0.216
   0.336   0.441   0.283   0.323   0.386   0.386   0.405   0.657   0.657   0.643
   0.738   0.762   1.073   0.735   0.767   0.856   0.742   0.856   0.767   0.735
   1.073   0.762   0.738   0.643   0.657   0.657   0.405   0.386   0.386   0.323
   0.283   0.441   0.336   0.216   0.388   0.216   0.336   0.441   0.283   0.323
   0.386   0.386   0.405   0.657   0.657   0.643   0.738   0.762   1.073   0.735
   0.767   0.856
   1.075   1.298   1.074   1.086   1.074   1.057   0.796   0.923   0.711   0.728
   0.487   0.407   0.617   0.484   0.298   0.478   0.349   0.335   0.466   0.335
   0.349   0.478   0.298   0.484   0.617   0.407   0.487   0.728   0.711   0.923
   0.796   1.057   1.074   1.086   1.074   1.298   1.075   1.298   1.074   1.086
   1.074   1.057   0.796   0.923   0.711   0.728   0.487   0.407   0.617   0.484
   0.298   0.478   0.349   0.335   0.466   0.335   0.349   0.478   0.298   0.484
   0.617   0.407   0.487   0.728   0.711   0.923   0.796   1.057   1.074   1.086
   1.074   1.298
   1.226   1.528   1.363   1.320   1.173   1.389   0.901   0.959   0.751   0.824
   0.615   0.545   0.840   0.482   0.461   0.625   0.331   0.464   0.534   0.464
   0.331   0.625   0.461   0.482   0.840   0.545   0.615   0.824   0.751   0.959
   0.901   1.389   1.173   1.320   1.363   1.528   1.226   1.528   1.363   1.320
   1.173   1.389   0.901   0.959   0.751   0.824   0.615   0.545   0.840   0.482
   0.461   0.625   0.331   0.464   0.534   0.464   0.331   0.625   0.461   0.482
   0.840   0.545   0.615   0.824   0.751   0.959   0.901   1.389   1.173   1.320
   1.363   1.528
   1.372   1.541   1.429   1.420   1.240   1.206   0.949   0.852   1.023   0.745
   0.843   0.700   0.921   0.551   0.655   0.610   0.465   0.406   0.642   0.406
   0.465   0.610   0.655   0.551   0.921   0.700   0.843   0.745   1.023   0.852
   0.949   1.206   1.240   1.420   1.429   1.541   1.372   1.541   1.429   1.420
   1.240   1.206   0.949   0.852   1.023   0.745   0.843   0.700   0.921   0.551
   0.655   0.610   0.465   0.406   0.642   0.406   0.465   0.610   0.655   0.551
   0.921   0.700   0.843   0.745   1.023   0.852   0.949   1.206   1.240   1.420
   1.429   1.541
   1.605   1.164   1.602   1.577   1.214   1.180   0.920   1.102   0.775   0.861
   1.072   0.784   0.978   0.879   0.688   0.457   0.360   0.333   0.484   0.333
   0.360   0.457   0.688   0.879   0.978   0.784   1.072   0.861   0.775   1.102
   0.920   1.180   1.214   1.577   1.602   1.164   1.605   1.164   1.602   1.577
   1.214   1.180   0.920   1.102   0.775   0.861   1.072   0.784   0.978   0.879
   0.688   0.457   0.360   0.333   0.484   0.333   0.360   0.457   0.688   0.879
   0.978   0.784   1.072   0.861   0.775   1.102   0.920   1.180   1.214   1.577
   1.602   1.164
   0.921   0.882   1.185   1.174   1.015   1.283   1.064   0.990   0.831   1.065
   0.950   0.950   1.087   0.929   0.632   0.524   0.329   0.355   0.558   0.355
   0.329   0.524   0.632   0.929   1.087   0.950   0.950   1.065   0.831   0.990
   1.064   1.283   1.015   1.174   1.185   0.882   0.921   0.882   1.185   1.174
   1.015   1.283   1.064   0.990   0.831   1.065   0.950   0.950   1.087   0.929
   0.632   0.524   0.329   0.355   0.558   0.355   0.329   0.524   0.632   0.929
   1.087   0.950   0.950   1.065   0.831   0.990   1.064   1.283   1.015   1.174
   1.185   0.882
   0.143   0.688   0.414   0.566   0.721   0.816   1.067   0.799   1.089   1.059
   1.047   1.081   0.978   0.975   0.778   0.731   0.528   0.574   0.614   0.574
   0.528   0.731   0.778   0.975   0.978   1.081   1.047   1.059   1.089   0.799
   1.067   0.816   0.721   0.566   0.414   0.688   0.143   0.688   0.414   0.566
   0.721   0.816   1.067   0.799   1.089   1.059   1.047   1.081   0.978   0.975
   0.778   0.731   0.528   0.574   0.614   0.574   0.528   0.731   0.778   0.975
   0.978   1.081   1.047   1.059   1.089   0.799   1.067   0.816   0.721   0.566
   0.414   0.688
   0.058   0.261   0.523   0.552   0.757   0.770   0.798   0.987   0.820   1.234
   1.124   1.616   1.059   1.237   0.626   0.774   0.713   0.816   0.193   0.816
   0.713   0.774   0.626   1.237   1.059   1.616   1.124   1.234   0.820   0.987
   0.798   0.770   0.757   0.552   0.523   0.261   0.058   0.261   0.523   0.552
   0.757   0.770   0.798   0.987   0.820   1.234   1.124   1.616   1.059   1.237
   0.626   0.774   0.713   0.816   0.193   0.816   0.713   0.774   0.626   1.237
   1.059   1.616   1.124   1.234   0.820   0.987   0.798   0.770   0.757   0.552
   0.523   0.261
   0.470   0.425   0.596   0.838   0.624   0.976   0.798   1.069   1.319   1.134
   1.533   1.575   1.045   1.097   1.059   1.294   1.012   1.226   1.124   1.226
   1.012   1.294   1.059   1.097   1.045   1.575   1.533   1.134   1.319   1.069
   0.798   0.976   0.624   0.838   0.596   0.425   0.470   0.425   0.596   0.838
   0.624   0.976   0.798   1.069   1.319   1.134   1.533   1.575   1.045   1.097
   1.059   1.294   1.012   1.226   1.124   1.226   1.012   1.294   1.059   1.097
   1.045   1.575   1.533   1.134   1.319   1.069   0.798   0.976   0.624   0.838
   0.596   0.425
   0.473   0.610   0.513   0.802   0.479   1.183   0.949   1.317   1.984   1.285
   1.489   1.546   1.113   0.806   1.556   1.525   0.853   1.466   1.697   1.466
   0.853   1.525   1.556   0.806   1.113   1.546   1.489   1.285   1.984   1.317
   0.949   1.183   0.479   0.802   0.513   0.610   0.473   0.610   0.513   0.802
   0.479   1.183   0.949   1.317   1.984   1.285   1.489   1.546   1.113   0.806
   1.556   1.525   0.853   1.466   1.697   1.466   0.853   1.525   1.556   0.806
   1.113   1.546   1.489   1.285   1.984   1.317   0.949   1.183   0.479   0.802
   0.513   0.610
   0.061   0.836   0.984   0.971   0.953   1.664   0.925   0.925   1.791   0.784
   1.027   1.970   1.715   0.780   1.149   1.817   0.622   1.435   1.091   1.435
   0.622   1.817   1.149   0.780   1.715   1.970   1.027   0.784   1.791   0.925
   0.925   1.664   0.953   0.971   0.984   0.836   0.061   0.836   0.984   0.971
   0.953   1.664   0.925   0.925   1.791   0.784   1.027   1.970   1.715   0.780
   1.149   1.817   0.622   1.435   1.091   1.435   0.622   1.817   1.149   0.780
   1.715   1.970   1.027   0.784   1.791   0.925   0.925   1.664   0.953   0.971
   0.984   0.836
   0.000   1.032   1.588   0.668   1.588   1.368   1.295   0.826   0.924   0.129
   0.728   1.394   1.582   1.376   1.482   2.522   0.949   0.967   0.545   0.967
   0.949   2.522   1.482   1.376   1.582   1.394   0.728   0.129   0.924   0.826
   1.295   1.368   1.588   0.668   1.588   1.032   0.000   1.032   1.588   0.668
   1.588   1.368   1.295   0.826   0.924   0.129   0.728   1.394   1.582   1.376
   1.482   2.522   0.949   0.967   0.545   0.967   0.949   2.522   1.482   1.376
   1.582   1.394   0.728   0.129   0.924   0.826   1.295   1.368   1.588   0.668
   1.588   1.032
  4  1      4.0729296E-01
  4  2     -1.2125739E-01
  4  3      1.9257619E-01
  6  1      1.0929800E-01
  6  2     -1.0530370E+00
  6  3      6.2309835E-01
  6  4      4.1201164E-01
  8  1      1.0700831E-01
  8  2      8.4242951E-02
  8  3      2.5175260E-01
  8  4     -1.1560781E-01
  8  5     -2.8171710E-01
 10  1     -3.8407983E-01
 10  2      1.9770206E-01
 10  3      4.7542447E-01
 10  4      9.8515212E-02
 10  5      4.8631303E-02
 10  6     -9.1720862E-02
 12  1     -4.4187734E-01  7.9903577E-01
 12  2      7.0275719E-03 -3.0471975E-01
 12  3      1.0699193E-02  2.0846660E-01
 12  4     -3.4448166E-01 -7.6061859E-02
 12  5      5.4369872E-01  5.2061973E-02
 12  6      8.1928207E-02 -1.2169451E-01
 12  7     -6.6255574E-01  4.3965427E-01
 14  1     -4.4195746E-01
 14  2     -1.2369741E-01
 14  3     -8.8883145E-02
 14  4      1.5624643E-01
 14  5      7.3460729E-01
 14  6      1.7006729E-01
 14  7      4.0730400E-01
 14  8     -7.9873876E-01
 220       5.00   72    0 5.00   18    0
   1.389   1.389   1.390   1.391   1.393   1.395   1.398   1.401   1.404   1.407
   1.410   1.413   1.416   1.418   1.420   1.422   1.424   1.424   1.425   1.424
   1.424   1.422   1.420   1.418   1.416   1.413   1.410   1.407   1.404   1.401
   1.398   1.395   1.393   1.391   1.390   1.389   1.389   1.389   1.390   1.391
   1.393   1.395   1.398   1.401   1.404   1.407   1.410   1.413   1.416   1.418
   1.420   1.422   1.424   1.424   1.425   1.424   1.424   1.422   1.420   1.418
   1.416   1.413   1.410   1.407   1.404   1.401   1.398   1.395   1.393   1.391
   1.390   1.389
   1.072   1.074   1.080   1.089   1.103   1.119   1.138   1.159   1.182   1.206
   1.231   1.254   1.277   1.297   1.315   1.330   1.341   1.347   1.349   1.347
   1.341   1.330   1.315   1.297   1.277   1.254   1.231   1.206   1.182   1.159
   1.138   1.119   1.103   1.089   1.080   1.074   1.072   1.074   1.080   1.089
   1.103   1.119   1.138   1.159   1.182   1.206   1.231   1.254   1.277   1.297
   1.315   1.330   1.341   1.347   1.349   1.347   1.341   1.330   1.315   1.297
   1.277   1.254   1.231   1.206   1.182   1.159   1.138   1.119   1.103   1.089
   1.080   1.074
   0.673   0.676   0.686   0.703   0.726   0.756   0.792   0.834   0.880   0.930
   0.982   1.033   1.083   1.129   1.169   1.202   1.227   1.242   1.247   1.242
   1.227   1.202   1.169   1.129   1.083   1.033   0.982   0.930   0.880   0.834
   0.792   0.756   0.726   0.703   0.686   0.676   0.673   0.676   0.686   0.703
   0.726   0.756   0.792   0.834   0.880   0.930   0.982   1.033   1.083   1.129
   1.169   1.202   1.227   1.242   1.247   1.242   1.227   1.202   1.169   1.129
   1.083   1.033   0.982   0.930   0.880   0.834   0.792   0.756   0.726   0.703
   0.686   0.676
   0.477   0.478   0.483   0.493   0.510   0.536   0.573   0.621   0.679   0.744
   0.815   0.888   0.959   1.026   1.085   1.134   1.171   1.194   1.202   1.194
   1.171   1.134   1.085   1.026   0.959   0.888   0.815   0.744   0.679   0.621
   0.573   0.536   0.510   0.493   0.483   0.478   0.477   0.478   0.483   0.493
   0.510   0.536   0.573   0.621   0.679   0.744   0.815   0.888   0.959   1.026
   1.085   1.134   1.171   1.194   1.202   1.194   1.171   1.134   1.085   1.026
   0.959   0.888   0.815   0.744   0.679   0.621   0.573   0.536   0.510   0.493
   0.483   0.478
   0.595   0.590   0.576   0.561   0.550   0.553   0.573   0.613   0.670   0.740
   0.819   0.902   0.984   1.061   1.132   1.192   1.238   1.268   1.278   1.268
   1.238   1.192   1.132   1.061   0.984   0.902   0.819   0.740   0.670   0.613
   0.573   0.553   0.550   0.561   0.576   0.590   0.595   0.590   0.576   0.561
   0.550   0.553   0.573   0.613   0.670   0.740   0.819   0.902   0.984   1.061
   1.132   1.192   1.238   1.268   1.278   1.268   1.238   1.192   1.132   1.061
   0.984   0.902   0.819   0.740   0.670   0.613   0.573   0.553   0.550   0.561
   0.576   0.590
   0.891   0.876   0.834   0.780   0.731   0.703   0.705   0.737   0.795   0.869
   0.950   1.034   1.116   1.196   1.272   1.342   1.399   1.437   1.450   1.437
   1.399   1.342   1.272   1.196   1.116   1.034   0.950   0.869   0.795   0.737
   0.705   0.703   0.731   0.780   0.834   0.876   0.891   0.876   0.834   0.780
   0.731   0.703   0.705   0.737   0.795   0.869   0.950   1.034   1.116   1.196
   1.272   1.342   1.399   1.437   1.450   1.437   1.399   1.342   1.272   1.196
   1.116   1.034   0.950   0.869   0.795   0.737   0.705   0.703   0.731   0.780
   0.834   0.876
   1.116   1.090   1.021   0.933   0.854   0.807   0.803   0.839   0.903   0.981
   1.060   1.136   1.210   1.286   1.367   1.449   1.522   1.573   1.592   1.573
   1.522   1.449   1.367   1.286   1.210   1.136   1.060   0.981   0.903   0.839
   0.803   0.807   0.854   0.933   1.021   1.090   1.116   1.090   1.021   0.933
   0.854   0.807   0.803   0.839   0.903   0.981   1.060   1.136   1.210   1.286
   1.367   1.449   1.522   1.573   1.592   1.573   1.522   1.449   1.367   1.286
   1.210   1.136   1.060   0.981   0.903   0.839   0.803   0.807   0.854   0.933
   1.021   1.090
   1.139   1.108   1.027   0.926   0.840   0.792   0.791   0.828   0.888   0.955
   1.020   1.082   1.145   1.217   1.300   1.392   1.479   1.543   1.567   1.543
   1.479   1.392   1.300   1.217   1.145   1.082   1.020   0.955   0.888   0.828
   0.791   0.792   0.840   0.926   1.027   1.108   1.139   1.108   1.027   0.926
   0.840   0.792   0.791   0.828   0.888   0.955   1.020   1.082   1.145   1.217
   1.300   1.392   1.479   1.543   1.567   1.543   1.479   1.392   1.300   1.217
   1.145   1.082   1.020   0.955   0.888   0.828   0.791   0.792   0.840   0.926
   1.027   1.108
   1.058   1.031   0.961   0.877   0.807   0.766   0.753   0.759   0.776   0.804
   0.844   0.895   0.957   1.026   1.103   1.189   1.272   1.336   1.360   1.336
   1.272   1.189   1.103   1.026   0.957   0.895   0.844   0.804   0.776   0.759
   0.753   0.766   0.807   0.877   0.961   1.031   1.058   1.031   0.961   0.877
   0.807   0.766   0.753   0.759   0.776   0.804   0.844   0.895   0.957   1.026
   1.103   1.189   1.272   1.336   1.360   1.336   1.272   1.189   1.103   1.026
   0.957   0.895   0.844   0.804   0.776   0.759   0.753   0.766   0.807   0.877
   0.961   1.031
   1.084   1.067   1.026   0.978   0.936   0.894   0.838   0.766   0.694   0.656
   0.672   0.734   0.813   0.883   0.937   0.986   1.038   1.084   1.103   1.084
   1.038   0.986   0.937   0.883   0.813   0.734   0.672   0.656   0.694   0.766
   0.838   0.894   0.936   0.978   1.026   1.067   1.084   1.067   1.026   0.978
   0.936   0.894   0.838   0.766   0.694   0.656   0.672   0.734   0.813   0.883
   0.937   0.986   1.038   1.084   1.103   1.084   1.038   0.986   0.937   0.883
   0.813   0.734   0.672   0.656   0.694   0.766   0.838   0.894   0.936   0.978
   1.026   1.067
   1.308   1.300   1.281   1.264   1.242   1.188   1.075   0.906   0.735   0.634
   0.644   0.740   0.850   0.910   0.914   0.901   0.910   0.938   0.953   0.938
   0.910   0.901   0.914   0.910   0.850   0.740   0.644   0.634   0.735   0.906
   1.075   1.188   1.242   1.264   1.281   1.300   1.308   1.300   1.281   1.264
   1.242   1.188   1.075   0.906   0.735   0.634   0.644   0.740   0.850   0.910
   0.914   0.901   0.910   0.938   0.953   0.938   0.910   0.901   0.914   0.910
   0.850   0.740   0.644   0.634   0.735   0.906   1.075   1.188   1.242   1.264
   1.281   1.300
   1.587   1.576   1.552   1.532   1.511   1.452   1.312   1.091   0.864   0.737
   0.766   0.904   1.030   1.050   0.973   0.891   0.879   0.923   0.951   0.923
   0.879   0.891   0.973   1.050   1.030   0.904   0.766   0.737   0.864   1.091
   1.312   1.452   1.511   1.532   1.552   1.576   1.587   1.576   1.552   1.532
   1.511   1.452   1.312   1.091   0.864   0.737   0.766   0.904   1.030   1.050
   0.973   0.891   0.879   0.923   0.951   0.923   0.879   0.891   0.973   1.050
   1.030   0.904   0.766   0.737   0.864   1.091   1.312   1.452   1.511   1.532
   1.552   1.576
   1.678   1.650   1.585   1.525   1.489   1.451   1.353   1.170   0.966   0.858
   0.918   1.081   1.190   1.132   0.955   0.818   0.830   0.941   1.004   0.941
   0.830   0.818   0.955   1.132   1.190   1.081   0.918   0.858   0.966   1.170
   1.353   1.451   1.489   1.525   1.585   1.650   1.678   1.650   1.585   1.525
   1.489   1.451   1.353   1.170   0.966   0.858   0.918   1.081   1.190   1.132
   0.955   0.818   0.830   0.941   1.004   0.941   0.830   0.818   0.955   1.132
   1.190   1.081   0.918   0.858   0.966   1.170   1.353   1.451   1.489   1.525
   1.585   1.650
   1.477   1.428   1.310   1.195   1.144   1.157   1.162   1.091   0.965   0.899
   0.982   1.153   1.229   1.088   0.813   0.634   0.696   0.902   1.012   0.902
   0.696   0.634   0.813   1.088   1.229   1.153   0.982   0.899   0.965   1.091
   1.162   1.157   1.144   1.195   1.310   1.428   1.477   1.428   1.310   1.195
   1.144   1.157   1.162   1.091   0.965   0.899   0.982   1.153   1.229   1.088
   0.813   0.634   0.696   0.902   1.012   0.902   0.696   0.634   0.813   1.088
   1.229   1.153   0.982   0.899   0.965   1.091   1.162   1.157   1.144   1.195
   1.310   1.428
   1.123   1.065   0.921   0.775   0.723   0.796   0.915   0.961   0.905   0.859
   0.950   1.141   1.227   1.050   0.706   0.481   0.565   0.834   0.978   0.834
   0.565   0.481   0.706   1.050   1.227   1.141   0.950   0.859   0.905   0.961
   0.915   0.796   0.723   0.775   0.921   1.065   1.123   1.065   0.921   0.775
   0.723   0.796   0.915   0.961   0.905   0.859   0.950   1.141   1.227   1.050
   0.706   0.481   0.565   0.834   0.978   0.834   0.565   0.481   0.706   1.050
   1.227   1.141   0.950   0.859   0.905   0.961   0.915   0.796   0.723   0.775
   0.921   1.065
   0.855   0.808   0.688   0.560   0.528   0.644   0.831   0.931   0.882   0.814
   0.907   1.159   1.334   1.205   0.833   0.543   0.579   0.837   0.983   0.837
   0.579   0.543   0.833   1.205   1.334   1.159   0.907   0.814   0.882   0.931
   0.831   0.644   0.528   0.560   0.688   0.808   0.855   0.808   0.688   0.560
   0.528   0.644   0.831   0.931   0.882   0.814   0.907   1.159   1.334   1.205
   0.833   0.543   0.579   0.837   0.983   0.837   0.579   0.543   0.833   1.205
   1.334   1.159   0.907   0.814   0.882   0.931   0.831   0.644   0.528   0.560
   0.688   0.808
   0.782   0.762   0.701   0.626   0.624   0.757   0.951   1.036   0.937   0.815
   0.911   1.257   1.574   1.548   1.184   0.816   0.752   0.940   1.063   0.940
   0.752   0.816   1.184   1.548   1.574   1.257   0.911   0.815   0.937   1.036
   0.951   0.757   0.624   0.626   0.701   0.762   0.782   0.762   0.701   0.626
   0.624   0.757   0.951   1.036   0.937   0.815   0.911   1.257   1.574   1.548
   1.184   0.816   0.752   0.940   1.063   0.940   0.752   0.816   1.184   1.548
   1.574   1.257   0.911   0.815   0.937   1.036   0.951   0.757   0.624   0.626
   0.701   0.762
   0.815   0.817   0.804   0.774   0.794   0.928   1.107   1.157   1.006   0.839
   0.941   1.358   1.784   1.843   1.493   1.072   0.927   1.049   1.148   1.049
   0.927   1.072   1.493   1.843   1.784   1.358   0.941   0.839   1.006   1.157
   1.107   0.928   0.794   0.774   0.804   0.817   0.815   0.817   0.804   0.774
   0.794   0.928   1.107   1.157   1.006   0.839   0.941   1.358   1.784   1.843
   1.493   1.072   0.927   1.049   1.148   1.049   0.927   1.072   1.493   1.843
   1.784   1.358   0.941   0.839   1.006   1.157   1.107   0.928   0.794   0.774
   0.804   0.817
 200       5.00   72    0 5.00   18    0
   1.577   1.577   1.577   1.577   1.577   1.576   1.576   1.575   1.575   1.574
   1.573   1.573   1.572   1.572   1.572   1.571   1.571   1.571   1.571   1.571
   1.571   1.571   1.572   1.572   1.572   1.573   1.573   1.574   1.575   1.575
   1.576   1.576   1.577   1.577   1.577   1.577   1.577   1.577   1.577   1.577
   1.577   1.576   1.576   1.575   1.575   1.574   1.573   1.573   1.572   1.572
   1.572   1.571   1.571   1.571   1.571   1.571   1.571   1.571   1.572   1.572
   1.572   1.573   1.573   1.574   1.575   1.575   1.576   1.576   1.577   1.577
   1.577   1.577
   1.438   1.438   1.437   1.434   1.431   1.428   1.423   1.419   1.414   1.409
   1.404   1.399   1.395   1.392   1.389   1.386   1.385   1.384   1.383   1.384
   1.385   1.386   1.389   1.392   1.395   1.399   1.404   1.409   1.414   1.419
   1.423   1.428   1.431   1.434   1.437   1.438   1.438   1.438   1.437   1.434
   1.431   1.428   1.423   1.419   1.414   1.409   1.404   1.399   1.395   1.392
   1.389   1.386   1.385   1.384   1.383   1.384   1.385   1.386   1.389   1.392
   1.395   1.399   1.404   1.409   1.414   1.419   1.423   1.428   1.431   1.434
   1.437   1.438
   1.278   1.278   1.275   1.270   1.263   1.254   1.243   1.230   1.217   1.203
   1.190   1.178   1.168   1.161   1.155   1.152   1.150   1.149   1.149   1.149
   1.150   1.152   1.155   1.161   1.168   1.178   1.190   1.203   1.217   1.230
   1.243   1.254   1.263   1.270   1.275   1.278   1.278   1.278   1.275   1.270
   1.263   1.254   1.243   1.230   1.217   1.203   1.190   1.178   1.168   1.161
   1.155   1.152   1.150   1.149   1.149   1.149   1.150   1.152   1.155   1.161
   1.168   1.178   1.190   1.203   1.217   1.230   1.243   1.254   1.263   1.270
   1.275   1.278
   1.197   1.198   1.199   1.199   1.194   1.184   1.166   1.141   1.111   1.080
   1.051   1.026   1.008   0.996   0.991   0.991   0.992   0.994   0.995   0.994
   0.992   0.991   0.991   0.996   1.008   1.026   1.051   1.080   1.111   1.141
   1.166   1.184   1.194   1.199   1.199   1.198   1.197   1.198   1.199   1.199
   1.194   1.184   1.166   1.141   1.111   1.080   1.051   1.026   1.008   0.996
   0.991   0.991   0.992   0.994   0.995   0.994   0.992   0.991   0.991   0.996
   1.008   1.026   1.051   1.080   1.111   1.141   1.166   1.184   1.194   1.199
   1.199   1.198
   1.171   1.178   1.197   1.220   1.236   1.236   1.215   1.173   1.116   1.054
   0.995   0.947   0.916   0.900   0.898   0.904   0.914   0.921   0.924   0.921
   0.914   0.904   0.898   0.900   0.916   0.947   0.995   1.054   1.116   1.173
   1.215   1.236   1.236   1.220   1.197   1.178   1.171   1.178   1.197   1.220
   1.236   1.236   1.215   1.173   1.116   1.054   0.995   0.947   0.916   0.900
   0.898   0.904   0.914   0.921   0.924   0.921   0.914   0.904   0.898   0.900
   0.916   0.947   0.995   1.054   1.116   1.173   1.215   1.236   1.236   1.220
   1.197   1.178
   1.098   1.119   1.174   1.242   1.300   1.324   1.305   1.242   1.150   1.046
   0.950   0.876   0.831   0.814   0.817   0.832   0.849   0.862   0.867   0.862
   0.849   0.832   0.817   0.814   0.831   0.876   0.950   1.046   1.150   1.242
   1.305   1.324   1.300   1.242   1.174   1.119   1.098   1.119   1.174   1.242
   1.300   1.324   1.305   1.242   1.150   1.046   0.950   0.876   0.831   0.814
   0.817   0.832   0.849   0.862   0.867   0.862   0.849   0.832   0.817   0.814
   0.831   0.876   0.950   1.046   1.150   1.242   1.305   1.324   1.300   1.242
   1.174   1.119
   0.944   0.980   1.074   1.193   1.295   1.346   1.330   1.251   1.132   1.000
   0.882   0.796   0.749   0.736   0.747   0.770   0.793   0.809   0.815   0.809
   0.793   0.770   0.747   0.736   0.749   0.796   0.882   1.000   1.132   1.251
   1.330   1.346   1.295   1.193   1.074   0.980   0.944   0.980   1.074   1.193
   1.295   1.346   1.330   1.251   1.132   1.000   0.882   0.796   0.749   0.736
   0.747   0.770   0.793   0.809   0.815   0.809   0.793   0.770   0.747   0.736
   0.749   0.796   0.882   1.000   1.132   1.251   1.330   1.346   1.295   1.193
   1.074   0.980
   0.789   0.831   0.941   1.078   1.193   1.250   1.239   1.168   1.062   0.946
   0.843   0.769   0.732   0.730   0.754   0.789   0.821   0.843   0.851   0.843
   0.821   0.789   0.754   0.730   0.732   0.769   0.843   0.946   1.062   1.168
   1.239   1.250   1.193   1.078   0.941   0.831   0.789   0.831   0.941   1.078
   1.193   1.250   1.239   1.168   1.062   0.946   0.843   0.769   0.732   0.730
   0.754   0.789   0.821   0.843   0.851   0.843   0.821   0.789   0.754   0.730
   0.732   0.769   0.843   0.946   1.062   1.168   1.239   1.250   1.193   1.078
   0.941   0.831
   0.734   0.766   0.846   0.940   1.012   1.047   1.047   1.027   0.993   0.949
   0.895   0.842   0.810   0.812   0.850   0.909   0.967   1.007   1.022   1.007
   0.967   0.909   0.850   0.812   0.810   0.842   0.895   0.949   0.993   1.027
   1.047   1.047   1.012   0.940   0.846   0.766   0.734   0.766   0.846   0.940
   1.012   1.047   1.047   1.027   0.993   0.949   0.895   0.842   0.810   0.812
   0.850   0.909   0.967   1.007   1.022   1.007   0.967   0.909   0.850   0.812
   0.810   0.842   0.895   0.949   0.993   1.027   1.047   1.047   1.012   0.940
   0.846   0.766
   0.770   0.779   0.797   0.804   0.796   0.789   0.812   0.878   0.963   1.019
   1.015   0.960   0.901   0.890   0.944   1.040   1.137   1.203   1.225   1.203
   1.137   1.040   0.944   0.890   0.901   0.960   1.015   1.019   0.963   0.878
   0.812   0.789   0.796   0.804   0.797   0.779   0.770   0.779   0.797   0.804
   0.796   0.789   0.812   0.878   0.963   1.019   1.015   0.960   0.901   0.890
   0.944   1.040   1.137   1.203   1.225   1.203   1.137   1.040   0.944   0.890
   0.901   0.960   1.015   1.019   0.963   0.878   0.812   0.789   0.796   0.804
   0.797   0.779
   0.774   0.768   0.742   0.686   0.616   0.577   0.625   0.773   0.962   1.096
   1.106   1.010   0.900   0.870   0.946   1.076   1.192   1.257   1.276   1.257
   1.192   1.076   0.946   0.870   0.900   1.010   1.106   1.096   0.962   0.773
   0.625   0.577   0.616   0.686   0.742   0.768   0.774   0.768   0.742   0.686
   0.616   0.577   0.625   0.773   0.962   1.096   1.106   1.010   0.900   0.870
   0.946   1.076   1.192   1.257   1.276   1.257   1.192   1.076   0.946   0.870
   0.900   1.010   1.106   1.096   0.962   0.773   0.625   0.577   0.616   0.686
   0.742   0.768
   0.650   0.657   0.662   0.638   0.583   0.545   0.592   0.753   0.967   1.110
   1.095   0.951   0.810   0.793   0.903   1.042   1.110   1.104   1.088   1.104
   1.110   1.042   0.903   0.793   0.810   0.951   1.095   1.110   0.967   0.753
   0.592   0.545   0.583   0.638   0.662   0.657   0.650   0.657   0.662   0.638
   0.583   0.545   0.592   0.753   0.967   1.110   1.095   0.951   0.810   0.793
   0.903   1.042   1.110   1.104   1.088   1.104   1.110   1.042   0.903   0.793
   0.810   0.951   1.095   1.110   0.967   0.753   0.592   0.545   0.583   0.638
   0.662   0.657
   0.455   0.503   0.619   0.730   0.779   0.767   0.763   0.837   0.972   1.061
   1.011   0.857   0.748   0.800   0.968   1.081   1.023   0.861   0.775   0.861
   1.023   1.081   0.968   0.800   0.748   0.857   1.011   1.061   0.972   0.837
   0.763   0.767   0.779   0.730   0.619   0.503   0.455   0.503   0.619   0.730
   0.779   0.767   0.763   0.837   0.972   1.061   1.011   0.857   0.748   0.800
   0.968   1.081   1.023   0.861   0.775   0.861   1.023   1.081   0.968   0.800
   0.748   0.857   1.011   1.061   0.972   0.837   0.763   0.767   0.779   0.730
   0.619   0.503
   0.368   0.459   0.694   0.966   1.144   1.158   1.061   0.977   0.975   0.996
   0.941   0.827   0.795   0.950   1.191   1.274   1.066   0.721   0.552   0.721
   1.066   1.274   1.191   0.950   0.795   0.827   0.941   0.996   0.975   0.977
   1.061   1.158   1.144   0.966   0.694   0.459   0.368   0.459   0.694   0.966
   1.144   1.158   1.061   0.977   0.975   0.996   0.941   0.827   0.795   0.950
   1.191   1.274   1.066   0.721   0.552   0.721   1.066   1.274   1.191   0.950
   0.795   0.827   0.941   0.996   0.975   0.977   1.061   1.158   1.144   0.966
   0.694   0.459
   0.537   0.634   0.898   1.234   1.477   1.490   1.294   1.065   0.957   0.955
   0.934   0.863   0.878   1.100   1.411   1.509   1.227   0.768   0.545   0.768
   1.227   1.509   1.411   1.100   0.878   0.863   0.934   0.955   0.957   1.065
   1.294   1.490   1.477   1.234   0.898   0.634   0.537   0.634   0.898   1.234
   1.477   1.490   1.294   1.065   0.957   0.955   0.934   0.863   0.878   1.100
   1.411   1.509   1.227   0.768   0.545   0.768   1.227   1.509   1.411   1.100
   0.878   0.863   0.934   0.955   0.957   1.065   1.294   1.490   1.477   1.234
   0.898   0.634
   0.950   0.995   1.146   1.388   1.584   1.560   1.303   1.011   0.893   0.939
   0.966   0.886   0.850   1.047   1.404   1.587   1.371   0.933   0.710   0.933
   1.371   1.587   1.404   1.047   0.850   0.886   0.966   0.939   0.893   1.011
   1.303   1.560   1.584   1.388   1.146   0.995   0.950   0.995   1.146   1.388
   1.584   1.560   1.303   1.011   0.893   0.939   0.966   0.886   0.850   1.047
   1.404   1.587   1.371   0.933   0.710   0.933   1.371   1.587   1.404   1.047
   0.850   0.886   0.966   0.939   0.893   1.011   1.303   1.560   1.584   1.388
   1.146   0.995
   1.430   1.389   1.342   1.385   1.458   1.381   1.112   0.842   0.793   0.928
   0.992   0.847   0.677   0.774   1.147   1.458   1.405   1.089   0.910   1.089
   1.405   1.458   1.147   0.774   0.677   0.847   0.992   0.928   0.793   0.842
   1.112   1.381   1.458   1.385   1.342   1.389   1.430   1.389   1.342   1.385
   1.458   1.381   1.112   0.842   0.793   0.928   0.992   0.847   0.677   0.774
   1.147   1.458   1.405   1.089   0.910   1.089   1.405   1.458   1.147   0.774
   0.677   0.847   0.992   0.928   0.793   0.842   1.112   1.381   1.458   1.385
   1.342   1.389
   1.746   1.641   1.439   1.324   1.294   1.180   0.919   0.693   0.714   0.917
   0.999   0.790   0.505   0.513   0.886   1.292   1.375   1.171   1.033   1.171
   1.375   1.292   0.886   0.513   0.505   0.790   0.999   0.917   0.714   0.693
   0.919   1.180   1.294   1.324   1.439   1.641   1.746   1.641   1.439   1.324
   1.294   1.180   0.919   0.693   0.714   0.917   0.999   0.790   0.505   0.513
   0.886   1.292   1.375   1.171   1.033   1.171   1.375   1.292   0.886   0.513
   0.505   0.790   0.999   0.917   0.714   0.693   0.919   1.180   1.294   1.324
   1.439   1.641
 111       5.00   72    0 5.00   18    0
   1.046   1.046   1.045   1.044   1.043   1.041   1.040   1.038   1.036   1.034
   1.032   1.029   1.028   1.026   1.024   1.023   1.022   1.022   1.022   1.022
   1.022   1.023   1.024   1.026   1.028   1.029   1.032   1.034   1.036   1.038
   1.040   1.041   1.043   1.044   1.045   1.046   1.046   1.046   1.045   1.044
   1.043   1.041   1.040   1.038   1.036   1.034   1.032   1.029   1.028   1.026
   1.024   1.023   1.022   1.022   1.022   1.022   1.022   1.023   1.024   1.026
   1.028   1.029   1.032   1.034   1.036   1.038   1.040   1.041   1.043   1.044
   1.045   1.046
   0.947   0.945   0.940   0.931   0.919   0.904   0.887   0.870   0.852   0.834
   0.817   0.801   0.786   0.774   0.764   0.756   0.750   0.747   0.746   0.747
   0.750   0.756   0.764   0.774   0.786   0.801   0.817   0.834   0.852   0.870
   0.887   0.904   0.919   0.931   0.940   0.945   0.947   0.945   0.940   0.931
   0.919   0.904   0.887   0.870   0.852   0.834   0.817   0.801   0.786   0.774
   0.764   0.756   0.750   0.747   0.746   0.747   0.750   0.756   0.764   0.774
   0.786   0.801   0.817   0.834   0.852   0.870   0.887   0.904   0.919   0.931
   0.940   0.945
   0.953   0.947   0.930   0.902   0.866   0.823   0.775   0.726   0.678   0.633
   0.593   0.559   0.531   0.509   0.493   0.482   0.476   0.472   0.470   0.472
   0.476   0.482   0.493   0.509   0.531   0.559   0.593   0.633   0.678   0.726
   0.775   0.823   0.866   0.902   0.930   0.947   0.953   0.947   0.930   0.902
   0.866   0.823   0.775   0.726   0.678   0.633   0.593   0.559   0.531   0.509
   0.493   0.482   0.476   0.472   0.470   0.472   0.476   0.482   0.493   0.509
   0.531   0.559   0.593   0.633   0.678   0.726   0.775   0.823   0.866   0.902
   0.930   0.947
   1.209   1.199   1.167   1.115   1.046   0.964   0.874   0.782   0.695   0.617
   0.554   0.506   0.474   0.455   0.446   0.443   0.444   0.445   0.446   0.445
   0.444   0.443   0.446   0.455   0.474   0.506   0.554   0.617   0.695   0.782
   0.874   0.964   1.046   1.115   1.167   1.199   1.209   1.199   1.167   1.115
   1.046   0.964   0.874   0.782   0.695   0.617   0.554   0.506   0.474   0.455
   0.446   0.443   0.444   0.445   0.446   0.445   0.444   0.443   0.446   0.455
   0.474   0.506   0.554   0.617   0.695   0.782   0.874   0.964   1.046   1.115
   1.167   1.199
   1.590   1.578   1.541   1.478   1.388   1.273   1.143   1.007   0.879   0.771
   0.690   0.639   0.613   0.607   0.611   0.619   0.627   0.632   0.633   0.632
   0.627   0.619   0.611   0.607   0.613   0.639   0.690   0.771   0.879   1.007
   1.143   1.273   1.388   1.478   1.541   1.578   1.590   1.578   1.541   1.478
   1.388   1.273   1.143   1.007   0.879   0.771   0.690   0.639   0.613   0.607
   0.611   0.619   0.627   0.632   0.633   0.632   0.627   0.619   0.611   0.607
   0.613   0.639   0.690   0.771   0.879   1.007   1.143   1.273   1.388   1.478
   1.541   1.578
   1.779   1.775   1.759   1.719   1.642   1.524   1.371   1.204   1.046   0.920
   0.836   0.796   0.786   0.792   0.797   0.795   0.786   0.776   0.772   0.776
   0.786   0.795   0.797   0.792   0.786   0.796   0.836   0.920   1.046   1.204
   1.371   1.524   1.642   1.719   1.759   1.775   1.779   1.775   1.759   1.719
   1.642   1.524   1.371   1.204   1.046   0.920   0.836   0.796   0.786   0.792
   0.797   0.795   0.786   0.776   0.772   0.776   0.786   0.795   0.797   0.792
   0.786   0.796   0.836   0.920   1.046   1.204   1.371   1.524   1.642   1.719
   1.759   1.775
   1.573   1.590   1.626   1.652   1.631   1.545   1.401   1.227   1.063   0.944
   0.883   0.871   0.884   0.892   0.873   0.824   0.761   0.708   0.688   0.708
   0.761   0.824   0.873   0.892   0.884   0.871   0.883   0.944   1.063   1.227
   1.401   1.545   1.631   1.652   1.626   1.590   1.573   1.590   1.626   1.652
   1.631   1.545   1.401   1.227   1.063   0.944   0.883   0.871   0.884   0.892
   0.873   0.824   0.761   0.708   0.688   0.708   0.761   0.824   0.873   0.892
   0.884   0.871   0.883   0.944   1.063   1.227   1.401   1.545   1.631   1.652
   1.626   1.590
   1.089   1.131   1.235   1.346   1.405   1.378   1.271   1.126   0.995   0.917
   0.902   0.929   0.958   0.952   0.887   0.771   0.636   0.528   0.486   0.528
   0.636   0.771   0.887   0.952   0.958   0.929   0.902   0.917   0.995   1.126
   1.271   1.378   1.405   1.346   1.235   1.131   1.089   1.131   1.235   1.346
   1.405   1.378   1.271   1.126   0.995   0.917   0.902   0.929   0.958   0.952
   0.887   0.771   0.636   0.528   0.486   0.528   0.636   0.771   0.887   0.952
   0.958   0.929   0.902   0.917   0.995   1.126   1.271   1.378   1.405   1.346
   1.235   1.131
   0.648   0.709   0.863   1.039   1.163   1.197   1.152   1.076   1.021   1.012
   1.045   1.088   1.104   1.062   0.952   0.791   0.616   0.480   0.429   0.480
   0.616   0.791   0.952   1.062   1.104   1.088   1.045   1.012   1.021   1.076
   1.152   1.197   1.163   1.039   0.863   0.709   0.648   0.709   0.863   1.039
   1.163   1.197   1.152   1.076   1.021   1.012   1.045   1.088   1.104   1.062
   0.952   0.791   0.616   0.480   0.429   0.480   0.616   0.791   0.952   1.062
   1.104   1.088   1.045   1.012   1.021   1.076   1.152   1.197   1.163   1.039
   0.863   0.709
   0.479   0.543   0.706   0.896   1.043   1.120   1.149   1.173   1.222   1.287
   1.337   1.342   1.293   1.198   1.073   0.931   0.792   0.687   0.647   0.687
   0.792   0.931   1.073   1.198   1.293   1.342   1.337   1.287   1.222   1.173
   1.149   1.120   1.043   0.896   0.706   0.543   0.479   0.543   0.706   0.896
   1.043   1.120   1.149   1.173   1.222   1.287   1.337   1.342   1.293   1.198
   1.073   0.931   0.792   0.687   0.647   0.687   0.792   0.931   1.073   1.198
   1.293   1.342   1.337   1.287   1.222   1.173   1.149   1.120   1.043   0.896
   0.706   0.543
   0.537   0.591   0.727   0.886   1.020   1.117   1.208   1.329   1.473   1.588
   1.613   1.530   1.384   1.242   1.147   1.093   1.055   1.025   1.013   1.025
   1.055   1.093   1.147   1.242   1.384   1.530   1.613   1.588   1.473   1.329
   1.208   1.117   1.020   0.886   0.727   0.591   0.537   0.591   0.727   0.886
   1.020   1.117   1.208   1.329   1.473   1.588   1.613   1.530   1.384   1.242
   1.147   1.093   1.055   1.025   1.013   1.025   1.055   1.093   1.147   1.242
   1.384   1.530   1.613   1.588   1.473   1.329   1.208   1.117   1.020   0.886
   0.727   0.591
   0.609   0.648   0.749   0.875   0.991   1.092   1.208   1.368   1.552   1.677
   1.662   1.501   1.286   1.140   1.115   1.174   1.239   1.271   1.277   1.271
   1.239   1.174   1.115   1.140   1.286   1.501   1.662   1.677   1.552   1.368
   1.208   1.092   0.991   0.875   0.749   0.648   0.609   0.648   0.749   0.875
   0.991   1.092   1.208   1.368   1.552   1.677   1.662   1.501   1.286   1.140
   1.115   1.174   1.239   1.271   1.277   1.271   1.239   1.174   1.115   1.140
   1.286   1.501   1.662   1.677   1.552   1.368   1.208   1.092   0.991   0.875
   0.749   0.648
   0.562   0.588   0.668   0.789   0.919   1.023   1.108   1.214   1.351   1.454
   1.431   1.268   1.070   0.979   1.043   1.181   1.282   1.310   1.308   1.310
   1.282   1.181   1.043   0.979   1.070   1.268   1.431   1.454   1.351   1.214
   1.108   1.023   0.919   0.789   0.668   0.588   0.562   0.588   0.668   0.789
   0.919   1.023   1.108   1.214   1.351   1.454   1.431   1.268   1.070   0.979
   1.043   1.181   1.282   1.310   1.308   1.310   1.282   1.181   1.043   0.979
   1.070   1.268   1.431   1.454   1.351   1.214   1.108   1.023   0.919   0.789
   0.668   0.588
   0.476   0.485   0.543   0.684   0.865   0.986   0.999   0.967   0.983   1.050
   1.073   0.996   0.888   0.881   1.013   1.174   1.239   1.203   1.169   1.203
   1.239   1.174   1.013   0.881   0.888   0.996   1.073   1.050   0.983   0.967
   0.999   0.986   0.865   0.684   0.543   0.485   0.476   0.485   0.543   0.684
   0.865   0.986   0.999   0.967   0.983   1.050   1.073   0.996   0.888   0.881
   1.013   1.174   1.239   1.203   1.169   1.203   1.239   1.174   1.013   0.881
   0.888   0.996   1.073   1.050   0.983   0.967   0.999   0.986   0.865   0.684
   0.543   0.485
   0.547   0.520   0.518   0.658   0.905   1.068   1.010   0.811   0.680   0.712
   0.813   0.846   0.819   0.853   0.999   1.149   1.170   1.076   1.016   1.076
   1.170   1.149   0.999   0.853   0.819   0.846   0.813   0.712   0.680   0.811
   1.010   1.068   0.905   0.658   0.518   0.520   0.547   0.520   0.518   0.658
   0.905   1.068   1.010   0.811   0.680   0.712   0.813   0.846   0.819   0.853
   0.999   1.149   1.170   1.076   1.016   1.076   1.170   1.149   0.999   0.853
   0.819   0.846   0.813   0.712   0.680   0.811   1.010   1.068   0.905   0.658
   0.518   0.520
   0.873   0.783   0.660   0.747   1.045   1.272   1.182   0.854   0.599   0.607
   0.767   0.856   0.818   0.796   0.898   1.043   1.082   1.003   0.948   1.003
   1.082   1.043   0.898   0.796   0.818   0.856   0.767   0.607   0.599   0.854
   1.182   1.272   1.045   0.747   0.660   0.783   0.873   0.783   0.660   0.747
   1.045   1.272   1.182   0.854   0.599   0.607   0.767   0.856   0.818   0.796
   0.898   1.043   1.082   1.003   0.948   1.003   1.082   1.043   0.898   0.796
   0.818   0.856   0.767   0.607   0.599   0.854   1.182   1.272   1.045   0.747
   0.660   0.783
   1.335   1.171   0.897   0.891   1.212   1.508   1.430   1.037   0.710   0.702
   0.881   0.948   0.812   0.662   0.689   0.853   0.974   0.980   0.959   0.980
   0.974   0.853   0.689   0.662   0.812   0.948   0.881   0.702   0.710   1.037
   1.430   1.508   1.212   0.891   0.897   1.171   1.335   1.171   0.897   0.891
   1.212   1.508   1.430   1.037   0.710   0.702   0.881   0.948   0.812   0.662
   0.689   0.853   0.974   0.980   0.959   0.980   0.974   0.853   0.689   0.662
   0.812   0.948   0.881   0.702   0.710   1.037   1.430   1.508   1.212   0.891
   0.897   1.171
   1.671   1.456   1.076   0.997   1.321   1.662   1.607   1.196   0.842   0.825
   1.000   1.023   0.792   0.536   0.507   0.693   0.893   0.977   0.988   0.977
   0.893   0.693   0.507   0.536   0.792   1.023   1.000   0.825   0.842   1.196
   1.607   1.662   1.321   0.997   1.076   1.456   1.671   1.456   1.076   0.997
   1.321   1.662   1.607   1.196   0.842   0.825   1.000   1.023   0.792   0.536
   0.507   0.693   0.893   0.977   0.988   0.977   0.893   0.693   0.507   0.536
   0.792   1.023   1.000   0.825   0.842   1.196   1.607   1.662   1.321   0.997
   1.076   1.456
TEXTURE_INDEX=   1.3218
ERR_CF 220         1072     424   72.71   18.96
ERR_CF 200         1076     520   42.31   31.20
ERR_CF 111         1078     334   59.03   21.97
