TEXEVAL                                                                         
Analysis started on 30-Oct-19 14:31:18                                          
 LMAX=14LFMAX= 3 CUBIC ANORTHIC
 220      5.00 5.00
 200      5.00 5.00
 111      5.00 5.00
 220       5.00   72    0 5.00   15    0
   5.605   5.605   5.605   5.605   5.605   5.605   5.605   5.605   5.605   5.605
   5.605   5.605   5.605   5.605   5.605   5.605   5.605   5.605   5.605   5.605
   5.605   5.605   5.605   5.605   5.605   5.605   5.605   5.605   5.605   5.605
   5.605   5.605   5.605   5.605   5.605   5.605   5.605   5.605   5.605   5.605
   5.605   5.605   5.605   5.605   5.605   5.605   5.605   5.605   5.605   5.605
   5.605   5.605   5.605   5.605   5.605   5.605   5.605   5.605   5.605   5.605
   5.605   5.605   5.605   5.605   5.605   5.605   5.605   5.605   5.605   5.605
   5.605   5.605
   2.584   2.510   2.468   2.241   2.418   2.544   2.398   2.561   2.543   2.470
   2.463   2.507   2.636   2.802   2.751   2.920   2.672   2.894   3.014   3.071
   2.960   3.081   3.235   3.236   3.165   3.173   3.080   3.323   3.297   3.370
   3.455   3.543   3.669   3.916   3.877   4.038   4.420   4.871   5.099   5.415
   5.686   6.047   6.109   6.425   6.967   6.984   7.239   7.527   7.671   7.568
   7.431   7.442   6.878   6.761   6.746   6.437   5.993   5.771   5.497   5.011
   4.758   4.592   4.216   3.906   3.703   3.323   3.238   3.100   3.024   2.811
   2.796   2.762
   1.263   1.169   1.060   1.029   1.051   1.338   1.187   1.259   1.203   1.232
   1.179   1.205   1.368   1.540   1.587   1.771   1.564   1.655   1.854   1.823
   1.721   1.730   1.809   1.596   1.562   1.451   1.505   1.437   1.427   1.446
   1.466   1.482   1.516   1.734   1.650   1.873   2.006   2.266   2.351   2.551
   3.012   3.311   3.472   3.549   3.816   3.983   4.207   4.606   4.679   4.753
   4.749   4.632   4.386   4.095   4.132   3.816   3.646   3.426   3.082   2.936
   2.670   2.483   2.359   2.209   1.861   1.725   1.613   1.538   1.443   1.484
   1.383   1.301
   0.762   0.751   0.639   0.688   0.472   0.652   0.611   0.574   0.501   0.619
   0.546   0.551   0.701   0.834   0.914   1.021   1.207   1.111   1.400   1.234
   1.119   1.013   0.963   0.790   0.745   0.664   0.746   0.746   0.660   0.585
   0.551   0.596   0.608   0.639   0.668   0.899   0.948   0.996   1.096   1.112
   1.290   1.455   1.730   1.718   1.772   1.860   1.874   2.098   2.171   2.105
   2.276   2.178   2.237   2.245   2.047   1.899   1.777   1.535   1.299   1.396
   1.208   1.154   1.167   1.062   0.921   0.852   0.881   0.797   0.753   0.917
   0.722   0.729
   0.685   0.632   0.488   0.527   0.463   0.368   0.350   0.431   0.254   0.320
   0.358   0.428   0.427   0.574   0.536   0.619   0.874   0.902   1.154   1.031
   1.017   0.754   0.583   0.526   0.464   0.356   0.405   0.406   0.442   0.315
   0.251   0.313   0.365   0.411   0.461   0.475   0.593   0.701   0.686   0.618
   0.711   0.825   0.937   1.133   1.090   0.946   0.957   0.982   1.160   1.103
   1.006   1.157   1.219   1.373   1.128   1.102   0.887   0.802   0.650   0.704
   0.594   0.604   0.661   0.519   0.488   0.416   0.668   0.588   0.566   0.689
   0.608   0.442
   0.557   0.482   0.439   0.465   0.437   0.364   0.436   0.261   0.135   0.222
   0.292   0.393   0.460   0.611   0.581   0.681   0.714   0.880   0.978   0.870
   0.890   0.669   0.541   0.523   0.421   0.323   0.277   0.236   0.344   0.213
   0.273   0.388   0.235   0.301   0.407   0.392   0.507   0.694   0.712   0.546
   0.583   0.683   0.747   0.734   0.793   0.636   0.731   0.662   0.744   0.753
   0.640   0.823   0.787   0.881   0.749   0.622   0.516   0.515   0.555   0.554
   0.382   0.419   0.409   0.345   0.343   0.368   0.514   0.485   0.395   0.604
   0.571   0.434
   0.597   0.581   0.532   0.566   0.419   0.358   0.414   0.260   0.059   0.107
   0.179   0.240   0.375   0.532   0.580   0.872   0.849   1.025   0.812   0.661
   0.645   0.770   0.546   0.468   0.205   0.183   0.234   0.129   0.232   0.152
   0.336   0.438   0.316   0.274   0.280   0.313   0.549   0.770   0.718   0.713
   0.502   0.637   0.630   0.449   0.543   0.517   0.505   0.434   0.489   0.637
   0.549   0.716   0.740   0.655   0.610   0.501   0.408   0.255   0.407   0.519
   0.368   0.415   0.326   0.177   0.247   0.305   0.297   0.451   0.471   0.530
   0.550   0.768
   0.895   0.931   0.656   0.688   0.547   0.393   0.318   0.393   0.217   0.313
   0.341   0.279   0.293   0.443   0.415   0.781   0.998   1.266   0.912   0.893
   0.755   0.687   0.558   0.420   0.358   0.250   0.392   0.111   0.380   0.319
   0.318   0.372   0.528   0.421   0.316   0.285   0.715   0.892   0.675   0.560
   0.341   0.368   0.455   0.461   0.513   0.461   0.328   0.452   0.301   0.577
   0.467   0.613   0.733   0.867   0.692   0.689   0.678   0.269   0.383   0.272
   0.302   0.420   0.486   0.272   0.430   0.366   0.296   0.478   0.665   0.645
   0.800   0.991
   1.059   0.982   0.817   0.856   0.505   0.379   0.354   0.418   0.330   0.486
   0.532   0.438   0.509   0.520   0.481   0.889   1.241   1.113   1.264   1.252
   1.047   0.732   0.648   0.625   0.575   0.524   0.543   0.504   0.609   0.546
   0.339   0.233   0.491   0.630   0.623   0.470   0.753   0.730   0.777   0.451
   0.446   0.368   0.272   0.390   0.371   0.382   0.452   0.662   0.320   0.416
   0.539   0.597   0.697   0.781   0.743   0.864   0.694   0.508   0.464   0.206
   0.486   0.531   0.496   0.310   0.413   0.286   0.517   0.494   0.689   1.021
   0.913   0.995
   1.531   1.307   1.167   1.075   0.646   0.524   0.613   0.456   0.306   0.410
   0.628   0.604   0.779   0.831   0.940   1.489   1.737   1.723   2.183   1.886
   1.928   1.533   1.399   1.555   0.718   0.739   0.767   0.850   0.561   0.380
   0.184   0.272   0.465   0.844   1.165   1.071   0.957   0.802   0.722   0.596
   0.810   0.480   0.420   0.588   0.127   0.394   0.641   0.641   0.533   0.612
   0.635   0.777   0.777   0.535   0.829   1.051   0.608   0.814   0.559   0.628
   0.796   0.717   0.458   0.484   0.472   0.312   0.623   0.525   0.904   1.413
   1.153   1.363
   2.198   2.413   2.101   1.798   1.172   1.049   0.909   0.457   0.371   0.464
   0.641   0.662   0.981   1.290   1.767   2.124   2.784   3.621   3.390   3.097
   3.685   2.959   2.266   2.210   1.112   0.735   1.030   0.742   0.593   0.454
   0.290   0.521   1.037   1.364   1.601   1.919   1.640   1.388   1.104   0.892
   1.404   0.775   0.959   0.917   0.277   0.376   0.639   0.602   0.914   0.981
   0.984   1.598   1.332   1.235   1.452   1.366   1.232   1.334   1.141   0.872
   0.941   0.887   0.797   0.684   0.775   0.845   0.725   0.842   2.088   2.588
   2.650   2.109
   2.617   3.361   3.200   2.863   1.692   1.475   0.898   0.431   0.585   0.505
   0.656   0.862   0.846   0.991   1.719   2.095   3.107   3.930   3.531   3.771
   4.286   3.068   2.491   2.112   0.870   0.698   0.921   0.453   0.640   0.853
   0.687   0.797   1.941   2.336   2.705   3.092   2.375   2.393   2.522   2.081
   1.988   0.883   0.895   0.897   0.329   0.127   0.592   0.813   0.925   0.959
   1.215   1.983   2.564   1.942   2.112   2.271   2.837   1.742   1.694   0.760
   0.824   0.893   0.969   0.640   0.740   1.003   0.991   1.357   3.237   3.958
   4.065   3.190
   2.385   2.860   2.846   2.569   1.758   1.190   0.574   0.527   0.687   0.735
   1.059   1.250   0.815   0.900   1.356   1.750   1.924   2.488   2.344   2.446
   2.521   2.133   1.831   1.588   0.810   0.801   0.493   0.379   1.005   0.702
   0.784   1.285   1.812   2.863   3.504   3.691   3.398   2.997   3.007   2.592
   2.155   1.229   0.614   0.553   0.531   0.513   0.732   0.900   0.836   0.928
   1.107   1.994   3.256   2.532   3.028   3.472   3.847   2.377   1.788   0.771
   0.557   0.504   0.844   0.815   0.588   0.880   1.170   1.321   2.382   2.961
   3.140   3.073
   1.460   1.533   1.387   1.069   1.003   0.809   0.393   0.463   0.527   0.519
   0.764   1.342   0.750   0.710   0.900   0.828   0.663   1.358   1.266   1.035
   1.158   1.432   0.946   0.970   1.149   0.663   0.281   0.651   0.975   0.217
   0.386   0.920   1.209   1.884   2.486   2.729   2.810   2.226   2.202   1.607
   1.395   1.455   0.492   0.415   0.479   0.575   0.550   1.041   0.799   0.735
   1.287   1.732   2.323   2.149   2.875   3.554   3.084   2.501   1.366   0.857
   0.543   0.321   0.620   0.501   0.465   0.445   0.631   0.995   0.836   1.057
   1.342   1.332
   0.978   1.003   0.846   0.870   0.589   0.807   0.560   0.845   0.646   0.538
   0.617   0.858   0.920   0.663   0.816   0.000   0.492   0.672   0.839   0.739
   0.840   0.700   0.390   0.590   1.050   0.792   0.621   0.682   0.795   0.299
   0.317   0.250   0.886   0.978   0.792   1.151   1.271   1.193   1.838   1.352
   0.582   0.900   0.767   0.667   0.814   0.307   0.599   1.121   1.170   0.941
   1.524   1.413   0.865   1.182   1.632   2.393   2.196   2.120   0.657   0.803
   0.739   0.453   0.518   0.458   0.835   0.761   0.235   0.449   0.190   0.454
   0.846   0.389
 200       5.00   72    0 5.00   15    0
   0.875   0.875   0.875   0.875   0.875   0.875   0.875   0.875   0.875   0.875
   0.875   0.875   0.875   0.875   0.875   0.875   0.875   0.875   0.875   0.875
   0.875   0.875   0.875   0.875   0.875   0.875   0.875   0.875   0.875   0.875
   0.875   0.875   0.875   0.875   0.875   0.875   0.875   0.875   0.875   0.875
   0.875   0.875   0.875   0.875   0.875   0.875   0.875   0.875   0.875   0.875
   0.875   0.875   0.875   0.875   0.875   0.875   0.875   0.875   0.875   0.875
   0.875   0.875   0.875   0.875   0.875   0.875   0.875   0.875   0.875   0.875
   0.875   0.875
   0.969   0.907   0.875   0.908   0.800   0.813   0.804   0.859   0.799   0.845
   0.762   0.844   0.883   0.852   0.775   0.866   0.885   0.894   0.950   0.876
   0.925   0.887   0.861   0.914   0.878   0.888   0.827   0.886   0.916   0.882
   0.868   0.906   0.888   0.894   0.842   0.901   0.902   0.855   0.828   0.871
   0.936   0.890   0.898   0.953   0.927   0.948   0.939   0.957   0.946   0.990
   1.028   0.982   1.008   0.961   0.984   0.948   1.070   1.073   0.985   0.955
   0.966   0.901   0.940   0.999   0.964   0.896   0.867   0.858   0.909   0.855
   0.886   0.929
   0.949   0.853   0.819   0.934   0.831   0.779   0.793   0.919   0.811   0.781
   0.770   0.829   0.967   0.953   0.906   1.059   1.079   1.064   1.121   1.022
   1.105   1.026   0.987   1.008   0.967   0.906   0.908   0.892   0.929   0.880
   0.813   0.841   0.897   0.858   0.798   0.821   0.766   0.827   0.749   0.802
   0.871   0.822   0.863   0.945   0.912   0.979   0.937   0.950   0.979   0.980
   1.013   1.025   1.059   1.037   1.053   1.025   1.056   1.024   0.984   0.962
   1.033   1.005   0.948   0.954   0.940   0.810   0.822   0.822   0.855   0.859
   0.923   0.896
   0.852   0.968   0.894   0.986   0.922   0.824   0.849   0.958   0.901   0.866
   0.972   1.054   1.170   1.166   1.228   1.366   1.327   1.181   1.347   1.172
   1.132   1.183   1.174   1.137   1.130   1.001   1.031   1.000   0.999   0.969
   0.819   0.848   0.868   0.797   0.858   0.771   0.771   0.805   0.731   0.805
   0.781   0.811   0.866   0.832   0.861   0.909   0.864   0.981   1.017   0.998
   1.003   1.118   1.150   1.116   1.165   1.086   1.101   1.026   0.955   0.974
   1.076   1.040   1.066   0.934   0.938   0.860   0.898   0.913   0.854   0.902
   0.941   0.939
   0.978   1.011   1.063   1.075   0.957   0.909   0.957   1.161   1.269   1.270
   1.450   1.433   1.406   1.422   1.443   1.376   1.286   1.025   1.152   1.011
   0.967   1.052   1.121   1.207   1.162   1.178   1.197   1.166   1.013   1.063
   0.872   0.808   0.851   0.782   0.907   0.811   0.824   0.777   0.639   0.784
   0.776   0.821   0.857   0.821   0.854   0.867   0.852   1.046   1.049   1.028
   1.121   1.085   1.219   1.193   1.193   1.074   1.119   1.083   0.956   0.998
   1.031   0.996   0.973   0.964   0.874   0.941   0.967   0.944   0.793   0.883
   1.002   1.067
   1.058   0.952   1.098   1.136   1.061   1.197   1.334   1.813   2.211   2.225
   2.084   1.826   1.465   1.421   1.260   0.974   0.830   0.710   0.663   0.601
   0.699   0.648   0.819   1.011   1.136   1.332   1.403   1.517   1.394   1.398
   1.188   1.104   0.996   0.790   0.842   0.831   0.771   0.776   0.740   0.796
   0.705   0.786   0.870   0.924   0.914   1.022   0.983   1.175   1.346   1.134
   1.290   1.004   1.068   1.008   0.949   0.924   0.956   0.980   0.987   1.044
   1.167   1.098   0.943   1.105   0.864   0.918   0.921   0.827   0.823   0.863
   0.963   0.971
   0.718   0.823   0.905   0.979   1.058   1.545   2.026   2.657   3.508   3.508
   3.071   2.321   1.517   1.146   0.871   0.654   0.524   0.431   0.440   0.375
   0.398   0.464   0.540   0.606   0.969   1.281   1.668   2.034   2.460   2.386
   2.151   1.768   1.369   0.950   0.828   0.740   0.742   0.757   0.813   0.877
   0.714   0.781   0.964   1.164   1.218   1.458   1.557   1.426   1.478   1.159
   1.102   0.856   0.743   0.657   0.629   0.634   0.649   0.746   0.996   1.089
   1.306   1.292   1.366   1.355   1.211   1.058   0.955   0.802   0.788   0.786
   0.708   0.682
   0.475   0.552   0.718   0.713   1.027   1.516   2.343   3.373   4.588   4.582
   4.063   2.698   1.687   0.909   0.562   0.465   0.346   0.219   0.344   0.239
   0.360   0.503   0.390   0.473   0.741   1.114   1.850   2.717   3.677   3.751
   2.994   2.126   1.449   0.925   0.712   0.558   0.686   0.546   0.555   0.748
   0.779   0.870   1.046   1.465   1.974   2.156   2.209   1.656   1.308   0.966
   0.774   0.561   0.466   0.452   0.496   0.451   0.467   0.557   0.683   0.974
   1.256   1.718   2.000   1.914   1.749   1.434   1.122   0.782   0.687   0.629
   0.489   0.501
   0.488   0.459   0.525   0.526   0.860   1.181   1.775   3.080   4.323   4.343
   3.781   2.492   1.430   0.770   0.521   0.383   0.252   0.236   0.163   0.126
   0.242   0.392   0.309   0.486   0.724   1.140   1.876   3.132   4.170   3.973
   2.936   2.016   1.259   0.705   0.478   0.461   0.468   0.312   0.363   0.547
   0.681   0.812   1.067   1.714   2.990   3.232   2.991   2.010   1.374   0.893
   0.607   0.422   0.308   0.311   0.327   0.317   0.378   0.544   0.407   0.889
   1.494   2.125   2.951   2.954   2.370   1.722   1.289   0.731   0.534   0.484
   0.456   0.405
   0.306   0.217   0.249   0.380   0.517   0.828   1.062   1.866   2.770   2.914
   2.637   1.805   0.994   0.668   0.508   0.327   0.275   0.222   0.091   0.173
   0.133   0.185   0.254   0.459   0.641   1.037   1.561   2.337   3.333   2.559
   2.068   1.561   0.938   0.548   0.305   0.305   0.334   0.420   0.329   0.451
   0.569   0.706   1.138   1.999   3.611   4.306   3.544   2.062   1.434   0.780
   0.439   0.334   0.176   0.206   0.337   0.368   0.195   0.318   0.294   0.851
   1.371   2.164   3.259   3.569   3.006   1.930   1.387   0.835   0.415   0.397
   0.343   0.256
   0.134   0.126   0.243   0.291   0.372   0.458   0.665   1.001   1.363   1.627
   1.460   1.157   1.052   0.721   0.630   0.349   0.437   0.138   0.195   0.282
   0.290   0.149   0.271   0.449   0.618   1.018   1.307   1.526   1.898   1.082
   1.044   0.955   0.436   0.394   0.393   0.258   0.304   0.376   0.258   0.289
   0.444   0.786   1.239   1.624   2.882   3.840   3.584   2.157   1.473   0.652
   0.324   0.142   0.162   0.357   0.362   0.427   0.169   0.191   0.360   0.798
   1.031   1.894   2.521   3.214   2.762   1.652   1.165   0.712   0.505   0.455
   0.371   0.266
   0.247   0.352   0.443   0.366   0.414   0.355   0.515   0.789   1.029   1.032
   0.815   0.804   0.944   0.885   0.895   0.595   0.525   0.215   0.264   0.302
   0.442   0.297   0.401   0.582   0.781   0.923   1.026   1.085   1.087   0.744
   0.576   0.472   0.296   0.407   0.368   0.374   0.336   0.400   0.351   0.292
   0.509   0.806   0.921   0.916   1.612   2.204   2.613   1.889   1.415   0.953
   0.242   0.187   0.322   0.455   0.316   0.328   0.399   0.407   0.573   0.675
   0.814   1.240   1.815   2.034   1.884   0.984   0.975   0.581   0.470   0.456
   0.381   0.390
   0.250   0.492   0.475   0.433   0.350   0.457   0.532   0.463   0.924   0.750
   0.526   0.663   0.727   1.119   0.640   0.578   0.647   0.449   0.165   0.115
   0.379   0.470   0.522   0.654   0.718   0.560   0.662   0.700   0.693   0.641
   0.401   0.214   0.297   0.276   0.105   0.249   0.426   0.482   0.348   0.287
   0.670   0.558   0.592   0.641   1.115   1.388   1.447   1.006   1.283   1.135
   0.344   0.422   0.433   0.285   0.230   0.415   0.400   0.386   0.447   0.378
   0.559   0.513   1.111   0.994   1.091   0.541   0.766   0.527   0.270   0.229
   0.259   0.434
   0.173   0.267   0.197   0.434   0.360   0.502   0.557   0.217   0.343   0.437
   0.330   0.474   0.586   0.967   0.242   0.543   0.824   0.767   0.192   0.114
   0.234   0.359   0.458   0.456   0.724   0.341   0.687   0.620   0.339   0.379
   0.492   0.377   0.189   0.190   0.180   0.045   0.265   0.554   0.249   0.353
   0.552   0.263   0.593   0.369   0.795   0.758   1.035   0.755   1.006   0.830
   0.368   0.254   0.229   0.184   0.311   0.379   0.135   0.230   0.437   0.202
   0.341   0.155   0.756   0.815   0.410   0.299   0.510   0.279   0.199   0.142
   0.158   0.382
   0.117   0.005   0.368   0.274   0.245   0.526   0.308   0.515   0.101   0.243
   0.329   0.204   0.274   0.505   0.574   0.855   0.472   0.700   0.621   0.114
   0.106   0.098   0.273   0.275   0.665   0.122   0.850   0.666   0.469   0.396
   0.535   0.651   0.289   0.230   0.217   0.080   0.049   0.520   0.248   0.499
   0.255   0.157   0.428   0.415   0.262   0.327   0.693   0.888   0.591   0.303
   0.411   0.080   0.144   0.172   0.440   0.136   0.033   0.159   0.278   0.186
   0.049   0.046   0.484   0.684   0.303   0.557   0.530   0.407   0.235   0.320
   0.531   0.462
 111       5.00   72    0 5.00   15    0
   0.092   0.092   0.092   0.092   0.092   0.092   0.092   0.092   0.092   0.092
   0.092   0.092   0.092   0.092   0.092   0.092   0.092   0.092   0.092   0.092
   0.092   0.092   0.092   0.092   0.092   0.092   0.092   0.092   0.092   0.092
   0.092   0.092   0.092   0.092   0.092   0.092   0.092   0.092   0.092   0.092
   0.092   0.092   0.092   0.092   0.092   0.092   0.092   0.092   0.092   0.092
   0.092   0.092   0.092   0.092   0.092   0.092   0.092   0.092   0.092   0.092
   0.092   0.092   0.092   0.092   0.092   0.092   0.092   0.092   0.092   0.092
   0.092   0.092
   0.118   0.135   0.123   0.107   0.094   0.112   0.120   0.121   0.117   0.110
   0.100   0.104   0.110   0.107   0.112   0.112   0.106   0.099   0.101   0.104
   0.110   0.121   0.107   0.095   0.121   0.117   0.101   0.111   0.102   0.097
   0.088   0.084   0.096   0.103   0.106   0.104   0.108   0.110   0.112   0.109
   0.099   0.099   0.117   0.106   0.121   0.136   0.101   0.108   0.109   0.109
   0.120   0.100   0.123   0.139   0.122   0.120   0.111   0.126   0.141   0.116
   0.117   0.114   0.116   0.100   0.129   0.119   0.117   0.114   0.115   0.115
   0.116   0.109
   0.150   0.164   0.145   0.147   0.134   0.146   0.174   0.156   0.151   0.165
   0.151   0.140   0.152   0.151   0.146   0.141   0.133   0.133   0.144   0.135
   0.128   0.140   0.129   0.118   0.158   0.134   0.117   0.144   0.137   0.117
   0.118   0.098   0.123   0.129   0.125   0.129   0.106   0.122   0.131   0.125
   0.107   0.108   0.127   0.114   0.118   0.146   0.132   0.115   0.114   0.124
   0.143   0.121   0.126   0.140   0.148   0.137   0.109   0.129   0.133   0.114
   0.116   0.128   0.139   0.137   0.143   0.129   0.140   0.125   0.137   0.136
   0.134   0.133
   0.231   0.232   0.238   0.257   0.310   0.252   0.272   0.282   0.311   0.296
   0.305   0.273   0.262   0.260   0.251   0.258   0.249   0.223   0.244   0.244
   0.226   0.200   0.190   0.182   0.241   0.237   0.226   0.206   0.201   0.170
   0.203   0.181   0.211   0.199   0.204   0.189   0.165   0.178   0.181   0.205
   0.178   0.152   0.135   0.136   0.148   0.140   0.196   0.141   0.161   0.157
   0.181   0.156   0.138   0.150   0.164   0.136   0.120   0.173   0.156   0.136
   0.178   0.172   0.187   0.186   0.172   0.181   0.220   0.196   0.205   0.238
   0.239   0.245
   0.520   0.490   0.532   0.633   0.715   0.778   0.826   0.982   1.009   1.083
   1.002   0.891   0.724   0.643   0.600   0.566   0.530   0.456   0.435   0.516
   0.461   0.445   0.460   0.417   0.518   0.525   0.569   0.465   0.495   0.500
   0.492   0.451   0.438   0.461   0.415   0.368   0.323   0.335   0.340   0.306
   0.252   0.270   0.248   0.248   0.212   0.232   0.252   0.223   0.213   0.229
   0.230   0.235   0.212   0.236   0.237   0.231   0.240   0.282   0.255   0.282
   0.334   0.342   0.372   0.408   0.417   0.409   0.469   0.453   0.486   0.501
   0.469   0.519
   0.944   0.940   1.033   1.298   1.430   1.770   2.227   2.702   2.941   3.068
   2.774   2.351   1.862   1.473   1.186   1.034   0.894   0.842   0.818   0.886
   0.834   0.825   0.885   1.030   1.154   1.409   1.606   1.846   1.926   1.860
   1.586   1.343   1.191   1.140   0.901   0.871   0.689   0.625   0.625   0.597
   0.463   0.520   0.595   0.544   0.508   0.531   0.510   0.483   0.440   0.505
   0.405   0.425   0.400   0.421   0.491   0.445   0.547   0.608   0.628   0.745
   0.917   1.012   1.113   1.224   1.154   1.212   1.229   1.054   1.008   0.923
   0.946   1.000
   1.217   1.287   1.386   1.640   1.933   2.429   3.204   3.920   4.509   4.482
   4.131   3.407   2.594   2.036   1.610   1.357   1.104   1.034   1.048   1.070
   1.094   1.118   1.285   1.742   2.098   2.934   3.687   4.389   4.732   4.363
   3.637   3.092   2.453   2.014   1.584   1.506   1.215   1.057   1.087   1.054
   0.926   0.970   1.152   1.208   1.533   1.727   1.758   1.538   1.338   1.296
   1.024   0.967   0.882   0.897   0.902   0.849   1.092   1.359   1.658   2.149
   2.815   3.293   3.448   3.463   3.010   2.531   2.029   1.758   1.421   1.306
   1.386   1.279
   1.102   1.053   1.153   1.338   1.701   2.053   2.535   3.052   3.535   3.499
   3.258   2.698   2.091   1.810   1.353   1.112   0.889   0.846   0.806   0.881
   0.925   1.125   1.277   1.707   2.364   3.180   4.197   4.876   5.561   5.066
   4.186   3.263   2.592   1.993   1.669   1.467   1.309   1.247   1.281   1.197
   1.222   1.298   1.628   1.906   2.583   3.520   3.668   3.388   2.887   2.348
   1.896   1.600   1.354   1.320   1.175   1.355   1.473   1.867   2.389   3.228
   4.430   5.374   5.451   4.833   3.819   2.869   2.063   1.743   1.315   1.114
   1.123   1.044
   0.776   0.621   0.707   0.926   1.134   1.333   1.449   1.625   1.778   1.820
   1.794   1.469   1.302   1.283   0.886   0.750   0.644   0.638   0.545   0.545
   0.573   0.784   0.919   1.022   1.501   1.941   2.681   3.061   3.530   3.041
   2.409   1.791   1.571   1.277   1.135   0.997   1.042   1.134   1.008   1.137
   1.179   1.160   1.584   1.862   2.542   3.358   3.807   3.733   3.300   2.345
   1.957   1.526   1.185   1.174   1.032   1.262   1.229   1.516   1.952   2.625
   3.541   4.216   4.135   3.414   2.602   1.959   1.363   1.017   0.808   0.615
   0.626   0.686
   0.544   0.509   0.477   0.694   0.770   0.890   0.932   1.059   1.063   1.090
   1.227   0.987   0.768   0.727   0.592   0.579   0.587   0.540   0.489   0.390
   0.381   0.463   0.694   0.681   0.830   1.046   1.478   1.693   1.717   1.448
   1.068   1.027   0.944   0.783   0.719   0.704   0.728   0.867   0.685   0.871
   0.947   0.856   1.033   1.199   1.746   1.883   2.147   2.235   1.937   1.397
   1.180   0.938   0.756   0.835   0.757   0.805   0.724   0.824   1.085   1.399
   1.721   1.929   1.959   1.784   1.487   1.107   0.703   0.505   0.462   0.394
   0.481   0.488
   0.405   0.525   0.430   0.528   0.575   0.644   0.796   0.898   0.995   0.913
   1.031   0.821   0.519   0.451   0.486   0.449   0.515   0.479   0.440   0.407
   0.481   0.451   0.571   0.604   0.679   0.774   0.921   1.071   1.110   0.981
   0.751   0.674   0.671   0.498   0.590   0.569   0.534   0.570   0.645   0.565
   0.646   0.678   0.560   0.880   1.122   1.214   1.230   1.090   0.908   0.835
   0.656   0.554   0.594   0.630   0.535   0.554   0.486   0.443   0.574   0.674
   0.699   0.951   1.133   1.077   0.917   0.702   0.519   0.430   0.361   0.350
   0.450   0.410
   0.438   0.510   0.476   0.422   0.492   0.625   0.717   0.686   0.982   0.893
   0.899   0.673   0.429   0.505   0.608   0.432   0.430   0.363   0.321   0.337
   0.514   0.491   0.477   0.527   0.615   0.716   0.759   0.768   0.947   0.770
   0.530   0.539   0.507   0.412   0.556   0.507   0.528   0.375   0.556   0.509
   0.502   0.619   0.561   0.889   0.801   1.012   1.000   0.700   0.648   0.594
   0.504   0.381   0.421   0.497   0.462   0.592   0.635   0.451   0.506   0.644
   0.422   0.617   0.850   0.815   0.642   0.623   0.549   0.472   0.411   0.390
   0.410   0.440
   0.341   0.449   0.514   0.477   0.620   0.662   0.761   0.488   0.714   0.706
   0.669   0.646   0.575   0.508   0.529   0.498   0.372   0.354   0.296   0.349
   0.514   0.590   0.481   0.527   0.501   0.557   0.610   0.701   0.728   0.614
   0.459   0.580   0.460   0.461   0.601   0.545   0.537   0.318   0.378   0.439
   0.453   0.505   0.646   0.904   0.733   0.932   0.805   0.535   0.511   0.441
   0.461   0.339   0.394   0.427   0.380   0.809   0.828   0.606   0.593   0.617
   0.387   0.461   0.693   0.702   0.594   0.653   0.506   0.401   0.420   0.361
   0.422   0.443
   0.448   0.447   0.582   0.638   0.594   0.629   0.790   0.584   0.455   0.558
   0.763   0.703   0.644   0.598   0.497   0.589   0.411   0.474   0.571   0.570
   0.533   0.510   0.515   0.575   0.355   0.528   0.405   0.695   0.566   0.448
   0.615   0.525   0.503   0.526   0.542   0.681   0.531   0.466   0.562   0.568
   0.522   0.312   0.487   0.919   0.695   0.692   0.676   0.777   0.548   0.373
   0.345   0.573   0.427   0.392   0.262   0.652   0.730   0.599   0.659   0.669
   0.596   0.598   0.529   0.589   0.617   0.544   0.474   0.474   0.429   0.277
   0.570   0.599
   0.681   0.600   0.676   0.582   0.419   0.609   0.780   0.624   0.621   0.650
   0.734   0.626   0.467   0.661   0.570   0.632   0.649   0.714   1.113   0.978
   1.002   0.920   0.733   0.628   0.458   0.756   0.461   0.458   0.329   0.356
   0.659   0.557   0.472   0.462   0.556   0.868   0.354   0.739   0.819   0.539
   0.507   0.497   0.446   0.704   0.464   0.542   0.601   0.690   0.441   0.360
   0.431   0.724   0.508   0.451   0.371   0.494   0.747   0.670   0.673   0.827
   0.647   0.516   0.441   0.566   0.606   0.581   0.493   0.687   0.753   0.505
   0.713   0.818
  4  0      4.2636085E-01  0.0000000E+00
  4  1      1.4476177E-02 -4.5768733E-02
  4  2      8.9821225E-02 -2.2535813E-01
  4  3     -2.1886961E-02  1.9994702E-02
  4  4     -9.7847272E-01  1.6442330E-01
  6  0      3.1045124E+00  0.0000000E+00
  6  1     -3.1659430E-01  5.7807849E-01
  6  2     -1.4509371E-01 -1.9765704E-01
  6  3      2.2114466E-01  4.5877217E-01
  6  4      1.6828063E+00 -5.7699042E-02
  6  5     -8.3522474E-02  1.7105218E-01
  6  6     -1.7215609E-02  1.4888582E-01
  8  0      1.5403507E+00  0.0000000E+00
  8  1     -1.7453778E-01  4.3182037E-01
  8  2     -1.7569133E-01 -1.7788956E-01
  8  3     -1.1007053E-01 -4.0139821E-01
  8  4     -1.2931136E+00  1.3477928E-01
  8  5      7.7569294E-02 -2.7248783E-01
  8  6      3.6957545E-02  1.2346018E-01
  8  7     -7.9790756E-02 -8.3560610E-03
  8  8      7.7685564E-01 -2.5151424E-01
 10  0      9.7746004E-01  0.0000000E+00
 10  1     -9.1183548E-02  1.4606232E-01
 10  2      1.5779593E-01 -2.7983563E-01
 10  3     -1.7472544E-01 -2.1050617E-01
 10  4     -9.1563006E-01  4.8654096E-02
 10  5      5.5369573E-02 -3.0128780E-01
 10  6      2.1520128E-01 -2.4620733E-01
 10  7     -3.0239199E-02  1.1914365E-01
 10  8      6.3288689E-02 -2.6509849E-02
 10  9     -5.5086743E-02 -4.1931199E-02
 10 10      2.0842208E-01 -1.7290347E-01
 12  0     -1.1531460E-01  1.9677090E+00  0.0000000E+00  0.0000000E+00
 12  1      3.5928342E-02 -4.4801728E-01 -2.7109691E-01  7.3631903E-01
 12  2      1.5146135E-01 -4.2104160E-01  7.4462134E-02 -1.6877326E-01
 12  3     -6.3114036E-02  2.9043603E-01  1.1733827E-01  4.6934711E-01
 12  4     -1.0223489E-01  6.7495934E-01 -3.7628252E-02  3.0670730E-02
 12  5     -1.0528514E-02 -5.9443604E-02 -5.6791101E-03  2.1157406E-01
 12  6     -1.5157309E-01 -3.1360679E-02  1.2914304E-01 -7.8320062E-02
 12  7      1.6801710E-01  1.8755875E-01  1.7173283E-01  3.6760233E-01
 12  8      7.6924460E-01  6.7278232E-01 -2.2327652E-01  8.7145626E-03
 12  9      2.8730820E-02 -6.6132815E-02  2.3724890E-01  1.6956072E-01
 12 10      1.0058063E-01 -1.5593164E-01 -1.3755994E-01  1.9988024E-01
 12 11      2.0273442E-02 -1.1985313E-01  1.8310976E-02  3.4840872E-02
 12 12      9.2291528E-04 -2.0383200E-01  1.1453342E-01 -3.3271182E-03
 14  0      9.2041653E-01  0.0000000E+00
 14  1     -1.9095184E-01  3.6152376E-01
 14  2     -2.2032556E-02 -2.1095775E-01
 14  3     -5.2879794E-02 -1.9754948E-01
 14  4     -5.1534892E-01 -1.0996043E-02
 14  5      8.5830248E-02 -2.5821287E-01
 14  6     -6.6677501E-02  2.7248714E-02
 14  7     -1.5568677E-01 -4.0192947E-01
 14  8     -3.2009429E-01  3.5646958E-02
 14  9      6.4153938E-02 -1.5885739E-01
 14 10     -2.3026205E-02  5.3002069E-02
 14 11     -7.3819586E-02  2.2751776E-02
 14 12     -2.2321892E-02  1.1748354E-02
 14 13      5.8097499E-02 -5.3424328E-02
 14 14     -7.7233258E-02  8.3416121E-02
 220       5.00   72    0 5.00   18    0
   4.236   4.200   4.166   4.135   4.107   4.082   4.061   4.042   4.027   4.016
   4.007   4.002   4.000   4.002   4.006   4.014   4.024   4.038   4.054   4.073
   4.095   4.120   4.147   4.177   4.209   4.243   4.279   4.317   4.357   4.399
   4.442   4.486   4.531   4.576   4.622   4.667   4.712   4.755   4.797   4.838
   4.876   4.911   4.943   4.971   4.996   5.017   5.033   5.044   5.051   5.052
   5.049   5.041   5.028   5.010   4.988   4.962   4.932   4.898   4.861   4.821
   4.778   4.734   4.688   4.641   4.593   4.545   4.498   4.451   4.404   4.360
   4.317   4.275
   2.678   2.607   2.544   2.490   2.444   2.406   2.376   2.355   2.341   2.334
   2.334   2.340   2.351   2.367   2.387   2.410   2.435   2.462   2.491   2.521
   2.554   2.588   2.626   2.666   2.710   2.759   2.814   2.875   2.942   3.017
   3.100   3.190   3.288   3.393   3.504   3.621   3.741   3.864   3.988   4.111
   4.231   4.345   4.452   4.549   4.635   4.708   4.766   4.809   4.834   4.843
   4.834   4.809   4.767   4.709   4.638   4.553   4.457   4.352   4.239   4.121
   3.998   3.872   3.745   3.619   3.495   3.374   3.257   3.144   3.038   2.937
   2.843   2.757
   1.106   1.048   0.999   0.957   0.924   0.901   0.888   0.885   0.894   0.913
   0.942   0.979   1.021   1.065   1.110   1.152   1.189   1.220   1.243   1.257
   1.265   1.266   1.263   1.257   1.251   1.249   1.252   1.264   1.287   1.323
   1.373   1.439   1.521   1.620   1.733   1.861   2.001   2.151   2.309   2.471
   2.633   2.793   2.945   3.086   3.212   3.320   3.406   3.468   3.505   3.516
   3.502   3.462   3.398   3.313   3.209   3.090   2.959   2.818   2.672   2.524
   2.377   2.232   2.093   1.959   1.833   1.715   1.604   1.502   1.407   1.321
   1.242   1.170
   0.365   0.337   0.307   0.275   0.245   0.220   0.204   0.202   0.217   0.251
   0.304   0.371   0.448   0.528   0.605   0.672   0.723   0.756   0.769   0.762
   0.736   0.695   0.640   0.576   0.508   0.439   0.375   0.321   0.280   0.257
   0.252   0.268   0.302   0.355   0.425   0.511   0.611   0.723   0.847   0.978
   1.115   1.252   1.385   1.511   1.625   1.722   1.801   1.859   1.892   1.902
   1.886   1.846   1.782   1.699   1.598   1.484   1.363   1.239   1.116   1.001
   0.895   0.801   0.721   0.654   0.599   0.554   0.518   0.488   0.461   0.438
   0.415   0.391
   0.447   0.435   0.406   0.362   0.306   0.246   0.191   0.153   0.143   0.165
   0.222   0.307   0.411   0.521   0.623   0.706   0.764   0.793   0.795   0.772
   0.728   0.667   0.592   0.506   0.413   0.318   0.227   0.147   0.084   0.043
   0.025   0.028   0.047   0.076   0.112   0.151   0.192   0.238   0.287   0.342
   0.401   0.461   0.521   0.579   0.633   0.683   0.727   0.765   0.794   0.810
   0.811   0.794   0.757   0.701   0.630   0.547   0.459   0.371   0.291   0.225
   0.178   0.152   0.147   0.163   0.193   0.234   0.279   0.325   0.367   0.402
   0.428   0.444
   0.712   0.703   0.670   0.612   0.530   0.432   0.333   0.251   0.205   0.205
   0.253   0.342   0.455   0.573   0.675   0.750   0.790   0.797   0.779   0.744
   0.700   0.653   0.601   0.545   0.480   0.410   0.339   0.278   0.238   0.225
   0.243   0.285   0.339   0.392   0.433   0.457   0.465   0.461   0.450   0.437
   0.422   0.404   0.382   0.360   0.343   0.337   0.347   0.375   0.415   0.458
   0.494   0.515   0.515   0.493   0.451   0.395   0.330   0.264   0.206   0.161
   0.138   0.140   0.168   0.220   0.289   0.368   0.449   0.524   0.588   0.640
   0.678   0.702
   0.670   0.661   0.637   0.591   0.519   0.426   0.324   0.234   0.179   0.170
   0.211   0.291   0.392   0.492   0.571   0.617   0.627   0.605   0.563   0.517
   0.478   0.453   0.442   0.436   0.423   0.396   0.357   0.317   0.293   0.301
   0.349   0.430   0.527   0.618   0.683   0.716   0.719   0.703   0.678   0.648
   0.611   0.561   0.497   0.426   0.363   0.326   0.327   0.367   0.435   0.513
   0.580   0.624   0.638   0.625   0.592   0.546   0.492   0.437   0.385   0.341
   0.311   0.298   0.305   0.332   0.378   0.436   0.499   0.559   0.608   0.642
   0.662   0.670
   0.484   0.462   0.443   0.420   0.384   0.331   0.269   0.213   0.181   0.183
   0.220   0.284   0.361   0.438   0.506   0.554   0.577   0.569   0.533   0.480
   0.426   0.386   0.370   0.373   0.379   0.369   0.335   0.282   0.230   0.206
   0.229   0.300   0.401   0.502   0.577   0.613   0.617   0.608   0.599   0.595
   0.585   0.555   0.497   0.421   0.350   0.313   0.328   0.393   0.488   0.582
   0.647   0.672   0.659   0.625   0.583   0.544   0.511   0.482   0.456   0.430
   0.404   0.375   0.345   0.321   0.311   0.325   0.362   0.416   0.469   0.505
   0.516   0.505
   0.709   0.638   0.576   0.528   0.486   0.442   0.398   0.364   0.352   0.365
   0.399   0.449   0.514   0.602   0.719   0.859   0.998   1.100   1.133   1.086
   0.976   0.841   0.720   0.635   0.583   0.540   0.477   0.385   0.280   0.193
   0.162   0.198   0.288   0.393   0.473   0.507   0.502   0.481   0.470   0.476
   0.484   0.473   0.429   0.362   0.298   0.273   0.306   0.388   0.491   0.573
   0.608   0.594   0.550   0.500   0.464   0.446   0.441   0.444   0.451   0.462
   0.466   0.452   0.411   0.351   0.299   0.291   0.349   0.467   0.607   0.723
   0.778   0.766
   1.597   1.439   1.274   1.120   0.977   0.841   0.719   0.630   0.589   0.594
   0.632   0.691   0.782   0.930   1.162   1.474   1.819   2.112   2.269   2.244
   2.048   1.748   1.432   1.169   0.987   0.865   0.762   0.644   0.514   0.406
   0.368   0.430   0.575   0.751   0.891   0.953   0.934   0.866   0.789   0.726
   0.673   0.613   0.534   0.445   0.371   0.344   0.377   0.458   0.554   0.626
   0.658   0.658   0.653   0.663   0.685   0.700   0.689   0.655   0.622   0.613
   0.628   0.640   0.618   0.557   0.501   0.518   0.660   0.924   1.245   1.525
   1.684   1.698
   2.705   2.472   2.201   1.916   1.613   1.299   1.006   0.783   0.665   0.651
   0.712   0.818   0.967   1.193   1.534   1.996   2.516   2.979   3.254   3.260
   2.997   2.551   2.049   1.606   1.283   1.078   0.943   0.833   0.735   0.682
   0.733   0.923   1.233   1.582   1.865   2.007   1.991   1.855   1.656   1.443
   1.236   1.040   0.858   0.700   0.586   0.535   0.551   0.622   0.722   0.827
   0.933   1.056   1.211   1.387   1.531   1.575   1.482   1.282   1.059   0.902
   0.844   0.851   0.853   0.819   0.788   0.856   1.103   1.534   2.052   2.510
   2.785   2.837
   3.235   3.004   2.722   2.389   1.984   1.520   1.066   0.713   0.529   0.518
   0.628   0.796   0.993   1.240   1.581   2.038   2.568   3.058   3.372   3.412
   3.162   2.698   2.150   1.645   1.262   1.017   0.875   0.793   0.753   0.790
   0.966   1.322   1.826   2.370   2.814   3.054   3.061   2.876   2.569   2.205
   1.827   1.470   1.162   0.925   0.767   0.691   0.692   0.762   0.893   1.077
   1.318   1.628   2.004   2.393   2.683   2.748   2.527   2.078   1.564   1.159
   0.953   0.910   0.924   0.918   0.910   1.006   1.305   1.817   2.430   2.968
   3.291   3.361
   2.756   2.623   2.463   2.227   1.869   1.403   0.928   0.566   0.402   0.434
   0.590   0.781   0.953   1.112   1.305   1.575   1.920   2.272   2.528   2.596
   2.449   2.128   1.723   1.330   1.019   0.815   0.703   0.649   0.644   0.719
   0.941   1.355   1.927   2.540   3.041   3.321   3.354   3.181   2.865   2.457
   2.004   1.563   1.192   0.927   0.770   0.702   0.709   0.794   0.964   1.217
   1.555   1.982   2.489   3.008   3.396   3.485   3.185   2.563   1.830   1.229
   0.895   0.802   0.816   0.820   0.806   0.867   1.110   1.550   2.081   2.536
   2.793   2.841
   1.605   1.610   1.627   1.573   1.382   1.080   0.773   0.578   0.547   0.646
   0.792   0.905   0.947   0.931   0.906   0.927   1.023   1.174   1.325   1.409
   1.391   1.279   1.112   0.939   0.802   0.719   0.682   0.666   0.654   0.674
   0.794   1.072   1.495   1.966   2.355   2.577   2.624   2.533   2.331   2.027
   1.645   1.254   0.938   0.746   0.665   0.651   0.683   0.775   0.946   1.192
   1.495   1.855   2.281   2.743   3.124   3.251   3.005   2.423   1.707   1.107
   0.773   0.687   0.710   0.709   0.653   0.621   0.713   0.954   1.266   1.520
   1.636   1.635
   0.578   0.672   0.797   0.864   0.833   0.756   0.735   0.828   0.999   1.149
   1.194   1.115   0.949   0.753   0.576   0.455   0.413   0.444   0.519   0.594
   0.641   0.659   0.664   0.681   0.725   0.801   0.886   0.936   0.910   0.820
   0.736   0.743   0.868   1.061   1.234   1.342   1.394   1.413   1.379   1.249
   1.022   0.778   0.620   0.596   0.658   0.724   0.763   0.811   0.909   1.050
   1.193   1.328   1.499   1.746   2.022   2.188   2.104   1.758   1.286   0.891
   0.702   0.700   0.762   0.760   0.659   0.520   0.437   0.455   0.535   0.596
   0.595   0.564
   0.226   0.322   0.417   0.459   0.469   0.550   0.796   1.178   1.540   1.698
   1.580   1.257   0.881   0.573   0.378   0.287   0.274   0.313   0.371   0.416
   0.432   0.436   0.465   0.553   0.713   0.931   1.153   1.296   1.285   1.106
   0.836   0.591   0.446   0.396   0.395   0.418   0.478   0.571   0.643   0.623
   0.516   0.422   0.462   0.652   0.880   1.009   0.998   0.921   0.870   0.855
   0.820   0.734   0.656   0.679   0.822   0.994   1.063   0.974   0.798   0.669
   0.679   0.804   0.939   0.972   0.862   0.656   0.448   0.309   0.247   0.219
   0.193   0.184
   0.432   0.482   0.472   0.392   0.333   0.456   0.851   1.421   1.902   2.040
   1.773   1.261   0.752   0.418   0.286   0.294   0.368   0.460   0.530   0.546
   0.499   0.425   0.393   0.466   0.670   0.977   1.303   1.530   1.552   1.344
   0.990   0.628   0.369   0.234   0.190   0.207   0.278   0.376   0.431   0.391
   0.299   0.299   0.515   0.910   1.284   1.431   1.305   1.036   0.793   0.639
   0.516   0.365   0.212   0.143   0.202   0.335   0.439   0.462   0.449   0.490
   0.646   0.887   1.118   1.228   1.160   0.943   0.672   0.452   0.335   0.306
   0.326   0.371
   0.649   0.675   0.603   0.440   0.309   0.399   0.815   1.434   1.947   2.072
   1.752   1.189   0.668   0.362   0.270   0.297   0.365   0.442   0.508   0.528
   0.480   0.390   0.334   0.396   0.612   0.949   1.309   1.559   1.593   1.391
   1.044   0.699   0.469   0.378   0.385   0.444   0.523   0.577   0.547   0.417
   0.284   0.332   0.677   1.226   1.699   1.833   1.577   1.116   0.698   0.449
   0.337   0.270   0.217   0.204   0.250   0.318   0.348   0.328   0.315   0.393
   0.605   0.919   1.238   1.438   1.435   1.231   0.923   0.643   0.482   0.448
   0.496   0.575
 200       5.00   72    0 5.00   18    0
   0.932   0.936   0.941   0.945   0.950   0.954   0.959   0.964   0.969   0.974
   0.979   0.984   0.989   0.993   0.997   1.001   1.004   1.006   1.007   1.008
   1.007   1.006   1.003   1.000   0.996   0.991   0.985   0.979   0.972   0.964
   0.956   0.948   0.939   0.931   0.922   0.914   0.906   0.898   0.890   0.883
   0.876   0.869   0.864   0.859   0.854   0.851   0.848   0.845   0.844   0.843
   0.843   0.844   0.845   0.847   0.850   0.853   0.857   0.861   0.865   0.870
   0.875   0.880   0.885   0.890   0.895   0.900   0.905   0.910   0.914   0.919
   0.923   0.928
   1.001   0.989   0.977   0.967   0.959   0.955   0.956   0.962   0.974   0.991
   1.013   1.039   1.069   1.100   1.131   1.161   1.188   1.210   1.228   1.239
   1.243   1.241   1.232   1.218   1.199   1.177   1.152   1.126   1.100   1.075
   1.051   1.029   1.009   0.991   0.974   0.958   0.943   0.928   0.913   0.899
   0.884   0.870   0.857   0.846   0.836   0.829   0.825   0.823   0.824   0.828
   0.834   0.842   0.852   0.863   0.875   0.887   0.899   0.912   0.925   0.939
   0.952   0.966   0.980   0.992   1.004   1.014   1.021   1.026   1.027   1.025
   1.020   1.011
   1.035   0.981   0.925   0.871   0.824   0.788   0.767   0.762   0.774   0.802
   0.845   0.900   0.965   1.036   1.108   1.178   1.241   1.292   1.329   1.349
   1.351   1.336   1.304   1.261   1.208   1.152   1.096   1.044   0.999   0.965
   0.941   0.929   0.928   0.936   0.949   0.964   0.978   0.988   0.991   0.986
   0.975   0.958   0.938   0.919   0.904   0.895   0.893   0.901   0.916   0.937
   0.961   0.985   1.007   1.024   1.035   1.041   1.042   1.039   1.036   1.034
   1.036   1.043   1.056   1.074   1.095   1.117   1.136   1.148   1.150   1.141
   1.118   1.082
   0.992   0.910   0.823   0.745   0.683   0.645   0.630   0.637   0.660   0.696
   0.741   0.792   0.850   0.914   0.984   1.056   1.125   1.182   1.220   1.234
   1.221   1.183   1.124   1.051   0.971   0.892   0.820   0.757   0.709   0.676
   0.663   0.670   0.698   0.744   0.805   0.870   0.933   0.983   1.015   1.024
   1.011   0.982   0.945   0.908   0.881   0.870   0.878   0.905   0.950   1.005
   1.062   1.115   1.153   1.173   1.171   1.148   1.108   1.056   1.002   0.953
   0.915   0.894   0.892   0.910   0.944   0.990   1.039   1.084   1.114   1.123
   1.105   1.060
   0.899   0.829   0.769   0.740   0.755   0.815   0.906   1.005   1.085   1.127
   1.123   1.081   1.019   0.958   0.917   0.905   0.918   0.943   0.964   0.965
   0.941   0.896   0.840   0.788   0.749   0.726   0.715   0.706   0.689   0.662
   0.628   0.599   0.587   0.604   0.652   0.723   0.803   0.874   0.920   0.934
   0.916   0.877   0.829   0.785   0.757   0.752   0.772   0.816   0.880   0.955
   1.033   1.100   1.147   1.162   1.143   1.092   1.016   0.927   0.838   0.760
   0.700   0.662   0.646   0.652   0.681   0.729   0.793   0.863   0.927   0.970
   0.980   0.955
   0.803   0.769   0.773   0.856   1.041   1.316   1.636   1.931   2.129   2.179
   2.068   1.823   1.506   1.189   0.932   0.769   0.698   0.690   0.703   0.705
   0.684   0.652   0.640   0.677   0.781   0.939   1.116   1.263   1.335   1.309
   1.191   1.018   0.839   0.699   0.626   0.621   0.661   0.716   0.759   0.778
   0.775   0.766   0.765   0.779   0.806   0.837   0.862   0.878   0.889   0.902
   0.923   0.948   0.967   0.967   0.940   0.888   0.824   0.766   0.729   0.719
   0.728   0.743   0.746   0.731   0.704   0.679   0.674   0.698   0.746   0.799
   0.833   0.833
   0.716   0.691   0.728   0.904   1.262   1.782   2.382   2.928   3.282   3.348
   3.102   2.606   1.979   1.365   0.881   0.587   0.476   0.484   0.532   0.555
   0.534   0.503   0.528   0.674   0.971   1.391   1.851   2.235   2.442   2.414
   2.164   1.768   1.332   0.959   0.711   0.594   0.575   0.600   0.632   0.660
   0.706   0.795   0.941   1.124   1.298   1.408   1.416   1.320   1.154   0.973
   0.826   0.737   0.698   0.683   0.666   0.642   0.630   0.663   0.765   0.935
   1.136   1.309   1.396   1.366   1.229   1.032   0.842   0.714   0.668   0.686
   0.723   0.738
   0.625   0.560   0.552   0.719   1.139   1.805   2.605   3.350   3.840   3.933
   3.596   2.916   2.070   1.260   0.652   0.323   0.247   0.328   0.439   0.486
   0.446   0.376   0.386   0.583   1.022   1.662   2.372   2.973   3.301   3.267
   2.892   2.294   1.645   1.099   0.745   0.582   0.547   0.558   0.571   0.598
   0.697   0.925   1.294   1.740   2.142   2.367   2.332   2.041   1.588   1.109
   0.729   0.509   0.434   0.439   0.455   0.456   0.474   0.574   0.811   1.188
   1.641   2.049   2.288   2.280   2.027   1.613   1.169   0.819   0.629   0.590
   0.627   0.655
   0.533   0.418   0.316   0.376   0.716   1.354   2.176   2.975   3.520   3.647
   3.316   2.623   1.763   0.956   0.373   0.091   0.075   0.212   0.360   0.416
   0.352   0.238   0.202   0.378   0.836   1.534   2.324   2.995   3.352   3.295
   2.853   2.177   1.473   0.922   0.613   0.519   0.537   0.556   0.535   0.523
   0.635   0.975   1.556   2.270   2.907   3.249   3.160   2.657   1.902   1.132
   0.556   0.268   0.228   0.307   0.375   0.374   0.351   0.419   0.687   1.185
   1.835   2.466   2.884   2.951   2.645   2.068   1.408   0.857   0.535   0.448
   0.501   0.561
   0.467   0.346   0.183   0.131   0.321   0.793   1.461   2.142   2.629   2.776
   2.547   2.023   1.363   0.743   0.295   0.074   0.054   0.151   0.262   0.305
   0.256   0.164   0.131   0.269   0.641   1.215   1.863   2.402   2.664   2.563
   2.137   1.532   0.945   0.541   0.385   0.422   0.519   0.553   0.488   0.411
   0.484   0.852   1.538   2.404   3.188   3.606   3.488   2.855   1.920   0.991
   0.335   0.065   0.110   0.285   0.402   0.379   0.275   0.241   0.433   0.916
   1.619   2.358   2.900   3.065   2.798   2.192   1.450   0.801   0.403   0.287
   0.359   0.461
   0.420   0.353   0.222   0.141   0.217   0.490   0.906   1.346   1.676   1.805
   1.713   1.450   1.105   0.765   0.489   0.300   0.196   0.159   0.164   0.184
   0.201   0.219   0.273   0.411   0.663   1.011   1.378   1.656   1.748   1.611
   1.277   0.850   0.468   0.248   0.229   0.351   0.490   0.530   0.445   0.330
   0.354   0.667   1.301   2.128   2.894   3.320   3.229   2.632   1.733   0.843
   0.231   0.010   0.103   0.312   0.443   0.411   0.272   0.176   0.276   0.647
   1.243   1.909   2.441   2.662   2.494   1.995   1.335   0.725   0.328   0.195
   0.256   0.373
   0.344   0.348   0.318   0.302   0.347   0.466   0.633   0.805   0.937   1.008
   1.017   0.985   0.928   0.849   0.737   0.580   0.392   0.218   0.111   0.104
   0.189   0.328   0.487   0.646   0.798   0.932   1.026   1.057   1.007   0.880
   0.690   0.475   0.289   0.191   0.210   0.319   0.435   0.478   0.426   0.344
   0.356   0.573   1.023   1.625   2.207   2.568   2.560   2.165   1.513   0.835
   0.346   0.148   0.189   0.323   0.410   0.395   0.316   0.267   0.337   0.567
   0.940   1.374   1.747   1.935   1.864   1.549   1.094   0.646   0.329   0.194
   0.208   0.285
   0.218   0.260   0.323   0.399   0.463   0.495   0.488   0.461   0.445   0.461
   0.514   0.596   0.689   0.762   0.776   0.693   0.518   0.308   0.149   0.109
   0.192   0.352   0.525   0.664   0.746   0.762   0.712   0.618   0.516   0.439
   0.392   0.352   0.301   0.251   0.237   0.274   0.338   0.386   0.400   0.402
   0.443   0.564   0.777   1.063   1.368   1.613   1.704   1.584   1.276   0.889
   0.556   0.358   0.288   0.285   0.293   0.304   0.331   0.386   0.464   0.559
   0.679   0.827   0.979   1.079   1.071   0.940   0.727   0.502   0.328   0.229
   0.193   0.195
   0.142   0.169   0.262   0.379   0.458   0.456   0.387   0.309   0.281   0.316
   0.384   0.451   0.506   0.562   0.615   0.632   0.575   0.453   0.322   0.243
   0.238   0.286   0.351   0.417   0.475   0.504   0.478   0.397   0.303   0.250
   0.254   0.281   0.284   0.251   0.214   0.209   0.241   0.290   0.343   0.403
   0.468   0.518   0.540   0.556   0.616   0.744   0.896   0.983   0.945   0.798
   0.614   0.454   0.332   0.242   0.193   0.208   0.288   0.387   0.436   0.412
   0.351   0.320   0.346   0.400   0.431   0.415   0.371   0.330   0.304   0.277
   0.232   0.175
   0.286   0.271   0.324   0.412   0.474   0.483   0.473   0.516   0.648   0.816
   0.914   0.867   0.712   0.565   0.525   0.590   0.678   0.705   0.653   0.548
   0.427   0.311   0.234   0.244   0.365   0.549   0.694   0.716   0.617   0.471
   0.351   0.280   0.237   0.210   0.208   0.236   0.276   0.305   0.325   0.357
   0.400   0.415   0.369   0.288   0.255   0.329   0.478   0.603   0.625   0.552
   0.457   0.390   0.347   0.303   0.263   0.259   0.294   0.320   0.280   0.184
   0.109   0.131   0.247   0.374   0.432   0.409   0.362   0.353   0.388   0.423
   0.412   0.351
   0.714   0.660   0.635   0.642   0.669   0.727   0.871   1.157   1.564   1.942
   2.084   1.878   1.415   0.942   0.689   0.713   0.895   1.059   1.099   1.001
   0.807   0.586   0.439   0.487   0.784   1.246   1.662   1.827   1.676   1.308
   0.892   0.562   0.373   0.325   0.387   0.494   0.566   0.552   0.476   0.407
   0.393   0.421   0.452   0.487   0.566   0.699   0.813   0.804   0.644   0.430
   0.304   0.330   0.449   0.555   0.591   0.567   0.502   0.397   0.269   0.202
   0.306   0.618   1.024   1.325   1.379   1.204   0.948   0.764   0.710   0.741
   0.776   0.765
   1.254   1.176   1.064   0.973   0.961   1.083   1.398   1.929   2.588   3.145
   3.317   2.961   2.215   1.433   0.958   0.905   1.132   1.393   1.514   1.449
   1.245   1.003   0.877   1.038   1.569   2.346   3.060   3.384   3.179   2.562
   1.806   1.168   0.791   0.691   0.794   0.964   1.058   1.000   0.827   0.655
   0.593   0.674   0.877   1.170   1.515   1.813   1.909   1.687   1.205   0.695
   0.413   0.453   0.704   0.963   1.091   1.064   0.921   0.724   0.577   0.638
   1.034   1.728   2.476   2.945   2.937   2.510   1.916   1.423   1.165   1.124
   1.191   1.256
   1.585   1.497   1.311   1.137   1.088   1.246   1.653   2.293   3.041   3.644
   3.802   3.369   2.497   1.581   1.015   0.938   1.201   1.524   1.699   1.667
   1.479   1.249   1.155   1.398   2.079   3.068   3.999   4.465   4.268   3.529
   2.578   1.756   1.263   1.122   1.227   1.406   1.494   1.410   1.197   0.986
   0.914   1.053   1.414   1.957   2.577   3.069   3.187   2.799   2.030   1.229
   0.753   0.732   1.020   1.353   1.535   1.514   1.339   1.115   1.004   1.205
   1.839   2.805   3.759   4.290   4.178   3.518   2.636   1.874   1.428   1.307
   1.396   1.533
 111       5.00   72    0 5.00   18    0
   0.121   0.117   0.114   0.111   0.109   0.107   0.106   0.105   0.104   0.105
   0.105   0.106   0.107   0.108   0.110   0.112   0.114   0.116   0.118   0.120
   0.122   0.125   0.127   0.130   0.132   0.135   0.138   0.141   0.144   0.148
   0.152   0.156   0.160   0.165   0.170   0.174   0.179   0.184   0.189   0.194
   0.198   0.203   0.206   0.210   0.213   0.215   0.217   0.218   0.219   0.219
   0.219   0.217   0.215   0.213   0.210   0.207   0.203   0.198   0.193   0.188
   0.183   0.178   0.172   0.167   0.161   0.155   0.150   0.144   0.139   0.134
   0.130   0.125
  -0.069  -0.079  -0.089  -0.097  -0.103  -0.107  -0.107  -0.105  -0.099  -0.091
  -0.080  -0.068  -0.054  -0.040  -0.027  -0.015  -0.006   0.001   0.005   0.005
   0.003  -0.003  -0.010  -0.019  -0.029  -0.039  -0.047  -0.053  -0.057  -0.058
  -0.054  -0.048  -0.037  -0.024  -0.008   0.010   0.030   0.050   0.070   0.089
   0.107   0.123   0.138   0.151   0.163   0.172   0.179   0.184   0.187   0.188
   0.185   0.180   0.173   0.163   0.150   0.136   0.121   0.105   0.089   0.073
   0.058   0.044   0.031   0.020   0.009   0.000  -0.009  -0.018  -0.028  -0.037
  -0.048  -0.058
  -0.138  -0.152  -0.168  -0.182  -0.193  -0.197  -0.194  -0.184  -0.167  -0.144
  -0.117  -0.088  -0.058  -0.029  -0.004   0.015   0.028   0.033   0.030   0.017
  -0.004  -0.032  -0.066  -0.104  -0.144  -0.183  -0.220  -0.251  -0.275  -0.291
  -0.297  -0.292  -0.278  -0.255  -0.225  -0.192  -0.157  -0.125  -0.096  -0.073
  -0.055  -0.041  -0.032  -0.024  -0.016  -0.008   0.002   0.011   0.020   0.025
   0.027   0.022   0.012  -0.006  -0.029  -0.056  -0.086  -0.115  -0.142  -0.165
  -0.181  -0.191  -0.194  -0.190  -0.180  -0.167  -0.152  -0.138  -0.127  -0.121
  -0.121  -0.126
   0.112   0.107   0.103   0.104   0.116   0.140   0.174   0.215   0.256   0.292
   0.320   0.337   0.344   0.341   0.332   0.317   0.297   0.273   0.245   0.213
   0.178   0.142   0.106   0.070   0.037   0.003  -0.031  -0.067  -0.103  -0.138
  -0.167  -0.188  -0.195  -0.188  -0.169  -0.142  -0.113  -0.090  -0.077  -0.079
  -0.093  -0.116  -0.142  -0.164  -0.176  -0.177  -0.165  -0.144  -0.120  -0.097
  -0.082  -0.078  -0.087  -0.107  -0.134  -0.165  -0.194  -0.218  -0.234  -0.239
  -0.235  -0.221  -0.199  -0.168  -0.131  -0.088  -0.042   0.004   0.046   0.079
   0.101   0.112
   0.624   0.646   0.685   0.751   0.848   0.970   1.105   1.230   1.324   1.370
   1.359   1.297   1.194   1.068   0.937   0.814   0.709   0.624   0.561   0.520
   0.503   0.512   0.550   0.613   0.693   0.775   0.840   0.870   0.855   0.794
   0.697   0.584   0.476   0.388   0.331   0.300   0.286   0.274   0.250   0.209
   0.151   0.085   0.025  -0.017  -0.034  -0.024   0.006   0.046   0.086   0.113
   0.122   0.112   0.087   0.056   0.031   0.024   0.043   0.089   0.159   0.242
   0.324   0.393   0.442   0.470   0.482   0.488   0.497   0.513   0.537   0.564
   0.588   0.608
   1.102   1.150   1.246   1.409   1.641   1.927   2.228   2.491   2.664   2.712
   2.625   2.418   2.131   1.812   1.506   1.246   1.046   0.907   0.824   0.795
   0.824   0.922   1.098   1.350   1.656   1.975   2.253   2.434   2.480   2.382
   2.162   1.868   1.559   1.287   1.084   0.954   0.880   0.833   0.789   0.734
   0.672   0.617   0.588   0.596   0.642   0.713   0.787   0.842   0.861   0.836
   0.770   0.677   0.578   0.500   0.470   0.513   0.639   0.844   1.104   1.377
   1.618   1.782   1.844   1.804   1.685   1.523   1.361   1.229   1.142   1.096
   1.081   1.083
   1.252   1.299   1.419   1.646   1.987   2.418   2.872   3.264   3.508   3.549
   3.377   3.027   2.574   2.100   1.677   1.348   1.123   0.989   0.923   0.916
   0.977   1.134   1.419   1.844   2.382   2.963   3.488   3.851   3.975   3.836
   3.471   2.967   2.435   1.970   1.632   1.427   1.328   1.285   1.261   1.239
   1.231   1.263   1.357   1.512   1.704   1.889   2.020   2.061   2.000   1.847
   1.632   1.393   1.173   1.014   0.958   1.041   1.280   1.667   2.156   2.669
   3.110   3.389   3.452   3.292   2.956   2.528   2.099   1.741   1.490   1.344
   1.273   1.247
   1.032   1.050   1.136   1.339   1.680   2.135   2.628   3.053   3.309   3.332
   3.118   2.719   2.229   1.747   1.353   1.085   0.938   0.875   0.854   0.854
   0.892   1.017   1.290   1.748   2.376   3.089   3.754   4.225   4.393   4.222
   3.766   3.144   2.505   1.974   1.620   1.441   1.386   1.388   1.401   1.421
   1.482   1.627   1.879   2.219   2.584   2.887   3.052   3.040   2.858   2.554
   2.191   1.832   1.523   1.304   1.211   1.282   1.547   2.009   2.621   3.285
   3.866   4.232   4.292   4.031   3.513   2.861   2.215   1.689   1.335   1.145
   1.066   1.040
   0.678   0.668   0.689   0.797   1.026   1.362   1.740   2.069   2.259   2.263
   2.081   1.766   1.400   1.066   0.824   0.695   0.661   0.676   0.689   0.676
   0.651   0.674   0.824   1.160   1.682   2.313   2.917   3.342   3.478   3.293
   2.852   2.285   1.741   1.337   1.122   1.069   1.104   1.151   1.172   1.189
   1.263   1.459   1.804   2.256   2.717   3.069   3.217   3.130   2.847   2.456
   2.051   1.699   1.425   1.231   1.122   1.127   1.288   1.639   2.162   2.778
   3.349   3.725   3.795   3.527   2.984   2.301   1.637   1.118   0.803   0.672
   0.656   0.675
   0.460   0.449   0.433   0.458   0.551   0.709   0.894   1.052   1.138   1.131
   1.036   0.887   0.723   0.582   0.490   0.455   0.465   0.495   0.508   0.481
   0.419   0.366   0.392   0.555   0.868   1.272   1.656   1.904   1.937   1.753
   1.419   1.046   0.744   0.582   0.570   0.654   0.755   0.806   0.791   0.753
   0.775   0.930   1.242   1.659   2.076   2.369   2.451   2.306   1.998   1.636
   1.323   1.112   0.990   0.911   0.836   0.771   0.768   0.889   1.162   1.554
   1.965   2.266   2.353   2.183   1.797   1.303   0.832   0.489   0.320   0.300
   0.362   0.430
   0.421   0.435   0.444   0.463   0.495   0.534   0.567   0.588   0.595   0.594
   0.588   0.578   0.560   0.526   0.477   0.424   0.381   0.359   0.353   0.341
   0.309   0.268   0.258   0.321   0.470   0.663   0.822   0.877   0.803   0.631
   0.428   0.267   0.195   0.226   0.336   0.469   0.564   0.580   0.522   0.442
   0.414   0.492   0.685   0.949   1.204   1.364   1.371   1.221   0.972   0.720
   0.552   0.504   0.541   0.591   0.588   0.518   0.419   0.360   0.394   0.528
   0.723   0.902   0.993   0.955   0.799   0.582   0.379   0.251   0.216   0.255
   0.324   0.385
   0.394   0.433   0.504   0.584   0.642   0.663   0.652   0.632   0.627   0.648
   0.685   0.716   0.715   0.666   0.569   0.447   0.336   0.272   0.267   0.300
   0.334   0.350   0.364   0.413   0.508   0.615   0.673   0.637   0.519   0.374
   0.264   0.221   0.245   0.314   0.401   0.476   0.512   0.495   0.441   0.392
   0.385   0.436   0.527   0.625   0.699   0.728   0.692   0.589   0.441   0.298
   0.219   0.233   0.320   0.424   0.490   0.491   0.436   0.360   0.297   0.276
   0.305   0.369   0.438   0.479   0.480   0.454   0.427   0.417   0.418   0.416
   0.404   0.389
   0.284   0.338   0.454   0.581   0.672   0.710   0.717   0.729   0.765   0.814
   0.845   0.830   0.765   0.663   0.544   0.430   0.345   0.316   0.349   0.420
   0.481   0.501   0.498   0.523   0.606   0.720   0.798   0.788   0.703   0.601
   0.530   0.499   0.486   0.472   0.460   0.453   0.446   0.433   0.425   0.451
   0.526   0.624   0.697   0.711   0.678   0.631   0.592   0.551   0.487   0.404
   0.329   0.297   0.320   0.388   0.480   0.573   0.642   0.661   0.628   0.565
   0.517   0.514   0.551   0.599   0.628   0.636   0.633   0.621   0.584   0.508
   0.404   0.313
   0.294   0.366   0.476   0.563   0.593   0.578   0.565   0.596   0.671   0.740
   0.749   0.682   0.580   0.506   0.492   0.529   0.586   0.652   0.726   0.792
   0.808   0.742   0.623   0.531   0.533   0.624   0.729   0.776   0.751   0.694
   0.638   0.579   0.501   0.414   0.356   0.348   0.370   0.386   0.396   0.441
   0.552   0.703   0.819   0.847   0.798   0.731   0.692   0.679   0.658   0.605
   0.529   0.456   0.410   0.413   0.482   0.611   0.753   0.841   0.834   0.757
   0.682   0.666   0.704   0.741   0.736   0.690   0.636   0.592   0.544   0.468
   0.372   0.298
   0.786   0.897   0.947   0.889   0.731   0.542   0.409   0.387   0.450   0.518
   0.517   0.452   0.411   0.490   0.709   0.989   1.224   1.364   1.428   1.439
   1.378   1.202   0.925   0.640   0.460   0.421   0.466   0.509   0.513   0.494
   0.466   0.420   0.350   0.297   0.322   0.432   0.553   0.592   0.531   0.452
   0.456   0.562   0.696   0.766   0.742   0.668   0.600   0.564   0.556   0.567
   0.585   0.593   0.577   0.554   0.566   0.642   0.744   0.787   0.718   0.576
   0.467   0.464   0.544   0.614   0.609   0.542   0.482   0.474   0.509   0.556
   0.606   0.679
   1.864   2.019   1.970   1.696   1.272   0.838   0.524   0.386   0.384   0.417
   0.410   0.393   0.484   0.787   1.276   1.789   2.145   2.280   2.266   2.200
   2.089   1.863   1.484   1.029   0.641   0.413   0.327   0.308   0.308   0.326
   0.361   0.397   0.434   0.524   0.732   1.032   1.284   1.326   1.121   0.797
   0.547   0.470   0.520   0.577   0.556   0.457   0.334   0.254   0.275   0.418
   0.647   0.867   0.981   0.972   0.913   0.883   0.877   0.809   0.618   0.361
   0.177   0.163   0.283   0.414   0.469   0.466   0.489   0.597   0.787   1.027
   1.299   1.593
   3.108   3.280   3.103   2.602   1.931   1.293   0.835   0.597   0.514   0.483
   0.447   0.464   0.672   1.161   1.855   2.518   2.915   2.988   2.872   2.737
   2.618   2.412   2.020   1.486   0.970   0.613   0.436   0.379   0.388   0.456
   0.580   0.742   0.936   1.210   1.613   2.094   2.467   2.517   2.180   1.608
   1.059   0.712   0.577   0.540   0.479   0.348   0.185   0.092   0.180   0.504
   0.992   1.458   1.718   1.726   1.594   1.466   1.374   1.225   0.936   0.560
   0.263   0.170   0.260   0.411   0.527   0.619   0.762   1.001   1.333   1.737
   2.204   2.697
   3.809   3.950   3.647   2.980   2.177   1.475   1.002   0.749   0.621   0.522
   0.428   0.426   0.663   1.219   1.986   2.695   3.087   3.108   2.925   2.748
   2.632   2.457   2.094   1.569   1.051   0.702   0.556   0.545   0.604   0.727
   0.928   1.199   1.529   1.946   2.482   3.074   3.529   3.615   3.242   2.540
   1.779   1.190   0.846   0.678   0.565   0.427   0.277   0.220   0.400   0.886
   1.577   2.220   2.574   2.582   2.398   2.220   2.102   1.933   1.598   1.132
   0.707   0.477   0.455   0.542   0.656   0.800   1.015   1.319   1.705   2.173
   2.735   3.335
TEXTURE_INDEX=   4.8738
ERR_CF 220         1079     465   27.43   17.20
ERR_CF 200         1079     296   25.37   14.50
ERR_CF 111         1080     262   47.79   13.29
