TEXEVAL                                                                         
Analysis started on 15-Feb-19 10:11:45                                          
 LMAX=16LFMAX=03 CUBIC ORTHO   
 220      5.00 5.00
 200      5.00 5.00
 111      5.00 5.00
 220       5.00   72    0 5.00   15    0
   5.805   5.805   5.805   5.805   5.805   5.805   5.805   5.805   5.805   5.805
   5.805   5.805   5.805   5.805   5.805   5.805   5.805   5.805   5.805   5.805
   5.805   5.805   5.805   5.805   5.805   5.805   5.805   5.805   5.805   5.805
   5.805   5.805   5.805   5.805   5.805   5.805   5.805   5.805   5.805   5.805
   5.805   5.805   5.805   5.805   5.805   5.805   5.805   5.805   5.805   5.805
   5.805   5.805   5.805   5.805   5.805   5.805   5.805   5.805   5.805   5.805
   5.805   5.805   5.805   5.805   5.805   5.805   5.805   5.805   5.805   5.805
   5.805   5.805
   1.421   1.381   1.441   1.474   1.609   1.821   1.870   2.079   2.319   2.668
   3.025   3.486   3.948   4.651   5.327   5.925   6.567   6.857   6.913   6.857
   6.567   5.925   5.327   4.651   3.948   3.486   3.025   2.668   2.319   2.079
   1.870   1.821   1.609   1.474   1.441   1.381   1.421   1.381   1.441   1.474
   1.609   1.821   1.870   2.079   2.319   2.668   3.025   3.486   3.948   4.651
   5.327   5.925   6.567   6.857   6.913   6.857   6.567   5.925   5.327   4.651
   3.948   3.486   3.025   2.668   2.319   2.079   1.870   1.821   1.609   1.474
   1.441   1.381
   0.183   0.170   0.200   0.178   0.209   0.294   0.313   0.402   0.528   0.790
   0.979   1.408   2.053   2.863   3.885   5.079   6.394   7.180   7.519   7.180
   6.394   5.079   3.885   2.863   2.053   1.408   0.979   0.790   0.528   0.402
   0.313   0.294   0.209   0.178   0.200   0.170   0.183   0.170   0.200   0.178
   0.209   0.294   0.313   0.402   0.528   0.790   0.979   1.408   2.053   2.863
   3.885   5.079   6.394   7.180   7.519   7.180   6.394   5.079   3.885   2.863
   2.053   1.408   0.979   0.790   0.528   0.402   0.313   0.294   0.209   0.178
   0.200   0.170
   0.053   0.064   0.100   0.092   0.068   0.113   0.098   0.133   0.166   0.240
   0.298   0.484   0.970   1.571   2.551   4.337   6.211   7.755   8.580   7.755
   6.211   4.337   2.551   1.571   0.970   0.484   0.298   0.240   0.166   0.133
   0.098   0.113   0.068   0.092   0.100   0.064   0.053   0.064   0.100   0.092
   0.068   0.113   0.098   0.133   0.166   0.240   0.298   0.484   0.970   1.571
   2.551   4.337   6.211   7.755   8.580   7.755   6.211   4.337   2.551   1.571
   0.970   0.484   0.298   0.240   0.166   0.133   0.098   0.113   0.068   0.092
   0.100   0.064
   0.020   0.054   0.073   0.094   0.065   0.068   0.107   0.098   0.124   0.149
   0.194   0.229   0.391   0.792   1.658   3.441   5.680   7.779   9.053   7.779
   5.680   3.441   1.658   0.792   0.391   0.229   0.194   0.149   0.124   0.098
   0.107   0.068   0.065   0.094   0.073   0.054   0.020   0.054   0.073   0.094
   0.065   0.068   0.107   0.098   0.124   0.149   0.194   0.229   0.391   0.792
   1.658   3.441   5.680   7.779   9.053   7.779   5.680   3.441   1.658   0.792
   0.391   0.229   0.194   0.149   0.124   0.098   0.107   0.068   0.065   0.094
   0.073   0.054
   0.033   0.092   0.073   0.076   0.074   0.070   0.077   0.073   0.095   0.116
   0.234   0.181   0.282   0.630   1.433   2.926   4.948   6.418   7.163   6.418
   4.948   2.926   1.433   0.630   0.282   0.181   0.234   0.116   0.095   0.073
   0.077   0.070   0.074   0.076   0.073   0.092   0.033   0.092   0.073   0.076
   0.074   0.070   0.077   0.073   0.095   0.116   0.234   0.181   0.282   0.630
   1.433   2.926   4.948   6.418   7.163   6.418   4.948   2.926   1.433   0.630
   0.282   0.181   0.234   0.116   0.095   0.073   0.077   0.070   0.074   0.076
   0.073   0.092
   0.035   0.098   0.051   0.068   0.090   0.069   0.055   0.055   0.059   0.108
   0.184   0.206   0.441   0.883   1.920   3.404   4.291   3.820   3.677   3.820
   4.291   3.404   1.920   0.883   0.441   0.206   0.184   0.108   0.059   0.055
   0.055   0.069   0.090   0.068   0.051   0.098   0.035   0.098   0.051   0.068
   0.090   0.069   0.055   0.055   0.059   0.108   0.184   0.206   0.441   0.883
   1.920   3.404   4.291   3.820   3.677   3.820   4.291   3.404   1.920   0.883
   0.441   0.206   0.184   0.108   0.059   0.055   0.055   0.069   0.090   0.068
   0.051   0.098
   0.043   0.079   0.029   0.066   0.062   0.062   0.038   0.066   0.052   0.121
   0.160   0.253   0.483   1.210   2.891   3.605   3.007   1.697   1.227   1.697
   3.007   3.605   2.891   1.210   0.483   0.253   0.160   0.121   0.052   0.066
   0.038   0.062   0.062   0.066   0.029   0.079   0.043   0.079   0.029   0.066
   0.062   0.062   0.038   0.066   0.052   0.121   0.160   0.253   0.483   1.210
   2.891   3.605   3.007   1.697   1.227   1.697   3.007   3.605   2.891   1.210
   0.483   0.253   0.160   0.121   0.052   0.066   0.038   0.062   0.062   0.066
   0.029   0.079
   0.108   0.144   0.105   0.134   0.084   0.055   0.033   0.056   0.089   0.138
   0.156   0.243   0.527   1.478   3.151   2.890   1.545   0.662   0.374   0.662
   1.545   2.890   3.151   1.478   0.527   0.243   0.156   0.138   0.089   0.056
   0.033   0.055   0.084   0.134   0.105   0.144   0.108   0.144   0.105   0.134
   0.084   0.055   0.033   0.056   0.089   0.138   0.156   0.243   0.527   1.478
   3.151   2.890   1.545   0.662   0.374   0.662   1.545   2.890   3.151   1.478
   0.527   0.243   0.156   0.138   0.089   0.056   0.033   0.055   0.084   0.134
   0.105   0.144
   0.242   0.327   0.208   0.177   0.135   0.072   0.056   0.049   0.136   0.151
   0.077   0.223   0.496   1.495   2.638   2.013   0.794   0.327   0.297   0.327
   0.794   2.013   2.638   1.495   0.496   0.223   0.077   0.151   0.136   0.049
   0.056   0.072   0.135   0.177   0.208   0.327   0.242   0.327   0.208   0.177
   0.135   0.072   0.056   0.049   0.136   0.151   0.077   0.223   0.496   1.495
   2.638   2.013   0.794   0.327   0.297   0.327   0.794   2.013   2.638   1.495
   0.496   0.223   0.077   0.151   0.136   0.049   0.056   0.072   0.135   0.177
   0.208   0.327
   2.210   2.090   1.059   0.431   0.175   0.131   0.123   0.060   0.099   0.209
   0.064   0.169   0.278   1.161   2.121   1.275   0.440   0.197   0.179   0.197
   0.440   1.275   2.121   1.161   0.278   0.169   0.064   0.209   0.099   0.060
   0.123   0.131   0.175   0.431   1.059   2.090   2.210   2.090   1.059   0.431
   0.175   0.131   0.123   0.060   0.099   0.209   0.064   0.169   0.278   1.161
   2.121   1.275   0.440   0.197   0.179   0.197   0.440   1.275   2.121   1.161
   0.278   0.169   0.064   0.209   0.099   0.060   0.123   0.131   0.175   0.431
   1.059   2.090
   9.246   8.456   3.916   1.518   0.675   0.379   0.257   0.049   0.040   0.217
   0.076   0.103   0.091   0.754   1.703   0.950   0.153   0.092   0.017   0.092
   0.153   0.950   1.703   0.754   0.091   0.103   0.076   0.217   0.040   0.049
   0.257   0.379   0.675   1.518   3.916   8.456   9.246   8.456   3.916   1.518
   0.675   0.379   0.257   0.049   0.040   0.217   0.076   0.103   0.091   0.754
   1.703   0.950   0.153   0.092   0.017   0.092   0.153   0.950   1.703   0.754
   0.091   0.103   0.076   0.217   0.040   0.049   0.257   0.379   0.675   1.518
   3.916   8.456
   9.873   9.017   4.748   2.738   1.730   1.249   0.856   0.482   0.200   0.191
   0.100   0.088   0.187   0.542   1.244   0.891   0.098   0.265   0.045   0.265
   0.098   0.891   1.244   0.542   0.187   0.088   0.100   0.191   0.200   0.482
   0.856   1.249   1.730   2.738   4.748   9.017   9.873   9.017   4.748   2.738
   1.730   1.249   0.856   0.482   0.200   0.191   0.100   0.088   0.187   0.542
   1.244   0.891   0.098   0.265   0.045   0.265   0.098   0.891   1.244   0.542
   0.187   0.088   0.100   0.191   0.200   0.482   0.856   1.249   1.730   2.738
   4.748   9.017
   3.061   2.727   2.065   1.993   1.955   2.036   2.080   1.568   1.148   0.760
   0.382   0.152   0.289   0.460   0.892   1.220   0.356   0.357   0.190   0.357
   0.356   1.220   0.892   0.460   0.289   0.152   0.382   0.760   1.148   1.568
   2.080   2.036   1.955   1.993   2.065   2.727   3.061   2.727   2.065   1.993
   1.955   2.036   2.080   1.568   1.148   0.760   0.382   0.152   0.289   0.460
   0.892   1.220   0.356   0.357   0.190   0.357   0.356   1.220   0.892   0.460
   0.289   0.152   0.382   0.760   1.148   1.568   2.080   2.036   1.955   1.993
   2.065   2.727
   0.531   0.464   0.306   0.593   0.875   1.334   1.510   1.682   1.825   1.530
   1.158   0.277   0.238   0.317   0.803   1.609   0.939   0.365   0.530   0.365
   0.939   1.609   0.803   0.317   0.238   0.277   1.158   1.530   1.825   1.682
   1.510   1.334   0.875   0.593   0.306   0.464   0.531   0.464   0.306   0.593
   0.875   1.334   1.510   1.682   1.825   1.530   1.158   0.277   0.238   0.317
   0.803   1.609   0.939   0.365   0.530   0.365   0.939   1.609   0.803   0.317
   0.238   0.277   1.158   1.530   1.825   1.682   1.510   1.334   0.875   0.593
   0.306   0.464
 200       5.00   72    0 5.00   15    0
   0.248   0.248   0.248   0.248   0.248   0.248   0.248   0.248   0.248   0.248
   0.248   0.248   0.248   0.248   0.248   0.248   0.248   0.248   0.248   0.248
   0.248   0.248   0.248   0.248   0.248   0.248   0.248   0.248   0.248   0.248
   0.248   0.248   0.248   0.248   0.248   0.248   0.248   0.248   0.248   0.248
   0.248   0.248   0.248   0.248   0.248   0.248   0.248   0.248   0.248   0.248
   0.248   0.248   0.248   0.248   0.248   0.248   0.248   0.248   0.248   0.248
   0.248   0.248   0.248   0.248   0.248   0.248   0.248   0.248   0.248   0.248
   0.248   0.248
   0.186   0.215   0.189   0.191   0.200   0.201   0.212   0.177   0.192   0.232
   0.222   0.190   0.194   0.198   0.191   0.211   0.199   0.219   0.230   0.219
   0.199   0.211   0.191   0.198   0.194   0.190   0.222   0.232   0.192   0.177
   0.212   0.201   0.200   0.191   0.189   0.215   0.186   0.215   0.189   0.191
   0.200   0.201   0.212   0.177   0.192   0.232   0.222   0.190   0.194   0.198
   0.191   0.211   0.199   0.219   0.230   0.219   0.199   0.211   0.191   0.198
   0.194   0.190   0.222   0.232   0.192   0.177   0.212   0.201   0.200   0.191
   0.189   0.215
   0.151   0.185   0.212   0.184   0.188   0.177   0.191   0.193   0.181   0.180
   0.178   0.166   0.142   0.179   0.188   0.184   0.166   0.172   0.204   0.172
   0.166   0.184   0.188   0.179   0.142   0.166   0.178   0.180   0.181   0.193
   0.191   0.177   0.188   0.184   0.212   0.185   0.151   0.185   0.212   0.184
   0.188   0.177   0.191   0.193   0.181   0.180   0.178   0.166   0.142   0.179
   0.188   0.184   0.166   0.172   0.204   0.172   0.166   0.184   0.188   0.179
   0.142   0.166   0.178   0.180   0.181   0.193   0.191   0.177   0.188   0.184
   0.212   0.185
   0.282   0.269   0.295   0.256   0.250   0.231   0.217   0.222   0.202   0.149
   0.157   0.128   0.158   0.133   0.178   0.192   0.132   0.180   0.177   0.180
   0.132   0.192   0.178   0.133   0.158   0.128   0.157   0.149   0.202   0.222
   0.217   0.231   0.250   0.256   0.295   0.269   0.282   0.269   0.295   0.256
   0.250   0.231   0.217   0.222   0.202   0.149   0.157   0.128   0.158   0.133
   0.178   0.192   0.132   0.180   0.177   0.180   0.132   0.192   0.178   0.133
   0.158   0.128   0.157   0.149   0.202   0.222   0.217   0.231   0.250   0.256
   0.295   0.269
   1.017   0.966   0.949   0.843   0.788   0.610   0.486   0.433   0.298   0.183
   0.149   0.128   0.127   0.089   0.127   0.147   0.114   0.155   0.166   0.155
   0.114   0.147   0.127   0.089   0.127   0.128   0.149   0.183   0.298   0.433
   0.486   0.610   0.788   0.843   0.949   0.966   1.017   0.966   0.949   0.843
   0.788   0.610   0.486   0.433   0.298   0.183   0.149   0.128   0.127   0.089
   0.127   0.147   0.114   0.155   0.166   0.155   0.114   0.147   0.127   0.089
   0.127   0.128   0.149   0.183   0.298   0.433   0.486   0.610   0.788   0.843
   0.949   0.966
   3.517   3.463   3.295   3.308   3.075   2.663   2.120   1.693   1.025   0.599
   0.250   0.219   0.103   0.074   0.088   0.066   0.092   0.092   0.140   0.092
   0.092   0.066   0.088   0.074   0.103   0.219   0.250   0.599   1.025   1.693
   2.120   2.663   3.075   3.308   3.295   3.463   3.517   3.463   3.295   3.308
   3.075   2.663   2.120   1.693   1.025   0.599   0.250   0.219   0.103   0.074
   0.088   0.066   0.092   0.092   0.140   0.092   0.092   0.066   0.088   0.074
   0.103   0.219   0.250   0.599   1.025   1.693   2.120   2.663   3.075   3.308
   3.295   3.463
   3.908   3.959   3.805   4.231   4.337   4.427   4.487   4.176   3.265   2.244
   1.118   0.473   0.256   0.133   0.112   0.092   0.121   0.084   0.103   0.084
   0.121   0.092   0.112   0.133   0.256   0.473   1.118   2.244   3.265   4.176
   4.487   4.427   4.337   4.231   3.805   3.959   3.908   3.959   3.805   4.231
   4.337   4.427   4.487   4.176   3.265   2.244   1.118   0.473   0.256   0.133
   0.112   0.092   0.121   0.084   0.103   0.084   0.121   0.092   0.112   0.133
   0.256   0.473   1.118   2.244   3.265   4.176   4.487   4.427   4.337   4.231
   3.805   3.959
   1.342   1.445   1.438   1.802   2.081   2.652   3.351   3.806   4.292   4.249
   2.960   1.651   0.719   0.356   0.199   0.251   0.185   0.114   0.167   0.114
   0.185   0.251   0.199   0.356   0.719   1.651   2.960   4.249   4.292   3.806
   3.351   2.652   2.081   1.802   1.438   1.445   1.342   1.445   1.438   1.802
   2.081   2.652   3.351   3.806   4.292   4.249   2.960   1.651   0.719   0.356
   0.199   0.251   0.185   0.114   0.167   0.114   0.185   0.251   0.199   0.356
   0.719   1.651   2.960   4.249   4.292   3.806   3.351   2.652   2.081   1.802
   1.438   1.445
   0.165   0.178   0.174   0.208   0.233   0.439   0.728   1.157   2.301   3.354
   3.692   3.385   1.798   0.799   0.323   0.327   0.190   0.135   0.284   0.135
   0.190   0.327   0.323   0.799   1.798   3.385   3.692   3.354   2.301   1.157
   0.728   0.439   0.233   0.208   0.174   0.178   0.165   0.178   0.174   0.208
   0.233   0.439   0.728   1.157   2.301   3.354   3.692   3.385   1.798   0.799
   0.323   0.327   0.190   0.135   0.284   0.135   0.190   0.327   0.323   0.799
   1.798   3.385   3.692   3.354   2.301   1.157   0.728   0.439   0.233   0.208
   0.174   0.178
   0.020   0.052   0.076   0.038   0.036   0.059   0.175   0.222   0.561   1.199
   2.637   3.992   3.300   1.455   0.468   0.312   0.187   0.148   0.284   0.148
   0.187   0.312   0.468   1.455   3.300   3.992   2.637   1.199   0.561   0.222
   0.175   0.059   0.036   0.038   0.076   0.052   0.020   0.052   0.076   0.038
   0.036   0.059   0.175   0.222   0.561   1.199   2.637   3.992   3.300   1.455
   0.468   0.312   0.187   0.148   0.284   0.148   0.187   0.312   0.468   1.455
   3.300   3.992   2.637   1.199   0.561   0.222   0.175   0.059   0.036   0.038
   0.076   0.052
   0.028   0.045   0.104   0.068   0.027   0.036   0.091   0.099   0.228   0.651
   1.541   3.775   4.545   2.012   0.674   0.300   0.190   0.115   0.230   0.115
   0.190   0.300   0.674   2.012   4.545   3.775   1.541   0.651   0.228   0.099
   0.091   0.036   0.027   0.068   0.104   0.045   0.028   0.045   0.104   0.068
   0.027   0.036   0.091   0.099   0.228   0.651   1.541   3.775   4.545   2.012
   0.674   0.300   0.190   0.115   0.230   0.115   0.190   0.300   0.674   2.012
   4.545   3.775   1.541   0.651   0.228   0.099   0.091   0.036   0.027   0.068
   0.104   0.045
   0.057   0.024   0.044   0.062   0.024   0.010   0.048   0.054   0.158   0.463
   1.353   4.189   5.188   1.814   0.520   0.233   0.153   0.121   0.123   0.121
   0.153   0.233   0.520   1.814   5.188   4.189   1.353   0.463   0.158   0.054
   0.048   0.010   0.024   0.062   0.044   0.024   0.057   0.024   0.044   0.062
   0.024   0.010   0.048   0.054   0.158   0.463   1.353   4.189   5.188   1.814
   0.520   0.233   0.153   0.121   0.123   0.121   0.153   0.233   0.520   1.814
   5.188   4.189   1.353   0.463   0.158   0.054   0.048   0.010   0.024   0.062
   0.044   0.024
   0.067   0.112   0.032   0.032   0.000   0.010   0.071   0.098   0.206   0.700
   2.913   5.256   4.453   1.135   0.296   0.119   0.129   0.118   0.041   0.118
   0.129   0.119   0.296   1.135   4.453   5.256   2.913   0.700   0.206   0.098
   0.071   0.010   0.000   0.032   0.032   0.112   0.067   0.112   0.032   0.032
   0.000   0.010   0.071   0.098   0.206   0.700   2.913   5.256   4.453   1.135
   0.296   0.119   0.129   0.118   0.041   0.118   0.129   0.119   0.296   1.135
   4.453   5.256   2.913   0.700   0.206   0.098   0.071   0.010   0.000   0.032
   0.032   0.112
   0.171   0.194   0.099   0.055   0.066   0.081   0.127   0.289   0.937   2.582
   5.034   4.428   2.101   0.556   0.276   0.111   0.166   0.179   0.192   0.179
   0.166   0.111   0.276   0.556   2.101   4.428   5.034   2.582   0.937   0.289
   0.127   0.081   0.066   0.055   0.099   0.194   0.171   0.194   0.099   0.055
   0.066   0.081   0.127   0.289   0.937   2.582   5.034   4.428   2.101   0.556
   0.276   0.111   0.166   0.179   0.192   0.179   0.166   0.111   0.276   0.556
   2.101   4.428   5.034   2.582   0.937   0.289   0.127   0.081   0.066   0.055
   0.099   0.194
   0.397   0.227   0.145   0.080   0.181   0.265   0.361   0.910   3.025   4.606
   4.320   2.120   0.321   0.144   0.128   0.159   0.188   0.252   0.259   0.252
   0.188   0.159   0.128   0.144   0.321   2.120   4.320   4.606   3.025   0.910
   0.361   0.265   0.181   0.080   0.145   0.227   0.397   0.227   0.145   0.080
   0.181   0.265   0.361   0.910   3.025   4.606   4.320   2.120   0.321   0.144
   0.128   0.159   0.188   0.252   0.259   0.252   0.188   0.159   0.128   0.144
   0.321   2.120   4.320   4.606   3.025   0.910   0.361   0.265   0.181   0.080
   0.145   0.227
 111       5.00   72    0 5.00   15    0
   0.034   0.034   0.034   0.034   0.034   0.034   0.034   0.034   0.034   0.034
   0.034   0.034   0.034   0.034   0.034   0.034   0.034   0.034   0.034   0.034
   0.034   0.034   0.034   0.034   0.034   0.034   0.034   0.034   0.034   0.034
   0.034   0.034   0.034   0.034   0.034   0.034   0.034   0.034   0.034   0.034
   0.034   0.034   0.034   0.034   0.034   0.034   0.034   0.034   0.034   0.034
   0.034   0.034   0.034   0.034   0.034   0.034   0.034   0.034   0.034   0.034
   0.034   0.034   0.034   0.034   0.034   0.034   0.034   0.034   0.034   0.034
   0.034   0.034
   0.038   0.029   0.045   0.040   0.041   0.042   0.032   0.037   0.030   0.035
   0.031   0.031   0.028   0.027   0.033   0.038   0.037   0.034   0.036   0.034
   0.037   0.038   0.033   0.027   0.028   0.031   0.031   0.035   0.030   0.037
   0.032   0.042   0.041   0.040   0.045   0.029   0.038   0.029   0.045   0.040
   0.041   0.042   0.032   0.037   0.030   0.035   0.031   0.031   0.028   0.027
   0.033   0.038   0.037   0.034   0.036   0.034   0.037   0.038   0.033   0.027
   0.028   0.031   0.031   0.035   0.030   0.037   0.032   0.042   0.041   0.040
   0.045   0.029
   0.141   0.127   0.135   0.123   0.087   0.086   0.062   0.050   0.041   0.033
   0.034   0.034   0.037   0.033   0.033   0.035   0.038   0.045   0.043   0.045
   0.038   0.035   0.033   0.033   0.037   0.034   0.034   0.033   0.041   0.050
   0.062   0.086   0.087   0.123   0.135   0.127   0.141   0.127   0.135   0.123
   0.087   0.086   0.062   0.050   0.041   0.033   0.034   0.034   0.037   0.033
   0.033   0.035   0.038   0.045   0.043   0.045   0.038   0.035   0.033   0.033
   0.037   0.034   0.034   0.033   0.041   0.050   0.062   0.086   0.087   0.123
   0.135   0.127
   1.708   1.555   1.274   0.824   0.531   0.310   0.164   0.104   0.069   0.042
   0.042   0.023   0.032   0.028   0.030   0.025   0.025   0.033   0.033   0.033
   0.025   0.025   0.030   0.028   0.032   0.023   0.042   0.042   0.069   0.104
   0.164   0.310   0.531   0.824   1.274   1.555   1.708   1.555   1.274   0.824
   0.531   0.310   0.164   0.104   0.069   0.042   0.042   0.023   0.032   0.028
   0.030   0.025   0.025   0.033   0.033   0.033   0.025   0.025   0.030   0.028
   0.032   0.023   0.042   0.042   0.069   0.104   0.164   0.310   0.531   0.824
   1.274   1.555
   7.676   7.071   5.854   4.200   2.806   1.608   0.765   0.336   0.122   0.039
   0.022   0.003   0.008   0.008   0.013   0.007   0.004   0.008   0.008   0.008
   0.004   0.007   0.013   0.008   0.008   0.003   0.022   0.039   0.122   0.336
   0.765   1.608   2.806   4.200   5.854   7.071   7.676   7.071   5.854   4.200
   2.806   1.608   0.765   0.336   0.122   0.039   0.022   0.003   0.008   0.008
   0.013   0.007   0.004   0.008   0.008   0.008   0.004   0.007   0.013   0.008
   0.008   0.003   0.022   0.039   0.122   0.336   0.765   1.608   2.806   4.200
   5.854   7.071
   8.846   8.236   7.263   6.106   4.950   3.739   2.467   1.440   0.569   0.210
   0.087   0.016   0.005   0.000   0.000   0.000   0.000   0.004   0.000   0.004
   0.000   0.000   0.000   0.000   0.005   0.016   0.087   0.210   0.569   1.440
   2.467   3.739   4.950   6.106   7.263   8.236   8.846   8.236   7.263   6.106
   4.950   3.739   2.467   1.440   0.569   0.210   0.087   0.016   0.005   0.000
   0.000   0.000   0.000   0.004   0.000   0.004   0.000   0.000   0.000   0.000
   0.005   0.016   0.087   0.210   0.569   1.440   2.467   3.739   4.950   6.106
   7.263   8.236
   3.212   3.136   3.139   3.201   3.483   3.621   3.498   2.953   1.780   0.895
   0.395   0.122   0.082   0.047   0.034   0.030   0.019   0.026   0.021   0.026
   0.019   0.030   0.034   0.047   0.082   0.122   0.395   0.895   1.780   2.953
   3.498   3.621   3.483   3.201   3.139   3.136   3.212   3.136   3.139   3.201
   3.483   3.621   3.498   2.953   1.780   0.895   0.395   0.122   0.082   0.047
   0.034   0.030   0.019   0.026   0.021   0.026   0.019   0.030   0.034   0.047
   0.082   0.122   0.395   0.895   1.780   2.953   3.498   3.621   3.483   3.201
   3.139   3.136
   0.573   0.677   0.697   0.767   1.142   1.616   2.354   2.929   2.823   2.018
   1.076   0.456   0.238   0.143   0.078   0.079   0.045   0.051   0.065   0.051
   0.045   0.079   0.078   0.143   0.238   0.456   1.076   2.018   2.823   2.929
   2.354   1.616   1.142   0.767   0.697   0.677   0.573   0.677   0.697   0.767
   1.142   1.616   2.354   2.929   2.823   2.018   1.076   0.456   0.238   0.143
   0.078   0.079   0.045   0.051   0.065   0.051   0.045   0.079   0.078   0.143
   0.238   0.456   1.076   2.018   2.823   2.929   2.354   1.616   1.142   0.767
   0.697   0.677
   0.174   0.218   0.204   0.244   0.371   0.495   0.879   1.584   2.443   2.845
   2.289   1.379   0.584   0.281   0.120   0.132   0.079   0.079   0.073   0.079
   0.079   0.132   0.120   0.281   0.584   1.379   2.289   2.845   2.443   1.584
   0.879   0.495   0.371   0.244   0.204   0.218   0.174   0.218   0.204   0.244
   0.371   0.495   0.879   1.584   2.443   2.845   2.289   1.379   0.584   0.281
   0.120   0.132   0.079   0.079   0.073   0.079   0.079   0.132   0.120   0.281
   0.584   1.379   2.289   2.845   2.443   1.584   0.879   0.495   0.371   0.244
   0.204   0.218
   0.119   0.147   0.126   0.091   0.164   0.193   0.318   0.640   1.273   2.296
   2.992   2.812   1.714   0.805   0.329   0.202   0.157   0.128   0.098   0.128
   0.157   0.202   0.329   0.805   1.714   2.812   2.992   2.296   1.273   0.640
   0.318   0.193   0.164   0.091   0.126   0.147   0.119   0.147   0.126   0.091
   0.164   0.193   0.318   0.640   1.273   2.296   2.992   2.812   1.714   0.805
   0.329   0.202   0.157   0.128   0.098   0.128   0.157   0.202   0.329   0.805
   1.714   2.812   2.992   2.296   1.273   0.640   0.318   0.193   0.164   0.091
   0.126   0.147
   0.125   0.117   0.103   0.075   0.106   0.103   0.136   0.309   0.493   0.975
   2.009   2.961   2.964   2.213   1.043   0.468   0.254   0.180   0.131   0.180
   0.254   0.468   1.043   2.213   2.964   2.961   2.009   0.975   0.493   0.309
   0.136   0.103   0.106   0.075   0.103   0.117   0.125   0.117   0.103   0.075
   0.106   0.103   0.136   0.309   0.493   0.975   2.009   2.961   2.964   2.213
   1.043   0.468   0.254   0.180   0.131   0.180   0.254   0.468   1.043   2.213
   2.964   2.961   2.009   0.975   0.493   0.309   0.136   0.103   0.106   0.075
   0.103   0.117
   0.148   0.127   0.135   0.085   0.083   0.074   0.028   0.180   0.220   0.338
   0.678   1.491   2.365   3.130   2.457   1.572   0.602   0.421   0.261   0.421
   0.602   1.572   2.457   3.130   2.365   1.491   0.678   0.338   0.220   0.180
   0.028   0.074   0.083   0.085   0.135   0.127   0.148   0.127   0.135   0.085
   0.083   0.074   0.028   0.180   0.220   0.338   0.678   1.491   2.365   3.130
   2.457   1.572   0.602   0.421   0.261   0.421   0.602   1.572   2.457   3.130
   2.365   1.491   0.678   0.338   0.220   0.180   0.028   0.074   0.083   0.085
   0.135   0.127
   0.131   0.185   0.128   0.127   0.067   0.096   0.021   0.148   0.217   0.211
   0.230   0.413   0.892   2.013   2.764   2.880   1.815   0.981   0.637   0.981
   1.815   2.880   2.764   2.013   0.892   0.413   0.230   0.211   0.217   0.148
   0.021   0.096   0.067   0.127   0.128   0.185   0.131   0.185   0.128   0.127
   0.067   0.096   0.021   0.148   0.217   0.211   0.230   0.413   0.892   2.013
   2.764   2.880   1.815   0.981   0.637   0.981   1.815   2.880   2.764   2.013
   0.892   0.413   0.230   0.211   0.217   0.148   0.021   0.096   0.067   0.127
   0.128   0.185
   0.160   0.184   0.121   0.161   0.044   0.095   0.024   0.153   0.277   0.148
   0.149   0.196   0.279   0.606   1.520   2.422   2.927   1.998   1.283   1.998
   2.927   2.422   1.520   0.606   0.279   0.196   0.149   0.148   0.277   0.153
   0.024   0.095   0.044   0.161   0.121   0.184   0.160   0.184   0.121   0.161
   0.044   0.095   0.024   0.153   0.277   0.148   0.149   0.196   0.279   0.606
   1.520   2.422   2.927   1.998   1.283   1.998   2.927   2.422   1.520   0.606
   0.279   0.196   0.149   0.148   0.277   0.153   0.024   0.095   0.044   0.161
   0.121   0.184
   0.345   0.265   0.164   0.204   0.081   0.129   0.151   0.216   0.198   0.185
   0.124   0.217   0.219   0.220   0.664   1.237   2.589   2.777   2.426   2.777
   2.589   1.237   0.664   0.220   0.219   0.217   0.124   0.185   0.198   0.216
   0.151   0.129   0.081   0.204   0.164   0.265   0.345   0.265   0.164   0.204
   0.081   0.129   0.151   0.216   0.198   0.185   0.124   0.217   0.219   0.220
   0.664   1.237   2.589   2.777   2.426   2.777   2.589   1.237   0.664   0.220
   0.219   0.217   0.124   0.185   0.198   0.216   0.151   0.129   0.081   0.204
   0.164   0.265
  4  1     -6.0211675E-01
  4  2      1.5413050E-01
  4  3     -2.6018502E+00
  6  1      2.3015639E+00
  6  2     -4.9945379E+00
  6  3      2.4843722E+00
  6  4      2.2654992E-01
  8  1     -5.8675565E-01
  8  2      1.9932431E-01
  8  3      2.8536506E-02
  8  4      2.8527680E+00
  8  5      1.5102125E+00
 10  1     -1.5368131E+00
 10  2      1.4020217E+00
 10  3      1.1978800E+00
 10  4      6.7624742E-01
 10  5     -4.7011741E-01
 10  6     -9.0074563E-01
 12  1      2.3869168E-01  2.3191026E+00
 12  2     -1.2609564E-01 -3.6204232E+00
 12  3     -1.7709033E-02  4.5835007E+00
 12  4     -3.4133161E-01 -2.9287668E+00
 12  5     -5.8424011E-01 -4.1169700E-01
 12  6     -3.1812316E+00  9.6200604E-01
 12  7      2.6906421E-02  1.0270835E-01
 14  1     -4.1416689E-01
 14  2      8.1088413E-01
 14  3     -6.2126861E-01
 14  4      1.5927368E-01
 14  5     -2.5239796E+00
 14  6      1.0468032E+00
 14  7      9.6802593E-02
 14  8      2.4000831E-01
 16  1      5.2833286E-02 -1.1626368E+00
 16  2     -1.0454122E-01  1.4627133E+00
 16  3      4.7074693E-01 -6.8762341E-01
 16  4     -3.5266867E-01 -1.2485651E+00
 16  5     -3.2404899E-03  6.0506841E-01
 16  6      5.6039167E-02  4.0183294E-01
 16  7      1.9734252E+00  1.1867277E-03
 16  8      1.4356462E+00 -2.7994556E-01
 16  9      9.8562913E-02  2.1954019E-01
 220       5.00   72    0 5.00   18    0
   2.912   2.913   2.918   2.925   2.936   2.949   2.963   2.980   2.998   3.016
   3.034   3.052   3.069   3.085   3.098   3.109   3.117   3.122   3.123   3.122
   3.117   3.109   3.098   3.085   3.069   3.052   3.034   3.016   2.998   2.980
   2.963   2.949   2.936   2.925   2.918   2.913   2.912   2.913   2.918   2.925
   2.936   2.949   2.963   2.980   2.998   3.016   3.034   3.052   3.069   3.085
   3.098   3.109   3.117   3.122   3.123   3.122   3.117   3.109   3.098   3.085
   3.069   3.052   3.034   3.016   2.998   2.980   2.963   2.949   2.936   2.925
   2.918   2.913
   1.667   1.677   1.706   1.754   1.822   1.908   2.011   2.130   2.262   2.404
   2.553   2.703   2.849   2.986   3.108   3.209   3.285   3.332   3.348   3.332
   3.285   3.209   3.108   2.986   2.849   2.703   2.553   2.404   2.262   2.130
   2.011   1.908   1.822   1.754   1.706   1.677   1.667   1.677   1.706   1.754
   1.822   1.908   2.011   2.130   2.262   2.404   2.553   2.703   2.849   2.986
   3.108   3.209   3.285   3.332   3.348   3.332   3.285   3.209   3.108   2.986
   2.849   2.703   2.553   2.404   2.262   2.130   2.011   1.908   1.822   1.754
   1.706   1.677
   0.153   0.163   0.196   0.252   0.337   0.455   0.610   0.806   1.047   1.331
   1.653   2.004   2.369   2.729   3.065   3.355   3.579   3.720   3.768   3.720
   3.579   3.355   3.065   2.729   2.369   2.004   1.653   1.331   1.047   0.806
   0.610   0.455   0.337   0.252   0.196   0.163   0.153   0.163   0.196   0.252
   0.337   0.455   0.610   0.806   1.047   1.331   1.653   2.004   2.369   2.729
   3.065   3.355   3.579   3.720   3.768   3.720   3.579   3.355   3.065   2.729
   2.369   2.004   1.653   1.331   1.047   0.806   0.610   0.455   0.337   0.252
   0.196   0.163
  -0.553  -0.556  -0.562  -0.567  -0.563  -0.537  -0.471  -0.344  -0.136   0.169
   0.577   1.081   1.660   2.276   2.882   3.427   3.859   4.136   4.232   4.136
   3.859   3.427   2.882   2.276   1.660   1.081   0.577   0.169  -0.136  -0.344
  -0.471  -0.537  -0.563  -0.567  -0.562  -0.556  -0.553  -0.556  -0.562  -0.567
  -0.563  -0.537  -0.471  -0.344  -0.136   0.169   0.577   1.081   1.660   2.276
   2.882   3.427   3.859   4.136   4.232   4.136   3.859   3.427   2.882   2.276
   1.660   1.081   0.577   0.169  -0.136  -0.344  -0.471  -0.537  -0.563  -0.567
  -0.562  -0.556
  -0.245  -0.255  -0.290  -0.353  -0.447  -0.565  -0.684  -0.763  -0.753  -0.603
  -0.276   0.238   0.917   1.705   2.525   3.288   3.906   4.308   4.447   4.308
   3.906   3.288   2.525   1.705   0.917   0.238  -0.276  -0.603  -0.753  -0.763
  -0.684  -0.565  -0.447  -0.353  -0.290  -0.255  -0.245  -0.255  -0.290  -0.353
  -0.447  -0.565  -0.684  -0.763  -0.753  -0.603  -0.276   0.238   0.917   1.705
   2.525   3.288   3.906   4.308   4.447   4.308   3.906   3.288   2.525   1.705
   0.917   0.238  -0.276  -0.603  -0.753  -0.763  -0.684  -0.565  -0.447  -0.353
  -0.290  -0.255
   0.269   0.281   0.302   0.303   0.242   0.093  -0.141  -0.414  -0.642  -0.730
  -0.594  -0.198   0.436   1.237   2.098   2.906   3.560   3.984   4.130   3.984
   3.560   2.906   2.098   1.237   0.436  -0.198  -0.594  -0.730  -0.642  -0.414
  -0.141   0.093   0.242   0.303   0.302   0.281   0.269   0.281   0.302   0.303
   0.242   0.093  -0.141  -0.414  -0.642  -0.730  -0.594  -0.198   0.436   1.237
   2.098   2.906   3.560   3.984   4.130   3.984   3.560   2.906   2.098   1.237
   0.436  -0.198  -0.594  -0.730  -0.642  -0.414  -0.141   0.093   0.242   0.303
   0.302   0.281
   0.075   0.131   0.280   0.470   0.620   0.643   0.491   0.190  -0.155  -0.395
  -0.402  -0.122   0.410   1.089   1.788   2.402   2.863   3.144   3.237   3.144
   2.863   2.402   1.788   1.089   0.410  -0.122  -0.402  -0.395  -0.155   0.190
   0.491   0.643   0.620   0.470   0.280   0.131   0.075   0.131   0.280   0.470
   0.620   0.643   0.491   0.190  -0.155  -0.395  -0.402  -0.122   0.410   1.089
   1.788   2.402   2.863   3.144   3.237   3.144   2.863   2.402   1.788   1.089
   0.410  -0.122  -0.402  -0.395  -0.155   0.190   0.491   0.643   0.620   0.470
   0.280   0.131
  -0.700  -0.636  -0.439  -0.117   0.258   0.553   0.637   0.479   0.188  -0.040
  -0.035   0.256   0.747   1.276   1.698   1.946   2.039   2.047   2.041   2.047
   2.039   1.946   1.698   1.276   0.747   0.256  -0.035  -0.040   0.188   0.479
   0.637   0.553   0.258  -0.117  -0.439  -0.636  -0.700  -0.636  -0.439  -0.117
   0.258   0.553   0.637   0.479   0.188  -0.040  -0.035   0.256   0.747   1.276
   1.698   1.946   2.039   2.047   2.041   2.047   2.039   1.946   1.698   1.276
   0.747   0.256  -0.035  -0.040   0.188   0.479   0.637   0.553   0.258  -0.117
  -0.439  -0.636
  -0.735  -0.780  -0.829  -0.712  -0.369   0.063   0.350   0.356   0.169   0.031
   0.155   0.571   1.116   1.555   1.725   1.613   1.339   1.076   0.970   1.076
   1.339   1.613   1.725   1.555   1.116   0.571   0.155   0.031   0.169   0.356
   0.350   0.063  -0.369  -0.712  -0.829  -0.780  -0.735  -0.780  -0.829  -0.712
  -0.369   0.063   0.350   0.356   0.169   0.031   0.155   0.571   1.116   1.555
   1.725   1.613   1.339   1.076   0.970   1.076   1.339   1.613   1.725   1.555
   1.116   0.571   0.155   0.031   0.169   0.356   0.350   0.063  -0.369  -0.712
  -0.829  -0.780
   1.218   0.915   0.242  -0.310  -0.412  -0.143   0.140   0.168  -0.017  -0.133
   0.068   0.590   1.205   1.623   1.672   1.371   0.898   0.485   0.323   0.485
   0.898   1.371   1.672   1.623   1.205   0.590   0.068  -0.133  -0.017   0.168
   0.140  -0.143  -0.412  -0.310   0.242   0.915   1.218   0.915   0.242  -0.310
  -0.412  -0.143   0.140   0.168  -0.017  -0.133   0.068   0.590   1.205   1.623
   1.672   1.371   0.898   0.485   0.323   0.485   0.898   1.371   1.672   1.623
   1.205   0.590   0.068  -0.133  -0.017   0.168   0.140  -0.143  -0.412  -0.310
   0.242   0.915
   4.757   4.131   2.657   1.204   0.416   0.292   0.372   0.260  -0.047  -0.258
  -0.118   0.364   0.957   1.380   1.461   1.191   0.713   0.270   0.091   0.270
   0.713   1.191   1.461   1.380   0.957   0.364  -0.118  -0.258  -0.047   0.260
   0.372   0.292   0.416   1.204   2.657   4.131   4.757   4.131   2.657   1.204
   0.416   0.292   0.372   0.260  -0.047  -0.258  -0.118   0.364   0.957   1.380
   1.461   1.191   0.713   0.270   0.091   0.270   0.713   1.191   1.461   1.380
   0.957   0.364  -0.118  -0.258  -0.047   0.260   0.372   0.292   0.416   1.204
   2.657   4.131
   7.652   6.816   4.823   2.781   1.517   1.070   0.935   0.670   0.246  -0.085
  -0.120   0.144   0.575   0.994   1.221   1.119   0.713   0.245   0.038   0.245
   0.713   1.119   1.221   0.994   0.575   0.144  -0.120  -0.085   0.246   0.670
   0.935   1.070   1.517   2.781   4.823   6.816   7.652   6.816   4.823   2.781
   1.517   1.070   0.935   0.670   0.246  -0.085  -0.120   0.144   0.575   0.994
   1.221   1.119   0.713   0.245   0.038   0.245   0.713   1.119   1.221   0.994
   0.575   0.144  -0.120  -0.085   0.246   0.670   0.935   1.070   1.517   2.781
   4.823   6.816
   7.614   6.838   5.004   3.155   2.030   1.621   1.464   1.199   0.811   0.451
   0.219   0.156   0.323   0.713   1.121   1.206   0.824   0.247  -0.028   0.247
   0.824   1.206   1.121   0.713   0.323   0.156   0.219   0.451   0.811   1.199
   1.464   1.621   2.030   3.155   5.004   6.838   7.614   6.838   5.004   3.155
   2.030   1.621   1.464   1.199   0.811   0.451   0.219   0.156   0.323   0.713
   1.121   1.206   0.824   0.247  -0.028   0.247   0.824   1.206   1.121   0.713
   0.323   0.156   0.219   0.451   0.811   1.199   1.464   1.621   2.030   3.155
   5.004   6.838
   4.487   4.030   2.997   2.072   1.661   1.646   1.686   1.603   1.420   1.163
   0.804   0.436   0.325   0.643   1.163   1.373   0.988   0.311  -0.024   0.311
   0.988   1.373   1.163   0.643   0.325   0.436   0.804   1.163   1.420   1.603
   1.686   1.646   1.661   2.072   2.997   4.030   4.487   4.030   2.997   2.072
   1.661   1.646   1.686   1.603   1.420   1.163   0.804   0.436   0.325   0.643
   1.163   1.373   0.988   0.311  -0.024   0.311   0.988   1.373   1.163   0.643
   0.325   0.436   0.804   1.163   1.420   1.603   1.686   1.646   1.661   2.072
   2.997   4.030
   0.601   0.518   0.408   0.508   0.851   1.243   1.511   1.662   1.745   1.678
   1.339   0.835   0.533   0.703   1.170   1.432   1.172   0.625   0.347   0.625
   1.172   1.432   1.170   0.703   0.533   0.835   1.339   1.678   1.745   1.662
   1.511   1.243   0.851   0.508   0.408   0.518   0.601   0.518   0.408   0.508
   0.851   1.243   1.511   1.662   1.745   1.678   1.339   0.835   0.533   0.703
   1.170   1.432   1.172   0.625   0.347   0.625   1.172   1.432   1.170   0.703
   0.533   0.835   1.339   1.678   1.745   1.662   1.511   1.243   0.851   0.508
   0.408   0.518
  -1.312  -1.197  -0.852  -0.325   0.234   0.673   0.978   1.255   1.539   1.692
   1.551   1.167   0.819   0.762   0.983   1.247   1.351   1.303   1.258   1.303
   1.351   1.247   0.983   0.762   0.819   1.167   1.551   1.692   1.539   1.255
   0.978   0.673   0.234  -0.325  -0.852  -1.197  -1.312  -1.197  -0.852  -0.325
   0.234   0.673   0.978   1.255   1.539   1.692   1.551   1.167   0.819   0.762
   0.983   1.247   1.351   1.303   1.258   1.303   1.351   1.247   0.983   0.762
   0.819   1.167   1.551   1.692   1.539   1.255   0.978   0.673   0.234  -0.325
  -0.852  -1.197
  -0.636  -0.555  -0.347  -0.110   0.060   0.156   0.279   0.536   0.914   1.265
   1.428   1.342   1.069   0.763   0.641   0.892   1.501   2.164   2.453   2.164
   1.501   0.892   0.641   0.763   1.069   1.342   1.428   1.265   0.914   0.536
   0.279   0.156   0.060  -0.110  -0.347  -0.555  -0.636  -0.555  -0.347  -0.110
   0.060   0.156   0.279   0.536   0.914   1.265   1.428   1.342   1.069   0.763
   0.641   0.892   1.501   2.164   2.453   2.164   1.501   0.892   0.641   0.763
   1.069   1.342   1.428   1.265   0.914   0.536   0.279   0.156   0.060  -0.110
  -0.347  -0.555
   0.768   0.741   0.638   0.422   0.118  -0.151  -0.229  -0.037   0.364   0.836
   1.230   1.395   1.210   0.740   0.369   0.608   1.590   2.778   3.314   2.778
   1.590   0.608   0.369   0.740   1.210   1.395   1.230   0.836   0.364  -0.037
  -0.229  -0.151   0.118   0.422   0.638   0.741   0.768   0.741   0.638   0.422
   0.118  -0.151  -0.229  -0.037   0.364   0.836   1.230   1.395   1.210   0.740
   0.369   0.608   1.590   2.778   3.314   2.778   1.590   0.608   0.369   0.740
   1.210   1.395   1.230   0.836   0.364  -0.037  -0.229  -0.151   0.118   0.422
   0.638   0.741
 200       5.00   72    0 5.00   18    0
   0.441   0.442   0.443   0.445   0.448   0.452   0.456   0.461   0.466   0.471
   0.476   0.482   0.487   0.491   0.495   0.499   0.501   0.502   0.503   0.502
   0.501   0.499   0.495   0.491   0.487   0.482   0.476   0.471   0.466   0.461
   0.456   0.452   0.448   0.445   0.443   0.442   0.441   0.442   0.443   0.445
   0.448   0.452   0.456   0.461   0.466   0.471   0.476   0.482   0.487   0.491
   0.495   0.499   0.501   0.502   0.503   0.502   0.501   0.499   0.495   0.491
   0.487   0.482   0.476   0.471   0.466   0.461   0.456   0.452   0.448   0.445
   0.443   0.442
   0.086   0.088   0.093   0.103   0.116   0.134   0.156   0.184   0.216   0.253
   0.293   0.336   0.380   0.423   0.463   0.497   0.523   0.539   0.545   0.539
   0.523   0.497   0.463   0.423   0.380   0.336   0.293   0.253   0.216   0.184
   0.156   0.134   0.116   0.103   0.093   0.088   0.086   0.088   0.093   0.103
   0.116   0.134   0.156   0.184   0.216   0.253   0.293   0.336   0.380   0.423
   0.463   0.497   0.523   0.539   0.545   0.539   0.523   0.497   0.463   0.423
   0.380   0.336   0.293   0.253   0.216   0.184   0.156   0.134   0.116   0.103
   0.093   0.088
  -0.159  -0.161  -0.164  -0.170  -0.176  -0.181  -0.182  -0.174  -0.154  -0.116
  -0.058   0.022   0.121   0.233   0.349   0.458   0.547   0.605   0.625   0.605
   0.547   0.458   0.349   0.233   0.121   0.022  -0.058  -0.116  -0.154  -0.174
  -0.182  -0.181  -0.176  -0.170  -0.164  -0.161  -0.159  -0.161  -0.164  -0.170
  -0.176  -0.181  -0.182  -0.174  -0.154  -0.116  -0.058   0.022   0.121   0.233
   0.349   0.458   0.547   0.605   0.625   0.605   0.547   0.458   0.349   0.233
   0.121   0.022  -0.058  -0.116  -0.154  -0.174  -0.182  -0.181  -0.176  -0.170
  -0.164  -0.161
   0.287   0.282   0.263   0.229   0.175   0.099   0.003  -0.105  -0.211  -0.297
  -0.341  -0.324  -0.238  -0.087   0.111   0.324   0.515   0.647   0.694   0.647
   0.515   0.324   0.111  -0.087  -0.238  -0.324  -0.341  -0.297  -0.211  -0.105
   0.003   0.099   0.175   0.229   0.263   0.282   0.287   0.282   0.263   0.229
   0.175   0.099   0.003  -0.105  -0.211  -0.297  -0.341  -0.324  -0.238  -0.087
   0.111   0.324   0.515   0.647   0.694   0.647   0.515   0.324   0.111  -0.087
  -0.238  -0.324  -0.341  -0.297  -0.211  -0.105   0.003   0.099   0.175   0.229
   0.263   0.282
   1.529   1.525   1.512   1.479   1.411   1.290   1.102   0.842   0.524   0.183
  -0.130  -0.357  -0.453  -0.396  -0.202   0.080   0.369   0.585   0.665   0.585
   0.369   0.080  -0.202  -0.396  -0.453  -0.357  -0.130   0.183   0.524   0.842
   1.102   1.290   1.411   1.479   1.512   1.525   1.529   1.525   1.512   1.479
   1.411   1.290   1.102   0.842   0.524   0.183  -0.130  -0.357  -0.453  -0.396
  -0.202   0.080   0.369   0.585   0.665   0.585   0.369   0.080  -0.202  -0.396
  -0.453  -0.357  -0.130   0.183   0.524   0.842   1.102   1.290   1.411   1.479
   1.512   1.525
   2.852   2.850   2.845   2.840   2.824   2.766   2.621   2.347   1.924   1.376
   0.768   0.197  -0.233  -0.444  -0.410  -0.181   0.135   0.401   0.505   0.401
   0.135  -0.181  -0.410  -0.444  -0.233   0.197   0.768   1.376   1.924   2.347
   2.621   2.766   2.824   2.840   2.845   2.850   2.852   2.850   2.845   2.840
   2.824   2.766   2.621   2.347   1.924   1.376   0.768   0.197  -0.233  -0.444
  -0.410  -0.181   0.135   0.401   0.505   0.401   0.135  -0.181  -0.410  -0.444
  -0.233   0.197   0.768   1.376   1.924   2.347   2.621   2.766   2.824   2.840
   2.845   2.850
   3.231   3.206   3.158   3.142   3.196   3.300   3.380   3.339   3.101   2.638
   1.980   1.217   0.483  -0.073  -0.339  -0.301  -0.061   0.200   0.311   0.200
  -0.061  -0.301  -0.339  -0.073   0.483   1.217   1.980   2.638   3.101   3.339
   3.380   3.300   3.196   3.142   3.158   3.206   3.231   3.206   3.158   3.142
   3.196   3.300   3.380   3.339   3.101   2.638   1.980   1.217   0.483  -0.073
  -0.339  -0.301  -0.061   0.200   0.311   0.200  -0.061  -0.301  -0.339  -0.073
   0.483   1.217   1.980   2.638   3.101   3.339   3.380   3.300   3.196   3.142
   3.158   3.206
   2.341   2.267   2.116   2.033   2.129   2.399   2.742   3.036   3.189   3.136
   2.824   2.233   1.434   0.614   0.010  -0.219  -0.109   0.127   0.242   0.127
  -0.109  -0.219   0.010   0.614   1.434   2.233   2.824   3.136   3.189   3.036
   2.742   2.399   2.129   2.033   2.116   2.267   2.341   2.267   2.116   2.033
   2.129   2.399   2.742   3.036   3.189   3.136   2.824   2.233   1.434   0.614
   0.010  -0.219  -0.109   0.127   0.242   0.127  -0.109  -0.219   0.010   0.614
   1.434   2.233   2.824   3.136   3.189   3.036   2.742   2.399   2.129   2.033
   2.116   2.267
   0.955   0.839   0.604   0.484   0.620   0.960   1.362   1.756   2.174   2.619
   2.938   2.876   2.295   1.351   0.445  -0.046  -0.038   0.218   0.360   0.218
  -0.038  -0.046   0.445   1.351   2.295   2.876   2.938   2.619   2.174   1.756
   1.362   0.960   0.620   0.484   0.604   0.839   0.955   0.839   0.604   0.484
   0.620   0.960   1.362   1.756   2.174   2.619   2.938   2.876   2.295   1.351
   0.445  -0.046  -0.038   0.218   0.360   0.218  -0.038  -0.046   0.445   1.351
   2.295   2.876   2.938   2.619   2.174   1.756   1.362   0.960   0.620   0.484
   0.604   0.839
   0.148   0.019  -0.211  -0.259  -0.045   0.235   0.371   0.449   0.797   1.607
   2.615   3.223   2.973   1.958   0.774   0.057   0.021   0.351   0.541   0.351
   0.021   0.057   0.774   1.958   2.973   3.223   2.615   1.607   0.797   0.449
   0.371   0.235  -0.045  -0.259  -0.211   0.019   0.148   0.019  -0.211  -0.259
  -0.045   0.235   0.371   0.449   0.797   1.607   2.615   3.223   2.973   1.958
   0.774   0.057   0.021   0.351   0.541   0.351   0.021   0.057   0.774   1.958
   2.973   3.223   2.615   1.607   0.797   0.449   0.371   0.235  -0.045  -0.259
  -0.211   0.019
   0.186   0.066  -0.105  -0.028   0.264   0.384   0.079  -0.340  -0.187   0.902
   2.489   3.607   3.534   2.379   0.945   0.065   0.001   0.376   0.594   0.376
   0.001   0.065   0.945   2.379   3.534   3.607   2.489   0.902  -0.187  -0.340
   0.079   0.384   0.264  -0.028  -0.105   0.066   0.186   0.066  -0.105  -0.028
   0.264   0.384   0.079  -0.340  -0.187   0.902   2.489   3.607   3.534   2.379
   0.945   0.065   0.001   0.376   0.594   0.376   0.001   0.065   0.945   2.379
   3.534   3.607   2.489   0.902  -0.187  -0.340   0.079   0.384   0.264  -0.028
  -0.105   0.066
   0.436   0.322   0.185   0.323   0.614   0.564  -0.036  -0.653  -0.405   1.023
   2.926   4.104   3.854   2.492   0.970   0.085  -0.014   0.273   0.442   0.273
  -0.014   0.085   0.970   2.492   3.854   4.104   2.926   1.023  -0.405  -0.653
  -0.036   0.564   0.614   0.323   0.185   0.322   0.436   0.322   0.185   0.323
   0.614   0.564  -0.036  -0.653  -0.405   1.023   2.926   4.104   3.854   2.492
   0.970   0.085  -0.014   0.273   0.442   0.273  -0.014   0.085   0.970   2.492
   3.854   4.104   2.926   1.023  -0.405  -0.653  -0.036   0.564   0.614   0.323
   0.185   0.322
   0.290   0.182   0.053   0.170   0.391   0.278  -0.229  -0.492   0.253   1.982
   3.713   4.328   3.547   2.059   0.796   0.194   0.097   0.164   0.201   0.164
   0.097   0.194   0.796   2.059   3.547   4.328   3.713   1.982   0.253  -0.492
  -0.229   0.278   0.391   0.170   0.053   0.182   0.290   0.182   0.053   0.170
   0.391   0.278  -0.229  -0.492   0.253   1.982   3.713   4.328   3.547   2.059
   0.796   0.194   0.097   0.164   0.201   0.164   0.097   0.194   0.796   2.059
   3.547   4.328   3.713   1.982   0.253  -0.492  -0.229   0.278   0.391   0.170
   0.053   0.182
  -0.130  -0.212  -0.303  -0.201  -0.014  -0.001  -0.058   0.368   1.638   3.281
   4.236   3.831   2.439   1.071   0.408   0.324   0.315   0.163   0.059   0.163
   0.315   0.324   0.408   1.071   2.439   3.831   4.236   3.281   1.638   0.368
  -0.058  -0.001  -0.014  -0.201  -0.303  -0.212  -0.130  -0.212  -0.303  -0.201
  -0.014  -0.001  -0.058   0.368   1.638   3.281   4.236   3.831   2.439   1.071
   0.408   0.324   0.315   0.163   0.059   0.163   0.315   0.324   0.408   1.071
   2.439   3.831   4.236   3.281   1.638   0.368  -0.058  -0.001  -0.014  -0.201
  -0.303  -0.212
  -0.273  -0.322  -0.363  -0.250  -0.005   0.297   0.802   1.776   3.108   4.089
   3.944   2.634   1.006   0.040  -0.001   0.349   0.463   0.256   0.108   0.256
   0.463   0.349  -0.001   0.040   1.006   2.634   3.944   4.089   3.108   1.776
   0.802   0.297  -0.005  -0.250  -0.363  -0.322  -0.273  -0.322  -0.363  -0.250
  -0.005   0.297   0.802   1.776   3.108   4.089   3.944   2.634   1.006   0.040
  -0.001   0.349   0.463   0.256   0.108   0.256   0.463   0.349  -0.001   0.040
   1.006   2.634   3.944   4.089   3.108   1.776   0.802   0.297  -0.005  -0.250
  -0.363  -0.322
   0.114   0.050  -0.045   0.010   0.329   0.954   1.887   2.978   3.784   3.762
   2.756   1.261   0.079  -0.326  -0.112   0.234   0.380   0.336   0.289   0.336
   0.380   0.234  -0.112  -0.326   0.079   1.261   2.756   3.762   3.784   2.978
   1.887   0.954   0.329   0.010  -0.045   0.050   0.114   0.050  -0.045   0.010
   0.329   0.954   1.887   2.978   3.784   3.762   2.756   1.261   0.079  -0.326
  -0.112   0.234   0.380   0.336   0.289   0.336   0.380   0.234  -0.112  -0.326
   0.079   1.261   2.756   3.762   3.784   2.978   1.887   0.954   0.329   0.010
  -0.045   0.050
   0.754   0.612   0.320   0.190   0.513   1.371   2.512   3.379   3.406   2.493
   1.186   0.254   0.009   0.123   0.153   0.060   0.105   0.336   0.476   0.336
   0.105   0.060   0.153   0.123   0.009   0.254   1.186   2.493   3.406   3.379
   2.512   1.371   0.513   0.190   0.320   0.612   0.754   0.612   0.320   0.190
   0.513   1.371   2.512   3.379   3.406   2.493   1.186   0.254   0.009   0.123
   0.153   0.060   0.105   0.336   0.476   0.336   0.105   0.060   0.153   0.123
   0.009   0.254   1.186   2.493   3.406   3.379   2.512   1.371   0.513   0.190
   0.320   0.612
   1.206   0.985   0.500   0.187   0.468   1.432   2.631   3.255   2.736   1.342
   0.080  -0.210   0.312   0.732   0.478  -0.058  -0.138   0.298   0.584   0.298
  -0.138  -0.058   0.478   0.732   0.312  -0.210   0.080   1.342   2.736   3.255
   2.631   1.432   0.468   0.187   0.500   0.985   1.206   0.985   0.500   0.187
   0.468   1.432   2.631   3.255   2.736   1.342   0.080  -0.210   0.312   0.732
   0.478  -0.058  -0.138   0.298   0.584   0.298  -0.138  -0.058   0.478   0.732
   0.312  -0.210   0.080   1.342   2.736   3.255   2.631   1.432   0.468   0.187
   0.500   0.985
 111       5.00   72    0 5.00   18    0
   0.363   0.365   0.369   0.376   0.386   0.398   0.412   0.428   0.445   0.462
   0.480   0.497   0.513   0.528   0.541   0.552   0.559   0.564   0.566   0.564
   0.559   0.552   0.541   0.528   0.513   0.497   0.480   0.462   0.445   0.428
   0.412   0.398   0.386   0.376   0.369   0.365   0.363   0.365   0.369   0.376
   0.386   0.398   0.412   0.428   0.445   0.462   0.480   0.497   0.513   0.528
   0.541   0.552   0.559   0.564   0.566   0.564   0.559   0.552   0.541   0.528
   0.513   0.497   0.480   0.462   0.445   0.428   0.412   0.398   0.386   0.376
   0.369   0.365
  -0.531  -0.527  -0.516  -0.497  -0.467  -0.425  -0.370  -0.301  -0.218  -0.122
  -0.016   0.097   0.211   0.321   0.421   0.506   0.571   0.611   0.625   0.611
   0.571   0.506   0.421   0.321   0.211   0.097  -0.016  -0.122  -0.218  -0.301
  -0.370  -0.425  -0.467  -0.497  -0.516  -0.527  -0.531  -0.527  -0.516  -0.497
  -0.467  -0.425  -0.370  -0.301  -0.218  -0.122  -0.016   0.097   0.211   0.321
   0.421   0.506   0.571   0.611   0.625   0.611   0.571   0.506   0.421   0.321
   0.211   0.097  -0.016  -0.122  -0.218  -0.301  -0.370  -0.425  -0.467  -0.497
  -0.516  -0.527
   0.008  -0.018  -0.093  -0.205  -0.337  -0.469  -0.579  -0.650  -0.670  -0.630
  -0.532  -0.385  -0.201   0.002   0.204   0.385   0.529   0.621   0.652   0.621
   0.529   0.385   0.204   0.002  -0.201  -0.385  -0.532  -0.630  -0.670  -0.650
  -0.579  -0.469  -0.337  -0.205  -0.093  -0.018   0.008  -0.018  -0.093  -0.205
  -0.337  -0.469  -0.579  -0.650  -0.670  -0.630  -0.532  -0.385  -0.201   0.002
   0.204   0.385   0.529   0.621   0.652   0.621   0.529   0.385   0.204   0.002
  -0.201  -0.385  -0.532  -0.630  -0.670  -0.650  -0.579  -0.469  -0.337  -0.205
  -0.093  -0.018
   2.986   2.888   2.609   2.180   1.653   1.086   0.540   0.067  -0.293  -0.519
  -0.607  -0.572  -0.438  -0.240  -0.014   0.205   0.386   0.505   0.546   0.505
   0.386   0.205  -0.014  -0.240  -0.438  -0.572  -0.607  -0.519  -0.293   0.067
   0.540   1.086   1.653   2.180   2.609   2.888   2.986   2.888   2.609   2.180
   1.653   1.086   0.540   0.067  -0.293  -0.519  -0.607  -0.572  -0.438  -0.240
  -0.014   0.205   0.386   0.505   0.546   0.505   0.386   0.205  -0.014  -0.240
  -0.438  -0.572  -0.607  -0.519  -0.293   0.067   0.540   1.086   1.653   2.180
   2.609   2.888
   6.126   5.970   5.517   4.821   3.959   3.023   2.103   1.279   0.606   0.113
  -0.198  -0.343  -0.353  -0.266  -0.121   0.043   0.190   0.292   0.328   0.292
   0.190   0.043  -0.121  -0.266  -0.353  -0.343  -0.198   0.113   0.606   1.279
   2.103   3.023   3.959   4.821   5.517   5.970   6.126   5.970   5.517   4.821
   3.959   3.023   2.103   1.279   0.606   0.113  -0.198  -0.343  -0.353  -0.266
  -0.121   0.043   0.190   0.292   0.328   0.292   0.190   0.043  -0.121  -0.266
  -0.353  -0.343  -0.198   0.113   0.606   1.279   2.103   3.023   3.959   4.821
   5.517   5.970
   6.469   6.331   5.933   5.316   4.544   3.695   2.847   2.066   1.392   0.844
   0.422   0.120  -0.070  -0.153  -0.139  -0.055   0.059   0.154   0.191   0.154
   0.059  -0.055  -0.139  -0.153  -0.070   0.120   0.422   0.844   1.392   2.066
   2.847   3.695   4.544   5.316   5.933   6.331   6.469   6.331   5.933   5.316
   4.544   3.695   2.847   2.066   1.392   0.844   0.422   0.120  -0.070  -0.153
  -0.139  -0.055   0.059   0.154   0.191   0.154   0.059  -0.055  -0.139  -0.153
  -0.070   0.120   0.422   0.844   1.392   2.066   2.847   3.695   4.544   5.316
   5.933   6.331
   3.886   3.848   3.731   3.538   3.277   2.964   2.623   2.268   1.897   1.497
   1.061   0.612   0.207  -0.078  -0.188  -0.123   0.051   0.223   0.294   0.223
   0.051  -0.123  -0.188  -0.078   0.207   0.612   1.061   1.497   1.897   2.268
   2.623   2.964   3.277   3.538   3.731   3.848   3.886   3.848   3.731   3.538
   3.277   2.964   2.623   2.268   1.897   1.497   1.061   0.612   0.207  -0.078
  -0.188  -0.123   0.051   0.223   0.294   0.223   0.051  -0.123  -0.188  -0.078
   0.207   0.612   1.061   1.497   1.897   2.268   2.623   2.964   3.277   3.538
   3.731   3.848
   0.899   0.958   1.122   1.352   1.607   1.855   2.071   2.223   2.257   2.109
   1.736   1.172   0.539   0.018  -0.235  -0.179   0.090   0.377   0.498   0.377
   0.090  -0.179  -0.235   0.018   0.539   1.172   1.736   2.109   2.257   2.223
   2.071   1.855   1.607   1.352   1.122   0.958   0.899   0.958   1.122   1.352
   1.607   1.855   2.071   2.223   2.257   2.109   1.736   1.172   0.539   0.018
  -0.235  -0.179   0.090   0.377   0.498   0.377   0.090  -0.179  -0.235   0.018
   0.539   1.172   1.736   2.109   2.257   2.223   2.071   1.855   1.607   1.352
   1.122   0.958
  -0.450  -0.375  -0.164   0.152   0.539   0.973   1.441   1.915   2.315   2.512
   2.384   1.900   1.181   0.469   0.005  -0.097   0.087   0.346   0.463   0.346
   0.087  -0.097   0.005   0.469   1.181   1.900   2.384   2.512   2.315   1.915
   1.441   0.973   0.539   0.152  -0.164  -0.375  -0.450  -0.375  -0.164   0.152
   0.539   0.973   1.441   1.915   2.315   2.512   2.384   1.900   1.181   0.469
   0.005  -0.097   0.087   0.346   0.463   0.346   0.087  -0.097   0.005   0.469
   1.181   1.900   2.384   2.512   2.315   1.915   1.441   0.973   0.539   0.152
  -0.164  -0.375
  -0.328  -0.316  -0.271  -0.178  -0.022   0.222   0.589   1.105   1.727   2.307
   2.636   2.560   2.090   1.407   0.761   0.327   0.133   0.092   0.095   0.092
   0.133   0.327   0.761   1.407   2.090   2.560   2.636   2.307   1.727   1.105
   0.589   0.222  -0.022  -0.178  -0.271  -0.316  -0.328  -0.316  -0.271  -0.178
  -0.022   0.222   0.589   1.105   1.727   2.307   2.636   2.560   2.090   1.407
   0.761   0.327   0.133   0.092   0.095   0.092   0.133   0.327   0.761   1.407
   2.090   2.560   2.636   2.307   1.727   1.105   0.589   0.222  -0.022  -0.178
  -0.271  -0.316
   0.088   0.038  -0.079  -0.199  -0.276  -0.287  -0.188   0.105   0.652   1.394
   2.127   2.606   2.685   2.378   1.807   1.120   0.464  -0.016  -0.194  -0.016
   0.464   1.120   1.807   2.378   2.685   2.606   2.127   1.394   0.652   0.105
  -0.188  -0.287  -0.276  -0.199  -0.079   0.038   0.088   0.038  -0.079  -0.199
  -0.276  -0.287  -0.188   0.105   0.652   1.394   2.127   2.606   2.685   2.378
   1.807   1.120   0.464  -0.016  -0.194  -0.016   0.464   1.120   1.807   2.378
   2.685   2.606   2.127   1.394   0.652   0.105  -0.188  -0.287  -0.276  -0.199
  -0.079   0.038
   0.229   0.165   0.030  -0.079  -0.132  -0.186  -0.281  -0.333  -0.174   0.301
   1.024   1.791   2.385   2.656   2.520   1.976   1.173   0.440   0.142   0.440
   1.173   1.976   2.520   2.656   2.385   1.791   1.024   0.301  -0.174  -0.333
  -0.281  -0.186  -0.132  -0.079   0.030   0.165   0.229   0.165   0.030  -0.079
  -0.132  -0.186  -0.281  -0.333  -0.174   0.301   1.024   1.791   2.385   2.656
   2.520   1.976   1.173   0.440   0.142   0.440   1.173   1.976   2.520   2.656
   2.385   1.791   1.024   0.301  -0.174  -0.333  -0.281  -0.186  -0.132  -0.079
   0.030   0.165
   0.147   0.092  -0.001   0.003   0.131   0.251   0.202  -0.022  -0.244  -0.248
   0.057   0.620   1.319   1.995   2.433   2.431   1.989   1.417   1.156   1.417
   1.989   2.431   2.433   1.995   1.319   0.620   0.057  -0.248  -0.244  -0.022
   0.202   0.251   0.131   0.003  -0.001   0.092   0.147   0.092  -0.001   0.003
   0.131   0.251   0.202  -0.022  -0.244  -0.248   0.057   0.620   1.319   1.995
   2.433   2.431   1.989   1.417   1.156   1.417   1.989   2.431   2.433   1.995
   1.319   0.620   0.057  -0.248  -0.244  -0.022   0.202   0.251   0.131   0.003
  -0.001   0.092
  -0.021  -0.094  -0.227  -0.252  -0.076   0.208   0.401   0.371   0.166  -0.058
  -0.165  -0.077   0.273   0.900   1.658   2.250   2.463   2.382   2.301   2.382
   2.463   2.250   1.658   0.900   0.273  -0.077  -0.165  -0.058   0.166   0.371
   0.401   0.208  -0.076  -0.252  -0.227  -0.094  -0.021  -0.094  -0.227  -0.252
  -0.076   0.208   0.401   0.371   0.166  -0.058  -0.165  -0.077   0.273   0.900
   1.658   2.250   2.463   2.382   2.301   2.382   2.463   2.250   1.658   0.900
   0.273  -0.077  -0.165  -0.058   0.166   0.371   0.401   0.208  -0.076  -0.252
  -0.227  -0.094
   0.105   0.017  -0.202  -0.421  -0.476  -0.296   0.025   0.307   0.431   0.387
   0.213  -0.015  -0.128   0.099   0.747   1.621   2.385   2.833   2.968   2.833
   2.385   1.621   0.747   0.099  -0.128  -0.015   0.213   0.387   0.431   0.307
   0.025  -0.296  -0.476  -0.421  -0.202   0.017   0.105   0.017  -0.202  -0.421
  -0.476  -0.296   0.025   0.307   0.431   0.387   0.213  -0.015  -0.128   0.099
   0.747   1.621   2.385   2.833   2.968   2.833   2.385   1.621   0.747   0.099
  -0.128  -0.015   0.213   0.387   0.431   0.307   0.025  -0.296  -0.476  -0.421
  -0.202   0.017
   1.218   1.188   1.029   0.670   0.226  -0.063  -0.074   0.107   0.324   0.479
   0.502   0.332   0.034  -0.120   0.176   0.964   1.953   2.733   3.024   2.733
   1.953   0.964   0.176  -0.120   0.034   0.332   0.502   0.479   0.324   0.107
  -0.074  -0.063   0.226   0.670   1.029   1.188   1.218   1.188   1.029   0.670
   0.226  -0.063  -0.074   0.107   0.324   0.479   0.502   0.332   0.034  -0.120
   0.176   0.964   1.953   2.733   3.024   2.733   1.953   0.964   0.176  -0.120
   0.034   0.332   0.502   0.479   0.324   0.107  -0.074  -0.063   0.226   0.670
   1.029   1.188
   3.352   3.466   3.575   3.277   2.496   1.551   0.782   0.300   0.081   0.110
   0.304   0.429   0.294   0.025   0.022   0.567   1.521   2.413   2.773   2.413
   1.521   0.567   0.022   0.025   0.294   0.429   0.304   0.110   0.081   0.300
   0.782   1.551   2.496   3.277   3.575   3.466   3.352   3.466   3.575   3.277
   2.496   1.551   0.782   0.300   0.081   0.110   0.304   0.429   0.294   0.025
   0.022   0.567   1.521   2.413   2.773   2.413   1.521   0.567   0.022   0.025
   0.294   0.429   0.304   0.110   0.081   0.300   0.782   1.551   2.496   3.277
   3.575   3.466
   5.193   5.437   5.810   5.650   4.699   3.274   1.849   0.693  -0.061  -0.301
  -0.064   0.308   0.407   0.190   0.057   0.428   1.293   2.188   2.564   2.188
   1.293   0.428   0.057   0.190   0.407   0.308  -0.064  -0.301  -0.061   0.693
   1.849   3.274   4.699   5.650   5.810   5.437   5.193   5.437   5.810   5.650
   4.699   3.274   1.849   0.693  -0.061  -0.301  -0.064   0.308   0.407   0.190
   0.057   0.428   1.293   2.188   2.564   2.188   1.293   0.428   0.057   0.190
   0.407   0.308  -0.064  -0.301  -0.061   0.693   1.849   3.274   4.699   5.650
   5.810   5.437
TEXTURE_INDEX=   8.6557
ERR_CF 220         1080     432  188.91   31.12
ERR_CF 200         1076     248  180.15   25.80
ERR_CF 111         1028     252  394.40   21.75
