TEXEVAL                                                                         
Analysis started on 15-Feb-19 10:42:24                                          
 LMAX=16LFMAX=03 CUBIC ORTHO   
 220      5.00 5.00
 200      5.00 5.00
 111      5.00 5.00
 220       5.00   72    0 5.00   15    0
   5.048   5.048   5.048   5.048   5.048   5.048   5.048   5.048   5.048   5.048
   5.048   5.048   5.048   5.048   5.048   5.048   5.048   5.048   5.048   5.048
   5.048   5.048   5.048   5.048   5.048   5.048   5.048   5.048   5.048   5.048
   5.048   5.048   5.048   5.048   5.048   5.048   5.048   5.048   5.048   5.048
   5.048   5.048   5.048   5.048   5.048   5.048   5.048   5.048   5.048   5.048
   5.048   5.048   5.048   5.048   5.048   5.048   5.048   5.048   5.048   5.048
   5.048   5.048   5.048   5.048   5.048   5.048   5.048   5.048   5.048   5.048
   5.048   5.048
   1.626   1.601   1.598   1.656   1.809   1.874   2.071   2.263   2.418   2.752
   3.041   3.469   3.894   4.436   4.937   5.263   5.830   5.960   6.006   5.960
   5.830   5.263   4.937   4.436   3.894   3.469   3.041   2.752   2.418   2.263
   2.071   1.874   1.809   1.656   1.598   1.601   1.626   1.601   1.598   1.656
   1.809   1.874   2.071   2.263   2.418   2.752   3.041   3.469   3.894   4.436
   4.937   5.263   5.830   5.960   6.006   5.960   5.830   5.263   4.937   4.436
   3.894   3.469   3.041   2.752   2.418   2.263   2.071   1.874   1.809   1.656
   1.598   1.601
   0.350   0.341   0.343   0.340   0.386   0.450   0.557   0.612   0.757   0.983
   1.245   1.707   2.254   3.024   3.839   4.784   5.669   6.146   6.433   6.146
   5.669   4.784   3.839   3.024   2.254   1.707   1.245   0.983   0.757   0.612
   0.557   0.450   0.386   0.340   0.343   0.341   0.350   0.341   0.343   0.340
   0.386   0.450   0.557   0.612   0.757   0.983   1.245   1.707   2.254   3.024
   3.839   4.784   5.669   6.146   6.433   6.146   5.669   4.784   3.839   3.024
   2.254   1.707   1.245   0.983   0.757   0.612   0.557   0.450   0.386   0.340
   0.343   0.341
   0.166   0.242   0.199   0.179   0.226   0.198   0.249   0.209   0.275   0.386
   0.523   0.782   1.227   1.844   2.765   4.074   5.395   6.462   6.833   6.462
   5.395   4.074   2.765   1.844   1.227   0.782   0.523   0.386   0.275   0.209
   0.249   0.198   0.226   0.179   0.199   0.242   0.166   0.242   0.199   0.179
   0.226   0.198   0.249   0.209   0.275   0.386   0.523   0.782   1.227   1.844
   2.765   4.074   5.395   6.462   6.833   6.462   5.395   4.074   2.765   1.844
   1.227   0.782   0.523   0.386   0.275   0.209   0.249   0.198   0.226   0.179
   0.199   0.242
   0.130   0.149   0.143   0.115   0.143   0.128   0.158   0.103   0.208   0.229
   0.301   0.375   0.631   1.008   1.982   3.235   4.893   6.444   7.026   6.444
   4.893   3.235   1.982   1.008   0.631   0.375   0.301   0.229   0.208   0.103
   0.158   0.128   0.143   0.115   0.143   0.149   0.130   0.149   0.143   0.115
   0.143   0.128   0.158   0.103   0.208   0.229   0.301   0.375   0.631   1.008
   1.982   3.235   4.893   6.444   7.026   6.444   4.893   3.235   1.982   1.008
   0.631   0.375   0.301   0.229   0.208   0.103   0.158   0.128   0.143   0.115
   0.143   0.149
   0.091   0.079   0.098   0.098   0.085   0.096   0.100   0.119   0.168   0.214
   0.192   0.332   0.498   0.852   1.731   2.796   4.229   5.497   5.928   5.497
   4.229   2.796   1.731   0.852   0.498   0.332   0.192   0.214   0.168   0.119
   0.100   0.096   0.085   0.098   0.098   0.079   0.091   0.079   0.098   0.098
   0.085   0.096   0.100   0.119   0.168   0.214   0.192   0.332   0.498   0.852
   1.731   2.796   4.229   5.497   5.928   5.497   4.229   2.796   1.731   0.852
   0.498   0.332   0.192   0.214   0.168   0.119   0.100   0.096   0.085   0.098
   0.098   0.079
   0.055   0.036   0.082   0.144   0.140   0.124   0.143   0.155   0.166   0.227
   0.272   0.407   0.609   1.141   2.001   3.115   3.604   3.547   3.385   3.547
   3.604   3.115   2.001   1.141   0.609   0.407   0.272   0.227   0.166   0.155
   0.143   0.124   0.140   0.144   0.082   0.036   0.055   0.036   0.082   0.144
   0.140   0.124   0.143   0.155   0.166   0.227   0.272   0.407   0.609   1.141
   2.001   3.115   3.604   3.547   3.385   3.547   3.604   3.115   2.001   1.141
   0.609   0.407   0.272   0.227   0.166   0.155   0.143   0.124   0.140   0.144
   0.082   0.036
   0.079   0.055   0.051   0.116   0.133   0.111   0.181   0.152   0.234   0.193
   0.355   0.449   0.723   1.502   2.661   3.332   2.669   1.682   1.435   1.682
   2.669   3.332   2.661   1.502   0.723   0.449   0.355   0.193   0.234   0.152
   0.181   0.111   0.133   0.116   0.051   0.055   0.079   0.055   0.051   0.116
   0.133   0.111   0.181   0.152   0.234   0.193   0.355   0.449   0.723   1.502
   2.661   3.332   2.669   1.682   1.435   1.682   2.669   3.332   2.661   1.502
   0.723   0.449   0.355   0.193   0.234   0.152   0.181   0.111   0.133   0.116
   0.051   0.055
   0.142   0.126   0.069   0.069   0.071   0.074   0.093   0.153   0.146   0.126
   0.224   0.364   0.757   1.517   2.906   2.854   1.479   0.752   0.545   0.752
   1.479   2.854   2.906   1.517   0.757   0.364   0.224   0.126   0.146   0.153
   0.093   0.074   0.071   0.069   0.069   0.126   0.142   0.126   0.069   0.069
   0.071   0.074   0.093   0.153   0.146   0.126   0.224   0.364   0.757   1.517
   2.906   2.854   1.479   0.752   0.545   0.752   1.479   2.854   2.906   1.517
   0.757   0.364   0.224   0.126   0.146   0.153   0.093   0.074   0.071   0.069
   0.069   0.126
   0.407   0.350   0.186   0.163   0.065   0.111   0.071   0.163   0.102   0.152
   0.143   0.365   0.641   1.316   2.599   2.101   0.797   0.358   0.147   0.358
   0.797   2.101   2.599   1.316   0.641   0.365   0.143   0.152   0.102   0.163
   0.071   0.111   0.065   0.163   0.186   0.350   0.407   0.350   0.186   0.163
   0.065   0.111   0.071   0.163   0.102   0.152   0.143   0.365   0.641   1.316
   2.599   2.101   0.797   0.358   0.147   0.358   0.797   2.101   2.599   1.316
   0.641   0.365   0.143   0.152   0.102   0.163   0.071   0.111   0.065   0.163
   0.186   0.350
   2.452   2.179   1.140   0.605   0.271   0.281   0.112   0.143   0.187   0.233
   0.200   0.282   0.492   1.189   2.103   1.313   0.523   0.254   0.178   0.254
   0.523   1.313   2.103   1.189   0.492   0.282   0.200   0.233   0.187   0.143
   0.112   0.281   0.271   0.605   1.140   2.179   2.452   2.179   1.140   0.605
   0.271   0.281   0.112   0.143   0.187   0.233   0.200   0.282   0.492   1.189
   2.103   1.313   0.523   0.254   0.178   0.254   0.523   1.313   2.103   1.189
   0.492   0.282   0.200   0.233   0.187   0.143   0.112   0.281   0.271   0.605
   1.140   2.179
   7.890   7.237   3.789   1.754   0.814   0.542   0.209   0.166   0.259   0.278
   0.188   0.061   0.494   0.864   1.633   1.004   0.318   0.190   0.098   0.190
   0.318   1.004   1.633   0.864   0.494   0.061   0.188   0.278   0.259   0.166
   0.209   0.542   0.814   1.754   3.789   7.237   7.890   7.237   3.789   1.754
   0.814   0.542   0.209   0.166   0.259   0.278   0.188   0.061   0.494   0.864
   1.633   1.004   0.318   0.190   0.098   0.190   0.318   1.004   1.633   0.864
   0.494   0.061   0.188   0.278   0.259   0.166   0.209   0.542   0.814   1.754
   3.789   7.237
   8.461   7.771   4.526   2.879   1.914   1.267   0.822   0.483   0.327   0.467
   0.352   0.148   0.572   0.626   1.428   1.235   0.366   0.195   0.028   0.195
   0.366   1.235   1.428   0.626   0.572   0.148   0.352   0.467   0.327   0.483
   0.822   1.267   1.914   2.879   4.526   7.771   8.461   7.771   4.526   2.879
   1.914   1.267   0.822   0.483   0.327   0.467   0.352   0.148   0.572   0.626
   1.428   1.235   0.366   0.195   0.028   0.195   0.366   1.235   1.428   0.626
   0.572   0.148   0.352   0.467   0.327   0.483   0.822   1.267   1.914   2.879
   4.526   7.771
   3.063   2.969   2.269   2.279   1.979   1.764   1.448   1.309   0.819   0.809
   0.894   0.394   0.595   0.574   1.411   1.636   0.745   0.253   0.408   0.253
   0.745   1.636   1.411   0.574   0.595   0.394   0.894   0.809   0.819   1.309
   1.448   1.764   1.979   2.279   2.269   2.969   3.063   2.969   2.269   2.279
   1.979   1.764   1.448   1.309   0.819   0.809   0.894   0.394   0.595   0.574
   1.411   1.636   0.745   0.253   0.408   0.253   0.745   1.636   1.411   0.574
   0.595   0.394   0.894   0.809   0.819   1.309   1.448   1.764   1.979   2.279
   2.269   2.969
   0.522   0.807   0.694   1.122   0.726   1.023   0.988   1.399   1.263   1.330
   1.254   0.683   0.539   0.335   1.055   1.621   1.140   0.504   0.877   0.504
   1.140   1.621   1.055   0.335   0.539   0.683   1.254   1.330   1.263   1.399
   0.988   1.023   0.726   1.122   0.694   0.807   0.522   0.807   0.694   1.122
   0.726   1.023   0.988   1.399   1.263   1.330   1.254   0.683   0.539   0.335
   1.055   1.621   1.140   0.504   0.877   0.504   1.140   1.621   1.055   0.335
   0.539   0.683   1.254   1.330   1.263   1.399   0.988   1.023   0.726   1.122
   0.694   0.807
 200       5.00   72    0 5.00   15    0
   0.176   0.176   0.176   0.176   0.176   0.176   0.176   0.176   0.176   0.176
   0.176   0.176   0.176   0.176   0.176   0.176   0.176   0.176   0.176   0.176
   0.176   0.176   0.176   0.176   0.176   0.176   0.176   0.176   0.176   0.176
   0.176   0.176   0.176   0.176   0.176   0.176   0.176   0.176   0.176   0.176
   0.176   0.176   0.176   0.176   0.176   0.176   0.176   0.176   0.176   0.176
   0.176   0.176   0.176   0.176   0.176   0.176   0.176   0.176   0.176   0.176
   0.176   0.176   0.176   0.176   0.176   0.176   0.176   0.176   0.176   0.176
   0.176   0.176
   0.188   0.212   0.204   0.189   0.173   0.193   0.204   0.200   0.193   0.191
   0.169   0.183   0.191   0.191   0.181   0.181   0.176   0.195   0.167   0.195
   0.176   0.181   0.181   0.191   0.191   0.183   0.169   0.191   0.193   0.200
   0.204   0.193   0.173   0.189   0.204   0.212   0.188   0.212   0.204   0.189
   0.173   0.193   0.204   0.200   0.193   0.191   0.169   0.183   0.191   0.191
   0.181   0.181   0.176   0.195   0.167   0.195   0.176   0.181   0.181   0.191
   0.191   0.183   0.169   0.191   0.193   0.200   0.204   0.193   0.173   0.189
   0.204   0.212
   0.252   0.266   0.243   0.204   0.206   0.231   0.212   0.205   0.204   0.182
   0.188   0.165   0.166   0.185   0.169   0.164   0.140   0.192   0.162   0.192
   0.140   0.164   0.169   0.185   0.166   0.165   0.188   0.182   0.204   0.205
   0.212   0.231   0.206   0.204   0.243   0.266   0.252   0.266   0.243   0.204
   0.206   0.231   0.212   0.205   0.204   0.182   0.188   0.165   0.166   0.185
   0.169   0.164   0.140   0.192   0.162   0.192   0.140   0.164   0.169   0.185
   0.166   0.165   0.188   0.182   0.204   0.205   0.212   0.231   0.206   0.204
   0.243   0.266
   0.462   0.456   0.426   0.368   0.355   0.346   0.284   0.262   0.267   0.217
   0.195   0.159   0.174   0.171   0.145   0.157   0.143   0.176   0.189   0.176
   0.143   0.157   0.145   0.171   0.174   0.159   0.195   0.217   0.267   0.262
   0.284   0.346   0.355   0.368   0.426   0.456   0.462   0.456   0.426   0.368
   0.355   0.346   0.284   0.262   0.267   0.217   0.195   0.159   0.174   0.171
   0.145   0.157   0.143   0.176   0.189   0.176   0.143   0.157   0.145   0.171
   0.174   0.159   0.195   0.217   0.267   0.262   0.284   0.346   0.355   0.368
   0.426   0.456
   1.333   1.202   1.183   1.078   0.997   0.836   0.656   0.520   0.463   0.350
   0.237   0.188   0.190   0.141   0.136   0.144   0.150   0.126   0.131   0.126
   0.150   0.144   0.136   0.141   0.190   0.188   0.237   0.350   0.463   0.520
   0.656   0.836   0.997   1.078   1.183   1.202   1.333   1.202   1.183   1.078
   0.997   0.836   0.656   0.520   0.463   0.350   0.237   0.188   0.190   0.141
   0.136   0.144   0.150   0.126   0.131   0.126   0.150   0.144   0.136   0.141
   0.190   0.188   0.237   0.350   0.463   0.520   0.656   0.836   0.997   1.078
   1.183   1.202
   3.149   3.040   3.167   2.983   2.890   2.584   2.250   1.861   1.340   0.927
   0.478   0.298   0.202   0.172   0.163   0.119   0.151   0.125   0.100   0.125
   0.151   0.119   0.163   0.172   0.202   0.298   0.478   0.927   1.340   1.861
   2.250   2.584   2.890   2.983   3.167   3.040   3.149   3.040   3.167   2.983
   2.890   2.584   2.250   1.861   1.340   0.927   0.478   0.298   0.202   0.172
   0.163   0.119   0.151   0.125   0.100   0.125   0.151   0.119   0.163   0.172
   0.202   0.298   0.478   0.927   1.340   1.861   2.250   2.584   2.890   2.983
   3.167   3.040
   3.322   3.427   3.617   3.719   3.751   4.175   4.142   4.207   3.517   2.488
   1.493   0.761   0.431   0.335   0.273   0.194   0.201   0.202   0.220   0.202
   0.201   0.194   0.273   0.335   0.431   0.761   1.493   2.488   3.517   4.207
   4.142   4.175   3.751   3.719   3.617   3.427   3.322   3.427   3.617   3.719
   3.751   4.175   4.142   4.207   3.517   2.488   1.493   0.761   0.431   0.335
   0.273   0.194   0.201   0.202   0.220   0.202   0.201   0.194   0.273   0.335
   0.431   0.761   1.493   2.488   3.517   4.207   4.142   4.175   3.751   3.719
   3.617   3.427
   1.449   1.490   1.585   1.875   1.957   2.697   3.139   4.056   4.342   3.977
   3.118   1.908   1.015   0.587   0.431   0.359   0.297   0.329   0.288   0.329
   0.297   0.359   0.431   0.587   1.015   1.908   3.118   3.977   4.342   4.056
   3.139   2.697   1.957   1.875   1.585   1.490   1.449   1.490   1.585   1.875
   1.957   2.697   3.139   4.056   4.342   3.977   3.118   1.908   1.015   0.587
   0.431   0.359   0.297   0.329   0.288   0.329   0.297   0.359   0.431   0.587
   1.015   1.908   3.118   3.977   4.342   4.056   3.139   2.697   1.957   1.875
   1.585   1.490
   0.312   0.245   0.306   0.379   0.435   0.588   0.932   1.580   2.354   3.178
   3.720   3.228   1.972   0.939   0.584   0.418   0.430   0.438   0.329   0.438
   0.430   0.418   0.584   0.939   1.972   3.228   3.720   3.178   2.354   1.580
   0.932   0.588   0.435   0.379   0.306   0.245   0.312   0.245   0.306   0.379
   0.435   0.588   0.932   1.580   2.354   3.178   3.720   3.228   1.972   0.939
   0.584   0.418   0.430   0.438   0.329   0.438   0.430   0.418   0.584   0.939
   1.972   3.228   3.720   3.178   2.354   1.580   0.932   0.588   0.435   0.379
   0.306   0.245
   0.104   0.101   0.138   0.139   0.187   0.191   0.302   0.332   0.669   1.410
   2.767   3.542   2.897   1.461   0.826   0.423   0.463   0.513   0.334   0.513
   0.463   0.423   0.826   1.461   2.897   3.542   2.767   1.410   0.669   0.332
   0.302   0.191   0.187   0.139   0.138   0.101   0.104   0.101   0.138   0.139
   0.187   0.191   0.302   0.332   0.669   1.410   2.767   3.542   2.897   1.461
   0.826   0.423   0.463   0.513   0.334   0.513   0.463   0.423   0.826   1.461
   2.897   3.542   2.767   1.410   0.669   0.332   0.302   0.191   0.187   0.139
   0.138   0.101
   0.042   0.080   0.138   0.110   0.155   0.142   0.235   0.191   0.244   0.632
   1.652   3.372   3.753   2.018   1.015   0.456   0.393   0.431   0.321   0.431
   0.393   0.456   1.015   2.018   3.753   3.372   1.652   0.632   0.244   0.191
   0.235   0.142   0.155   0.110   0.138   0.080   0.042   0.080   0.138   0.110
   0.155   0.142   0.235   0.191   0.244   0.632   1.652   3.372   3.753   2.018
   1.015   0.456   0.393   0.431   0.321   0.431   0.393   0.456   1.015   2.018
   3.753   3.372   1.652   0.632   0.244   0.191   0.235   0.142   0.155   0.110
   0.138   0.080
   0.113   0.073   0.082   0.105   0.138   0.153   0.115   0.170   0.155   0.464
   1.495   3.734   4.119   2.004   0.826   0.373   0.223   0.145   0.283   0.145
   0.223   0.373   0.826   2.004   4.119   3.734   1.495   0.464   0.155   0.170
   0.115   0.153   0.138   0.105   0.082   0.073   0.113   0.073   0.082   0.105
   0.138   0.153   0.115   0.170   0.155   0.464   1.495   3.734   4.119   2.004
   0.826   0.373   0.223   0.145   0.283   0.145   0.223   0.373   0.826   2.004
   4.119   3.734   1.495   0.464   0.155   0.170   0.115   0.153   0.138   0.105
   0.082   0.073
   0.132   0.230   0.172   0.162   0.192   0.189   0.238   0.239   0.527   0.998
   2.221   3.845   3.053   1.378   0.672   0.371   0.207   0.158   0.192   0.158
   0.207   0.371   0.672   1.378   3.053   3.845   2.221   0.998   0.527   0.239
   0.238   0.189   0.192   0.162   0.172   0.230   0.132   0.230   0.172   0.162
   0.192   0.189   0.238   0.239   0.527   0.998   2.221   3.845   3.053   1.378
   0.672   0.371   0.207   0.158   0.192   0.158   0.207   0.371   0.672   1.378
   3.053   3.845   2.221   0.998   0.527   0.239   0.238   0.189   0.192   0.162
   0.172   0.230
   0.123   0.341   0.247   0.220   0.198   0.287   0.384   0.587   1.147   2.297
   3.012   2.915   1.578   0.751   0.557   0.297   0.353   0.222   0.249   0.222
   0.353   0.297   0.557   0.751   1.578   2.915   3.012   2.297   1.147   0.587
   0.384   0.287   0.198   0.220   0.247   0.341   0.123   0.341   0.247   0.220
   0.198   0.287   0.384   0.587   1.147   2.297   3.012   2.915   1.578   0.751
   0.557   0.297   0.353   0.222   0.249   0.222   0.353   0.297   0.557   0.751
   1.578   2.915   3.012   2.297   1.147   0.587   0.384   0.287   0.198   0.220
   0.247   0.341
   0.195   0.224   0.203   0.201   0.197   0.366   0.444   1.054   2.052   3.098
   2.531   1.428   0.608   0.288   0.343   0.285   0.270   0.102   0.182   0.102
   0.270   0.285   0.343   0.288   0.608   1.428   2.531   3.098   2.052   1.054
   0.444   0.366   0.197   0.201   0.203   0.224   0.195   0.224   0.203   0.201
   0.197   0.366   0.444   1.054   2.052   3.098   2.531   1.428   0.608   0.288
   0.343   0.285   0.270   0.102   0.182   0.102   0.270   0.285   0.343   0.288
   0.608   1.428   2.531   3.098   2.052   1.054   0.444   0.366   0.197   0.201
   0.203   0.224
 111       5.00   72    0 5.00   15    0
   0.087   0.087   0.087   0.087   0.087   0.087   0.087   0.087   0.087   0.087
   0.087   0.087   0.087   0.087   0.087   0.087   0.087   0.087   0.087   0.087
   0.087   0.087   0.087   0.087   0.087   0.087   0.087   0.087   0.087   0.087
   0.087   0.087   0.087   0.087   0.087   0.087   0.087   0.087   0.087   0.087
   0.087   0.087   0.087   0.087   0.087   0.087   0.087   0.087   0.087   0.087
   0.087   0.087   0.087   0.087   0.087   0.087   0.087   0.087   0.087   0.087
   0.087   0.087   0.087   0.087   0.087   0.087   0.087   0.087   0.087   0.087
   0.087   0.087
   0.125   0.113   0.109   0.114   0.107   0.094   0.094   0.089   0.089   0.084
   0.091   0.087   0.076   0.084   0.083   0.078   0.081   0.081   0.091   0.081
   0.081   0.078   0.083   0.084   0.076   0.087   0.091   0.084   0.089   0.089
   0.094   0.094   0.107   0.114   0.109   0.113   0.125   0.113   0.109   0.114
   0.107   0.094   0.094   0.089   0.089   0.084   0.091   0.087   0.076   0.084
   0.083   0.078   0.081   0.081   0.091   0.081   0.081   0.078   0.083   0.084
   0.076   0.087   0.091   0.084   0.089   0.089   0.094   0.094   0.107   0.114
   0.109   0.113
   0.317   0.323   0.275   0.267   0.190   0.174   0.138   0.125   0.115   0.086
   0.088   0.087   0.071   0.074   0.071   0.079   0.071   0.068   0.082   0.068
   0.071   0.079   0.071   0.074   0.071   0.087   0.088   0.086   0.115   0.125
   0.138   0.174   0.190   0.267   0.275   0.323   0.317   0.323   0.275   0.267
   0.190   0.174   0.138   0.125   0.115   0.086   0.088   0.087   0.071   0.074
   0.071   0.079   0.071   0.068   0.082   0.068   0.071   0.079   0.071   0.074
   0.071   0.087   0.088   0.086   0.115   0.125   0.138   0.174   0.190   0.267
   0.275   0.323
   2.014   1.878   1.573   1.177   0.752   0.513   0.302   0.202   0.135   0.068
   0.066   0.056   0.038   0.038   0.033   0.048   0.034   0.033   0.048   0.033
   0.034   0.048   0.033   0.038   0.038   0.056   0.066   0.068   0.135   0.202
   0.302   0.513   0.752   1.177   1.573   1.878   2.014   1.878   1.573   1.177
   0.752   0.513   0.302   0.202   0.135   0.068   0.066   0.056   0.038   0.038
   0.033   0.048   0.034   0.033   0.048   0.033   0.034   0.048   0.033   0.038
   0.038   0.056   0.066   0.068   0.135   0.202   0.302   0.513   0.752   1.177
   1.573   1.878
   6.911   6.367   5.432   4.224   2.910   1.885   1.032   0.558   0.271   0.113
   0.057   0.021   0.011   0.004   0.002   0.005   0.004   0.003   0.008   0.003
   0.004   0.005   0.002   0.004   0.011   0.021   0.057   0.113   0.271   0.558
   1.032   1.885   2.910   4.224   5.432   6.367   6.911   6.367   5.432   4.224
   2.910   1.885   1.032   0.558   0.271   0.113   0.057   0.021   0.011   0.004
   0.002   0.005   0.004   0.003   0.008   0.003   0.004   0.005   0.002   0.004
   0.011   0.021   0.057   0.113   0.271   0.558   1.032   1.885   2.910   4.224
   5.432   6.367
   7.722   7.436   6.631   5.817   4.894   3.906   2.757   1.663   0.890   0.470
   0.235   0.126   0.087   0.040   0.031   0.017   0.012   0.015   0.020   0.015
   0.012   0.017   0.031   0.040   0.087   0.126   0.235   0.470   0.890   1.663
   2.757   3.906   4.894   5.817   6.631   7.436   7.722   7.436   6.631   5.817
   4.894   3.906   2.757   1.663   0.890   0.470   0.235   0.126   0.087   0.040
   0.031   0.017   0.012   0.015   0.020   0.015   0.012   0.017   0.031   0.040
   0.087   0.126   0.235   0.470   0.890   1.663   2.757   3.906   4.894   5.817
   6.631   7.436
   3.439   3.506   3.444   3.502   3.696   3.786   3.551   2.917   2.067   1.211
   0.609   0.359   0.244   0.170   0.153   0.094   0.081   0.085   0.069   0.085
   0.081   0.094   0.153   0.170   0.244   0.359   0.609   1.211   2.067   2.917
   3.551   3.786   3.696   3.502   3.444   3.506   3.439   3.506   3.444   3.502
   3.696   3.786   3.551   2.917   2.067   1.211   0.609   0.359   0.244   0.170
   0.153   0.094   0.081   0.085   0.069   0.085   0.081   0.094   0.153   0.170
   0.244   0.359   0.609   1.211   2.067   2.917   3.551   3.786   3.696   3.502
   3.444   3.506
   1.143   1.113   1.184   1.276   1.510   1.912   2.389   2.776   2.778   2.222
   1.254   0.681   0.405   0.317   0.228   0.186   0.157   0.154   0.120   0.154
   0.157   0.186   0.228   0.317   0.405   0.681   1.254   2.222   2.778   2.776
   2.389   1.912   1.510   1.276   1.184   1.113   1.143   1.113   1.184   1.276
   1.510   1.912   2.389   2.776   2.778   2.222   1.254   0.681   0.405   0.317
   0.228   0.186   0.157   0.154   0.120   0.154   0.157   0.186   0.228   0.317
   0.405   0.681   1.254   2.222   2.778   2.776   2.389   1.912   1.510   1.276
   1.184   1.113
   0.401   0.424   0.442   0.497   0.565   0.759   1.088   1.600   2.305   2.749
   2.326   1.390   0.751   0.440   0.282   0.234   0.192   0.193   0.215   0.193
   0.192   0.234   0.282   0.440   0.751   1.390   2.326   2.749   2.305   1.600
   1.088   0.759   0.565   0.497   0.442   0.424   0.401   0.424   0.442   0.497
   0.565   0.759   1.088   1.600   2.305   2.749   2.326   1.390   0.751   0.440
   0.282   0.234   0.192   0.193   0.215   0.193   0.192   0.234   0.282   0.440
   0.751   1.390   2.326   2.749   2.305   1.600   1.088   0.759   0.565   0.497
   0.442   0.424
   0.195   0.242   0.231   0.271   0.207   0.302   0.413   0.713   1.330   2.180
   2.777   2.390   1.572   0.757   0.466   0.331   0.242   0.258   0.275   0.258
   0.242   0.331   0.466   0.757   1.572   2.390   2.777   2.180   1.330   0.713
   0.413   0.302   0.207   0.271   0.231   0.242   0.195   0.242   0.231   0.271
   0.207   0.302   0.413   0.713   1.330   2.180   2.777   2.390   1.572   0.757
   0.466   0.331   0.242   0.258   0.275   0.258   0.242   0.331   0.466   0.757
   1.572   2.390   2.777   2.180   1.330   0.713   0.413   0.302   0.207   0.271
   0.231   0.242
   0.157   0.213   0.186   0.165   0.089   0.116   0.157   0.287   0.558   1.098
   1.805   2.391   2.281   1.608   0.908   0.611   0.351   0.368   0.331   0.368
   0.351   0.611   0.908   1.608   2.281   2.391   1.805   1.098   0.558   0.287
   0.157   0.116   0.089   0.165   0.186   0.213   0.157   0.213   0.186   0.165
   0.089   0.116   0.157   0.287   0.558   1.098   1.805   2.391   2.281   1.608
   0.908   0.611   0.351   0.368   0.331   0.368   0.351   0.611   0.908   1.608
   2.281   2.391   1.805   1.098   0.558   0.287   0.157   0.116   0.089   0.165
   0.186   0.213
   0.225   0.268   0.175   0.095   0.073   0.093   0.094   0.140   0.249   0.385
   0.696   1.228   1.831   2.059   1.585   1.255   0.697   0.521   0.500   0.521
   0.697   1.255   1.585   2.059   1.831   1.228   0.696   0.385   0.249   0.140
   0.094   0.093   0.073   0.095   0.175   0.268   0.225   0.268   0.175   0.095
   0.073   0.093   0.094   0.140   0.249   0.385   0.696   1.228   1.831   2.059
   1.585   1.255   0.697   0.521   0.500   0.521   0.697   1.255   1.585   2.059
   1.831   1.228   0.696   0.385   0.249   0.140   0.094   0.093   0.073   0.095
   0.175   0.268
   0.276   0.265   0.170   0.097   0.094   0.130   0.130   0.138   0.190   0.211
   0.289   0.416   0.813   1.313   1.696   1.797   1.427   0.907   0.704   0.907
   1.427   1.797   1.696   1.313   0.813   0.416   0.289   0.211   0.190   0.138
   0.130   0.130   0.094   0.097   0.170   0.265   0.276   0.265   0.170   0.097
   0.094   0.130   0.130   0.138   0.190   0.211   0.289   0.416   0.813   1.313
   1.696   1.797   1.427   0.907   0.704   0.907   1.427   1.797   1.696   1.313
   0.813   0.416   0.289   0.211   0.190   0.138   0.130   0.130   0.094   0.097
   0.170   0.265
   0.219   0.275   0.236   0.161   0.113   0.142   0.148   0.204   0.223   0.219
   0.130   0.286   0.282   0.544   1.056   1.635   1.957   1.529   1.075   1.529
   1.957   1.635   1.056   0.544   0.282   0.286   0.130   0.219   0.223   0.204
   0.148   0.142   0.113   0.161   0.236   0.275   0.219   0.275   0.236   0.161
   0.113   0.142   0.148   0.204   0.223   0.219   0.130   0.286   0.282   0.544
   1.056   1.635   1.957   1.529   1.075   1.529   1.957   1.635   1.056   0.544
   0.282   0.286   0.130   0.219   0.223   0.204   0.148   0.142   0.113   0.161
   0.236   0.275
   0.472   0.409   0.296   0.235   0.213   0.168   0.127   0.233   0.326   0.229
   0.188   0.240   0.223   0.418   0.459   1.020   1.653   2.117   1.709   2.117
   1.653   1.020   0.459   0.418   0.223   0.240   0.188   0.229   0.326   0.233
   0.127   0.168   0.213   0.235   0.296   0.409   0.472   0.409   0.296   0.235
   0.213   0.168   0.127   0.233   0.326   0.229   0.188   0.240   0.223   0.418
   0.459   1.020   1.653   2.117   1.709   2.117   1.653   1.020   0.459   0.418
   0.223   0.240   0.188   0.229   0.326   0.233   0.127   0.168   0.213   0.235
   0.296   0.409
  4  1     -6.3973164E-01
  4  2      1.0217038E-02
  4  3     -2.1579618E+00
  6  1      2.5565500E+00
  6  2     -4.4857923E+00
  6  3      2.1929819E+00
  6  4      5.5825870E-01
  8  1     -3.8877559E-01
  8  2      3.5607354E-01
  8  3     -3.6950015E-01
  8  4      2.4370292E+00
  8  5      1.0140405E+00
 10  1     -1.2269777E+00
 10  2      1.1512502E+00
 10  3      8.9532335E-01
 10  4      3.4014042E-01
 10  5      1.6491132E-02
 10  6     -1.2829314E+00
 12  1      2.9120757E-01  2.1498955E+00
 12  2     -1.7086829E-01 -3.3247873E+00
 12  3     -1.0522478E-01  3.8129208E+00
 12  4     -4.2467985E-01 -2.2760419E+00
 12  5     -1.3374854E-01 -2.7081010E-01
 12  6     -2.2977384E+00  9.6630488E-01
 12  7     -4.3787237E-02 -2.4167164E-01
 14  1     -3.9445320E-01
 14  2      4.9005497E-01
 14  3     -7.2154841E-01
 14  4      3.5170529E-01
 14  5     -1.9735837E+00
 14  6      1.2139971E+00
 14  7     -2.0889576E-01
 14  8      6.9459620E-01
 16  1     -9.8935659E-02 -8.6828626E-01
 16  2     -2.1935627E-01  1.3284013E+00
 16  3      5.0586158E-01 -4.6482713E-01
 16  4     -2.6438014E-01 -8.6211207E-01
 16  5      6.0662369E-02  6.2788667E-01
 16  6      1.1077938E-01  8.2824192E-02
 16  7      1.3090596E+00  1.1662851E-01
 16  8      1.0466081E+00 -3.6195537E-01
 16  9     -8.5292846E-02  2.5456497E-01
 220       5.00   72    0 5.00   18    0
   3.034   3.035   3.040   3.047   3.057   3.069   3.084   3.100   3.117   3.135
   3.153   3.170   3.186   3.201   3.214   3.225   3.232   3.237   3.239   3.237
   3.232   3.225   3.214   3.201   3.186   3.170   3.153   3.135   3.117   3.100
   3.084   3.069   3.057   3.047   3.040   3.035   3.034   3.035   3.040   3.047
   3.057   3.069   3.084   3.100   3.117   3.135   3.153   3.170   3.186   3.201
   3.214   3.225   3.232   3.237   3.239   3.237   3.232   3.225   3.214   3.201
   3.186   3.170   3.153   3.135   3.117   3.100   3.084   3.069   3.057   3.047
   3.040   3.035
   1.838   1.848   1.877   1.925   1.991   2.075   2.175   2.290   2.417   2.553
   2.695   2.837   2.975   3.103   3.217   3.312   3.383   3.426   3.441   3.426
   3.383   3.312   3.217   3.103   2.975   2.837   2.695   2.553   2.417   2.290
   2.175   2.075   1.991   1.925   1.877   1.848   1.838   1.848   1.877   1.925
   1.991   2.075   2.175   2.290   2.417   2.553   2.695   2.837   2.975   3.103
   3.217   3.312   3.383   3.426   3.441   3.426   3.383   3.312   3.217   3.103
   2.975   2.837   2.695   2.553   2.417   2.290   2.175   2.075   1.991   1.925
   1.877   1.848
   0.372   0.383   0.417   0.475   0.562   0.680   0.833   1.024   1.255   1.522
   1.821   2.142   2.473   2.797   3.096   3.352   3.549   3.673   3.715   3.673
   3.549   3.352   3.096   2.797   2.473   2.142   1.821   1.522   1.255   1.024
   0.833   0.680   0.562   0.475   0.417   0.383   0.372   0.383   0.417   0.475
   0.562   0.680   0.833   1.024   1.255   1.522   1.821   2.142   2.473   2.797
   3.096   3.352   3.549   3.673   3.715   3.673   3.549   3.352   3.096   2.797
   2.473   2.142   1.821   1.522   1.255   1.024   0.833   0.680   0.562   0.475
   0.417   0.383
  -0.350  -0.351  -0.355  -0.355  -0.343  -0.306  -0.230  -0.097   0.108   0.395
   0.766   1.212   1.714   2.241   2.753   3.209   3.568   3.798   3.877   3.798
   3.568   3.209   2.753   2.241   1.714   1.212   0.766   0.395   0.108  -0.097
  -0.230  -0.306  -0.343  -0.355  -0.355  -0.351  -0.350  -0.351  -0.355  -0.355
  -0.343  -0.306  -0.230  -0.097   0.108   0.395   0.766   1.212   1.714   2.241
   2.753   3.209   3.568   3.798   3.877   3.798   3.568   3.209   2.753   2.241
   1.714   1.212   0.766   0.395   0.108  -0.097  -0.230  -0.306  -0.343  -0.355
  -0.355  -0.351
  -0.129  -0.142  -0.182  -0.247  -0.335  -0.432  -0.518  -0.559  -0.518  -0.359
  -0.058   0.387   0.955   1.600   2.260   2.867   3.355   3.671   3.780   3.671
   3.355   2.867   2.260   1.600   0.955   0.387  -0.058  -0.359  -0.518  -0.559
  -0.518  -0.432  -0.335  -0.247  -0.182  -0.142  -0.129  -0.142  -0.182  -0.247
  -0.335  -0.432  -0.518  -0.559  -0.518  -0.359  -0.058   0.387   0.955   1.600
   2.260   2.867   3.355   3.671   3.780   3.671   3.355   2.867   2.260   1.600
   0.955   0.387  -0.058  -0.359  -0.518  -0.559  -0.518  -0.432  -0.335  -0.247
  -0.182  -0.142
   0.303   0.302   0.293   0.260   0.182   0.048  -0.134  -0.328  -0.472  -0.498
  -0.349  -0.005   0.514   1.149   1.817   2.434   2.926   3.242   3.350   3.242
   2.926   2.434   1.817   1.149   0.514  -0.005  -0.349  -0.498  -0.472  -0.328
  -0.134   0.048   0.182   0.260   0.293   0.302   0.303   0.302   0.293   0.260
   0.182   0.048  -0.134  -0.328  -0.472  -0.498  -0.349  -0.005   0.514   1.149
   1.817   2.434   2.926   3.242   3.350   3.242   2.926   2.434   1.817   1.149
   0.514  -0.005  -0.349  -0.498  -0.472  -0.328  -0.134   0.048   0.182   0.260
   0.293   0.302
   0.118   0.150   0.239   0.353   0.442   0.450   0.346   0.145  -0.077  -0.215
  -0.175   0.080   0.519   1.055   1.588   2.037   2.359   2.546   2.607   2.546
   2.359   2.037   1.588   1.055   0.519   0.080  -0.175  -0.215  -0.077   0.145
   0.346   0.450   0.442   0.353   0.239   0.150   0.118   0.150   0.239   0.353
   0.442   0.450   0.346   0.145  -0.077  -0.215  -0.175   0.080   0.519   1.055
   1.588   2.037   2.359   2.546   2.607   2.546   2.359   2.037   1.588   1.055
   0.519   0.080  -0.175  -0.215  -0.077   0.145   0.346   0.450   0.442   0.353
   0.239   0.150
  -0.583  -0.540  -0.404  -0.172   0.113   0.355   0.456   0.383   0.208   0.077
   0.121   0.386   0.805   1.244   1.575   1.738   1.757   1.714   1.688   1.714
   1.757   1.738   1.575   1.244   0.805   0.386   0.121   0.077   0.208   0.383
   0.456   0.355   0.113  -0.172  -0.404  -0.540  -0.583  -0.540  -0.404  -0.172
   0.113   0.355   0.456   0.383   0.208   0.077   0.121   0.386   0.805   1.244
   1.575   1.738   1.757   1.714   1.688   1.714   1.757   1.738   1.575   1.244
   0.805   0.386   0.121   0.077   0.208   0.383   0.456   0.355   0.113  -0.172
  -0.404  -0.540
  -0.646  -0.682  -0.721  -0.631  -0.356   0.007   0.274   0.329   0.223   0.137
   0.247   0.599   1.076   1.478   1.641   1.528   1.239   0.953   0.836   0.953
   1.239   1.528   1.641   1.478   1.076   0.599   0.247   0.137   0.223   0.329
   0.274   0.007  -0.356  -0.631  -0.721  -0.682  -0.646  -0.682  -0.721  -0.631
  -0.356   0.007   0.274   0.329   0.223   0.137   0.247   0.599   1.076   1.478
   1.641   1.528   1.239   0.953   0.836   0.953   1.239   1.528   1.641   1.478
   1.076   0.599   0.247   0.137   0.223   0.329   0.274   0.007  -0.356  -0.631
  -0.721  -0.682
   1.039   0.807   0.285  -0.150  -0.237  -0.025   0.219   0.273   0.144   0.039
   0.169   0.580   1.119   1.535   1.634   1.377   0.904   0.461   0.283   0.461
   0.904   1.377   1.634   1.535   1.119   0.580   0.169   0.039   0.144   0.273
   0.219  -0.025  -0.237  -0.150   0.285   0.807   1.039   0.807   0.285  -0.150
  -0.237  -0.025   0.219   0.273   0.144   0.039   0.169   0.580   1.119   1.535
   1.634   1.377   0.904   0.461   0.283   0.461   0.904   1.377   1.634   1.535
   1.119   0.580   0.169   0.039   0.144   0.273   0.219  -0.025  -0.237  -0.150
   0.285   0.807
   4.158   3.670   2.508   1.332   0.648   0.487   0.523   0.441   0.200  -0.001
   0.052   0.405   0.920   1.359   1.507   1.281   0.786   0.292   0.086   0.292
   0.786   1.281   1.507   1.359   0.920   0.405   0.052  -0.001   0.200   0.441
   0.523   0.487   0.648   1.332   2.508   3.670   4.158   3.670   2.508   1.332
   0.648   0.487   0.523   0.441   0.200  -0.001   0.052   0.405   0.920   1.359
   1.507   1.281   0.786   0.292   0.086   0.292   0.786   1.281   1.507   1.359
   0.920   0.405   0.052  -0.001   0.200   0.441   0.523   0.487   0.648   1.332
   2.508   3.670
   6.780   6.121   4.529   2.839   1.702   1.206   1.013   0.787   0.461   0.178
   0.094   0.262   0.632   1.062   1.335   1.257   0.829   0.316   0.088   0.316
   0.829   1.257   1.335   1.062   0.632   0.262   0.094   0.178   0.461   0.787
   1.013   1.206   1.702   2.839   4.529   6.121   6.780   6.121   4.529   2.839
   1.702   1.206   1.013   0.787   0.461   0.178   0.094   0.262   0.632   1.062
   1.335   1.257   0.829   0.316   0.088   0.316   0.829   1.257   1.335   1.062
   0.632   0.262   0.094   0.178   0.461   0.787   1.013   1.206   1.702   2.839
   4.529   6.121
   6.871   6.258   4.779   3.212   2.141   1.625   1.377   1.142   0.867   0.606
   0.405   0.322   0.456   0.826   1.226   1.312   0.933   0.362   0.090   0.362
   0.933   1.312   1.226   0.826   0.456   0.322   0.405   0.606   0.867   1.142
   1.377   1.625   2.141   3.212   4.779   6.258   6.871   6.258   4.779   3.212
   2.141   1.625   1.377   1.142   0.867   0.606   0.405   0.322   0.456   0.826
   1.226   1.312   0.933   0.362   0.090   0.362   0.933   1.312   1.226   0.826
   0.456   0.322   0.405   0.606   0.867   1.142   1.377   1.625   2.141   3.212
   4.779   6.258
   4.218   3.860   3.026   2.212   1.731   1.545   1.459   1.373   1.289   1.167
   0.927   0.622   0.503   0.758   1.209   1.394   1.035   0.403   0.090   0.403
   1.035   1.394   1.209   0.758   0.503   0.622   0.927   1.167   1.289   1.373
   1.459   1.545   1.731   2.212   3.026   3.860   4.218   3.860   3.026   2.212
   1.731   1.545   1.459   1.373   1.289   1.167   0.927   0.622   0.503   0.758
   1.209   1.394   1.035   0.403   0.090   0.403   1.035   1.394   1.209   0.758
   0.503   0.622   0.927   1.167   1.289   1.373   1.459   1.545   1.731   2.212
   3.026   3.860
   0.797   0.741   0.663   0.716   0.914   1.123   1.255   1.362   1.506   1.585
   1.420   1.030   0.728   0.814   1.192   1.408   1.138   0.589   0.309   0.589
   1.138   1.408   1.192   0.814   0.728   1.030   1.420   1.585   1.506   1.362
   1.255   1.123   0.914   0.716   0.663   0.741   0.797   0.741   0.663   0.716
   0.914   1.123   1.255   1.362   1.506   1.585   1.420   1.030   0.728   0.814
   1.192   1.408   1.138   0.589   0.309   0.589   1.138   1.408   1.192   0.814
   0.728   1.030   1.420   1.585   1.506   1.362   1.255   1.123   0.914   0.716
   0.663   0.741
  -0.986  -0.886  -0.591  -0.154   0.293   0.614   0.808   1.012   1.312   1.591
   1.619   1.335   0.980   0.871   1.063   1.287   1.271   1.055   0.928   1.055
   1.271   1.287   1.063   0.871   0.980   1.335   1.619   1.591   1.312   1.012
   0.808   0.614   0.293  -0.154  -0.591  -0.886  -0.986  -0.886  -0.591  -0.154
   0.293   0.614   0.808   1.012   1.312   1.591   1.619   1.335   0.980   0.871
   1.063   1.287   1.271   1.055   0.928   1.055   1.271   1.287   1.063   0.871
   0.980   1.335   1.619   1.591   1.312   1.012   0.808   0.614   0.293  -0.154
  -0.591  -0.886
  -0.525  -0.460  -0.288  -0.071   0.102   0.187   0.244   0.412   0.767   1.205
   1.484   1.436   1.137   0.856   0.828   1.071   1.422   1.696   1.795   1.696
   1.422   1.071   0.828   0.856   1.137   1.436   1.484   1.205   0.767   0.412
   0.244   0.187   0.102  -0.071  -0.288  -0.460  -0.525  -0.460  -0.288  -0.071
   0.102   0.187   0.244   0.412   0.767   1.205   1.484   1.436   1.137   0.856
   0.828   1.071   1.422   1.696   1.795   1.696   1.422   1.071   0.828   0.856
   1.137   1.436   1.484   1.205   0.767   0.412   0.244   0.187   0.102  -0.071
  -0.288  -0.460
   0.622   0.592   0.499   0.344   0.143  -0.058  -0.167  -0.072   0.284   0.811
   1.272   1.418   1.191   0.810   0.634   0.899   1.527   2.169   2.438   2.169
   1.527   0.899   0.634   0.810   1.191   1.418   1.272   0.811   0.284  -0.072
  -0.167  -0.058   0.143   0.344   0.499   0.592   0.622   0.592   0.499   0.344
   0.143  -0.058  -0.167  -0.072   0.284   0.811   1.272   1.418   1.191   0.810
   0.634   0.899   1.527   2.169   2.438   2.169   1.527   0.899   0.634   0.810
   1.191   1.418   1.272   0.811   0.284  -0.072  -0.167  -0.058   0.143   0.344
   0.499   0.592
 200       5.00   72    0 5.00   18    0
   0.330   0.330   0.331   0.333   0.336   0.339   0.342   0.346   0.350   0.355
   0.359   0.364   0.368   0.372   0.375   0.378   0.380   0.381   0.382   0.381
   0.380   0.378   0.375   0.372   0.368   0.364   0.359   0.355   0.350   0.346
   0.342   0.339   0.336   0.333   0.331   0.330   0.330   0.330   0.331   0.333
   0.336   0.339   0.342   0.346   0.350   0.355   0.359   0.364   0.368   0.372
   0.375   0.378   0.380   0.381   0.382   0.381   0.380   0.378   0.375   0.372
   0.368   0.364   0.359   0.355   0.350   0.346   0.342   0.339   0.336   0.333
   0.331   0.330
   0.054   0.054   0.057   0.063   0.071   0.083   0.098   0.118   0.143   0.172
   0.205   0.241   0.279   0.317   0.351   0.381   0.405   0.419   0.424   0.419
   0.405   0.381   0.351   0.317   0.279   0.241   0.205   0.172   0.143   0.118
   0.098   0.083   0.071   0.063   0.057   0.054   0.054   0.054   0.057   0.063
   0.071   0.083   0.098   0.118   0.143   0.172   0.205   0.241   0.279   0.317
   0.351   0.381   0.405   0.419   0.424   0.419   0.405   0.381   0.351   0.317
   0.279   0.241   0.205   0.172   0.143   0.118   0.098   0.083   0.071   0.063
   0.057   0.054
  -0.084  -0.088  -0.099  -0.116  -0.137  -0.158  -0.175  -0.183  -0.178  -0.154
  -0.109  -0.042   0.045   0.145   0.249   0.348   0.428   0.481   0.499   0.481
   0.428   0.348   0.249   0.145   0.045  -0.042  -0.109  -0.154  -0.178  -0.183
  -0.175  -0.158  -0.137  -0.116  -0.099  -0.088  -0.084  -0.088  -0.099  -0.116
  -0.137  -0.158  -0.175  -0.183  -0.178  -0.154  -0.109  -0.042   0.045   0.145
   0.249   0.348   0.428   0.481   0.499   0.481   0.428   0.348   0.249   0.145
   0.045  -0.042  -0.109  -0.154  -0.178  -0.183  -0.175  -0.158  -0.137  -0.116
  -0.099  -0.088
   0.393   0.383   0.353   0.301   0.227   0.133   0.023  -0.094  -0.205  -0.292
  -0.339  -0.330  -0.257  -0.126   0.047   0.234   0.402   0.518   0.560   0.518
   0.402   0.234   0.047  -0.126  -0.257  -0.330  -0.339  -0.292  -0.205  -0.094
   0.023   0.133   0.227   0.301   0.353   0.383   0.393   0.383   0.353   0.301
   0.227   0.133   0.023  -0.094  -0.205  -0.292  -0.339  -0.330  -0.257  -0.126
   0.047   0.234   0.402   0.518   0.560   0.518   0.402   0.234   0.047  -0.126
  -0.257  -0.330  -0.339  -0.292  -0.205  -0.094   0.023   0.133   0.227   0.301
   0.353   0.383
   1.503   1.496   1.473   1.429   1.354   1.235   1.061   0.829   0.547   0.245
  -0.037  -0.250  -0.353  -0.324  -0.175   0.053   0.293   0.474   0.541   0.474
   0.293   0.053  -0.175  -0.324  -0.353  -0.250  -0.037   0.245   0.547   0.829
   1.061   1.235   1.354   1.429   1.473   1.496   1.503   1.496   1.473   1.429
   1.354   1.235   1.061   0.829   0.547   0.245  -0.037  -0.250  -0.353  -0.324
  -0.175   0.053   0.293   0.474   0.541   0.474   0.293   0.053  -0.175  -0.324
  -0.353  -0.250  -0.037   0.245   0.547   0.829   1.061   1.235   1.354   1.429
   1.473   1.496
   2.599   2.599   2.603   2.612   2.618   2.595   2.503   2.298   1.957   1.490
   0.949   0.417  -0.007  -0.246  -0.269  -0.110   0.138   0.355   0.440   0.355
   0.138  -0.110  -0.269  -0.246  -0.007   0.417   0.949   1.490   1.957   2.298
   2.503   2.595   2.618   2.612   2.603   2.599   2.599   2.599   2.603   2.612
   2.618   2.595   2.503   2.298   1.957   1.490   0.949   0.417  -0.007  -0.246
  -0.269  -0.110   0.138   0.355   0.440   0.355   0.138  -0.110  -0.269  -0.246
  -0.007   0.417   0.949   1.490   1.957   2.298   2.503   2.595   2.618   2.612
   2.603   2.599
   2.845   2.835   2.824   2.854   2.954   3.106   3.244   3.278   3.126   2.748
   2.159   1.440   0.724   0.160  -0.136  -0.146   0.041   0.259   0.352   0.259
   0.041  -0.146  -0.136   0.160   0.724   1.440   2.159   2.748   3.126   3.278
   3.244   3.106   2.954   2.854   2.824   2.835   2.845   2.835   2.824   2.854
   2.954   3.106   3.244   3.278   3.126   2.748   2.159   1.440   0.724   0.160
  -0.136  -0.146   0.041   0.259   0.352   0.259   0.041  -0.146  -0.136   0.160
   0.724   1.440   2.159   2.748   3.126   3.278   3.244   3.106   2.954   2.854
   2.824   2.835
   2.031   1.985   1.899   1.878   2.007   2.289   2.649   2.982   3.188   3.182
   2.899   2.327   1.553   0.769   0.200  -0.017   0.079   0.289   0.392   0.289
   0.079  -0.017   0.200   0.769   1.553   2.327   2.899   3.182   3.188   2.982
   2.649   2.289   2.007   1.878   1.899   1.985   2.031   1.985   1.899   1.878
   2.007   2.289   2.649   2.982   3.188   3.182   2.899   2.327   1.553   0.769
   0.200  -0.017   0.079   0.289   0.392   0.289   0.079  -0.017   0.200   0.769
   1.553   2.327   2.899   3.182   3.188   2.982   2.649   2.289   2.007   1.878
   1.899   1.985
   0.829   0.751   0.596   0.524   0.640   0.926   1.302   1.720   2.178   2.630
   2.913   2.819   2.263   1.411   0.618   0.199   0.211   0.433   0.555   0.433
   0.211   0.199   0.618   1.411   2.263   2.819   2.913   2.630   2.178   1.720
   1.302   0.926   0.640   0.524   0.596   0.751   0.829   0.751   0.596   0.524
   0.640   0.926   1.302   1.720   2.178   2.630   2.913   2.819   2.263   1.411
   0.618   0.199   0.211   0.433   0.555   0.433   0.211   0.199   0.618   1.411
   2.263   2.819   2.913   2.630   2.178   1.720   1.302   0.926   0.640   0.524
   0.596   0.751
   0.132   0.049  -0.100  -0.136  -0.003   0.181   0.310   0.473   0.900   1.681
   2.565   3.065   2.838   1.979   0.981   0.365   0.305   0.553   0.700   0.553
   0.305   0.365   0.981   1.979   2.838   3.065   2.565   1.681   0.900   0.473
   0.310   0.181  -0.003  -0.136  -0.100   0.049   0.132   0.049  -0.100  -0.136
  -0.003   0.181   0.310   0.473   0.900   1.681   2.565   3.065   2.838   1.979
   0.981   0.365   0.305   0.553   0.700   0.553   0.305   0.365   0.981   1.979
   2.838   3.065   2.565   1.681   0.900   0.473   0.310   0.181  -0.003  -0.136
  -0.100   0.049
   0.173   0.101   0.003   0.060   0.239   0.288   0.067  -0.167   0.078   1.043
   2.371   3.308   3.286   2.374   1.193   0.415   0.282   0.522   0.674   0.522
   0.282   0.415   1.193   2.374   3.286   3.308   2.371   1.043   0.078  -0.167
   0.067   0.288   0.239   0.060   0.003   0.101   0.173   0.101   0.003   0.060
   0.239   0.288   0.067  -0.167   0.078   1.043   2.371   3.308   3.286   2.374
   1.193   0.415   0.282   0.522   0.674   0.522   0.282   0.415   1.193   2.374
   3.286   3.308   2.371   1.043   0.078  -0.167   0.067   0.288   0.239   0.060
   0.003   0.101
   0.432   0.363   0.286   0.387   0.578   0.531   0.117  -0.290  -0.065   1.035
   2.520   3.506   3.420   2.423   1.203   0.405   0.210   0.357   0.464   0.357
   0.210   0.405   1.203   2.423   3.420   3.506   2.520   1.035  -0.065  -0.290
   0.117   0.531   0.578   0.387   0.286   0.363   0.432   0.363   0.286   0.387
   0.578   0.531   0.117  -0.290  -0.065   1.035   2.520   3.506   3.420   2.423
   1.203   0.405   0.210   0.357   0.464   0.357   0.210   0.405   1.203   2.423
   3.420   3.506   2.520   1.035  -0.065  -0.290   0.117   0.531   0.578   0.387
   0.286   0.363
   0.368   0.297   0.210   0.284   0.440   0.404   0.114  -0.044   0.434   1.590
   2.826   3.384   2.981   1.986   1.015   0.436   0.229   0.202   0.207   0.202
   0.229   0.436   1.015   1.986   2.981   3.384   2.826   1.590   0.434  -0.044
   0.114   0.404   0.440   0.284   0.210   0.297   0.368   0.297   0.210   0.284
   0.440   0.404   0.114  -0.044   0.434   1.590   2.826   3.384   2.981   1.986
   1.015   0.436   0.229   0.202   0.207   0.202   0.229   0.436   1.015   1.986
   2.981   3.384   2.826   1.590   0.434  -0.044   0.114   0.404   0.440   0.284
   0.210   0.297
   0.016  -0.032  -0.089  -0.032   0.112   0.218   0.322   0.683   1.466   2.420
   2.979   2.775   1.994   1.179   0.709   0.527   0.375   0.173   0.070   0.173
   0.375   0.527   0.709   1.179   1.994   2.775   2.979   2.420   1.466   0.683
   0.322   0.218   0.112  -0.032  -0.089  -0.032   0.016  -0.032  -0.089  -0.032
   0.112   0.218   0.322   0.683   1.466   2.420   2.979   2.775   1.994   1.179
   0.709   0.527   0.375   0.173   0.070   0.173   0.375   0.527   0.709   1.179
   1.994   2.775   2.979   2.420   1.466   0.683   0.322   0.218   0.112  -0.032
  -0.089  -0.032
  -0.182  -0.181  -0.157  -0.069   0.114   0.444   1.011   1.820   2.643   3.051
   2.735   1.837   0.897   0.413   0.432   0.581   0.514   0.256   0.112   0.256
   0.514   0.581   0.432   0.413   0.897   1.837   2.735   3.051   2.643   1.820
   1.011   0.444   0.114  -0.069  -0.157  -0.181  -0.182  -0.181  -0.157  -0.069
   0.114   0.444   1.011   1.820   2.643   3.051   2.735   1.837   0.897   0.413
   0.432   0.581   0.514   0.256   0.112   0.256   0.514   0.581   0.432   0.413
   0.897   1.837   2.735   3.051   2.643   1.820   1.011   0.444   0.114  -0.069
  -0.157  -0.181
   0.046   0.079   0.144   0.223   0.428   0.956   1.853   2.821   3.331   3.022
   2.030   0.913   0.219   0.103   0.313   0.492   0.475   0.343   0.271   0.343
   0.475   0.492   0.313   0.103   0.219   0.913   2.030   3.022   3.331   2.821
   1.853   0.956   0.428   0.223   0.144   0.079   0.046   0.079   0.144   0.223
   0.428   0.956   1.853   2.821   3.331   3.022   2.030   0.913   0.219   0.103
   0.313   0.492   0.475   0.343   0.271   0.343   0.475   0.492   0.313   0.103
   0.219   0.913   2.030   3.022   3.331   2.821   1.853   0.956   0.428   0.223
   0.144   0.079
   0.539   0.556   0.555   0.522   0.670   1.291   2.328   3.206   3.251   2.345
   1.093   0.264   0.111   0.286   0.360   0.279   0.255   0.364   0.440   0.364
   0.255   0.279   0.360   0.286   0.111   0.264   1.093   2.345   3.251   3.206
   2.328   1.291   0.670   0.522   0.555   0.556   0.539   0.556   0.555   0.522
   0.670   1.291   2.328   3.206   3.251   2.345   1.093   0.264   0.111   0.286
   0.360   0.279   0.255   0.364   0.440   0.364   0.255   0.279   0.360   0.286
   0.111   0.264   1.093   2.345   3.251   3.206   2.328   1.291   0.670   0.522
   0.555   0.556
   0.919   0.904   0.807   0.645   0.712   1.347   2.409   3.156   2.875   1.660
   0.411  -0.045   0.251   0.579   0.448   0.098   0.046   0.344   0.540   0.344
   0.046   0.098   0.448   0.579   0.251  -0.045   0.411   1.660   2.875   3.156
   2.409   1.347   0.712   0.645   0.807   0.904   0.919   0.904   0.807   0.645
   0.712   1.347   2.409   3.156   2.875   1.660   0.411  -0.045   0.251   0.579
   0.448   0.098   0.046   0.344   0.540   0.344   0.046   0.098   0.448   0.579
   0.251  -0.045   0.411   1.660   2.875   3.156   2.409   1.347   0.712   0.645
   0.807   0.904
 111       5.00   72    0 5.00   18    0
   0.234   0.235   0.239   0.245   0.253   0.264   0.276   0.289   0.304   0.319
   0.334   0.349   0.363   0.376   0.387   0.396   0.403   0.407   0.408   0.407
   0.403   0.396   0.387   0.376   0.363   0.349   0.334   0.319   0.304   0.289
   0.276   0.264   0.253   0.245   0.239   0.235   0.234   0.235   0.239   0.245
   0.253   0.264   0.276   0.289   0.304   0.319   0.334   0.349   0.363   0.376
   0.387   0.396   0.403   0.407   0.408   0.407   0.403   0.396   0.387   0.376
   0.363   0.349   0.334   0.319   0.304   0.289   0.276   0.264   0.253   0.245
   0.239   0.235
  -0.489  -0.486  -0.476  -0.458  -0.431  -0.395  -0.347  -0.287  -0.215  -0.133
  -0.043   0.052   0.149   0.242   0.326   0.398   0.452   0.487   0.498   0.487
   0.452   0.398   0.326   0.242   0.149   0.052  -0.043  -0.133  -0.215  -0.287
  -0.347  -0.395  -0.431  -0.458  -0.476  -0.486  -0.489  -0.486  -0.476  -0.458
  -0.431  -0.395  -0.347  -0.287  -0.215  -0.133  -0.043   0.052   0.149   0.242
   0.326   0.398   0.452   0.487   0.498   0.487   0.452   0.398   0.326   0.242
   0.149   0.052  -0.043  -0.133  -0.215  -0.287  -0.347  -0.395  -0.431  -0.458
  -0.476  -0.486
   0.021   0.000  -0.059  -0.149  -0.256  -0.363  -0.454  -0.515  -0.535  -0.507
  -0.431  -0.314  -0.165   0.001   0.167   0.317   0.437   0.514   0.540   0.514
   0.437   0.317   0.167   0.001  -0.165  -0.314  -0.431  -0.507  -0.535  -0.515
  -0.454  -0.363  -0.256  -0.149  -0.059   0.000   0.021   0.000  -0.059  -0.149
  -0.256  -0.363  -0.454  -0.515  -0.535  -0.507  -0.431  -0.314  -0.165   0.001
   0.167   0.317   0.437   0.514   0.540   0.514   0.437   0.317   0.167   0.001
  -0.165  -0.314  -0.431  -0.507  -0.535  -0.515  -0.454  -0.363  -0.256  -0.149
  -0.059   0.000
   2.608   2.530   2.306   1.961   1.531   1.063   0.602   0.193  -0.132  -0.349
  -0.453  -0.450  -0.359  -0.207  -0.024   0.158   0.311   0.412   0.447   0.412
   0.311   0.158  -0.024  -0.207  -0.359  -0.450  -0.453  -0.349  -0.132   0.193
   0.602   1.063   1.531   1.961   2.306   2.530   2.608   2.530   2.306   1.961
   1.531   1.063   0.602   0.193  -0.132  -0.349  -0.453  -0.450  -0.359  -0.207
  -0.024   0.158   0.311   0.412   0.447   0.412   0.311   0.158  -0.024  -0.207
  -0.359  -0.450  -0.453  -0.349  -0.132   0.193   0.602   1.063   1.531   1.961
   2.306   2.530
   5.348   5.227   4.875   4.328   3.638   2.870   2.093   1.371   0.754   0.277
  -0.046  -0.220  -0.265  -0.210  -0.093   0.048   0.180   0.271   0.304   0.271
   0.180   0.048  -0.093  -0.210  -0.265  -0.220  -0.046   0.277   0.754   1.371
   2.093   2.870   3.638   4.328   4.875   5.227   5.348   5.227   4.875   4.328
   3.638   2.870   2.093   1.371   0.754   0.277  -0.046  -0.220  -0.265  -0.210
  -0.093   0.048   0.180   0.271   0.304   0.271   0.180   0.048  -0.093  -0.210
  -0.265  -0.220  -0.046   0.277   0.754   1.371   2.093   2.870   3.638   4.328
   4.875   5.227
   5.726   5.629   5.342   4.887   4.299   3.621   2.908   2.209   1.569   1.019
   0.579   0.259   0.060  -0.027  -0.018   0.054   0.150   0.229   0.259   0.229
   0.150   0.054  -0.018  -0.027   0.060   0.259   0.579   1.019   1.569   2.209
   2.908   3.621   4.299   4.887   5.342   5.629   5.726   5.629   5.342   4.887
   4.299   3.621   2.908   2.209   1.569   1.019   0.579   0.259   0.060  -0.027
  -0.018   0.054   0.150   0.229   0.259   0.229   0.150   0.054  -0.018  -0.027
   0.060   0.259   0.579   1.019   1.569   2.209   2.908   3.621   4.299   4.887
   5.342   5.629
   3.599   3.585   3.540   3.449   3.300   3.086   2.810   2.477   2.093   1.668
   1.220   0.783   0.411   0.155   0.046   0.073   0.182   0.293   0.339   0.293
   0.182   0.073   0.046   0.155   0.411   0.783   1.220   1.668   2.093   2.477
   2.810   3.086   3.300   3.449   3.540   3.585   3.599   3.585   3.540   3.449
   3.300   3.086   2.810   2.477   2.093   1.668   1.220   0.783   0.411   0.155
   0.046   0.073   0.182   0.293   0.339   0.293   0.182   0.073   0.046   0.155
   0.411   0.783   1.220   1.668   2.093   2.477   2.810   3.086   3.300   3.449
   3.540   3.585
   1.058   1.118   1.286   1.527   1.797   2.054   2.264   2.387   2.378   2.193
   1.818   1.298   0.740   0.283   0.037   0.026   0.175   0.349   0.424   0.349
   0.175   0.026   0.037   0.283   0.740   1.298   1.818   2.193   2.378   2.387
   2.264   2.054   1.797   1.527   1.286   1.118   1.058   1.118   1.286   1.527
   1.797   2.054   2.264   2.387   2.378   2.193   1.818   1.298   0.740   0.283
   0.037   0.026   0.175   0.349   0.424   0.349   0.175   0.026   0.037   0.283
   0.740   1.298   1.818   2.193   2.378   2.387   2.264   2.054   1.797   1.527
   1.286   1.118
  -0.176  -0.114   0.066   0.342   0.691   1.093   1.530   1.962   2.308   2.453
   2.301   1.845   1.204   0.583   0.172   0.050   0.153   0.320   0.398   0.320
   0.153   0.050   0.172   0.583   1.204   1.845   2.301   2.453   2.308   1.962
   1.530   1.093   0.691   0.342   0.066  -0.114  -0.176  -0.114   0.066   0.342
   0.691   1.093   1.530   1.962   2.308   2.453   2.301   1.845   1.204   0.583
   0.172   0.050   0.153   0.320   0.398   0.320   0.153   0.050   0.172   0.583
   1.204   1.845   2.301   2.453   2.308   1.962   1.530   1.093   0.691   0.342
   0.066  -0.114
  -0.208  -0.199  -0.165  -0.090   0.045   0.270   0.620   1.110   1.682   2.183
   2.423   2.284   1.814   1.206   0.682   0.374   0.273   0.282   0.299   0.282
   0.273   0.374   0.682   1.206   1.814   2.284   2.423   2.183   1.682   1.110
   0.620   0.270   0.045  -0.090  -0.165  -0.199  -0.208  -0.199  -0.165  -0.090
   0.045   0.270   0.620   1.110   1.682   2.183   2.423   2.284   1.814   1.206
   0.682   0.374   0.273   0.282   0.299   0.282   0.273   0.374   0.682   1.206
   1.814   2.284   2.423   2.183   1.682   1.110   0.620   0.270   0.045  -0.090
  -0.165  -0.199
   0.030  -0.003  -0.083  -0.168  -0.226  -0.233  -0.131   0.165   0.694   1.363
   1.955   2.256   2.194   1.860   1.419   0.992   0.639   0.398   0.311   0.398
   0.639   0.992   1.419   1.860   2.194   2.256   1.955   1.363   0.694   0.165
  -0.131  -0.233  -0.226  -0.168  -0.083  -0.003   0.030  -0.003  -0.083  -0.168
  -0.226  -0.233  -0.131   0.165   0.694   1.363   1.955   2.256   2.194   1.860
   1.419   0.992   0.639   0.398   0.311   0.398   0.639   0.992   1.419   1.860
   2.194   2.256   1.955   1.363   0.694   0.165  -0.131  -0.233  -0.226  -0.168
  -0.083  -0.003
   0.108   0.070  -0.007  -0.062  -0.091  -0.142  -0.226  -0.243  -0.043   0.427
   1.044   1.593   1.925   2.016   1.898   1.598   1.176   0.786   0.624   0.786
   1.176   1.598   1.898   2.016   1.925   1.593   1.044   0.427  -0.043  -0.243
  -0.226  -0.142  -0.091  -0.062  -0.007   0.070   0.108   0.070  -0.007  -0.062
  -0.091  -0.142  -0.226  -0.243  -0.043   0.427   1.044   1.593   1.925   2.016
   1.898   1.598   1.176   0.786   0.624   0.786   1.176   1.598   1.898   2.016
   1.925   1.593   1.044   0.427  -0.043  -0.243  -0.226  -0.142  -0.091  -0.062
  -0.007   0.070
   0.081   0.042  -0.019   0.004   0.125   0.230   0.189   0.014  -0.126  -0.060
   0.239   0.664   1.105   1.504   1.796   1.874   1.700   1.417   1.280   1.417
   1.700   1.874   1.796   1.504   1.105   0.664   0.239  -0.060  -0.126   0.014
   0.189   0.230   0.125   0.004  -0.019   0.042   0.081   0.042  -0.019   0.004
   0.125   0.230   0.189   0.014  -0.126  -0.060   0.239   0.664   1.105   1.504
   1.796   1.874   1.700   1.417   1.280   1.417   1.700   1.874   1.796   1.504
   1.105   0.664   0.239  -0.060  -0.126   0.014   0.189   0.230   0.125   0.004
  -0.019   0.042
   0.006  -0.057  -0.179  -0.218  -0.078   0.178   0.373   0.373   0.215   0.054
   0.007   0.096   0.328   0.730   1.264   1.762   2.047   2.110   2.101   2.110
   2.047   1.762   1.264   0.730   0.328   0.096   0.007   0.054   0.215   0.373
   0.373   0.178  -0.078  -0.218  -0.179  -0.057   0.006  -0.057  -0.179  -0.218
  -0.078   0.178   0.373   0.373   0.215   0.054   0.007   0.096   0.328   0.730
   1.264   1.762   2.047   2.110   2.101   2.110   2.047   1.762   1.264   0.730
   0.328   0.096   0.007   0.054   0.215   0.373   0.373   0.178  -0.078  -0.218
  -0.179  -0.057
   0.097   0.051  -0.089  -0.273  -0.354  -0.209   0.106   0.384   0.478   0.405
   0.265   0.126   0.065   0.221   0.699   1.416   2.127   2.605   2.767   2.605
   2.127   1.416   0.699   0.221   0.065   0.126   0.265   0.405   0.478   0.384
   0.106  -0.209  -0.354  -0.273  -0.089   0.051   0.097   0.051  -0.089  -0.273
  -0.354  -0.209   0.106   0.384   0.478   0.405   0.265   0.126   0.065   0.221
   0.699   1.416   2.127   2.605   2.767   2.605   2.127   1.416   0.699   0.221
   0.065   0.126   0.265   0.405   0.478   0.384   0.106  -0.209  -0.354  -0.273
  -0.089   0.051
   0.863   0.963   1.075   0.905   0.479   0.134   0.106   0.294   0.467   0.528
   0.508   0.409   0.229   0.117   0.336   1.006   1.933   2.723   3.029   2.723
   1.933   1.006   0.336   0.117   0.229   0.409   0.508   0.528   0.467   0.294
   0.106   0.134   0.479   0.905   1.075   0.963   0.863   0.963   1.075   0.905
   0.479   0.134   0.106   0.294   0.467   0.528   0.508   0.409   0.229   0.117
   0.336   1.006   1.933   2.723   3.029   2.723   1.933   1.006   0.336   0.117
   0.229   0.409   0.508   0.528   0.467   0.294   0.106   0.134   0.479   0.905
   1.075   0.963
   2.385   2.744   3.374   3.463   2.751   1.708   0.912   0.511   0.345   0.316
   0.417   0.526   0.447   0.208   0.157   0.635   1.582   2.523   2.914   2.523
   1.582   0.635   0.157   0.208   0.447   0.526   0.417   0.316   0.345   0.511
   0.912   1.708   2.751   3.463   3.374   2.744   2.385   2.744   3.374   3.463
   2.751   1.708   0.912   0.511   0.345   0.316   0.417   0.526   0.447   0.208
   0.157   0.635   1.582   2.523   2.914   2.523   1.582   0.635   0.157   0.208
   0.447   0.526   0.417   0.316   0.345   0.511   0.912   1.708   2.751   3.463
   3.374   2.744
   3.724   4.294   5.365   5.732   4.877   3.318   1.862   0.863   0.274   0.051
   0.187   0.469   0.533   0.281   0.081   0.405   1.305   2.289   2.713   2.289
   1.305   0.405   0.081   0.281   0.533   0.469   0.187   0.051   0.274   0.863
   1.862   3.318   4.877   5.732   5.365   4.294   3.724   4.294   5.365   5.732
   4.877   3.318   1.862   0.863   0.274   0.051   0.187   0.469   0.533   0.281
   0.081   0.405   1.305   2.289   2.713   2.289   1.305   0.405   0.081   0.281
   0.533   0.469   0.187   0.051   0.274   0.863   1.862   3.318   4.877   5.732
   5.365   4.294
TEXTURE_INDEX=   6.8416
ERR_CF 220         1080     464  102.08   26.04
ERR_CF 200         1080     276   79.37   19.95
ERR_CF 111         1058     282  172.29   19.28
