TEXEVAL                                                                         
Analysis started on 15-Feb-19 10:46:16                                          
 LMAX=16LFMAX=03 CUBIC ORTHO   
 220      5.00 5.00
 200      5.00 5.00
 111      5.00 5.00
 220       5.00   72    0 5.00   15    0
   4.643   4.643   4.643   4.643   4.643   4.643   4.643   4.643   4.643   4.643
   4.643   4.643   4.643   4.643   4.643   4.643   4.643   4.643   4.643   4.643
   4.643   4.643   4.643   4.643   4.643   4.643   4.643   4.643   4.643   4.643
   4.643   4.643   4.643   4.643   4.643   4.643   4.643   4.643   4.643   4.643
   4.643   4.643   4.643   4.643   4.643   4.643   4.643   4.643   4.643   4.643
   4.643   4.643   4.643   4.643   4.643   4.643   4.643   4.643   4.643   4.643
   4.643   4.643   4.643   4.643   4.643   4.643   4.643   4.643   4.643   4.643
   4.643   4.643
   1.547   1.492   1.565   1.570   1.675   1.785   2.013   2.054   2.314   2.586
   2.907   3.295   3.794   4.229   4.816   5.256   5.462   5.881   5.899   5.881
   5.462   5.256   4.816   4.229   3.794   3.295   2.907   2.586   2.314   2.054
   2.013   1.785   1.675   1.570   1.565   1.492   1.547   1.492   1.565   1.570
   1.675   1.785   2.013   2.054   2.314   2.586   2.907   3.295   3.794   4.229
   4.816   5.256   5.462   5.881   5.899   5.881   5.462   5.256   4.816   4.229
   3.794   3.295   2.907   2.586   2.314   2.054   2.013   1.785   1.675   1.570
   1.565   1.492
   0.309   0.319   0.393   0.384   0.424   0.452   0.554   0.583   0.799   0.976
   1.282   1.683   2.305   2.933   3.835   4.822   5.513   6.191   6.253   6.191
   5.513   4.822   3.835   2.933   2.305   1.683   1.282   0.976   0.799   0.583
   0.554   0.452   0.424   0.384   0.393   0.319   0.309   0.319   0.393   0.384
   0.424   0.452   0.554   0.583   0.799   0.976   1.282   1.683   2.305   2.933
   3.835   4.822   5.513   6.191   6.253   6.191   5.513   4.822   3.835   2.933
   2.305   1.683   1.282   0.976   0.799   0.583   0.554   0.452   0.424   0.384
   0.393   0.319
   0.150   0.218   0.231   0.209   0.198   0.218   0.271   0.242   0.275   0.409
   0.556   0.794   1.194   1.866   2.866   4.243   5.672   6.840   7.337   6.840
   5.672   4.243   2.866   1.866   1.194   0.794   0.556   0.409   0.275   0.242
   0.271   0.218   0.198   0.209   0.231   0.218   0.150   0.218   0.231   0.209
   0.198   0.218   0.271   0.242   0.275   0.409   0.556   0.794   1.194   1.866
   2.866   4.243   5.672   6.840   7.337   6.840   5.672   4.243   2.866   1.866
   1.194   0.794   0.556   0.409   0.275   0.242   0.271   0.218   0.198   0.209
   0.231   0.218
   0.137   0.191   0.163   0.117   0.187   0.168   0.210   0.217   0.173   0.271
   0.303   0.479   0.640   1.192   2.083   3.547   5.477   7.272   7.857   7.272
   5.477   3.547   2.083   1.192   0.640   0.479   0.303   0.271   0.173   0.217
   0.210   0.168   0.187   0.117   0.163   0.191   0.137   0.191   0.163   0.117
   0.187   0.168   0.210   0.217   0.173   0.271   0.303   0.479   0.640   1.192
   2.083   3.547   5.477   7.272   7.857   7.272   5.477   3.547   2.083   1.192
   0.640   0.479   0.303   0.271   0.173   0.217   0.210   0.168   0.187   0.117
   0.163   0.191
   0.078   0.134   0.163   0.120   0.120   0.118   0.147   0.220   0.194   0.228
   0.256   0.451   0.546   0.943   1.865   3.047   4.857   6.156   6.464   6.156
   4.857   3.047   1.865   0.943   0.546   0.451   0.256   0.228   0.194   0.220
   0.147   0.118   0.120   0.120   0.163   0.134   0.078   0.134   0.163   0.120
   0.120   0.118   0.147   0.220   0.194   0.228   0.256   0.451   0.546   0.943
   1.865   3.047   4.857   6.156   6.464   6.156   4.857   3.047   1.865   0.943
   0.546   0.451   0.256   0.228   0.194   0.220   0.147   0.118   0.120   0.120
   0.163   0.134
   0.023   0.070   0.109   0.087   0.063   0.060   0.114   0.150   0.203   0.215
   0.264   0.424   0.642   1.204   2.192   3.147   3.944   3.852   3.685   3.852
   3.944   3.147   2.192   1.204   0.642   0.424   0.264   0.215   0.203   0.150
   0.114   0.060   0.063   0.087   0.109   0.070   0.023   0.070   0.109   0.087
   0.063   0.060   0.114   0.150   0.203   0.215   0.264   0.424   0.642   1.204
   2.192   3.147   3.944   3.852   3.685   3.852   3.944   3.147   2.192   1.204
   0.642   0.424   0.264   0.215   0.203   0.150   0.114   0.060   0.063   0.087
   0.109   0.070
   0.089   0.043   0.056   0.059   0.125   0.079   0.102   0.102   0.200   0.201
   0.231   0.419   0.675   1.456   2.604   3.274   2.772   1.815   1.324   1.815
   2.772   3.274   2.604   1.456   0.675   0.419   0.231   0.201   0.200   0.102
   0.102   0.079   0.125   0.059   0.056   0.043   0.089   0.043   0.056   0.059
   0.125   0.079   0.102   0.102   0.200   0.201   0.231   0.419   0.675   1.456
   2.604   3.274   2.772   1.815   1.324   1.815   2.772   3.274   2.604   1.456
   0.675   0.419   0.231   0.201   0.200   0.102   0.102   0.079   0.125   0.059
   0.056   0.043
   0.161   0.144   0.160   0.116   0.173   0.130   0.180   0.129   0.278   0.233
   0.265   0.422   0.715   1.592   2.633   2.631   1.549   0.701   0.425   0.701
   1.549   2.631   2.633   1.592   0.715   0.422   0.265   0.233   0.278   0.129
   0.180   0.130   0.173   0.116   0.160   0.144   0.161   0.144   0.160   0.116
   0.173   0.130   0.180   0.129   0.278   0.233   0.265   0.422   0.715   1.592
   2.633   2.631   1.549   0.701   0.425   0.701   1.549   2.631   2.633   1.592
   0.715   0.422   0.265   0.233   0.278   0.129   0.180   0.130   0.173   0.116
   0.160   0.144
   0.413   0.375   0.225   0.196   0.196   0.116   0.226   0.154   0.244   0.275
   0.311   0.327   0.646   1.629   2.308   1.765   0.661   0.312   0.266   0.312
   0.661   1.765   2.308   1.629   0.646   0.327   0.311   0.275   0.244   0.154
   0.226   0.116   0.196   0.196   0.225   0.375   0.413   0.375   0.225   0.196
   0.196   0.116   0.226   0.154   0.244   0.275   0.311   0.327   0.646   1.629
   2.308   1.765   0.661   0.312   0.266   0.312   0.661   1.765   2.308   1.629
   0.646   0.327   0.311   0.275   0.244   0.154   0.226   0.116   0.196   0.196
   0.225   0.375
   2.503   2.035   1.130   0.570   0.213   0.241   0.274   0.196   0.238   0.170
   0.238   0.229   0.509   1.290   1.693   1.262   0.393   0.151   0.117   0.151
   0.393   1.262   1.693   1.290   0.509   0.229   0.238   0.170   0.238   0.196
   0.274   0.241   0.213   0.570   1.130   2.035   2.503   2.035   1.130   0.570
   0.213   0.241   0.274   0.196   0.238   0.170   0.238   0.229   0.509   1.290
   1.693   1.262   0.393   0.151   0.117   0.151   0.393   1.262   1.693   1.290
   0.509   0.229   0.238   0.170   0.238   0.196   0.274   0.241   0.213   0.570
   1.130   2.035
   8.271   6.753   3.838   1.878   1.025   0.763   0.570   0.449   0.357   0.112
   0.258   0.193   0.394   0.840   1.312   1.120   0.372   0.095   0.081   0.095
   0.372   1.120   1.312   0.840   0.394   0.193   0.258   0.112   0.357   0.449
   0.570   0.763   1.025   1.878   3.838   6.753   8.271   6.753   3.838   1.878
   1.025   0.763   0.570   0.449   0.357   0.112   0.258   0.193   0.394   0.840
   1.312   1.120   0.372   0.095   0.081   0.095   0.372   1.120   1.312   0.840
   0.394   0.193   0.258   0.112   0.357   0.449   0.570   0.763   1.025   1.878
   3.838   6.753
   8.275   7.240   4.465   2.819   2.133   1.358   1.009   0.791   0.579   0.215
   0.301   0.274   0.282   0.530   1.326   1.025   0.257   0.056   0.175   0.056
   0.257   1.025   1.326   0.530   0.282   0.274   0.301   0.215   0.579   0.791
   1.009   1.358   2.133   2.819   4.465   7.240   8.275   7.240   4.465   2.819
   2.133   1.358   1.009   0.791   0.579   0.215   0.301   0.274   0.282   0.530
   1.326   1.025   0.257   0.056   0.175   0.056   0.257   1.025   1.326   0.530
   0.282   0.274   0.301   0.215   0.579   0.791   1.009   1.358   2.133   2.819
   4.465   7.240
   2.763   2.562   2.251   1.812   1.910   1.679   1.466   1.474   1.365   0.690
   0.525   0.499   0.285   0.478   1.152   1.089   0.430   0.148   0.177   0.148
   0.430   1.089   1.152   0.478   0.285   0.499   0.525   0.690   1.365   1.474
   1.466   1.679   1.910   1.812   2.251   2.562   2.763   2.562   2.251   1.812
   1.910   1.679   1.466   1.474   1.365   0.690   0.525   0.499   0.285   0.478
   1.152   1.089   0.430   0.148   0.177   0.148   0.430   1.089   1.152   0.478
   0.285   0.499   0.525   0.690   1.365   1.474   1.466   1.679   1.910   1.812
   2.251   2.562
   0.678   0.510   0.643   0.476   0.748   1.039   1.052   1.582   1.640   1.299
   1.110   0.549   0.356   0.450   0.973   1.166   0.820   0.534   0.216   0.534
   0.820   1.166   0.973   0.450   0.356   0.549   1.110   1.299   1.640   1.582
   1.052   1.039   0.748   0.476   0.643   0.510   0.678   0.510   0.643   0.476
   0.748   1.039   1.052   1.582   1.640   1.299   1.110   0.549   0.356   0.450
   0.973   1.166   0.820   0.534   0.216   0.534   0.820   1.166   0.973   0.450
   0.356   0.549   1.110   1.299   1.640   1.582   1.052   1.039   0.748   0.476
   0.643   0.510
 200       5.00   72    0 5.00   15    0
   0.186   0.186   0.186   0.186   0.186   0.186   0.186   0.186   0.186   0.186
   0.186   0.186   0.186   0.186   0.186   0.186   0.186   0.186   0.186   0.186
   0.186   0.186   0.186   0.186   0.186   0.186   0.186   0.186   0.186   0.186
   0.186   0.186   0.186   0.186   0.186   0.186   0.186   0.186   0.186   0.186
   0.186   0.186   0.186   0.186   0.186   0.186   0.186   0.186   0.186   0.186
   0.186   0.186   0.186   0.186   0.186   0.186   0.186   0.186   0.186   0.186
   0.186   0.186   0.186   0.186   0.186   0.186   0.186   0.186   0.186   0.186
   0.186   0.186
   0.210   0.216   0.218   0.189   0.219   0.211   0.230   0.202   0.231   0.193
   0.208   0.208   0.186   0.184   0.200   0.220   0.177   0.187   0.197   0.187
   0.177   0.220   0.200   0.184   0.186   0.208   0.208   0.193   0.231   0.202
   0.230   0.211   0.219   0.189   0.218   0.216   0.210   0.216   0.218   0.189
   0.219   0.211   0.230   0.202   0.231   0.193   0.208   0.208   0.186   0.184
   0.200   0.220   0.177   0.187   0.197   0.187   0.177   0.220   0.200   0.184
   0.186   0.208   0.208   0.193   0.231   0.202   0.230   0.211   0.219   0.189
   0.218   0.216
   0.255   0.283   0.295   0.251   0.262   0.230   0.251   0.207   0.247   0.206
   0.224   0.186   0.177   0.166   0.198   0.203   0.184   0.187   0.185   0.187
   0.184   0.203   0.198   0.166   0.177   0.186   0.224   0.206   0.247   0.207
   0.251   0.230   0.262   0.251   0.295   0.283   0.255   0.283   0.295   0.251
   0.262   0.230   0.251   0.207   0.247   0.206   0.224   0.186   0.177   0.166
   0.198   0.203   0.184   0.187   0.185   0.187   0.184   0.203   0.198   0.166
   0.177   0.186   0.224   0.206   0.247   0.207   0.251   0.230   0.262   0.251
   0.295   0.283
   0.498   0.524   0.529   0.466   0.435   0.378   0.306   0.268   0.288   0.238
   0.213   0.182   0.176   0.159   0.177   0.180   0.195   0.188   0.152   0.188
   0.195   0.180   0.177   0.159   0.176   0.182   0.213   0.238   0.288   0.268
   0.306   0.378   0.435   0.466   0.529   0.524   0.498   0.524   0.529   0.466
   0.435   0.378   0.306   0.268   0.288   0.238   0.213   0.182   0.176   0.159
   0.177   0.180   0.195   0.188   0.152   0.188   0.195   0.180   0.177   0.159
   0.176   0.182   0.213   0.238   0.288   0.268   0.306   0.378   0.435   0.466
   0.529   0.524
   1.536   1.565   1.447   1.334   1.230   0.983   0.767   0.597   0.431   0.350
   0.285   0.214   0.192   0.160   0.157   0.123   0.164   0.161   0.142   0.161
   0.164   0.123   0.157   0.160   0.192   0.214   0.285   0.350   0.431   0.597
   0.767   0.983   1.230   1.334   1.447   1.565   1.536   1.565   1.447   1.334
   1.230   0.983   0.767   0.597   0.431   0.350   0.285   0.214   0.192   0.160
   0.157   0.123   0.164   0.161   0.142   0.161   0.164   0.123   0.157   0.160
   0.192   0.214   0.285   0.350   0.431   0.597   0.767   0.983   1.230   1.334
   1.447   1.565
   3.628   3.583   3.468   3.364   3.162   2.856   2.356   1.866   1.276   0.864
   0.540   0.265   0.202   0.181   0.173   0.079   0.130   0.121   0.106   0.121
   0.130   0.079   0.173   0.181   0.202   0.265   0.540   0.864   1.276   1.866
   2.356   2.856   3.162   3.364   3.468   3.583   3.628   3.583   3.468   3.364
   3.162   2.856   2.356   1.866   1.276   0.864   0.540   0.265   0.202   0.181
   0.173   0.079   0.130   0.121   0.106   0.121   0.130   0.079   0.173   0.181
   0.202   0.265   0.540   0.864   1.276   1.866   2.356   2.856   3.162   3.364
   3.468   3.583
   3.567   3.657   3.768   3.908   4.010   4.114   4.018   3.823   3.134   2.265
   1.371   0.666   0.382   0.285   0.166   0.163   0.166   0.154   0.112   0.154
   0.166   0.163   0.166   0.285   0.382   0.666   1.371   2.265   3.134   3.823
   4.018   4.114   4.010   3.908   3.768   3.657   3.567   3.657   3.768   3.908
   4.010   4.114   4.018   3.823   3.134   2.265   1.371   0.666   0.382   0.285
   0.166   0.163   0.166   0.154   0.112   0.154   0.166   0.163   0.166   0.285
   0.382   0.666   1.371   2.265   3.134   3.823   4.018   4.114   4.010   3.908
   3.768   3.657
   1.403   1.537   1.713   1.861   2.176   2.542   2.935   3.529   3.727   3.495
   2.806   1.701   0.888   0.572   0.333   0.313   0.292   0.256   0.245   0.256
   0.292   0.313   0.333   0.572   0.888   1.701   2.806   3.495   3.727   3.529
   2.935   2.542   2.176   1.861   1.713   1.537   1.403   1.537   1.713   1.861
   2.176   2.542   2.935   3.529   3.727   3.495   2.806   1.701   0.888   0.572
   0.333   0.313   0.292   0.256   0.245   0.256   0.292   0.313   0.333   0.572
   0.888   1.701   2.806   3.495   3.727   3.529   2.935   2.542   2.176   1.861
   1.713   1.537
   0.337   0.331   0.440   0.356   0.505   0.664   0.837   1.398   2.045   2.676
   3.328   2.789   1.543   0.921   0.658   0.463   0.436   0.388   0.392   0.388
   0.436   0.463   0.658   0.921   1.543   2.789   3.328   2.676   2.045   1.398
   0.837   0.664   0.505   0.356   0.440   0.331   0.337   0.331   0.440   0.356
   0.505   0.664   0.837   1.398   2.045   2.676   3.328   2.789   1.543   0.921
   0.658   0.463   0.436   0.388   0.392   0.388   0.436   0.463   0.658   0.921
   1.543   2.789   3.328   2.676   2.045   1.398   0.837   0.664   0.505   0.356
   0.440   0.331
   0.076   0.116   0.161   0.122   0.151   0.193   0.193   0.383   0.623   1.203
   2.425   3.433   2.588   1.334   0.865   0.489   0.468   0.394   0.471   0.394
   0.468   0.489   0.865   1.334   2.588   3.433   2.425   1.203   0.623   0.383
   0.193   0.193   0.151   0.122   0.161   0.116   0.076   0.116   0.161   0.122
   0.151   0.193   0.193   0.383   0.623   1.203   2.425   3.433   2.588   1.334
   0.865   0.489   0.468   0.394   0.471   0.394   0.468   0.489   0.865   1.334
   2.588   3.433   2.425   1.203   0.623   0.383   0.193   0.193   0.151   0.122
   0.161   0.116
   0.090   0.056   0.106   0.098   0.071   0.145   0.097   0.185   0.304   0.675
   1.628   3.331   3.646   1.882   0.839   0.505   0.422   0.385   0.369   0.385
   0.422   0.505   0.839   1.882   3.646   3.331   1.628   0.675   0.304   0.185
   0.097   0.145   0.071   0.098   0.106   0.056   0.090   0.056   0.106   0.098
   0.071   0.145   0.097   0.185   0.304   0.675   1.628   3.331   3.646   1.882
   0.839   0.505   0.422   0.385   0.369   0.385   0.422   0.505   0.839   1.882
   3.646   3.331   1.628   0.675   0.304   0.185   0.097   0.145   0.071   0.098
   0.106   0.056
   0.136   0.058   0.163   0.106   0.077   0.109   0.098   0.135   0.257   0.538
   1.530   3.395   3.774   1.926   0.830   0.562   0.296   0.294   0.204   0.294
   0.296   0.562   0.830   1.926   3.774   3.395   1.530   0.538   0.257   0.135
   0.098   0.109   0.077   0.106   0.163   0.058   0.136   0.058   0.163   0.106
   0.077   0.109   0.098   0.135   0.257   0.538   1.530   3.395   3.774   1.926
   0.830   0.562   0.296   0.294   0.204   0.294   0.296   0.562   0.830   1.926
   3.774   3.395   1.530   0.538   0.257   0.135   0.098   0.109   0.077   0.106
   0.163   0.058
   0.097   0.145   0.286   0.225   0.210   0.215   0.149   0.292   0.383   0.884
   2.341   4.076   3.146   1.382   0.715   0.493   0.237   0.188   0.194   0.188
   0.237   0.493   0.715   1.382   3.146   4.076   2.341   0.884   0.383   0.292
   0.149   0.215   0.210   0.225   0.286   0.145   0.097   0.145   0.286   0.225
   0.210   0.215   0.149   0.292   0.383   0.884   2.341   4.076   3.146   1.382
   0.715   0.493   0.237   0.188   0.194   0.188   0.237   0.493   0.715   1.382
   3.146   4.076   2.341   0.884   0.383   0.292   0.149   0.215   0.210   0.225
   0.286   0.145
   0.203   0.174   0.293   0.294   0.340   0.292   0.260   0.575   1.004   2.395
   3.750   3.456   2.004   0.802   0.452   0.436   0.315   0.226   0.258   0.226
   0.315   0.436   0.452   0.802   2.004   3.456   3.750   2.395   1.004   0.575
   0.260   0.292   0.340   0.294   0.293   0.174   0.203   0.174   0.293   0.294
   0.340   0.292   0.260   0.575   1.004   2.395   3.750   3.456   2.004   0.802
   0.452   0.436   0.315   0.226   0.258   0.226   0.315   0.436   0.452   0.802
   2.004   3.456   3.750   2.395   1.004   0.575   0.260   0.292   0.340   0.294
   0.293   0.174
   0.278   0.246   0.215   0.301   0.379   0.486   0.578   1.193   2.165   3.322
   3.153   1.586   1.076   0.518   0.386   0.313   0.400   0.239   0.329   0.239
   0.400   0.313   0.386   0.518   1.076   1.586   3.153   3.322   2.165   1.193
   0.578   0.486   0.379   0.301   0.215   0.246   0.278   0.246   0.215   0.301
   0.379   0.486   0.578   1.193   2.165   3.322   3.153   1.586   1.076   0.518
   0.386   0.313   0.400   0.239   0.329   0.239   0.400   0.313   0.386   0.518
   1.076   1.586   3.153   3.322   2.165   1.193   0.578   0.486   0.379   0.301
   0.215   0.246
 111       5.00   72    0 5.00   15    0
   0.095   0.095   0.095   0.095   0.095   0.095   0.095   0.095   0.095   0.095
   0.095   0.095   0.095   0.095   0.095   0.095   0.095   0.095   0.095   0.095
   0.095   0.095   0.095   0.095   0.095   0.095   0.095   0.095   0.095   0.095
   0.095   0.095   0.095   0.095   0.095   0.095   0.095   0.095   0.095   0.095
   0.095   0.095   0.095   0.095   0.095   0.095   0.095   0.095   0.095   0.095
   0.095   0.095   0.095   0.095   0.095   0.095   0.095   0.095   0.095   0.095
   0.095   0.095   0.095   0.095   0.095   0.095   0.095   0.095   0.095   0.095
   0.095   0.095
   0.137   0.132   0.122   0.118   0.118   0.122   0.114   0.102   0.116   0.109
   0.098   0.109   0.100   0.101   0.109   0.096   0.100   0.099   0.087   0.099
   0.100   0.096   0.109   0.101   0.100   0.109   0.098   0.109   0.116   0.102
   0.114   0.122   0.118   0.118   0.122   0.132   0.137   0.132   0.122   0.118
   0.118   0.122   0.114   0.102   0.116   0.109   0.098   0.109   0.100   0.101
   0.109   0.096   0.100   0.099   0.087   0.099   0.100   0.096   0.109   0.101
   0.100   0.109   0.098   0.109   0.116   0.102   0.114   0.122   0.118   0.118
   0.122   0.132
   0.375   0.362   0.318   0.268   0.241   0.198   0.161   0.131   0.131   0.123
   0.104   0.096   0.094   0.088   0.098   0.103   0.097   0.093   0.087   0.093
   0.097   0.103   0.098   0.088   0.094   0.096   0.104   0.123   0.131   0.131
   0.161   0.198   0.241   0.268   0.318   0.362   0.375   0.362   0.318   0.268
   0.241   0.198   0.161   0.131   0.131   0.123   0.104   0.096   0.094   0.088
   0.098   0.103   0.097   0.093   0.087   0.093   0.097   0.103   0.098   0.088
   0.094   0.096   0.104   0.123   0.131   0.131   0.161   0.198   0.241   0.268
   0.318   0.362
   2.291   2.107   1.743   1.287   0.869   0.542   0.345   0.209   0.154   0.113
   0.090   0.073   0.056   0.049   0.055   0.068   0.056   0.059   0.046   0.059
   0.056   0.068   0.055   0.049   0.056   0.073   0.090   0.113   0.154   0.209
   0.345   0.542   0.869   1.287   1.743   2.107   2.291   2.107   1.743   1.287
   0.869   0.542   0.345   0.209   0.154   0.113   0.090   0.073   0.056   0.049
   0.055   0.068   0.056   0.059   0.046   0.059   0.056   0.068   0.055   0.049
   0.056   0.073   0.090   0.113   0.154   0.209   0.345   0.542   0.869   1.287
   1.743   2.107
   7.197   6.784   5.670   4.367   3.003   1.861   1.093   0.584   0.320   0.177
   0.069   0.041   0.028   0.015   0.011   0.016   0.016   0.016   0.004   0.016
   0.016   0.016   0.011   0.015   0.028   0.041   0.069   0.177   0.320   0.584
   1.093   1.861   3.003   4.367   5.670   6.784   7.197   6.784   5.670   4.367
   3.003   1.861   1.093   0.584   0.320   0.177   0.069   0.041   0.028   0.015
   0.011   0.016   0.016   0.016   0.004   0.016   0.016   0.016   0.011   0.015
   0.028   0.041   0.069   0.177   0.320   0.584   1.093   1.861   3.003   4.367
   5.670   6.784
   8.063   7.809   6.794   5.746   4.582   3.547   2.506   1.580   0.900   0.462
   0.242   0.140   0.095   0.071   0.062   0.050   0.046   0.039   0.018   0.039
   0.046   0.050   0.062   0.071   0.095   0.140   0.242   0.462   0.900   1.580
   2.506   3.547   4.582   5.746   6.794   7.809   8.063   7.809   6.794   5.746
   4.582   3.547   2.506   1.580   0.900   0.462   0.242   0.140   0.095   0.071
   0.062   0.050   0.046   0.039   0.018   0.039   0.046   0.050   0.062   0.071
   0.095   0.140   0.242   0.462   0.900   1.580   2.506   3.547   4.582   5.746
   6.794   7.809
   3.664   3.676   3.397   3.316   3.228   3.172   3.031   2.590   1.893   1.103
   0.626   0.381   0.230   0.176   0.153   0.129   0.111   0.103   0.049   0.103
   0.111   0.129   0.153   0.176   0.230   0.381   0.626   1.103   1.893   2.590
   3.031   3.172   3.228   3.316   3.397   3.676   3.664   3.676   3.397   3.316
   3.228   3.172   3.031   2.590   1.893   1.103   0.626   0.381   0.230   0.176
   0.153   0.129   0.111   0.103   0.049   0.103   0.111   0.129   0.153   0.176
   0.230   0.381   0.626   1.103   1.893   2.590   3.031   3.172   3.228   3.316
   3.397   3.676
   1.087   1.146   1.060   1.131   1.334   1.562   2.018   2.433   2.487   2.028
   1.176   0.688   0.421   0.255   0.247   0.199   0.141   0.149   0.110   0.149
   0.141   0.199   0.247   0.255   0.421   0.688   1.176   2.028   2.487   2.433
   2.018   1.562   1.334   1.131   1.060   1.146   1.087   1.146   1.060   1.131
   1.334   1.562   2.018   2.433   2.487   2.028   1.176   0.688   0.421   0.255
   0.247   0.199   0.141   0.149   0.110   0.149   0.141   0.199   0.247   0.255
   0.421   0.688   1.176   2.028   2.487   2.433   2.018   1.562   1.334   1.131
   1.060   1.146
   0.453   0.434   0.434   0.414   0.511   0.668   0.864   1.420   2.082   2.482
   2.119   1.310   0.699   0.417   0.307   0.245   0.202   0.194   0.213   0.194
   0.202   0.245   0.307   0.417   0.699   1.310   2.119   2.482   2.082   1.420
   0.864   0.668   0.511   0.414   0.434   0.434   0.453   0.434   0.434   0.414
   0.511   0.668   0.864   1.420   2.082   2.482   2.119   1.310   0.699   0.417
   0.307   0.245   0.202   0.194   0.213   0.194   0.202   0.245   0.307   0.417
   0.699   1.310   2.119   2.482   2.082   1.420   0.864   0.668   0.511   0.414
   0.434   0.434
   0.275   0.251   0.234   0.226   0.194   0.252   0.348   0.637   1.242   1.955
   2.533   2.203   1.414   0.853   0.500   0.349   0.327   0.247   0.314   0.247
   0.327   0.349   0.500   0.853   1.414   2.203   2.533   1.955   1.242   0.637
   0.348   0.252   0.194   0.226   0.234   0.251   0.275   0.251   0.234   0.226
   0.194   0.252   0.348   0.637   1.242   1.955   2.533   2.203   1.414   0.853
   0.500   0.349   0.327   0.247   0.314   0.247   0.327   0.349   0.500   0.853
   1.414   2.203   2.533   1.955   1.242   0.637   0.348   0.252   0.194   0.226
   0.234   0.251
   0.236   0.236   0.222   0.199   0.109   0.151   0.179   0.299   0.608   1.071
   1.803   2.279   2.341   1.803   1.112   0.696   0.568   0.396   0.426   0.396
   0.568   0.696   1.112   1.803   2.341   2.279   1.803   1.071   0.608   0.299
   0.179   0.151   0.109   0.199   0.222   0.236   0.236   0.236   0.222   0.199
   0.109   0.151   0.179   0.299   0.608   1.071   1.803   2.279   2.341   1.803
   1.112   0.696   0.568   0.396   0.426   0.396   0.568   0.696   1.112   1.803
   2.341   2.279   1.803   1.071   0.608   0.299   0.179   0.151   0.109   0.199
   0.222   0.236
   0.281   0.219   0.217   0.200   0.118   0.107   0.117   0.184   0.277   0.502
   0.853   1.377   2.065   2.286   1.996   1.506   0.961   0.621   0.617   0.621
   0.961   1.506   1.996   2.286   2.065   1.377   0.853   0.502   0.277   0.184
   0.117   0.107   0.118   0.200   0.217   0.219   0.281   0.219   0.217   0.200
   0.118   0.107   0.117   0.184   0.277   0.502   0.853   1.377   2.065   2.286
   1.996   1.506   0.961   0.621   0.617   0.621   0.961   1.506   1.996   2.286
   2.065   1.377   0.853   0.502   0.277   0.184   0.117   0.107   0.118   0.200
   0.217   0.219
   0.372   0.246   0.215   0.123   0.163   0.093   0.107   0.136   0.200   0.324
   0.370   0.586   0.953   1.502   2.080   2.242   1.739   1.164   0.935   1.164
   1.739   2.242   2.080   1.502   0.953   0.586   0.370   0.324   0.200   0.136
   0.107   0.093   0.163   0.123   0.215   0.246   0.372   0.246   0.215   0.123
   0.163   0.093   0.107   0.136   0.200   0.324   0.370   0.586   0.953   1.502
   2.080   2.242   1.739   1.164   0.935   1.164   1.739   2.242   2.080   1.502
   0.953   0.586   0.370   0.324   0.200   0.136   0.107   0.093   0.163   0.123
   0.215   0.246
   0.449   0.278   0.235   0.099   0.132   0.099   0.194   0.154   0.223   0.255
   0.205   0.259   0.370   0.569   1.169   1.932   2.278   1.833   1.509   1.833
   2.278   1.932   1.169   0.569   0.370   0.259   0.205   0.255   0.223   0.154
   0.194   0.099   0.132   0.099   0.235   0.278   0.449   0.278   0.235   0.099
   0.132   0.099   0.194   0.154   0.223   0.255   0.205   0.259   0.370   0.569
   1.169   1.932   2.278   1.833   1.509   1.833   2.278   1.932   1.169   0.569
   0.370   0.259   0.205   0.255   0.223   0.154   0.194   0.099   0.132   0.099
   0.235   0.278
   0.478   0.369   0.277   0.308   0.135   0.081   0.259   0.276   0.323   0.188
   0.140   0.228   0.264   0.318   0.554   1.094   1.924   2.141   2.100   2.141
   1.924   1.094   0.554   0.318   0.264   0.228   0.140   0.188   0.323   0.276
   0.259   0.081   0.135   0.308   0.277   0.369   0.478   0.369   0.277   0.308
   0.135   0.081   0.259   0.276   0.323   0.188   0.140   0.228   0.264   0.318
   0.554   1.094   1.924   2.141   2.100   2.141   1.924   1.094   0.554   0.318
   0.264   0.228   0.140   0.188   0.323   0.276   0.259   0.081   0.135   0.308
   0.277   0.369
  4  1     -5.7087602E-01
  4  2      1.3311901E-01
  4  3     -2.1006982E+00
  6  1      2.2069142E+00
  6  2     -4.7249628E+00
  6  3      1.9572844E+00
  6  4      3.2366343E-01
  8  1     -6.7208400E-01
  8  2      3.2276122E-01
  8  3      6.1966020E-02
  8  4      2.3170258E+00
  8  5      1.0380598E+00
 10  1     -1.3835183E+00
 10  2      1.2242682E+00
 10  3      1.0125295E+00
 10  4      5.6346852E-01
 10  5     -7.2458478E-02
 10  6     -9.7225430E-01
 12  1      1.8895622E-01  2.0536623E+00
 12  2     -2.3835191E-01 -3.1592824E+00
 12  3     -8.2054583E-02  4.0510928E+00
 12  4     -3.3926595E-01 -2.1820390E+00
 12  5     -2.2876739E-01 -3.1057327E-01
 12  6     -2.4147153E+00  8.8999445E-01
 12  7      7.8882552E-02  2.6774197E-02
 14  1     -4.6764547E-01
 14  2      6.8337753E-01
 14  3     -5.5075070E-01
 14  4     -2.5738645E-02
 14  5     -1.8570936E+00
 14  6      8.9773801E-01
 14  7      2.6667289E-02
 14  8      2.9059754E-01
 16  1     -4.5760818E-02 -8.5532364E-01
 16  2     -2.2955684E-01  1.3723440E+00
 16  3      5.6485792E-01 -6.6132559E-01
 16  4     -3.0043014E-01 -9.8706366E-01
 16  5      2.7312605E-02  3.4112941E-01
 16  6      8.4232589E-02  1.1322011E-01
 16  7      1.2460464E+00  1.1376848E-01
 16  8      9.8362044E-01 -2.7714223E-01
 16  9     -1.1088425E-01  2.9803945E-01
 220       5.00   72    0 5.00   18    0
   2.698   2.699   2.703   2.710   2.720   2.731   2.745   2.759   2.775   2.792
   2.809   2.825   2.840   2.854   2.866   2.876   2.883   2.887   2.889   2.887
   2.883   2.876   2.866   2.854   2.840   2.825   2.809   2.792   2.775   2.759
   2.745   2.731   2.720   2.710   2.703   2.699   2.698   2.699   2.703   2.710
   2.720   2.731   2.745   2.759   2.775   2.792   2.809   2.825   2.840   2.854
   2.866   2.876   2.883   2.887   2.889   2.887   2.883   2.876   2.866   2.854
   2.840   2.825   2.809   2.792   2.775   2.759   2.745   2.731   2.720   2.710
   2.703   2.699
   1.618   1.627   1.653   1.696   1.756   1.832   1.924   2.030   2.148   2.275
   2.409   2.544   2.676   2.799   2.909   3.001   3.070   3.113   3.127   3.113
   3.070   3.001   2.909   2.799   2.676   2.544   2.409   2.275   2.148   2.030
   1.924   1.832   1.756   1.696   1.653   1.627   1.618   1.627   1.653   1.696
   1.756   1.832   1.924   2.030   2.148   2.275   2.409   2.544   2.676   2.799
   2.909   3.001   3.070   3.113   3.127   3.113   3.070   3.001   2.909   2.799
   2.676   2.544   2.409   2.275   2.148   2.030   1.924   1.832   1.756   1.696
   1.653   1.627
   0.308   0.317   0.343   0.390   0.461   0.561   0.696   0.868   1.082   1.335
   1.624   1.939   2.268   2.594   2.897   3.159   3.361   3.488   3.532   3.488
   3.361   3.159   2.897   2.594   2.268   1.939   1.624   1.335   1.082   0.868
   0.696   0.561   0.461   0.390   0.343   0.317   0.308   0.317   0.343   0.390
   0.461   0.561   0.696   0.868   1.082   1.335   1.624   1.939   2.268   2.594
   2.897   3.159   3.361   3.488   3.532   3.488   3.361   3.159   2.897   2.594
   2.268   1.939   1.624   1.335   1.082   0.868   0.696   0.561   0.461   0.390
   0.343   0.317
  -0.314  -0.319  -0.331  -0.345  -0.352  -0.338  -0.287  -0.177   0.008   0.282
   0.651   1.107   1.629   2.183   2.728   3.217   3.605   3.853   3.939   3.853
   3.605   3.217   2.728   2.183   1.629   1.107   0.651   0.282   0.008  -0.177
  -0.287  -0.338  -0.352  -0.345  -0.331  -0.319  -0.314  -0.319  -0.331  -0.345
  -0.352  -0.338  -0.287  -0.177   0.008   0.282   0.651   1.107   1.629   2.183
   2.728   3.217   3.605   3.853   3.939   3.853   3.605   3.217   2.728   2.183
   1.629   1.107   0.651   0.282   0.008  -0.177  -0.287  -0.338  -0.352  -0.345
  -0.331  -0.319
  -0.095  -0.108  -0.149  -0.220  -0.317  -0.430  -0.536  -0.599  -0.575  -0.423
  -0.114   0.357   0.970   1.676   2.405   3.081   3.627   3.982   4.105   3.982
   3.627   3.081   2.405   1.676   0.970   0.357  -0.114  -0.423  -0.575  -0.599
  -0.536  -0.430  -0.317  -0.220  -0.149  -0.108  -0.095  -0.108  -0.149  -0.220
  -0.317  -0.430  -0.536  -0.599  -0.575  -0.423  -0.114   0.357   0.970   1.676
   2.405   3.081   3.627   3.982   4.105   3.982   3.627   3.081   2.405   1.676
   0.970   0.357  -0.114  -0.423  -0.575  -0.599  -0.536  -0.430  -0.317  -0.220
  -0.149  -0.108
   0.279   0.283   0.287   0.268   0.200   0.067  -0.123  -0.331  -0.489  -0.520
  -0.362   0.013   0.585   1.292   2.045   2.747   3.314   3.680   3.806   3.680
   3.314   2.747   2.045   1.292   0.585   0.013  -0.362  -0.520  -0.489  -0.331
  -0.123   0.067   0.200   0.268   0.287   0.283   0.279   0.283   0.287   0.268
   0.200   0.067  -0.123  -0.331  -0.489  -0.520  -0.362   0.013   0.585   1.292
   2.045   2.747   3.314   3.680   3.806   3.680   3.314   2.747   2.045   1.292
   0.585   0.013  -0.362  -0.520  -0.489  -0.331  -0.123   0.067   0.200   0.268
   0.287   0.283
   0.064   0.106   0.217   0.358   0.471   0.492   0.388   0.182  -0.047  -0.186
  -0.139   0.135   0.607   1.192   1.786   2.302   2.687   2.919   2.996   2.919
   2.687   2.302   1.786   1.192   0.607   0.135  -0.139  -0.186  -0.047   0.182
   0.388   0.492   0.471   0.358   0.217   0.106   0.064   0.106   0.217   0.358
   0.471   0.492   0.388   0.182  -0.047  -0.186  -0.139   0.135   0.607   1.192
   1.786   2.302   2.687   2.919   2.996   2.919   2.687   2.302   1.786   1.192
   0.607   0.135  -0.139  -0.186  -0.047   0.182   0.388   0.492   0.471   0.358
   0.217   0.106
  -0.608  -0.556  -0.398  -0.142   0.160   0.408   0.510   0.439   0.272   0.152
   0.206   0.475   0.892   1.331   1.673   1.862   1.915   1.902   1.888   1.902
   1.915   1.862   1.673   1.331   0.892   0.475   0.206   0.152   0.272   0.439
   0.510   0.408   0.160  -0.142  -0.398  -0.556  -0.608  -0.556  -0.398  -0.142
   0.160   0.408   0.510   0.439   0.272   0.152   0.206   0.475   0.892   1.331
   1.673   1.862   1.915   1.902   1.888   1.902   1.915   1.862   1.673   1.331
   0.892   0.475   0.206   0.152   0.272   0.439   0.510   0.408   0.160  -0.142
  -0.398  -0.556
  -0.640  -0.668  -0.691  -0.587  -0.312   0.039   0.297   0.358   0.276   0.221
   0.352   0.698   1.142   1.499   1.627   1.506   1.234   0.973   0.868   0.973
   1.234   1.506   1.627   1.499   1.142   0.698   0.352   0.221   0.276   0.358
   0.297   0.039  -0.312  -0.587  -0.691  -0.668  -0.640  -0.668  -0.691  -0.587
  -0.312   0.039   0.297   0.358   0.276   0.221   0.352   0.698   1.142   1.499
   1.627   1.506   1.234   0.973   0.868   0.973   1.234   1.506   1.627   1.499
   1.142   0.698   0.352   0.221   0.276   0.358   0.297   0.039  -0.312  -0.587
  -0.691  -0.668
   1.004   0.781   0.283  -0.134  -0.222  -0.026   0.203   0.259   0.156   0.086
   0.241   0.644   1.136   1.486   1.530   1.259   0.811   0.409   0.248   0.409
   0.811   1.259   1.530   1.486   1.136   0.644   0.241   0.086   0.156   0.259
   0.203  -0.026  -0.222  -0.134   0.283   0.781   1.004   0.781   0.283  -0.134
  -0.222  -0.026   0.203   0.259   0.156   0.086   0.241   0.644   1.136   1.486
   1.530   1.259   0.811   0.409   0.248   0.409   0.811   1.259   1.530   1.486
   1.136   0.644   0.241   0.086   0.156   0.259   0.203  -0.026  -0.222  -0.134
   0.283   0.781
   4.010   3.541   2.424   1.297   0.643   0.491   0.521   0.430   0.190  -0.001
   0.060   0.403   0.876   1.251   1.348   1.117   0.668   0.237   0.059   0.237
   0.668   1.117   1.348   1.251   0.876   0.403   0.060  -0.001   0.190   0.430
   0.521   0.491   0.643   1.297   2.424   3.541   4.010   3.541   2.424   1.297
   0.643   0.491   0.521   0.430   0.190  -0.001   0.060   0.403   0.876   1.251
   1.348   1.117   0.668   0.237   0.059   0.237   0.668   1.117   1.348   1.251
   0.876   0.403   0.060  -0.001   0.190   0.430   0.521   0.491   0.643   1.297
   2.424   3.541
   6.541   5.907   4.377   2.766   1.706   1.265   1.095   0.855   0.487   0.162
   0.053   0.211   0.557   0.938   1.161   1.076   0.700   0.261   0.068   0.261
   0.700   1.076   1.161   0.938   0.557   0.211   0.053   0.162   0.487   0.855
   1.095   1.265   1.706   2.766   4.377   5.907   6.541   5.907   4.377   2.766
   1.706   1.265   1.095   0.855   0.487   0.162   0.053   0.211   0.557   0.938
   1.161   1.076   0.700   0.261   0.068   0.261   0.700   1.076   1.161   0.938
   0.557   0.211   0.053   0.162   0.487   0.855   1.095   1.265   1.706   2.766
   4.377   5.907
   6.645   6.049   4.620   3.130   2.156   1.740   1.557   1.318   0.970   0.616
   0.359   0.269   0.403   0.738   1.074   1.126   0.781   0.282   0.046   0.282
   0.781   1.126   1.074   0.738   0.403   0.269   0.359   0.616   0.970   1.318
   1.557   1.740   2.156   3.130   4.620   6.049   6.645   6.049   4.620   3.130
   2.156   1.740   1.557   1.318   0.970   0.616   0.359   0.269   0.403   0.738
   1.074   1.126   0.781   0.282   0.046   0.282   0.781   1.126   1.074   0.738
   0.403   0.269   0.359   0.616   0.970   1.318   1.557   1.740   2.156   3.130
   4.620   6.049
   4.096   3.740   2.916   2.134   1.728   1.655   1.671   1.609   1.448   1.209
   0.897   0.597   0.504   0.730   1.097   1.215   0.871   0.308   0.034   0.308
   0.871   1.215   1.097   0.730   0.504   0.597   0.897   1.209   1.448   1.609
   1.671   1.655   1.728   2.134   2.916   3.740   4.096   3.740   2.916   2.134
   1.728   1.655   1.671   1.609   1.448   1.209   0.897   0.597   0.504   0.730
   1.097   1.215   0.871   0.308   0.034   0.308   0.871   1.215   1.097   0.730
   0.504   0.597   0.897   1.209   1.448   1.609   1.671   1.655   1.728   2.134
   2.916   3.740
   0.785   0.720   0.618   0.652   0.873   1.172   1.417   1.574   1.658   1.620
   1.384   1.016   0.763   0.833   1.122   1.262   1.010   0.544   0.311   0.544
   1.010   1.262   1.122   0.833   0.763   1.016   1.384   1.620   1.658   1.574
   1.417   1.172   0.873   0.652   0.618   0.720   0.785   0.720   0.618   0.652
   0.873   1.172   1.417   1.574   1.658   1.620   1.384   1.016   0.763   0.833
   1.122   1.262   1.010   0.544   0.311   0.544   1.010   1.262   1.122   0.833
   0.763   1.016   1.384   1.620   1.658   1.574   1.417   1.172   0.873   0.652
   0.618   0.720
  -0.961  -0.861  -0.580  -0.176   0.249   0.609   0.889   1.144   1.398   1.570
   1.536   1.288   1.005   0.906   1.031   1.206   1.240   1.139   1.072   1.139
   1.240   1.206   1.031   0.906   1.005   1.288   1.536   1.570   1.398   1.144
   0.889   0.609   0.249  -0.176  -0.580  -0.861  -0.961  -0.861  -0.580  -0.176
   0.249   0.609   0.889   1.144   1.398   1.570   1.536   1.288   1.005   0.906
   1.031   1.206   1.240   1.139   1.072   1.139   1.240   1.206   1.031   0.906
   1.005   1.288   1.536   1.570   1.398   1.144   0.889   0.609   0.249  -0.176
  -0.580  -0.861
  -0.535  -0.445  -0.233  -0.021   0.111   0.180   0.272   0.466   0.773   1.109
   1.331   1.330   1.125   0.886   0.832   1.071   1.516   1.938   2.110   1.938
   1.516   1.071   0.832   0.886   1.125   1.330   1.331   1.109   0.773   0.466
   0.272   0.180   0.111  -0.021  -0.233  -0.445  -0.535  -0.445  -0.233  -0.021
   0.111   0.180   0.272   0.466   0.773   1.109   1.331   1.330   1.125   0.886
   0.832   1.071   1.516   1.938   2.110   1.938   1.516   1.071   0.832   0.886
   1.125   1.330   1.331   1.109   0.773   0.466   0.272   0.180   0.111  -0.021
  -0.233  -0.445
   0.566   0.584   0.579   0.456   0.211  -0.040  -0.155  -0.060   0.238   0.663
   1.069   1.267   1.148   0.833   0.663   0.957   1.709   2.521   2.870   2.521
   1.709   0.957   0.663   0.833   1.148   1.267   1.069   0.663   0.238  -0.060
  -0.155  -0.040   0.211   0.456   0.579   0.584   0.566   0.584   0.579   0.456
   0.211  -0.040  -0.155  -0.060   0.238   0.663   1.069   1.267   1.148   0.833
   0.663   0.957   1.709   2.521   2.870   2.521   1.709   0.957   0.663   0.833
   1.148   1.267   1.069   0.663   0.238  -0.060  -0.155  -0.040   0.211   0.456
   0.579   0.584
 200       5.00   72    0 5.00   18    0
   0.340   0.341   0.342   0.344   0.347   0.351   0.355   0.360   0.365   0.371
   0.376   0.381   0.386   0.391   0.395   0.398   0.401   0.402   0.403   0.402
   0.401   0.398   0.395   0.391   0.386   0.381   0.376   0.371   0.365   0.360
   0.355   0.351   0.347   0.344   0.342   0.341   0.340   0.341   0.342   0.344
   0.347   0.351   0.355   0.360   0.365   0.371   0.376   0.381   0.386   0.391
   0.395   0.398   0.401   0.402   0.403   0.402   0.401   0.398   0.395   0.391
   0.386   0.381   0.376   0.371   0.365   0.360   0.355   0.351   0.347   0.344
   0.342   0.341
   0.034   0.035   0.040   0.049   0.061   0.078   0.099   0.125   0.156   0.191
   0.231   0.273   0.316   0.358   0.396   0.429   0.455   0.470   0.476   0.470
   0.455   0.429   0.396   0.358   0.316   0.273   0.231   0.191   0.156   0.125
   0.099   0.078   0.061   0.049   0.040   0.035   0.034   0.035   0.040   0.049
   0.061   0.078   0.099   0.125   0.156   0.191   0.231   0.273   0.316   0.358
   0.396   0.429   0.455   0.470   0.476   0.470   0.455   0.429   0.396   0.358
   0.316   0.273   0.231   0.191   0.156   0.125   0.099   0.078   0.061   0.049
   0.040   0.035
  -0.096  -0.099  -0.107  -0.120  -0.134  -0.147  -0.156  -0.155  -0.141  -0.108
  -0.054   0.020   0.113   0.218   0.326   0.426   0.508   0.561   0.580   0.561
   0.508   0.426   0.326   0.218   0.113   0.020  -0.054  -0.108  -0.141  -0.155
  -0.156  -0.147  -0.134  -0.120  -0.107  -0.099  -0.096  -0.099  -0.107  -0.120
  -0.134  -0.147  -0.156  -0.155  -0.141  -0.108  -0.054   0.020   0.113   0.218
   0.326   0.426   0.508   0.561   0.580   0.561   0.508   0.426   0.326   0.218
   0.113   0.020  -0.054  -0.108  -0.141  -0.155  -0.156  -0.147  -0.134  -0.120
  -0.107  -0.099
   0.475   0.464   0.432   0.378   0.302   0.205   0.093  -0.025  -0.135  -0.219
  -0.261  -0.246  -0.170  -0.038   0.133   0.316   0.479   0.591   0.631   0.591
   0.479   0.316   0.133  -0.038  -0.170  -0.246  -0.261  -0.219  -0.135  -0.025
   0.093   0.205   0.302   0.378   0.432   0.464   0.475   0.464   0.432   0.378
   0.302   0.205   0.093  -0.025  -0.135  -0.219  -0.261  -0.246  -0.170  -0.038
   0.133   0.316   0.479   0.591   0.631   0.591   0.479   0.316   0.133  -0.038
  -0.170  -0.246  -0.261  -0.219  -0.135  -0.025   0.093   0.205   0.302   0.378
   0.432   0.464
   1.727   1.716   1.680   1.614   1.509   1.355   1.146   0.883   0.581   0.272
  -0.005  -0.206  -0.296  -0.260  -0.113   0.103   0.327   0.495   0.557   0.495
   0.327   0.103  -0.113  -0.260  -0.296  -0.206  -0.005   0.272   0.581   0.883
   1.146   1.355   1.509   1.614   1.680   1.716   1.727   1.716   1.680   1.614
   1.509   1.355   1.146   0.883   0.581   0.272  -0.005  -0.206  -0.296  -0.260
  -0.113   0.103   0.327   0.495   0.557   0.495   0.327   0.103  -0.113  -0.260
  -0.296  -0.206  -0.005   0.272   0.581   0.883   1.146   1.355   1.509   1.614
   1.680   1.716
   2.920   2.912   2.890   2.852   2.793   2.690   2.514   2.236   1.847   1.366
   0.844   0.354  -0.024  -0.229  -0.242  -0.098   0.120   0.309   0.383   0.309
   0.120  -0.098  -0.242  -0.229  -0.024   0.354   0.844   1.366   1.847   2.236
   2.514   2.690   2.793   2.852   2.890   2.912   2.920   2.912   2.890   2.852
   2.793   2.690   2.514   2.236   1.847   1.366   0.844   0.354  -0.024  -0.229
  -0.242  -0.098   0.120   0.309   0.383   0.309   0.120  -0.098  -0.242  -0.229
  -0.024   0.354   0.844   1.366   1.847   2.236   2.514   2.690   2.793   2.852
   2.890   2.912
   3.158   3.139   3.099   3.075   3.091   3.132   3.149   3.072   2.847   2.448
   1.895   1.254   0.629   0.140  -0.123  -0.144   0.001   0.176   0.252   0.176
   0.001  -0.144  -0.123   0.140   0.629   1.254   1.895   2.448   2.847   3.072
   3.149   3.132   3.091   3.075   3.099   3.139   3.158   3.139   3.099   3.075
   3.091   3.132   3.149   3.072   2.847   2.448   1.895   1.254   0.629   0.140
  -0.123  -0.144   0.001   0.176   0.252   0.176   0.001  -0.144  -0.123   0.140
   0.629   1.254   1.895   2.448   2.847   3.072   3.149   3.132   3.091   3.075
   3.099   3.139
   2.245   2.197   2.096   2.040   2.102   2.284   2.524   2.738   2.853   2.807
   2.547   2.054   1.391   0.712   0.208   0.000   0.061   0.227   0.309   0.227
   0.061   0.000   0.208   0.712   1.391   2.054   2.547   2.807   2.853   2.738
   2.524   2.284   2.102   2.040   2.096   2.197   2.245   2.197   2.096   2.040
   2.102   2.284   2.524   2.738   2.853   2.807   2.547   2.054   1.391   0.712
   0.208   0.000   0.061   0.227   0.309   0.227   0.061   0.000   0.208   0.712
   1.391   2.054   2.547   2.807   2.853   2.738   2.524   2.284   2.102   2.040
   2.096   2.197
   0.924   0.851   0.704   0.631   0.722   0.955   1.254   1.580   1.945   2.320
   2.567   2.495   2.019   1.278   0.585   0.219   0.235   0.435   0.544   0.435
   0.235   0.219   0.585   1.278   2.019   2.495   2.567   2.320   1.945   1.580
   1.254   0.955   0.722   0.631   0.704   0.851   0.924   0.851   0.704   0.631
   0.722   0.955   1.254   1.580   1.945   2.320   2.567   2.495   2.019   1.278
   0.585   0.219   0.235   0.435   0.544   0.435   0.235   0.219   0.585   1.278
   2.019   2.495   2.567   2.320   1.945   1.580   1.254   0.955   0.722   0.631
   0.704   0.851
   0.141   0.068  -0.058  -0.073   0.068   0.244   0.351   0.470   0.822   1.501
   2.281   2.722   2.513   1.749   0.878   0.367   0.359   0.617   0.761   0.617
   0.359   0.367   0.878   1.749   2.513   2.722   2.281   1.501   0.822   0.470
   0.351   0.244   0.068  -0.073  -0.058   0.068   0.141   0.068  -0.058  -0.073
   0.068   0.244   0.351   0.470   0.822   1.501   2.281   2.722   2.513   1.749
   0.878   0.367   0.359   0.617   0.761   0.617   0.359   0.367   0.878   1.749
   2.513   2.722   2.281   1.501   0.822   0.470   0.351   0.244   0.068  -0.073
  -0.058   0.068
   0.138   0.079   0.009   0.089   0.275   0.321   0.101  -0.135   0.082   0.971
   2.185   3.021   2.970   2.123   1.066   0.407   0.342   0.601   0.754   0.601
   0.342   0.407   1.066   2.123   2.970   3.021   2.185   0.971   0.082  -0.135
   0.101   0.321   0.275   0.089   0.009   0.079   0.138   0.079   0.009   0.089
   0.275   0.321   0.101  -0.135   0.082   0.971   2.185   3.021   2.970   2.123
   1.066   0.407   0.342   0.601   0.754   0.601   0.342   0.407   1.066   2.123
   2.970   3.021   2.185   0.971   0.082  -0.135   0.101   0.321   0.275   0.089
   0.009   0.079
   0.382   0.329   0.285   0.404   0.579   0.498   0.065  -0.326  -0.066   1.045
   2.490   3.406   3.274   2.295   1.147   0.423   0.263   0.409   0.508   0.409
   0.263   0.423   1.147   2.295   3.274   3.406   2.490   1.045  -0.066  -0.326
   0.065   0.498   0.579   0.404   0.285   0.329   0.382   0.329   0.285   0.404
   0.579   0.498   0.065  -0.326  -0.066   1.045   2.490   3.406   3.274   2.295
   1.147   0.423   0.263   0.409   0.508   0.409   0.263   0.423   1.147   2.295
   3.274   3.406   2.490   1.045  -0.066  -0.326   0.065   0.498   0.579   0.404
   0.285   0.329
   0.315   0.264   0.221   0.322   0.458   0.359   0.013  -0.136   0.429   1.701
   3.010   3.559   3.094   2.043   1.055   0.482   0.273   0.229   0.224   0.229
   0.273   0.482   1.055   2.043   3.094   3.559   3.010   1.701   0.429  -0.136
   0.013   0.359   0.458   0.322   0.221   0.264   0.315   0.264   0.221   0.322
   0.458   0.359   0.013  -0.136   0.429   1.701   3.010   3.559   3.094   2.043
   1.055   0.482   0.273   0.229   0.224   0.229   0.273   0.482   1.055   2.043
   3.094   3.559   3.010   1.701   0.429  -0.136   0.013   0.359   0.458   0.322
   0.221   0.264
  -0.023  -0.054  -0.068   0.037   0.193   0.251   0.282   0.624   1.503   2.635
   3.344   3.163   2.279   1.321   0.756   0.550   0.408   0.216   0.115   0.216
   0.408   0.550   0.756   1.321   2.279   3.163   3.344   2.635   1.503   0.624
   0.282   0.251   0.193   0.037  -0.068  -0.054  -0.023  -0.054  -0.068   0.037
   0.193   0.251   0.282   0.624   1.503   2.635   3.344   3.163   2.279   1.321
   0.756   0.550   0.408   0.216   0.115   0.216   0.408   0.550   0.756   1.321
   2.279   3.163   3.344   2.635   1.503   0.624   0.282   0.251   0.193   0.037
  -0.068  -0.054
  -0.170  -0.176  -0.147  -0.012   0.234   0.573   1.073   1.822   2.697   3.276
   3.129   2.255   1.171   0.489   0.387   0.536   0.533   0.336   0.214   0.336
   0.533   0.536   0.387   0.489   1.171   2.255   3.129   3.276   2.697   1.822
   1.073   0.573   0.234  -0.012  -0.147  -0.176  -0.170  -0.176  -0.147  -0.012
   0.234   0.573   1.073   1.822   2.697   3.276   3.129   2.255   1.171   0.489
   0.387   0.536   0.533   0.336   0.214   0.336   0.533   0.536   0.387   0.489
   1.171   2.255   3.129   3.276   2.697   1.822   1.073   0.573   0.234  -0.012
  -0.147  -0.176
   0.152   0.134   0.118   0.200   0.499   1.094   1.937   2.789   3.272   3.090
   2.267   1.192   0.369   0.072   0.193   0.410   0.488   0.429   0.381   0.429
   0.488   0.410   0.193   0.072   0.369   1.192   2.267   3.090   3.272   2.789
   1.937   1.094   0.499   0.200   0.118   0.134   0.152   0.134   0.118   0.200
   0.499   1.094   1.937   2.789   3.272   3.090   2.267   1.192   0.369   0.072
   0.193   0.410   0.488   0.429   0.381   0.429   0.488   0.410   0.193   0.072
   0.369   1.192   2.267   3.090   3.272   2.789   1.937   1.094   0.499   0.200
   0.118   0.134
   0.755   0.672   0.484   0.379   0.619   1.339   2.320   3.023   2.963   2.144
   1.080   0.356   0.155   0.225   0.265   0.236   0.275   0.405   0.481   0.405
   0.275   0.236   0.265   0.225   0.155   0.356   1.080   2.144   2.963   3.023
   2.320   1.339   0.619   0.379   0.484   0.672   0.755   0.672   0.484   0.379
   0.619   1.339   2.320   3.023   2.963   2.144   1.080   0.356   0.155   0.225
   0.265   0.236   0.275   0.405   0.481   0.405   0.275   0.236   0.265   0.225
   0.155   0.356   1.080   2.144   2.963   3.023   2.320   1.339   0.619   0.379
   0.484   0.672
   1.212   1.063   0.706   0.414   0.559   1.300   2.296   2.827   2.395   1.249
   0.216  -0.071   0.254   0.547   0.421   0.115   0.075   0.334   0.503   0.334
   0.075   0.115   0.421   0.547   0.254  -0.071   0.216   1.249   2.395   2.827
   2.296   1.300   0.559   0.414   0.706   1.063   1.212   1.063   0.706   0.414
   0.559   1.300   2.296   2.827   2.395   1.249   0.216  -0.071   0.254   0.547
   0.421   0.115   0.075   0.334   0.503   0.334   0.075   0.115   0.421   0.547
   0.254  -0.071   0.216   1.249   2.395   2.827   2.296   1.300   0.559   0.414
   0.706   1.063
 111       5.00   72    0 5.00   18    0
   0.256   0.257   0.261   0.267   0.276   0.286   0.298   0.312   0.327   0.342
   0.358   0.373   0.387   0.400   0.411   0.421   0.427   0.432   0.433   0.432
   0.427   0.421   0.411   0.400   0.387   0.373   0.358   0.342   0.327   0.312
   0.298   0.286   0.276   0.267   0.261   0.257   0.256   0.257   0.261   0.267
   0.276   0.286   0.298   0.312   0.327   0.342   0.358   0.373   0.387   0.400
   0.411   0.421   0.427   0.432   0.433   0.432   0.427   0.421   0.411   0.400
   0.387   0.373   0.358   0.342   0.327   0.312   0.298   0.286   0.276   0.267
   0.261   0.257
  -0.440  -0.437  -0.429  -0.413  -0.389  -0.355  -0.309  -0.251  -0.180  -0.098
  -0.007   0.091   0.190   0.286   0.374   0.448   0.504   0.540   0.552   0.540
   0.504   0.448   0.374   0.286   0.190   0.091  -0.007  -0.098  -0.180  -0.251
  -0.309  -0.355  -0.389  -0.413  -0.429  -0.437  -0.440  -0.437  -0.429  -0.413
  -0.389  -0.355  -0.309  -0.251  -0.180  -0.098  -0.007   0.091   0.190   0.286
   0.374   0.448   0.504   0.540   0.552   0.540   0.504   0.448   0.374   0.286
   0.190   0.091  -0.007  -0.098  -0.180  -0.251  -0.309  -0.355  -0.389  -0.413
  -0.429  -0.437
   0.167   0.142   0.071  -0.035  -0.162  -0.290  -0.400  -0.476  -0.505  -0.482
  -0.405  -0.283  -0.127   0.047   0.222   0.380   0.506   0.587   0.614   0.587
   0.506   0.380   0.222   0.047  -0.127  -0.283  -0.405  -0.482  -0.505  -0.476
  -0.400  -0.290  -0.162  -0.035   0.071   0.142   0.167   0.142   0.071  -0.035
  -0.162  -0.290  -0.400  -0.476  -0.505  -0.482  -0.405  -0.283  -0.127   0.047
   0.222   0.380   0.506   0.587   0.614   0.587   0.506   0.380   0.222   0.047
  -0.127  -0.283  -0.405  -0.482  -0.505  -0.476  -0.400  -0.290  -0.162  -0.035
   0.071   0.142
   2.904   2.815   2.556   2.160   1.672   1.146   0.638   0.195  -0.147  -0.369
  -0.467  -0.453  -0.350  -0.186   0.005   0.193   0.349   0.451   0.487   0.451
   0.349   0.193   0.005  -0.186  -0.350  -0.453  -0.467  -0.369  -0.147   0.195
   0.638   1.146   1.672   2.160   2.556   2.815   2.904   2.815   2.556   2.160
   1.672   1.146   0.638   0.195  -0.147  -0.369  -0.467  -0.453  -0.350  -0.186
   0.005   0.193   0.349   0.451   0.487   0.451   0.349   0.193   0.005  -0.186
  -0.350  -0.453  -0.467  -0.369  -0.147   0.195   0.638   1.146   1.672   2.160
   2.556   2.815
   5.746   5.600   5.180   4.535   3.740   2.880   2.038   1.284   0.666   0.208
  -0.089  -0.239  -0.270  -0.212  -0.102   0.028   0.146   0.228   0.257   0.228
   0.146   0.028  -0.102  -0.212  -0.270  -0.239  -0.089   0.208   0.666   1.284
   2.038   2.880   3.740   4.535   5.180   5.600   5.746   5.600   5.180   4.535
   3.740   2.880   2.038   1.284   0.666   0.208  -0.089  -0.239  -0.270  -0.212
  -0.102   0.028   0.146   0.228   0.257   0.228   0.146   0.028  -0.102  -0.212
  -0.270  -0.239  -0.089   0.208   0.666   1.284   2.038   2.880   3.740   4.535
   5.180   5.600
   6.100   5.964   5.575   4.981   4.252   3.467   2.699   2.000   1.400   0.910
   0.527   0.245   0.059  -0.036  -0.052  -0.009   0.062   0.123   0.147   0.123
   0.062  -0.009  -0.052  -0.036   0.059   0.245   0.527   0.910   1.400   2.000
   2.699   3.467   4.252   4.981   5.575   5.964   6.100   5.964   5.575   4.981
   4.252   3.467   2.699   2.000   1.400   0.910   0.527   0.245   0.059  -0.036
  -0.052  -0.009   0.062   0.123   0.147   0.123   0.062  -0.009  -0.052  -0.036
   0.059   0.245   0.527   0.910   1.400   2.000   2.699   3.467   4.252   4.981
   5.575   5.964
   3.858   3.801   3.637   3.391   3.096   2.783   2.474   2.170   1.857   1.514
   1.135   0.742   0.385   0.125   0.002   0.012   0.106   0.208   0.251   0.208
   0.106   0.012   0.002   0.125   0.385   0.742   1.135   1.514   1.857   2.170
   2.474   2.783   3.096   3.391   3.637   3.801   3.858   3.801   3.637   3.391
   3.096   2.783   2.474   2.170   1.857   1.514   1.135   0.742   0.385   0.125
   0.002   0.012   0.106   0.208   0.251   0.208   0.106   0.012   0.002   0.125
   0.385   0.742   1.135   1.514   1.857   2.170   2.474   2.783   3.096   3.391
   3.637   3.801
   1.202   1.226   1.297   1.411   1.565   1.748   1.935   2.080   2.118   1.985
   1.656   1.174   0.650   0.223   0.001   0.004   0.158   0.332   0.406   0.332
   0.158   0.004   0.001   0.223   0.650   1.174   1.656   1.985   2.118   2.080
   1.935   1.748   1.565   1.411   1.297   1.226   1.202   1.226   1.297   1.411
   1.565   1.748   1.935   2.080   2.118   1.985   1.656   1.174   0.650   0.223
   0.001   0.004   0.158   0.332   0.406   0.332   0.158   0.004   0.001   0.223
   0.650   1.174   1.656   1.985   2.118   2.080   1.935   1.748   1.565   1.411
   1.297   1.226
  -0.105  -0.060   0.073   0.288   0.580   0.943   1.357   1.774   2.104   2.236
   2.086   1.665   1.089   0.544   0.193   0.092   0.181   0.323   0.387   0.323
   0.181   0.092   0.193   0.544   1.089   1.665   2.086   2.236   2.104   1.774
   1.357   0.943   0.580   0.288   0.073  -0.060  -0.105  -0.060   0.073   0.288
   0.580   0.943   1.357   1.774   2.104   2.236   2.086   1.665   1.089   0.544
   0.193   0.092   0.181   0.323   0.387   0.323   0.181   0.092   0.193   0.544
   1.089   1.665   2.086   2.236   2.104   1.774   1.357   0.943   0.580   0.288
   0.073  -0.060
  -0.172  -0.163  -0.129  -0.058   0.073   0.291   0.627   1.085   1.602   2.046
   2.260   2.157   1.780   1.280   0.821   0.499   0.321   0.243   0.223   0.243
   0.321   0.499   0.821   1.280   1.780   2.157   2.260   2.046   1.602   1.085
   0.627   0.291   0.073  -0.058  -0.129  -0.163  -0.172  -0.163  -0.129  -0.058
   0.073   0.291   0.627   1.085   1.602   2.046   2.260   2.157   1.780   1.280
   0.821   0.499   0.321   0.243   0.223   0.243   0.321   0.499   0.821   1.280
   1.780   2.157   2.260   2.046   1.602   1.085   0.627   0.291   0.073  -0.058
  -0.129  -0.163
   0.074   0.043  -0.032  -0.117  -0.177  -0.178  -0.064   0.233   0.735   1.357
   1.921   2.254   2.287   2.066   1.681   1.212   0.737   0.367   0.226   0.367
   0.737   1.212   1.681   2.066   2.287   2.254   1.921   1.357   0.735   0.233
  -0.064  -0.178  -0.177  -0.117  -0.032   0.043   0.074   0.043  -0.032  -0.117
  -0.177  -0.178  -0.064   0.233   0.735   1.357   1.921   2.254   2.287   2.066
   1.681   1.212   0.737   0.367   0.226   0.367   0.737   1.212   1.681   2.066
   2.287   2.254   1.921   1.357   0.735   0.233  -0.064  -0.178  -0.177  -0.117
  -0.032   0.043
   0.196   0.152   0.051  -0.048  -0.120  -0.184  -0.234  -0.195   0.042   0.509
   1.107   1.667   2.066   2.254   2.202   1.889   1.377   0.882   0.674   0.882
   1.377   1.889   2.202   2.254   2.066   1.667   1.107   0.509   0.042  -0.195
  -0.234  -0.184  -0.120  -0.048   0.051   0.152   0.196   0.152   0.051  -0.048
  -0.120  -0.184  -0.234  -0.195   0.042   0.509   1.107   1.667   2.066   2.254
   2.202   1.889   1.377   0.882   0.674   0.882   1.377   1.889   2.202   2.254
   2.066   1.667   1.107   0.509   0.042  -0.195  -0.234  -0.184  -0.120  -0.048
   0.051   0.152
   0.187   0.138   0.041  -0.002   0.047   0.116   0.102   0.000  -0.070   0.026
   0.313   0.725   1.190   1.661   2.036   2.161   1.974   1.646   1.485   1.646
   1.974   2.161   2.036   1.661   1.190   0.725   0.313   0.026  -0.070   0.000
   0.102   0.116   0.047  -0.002   0.041   0.138   0.187   0.138   0.041  -0.002
   0.047   0.116   0.102   0.000  -0.070   0.026   0.313   0.725   1.190   1.661
   2.036   2.161   1.974   1.646   1.485   1.646   1.974   2.161   2.036   1.661
   1.190   0.725   0.313   0.026  -0.070   0.000   0.102   0.116   0.047  -0.002
   0.041   0.138
   0.045  -0.019  -0.152  -0.212  -0.102   0.135   0.332   0.358   0.238   0.106
   0.061   0.133   0.356   0.791   1.395   1.956   2.253   2.289   2.260   2.289
   2.253   1.956   1.395   0.791   0.356   0.133   0.061   0.106   0.238   0.358
   0.332   0.135  -0.102  -0.212  -0.152  -0.019   0.045  -0.019  -0.152  -0.212
  -0.102   0.135   0.332   0.358   0.238   0.106   0.061   0.133   0.356   0.791
   1.395   1.956   2.253   2.289   2.260   2.289   2.253   1.956   1.395   0.791
   0.356   0.133   0.061   0.106   0.238   0.358   0.332   0.135  -0.102  -0.212
  -0.152  -0.019
   0.063   0.011  -0.132  -0.287  -0.310  -0.116   0.198   0.434   0.495   0.434
   0.325   0.191   0.105   0.249   0.749   1.479   2.142   2.532   2.648   2.532
   2.142   1.479   0.749   0.249   0.105   0.191   0.325   0.434   0.495   0.434
   0.198  -0.116  -0.310  -0.287  -0.132   0.011   0.063   0.011  -0.132  -0.287
  -0.310  -0.116   0.198   0.434   0.495   0.434   0.325   0.191   0.105   0.249
   0.749   1.479   2.142   2.532   2.648   2.532   2.142   1.479   0.749   0.249
   0.105   0.191   0.325   0.434   0.495   0.434   0.198  -0.116  -0.310  -0.287
  -0.132   0.011
   0.922   0.965   0.974   0.784   0.465   0.257   0.268   0.382   0.469   0.532
   0.577   0.511   0.298   0.141   0.344   0.977   1.779   2.395   2.618   2.395
   1.779   0.977   0.344   0.141   0.298   0.511   0.577   0.532   0.469   0.382
   0.268   0.257   0.465   0.784   0.974   0.965   0.922   0.965   0.974   0.784
   0.465   0.257   0.268   0.382   0.469   0.532   0.577   0.511   0.298   0.141
   0.344   0.977   1.779   2.395   2.618   2.395   1.779   0.977   0.344   0.141
   0.298   0.511   0.577   0.532   0.469   0.382   0.268   0.257   0.465   0.784
   0.974   0.965
   2.738   2.949   3.274   3.180   2.539   1.695   1.007   0.550   0.290   0.266
   0.454   0.607   0.483   0.189   0.135   0.587   1.388   2.111   2.394   2.111
   1.388   0.587   0.135   0.189   0.483   0.607   0.454   0.266   0.290   0.550
   1.007   1.695   2.539   3.180   3.274   2.949   2.738   2.949   3.274   3.180
   2.539   1.695   1.007   0.550   0.290   0.266   0.454   0.607   0.483   0.189
   0.135   0.587   1.388   2.111   2.394   2.111   1.388   0.587   0.135   0.189
   0.483   0.607   0.454   0.266   0.290   0.550   1.007   1.695   2.539   3.180
   3.274   2.949
   4.353   4.700   5.298   5.327   4.482   3.149   1.853   0.830   0.158  -0.052
   0.177   0.499   0.508   0.207   0.034   0.375   1.149   1.911   2.221   1.911
   1.149   0.375   0.034   0.207   0.508   0.499   0.177  -0.052   0.158   0.830
   1.853   3.149   4.482   5.327   5.298   4.700   4.353   4.700   5.298   5.327
   4.482   3.149   1.853   0.830   0.158  -0.052   0.177   0.499   0.508   0.207
   0.034   0.375   1.149   1.911   2.221   1.911   1.149   0.375   0.034   0.207
   0.508   0.499   0.177  -0.052   0.158   0.830   1.853   3.149   4.482   5.327
   5.298   4.700
TEXTURE_INDEX=   6.7078
ERR_CF 220         1080     468   92.98   26.08
ERR_CF 200         1080     276   75.58   19.13
ERR_CF 111         1078     286  148.31   17.72
