TEXEVAL                                                                         
Analysis started on 15-Feb-19 11:36:32                                          
 LMAX=16LFMAX=03 CUBIC ORTHO   
 220      5.00 5.00
 200      5.00 5.00
 111      5.00 5.00
 220       5.00   72    0 5.00   15    0
   5.466   5.466   5.466   5.466   5.466   5.466   5.466   5.466   5.466   5.466
   5.466   5.466   5.466   5.466   5.466   5.466   5.466   5.466   5.466   5.466
   5.466   5.466   5.466   5.466   5.466   5.466   5.466   5.466   5.466   5.466
   5.466   5.466   5.466   5.466   5.466   5.466   5.466   5.466   5.466   5.466
   5.466   5.466   5.466   5.466   5.466   5.466   5.466   5.466   5.466   5.466
   5.466   5.466   5.466   5.466   5.466   5.466   5.466   5.466   5.466   5.466
   5.466   5.466   5.466   5.466   5.466   5.466   5.466   5.466   5.466   5.466
   5.466   5.466
   1.765   1.692   1.755   1.801   1.892   1.983   2.160   2.291   2.537   2.806
   3.140   3.492   3.842   4.319   4.847   5.325   5.542   5.763   5.917   5.763
   5.542   5.325   4.847   4.319   3.842   3.492   3.140   2.806   2.537   2.291
   2.160   1.983   1.892   1.801   1.755   1.692   1.765   1.692   1.755   1.801
   1.892   1.983   2.160   2.291   2.537   2.806   3.140   3.492   3.842   4.319
   4.847   5.325   5.542   5.763   5.917   5.763   5.542   5.325   4.847   4.319
   3.842   3.492   3.140   2.806   2.537   2.291   2.160   1.983   1.892   1.801
   1.755   1.692
   0.475   0.466   0.497   0.558   0.577   0.611   0.647   0.787   0.934   1.138
   1.405   1.732   2.219   2.763   3.443   4.106   4.594   4.951   5.240   4.951
   4.594   4.106   3.443   2.763   2.219   1.732   1.405   1.138   0.934   0.787
   0.647   0.611   0.577   0.558   0.497   0.466   0.475   0.466   0.497   0.558
   0.577   0.611   0.647   0.787   0.934   1.138   1.405   1.732   2.219   2.763
   3.443   4.106   4.594   4.951   5.240   4.951   4.594   4.106   3.443   2.763
   2.219   1.732   1.405   1.138   0.934   0.787   0.647   0.611   0.577   0.558
   0.497   0.466
   0.303   0.322   0.320   0.364   0.404   0.406   0.366   0.440   0.477   0.582
   0.763   1.055   1.401   1.941   2.492   3.291   3.925   4.364   4.887   4.364
   3.925   3.291   2.492   1.941   1.401   1.055   0.763   0.582   0.477   0.440
   0.366   0.406   0.404   0.364   0.320   0.322   0.303   0.322   0.320   0.364
   0.404   0.406   0.366   0.440   0.477   0.582   0.763   1.055   1.401   1.941
   2.492   3.291   3.925   4.364   4.887   4.364   3.925   3.291   2.492   1.941
   1.401   1.055   0.763   0.582   0.477   0.440   0.366   0.406   0.404   0.364
   0.320   0.322
   0.338   0.315   0.336   0.338   0.367   0.398   0.409   0.406   0.431   0.540
   0.631   0.838   1.033   1.465   2.055   2.913   3.515   4.109   4.529   4.109
   3.515   2.913   2.055   1.465   1.033   0.838   0.631   0.540   0.431   0.406
   0.409   0.398   0.367   0.338   0.336   0.315   0.338   0.315   0.336   0.338
   0.367   0.398   0.409   0.406   0.431   0.540   0.631   0.838   1.033   1.465
   2.055   2.913   3.515   4.109   4.529   4.109   3.515   2.913   2.055   1.465
   1.033   0.838   0.631   0.540   0.431   0.406   0.409   0.398   0.367   0.338
   0.336   0.315
   0.392   0.305   0.364   0.425   0.433   0.449   0.478   0.462   0.556   0.659
   0.659   0.789   0.976   1.346   1.949   2.630   3.154   3.626   3.901   3.626
   3.154   2.630   1.949   1.346   0.976   0.789   0.659   0.659   0.556   0.462
   0.478   0.449   0.433   0.425   0.364   0.305   0.392   0.305   0.364   0.425
   0.433   0.449   0.478   0.462   0.556   0.659   0.659   0.789   0.976   1.346
   1.949   2.630   3.154   3.626   3.901   3.626   3.154   2.630   1.949   1.346
   0.976   0.789   0.659   0.659   0.556   0.462   0.478   0.449   0.433   0.425
   0.364   0.305
   0.363   0.320   0.363   0.388   0.399   0.442   0.465   0.497   0.552   0.635
   0.715   0.840   1.005   1.343   1.831   2.352   2.672   2.762   3.013   2.762
   2.672   2.352   1.831   1.343   1.005   0.840   0.715   0.635   0.552   0.497
   0.465   0.442   0.399   0.388   0.363   0.320   0.363   0.320   0.363   0.388
   0.399   0.442   0.465   0.497   0.552   0.635   0.715   0.840   1.005   1.343
   1.831   2.352   2.672   2.762   3.013   2.762   2.672   2.352   1.831   1.343
   1.005   0.840   0.715   0.635   0.552   0.497   0.465   0.442   0.399   0.388
   0.363   0.320
   0.342   0.347   0.376   0.383   0.357   0.406   0.453   0.440   0.442   0.497
   0.690   0.787   0.954   1.276   1.559   1.967   2.116   1.965   1.965   1.965
   2.116   1.967   1.559   1.276   0.954   0.787   0.690   0.497   0.442   0.440
   0.453   0.406   0.357   0.383   0.376   0.347   0.342   0.347   0.376   0.383
   0.357   0.406   0.453   0.440   0.442   0.497   0.690   0.787   0.954   1.276
   1.559   1.967   2.116   1.965   1.965   1.965   2.116   1.967   1.559   1.276
   0.954   0.787   0.690   0.497   0.442   0.440   0.453   0.406   0.357   0.383
   0.376   0.347
   0.382   0.408   0.447   0.422   0.364   0.397   0.505   0.447   0.489   0.509
   0.604   0.671   0.899   1.307   1.393   1.644   1.550   1.504   1.271   1.504
   1.550   1.644   1.393   1.307   0.899   0.671   0.604   0.509   0.489   0.447
   0.505   0.397   0.364   0.422   0.447   0.408   0.382   0.408   0.447   0.422
   0.364   0.397   0.505   0.447   0.489   0.509   0.604   0.671   0.899   1.307
   1.393   1.644   1.550   1.504   1.271   1.504   1.550   1.644   1.393   1.307
   0.899   0.671   0.604   0.509   0.489   0.447   0.505   0.397   0.364   0.422
   0.447   0.408
   0.632   0.638   0.561   0.502   0.475   0.484   0.576   0.505   0.505   0.560
   0.593   0.636   0.821   1.158   1.403   1.354   1.184   1.212   0.896   1.212
   1.184   1.354   1.403   1.158   0.821   0.636   0.593   0.560   0.505   0.505
   0.576   0.484   0.475   0.502   0.561   0.638   0.632   0.638   0.561   0.502
   0.475   0.484   0.576   0.505   0.505   0.560   0.593   0.636   0.821   1.158
   1.403   1.354   1.184   1.212   0.896   1.212   1.184   1.354   1.403   1.158
   0.821   0.636   0.593   0.560   0.505   0.505   0.576   0.484   0.475   0.502
   0.561   0.638
   1.698   1.505   1.207   0.961   0.849   0.782   0.648   0.468   0.456   0.599
   0.511   0.564   0.736   0.971   1.237   1.067   0.908   0.891   0.573   0.891
   0.908   1.067   1.237   0.971   0.736   0.564   0.511   0.599   0.456   0.468
   0.648   0.782   0.849   0.961   1.207   1.505   1.698   1.505   1.207   0.961
   0.849   0.782   0.648   0.468   0.456   0.599   0.511   0.564   0.736   0.971
   1.237   1.067   0.908   0.891   0.573   0.891   0.908   1.067   1.237   0.971
   0.736   0.564   0.511   0.599   0.456   0.468   0.648   0.782   0.849   0.961
   1.207   1.505
   4.431   3.886   3.350   2.423   1.890   1.437   1.075   0.836   0.677   0.716
   0.474   0.513   0.760   0.777   1.107   0.985   0.595   0.637   0.413   0.637
   0.595   0.985   1.107   0.777   0.760   0.513   0.474   0.716   0.677   0.836
   1.075   1.437   1.890   2.423   3.350   3.886   4.431   3.886   3.350   2.423
   1.890   1.437   1.075   0.836   0.677   0.716   0.474   0.513   0.760   0.777
   1.107   0.985   0.595   0.637   0.413   0.637   0.595   0.985   1.107   0.777
   0.760   0.513   0.474   0.716   0.677   0.836   1.075   1.437   1.890   2.423
   3.350   3.886
   5.043   4.597   4.061   3.125   2.656   2.052   1.721   1.543   1.032   0.811
   0.717   0.646   0.610   0.701   0.993   0.877   0.452   0.583   0.356   0.583
   0.452   0.877   0.993   0.701   0.610   0.646   0.717   0.811   1.032   1.543
   1.721   2.052   2.656   3.125   4.061   4.597   5.043   4.597   4.061   3.125
   2.656   2.052   1.721   1.543   1.032   0.811   0.717   0.646   0.610   0.701
   0.993   0.877   0.452   0.583   0.356   0.583   0.452   0.877   0.993   0.701
   0.610   0.646   0.717   0.811   1.032   1.543   1.721   2.052   2.656   3.125
   4.061   4.597
   2.134   2.078   2.035   1.644   1.650   1.582   1.766   1.748   1.246   0.909
   0.734   0.562   0.387   0.608   0.739   0.636   0.526   0.606   0.324   0.606
   0.526   0.636   0.739   0.608   0.387   0.562   0.734   0.909   1.246   1.748
   1.766   1.582   1.650   1.644   2.035   2.078   2.134   2.078   2.035   1.644
   1.650   1.582   1.766   1.748   1.246   0.909   0.734   0.562   0.387   0.608
   0.739   0.636   0.526   0.606   0.324   0.606   0.526   0.636   0.739   0.608
   0.387   0.562   0.734   0.909   1.246   1.748   1.766   1.582   1.650   1.644
   2.035   2.078
   0.222   0.394   0.647   0.470   0.464   0.600   1.103   1.311   1.180   0.992
   0.755   0.751   0.398   0.489   0.500   0.677   0.763   0.646   0.388   0.646
   0.763   0.677   0.500   0.489   0.398   0.751   0.755   0.992   1.180   1.311
   1.103   0.600   0.464   0.470   0.647   0.394   0.222   0.394   0.647   0.470
   0.464   0.600   1.103   1.311   1.180   0.992   0.755   0.751   0.398   0.489
   0.500   0.677   0.763   0.646   0.388   0.646   0.763   0.677   0.500   0.489
   0.398   0.751   0.755   0.992   1.180   1.311   1.103   0.600   0.464   0.470
   0.647   0.394
 200       5.00   72    0 5.00   15    0
   0.881   0.881   0.881   0.881   0.881   0.881   0.881   0.881   0.881   0.881
   0.881   0.881   0.881   0.881   0.881   0.881   0.881   0.881   0.881   0.881
   0.881   0.881   0.881   0.881   0.881   0.881   0.881   0.881   0.881   0.881
   0.881   0.881   0.881   0.881   0.881   0.881   0.881   0.881   0.881   0.881
   0.881   0.881   0.881   0.881   0.881   0.881   0.881   0.881   0.881   0.881
   0.881   0.881   0.881   0.881   0.881   0.881   0.881   0.881   0.881   0.881
   0.881   0.881   0.881   0.881   0.881   0.881   0.881   0.881   0.881   0.881
   0.881   0.881
   0.872   0.934   0.922   0.930   0.850   0.867   0.864   0.850   0.834   0.896
   0.873   0.868   0.813   0.879   0.864   0.905   0.874   0.892   0.771   0.892
   0.874   0.905   0.864   0.879   0.813   0.868   0.873   0.896   0.834   0.850
   0.864   0.867   0.850   0.930   0.922   0.934   0.872   0.934   0.922   0.930
   0.850   0.867   0.864   0.850   0.834   0.896   0.873   0.868   0.813   0.879
   0.864   0.905   0.874   0.892   0.771   0.892   0.874   0.905   0.864   0.879
   0.813   0.868   0.873   0.896   0.834   0.850   0.864   0.867   0.850   0.930
   0.922   0.934
   1.097   1.037   0.983   0.952   0.973   0.948   0.849   0.860   0.882   0.862
   0.856   0.795   0.737   0.840   0.794   0.783   0.779   0.746   0.714   0.746
   0.779   0.783   0.794   0.840   0.737   0.795   0.856   0.862   0.882   0.860
   0.849   0.948   0.973   0.952   0.983   1.037   1.097   1.037   0.983   0.952
   0.973   0.948   0.849   0.860   0.882   0.862   0.856   0.795   0.737   0.840
   0.794   0.783   0.779   0.746   0.714   0.746   0.779   0.783   0.794   0.840
   0.737   0.795   0.856   0.862   0.882   0.860   0.849   0.948   0.973   0.952
   0.983   1.037
   1.487   1.410   1.326   1.293   1.267   1.204   1.045   0.957   0.909   0.879
   0.828   0.757   0.735   0.796   0.744   0.724   0.696   0.692   0.797   0.692
   0.696   0.724   0.744   0.796   0.735   0.757   0.828   0.879   0.909   0.957
   1.045   1.204   1.267   1.293   1.326   1.410   1.487   1.410   1.326   1.293
   1.267   1.204   1.045   0.957   0.909   0.879   0.828   0.757   0.735   0.796
   0.744   0.724   0.696   0.692   0.797   0.692   0.696   0.724   0.744   0.796
   0.735   0.757   0.828   0.879   0.909   0.957   1.045   1.204   1.267   1.293
   1.326   1.410
   2.203   2.229   2.161   2.018   1.871   1.684   1.461   1.237   1.122   1.035
   0.945   0.862   0.786   0.776   0.730   0.690   0.695   0.740   0.830   0.740
   0.695   0.690   0.730   0.776   0.786   0.862   0.945   1.035   1.122   1.237
   1.461   1.684   1.871   2.018   2.161   2.229   2.203   2.229   2.161   2.018
   1.871   1.684   1.461   1.237   1.122   1.035   0.945   0.862   0.786   0.776
   0.730   0.690   0.695   0.740   0.830   0.740   0.695   0.690   0.730   0.776
   0.786   0.862   0.945   1.035   1.122   1.237   1.461   1.684   1.871   2.018
   2.161   2.229
   2.801   2.815   2.813   2.704   2.500   2.378   2.074   1.828   1.602   1.302
   1.145   0.979   0.884   0.838   0.781   0.732   0.732   0.758   0.778   0.758
   0.732   0.732   0.781   0.838   0.884   0.979   1.145   1.302   1.602   1.828
   2.074   2.378   2.500   2.704   2.813   2.815   2.801   2.815   2.813   2.704
   2.500   2.378   2.074   1.828   1.602   1.302   1.145   0.979   0.884   0.838
   0.781   0.732   0.732   0.758   0.778   0.758   0.732   0.732   0.781   0.838
   0.884   0.979   1.145   1.302   1.602   1.828   2.074   2.378   2.500   2.704
   2.813   2.815
   2.016   2.002   2.050   2.118   2.130   2.251   2.192   2.226   2.076   1.706
   1.433   1.243   1.068   0.922   0.839   0.797   0.834   0.802   0.821   0.802
   0.834   0.797   0.839   0.922   1.068   1.243   1.433   1.706   2.076   2.226
   2.192   2.251   2.130   2.118   2.050   2.002   2.016   2.002   2.050   2.118
   2.130   2.251   2.192   2.226   2.076   1.706   1.433   1.243   1.068   0.922
   0.839   0.797   0.834   0.802   0.821   0.802   0.834   0.797   0.839   0.922
   1.068   1.243   1.433   1.706   2.076   2.226   2.192   2.251   2.130   2.118
   2.050   2.002
   0.667   0.719   0.728   0.832   1.016   1.252   1.463   1.773   1.918   1.800
   1.812   1.560   1.282   1.039   0.957   0.889   0.914   0.894   0.925   0.894
   0.914   0.889   0.957   1.039   1.282   1.560   1.812   1.800   1.918   1.773
   1.463   1.252   1.016   0.832   0.728   0.719   0.667   0.719   0.728   0.832
   1.016   1.252   1.463   1.773   1.918   1.800   1.812   1.560   1.282   1.039
   0.957   0.889   0.914   0.894   0.925   0.894   0.914   0.889   0.957   1.039
   1.282   1.560   1.812   1.800   1.918   1.773   1.463   1.252   1.016   0.832
   0.728   0.719
   0.140   0.232   0.217   0.236   0.321   0.510   0.679   0.843   1.220   1.391
   1.683   1.727   1.475   1.263   1.078   0.969   0.951   0.933   0.992   0.933
   0.951   0.969   1.078   1.263   1.475   1.727   1.683   1.391   1.220   0.843
   0.679   0.510   0.321   0.236   0.217   0.232   0.140   0.232   0.217   0.236
   0.321   0.510   0.679   0.843   1.220   1.391   1.683   1.727   1.475   1.263
   1.078   0.969   0.951   0.933   0.992   0.933   0.951   0.969   1.078   1.263
   1.475   1.727   1.683   1.391   1.220   0.843   0.679   0.510   0.321   0.236
   0.217   0.232
   0.055   0.175   0.129   0.069   0.177   0.224   0.255   0.394   0.707   1.004
   1.277   1.702   1.682   1.341   1.160   1.004   0.974   0.913   0.883   0.913
   0.974   1.004   1.160   1.341   1.682   1.702   1.277   1.004   0.707   0.394
   0.255   0.224   0.177   0.069   0.129   0.175   0.055   0.175   0.129   0.069
   0.177   0.224   0.255   0.394   0.707   1.004   1.277   1.702   1.682   1.341
   1.160   1.004   0.974   0.913   0.883   0.913   0.974   1.004   1.160   1.341
   1.682   1.702   1.277   1.004   0.707   0.394   0.255   0.224   0.177   0.069
   0.129   0.175
   0.077   0.170   0.064   0.060   0.156   0.182   0.152   0.309   0.524   0.744
   1.120   1.524   1.654   1.301   1.190   1.071   0.986   0.997   0.813   0.997
   0.986   1.071   1.190   1.301   1.654   1.524   1.120   0.744   0.524   0.309
   0.152   0.182   0.156   0.060   0.064   0.170   0.077   0.170   0.064   0.060
   0.156   0.182   0.152   0.309   0.524   0.744   1.120   1.524   1.654   1.301
   1.190   1.071   0.986   0.997   0.813   0.997   0.986   1.071   1.190   1.301
   1.654   1.524   1.120   0.744   0.524   0.309   0.152   0.182   0.156   0.060
   0.064   0.170
   0.147   0.140   0.078   0.140   0.121   0.147   0.240   0.322   0.460   0.726
   1.092   1.360   1.372   1.228   1.049   0.999   0.960   1.056   0.897   1.056
   0.960   0.999   1.049   1.228   1.372   1.360   1.092   0.726   0.460   0.322
   0.240   0.147   0.121   0.140   0.078   0.140   0.147   0.140   0.078   0.140
   0.121   0.147   0.240   0.322   0.460   0.726   1.092   1.360   1.372   1.228
   1.049   0.999   0.960   1.056   0.897   1.056   0.960   0.999   1.049   1.228
   1.372   1.360   1.092   0.726   0.460   0.322   0.240   0.147   0.121   0.140
   0.078   0.140
   0.232   0.154   0.135   0.199   0.142   0.119   0.262   0.389   0.506   0.938
   1.106   1.184   1.152   0.974   0.712   0.882   0.868   0.909   0.948   0.909
   0.868   0.882   0.712   0.974   1.152   1.184   1.106   0.938   0.506   0.389
   0.262   0.119   0.142   0.199   0.135   0.154   0.232   0.154   0.135   0.199
   0.142   0.119   0.262   0.389   0.506   0.938   1.106   1.184   1.152   0.974
   0.712   0.882   0.868   0.909   0.948   0.909   0.868   0.882   0.712   0.974
   1.152   1.184   1.106   0.938   0.506   0.389   0.262   0.119   0.142   0.199
   0.135   0.154
   0.358   0.311   0.188   0.254   0.281   0.342   0.440   0.560   0.697   1.175
   1.313   1.117   0.806   0.782   0.633   0.787   0.850   0.902   0.884   0.902
   0.850   0.787   0.633   0.782   0.806   1.117   1.313   1.175   0.697   0.560
   0.440   0.342   0.281   0.254   0.188   0.311   0.358   0.311   0.188   0.254
   0.281   0.342   0.440   0.560   0.697   1.175   1.313   1.117   0.806   0.782
   0.633   0.787   0.850   0.902   0.884   0.902   0.850   0.787   0.633   0.782
   0.806   1.117   1.313   1.175   0.697   0.560   0.440   0.342   0.281   0.254
   0.188   0.311
   0.401   0.470   0.443   0.392   0.414   0.447   0.723   0.773   0.959   1.462
   1.570   1.102   0.644   0.563   0.653   0.657   0.842   0.973   0.904   0.973
   0.842   0.657   0.653   0.563   0.644   1.102   1.570   1.462   0.959   0.773
   0.723   0.447   0.414   0.392   0.443   0.470   0.401   0.470   0.443   0.392
   0.414   0.447   0.723   0.773   0.959   1.462   1.570   1.102   0.644   0.563
   0.653   0.657   0.842   0.973   0.904   0.973   0.842   0.657   0.653   0.563
   0.644   1.102   1.570   1.462   0.959   0.773   0.723   0.447   0.414   0.392
   0.443   0.470
 111       5.00   72    0 5.00   15    0
   0.075   0.075   0.075   0.075   0.075   0.075   0.075   0.075   0.075   0.075
   0.075   0.075   0.075   0.075   0.075   0.075   0.075   0.075   0.075   0.075
   0.075   0.075   0.075   0.075   0.075   0.075   0.075   0.075   0.075   0.075
   0.075   0.075   0.075   0.075   0.075   0.075   0.075   0.075   0.075   0.075
   0.075   0.075   0.075   0.075   0.075   0.075   0.075   0.075   0.075   0.075
   0.075   0.075   0.075   0.075   0.075   0.075   0.075   0.075   0.075   0.075
   0.075   0.075   0.075   0.075   0.075   0.075   0.075   0.075   0.075   0.075
   0.075   0.075
   0.096   0.094   0.101   0.102   0.087   0.086   0.082   0.073   0.076   0.083
   0.083   0.073   0.073   0.079   0.084   0.078   0.086   0.089   0.116   0.089
   0.086   0.078   0.084   0.079   0.073   0.073   0.083   0.083   0.076   0.073
   0.082   0.086   0.087   0.102   0.101   0.094   0.096   0.094   0.101   0.102
   0.087   0.086   0.082   0.073   0.076   0.083   0.083   0.073   0.073   0.079
   0.084   0.078   0.086   0.089   0.116   0.089   0.086   0.078   0.084   0.079
   0.073   0.073   0.083   0.083   0.076   0.073   0.082   0.086   0.087   0.102
   0.101   0.094
   0.204   0.185   0.180   0.173   0.137   0.125   0.132   0.097   0.102   0.112
   0.111   0.081   0.084   0.086   0.086   0.086   0.087   0.084   0.120   0.084
   0.087   0.086   0.086   0.086   0.084   0.081   0.111   0.112   0.102   0.097
   0.132   0.125   0.137   0.173   0.180   0.185   0.204   0.185   0.180   0.173
   0.137   0.125   0.132   0.097   0.102   0.112   0.111   0.081   0.084   0.086
   0.086   0.086   0.087   0.084   0.120   0.084   0.087   0.086   0.086   0.086
   0.084   0.081   0.111   0.112   0.102   0.097   0.132   0.125   0.137   0.173
   0.180   0.185
   0.672   0.651   0.604   0.505   0.415   0.332   0.306   0.238   0.216   0.164
   0.149   0.114   0.126   0.109   0.090   0.088   0.084   0.093   0.099   0.093
   0.084   0.088   0.090   0.109   0.126   0.114   0.149   0.164   0.216   0.238
   0.306   0.332   0.415   0.505   0.604   0.651   0.672   0.651   0.604   0.505
   0.415   0.332   0.306   0.238   0.216   0.164   0.149   0.114   0.126   0.109
   0.090   0.088   0.084   0.093   0.099   0.093   0.084   0.088   0.090   0.109
   0.126   0.114   0.149   0.164   0.216   0.238   0.306   0.332   0.415   0.505
   0.604   0.651
   2.770   2.693   2.439   2.029   1.634   1.242   0.927   0.667   0.481   0.355
   0.241   0.166   0.170   0.144   0.095   0.077   0.079   0.083   0.081   0.083
   0.079   0.077   0.095   0.144   0.170   0.166   0.241   0.355   0.481   0.667
   0.927   1.242   1.634   2.029   2.439   2.693   2.770   2.693   2.439   2.029
   1.634   1.242   0.927   0.667   0.481   0.355   0.241   0.166   0.170   0.144
   0.095   0.077   0.079   0.083   0.081   0.083   0.079   0.077   0.095   0.144
   0.170   0.166   0.241   0.355   0.481   0.667   0.927   1.242   1.634   2.029
   2.439   2.693
   5.086   4.951   4.541   4.015   3.455   2.820   2.170   1.575   1.022   0.681
   0.420   0.273   0.200   0.158   0.116   0.088   0.075   0.077   0.061   0.077
   0.075   0.088   0.116   0.158   0.200   0.273   0.420   0.681   1.022   1.575
   2.170   2.820   3.455   4.015   4.541   4.951   5.086   4.951   4.541   4.015
   3.455   2.820   2.170   1.575   1.022   0.681   0.420   0.273   0.200   0.158
   0.116   0.088   0.075   0.077   0.061   0.077   0.075   0.088   0.116   0.158
   0.200   0.273   0.420   0.681   1.022   1.575   2.170   2.820   3.455   4.015
   4.541   4.951
   4.567   4.524   4.338   4.273   3.946   3.583   3.095   2.542   1.854   1.316
   0.853   0.553   0.336   0.234   0.195   0.139   0.102   0.105   0.106   0.105
   0.102   0.139   0.195   0.234   0.336   0.553   0.853   1.316   1.854   2.542
   3.095   3.583   3.946   4.273   4.338   4.524   4.567   4.524   4.338   4.273
   3.946   3.583   3.095   2.542   1.854   1.316   0.853   0.553   0.336   0.234
   0.195   0.139   0.102   0.105   0.106   0.105   0.102   0.139   0.195   0.234
   0.336   0.553   0.853   1.316   1.854   2.542   3.095   3.583   3.946   4.273
   4.338   4.524
   2.317   2.379   2.476   2.838   2.891   2.922   2.934   2.777   2.376   1.906
   1.424   0.959   0.635   0.464   0.338   0.247   0.214   0.175   0.175   0.175
   0.214   0.247   0.338   0.464   0.635   0.959   1.424   1.906   2.376   2.777
   2.934   2.922   2.891   2.838   2.476   2.379   2.317   2.379   2.476   2.838
   2.891   2.922   2.934   2.777   2.376   1.906   1.424   0.959   0.635   0.464
   0.338   0.247   0.214   0.175   0.175   0.175   0.214   0.247   0.338   0.464
   0.635   0.959   1.424   1.906   2.376   2.777   2.934   2.922   2.891   2.838
   2.476   2.379
   0.791   0.832   0.962   1.261   1.588   1.811   2.140   2.274   2.196   1.979
   1.758   1.393   1.030   0.801   0.550   0.443   0.357   0.334   0.325   0.334
   0.357   0.443   0.550   0.801   1.030   1.393   1.758   1.979   2.196   2.274
   2.140   1.811   1.588   1.261   0.962   0.832   0.791   0.832   0.962   1.261
   1.588   1.811   2.140   2.274   2.196   1.979   1.758   1.393   1.030   0.801
   0.550   0.443   0.357   0.334   0.325   0.334   0.357   0.443   0.550   0.801
   1.030   1.393   1.758   1.979   2.196   2.274   2.140   1.811   1.588   1.261
   0.962   0.832
   0.299   0.311   0.362   0.446   0.665   0.924   1.319   1.707   1.797   1.765
   1.706   1.639   1.436   1.202   0.877   0.745   0.525   0.517   0.510   0.517
   0.525   0.745   0.877   1.202   1.436   1.639   1.706   1.765   1.797   1.707
   1.319   0.924   0.665   0.446   0.362   0.311   0.299   0.311   0.362   0.446
   0.665   0.924   1.319   1.707   1.797   1.765   1.706   1.639   1.436   1.202
   0.877   0.745   0.525   0.517   0.510   0.517   0.525   0.745   0.877   1.202
   1.436   1.639   1.706   1.765   1.797   1.707   1.319   0.924   0.665   0.446
   0.362   0.311
   0.173   0.202   0.202   0.230   0.313   0.444   0.767   1.151   1.342   1.471
   1.417   1.581   1.695   1.609   1.275   1.043   0.757   0.757   0.718   0.757
   0.757   1.043   1.275   1.609   1.695   1.581   1.417   1.471   1.342   1.151
   0.767   0.444   0.313   0.230   0.202   0.202   0.173   0.202   0.202   0.230
   0.313   0.444   0.767   1.151   1.342   1.471   1.417   1.581   1.695   1.609
   1.275   1.043   0.757   0.757   0.718   0.757   0.757   1.043   1.275   1.609
   1.695   1.581   1.417   1.471   1.342   1.151   0.767   0.444   0.313   0.230
   0.202   0.202
   0.133   0.131   0.130   0.187   0.208   0.312   0.515   0.670   0.891   1.081
   1.077   1.256   1.506   1.534   1.498   1.267   0.970   0.939   0.913   0.939
   0.970   1.267   1.498   1.534   1.506   1.256   1.077   1.081   0.891   0.670
   0.515   0.312   0.208   0.187   0.130   0.131   0.133   0.131   0.130   0.187
   0.208   0.312   0.515   0.670   0.891   1.081   1.077   1.256   1.506   1.534
   1.498   1.267   0.970   0.939   0.913   0.939   0.970   1.267   1.498   1.534
   1.506   1.256   1.077   1.081   0.891   0.670   0.515   0.312   0.208   0.187
   0.130   0.131
   0.147   0.110   0.112   0.144   0.121   0.239   0.401   0.593   0.705   0.739
   0.830   0.849   1.042   1.205   1.429   1.370   1.109   0.958   1.000   0.958
   1.109   1.370   1.429   1.205   1.042   0.849   0.830   0.739   0.705   0.593
   0.401   0.239   0.121   0.144   0.112   0.110   0.147   0.110   0.112   0.144
   0.121   0.239   0.401   0.593   0.705   0.739   0.830   0.849   1.042   1.205
   1.429   1.370   1.109   0.958   1.000   0.958   1.109   1.370   1.429   1.205
   1.042   0.849   0.830   0.739   0.705   0.593   0.401   0.239   0.121   0.144
   0.112   0.110
   0.261   0.187   0.225   0.197   0.176   0.241   0.381   0.607   0.676   0.675
   0.746   0.700   0.766   1.019   1.179   1.218   1.185   1.026   1.060   1.026
   1.185   1.218   1.179   1.019   0.766   0.700   0.746   0.675   0.676   0.607
   0.381   0.241   0.176   0.197   0.225   0.187   0.261   0.187   0.225   0.197
   0.176   0.241   0.381   0.607   0.676   0.675   0.746   0.700   0.766   1.019
   1.179   1.218   1.185   1.026   1.060   1.026   1.185   1.218   1.179   1.019
   0.766   0.700   0.746   0.675   0.676   0.607   0.381   0.241   0.176   0.197
   0.225   0.187
   0.508   0.486   0.375   0.327   0.291   0.401   0.411   0.553   0.683   0.700
   0.660   0.735   0.694   0.862   0.912   0.982   1.158   1.094   1.030   1.094
   1.158   0.982   0.912   0.862   0.694   0.735   0.660   0.700   0.683   0.553
   0.411   0.401   0.291   0.327   0.375   0.486   0.508   0.486   0.375   0.327
   0.291   0.401   0.411   0.553   0.683   0.700   0.660   0.735   0.694   0.862
   0.912   0.982   1.158   1.094   1.030   1.094   1.158   0.982   0.912   0.862
   0.694   0.735   0.660   0.700   0.683   0.553   0.411   0.401   0.291   0.327
   0.375   0.486
  4  1      5.2685711E-01
  4  2     -6.7455050E-01
  4  3     -2.6690360E-01
  6  1      2.1827179E+00
  6  2     -3.4522297E+00
  6  3      1.3042568E+00
  6  4      7.0167246E-02
  8  1      3.6437171E-02
  8  2      1.7857185E-01
  8  3      1.3083974E-01
  8  4      5.6503948E-01
  8  5      5.7284443E-01
 10  1      8.7125662E-02
 10  2     -5.6229912E-01
 10  3      8.1027263E-01
 10  4     -2.8420126E-01
 10  5     -5.8501266E-02
 10  6     -7.0613953E-02
 12  1     -1.6914022E-01  1.9771998E+00
 12  2     -1.9273447E-02 -2.4361602E+00
 12  3      9.0736404E-02  2.1544296E+00
 12  4     -1.8943890E-03 -1.0216903E+00
 12  5     -2.9015334E-02 -1.2076138E-01
 12  6     -5.7311753E-01  4.7974527E-01
 12  7     -9.0455508E-02 -1.9476701E-02
 14  1     -3.0591840E-01
 14  2      2.7930028E-01
 14  3     -8.2614115E-02
 14  4      8.7949477E-02
 14  5     -2.9510754E-01
 14  6      1.0048970E-01
 14  7      5.2687536E-02
 14  8     -2.1531493E-01
 16  1      1.1377979E-01  3.4322248E-02
 16  2     -3.3245797E-01 -5.9653913E-02
 16  3      2.8160202E-01  3.0345708E-01
 16  4      1.5630110E-02 -5.2209726E-01
 16  5      3.8594577E-02  2.5176185E-01
 16  6     -4.3777072E-02 -4.9902128E-02
 16  7      2.2272055E-01 -6.2482416E-02
 16  8      9.5913634E-02  1.5324207E-01
 16  9     -1.0088279E-01  1.9030689E-02
 220       5.00   72    0 5.00   18    0
   2.985   2.987   2.991   2.997   3.006   3.018   3.030   3.045   3.060   3.076
   3.092   3.107   3.122   3.135   3.146   3.155   3.162   3.166   3.168   3.166
   3.162   3.155   3.146   3.135   3.122   3.107   3.092   3.076   3.060   3.045
   3.030   3.018   3.006   2.997   2.991   2.987   2.985   2.987   2.991   2.997
   3.006   3.018   3.030   3.045   3.060   3.076   3.092   3.107   3.122   3.135
   3.146   3.155   3.162   3.166   3.168   3.166   3.162   3.155   3.146   3.135
   3.122   3.107   3.092   3.076   3.060   3.045   3.030   3.018   3.006   2.997
   2.991   2.987
   1.733   1.742   1.768   1.811   1.871   1.946   2.035   2.137   2.248   2.367
   2.489   2.611   2.729   2.838   2.934   3.013   3.072   3.109   3.121   3.109
   3.072   3.013   2.934   2.838   2.729   2.611   2.489   2.367   2.248   2.137
   2.035   1.946   1.871   1.811   1.768   1.742   1.733   1.742   1.768   1.811
   1.871   1.946   2.035   2.137   2.248   2.367   2.489   2.611   2.729   2.838
   2.934   3.013   3.072   3.109   3.121   3.109   3.072   3.013   2.934   2.838
   2.729   2.611   2.489   2.367   2.248   2.137   2.035   1.946   1.871   1.811
   1.768   1.742
   0.282   0.293   0.325   0.381   0.462   0.570   0.708   0.876   1.074   1.298
   1.545   1.804   2.067   2.322   2.554   2.751   2.902   2.996   3.028   2.996
   2.902   2.751   2.554   2.322   2.067   1.804   1.545   1.298   1.074   0.876
   0.708   0.570   0.462   0.381   0.325   0.293   0.282   0.293   0.325   0.381
   0.462   0.570   0.708   0.876   1.074   1.298   1.545   1.804   2.067   2.322
   2.554   2.751   2.902   2.996   3.028   2.996   2.902   2.751   2.554   2.322
   2.067   1.804   1.545   1.298   1.074   0.876   0.708   0.570   0.462   0.381
   0.325   0.293
  -0.332  -0.332  -0.330  -0.321  -0.297  -0.250  -0.168  -0.042   0.137   0.373
   0.663   1.000   1.368   1.746   2.109   2.428   2.679   2.838   2.893   2.838
   2.679   2.428   2.109   1.746   1.368   1.000   0.663   0.373   0.137  -0.042
  -0.168  -0.250  -0.297  -0.321  -0.330  -0.332  -0.332  -0.332  -0.330  -0.321
  -0.297  -0.250  -0.168  -0.042   0.137   0.373   0.663   1.000   1.368   1.746
   2.109   2.428   2.679   2.838   2.893   2.838   2.679   2.428   2.109   1.746
   1.368   1.000   0.663   0.373   0.137  -0.042  -0.168  -0.250  -0.297  -0.321
  -0.330  -0.332
  -0.038  -0.050  -0.082  -0.132  -0.190  -0.243  -0.275  -0.266  -0.198  -0.054
   0.175   0.488   0.869   1.293   1.723   2.119   2.438   2.645   2.716   2.645
   2.438   2.119   1.723   1.293   0.869   0.488   0.175  -0.054  -0.198  -0.266
  -0.275  -0.243  -0.190  -0.132  -0.082  -0.050  -0.038  -0.050  -0.082  -0.132
  -0.190  -0.243  -0.275  -0.266  -0.198  -0.054   0.175   0.488   0.869   1.293
   1.723   2.119   2.438   2.645   2.716   2.645   2.438   2.119   1.723   1.293
   0.869   0.488   0.175  -0.054  -0.198  -0.266  -0.275  -0.243  -0.190  -0.132
  -0.082  -0.050
   0.410   0.403   0.379   0.336   0.273   0.193   0.105   0.030  -0.006   0.023
   0.142   0.361   0.673   1.055   1.466   1.860   2.186   2.402   2.477   2.402
   2.186   1.860   1.466   1.055   0.673   0.361   0.142   0.023  -0.006   0.030
   0.105   0.193   0.273   0.336   0.379   0.403   0.410   0.403   0.379   0.336
   0.273   0.193   0.105   0.030  -0.006   0.023   0.142   0.361   0.673   1.055
   1.466   1.860   2.186   2.402   2.477   2.402   2.186   1.860   1.466   1.055
   0.673   0.361   0.142   0.023  -0.006   0.030   0.105   0.193   0.273   0.336
   0.379   0.403
   0.358   0.372   0.407   0.450   0.482   0.487   0.456   0.398   0.337   0.310
   0.349   0.477   0.696   0.987   1.314   1.634   1.902   2.080   2.142   2.080
   1.902   1.634   1.314   0.987   0.696   0.477   0.349   0.310   0.337   0.398
   0.456   0.487   0.482   0.450   0.407   0.372   0.358   0.372   0.407   0.450
   0.482   0.487   0.456   0.398   0.337   0.310   0.349   0.477   0.696   0.987
   1.314   1.634   1.902   2.080   2.142   2.080   1.902   1.634   1.314   0.987
   0.696   0.477   0.349   0.310   0.337   0.398   0.456   0.487   0.482   0.450
   0.407   0.372
  -0.067  -0.037   0.047   0.173   0.313   0.433   0.507   0.526   0.509   0.494
   0.521   0.615   0.776   0.983   1.205   1.411   1.574   1.679   1.715   1.679
   1.574   1.411   1.205   0.983   0.776   0.615   0.521   0.494   0.509   0.526
   0.507   0.433   0.313   0.173   0.047  -0.037  -0.067  -0.037   0.047   0.173
   0.313   0.433   0.507   0.526   0.509   0.494   0.521   0.615   0.776   0.983
   1.205   1.411   1.574   1.679   1.715   1.679   1.574   1.411   1.205   0.983
   0.776   0.615   0.521   0.494   0.509   0.526   0.507   0.433   0.313   0.173
   0.047  -0.037
  -0.112  -0.100  -0.057   0.031   0.161   0.302   0.414   0.472   0.487   0.499
   0.551   0.662   0.817   0.980   1.116   1.205   1.249   1.264   1.266   1.264
   1.249   1.205   1.116   0.980   0.817   0.662   0.551   0.499   0.487   0.472
   0.414   0.302   0.161   0.031  -0.057  -0.100  -0.112  -0.100  -0.057   0.031
   0.161   0.302   0.414   0.472   0.487   0.499   0.551   0.662   0.817   0.980
   1.116   1.205   1.249   1.264   1.266   1.264   1.249   1.205   1.116   0.980
   0.817   0.662   0.551   0.499   0.487   0.472   0.414   0.302   0.161   0.031
  -0.057  -0.100
   0.849   0.797   0.673   0.553   0.496   0.501   0.522   0.517   0.486   0.472
   0.522   0.650   0.821   0.975   1.059   1.058   0.999   0.931   0.903   0.931
   0.999   1.058   1.059   0.975   0.821   0.650   0.522   0.472   0.486   0.517
   0.522   0.501   0.496   0.553   0.673   0.797   0.849   0.797   0.673   0.553
   0.496   0.501   0.522   0.517   0.486   0.472   0.522   0.650   0.821   0.975
   1.059   1.058   0.999   0.931   0.903   0.931   0.999   1.058   1.059   0.975
   0.821   0.650   0.522   0.472   0.486   0.517   0.522   0.501   0.496   0.553
   0.673   0.797
   2.631   2.488   2.126   1.703   1.360   1.138   0.990   0.848   0.697   0.581
   0.559   0.651   0.813   0.964   1.031   0.986   0.862   0.736   0.684   0.736
   0.862   0.986   1.031   0.964   0.813   0.651   0.559   0.581   0.697   0.848
   0.990   1.138   1.360   1.703   2.126   2.488   2.631   2.488   2.126   1.703
   1.360   1.138   0.990   0.848   0.697   0.581   0.559   0.651   0.813   0.964
   1.031   0.986   0.862   0.736   0.684   0.736   0.862   0.986   1.031   0.964
   0.813   0.651   0.559   0.581   0.697   0.848   0.990   1.138   1.360   1.703
   2.126   2.488
   4.176   3.966   3.430   2.788   2.242   1.865   1.601   1.354   1.088   0.842
   0.695   0.688   0.793   0.927   0.997   0.950   0.809   0.657   0.592   0.657
   0.809   0.950   0.997   0.927   0.793   0.688   0.695   0.842   1.088   1.354
   1.601   1.865   2.242   2.788   3.430   3.966   4.176   3.966   3.430   2.788
   2.242   1.865   1.601   1.354   1.088   0.842   0.695   0.688   0.793   0.927
   0.997   0.950   0.809   0.657   0.592   0.657   0.809   0.950   0.997   0.927
   0.793   0.688   0.695   0.842   1.088   1.354   1.601   1.865   2.242   2.788
   3.430   3.966
   4.302   4.099   3.582   2.972   2.470   2.149   1.941   1.729   1.449   1.137
   0.881   0.756   0.771   0.864   0.938   0.916   0.791   0.643   0.577   0.643
   0.791   0.916   0.938   0.864   0.771   0.756   0.881   1.137   1.449   1.729
   1.941   2.149   2.470   2.972   3.582   4.099   4.302   4.099   3.582   2.972
   2.470   2.149   1.941   1.729   1.449   1.137   0.881   0.756   0.771   0.864
   0.938   0.916   0.791   0.643   0.577   0.643   0.791   0.916   0.938   0.864
   0.771   0.756   0.881   1.137   1.449   1.729   1.941   2.149   2.470   2.972
   3.582   4.099
   2.772   2.654   2.360   2.035   1.818   1.754   1.770   1.740   1.587   1.328
   1.054   0.860   0.792   0.826   0.885   0.886   0.802   0.686   0.633   0.686
   0.802   0.886   0.885   0.826   0.792   0.860   1.054   1.328   1.587   1.740
   1.770   1.754   1.818   2.035   2.360   2.654   2.772   2.654   2.360   2.035
   1.818   1.754   1.770   1.740   1.587   1.328   1.054   0.860   0.792   0.826
   0.885   0.886   0.802   0.686   0.633   0.686   0.802   0.886   0.885   0.826
   0.792   0.860   1.054   1.328   1.587   1.740   1.770   1.754   1.818   2.035
   2.360   2.654
   0.661   0.654   0.645   0.666   0.768   0.973   1.225   1.415   1.458   1.352
   1.169   0.997   0.890   0.861   0.878   0.893   0.871   0.826   0.802   0.826
   0.871   0.893   0.878   0.861   0.890   0.997   1.169   1.352   1.458   1.415
   1.225   0.973   0.768   0.666   0.645   0.654   0.661   0.654   0.645   0.666
   0.768   0.973   1.225   1.415   1.458   1.352   1.169   0.997   0.890   0.861
   0.878   0.893   0.871   0.826   0.802   0.826   0.871   0.893   0.878   0.861
   0.890   0.997   1.169   1.352   1.458   1.415   1.225   0.973   0.768   0.666
   0.645   0.654
  -0.543  -0.479  -0.325  -0.138   0.074   0.345   0.670   0.972   1.165   1.229
   1.203   1.130   1.039   0.957   0.920   0.946   1.013   1.078   1.103   1.078
   1.013   0.946   0.920   0.957   1.039   1.130   1.203   1.229   1.165   0.972
   0.670   0.345   0.074  -0.138  -0.325  -0.479  -0.543  -0.479  -0.325  -0.138
   0.074   0.345   0.670   0.972   1.165   1.229   1.203   1.130   1.039   0.957
   0.920   0.946   1.013   1.078   1.103   1.078   1.013   0.946   0.920   0.957
   1.039   1.130   1.203   1.229   1.165   0.972   0.670   0.345   0.074  -0.138
  -0.325  -0.479
  -0.353  -0.285  -0.143  -0.030   0.040   0.151   0.358   0.622   0.864   1.044
   1.166   1.217   1.171   1.058   0.974   1.016   1.184   1.373   1.456   1.373
   1.184   1.016   0.974   1.058   1.171   1.217   1.166   1.044   0.864   0.622
   0.358   0.151   0.040  -0.030  -0.143  -0.285  -0.353  -0.285  -0.143  -0.030
   0.040   0.151   0.358   0.622   0.864   1.044   1.166   1.217   1.171   1.058
   0.974   1.016   1.184   1.373   1.456   1.373   1.184   1.016   0.974   1.058
   1.171   1.217   1.166   1.044   0.864   0.622   0.358   0.151   0.040  -0.030
  -0.143  -0.285
   0.321   0.367   0.432   0.404   0.288   0.208   0.267   0.450   0.680   0.910
   1.118   1.250   1.243   1.116   1.007   1.063   1.301   1.577   1.697   1.577
   1.301   1.063   1.007   1.116   1.243   1.250   1.118   0.910   0.680   0.450
   0.267   0.208   0.288   0.404   0.432   0.367   0.321   0.367   0.432   0.404
   0.288   0.208   0.267   0.450   0.680   0.910   1.118   1.250   1.243   1.116
   1.007   1.063   1.301   1.577   1.697   1.577   1.301   1.063   1.007   1.116
   1.243   1.250   1.118   0.910   0.680   0.450   0.267   0.208   0.288   0.404
   0.432   0.367
 200       5.00   72    0 5.00   18    0
   1.117   1.118   1.119   1.121   1.125   1.128   1.133   1.138   1.143   1.149
   1.155   1.160   1.165   1.170   1.174   1.178   1.180   1.182   1.182   1.182
   1.180   1.178   1.174   1.170   1.165   1.160   1.155   1.149   1.143   1.138
   1.133   1.128   1.125   1.121   1.119   1.118   1.117   1.118   1.119   1.121
   1.125   1.128   1.133   1.138   1.143   1.149   1.155   1.160   1.165   1.170
   1.174   1.178   1.180   1.182   1.182   1.182   1.180   1.178   1.174   1.170
   1.165   1.160   1.155   1.149   1.143   1.138   1.133   1.128   1.125   1.121
   1.119   1.118
   0.763   0.764   0.769   0.776   0.787   0.802   0.821   0.844   0.871   0.903
   0.937   0.974   1.011   1.046   1.079   1.107   1.128   1.141   1.146   1.141
   1.128   1.107   1.079   1.046   1.011   0.974   0.937   0.903   0.871   0.844
   0.821   0.802   0.787   0.776   0.769   0.764   0.763   0.764   0.769   0.776
   0.787   0.802   0.821   0.844   0.871   0.903   0.937   0.974   1.011   1.046
   1.079   1.107   1.128   1.141   1.146   1.141   1.128   1.107   1.079   1.046
   1.011   0.974   0.937   0.903   0.871   0.844   0.821   0.802   0.787   0.776
   0.769   0.764
   0.748   0.743   0.729   0.706   0.679   0.652   0.629   0.614   0.611   0.624
   0.652   0.696   0.753   0.819   0.886   0.948   0.998   1.031   1.042   1.031
   0.998   0.948   0.886   0.819   0.753   0.696   0.652   0.624   0.611   0.614
   0.629   0.652   0.679   0.706   0.729   0.743   0.748   0.743   0.729   0.706
   0.679   0.652   0.629   0.614   0.611   0.624   0.652   0.696   0.753   0.819
   0.886   0.948   0.998   1.031   1.042   1.031   0.998   0.948   0.886   0.819
   0.753   0.696   0.652   0.624   0.611   0.614   0.629   0.652   0.679   0.706
   0.729   0.743
   1.415   1.398   1.347   1.267   1.162   1.041   0.912   0.786   0.675   0.587
   0.531   0.513   0.532   0.583   0.656   0.736   0.808   0.859   0.876   0.859
   0.808   0.736   0.656   0.583   0.532   0.513   0.531   0.587   0.675   0.786
   0.912   1.041   1.162   1.267   1.347   1.398   1.415   1.398   1.347   1.267
   1.162   1.041   0.912   0.786   0.675   0.587   0.531   0.513   0.532   0.583
   0.656   0.736   0.808   0.859   0.876   0.859   0.808   0.736   0.656   0.583
   0.532   0.513   0.531   0.587   0.675   0.786   0.912   1.041   1.162   1.267
   1.347   1.398
   2.193   2.173   2.113   2.014   1.880   1.715   1.524   1.317   1.104   0.902
   0.726   0.592   0.513   0.490   0.517   0.578   0.647   0.701   0.721   0.701
   0.647   0.578   0.517   0.490   0.513   0.592   0.726   0.902   1.104   1.317
   1.524   1.715   1.880   2.014   2.113   2.173   2.193   2.173   2.113   2.014
   1.880   1.715   1.524   1.317   1.104   0.902   0.726   0.592   0.513   0.490
   0.517   0.578   0.647   0.701   0.721   0.701   0.647   0.578   0.517   0.490
   0.513   0.592   0.726   0.902   1.104   1.317   1.524   1.715   1.880   2.014
   2.113   2.173
   2.308   2.300   2.273   2.229   2.165   2.076   1.957   1.802   1.610   1.388
   1.152   0.928   0.742   0.617   0.562   0.566   0.605   0.646   0.663   0.646
   0.605   0.566   0.562   0.617   0.742   0.928   1.152   1.388   1.610   1.802
   1.957   2.076   2.165   2.229   2.273   2.300   2.308   2.300   2.273   2.229
   2.165   2.076   1.957   1.802   1.610   1.388   1.152   0.928   0.742   0.617
   0.562   0.566   0.605   0.646   0.663   0.646   0.605   0.566   0.562   0.617
   0.742   0.928   1.152   1.388   1.610   1.802   1.957   2.076   2.165   2.229
   2.273   2.300
   1.696   1.699   1.712   1.737   1.775   1.819   1.855   1.862   1.819   1.711
   1.539   1.320   1.089   0.889   0.753   0.693   0.691   0.714   0.726   0.714
   0.691   0.693   0.753   0.889   1.089   1.320   1.539   1.711   1.819   1.862
   1.855   1.819   1.775   1.737   1.712   1.699   1.696   1.699   1.712   1.737
   1.775   1.819   1.855   1.862   1.819   1.711   1.539   1.320   1.089   0.889
   0.753   0.693   0.691   0.714   0.726   0.714   0.691   0.693   0.753   0.889
   1.089   1.320   1.539   1.711   1.819   1.862   1.855   1.819   1.775   1.737
   1.712   1.699
   0.913   0.917   0.935   0.979   1.060   1.178   1.324   1.476   1.606   1.679
   1.667   1.558   1.372   1.160   0.979   0.871   0.836   0.842   0.850   0.842
   0.836   0.871   0.979   1.160   1.372   1.558   1.667   1.679   1.606   1.476
   1.324   1.178   1.060   0.979   0.935   0.917   0.913   0.917   0.935   0.979
   1.060   1.178   1.324   1.476   1.606   1.679   1.667   1.558   1.372   1.160
   0.979   0.871   0.836   0.842   0.850   0.842   0.836   0.871   0.979   1.160
   1.372   1.558   1.667   1.679   1.606   1.476   1.324   1.178   1.060   0.979
   0.935   0.917
   0.393   0.391   0.394   0.420   0.484   0.591   0.740   0.933   1.160   1.386
   1.553   1.603   1.520   1.344   1.152   1.016   0.958   0.954   0.959   0.954
   0.958   1.016   1.152   1.344   1.520   1.603   1.553   1.386   1.160   0.933
   0.740   0.591   0.484   0.420   0.394   0.391   0.393   0.391   0.394   0.420
   0.484   0.591   0.740   0.933   1.160   1.386   1.553   1.603   1.520   1.344
   1.152   1.016   0.958   0.954   0.959   0.954   0.958   1.016   1.152   1.344
   1.520   1.603   1.553   1.386   1.160   0.933   0.740   0.591   0.484   0.420
   0.394   0.391
   0.152   0.147   0.144   0.164   0.211   0.279   0.373   0.521   0.756   1.063
   1.363   1.551   1.565   1.431   1.242   1.093   1.024   1.014   1.017   1.014
   1.024   1.093   1.242   1.431   1.565   1.551   1.363   1.063   0.756   0.521
   0.373   0.279   0.211   0.164   0.144   0.147   0.152   0.147   0.144   0.164
   0.211   0.279   0.373   0.521   0.756   1.063   1.363   1.551   1.565   1.431
   1.242   1.093   1.024   1.014   1.017   1.014   1.024   1.093   1.242   1.431
   1.565   1.551   1.363   1.063   0.756   0.521   0.373   0.279   0.211   0.164
   0.144   0.147
   0.098   0.090   0.082   0.101   0.144   0.186   0.225   0.316   0.528   0.865
   1.231   1.481   1.532   1.413   1.235   1.097   1.036   1.027   1.030   1.027
   1.036   1.097   1.235   1.413   1.532   1.481   1.231   0.865   0.528   0.316
   0.225   0.186   0.144   0.101   0.082   0.090   0.098   0.090   0.082   0.101
   0.144   0.186   0.225   0.316   0.528   0.865   1.231   1.481   1.532   1.413
   1.235   1.097   1.036   1.027   1.030   1.027   1.036   1.097   1.235   1.413
   1.532   1.481   1.231   0.865   0.528   0.316   0.225   0.186   0.144   0.101
   0.082   0.090
   0.199   0.180   0.146   0.139   0.162   0.182   0.194   0.266   0.479   0.831
   1.194   1.409   1.411   1.273   1.122   1.035   1.010   1.010   1.012   1.010
   1.010   1.035   1.122   1.273   1.411   1.409   1.194   0.831   0.479   0.266
   0.194   0.182   0.162   0.139   0.146   0.180   0.199   0.180   0.146   0.139
   0.162   0.182   0.194   0.266   0.479   0.831   1.194   1.409   1.411   1.273
   1.122   1.035   1.010   1.010   1.012   1.010   1.010   1.035   1.122   1.273
   1.411   1.409   1.194   0.831   0.479   0.266   0.194   0.182   0.162   0.139
   0.146   0.180
   0.312   0.285   0.232   0.205   0.213   0.231   0.260   0.368   0.620   0.973
   1.266   1.351   1.228   1.044   0.941   0.940   0.969   0.976   0.972   0.976
   0.969   0.940   0.941   1.044   1.228   1.351   1.266   0.973   0.620   0.368
   0.260   0.231   0.213   0.205   0.232   0.285   0.312   0.285   0.232   0.205
   0.213   0.231   0.260   0.368   0.620   0.973   1.266   1.351   1.228   1.044
   0.941   0.940   0.969   0.976   0.972   0.976   0.969   0.940   0.941   1.044
   1.228   1.351   1.266   0.973   0.620   0.368   0.260   0.231   0.213   0.205
   0.232   0.285
   0.265   0.252   0.235   0.249   0.302   0.377   0.481   0.664   0.954   1.268
   1.432   1.335   1.061   0.827   0.778   0.865   0.941   0.944   0.928   0.944
   0.941   0.865   0.778   0.827   1.061   1.335   1.432   1.268   0.954   0.664
   0.481   0.377   0.302   0.249   0.235   0.252   0.265   0.252   0.235   0.249
   0.302   0.377   0.481   0.664   0.954   1.268   1.432   1.335   1.061   0.827
   0.778   0.865   0.941   0.944   0.928   0.944   0.941   0.865   0.778   0.827
   1.061   1.335   1.432   1.268   0.954   0.664   0.481   0.377   0.302   0.249
   0.235   0.252
   0.267   0.277   0.313   0.390   0.511   0.668   0.858   1.093   1.359   1.566
   1.571   1.317   0.941   0.689   0.689   0.837   0.939   0.931   0.906   0.931
   0.939   0.837   0.689   0.689   0.941   1.317   1.571   1.566   1.359   1.093
   0.858   0.668   0.511   0.390   0.313   0.277   0.267   0.277   0.313   0.390
   0.511   0.668   0.858   1.093   1.359   1.566   1.571   1.317   0.941   0.689
   0.689   0.837   0.939   0.931   0.906   0.931   0.939   0.837   0.689   0.689
   0.941   1.317   1.571   1.566   1.359   1.093   0.858   0.668   0.511   0.390
   0.313   0.277
   0.843   0.843   0.845   0.868   0.944   1.090   1.282   1.470   1.609   1.642
   1.502   1.184   0.817   0.608   0.652   0.831   0.948   0.943   0.917   0.943
   0.948   0.831   0.652   0.608   0.817   1.184   1.502   1.642   1.609   1.470
   1.282   1.090   0.944   0.868   0.845   0.843   0.843   0.843   0.845   0.868
   0.944   1.090   1.282   1.470   1.609   1.642   1.502   1.184   0.817   0.608
   0.652   0.831   0.948   0.943   0.917   0.943   0.948   0.831   0.652   0.608
   0.817   1.184   1.502   1.642   1.609   1.470   1.282   1.090   0.944   0.868
   0.845   0.843
   2.076   2.019   1.863   1.670   1.541   1.538   1.614   1.659   1.602   1.444
   1.208   0.919   0.652   0.534   0.621   0.815   0.948   0.967   0.953   0.967
   0.948   0.815   0.621   0.534   0.652   0.919   1.208   1.444   1.602   1.659
   1.614   1.538   1.541   1.670   1.863   2.019   2.076   2.019   1.863   1.670
   1.541   1.538   1.614   1.659   1.602   1.444   1.208   0.919   0.652   0.534
   0.621   0.815   0.948   0.967   0.953   0.967   0.948   0.815   0.621   0.534
   0.652   0.919   1.208   1.444   1.602   1.659   1.614   1.538   1.541   1.670
   1.863   2.019
   3.166   3.051   2.738   2.333   1.998   1.833   1.784   1.697   1.490   1.205
   0.925   0.687   0.516   0.473   0.591   0.793   0.942   0.985   0.982   0.985
   0.942   0.793   0.591   0.473   0.516   0.687   0.925   1.205   1.490   1.697
   1.784   1.833   1.998   2.333   2.738   3.051   3.166   3.051   2.738   2.333
   1.998   1.833   1.784   1.697   1.490   1.205   0.925   0.687   0.516   0.473
   0.591   0.793   0.942   0.985   0.982   0.985   0.942   0.793   0.591   0.473
   0.516   0.687   0.925   1.205   1.490   1.697   1.784   1.833   1.998   2.333
   2.738   3.051
 111       5.00   72    0 5.00   18    0
   0.285   0.286   0.288   0.290   0.294   0.298   0.304   0.310   0.316   0.322
   0.329   0.335   0.341   0.346   0.351   0.355   0.358   0.359   0.360   0.359
   0.358   0.355   0.351   0.346   0.341   0.335   0.329   0.322   0.316   0.310
   0.304   0.298   0.294   0.290   0.288   0.286   0.285   0.286   0.288   0.290
   0.294   0.298   0.304   0.310   0.316   0.322   0.329   0.335   0.341   0.346
   0.351   0.355   0.358   0.359   0.360   0.359   0.358   0.355   0.351   0.346
   0.341   0.335   0.329   0.322   0.316   0.310   0.304   0.298   0.294   0.290
   0.288   0.286
  -0.174  -0.171  -0.163  -0.149  -0.130  -0.106  -0.076  -0.042  -0.005   0.036
   0.079   0.122   0.163   0.202   0.236   0.265   0.286   0.299   0.303   0.299
   0.286   0.265   0.236   0.202   0.163   0.122   0.079   0.036  -0.005  -0.042
  -0.076  -0.106  -0.130  -0.149  -0.163  -0.171  -0.174  -0.171  -0.163  -0.149
  -0.130  -0.106  -0.076  -0.042  -0.005   0.036   0.079   0.122   0.163   0.202
   0.236   0.265   0.286   0.299   0.303   0.299   0.286   0.265   0.236   0.202
   0.163   0.122   0.079   0.036  -0.005  -0.042  -0.076  -0.106  -0.130  -0.149
  -0.163  -0.171
  -0.269  -0.272  -0.281  -0.294  -0.305  -0.313  -0.312  -0.299  -0.273  -0.233
  -0.181  -0.120  -0.054   0.013   0.074   0.127   0.168   0.193   0.202   0.193
   0.168   0.127   0.074   0.013  -0.054  -0.120  -0.181  -0.233  -0.273  -0.299
  -0.312  -0.313  -0.305  -0.294  -0.281  -0.272  -0.269  -0.272  -0.281  -0.294
  -0.305  -0.313  -0.312  -0.299  -0.273  -0.233  -0.181  -0.120  -0.054   0.013
   0.074   0.127   0.168   0.193   0.202   0.193   0.168   0.127   0.074   0.013
  -0.054  -0.120  -0.181  -0.233  -0.273  -0.299  -0.312  -0.313  -0.305  -0.294
  -0.281  -0.272
   0.770   0.743   0.666   0.547   0.402   0.246   0.097  -0.031  -0.126  -0.183
  -0.202  -0.188  -0.148  -0.095  -0.036   0.018   0.060   0.088   0.097   0.088
   0.060   0.018  -0.036  -0.095  -0.148  -0.188  -0.202  -0.183  -0.126  -0.031
   0.097   0.246   0.402   0.547   0.666   0.743   0.770   0.743   0.666   0.547
   0.402   0.246   0.097  -0.031  -0.126  -0.183  -0.202  -0.188  -0.148  -0.095
  -0.036   0.018   0.060   0.088   0.097   0.088   0.060   0.018  -0.036  -0.095
  -0.148  -0.188  -0.202  -0.183  -0.126  -0.031   0.097   0.246   0.402   0.547
   0.666   0.743
   2.706   2.648   2.479   2.215   1.882   1.508   1.129   0.774   0.471   0.235
   0.073  -0.021  -0.058  -0.057  -0.034  -0.003   0.024   0.042   0.048   0.042
   0.024  -0.003  -0.034  -0.057  -0.058  -0.021   0.073   0.235   0.471   0.774
   1.129   1.508   1.882   2.215   2.479   2.648   2.706   2.648   2.479   2.215
   1.882   1.508   1.129   0.774   0.471   0.235   0.073  -0.021  -0.058  -0.057
  -0.034  -0.003   0.024   0.042   0.048   0.042   0.024  -0.003  -0.034  -0.057
  -0.058  -0.021   0.073   0.235   0.471   0.774   1.129   1.508   1.882   2.215
   2.479   2.648
   4.254   4.189   3.997   3.689   3.281   2.800   2.279   1.756   1.270   0.855
   0.529   0.301   0.160   0.089   0.064   0.063   0.072   0.081   0.084   0.081
   0.072   0.063   0.064   0.089   0.160   0.301   0.529   0.855   1.270   1.756
   2.279   2.800   3.281   3.689   3.997   4.189   4.254   4.189   3.997   3.689
   3.281   2.800   2.279   1.756   1.270   0.855   0.529   0.301   0.160   0.089
   0.064   0.063   0.072   0.081   0.084   0.081   0.072   0.063   0.064   0.089
   0.160   0.301   0.529   0.855   1.270   1.756   2.279   2.800   3.281   3.689
   3.997   4.189
   4.188   4.163   4.084   3.937   3.707   3.384   2.971   2.488   1.973   1.473
   1.032   0.681   0.433   0.279   0.200   0.170   0.166   0.171   0.174   0.171
   0.166   0.170   0.200   0.279   0.433   0.681   1.032   1.473   1.973   2.488
   2.971   3.384   3.707   3.937   4.084   4.163   4.188   4.163   4.084   3.937
   3.707   3.384   2.971   2.488   1.973   1.473   1.032   0.681   0.433   0.279
   0.200   0.170   0.166   0.171   0.174   0.171   0.166   0.170   0.200   0.279
   0.433   0.681   1.032   1.473   1.973   2.488   2.971   3.384   3.707   3.937
   4.084   4.163
   2.558   2.596   2.699   2.833   2.949   2.992   2.915   2.697   2.353   1.928
   1.484   1.079   0.753   0.520   0.376   0.302   0.275   0.270   0.270   0.270
   0.275   0.302   0.376   0.520   0.753   1.079   1.484   1.928   2.353   2.697
   2.915   2.992   2.949   2.833   2.699   2.596   2.558   2.596   2.699   2.833
   2.949   2.992   2.915   2.697   2.353   1.928   1.484   1.079   0.753   0.520
   0.376   0.302   0.275   0.270   0.270   0.270   0.275   0.302   0.376   0.520
   0.753   1.079   1.484   1.928   2.353   2.697   2.915   2.992   2.949   2.833
   2.699   2.596
   0.668   0.737   0.935   1.237   1.598   1.951   2.219   2.340   2.290   2.088
   1.789   1.456   1.138   0.866   0.655   0.509   0.422   0.380   0.368   0.380
   0.422   0.509   0.655   0.866   1.138   1.456   1.789   2.088   2.290   2.340
   2.219   1.951   1.598   1.237   0.935   0.737   0.668   0.737   0.935   1.237
   1.598   1.951   2.219   2.340   2.290   2.088   1.789   1.456   1.138   0.866
   0.655   0.509   0.422   0.380   0.368   0.380   0.422   0.509   0.655   0.866
   1.138   1.456   1.789   2.088   2.290   2.340   2.219   1.951   1.598   1.237
   0.935   0.737
  -0.236  -0.195  -0.067   0.162   0.491   0.891   1.296   1.627   1.829   1.889
   1.834   1.700   1.512   1.288   1.048   0.824   0.651   0.546   0.512   0.546
   0.651   0.824   1.048   1.288   1.512   1.700   1.834   1.889   1.829   1.627
   1.296   0.891   0.491   0.162  -0.067  -0.195  -0.236  -0.195  -0.067   0.162
   0.491   0.891   1.296   1.627   1.829   1.889   1.834   1.700   1.512   1.288
   1.048   0.824   0.651   0.546   0.512   0.546   0.651   0.824   1.048   1.288
   1.512   1.700   1.834   1.889   1.829   1.627   1.296   0.891   0.491   0.162
  -0.067  -0.195
  -0.104  -0.111  -0.117  -0.079   0.050   0.289   0.611   0.945   1.229   1.438
   1.585   1.678   1.698   1.614   1.424   1.176   0.943   0.784   0.729   0.784
   0.943   1.176   1.424   1.614   1.698   1.678   1.585   1.438   1.229   0.945
   0.611   0.289   0.050  -0.079  -0.117  -0.111  -0.104  -0.111  -0.117  -0.079
   0.050   0.289   0.611   0.945   1.229   1.438   1.585   1.678   1.698   1.614
   1.424   1.176   0.943   0.784   0.729   0.784   0.943   1.176   1.424   1.614
   1.698   1.678   1.585   1.438   1.229   0.945   0.611   0.289   0.050  -0.079
  -0.117  -0.111
   0.204   0.183   0.130   0.076   0.078   0.177   0.369   0.598   0.806   0.986
   1.174   1.386   1.576   1.662   1.598   1.414   1.198   1.036   0.977   1.036
   1.198   1.414   1.598   1.662   1.576   1.386   1.174   0.986   0.806   0.598
   0.369   0.177   0.078   0.076   0.130   0.183   0.204   0.183   0.130   0.076
   0.078   0.177   0.369   0.598   0.806   0.986   1.174   1.386   1.576   1.662
   1.598   1.414   1.198   1.036   0.977   1.036   1.198   1.414   1.598   1.662
   1.576   1.386   1.174   0.986   0.806   0.598   0.369   0.177   0.078   0.076
   0.130   0.183
   0.121   0.121   0.116   0.111   0.138   0.237   0.403   0.571   0.682   0.743
   0.829   1.001   1.233   1.428   1.501   1.445   1.322   1.213   1.171   1.213
   1.322   1.445   1.501   1.428   1.233   1.001   0.829   0.743   0.682   0.571
   0.403   0.237   0.138   0.111   0.116   0.121   0.121   0.121   0.116   0.111
   0.138   0.237   0.403   0.571   0.682   0.743   0.829   1.001   1.233   1.428
   1.501   1.445   1.322   1.213   1.171   1.213   1.322   1.445   1.501   1.428
   1.233   1.001   0.829   0.743   0.682   0.571   0.403   0.237   0.138   0.111
   0.116   0.121
  -0.049  -0.041  -0.022   0.008   0.078   0.225   0.436   0.631   0.729   0.725
   0.700   0.749   0.898   1.090   1.243   1.311   1.307   1.276   1.260   1.276
   1.307   1.311   1.243   1.090   0.898   0.749   0.700   0.725   0.729   0.631
   0.436   0.225   0.078   0.008  -0.022  -0.041  -0.049  -0.041  -0.022   0.008
   0.078   0.225   0.436   0.631   0.729   0.725   0.700   0.749   0.898   1.090
   1.243   1.311   1.307   1.276   1.260   1.276   1.307   1.311   1.243   1.090
   0.898   0.749   0.700   0.725   0.729   0.631   0.436   0.225   0.078   0.008
  -0.022  -0.041
   0.271   0.252   0.204   0.158   0.167   0.271   0.457   0.653   0.780   0.803
   0.756   0.709   0.727   0.829   0.984   1.132   1.225   1.261   1.267   1.261
   1.225   1.132   0.984   0.829   0.727   0.709   0.756   0.803   0.780   0.653
   0.457   0.271   0.167   0.158   0.204   0.252   0.271   0.252   0.204   0.158
   0.167   0.271   0.457   0.653   0.780   0.803   0.756   0.709   0.727   0.829
   0.984   1.132   1.225   1.261   1.267   1.261   1.225   1.132   0.984   0.829
   0.727   0.709   0.756   0.803   0.780   0.653   0.457   0.271   0.167   0.158
   0.204   0.252
   1.146   1.094   0.964   0.822   0.724   0.687   0.699   0.744   0.808   0.862
   0.858   0.783   0.694   0.687   0.806   0.995   1.155   1.236   1.257   1.236
   1.155   0.995   0.806   0.687   0.694   0.783   0.858   0.862   0.808   0.744
   0.699   0.687   0.724   0.822   0.964   1.094   1.146   1.094   0.964   0.822
   0.724   0.687   0.699   0.744   0.808   0.862   0.858   0.783   0.694   0.687
   0.806   0.995   1.155   1.236   1.257   1.236   1.155   0.995   0.806   0.687
   0.694   0.783   0.858   0.862   0.808   0.744   0.699   0.687   0.724   0.822
   0.964   1.094
   2.107   2.051   1.920   1.780   1.646   1.469   1.227   0.990   0.866   0.875
   0.907   0.842   0.694   0.609   0.698   0.916   1.125   1.237   1.265   1.237
   1.125   0.916   0.698   0.609   0.694   0.842   0.907   0.875   0.866   0.990
   1.227   1.469   1.646   1.780   1.920   2.051   2.107   2.051   1.920   1.780
   1.646   1.469   1.227   0.990   0.866   0.875   0.907   0.842   0.694   0.609
   0.698   0.916   1.125   1.237   1.265   1.237   1.125   0.916   0.698   0.609
   0.694   0.842   0.907   0.875   0.866   0.990   1.227   1.469   1.646   1.780
   1.920   2.051
   2.685   2.644   2.559   2.481   2.373   2.125   1.701   1.234   0.933   0.871
   0.908   0.853   0.684   0.565   0.643   0.882   1.120   1.249   1.283   1.249
   1.120   0.882   0.643   0.565   0.684   0.853   0.908   0.871   0.933   1.234
   1.701   2.125   2.373   2.481   2.559   2.644   2.685   2.644   2.559   2.481
   2.373   2.125   1.701   1.234   0.933   0.871   0.908   0.853   0.684   0.565
   0.643   0.882   1.120   1.249   1.283   1.249   1.120   0.882   0.643   0.565
   0.684   0.853   0.908   0.871   0.933   1.234   1.701   2.125   2.373   2.481
   2.559   2.644
TEXTURE_INDEX=   3.2756
ERR_CF 220         1080     478   38.36   24.53
ERR_CF 200         1080     342   18.72    8.35
ERR_CF 111         1080     326   73.38    7.67
