TEXEVAL                                                                         
Analysis started on 15-Feb-19 13:40:05                                          
 LMAX=16LFMAX=03 CUBIC ORTHO   
 220      5.00 5.00
 200      5.00 5.00
 111      5.00 5.00
 220       5.00   72    0 5.00   15    0
   4.424   4.424   4.424   4.424   4.424   4.424   4.424   4.424   4.424   4.424
   4.424   4.424   4.424   4.424   4.424   4.424   4.424   4.424   4.424   4.424
   4.424   4.424   4.424   4.424   4.424   4.424   4.424   4.424   4.424   4.424
   4.424   4.424   4.424   4.424   4.424   4.424   4.424   4.424   4.424   4.424
   4.424   4.424   4.424   4.424   4.424   4.424   4.424   4.424   4.424   4.424
   4.424   4.424   4.424   4.424   4.424   4.424   4.424   4.424   4.424   4.424
   4.424   4.424   4.424   4.424   4.424   4.424   4.424   4.424   4.424   4.424
   4.424   4.424
   1.608   1.606   1.680   1.682   1.772   1.884   2.007   2.155   2.317   2.566
   2.876   3.205   3.548   3.908   4.294   4.696   4.972   5.131   5.160   5.131
   4.972   4.696   4.294   3.908   3.548   3.205   2.876   2.566   2.317   2.155
   2.007   1.884   1.772   1.682   1.680   1.606   1.608   1.606   1.680   1.682
   1.772   1.884   2.007   2.155   2.317   2.566   2.876   3.205   3.548   3.908
   4.294   4.696   4.972   5.131   5.160   5.131   4.972   4.696   4.294   3.908
   3.548   3.205   2.876   2.566   2.317   2.155   2.007   1.884   1.772   1.682
   1.680   1.606
   0.514   0.525   0.543   0.557   0.594   0.661   0.754   0.852   0.966   1.178
   1.436   1.849   2.245   2.691   3.311   3.986   4.417   4.677   4.782   4.677
   4.417   3.986   3.311   2.691   2.245   1.849   1.436   1.178   0.966   0.852
   0.754   0.661   0.594   0.557   0.543   0.525   0.514   0.525   0.543   0.557
   0.594   0.661   0.754   0.852   0.966   1.178   1.436   1.849   2.245   2.691
   3.311   3.986   4.417   4.677   4.782   4.677   4.417   3.986   3.311   2.691
   2.245   1.849   1.436   1.178   0.966   0.852   0.754   0.661   0.594   0.557
   0.543   0.525
   0.315   0.325   0.334   0.370   0.378   0.403   0.425   0.492   0.610   0.683
   0.847   1.127   1.476   1.984   2.666   3.255   3.821   4.226   4.413   4.226
   3.821   3.255   2.666   1.984   1.476   1.127   0.847   0.683   0.610   0.492
   0.425   0.403   0.378   0.370   0.334   0.325   0.315   0.325   0.334   0.370
   0.378   0.403   0.425   0.492   0.610   0.683   0.847   1.127   1.476   1.984
   2.666   3.255   3.821   4.226   4.413   4.226   3.821   3.255   2.666   1.984
   1.476   1.127   0.847   0.683   0.610   0.492   0.425   0.403   0.378   0.370
   0.334   0.325
   0.341   0.320   0.327   0.370   0.379   0.389   0.388   0.423   0.536   0.533
   0.683   0.832   1.171   1.597   2.218   2.803   3.400   3.971   4.162   3.971
   3.400   2.803   2.218   1.597   1.171   0.832   0.683   0.533   0.536   0.423
   0.388   0.389   0.379   0.370   0.327   0.320   0.341   0.320   0.327   0.370
   0.379   0.389   0.388   0.423   0.536   0.533   0.683   0.832   1.171   1.597
   2.218   2.803   3.400   3.971   4.162   3.971   3.400   2.803   2.218   1.597
   1.171   0.832   0.683   0.533   0.536   0.423   0.388   0.389   0.379   0.370
   0.327   0.320
   0.397   0.337   0.349   0.403   0.436   0.414   0.471   0.528   0.595   0.594
   0.729   0.842   1.125   1.440   1.968   2.613   3.132   3.613   3.704   3.613
   3.132   2.613   1.968   1.440   1.125   0.842   0.729   0.594   0.595   0.528
   0.471   0.414   0.436   0.403   0.349   0.337   0.397   0.337   0.349   0.403
   0.436   0.414   0.471   0.528   0.595   0.594   0.729   0.842   1.125   1.440
   1.968   2.613   3.132   3.613   3.704   3.613   3.132   2.613   1.968   1.440
   1.125   0.842   0.729   0.594   0.595   0.528   0.471   0.414   0.436   0.403
   0.349   0.337
   0.370   0.316   0.320   0.365   0.423   0.405   0.441   0.535   0.629   0.654
   0.754   0.921   1.148   1.474   1.820   2.369   2.724   2.851   2.771   2.851
   2.724   2.369   1.820   1.474   1.148   0.921   0.754   0.654   0.629   0.535
   0.441   0.405   0.423   0.365   0.320   0.316   0.370   0.316   0.320   0.365
   0.423   0.405   0.441   0.535   0.629   0.654   0.754   0.921   1.148   1.474
   1.820   2.369   2.724   2.851   2.771   2.851   2.724   2.369   1.820   1.474
   1.148   0.921   0.754   0.654   0.629   0.535   0.441   0.405   0.423   0.365
   0.320   0.316
   0.346   0.350   0.341   0.402   0.403   0.349   0.378   0.475   0.601   0.658
   0.746   0.899   1.175   1.439   1.646   1.885   2.088   2.052   1.953   2.052
   2.088   1.885   1.646   1.439   1.175   0.899   0.746   0.658   0.601   0.475
   0.378   0.349   0.403   0.402   0.341   0.350   0.346   0.350   0.341   0.402
   0.403   0.349   0.378   0.475   0.601   0.658   0.746   0.899   1.175   1.439
   1.646   1.885   2.088   2.052   1.953   2.052   2.088   1.885   1.646   1.439
   1.175   0.899   0.746   0.658   0.601   0.475   0.378   0.349   0.403   0.402
   0.341   0.350
   0.385   0.379   0.383   0.407   0.406   0.349   0.445   0.537   0.598   0.617
   0.641   0.800   1.019   1.221   1.447   1.407   1.463   1.473   1.373   1.473
   1.463   1.407   1.447   1.221   1.019   0.800   0.641   0.617   0.598   0.537
   0.445   0.349   0.406   0.407   0.383   0.379   0.385   0.379   0.383   0.407
   0.406   0.349   0.445   0.537   0.598   0.617   0.641   0.800   1.019   1.221
   1.447   1.407   1.463   1.473   1.373   1.473   1.463   1.407   1.447   1.221
   1.019   0.800   0.641   0.617   0.598   0.537   0.445   0.349   0.406   0.407
   0.383   0.379
   0.512   0.554   0.547   0.463   0.497   0.453   0.572   0.598   0.626   0.627
   0.601   0.670   0.795   0.950   1.141   1.154   1.045   0.967   0.818   0.967
   1.045   1.154   1.141   0.950   0.795   0.670   0.601   0.627   0.626   0.598
   0.572   0.453   0.497   0.463   0.547   0.554   0.512   0.554   0.547   0.463
   0.497   0.453   0.572   0.598   0.626   0.627   0.601   0.670   0.795   0.950
   1.141   1.154   1.045   0.967   0.818   0.967   1.045   1.154   1.141   0.950
   0.795   0.670   0.601   0.627   0.626   0.598   0.572   0.453   0.497   0.463
   0.547   0.554
   1.291   1.296   1.274   1.016   0.893   0.741   0.749   0.687   0.675   0.675
   0.576   0.606   0.665   0.768   0.902   0.845   0.711   0.599   0.504   0.599
   0.711   0.845   0.902   0.768   0.665   0.606   0.576   0.675   0.675   0.687
   0.749   0.741   0.893   1.016   1.274   1.296   1.291   1.296   1.274   1.016
   0.893   0.741   0.749   0.687   0.675   0.675   0.576   0.606   0.665   0.768
   0.902   0.845   0.711   0.599   0.504   0.599   0.711   0.845   0.902   0.768
   0.665   0.606   0.576   0.675   0.675   0.687   0.749   0.741   0.893   1.016
   1.274   1.296
   3.891   3.581   3.019   2.250   1.855   1.461   1.193   1.062   0.907   0.801
   0.619   0.640   0.705   0.747   0.788   0.712   0.619   0.577   0.580   0.577
   0.619   0.712   0.788   0.747   0.705   0.640   0.619   0.801   0.907   1.062
   1.193   1.461   1.855   2.250   3.019   3.581   3.891   3.581   3.019   2.250
   1.855   1.461   1.193   1.062   0.907   0.801   0.619   0.640   0.705   0.747
   0.788   0.712   0.619   0.577   0.580   0.577   0.619   0.712   0.788   0.747
   0.705   0.640   0.619   0.801   0.907   1.062   1.193   1.461   1.855   2.250
   3.019   3.581
   4.653   4.351   3.626   2.872   2.506   2.082   1.797   1.561   1.304   1.011
   0.815   0.849   0.854   0.710   0.814   0.821   0.741   0.726   0.712   0.726
   0.741   0.821   0.814   0.710   0.854   0.849   0.815   1.011   1.304   1.561
   1.797   2.082   2.506   2.872   3.626   4.351   4.653   4.351   3.626   2.872
   2.506   2.082   1.797   1.561   1.304   1.011   0.815   0.849   0.854   0.710
   0.814   0.821   0.741   0.726   0.712   0.726   0.741   0.821   0.814   0.710
   0.854   0.849   0.815   1.011   1.304   1.561   1.797   2.082   2.506   2.872
   3.626   4.351
   1.987   2.003   1.881   1.685   1.636   1.632   1.866   1.916   1.623   1.236
   0.810   0.858   0.741   0.561   0.757   0.785   0.876   0.703   0.628   0.703
   0.876   0.785   0.757   0.561   0.741   0.858   0.810   1.236   1.623   1.916
   1.866   1.632   1.636   1.685   1.881   2.003   1.987   2.003   1.881   1.685
   1.636   1.632   1.866   1.916   1.623   1.236   0.810   0.858   0.741   0.561
   0.757   0.785   0.876   0.703   0.628   0.703   0.876   0.785   0.757   0.561
   0.741   0.858   0.810   1.236   1.623   1.916   1.866   1.632   1.636   1.685
   1.881   2.003
   0.557   0.557   0.464   0.494   0.547   0.756   1.241   1.526   1.452   1.100
   0.761   0.810   0.571   0.550   0.627   0.590   0.808   0.853   0.981   0.853
   0.808   0.590   0.627   0.550   0.571   0.810   0.761   1.100   1.452   1.526
   1.241   0.756   0.547   0.494   0.464   0.557   0.557   0.557   0.464   0.494
   0.547   0.756   1.241   1.526   1.452   1.100   0.761   0.810   0.571   0.550
   0.627   0.590   0.808   0.853   0.981   0.853   0.808   0.590   0.627   0.550
   0.571   0.810   0.761   1.100   1.452   1.526   1.241   0.756   0.547   0.494
   0.464   0.557
 200       5.00   72    0 5.00   15    0
   0.403   0.403   0.403   0.403   0.403   0.403   0.403   0.403   0.403   0.403
   0.403   0.403   0.403   0.403   0.403   0.403   0.403   0.403   0.403   0.403
   0.403   0.403   0.403   0.403   0.403   0.403   0.403   0.403   0.403   0.403
   0.403   0.403   0.403   0.403   0.403   0.403   0.403   0.403   0.403   0.403
   0.403   0.403   0.403   0.403   0.403   0.403   0.403   0.403   0.403   0.403
   0.403   0.403   0.403   0.403   0.403   0.403   0.403   0.403   0.403   0.403
   0.403   0.403   0.403   0.403   0.403   0.403   0.403   0.403   0.403   0.403
   0.403   0.403
   0.614   0.635   0.642   0.640   0.633   0.626   0.593   0.587   0.579   0.568
   0.577   0.559   0.535   0.525   0.527   0.515   0.529   0.519   0.502   0.519
   0.529   0.515   0.527   0.525   0.535   0.559   0.577   0.568   0.579   0.587
   0.593   0.626   0.633   0.640   0.642   0.635   0.614   0.635   0.642   0.640
   0.633   0.626   0.593   0.587   0.579   0.568   0.577   0.559   0.535   0.525
   0.527   0.515   0.529   0.519   0.502   0.519   0.529   0.515   0.527   0.525
   0.535   0.559   0.577   0.568   0.579   0.587   0.593   0.626   0.633   0.640
   0.642   0.635
   0.861   0.878   0.861   0.853   0.831   0.814   0.761   0.721   0.679   0.669
   0.662   0.638   0.599   0.579   0.574   0.541   0.545   0.550   0.545   0.550
   0.545   0.541   0.574   0.579   0.599   0.638   0.662   0.669   0.679   0.721
   0.761   0.814   0.831   0.853   0.861   0.878   0.861   0.878   0.861   0.853
   0.831   0.814   0.761   0.721   0.679   0.669   0.662   0.638   0.599   0.579
   0.574   0.541   0.545   0.550   0.545   0.550   0.545   0.541   0.574   0.579
   0.599   0.638   0.662   0.669   0.679   0.721   0.761   0.814   0.831   0.853
   0.861   0.878
   1.378   1.400   1.342   1.294   1.213   1.145   1.036   0.951   0.854   0.814
   0.747   0.714   0.656   0.627   0.601   0.581   0.551   0.553   0.550   0.553
   0.551   0.581   0.601   0.627   0.656   0.714   0.747   0.814   0.854   0.951
   1.036   1.145   1.213   1.294   1.342   1.400   1.378   1.400   1.342   1.294
   1.213   1.145   1.036   0.951   0.854   0.814   0.747   0.714   0.656   0.627
   0.601   0.581   0.551   0.553   0.550   0.553   0.551   0.581   0.601   0.627
   0.656   0.714   0.747   0.814   0.854   0.951   1.036   1.145   1.213   1.294
   1.342   1.400
   2.394   2.381   2.308   2.202   2.027   1.773   1.606   1.393   1.201   1.069
   0.914   0.838   0.744   0.690   0.642   0.588   0.569   0.532   0.542   0.532
   0.569   0.588   0.642   0.690   0.744   0.838   0.914   1.069   1.201   1.393
   1.606   1.773   2.027   2.202   2.308   2.381   2.394   2.381   2.308   2.202
   2.027   1.773   1.606   1.393   1.201   1.069   0.914   0.838   0.744   0.690
   0.642   0.588   0.569   0.532   0.542   0.532   0.569   0.588   0.642   0.690
   0.744   0.838   0.914   1.069   1.201   1.393   1.606   1.773   2.027   2.202
   2.308   2.381
   3.346   3.245   3.140   3.076   2.972   2.628   2.393   2.067   1.757   1.535
   1.267   1.049   0.912   0.793   0.741   0.663   0.647   0.598   0.590   0.598
   0.647   0.663   0.741   0.793   0.912   1.049   1.267   1.535   1.757   2.067
   2.393   2.628   2.972   3.076   3.140   3.245   3.346   3.245   3.140   3.076
   2.972   2.628   2.393   2.067   1.757   1.535   1.267   1.049   0.912   0.793
   0.741   0.663   0.647   0.598   0.590   0.598   0.647   0.663   0.741   0.793
   0.912   1.049   1.267   1.535   1.757   2.067   2.393   2.628   2.972   3.076
   3.140   3.245
   2.639   2.495   2.421   2.511   2.597   2.533   2.482   2.413   2.193   1.977
   1.677   1.366   1.125   0.965   0.862   0.818   0.807   0.774   0.746   0.774
   0.807   0.818   0.862   0.965   1.125   1.366   1.677   1.977   2.193   2.413
   2.482   2.533   2.597   2.511   2.421   2.495   2.639   2.495   2.421   2.511
   2.597   2.533   2.482   2.413   2.193   1.977   1.677   1.366   1.125   0.965
   0.862   0.818   0.807   0.774   0.746   0.774   0.807   0.818   0.862   0.965
   1.125   1.366   1.677   1.977   2.193   2.413   2.482   2.533   2.597   2.511
   2.421   2.495
   1.131   1.045   1.022   1.152   1.290   1.402   1.611   1.855   1.952   2.031
   1.918   1.655   1.360   1.184   1.020   0.947   0.941   0.915   0.881   0.915
   0.941   0.947   1.020   1.184   1.360   1.655   1.918   2.031   1.952   1.855
   1.611   1.402   1.290   1.152   1.022   1.045   1.131   1.045   1.022   1.152
   1.290   1.402   1.611   1.855   1.952   2.031   1.918   1.655   1.360   1.184
   1.020   0.947   0.941   0.915   0.881   0.915   0.941   0.947   1.020   1.184
   1.360   1.655   1.918   2.031   1.952   1.855   1.611   1.402   1.290   1.152
   1.022   1.045
   0.472   0.436   0.417   0.488   0.559   0.614   0.832   1.011   1.235   1.594
   1.674   1.575   1.380   1.268   1.158   1.119   1.097   0.979   0.980   0.979
   1.097   1.119   1.158   1.268   1.380   1.575   1.674   1.594   1.235   1.011
   0.832   0.614   0.559   0.488   0.417   0.436   0.472   0.436   0.417   0.488
   0.559   0.614   0.832   1.011   1.235   1.594   1.674   1.575   1.380   1.268
   1.158   1.119   1.097   0.979   0.980   0.979   1.097   1.119   1.158   1.268
   1.380   1.575   1.674   1.594   1.235   1.011   0.832   0.614   0.559   0.488
   0.417   0.436
   0.223   0.226   0.227   0.261   0.279   0.354   0.495   0.585   0.740   1.057
   1.315   1.415   1.330   1.240   1.115   1.104   1.126   1.049   1.113   1.049
   1.126   1.104   1.115   1.240   1.330   1.415   1.315   1.057   0.740   0.585
   0.495   0.354   0.279   0.261   0.227   0.226   0.223   0.226   0.227   0.261
   0.279   0.354   0.495   0.585   0.740   1.057   1.315   1.415   1.330   1.240
   1.115   1.104   1.126   1.049   1.113   1.049   1.126   1.104   1.115   1.240
   1.330   1.415   1.315   1.057   0.740   0.585   0.495   0.354   0.279   0.261
   0.227   0.226
   0.117   0.177   0.208   0.230   0.256   0.286   0.360   0.474   0.584   0.794
   1.099   1.315   1.232   1.135   0.981   0.970   1.046   0.989   1.027   0.989
   1.046   0.970   0.981   1.135   1.232   1.315   1.099   0.794   0.584   0.474
   0.360   0.286   0.256   0.230   0.208   0.177   0.117   0.177   0.208   0.230
   0.256   0.286   0.360   0.474   0.584   0.794   1.099   1.315   1.232   1.135
   0.981   0.970   1.046   0.989   1.027   0.989   1.046   0.970   0.981   1.135
   1.232   1.315   1.099   0.794   0.584   0.474   0.360   0.286   0.256   0.230
   0.208   0.177
   0.109   0.140   0.183   0.211   0.254   0.268   0.327   0.414   0.548   0.751
   1.031   1.160   1.097   0.957   0.880   0.838   0.970   0.863   0.799   0.863
   0.970   0.838   0.880   0.957   1.097   1.160   1.031   0.751   0.548   0.414
   0.327   0.268   0.254   0.211   0.183   0.140   0.109   0.140   0.183   0.211
   0.254   0.268   0.327   0.414   0.548   0.751   1.031   1.160   1.097   0.957
   0.880   0.838   0.970   0.863   0.799   0.863   0.970   0.838   0.880   0.957
   1.097   1.160   1.031   0.751   0.548   0.414   0.327   0.268   0.254   0.211
   0.183   0.140
   0.154   0.164   0.157   0.130   0.163   0.226   0.364   0.394   0.608   0.857
   1.119   1.220   1.082   0.833   0.789   0.653   0.675   0.699   0.615   0.699
   0.675   0.653   0.789   0.833   1.082   1.220   1.119   0.857   0.608   0.394
   0.364   0.226   0.163   0.130   0.157   0.164   0.154   0.164   0.157   0.130
   0.163   0.226   0.364   0.394   0.608   0.857   1.119   1.220   1.082   0.833
   0.789   0.653   0.675   0.699   0.615   0.699   0.675   0.653   0.789   0.833
   1.082   1.220   1.119   0.857   0.608   0.394   0.364   0.226   0.163   0.130
   0.157   0.164
   0.291   0.281   0.331   0.289   0.255   0.290   0.507   0.555   0.835   1.125
   1.273   1.314   1.039   0.800   0.700   0.601   0.541   0.524   0.504   0.524
   0.541   0.601   0.700   0.800   1.039   1.314   1.273   1.125   0.835   0.555
   0.507   0.290   0.255   0.289   0.331   0.281   0.291   0.281   0.331   0.289
   0.255   0.290   0.507   0.555   0.835   1.125   1.273   1.314   1.039   0.800
   0.700   0.601   0.541   0.524   0.504   0.524   0.541   0.601   0.700   0.800
   1.039   1.314   1.273   1.125   0.835   0.555   0.507   0.290   0.255   0.289
   0.331   0.281
   0.443   0.350   0.401   0.422   0.423   0.519   0.626   0.809   0.953   1.218
   1.275   1.158   0.914   0.589   0.435   0.411   0.429   0.325   0.434   0.325
   0.429   0.411   0.435   0.589   0.914   1.158   1.275   1.218   0.953   0.809
   0.626   0.519   0.423   0.422   0.401   0.350   0.443   0.350   0.401   0.422
   0.423   0.519   0.626   0.809   0.953   1.218   1.275   1.158   0.914   0.589
   0.435   0.411   0.429   0.325   0.434   0.325   0.429   0.411   0.435   0.589
   0.914   1.158   1.275   1.218   0.953   0.809   0.626   0.519   0.423   0.422
   0.401   0.350
 111       5.00   72    0 5.00   15    0
   0.106   0.106   0.106   0.106   0.106   0.106   0.106   0.106   0.106   0.106
   0.106   0.106   0.106   0.106   0.106   0.106   0.106   0.106   0.106   0.106
   0.106   0.106   0.106   0.106   0.106   0.106   0.106   0.106   0.106   0.106
   0.106   0.106   0.106   0.106   0.106   0.106   0.106   0.106   0.106   0.106
   0.106   0.106   0.106   0.106   0.106   0.106   0.106   0.106   0.106   0.106
   0.106   0.106   0.106   0.106   0.106   0.106   0.106   0.106   0.106   0.106
   0.106   0.106   0.106   0.106   0.106   0.106   0.106   0.106   0.106   0.106
   0.106   0.106
   0.162   0.166   0.163   0.157   0.150   0.158   0.162   0.156   0.144   0.144
   0.149   0.144   0.136   0.145   0.138   0.138   0.145   0.140   0.134   0.140
   0.145   0.138   0.138   0.145   0.136   0.144   0.149   0.144   0.144   0.156
   0.162   0.158   0.150   0.157   0.163   0.166   0.162   0.166   0.163   0.157
   0.150   0.158   0.162   0.156   0.144   0.144   0.149   0.144   0.136   0.145
   0.138   0.138   0.145   0.140   0.134   0.140   0.145   0.138   0.138   0.145
   0.136   0.144   0.149   0.144   0.144   0.156   0.162   0.158   0.150   0.157
   0.163   0.166
   0.308   0.297   0.281   0.272   0.252   0.247   0.232   0.210   0.196   0.183
   0.184   0.172   0.163   0.176   0.162   0.151   0.165   0.156   0.145   0.156
   0.165   0.151   0.162   0.176   0.163   0.172   0.184   0.183   0.196   0.210
   0.232   0.247   0.252   0.272   0.281   0.297   0.308   0.297   0.281   0.272
   0.252   0.247   0.232   0.210   0.196   0.183   0.184   0.172   0.163   0.176
   0.162   0.151   0.165   0.156   0.145   0.156   0.165   0.151   0.162   0.176
   0.163   0.172   0.184   0.183   0.196   0.210   0.232   0.247   0.252   0.272
   0.281   0.297
   1.037   0.970   0.863   0.754   0.626   0.528   0.416   0.358   0.294   0.258
   0.247   0.218   0.197   0.199   0.180   0.166   0.174   0.167   0.155   0.167
   0.174   0.166   0.180   0.199   0.197   0.218   0.247   0.258   0.294   0.358
   0.416   0.528   0.626   0.754   0.863   0.970   1.037   0.970   0.863   0.754
   0.626   0.528   0.416   0.358   0.294   0.258   0.247   0.218   0.197   0.199
   0.180   0.166   0.174   0.167   0.155   0.167   0.174   0.166   0.180   0.199
   0.197   0.218   0.247   0.258   0.294   0.358   0.416   0.528   0.626   0.754
   0.863   0.970
   3.539   3.381   3.024   2.480   1.982   1.539   1.105   0.827   0.606   0.458
   0.373   0.302   0.253   0.215   0.182   0.185   0.187   0.174   0.166   0.174
   0.187   0.185   0.182   0.215   0.253   0.302   0.373   0.458   0.606   0.827
   1.105   1.539   1.982   2.480   3.024   3.381   3.539   3.381   3.024   2.480
   1.982   1.539   1.105   0.827   0.606   0.458   0.373   0.302   0.253   0.215
   0.182   0.185   0.187   0.174   0.166   0.174   0.187   0.185   0.182   0.215
   0.253   0.302   0.373   0.458   0.606   0.827   1.105   1.539   1.982   2.480
   3.024   3.381
   5.727   5.524   5.103   4.354   3.768   3.099   2.385   1.783   1.289   0.884
   0.615   0.465   0.350   0.283   0.231   0.227   0.208   0.185   0.168   0.185
   0.208   0.227   0.231   0.283   0.350   0.465   0.615   0.884   1.289   1.783
   2.385   3.099   3.768   4.354   5.103   5.524   5.727   5.524   5.103   4.354
   3.768   3.099   2.385   1.783   1.289   0.884   0.615   0.465   0.350   0.283
   0.231   0.227   0.208   0.185   0.168   0.185   0.208   0.227   0.231   0.283
   0.350   0.465   0.615   0.884   1.289   1.783   2.385   3.099   3.768   4.354
   5.103   5.524
   4.668   4.521   4.374   4.096   3.927   3.598   3.132   2.538   1.949   1.383
   0.971   0.714   0.541   0.430   0.363   0.332   0.273   0.240   0.223   0.240
   0.273   0.332   0.363   0.430   0.541   0.714   0.971   1.383   1.949   2.538
   3.132   3.598   3.927   4.096   4.374   4.521   4.668   4.521   4.374   4.096
   3.927   3.598   3.132   2.538   1.949   1.383   0.971   0.714   0.541   0.430
   0.363   0.332   0.273   0.240   0.223   0.240   0.273   0.332   0.363   0.430
   0.541   0.714   0.971   1.383   1.949   2.538   3.132   3.598   3.927   4.096
   4.374   4.521
   2.139   2.147   2.246   2.356   2.549   2.729   2.690   2.384   2.046   1.669
   1.310   0.985   0.798   0.642   0.503   0.449   0.389   0.354   0.350   0.354
   0.389   0.449   0.503   0.642   0.798   0.985   1.310   1.669   2.046   2.384
   2.690   2.729   2.549   2.356   2.246   2.147   2.139   2.147   2.246   2.356
   2.549   2.729   2.690   2.384   2.046   1.669   1.310   0.985   0.798   0.642
   0.503   0.449   0.389   0.354   0.350   0.354   0.389   0.449   0.503   0.642
   0.798   0.985   1.310   1.669   2.046   2.384   2.690   2.729   2.549   2.356
   2.246   2.147
   0.704   0.759   0.860   0.994   1.237   1.600   1.785   1.824   1.726   1.579
   1.402   1.192   1.036   0.894   0.687   0.565   0.499   0.477   0.492   0.477
   0.499   0.565   0.687   0.894   1.036   1.192   1.402   1.579   1.726   1.824
   1.785   1.600   1.237   0.994   0.860   0.759   0.704   0.759   0.860   0.994
   1.237   1.600   1.785   1.824   1.726   1.579   1.402   1.192   1.036   0.894
   0.687   0.565   0.499   0.477   0.492   0.477   0.499   0.565   0.687   0.894
   1.036   1.192   1.402   1.579   1.726   1.824   1.785   1.600   1.237   0.994
   0.860   0.759
   0.349   0.349   0.372   0.436   0.545   0.797   1.021   1.273   1.348   1.359
   1.311   1.252   1.198   1.082   0.939   0.769   0.633   0.588   0.597   0.588
   0.633   0.769   0.939   1.082   1.198   1.252   1.311   1.359   1.348   1.273
   1.021   0.797   0.545   0.436   0.372   0.349   0.349   0.349   0.372   0.436
   0.545   0.797   1.021   1.273   1.348   1.359   1.311   1.252   1.198   1.082
   0.939   0.769   0.633   0.588   0.597   0.588   0.633   0.769   0.939   1.082
   1.198   1.252   1.311   1.359   1.348   1.273   1.021   0.797   0.545   0.436
   0.372   0.349
   0.264   0.241   0.241   0.248   0.294   0.415   0.560   0.803   1.022   1.164
   1.177   1.196   1.322   1.318   1.226   1.118   0.952   0.768   0.706   0.768
   0.952   1.118   1.226   1.318   1.322   1.196   1.177   1.164   1.022   0.803
   0.560   0.415   0.294   0.248   0.241   0.241   0.264   0.241   0.241   0.248
   0.294   0.415   0.560   0.803   1.022   1.164   1.177   1.196   1.322   1.318
   1.226   1.118   0.952   0.768   0.706   0.768   0.952   1.118   1.226   1.318
   1.322   1.196   1.177   1.164   1.022   0.803   0.560   0.415   0.294   0.248
   0.241   0.241
   0.267   0.224   0.202   0.160   0.211   0.260   0.352   0.551   0.746   0.863
   0.989   1.068   1.255   1.462   1.484   1.414   1.271   0.948   0.858   0.948
   1.271   1.414   1.484   1.462   1.255   1.068   0.989   0.863   0.746   0.551
   0.352   0.260   0.211   0.160   0.202   0.224   0.267   0.224   0.202   0.160
   0.211   0.260   0.352   0.551   0.746   0.863   0.989   1.068   1.255   1.462
   1.484   1.414   1.271   0.948   0.858   0.948   1.271   1.414   1.484   1.462
   1.255   1.068   0.989   0.863   0.746   0.551   0.352   0.260   0.211   0.160
   0.202   0.224
   0.260   0.254   0.253   0.202   0.207   0.242   0.285   0.440   0.561   0.639
   0.805   0.855   0.983   1.267   1.383   1.410   1.264   1.046   0.991   1.046
   1.264   1.410   1.383   1.267   0.983   0.855   0.805   0.639   0.561   0.440
   0.285   0.242   0.207   0.202   0.253   0.254   0.260   0.254   0.253   0.202
   0.207   0.242   0.285   0.440   0.561   0.639   0.805   0.855   0.983   1.267
   1.383   1.410   1.264   1.046   0.991   1.046   1.264   1.410   1.383   1.267
   0.983   0.855   0.805   0.639   0.561   0.440   0.285   0.242   0.207   0.202
   0.253   0.254
   0.265   0.292   0.300   0.270   0.274   0.285   0.333   0.442   0.551   0.578
   0.640   0.737   0.835   0.999   1.091   1.201   1.126   1.016   1.049   1.016
   1.126   1.201   1.091   0.999   0.835   0.737   0.640   0.578   0.551   0.442
   0.333   0.285   0.274   0.270   0.300   0.292   0.265   0.292   0.300   0.270
   0.274   0.285   0.333   0.442   0.551   0.578   0.640   0.737   0.835   0.999
   1.091   1.201   1.126   1.016   1.049   1.016   1.126   1.201   1.091   0.999
   0.835   0.737   0.640   0.578   0.551   0.442   0.333   0.285   0.274   0.270
   0.300   0.292
   0.445   0.428   0.404   0.332   0.338   0.282   0.378   0.441   0.458   0.476
   0.515   0.615   0.729   0.812   0.960   0.962   0.958   0.795   0.842   0.795
   0.958   0.962   0.960   0.812   0.729   0.615   0.515   0.476   0.458   0.441
   0.378   0.282   0.338   0.332   0.404   0.428   0.445   0.428   0.404   0.332
   0.338   0.282   0.378   0.441   0.458   0.476   0.515   0.615   0.729   0.812
   0.960   0.962   0.958   0.795   0.842   0.795   0.958   0.962   0.960   0.812
   0.729   0.615   0.515   0.476   0.458   0.441   0.378   0.282   0.338   0.332
   0.404   0.428
  4  1      2.8623155E-01
  4  2     -4.1337222E-01
  4  3     -4.6895428E-01
  6  1      2.2778507E+00
  6  2     -3.4095544E+00
  6  3      8.8935793E-01
  6  4     -1.7297186E-01
  8  1     -2.8730471E-01
  8  2      3.6749710E-01
  8  3      2.2600459E-01
  8  4      3.8300649E-01
  8  5      5.1241459E-01
 10  1     -1.3856108E-01
 10  2     -3.0152801E-01
 10  3      7.7085306E-01
 10  4     -1.2424750E-01
 10  5     -9.9049064E-02
 10  6     -3.1421839E-02
 12  1     -1.9274617E-01  1.9142670E+00
 12  2     -1.0327672E-01 -2.2897524E+00
 12  3      4.1249734E-02  2.0227181E+00
 12  4      1.1489392E-01 -7.6985224E-01
 12  5      1.4082061E-01 -2.7692404E-02
 12  6     -4.8214725E-01  3.8683751E-01
 12  7      1.6150595E-01  2.5747981E-01
 14  1     -5.6795433E-01
 14  2      4.3379750E-01
 14  3     -2.4078826E-01
 14  4     -3.4226630E-02
 14  5     -1.4022236E-01
 14  6     -8.5540703E-03
 14  7      2.3534388E-01
 14  8     -1.4977455E-01
 16  1     -7.5784382E-02  1.2995561E-02
 16  2     -3.6155131E-01  1.5681150E-01
 16  3      2.5471720E-01  1.8446419E-01
 16  4     -9.1118109E-02 -4.9495489E-01
 16  5      7.9083837E-02  1.8789535E-01
 16  6      1.8602656E-04 -7.4233095E-02
 16  7      7.9197056E-02 -4.7110051E-03
 16  8      6.2662888E-02  4.8241422E-02
 16  9     -2.3493851E-01  4.4361560E-02
 220       5.00   72    0 5.00   18    0
   2.819   2.820   2.823   2.829   2.837   2.847   2.858   2.871   2.884   2.898
   2.912   2.926   2.939   2.950   2.960   2.969   2.975   2.978   2.980   2.978
   2.975   2.969   2.960   2.950   2.939   2.926   2.912   2.898   2.884   2.871
   2.858   2.847   2.837   2.829   2.823   2.820   2.819   2.820   2.823   2.829
   2.837   2.847   2.858   2.871   2.884   2.898   2.912   2.926   2.939   2.950
   2.960   2.969   2.975   2.978   2.980   2.978   2.975   2.969   2.960   2.950
   2.939   2.926   2.912   2.898   2.884   2.871   2.858   2.847   2.837   2.829
   2.823   2.820
   1.759   1.767   1.790   1.828   1.882   1.948   2.028   2.118   2.217   2.322
   2.430   2.538   2.642   2.738   2.823   2.894   2.946   2.978   2.989   2.978
   2.946   2.894   2.823   2.738   2.642   2.538   2.430   2.322   2.217   2.118
   2.028   1.948   1.882   1.828   1.790   1.767   1.759   1.767   1.790   1.828
   1.882   1.948   2.028   2.118   2.217   2.322   2.430   2.538   2.642   2.738
   2.823   2.894   2.946   2.978   2.989   2.978   2.946   2.894   2.823   2.738
   2.642   2.538   2.430   2.322   2.217   2.118   2.028   1.948   1.882   1.828
   1.790   1.767
   0.475   0.485   0.516   0.568   0.643   0.743   0.868   1.021   1.198   1.400
   1.619   1.851   2.086   2.313   2.520   2.696   2.831   2.916   2.944   2.916
   2.831   2.696   2.520   2.313   2.086   1.851   1.619   1.400   1.198   1.021
   0.868   0.743   0.643   0.568   0.516   0.485   0.475   0.485   0.516   0.568
   0.643   0.743   0.868   1.021   1.198   1.400   1.619   1.851   2.086   2.313
   2.520   2.696   2.831   2.916   2.944   2.916   2.831   2.696   2.520   2.313
   2.086   1.851   1.619   1.400   1.198   1.021   0.868   0.743   0.643   0.568
   0.516   0.485
  -0.165  -0.163  -0.155  -0.139  -0.108  -0.055   0.027   0.148   0.314   0.528
   0.790   1.094   1.427   1.770   2.100   2.392   2.621   2.768   2.819   2.768
   2.621   2.392   2.100   1.770   1.427   1.094   0.790   0.528   0.314   0.148
   0.027  -0.055  -0.108  -0.139  -0.155  -0.163  -0.165  -0.163  -0.155  -0.139
  -0.108  -0.055   0.027   0.148   0.314   0.528   0.790   1.094   1.427   1.770
   2.100   2.392   2.621   2.768   2.819   2.768   2.621   2.392   2.100   1.770
   1.427   1.094   0.790   0.528   0.314   0.148   0.027  -0.055  -0.108  -0.139
  -0.155  -0.163
  -0.027  -0.034  -0.054  -0.084  -0.118  -0.147  -0.159  -0.138  -0.067   0.068
   0.279   0.564   0.915   1.308   1.711   2.084   2.387   2.585   2.653   2.585
   2.387   2.084   1.711   1.308   0.915   0.564   0.279   0.068  -0.067  -0.138
  -0.159  -0.147  -0.118  -0.084  -0.054  -0.034  -0.027  -0.034  -0.054  -0.084
  -0.118  -0.147  -0.159  -0.138  -0.067   0.068   0.279   0.564   0.915   1.308
   1.711   2.084   2.387   2.585   2.653   2.585   2.387   2.084   1.711   1.308
   0.915   0.564   0.279   0.068  -0.067  -0.138  -0.159  -0.147  -0.118  -0.084
  -0.054  -0.034
   0.320   0.316   0.304   0.279   0.240   0.188   0.130   0.081   0.062   0.098
   0.212   0.416   0.708   1.070   1.466   1.850   2.171   2.384   2.459   2.384
   2.171   1.850   1.466   1.070   0.708   0.416   0.212   0.098   0.062   0.081
   0.130   0.188   0.240   0.279   0.304   0.316   0.320   0.316   0.304   0.279
   0.240   0.188   0.130   0.081   0.062   0.098   0.212   0.416   0.708   1.070
   1.466   1.850   2.171   2.384   2.459   2.384   2.171   1.850   1.466   1.070
   0.708   0.416   0.212   0.098   0.062   0.081   0.130   0.188   0.240   0.279
   0.304   0.316
   0.288   0.300   0.334   0.378   0.418   0.439   0.433   0.406   0.374   0.366
   0.412   0.534   0.739   1.015   1.331   1.646   1.914   2.094   2.158   2.094
   1.914   1.646   1.331   1.015   0.739   0.534   0.412   0.366   0.374   0.406
   0.433   0.439   0.418   0.378   0.334   0.300   0.288   0.300   0.334   0.378
   0.418   0.439   0.433   0.406   0.374   0.366   0.412   0.534   0.739   1.015
   1.331   1.646   1.914   2.094   2.158   2.094   1.914   1.646   1.331   1.015
   0.739   0.534   0.412   0.366   0.374   0.406   0.433   0.439   0.418   0.378
   0.334   0.300
  -0.108  -0.082  -0.006   0.108   0.241   0.367   0.461   0.513   0.534   0.548
   0.588   0.675   0.816   0.999   1.202   1.396   1.556   1.661   1.697   1.661
   1.556   1.396   1.202   0.999   0.816   0.675   0.588   0.548   0.534   0.513
   0.461   0.367   0.241   0.108  -0.006  -0.082  -0.108  -0.082  -0.006   0.108
   0.241   0.367   0.461   0.513   0.534   0.548   0.588   0.675   0.816   0.999
   1.202   1.396   1.556   1.661   1.697   1.661   1.556   1.396   1.202   0.999
   0.816   0.675   0.588   0.548   0.534   0.513   0.461   0.367   0.241   0.108
  -0.006  -0.082
  -0.234  -0.218  -0.165  -0.068   0.069   0.221   0.356   0.449   0.505   0.549
   0.611   0.706   0.827   0.952   1.056   1.125   1.162   1.176   1.180   1.176
   1.162   1.125   1.056   0.952   0.827   0.706   0.611   0.549   0.505   0.449
   0.356   0.221   0.069  -0.068  -0.165  -0.218  -0.234  -0.218  -0.165  -0.068
   0.069   0.221   0.356   0.449   0.505   0.549   0.611   0.706   0.827   0.952
   1.056   1.125   1.162   1.176   1.180   1.176   1.162   1.125   1.056   0.952
   0.827   0.706   0.611   0.549   0.505   0.449   0.356   0.221   0.069  -0.068
  -0.165  -0.218
   0.560   0.530   0.462   0.407   0.403   0.445   0.496   0.522   0.522   0.529
   0.577   0.677   0.802   0.907   0.956   0.941   0.884   0.826   0.802   0.826
   0.884   0.941   0.956   0.907   0.802   0.677   0.577   0.529   0.522   0.522
   0.496   0.445   0.403   0.407   0.462   0.530   0.560   0.530   0.462   0.407
   0.403   0.445   0.496   0.522   0.522   0.529   0.577   0.677   0.802   0.907
   0.956   0.941   0.884   0.826   0.802   0.826   0.884   0.941   0.956   0.907
   0.802   0.677   0.577   0.529   0.522   0.522   0.496   0.445   0.403   0.407
   0.462   0.530
   2.222   2.119   1.862   1.563   1.323   1.166   1.050   0.923   0.779   0.663
   0.627   0.685   0.797   0.898   0.933   0.888   0.791   0.697   0.659   0.697
   0.791   0.888   0.933   0.898   0.797   0.685   0.627   0.663   0.779   0.923
   1.050   1.166   1.323   1.563   1.862   2.119   2.222   2.119   1.862   1.563
   1.323   1.166   1.050   0.923   0.779   0.663   0.627   0.685   0.797   0.898
   0.933   0.888   0.791   0.697   0.659   0.697   0.791   0.888   0.933   0.898
   0.797   0.685   0.627   0.663   0.779   0.923   1.050   1.166   1.323   1.563
   1.862   2.119
   3.791   3.628   3.212   2.714   2.290   1.989   1.753   1.501   1.212   0.946
   0.782   0.750   0.812   0.893   0.929   0.892   0.800   0.707   0.667   0.707
   0.800   0.892   0.929   0.893   0.812   0.750   0.782   0.946   1.212   1.501
   1.753   1.989   2.290   2.714   3.212   3.628   3.791   3.628   3.212   2.714
   2.290   1.989   1.753   1.501   1.212   0.946   0.782   0.750   0.812   0.893
   0.929   0.892   0.800   0.707   0.667   0.707   0.800   0.892   0.929   0.893
   0.812   0.750   0.782   0.946   1.212   1.501   1.753   1.989   2.290   2.714
   3.212   3.628
   4.075   3.904   3.473   2.970   2.570   2.320   2.137   1.901   1.574   1.227
   0.964   0.837   0.823   0.859   0.885   0.867   0.804   0.731   0.699   0.731
   0.804   0.867   0.885   0.859   0.823   0.837   0.964   1.227   1.574   1.901
   2.137   2.320   2.570   2.970   3.473   3.904   4.075   3.904   3.473   2.970
   2.570   2.320   2.137   1.901   1.574   1.227   0.964   0.837   0.823   0.859
   0.885   0.867   0.804   0.731   0.699   0.731   0.804   0.867   0.885   0.859
   0.823   0.837   0.964   1.227   1.574   1.901   2.137   2.320   2.570   2.970
   3.473   3.904
   2.742   2.631   2.359   2.073   1.915   1.911   1.953   1.891   1.669   1.364
   1.094   0.924   0.846   0.823   0.826   0.825   0.802   0.765   0.746   0.765
   0.802   0.825   0.826   0.823   0.846   0.924   1.094   1.364   1.669   1.891
   1.953   1.911   1.915   2.073   2.359   2.631   2.742   2.631   2.359   2.073
   1.915   1.911   1.953   1.891   1.669   1.364   1.094   0.924   0.846   0.823
   0.826   0.825   0.802   0.765   0.746   0.765   0.802   0.825   0.826   0.823
   0.846   0.924   1.094   1.364   1.669   1.891   1.953   1.911   1.915   2.073
   2.359   2.631
   0.768   0.749   0.711   0.715   0.837   1.090   1.369   1.519   1.477   1.311
   1.137   1.005   0.907   0.837   0.815   0.842   0.880   0.900   0.903   0.900
   0.880   0.842   0.815   0.837   0.907   1.005   1.137   1.311   1.477   1.519
   1.369   1.090   0.837   0.715   0.711   0.749   0.768   0.749   0.711   0.715
   0.837   1.090   1.369   1.519   1.477   1.311   1.137   1.005   0.907   0.837
   0.815   0.842   0.880   0.900   0.903   0.900   0.880   0.842   0.815   0.837
   0.907   1.005   1.137   1.311   1.477   1.519   1.369   1.090   0.837   0.715
   0.711   0.749
  -0.408  -0.360  -0.243  -0.092   0.121   0.428   0.770   1.021   1.115   1.108
   1.086   1.056   0.986   0.897   0.869   0.944   1.072   1.177   1.215   1.177
   1.072   0.944   0.869   0.897   0.986   1.056   1.086   1.108   1.115   1.021
   0.770   0.428   0.121  -0.092  -0.243  -0.360  -0.408  -0.360  -0.243  -0.092
   0.121   0.428   0.770   1.021   1.115   1.108   1.086   1.056   0.986   0.897
   0.869   0.944   1.072   1.177   1.215   1.177   1.072   0.944   0.869   0.897
   0.986   1.056   1.086   1.108   1.115   1.021   0.770   0.428   0.121  -0.092
  -0.243  -0.360
  -0.277  -0.212  -0.084   0.009   0.077   0.206   0.412   0.612   0.747   0.853
   0.972   1.057   1.039   0.956   0.941   1.077   1.308   1.508   1.584   1.508
   1.308   1.077   0.941   0.956   1.039   1.057   0.972   0.853   0.747   0.612
   0.412   0.206   0.077   0.009  -0.084  -0.212  -0.277  -0.212  -0.084   0.009
   0.077   0.206   0.412   0.612   0.747   0.853   0.972   1.057   1.039   0.956
   0.941   1.077   1.308   1.508   1.584   1.508   1.308   1.077   0.941   0.956
   1.039   1.057   0.972   0.853   0.747   0.612   0.412   0.206   0.077   0.009
  -0.084  -0.212
   0.331   0.385   0.463   0.437   0.320   0.246   0.288   0.397   0.519   0.674
   0.875   1.035   1.057   0.984   0.984   1.165   1.467   1.732   1.834   1.732
   1.467   1.165   0.984   0.984   1.057   1.035   0.875   0.674   0.519   0.397
   0.288   0.246   0.320   0.437   0.463   0.385   0.331   0.385   0.463   0.437
   0.320   0.246   0.288   0.397   0.519   0.674   0.875   1.035   1.057   0.984
   0.984   1.165   1.467   1.732   1.834   1.732   1.467   1.165   0.984   0.984
   1.057   1.035   0.875   0.674   0.519   0.397   0.288   0.246   0.320   0.437
   0.463   0.385
 200       5.00   72    0 5.00   18    0
   0.734   0.734   0.736   0.738   0.741   0.745   0.750   0.755   0.761   0.767
   0.773   0.778   0.784   0.789   0.793   0.796   0.799   0.800   0.801   0.800
   0.799   0.796   0.793   0.789   0.784   0.778   0.773   0.767   0.761   0.755
   0.750   0.745   0.741   0.738   0.736   0.734   0.734   0.734   0.736   0.738
   0.741   0.745   0.750   0.755   0.761   0.767   0.773   0.778   0.784   0.789
   0.793   0.796   0.799   0.800   0.801   0.800   0.799   0.796   0.793   0.789
   0.784   0.778   0.773   0.767   0.761   0.755   0.750   0.745   0.741   0.738
   0.736   0.734
   0.449   0.450   0.455   0.464   0.476   0.492   0.512   0.537   0.566   0.599
   0.635   0.672   0.710   0.747   0.780   0.808   0.829   0.843   0.847   0.843
   0.829   0.808   0.780   0.747   0.710   0.672   0.635   0.599   0.566   0.537
   0.512   0.492   0.476   0.464   0.455   0.450   0.449   0.450   0.455   0.464
   0.476   0.492   0.512   0.537   0.566   0.599   0.635   0.672   0.710   0.747
   0.780   0.808   0.829   0.843   0.847   0.843   0.829   0.808   0.780   0.747
   0.710   0.672   0.635   0.599   0.566   0.537   0.512   0.492   0.476   0.464
   0.455   0.450
   0.525   0.521   0.507   0.487   0.463   0.438   0.417   0.405   0.404   0.418
   0.447   0.492   0.548   0.613   0.679   0.741   0.791   0.823   0.834   0.823
   0.791   0.741   0.679   0.613   0.548   0.492   0.447   0.418   0.404   0.405
   0.417   0.438   0.463   0.487   0.507   0.521   0.525   0.521   0.507   0.487
   0.463   0.438   0.417   0.405   0.404   0.418   0.447   0.492   0.548   0.613
   0.679   0.741   0.791   0.823   0.834   0.823   0.791   0.741   0.679   0.613
   0.548   0.492   0.447   0.418   0.404   0.405   0.417   0.438   0.463   0.487
   0.507   0.521
   1.310   1.293   1.241   1.160   1.054   0.930   0.798   0.669   0.553   0.460
   0.400   0.376   0.390   0.436   0.505   0.581   0.651   0.699   0.717   0.699
   0.651   0.581   0.505   0.436   0.390   0.376   0.400   0.460   0.553   0.669
   0.798   0.930   1.054   1.160   1.241   1.293   1.310   1.293   1.241   1.160
   1.054   0.930   0.798   0.669   0.553   0.460   0.400   0.376   0.390   0.436
   0.505   0.581   0.651   0.699   0.717   0.699   0.651   0.581   0.505   0.436
   0.390   0.376   0.400   0.460   0.553   0.669   0.798   0.930   1.054   1.160
   1.241   1.293
   2.284   2.260   2.191   2.078   1.925   1.740   1.528   1.300   1.069   0.850
   0.659   0.512   0.422   0.389   0.407   0.459   0.522   0.571   0.589   0.571
   0.522   0.459   0.407   0.389   0.422   0.512   0.659   0.850   1.069   1.300
   1.528   1.740   1.925   2.078   2.191   2.260   2.284   2.260   2.191   2.078
   1.925   1.740   1.528   1.300   1.069   0.850   0.659   0.512   0.422   0.389
   0.407   0.459   0.522   0.571   0.589   0.571   0.522   0.459   0.407   0.389
   0.422   0.512   0.659   0.850   1.069   1.300   1.528   1.740   1.925   2.078
   2.191   2.260
   2.634   2.617   2.565   2.483   2.373   2.238   2.075   1.882   1.658   1.411
   1.156   0.916   0.718   0.580   0.510   0.499   0.523   0.554   0.567   0.554
   0.523   0.499   0.510   0.580   0.718   0.916   1.156   1.411   1.658   1.882
   2.075   2.238   2.373   2.483   2.565   2.617   2.634   2.617   2.565   2.483
   2.373   2.238   2.075   1.882   1.658   1.411   1.156   0.916   0.718   0.580
   0.510   0.499   0.523   0.554   0.567   0.554   0.523   0.499   0.510   0.580
   0.718   0.916   1.156   1.411   1.658   1.882   2.075   2.238   2.373   2.483
   2.565   2.617
   2.144   2.133   2.104   2.070   2.041   2.021   2.004   1.970   1.897   1.767
   1.580   1.351   1.113   0.906   0.758   0.678   0.652   0.655   0.659   0.655
   0.652   0.678   0.758   0.906   1.113   1.351   1.580   1.767   1.897   1.970
   2.004   2.021   2.041   2.070   2.104   2.133   2.144   2.133   2.104   2.070
   2.041   2.021   2.004   1.970   1.897   1.767   1.580   1.351   1.113   0.906
   0.758   0.678   0.652   0.655   0.659   0.655   0.652   0.678   0.758   0.906
   1.113   1.351   1.580   1.767   1.897   1.970   2.004   2.021   2.041   2.070
   2.104   2.133
   1.283   1.271   1.243   1.222   1.233   1.293   1.399   1.527   1.641   1.698
   1.668   1.549   1.364   1.162   0.989   0.876   0.822   0.808   0.806   0.808
   0.822   0.876   0.989   1.162   1.364   1.549   1.668   1.698   1.641   1.527
   1.399   1.293   1.233   1.222   1.243   1.271   1.283   1.271   1.243   1.222
   1.233   1.293   1.399   1.527   1.641   1.698   1.668   1.549   1.364   1.162
   0.989   0.876   0.822   0.808   0.806   0.808   0.822   0.876   0.989   1.162
   1.364   1.549   1.668   1.698   1.641   1.527   1.399   1.293   1.233   1.222
   1.243   1.271
   0.588   0.575   0.545   0.521   0.533   0.604   0.741   0.935   1.154   1.348
   1.467   1.481   1.396   1.257   1.120   1.025   0.983   0.975   0.976   0.975
   0.983   1.025   1.120   1.257   1.396   1.481   1.467   1.348   1.154   0.935
   0.741   0.604   0.533   0.521   0.545   0.575   0.588   0.575   0.545   0.521
   0.533   0.604   0.741   0.935   1.154   1.348   1.467   1.481   1.396   1.257
   1.120   1.025   0.983   0.975   0.976   0.975   0.983   1.025   1.120   1.257
   1.396   1.481   1.467   1.348   1.154   0.935   0.741   0.604   0.533   0.521
   0.545   0.575
   0.241   0.236   0.226   0.223   0.240   0.294   0.401   0.572   0.798   1.039
   1.234   1.332   1.324   1.249   1.167   1.119   1.114   1.128   1.137   1.128
   1.114   1.119   1.167   1.249   1.324   1.332   1.234   1.039   0.798   0.572
   0.401   0.294   0.240   0.223   0.226   0.236   0.241   0.236   0.226   0.223
   0.240   0.294   0.401   0.572   0.798   1.039   1.234   1.332   1.324   1.249
   1.167   1.119   1.114   1.128   1.137   1.128   1.114   1.119   1.167   1.249
   1.324   1.332   1.234   1.039   0.798   0.572   0.401   0.294   0.240   0.223
   0.226   0.236
   0.169   0.174   0.187   0.208   0.233   0.269   0.339   0.472   0.681   0.931
   1.149   1.266   1.269   1.206   1.149   1.135   1.158   1.188   1.201   1.188
   1.158   1.135   1.149   1.206   1.269   1.266   1.149   0.931   0.681   0.472
   0.339   0.269   0.233   0.208   0.187   0.174   0.169   0.174   0.187   0.208
   0.233   0.269   0.339   0.472   0.681   0.931   1.149   1.266   1.269   1.206
   1.149   1.135   1.158   1.188   1.201   1.188   1.158   1.135   1.149   1.206
   1.269   1.266   1.149   0.931   0.681   0.472   0.339   0.269   0.233   0.208
   0.187   0.174
   0.240   0.244   0.254   0.263   0.269   0.284   0.337   0.469   0.696   0.975
   1.206   1.299   1.248   1.135   1.054   1.040   1.063   1.084   1.091   1.084
   1.063   1.040   1.054   1.135   1.248   1.299   1.206   0.975   0.696   0.469
   0.337   0.284   0.269   0.263   0.254   0.244   0.240   0.244   0.254   0.263
   0.269   0.284   0.337   0.469   0.696   0.975   1.206   1.299   1.248   1.135
   1.054   1.040   1.063   1.084   1.091   1.084   1.063   1.040   1.054   1.135
   1.248   1.299   1.206   0.975   0.696   0.469   0.337   0.284   0.269   0.263
   0.254   0.244
   0.295   0.297   0.297   0.288   0.279   0.292   0.363   0.528   0.796   1.108
   1.340   1.382   1.242   1.043   0.915   0.884   0.888   0.882   0.874   0.882
   0.888   0.884   0.915   1.043   1.242   1.382   1.340   1.108   0.796   0.528
   0.363   0.292   0.279   0.288   0.297   0.297   0.295   0.297   0.297   0.288
   0.279   0.292   0.363   0.528   0.796   1.108   1.340   1.382   1.242   1.043
   0.915   0.884   0.888   0.882   0.874   0.882   0.888   0.884   0.915   1.043
   1.242   1.382   1.340   1.108   0.796   0.528   0.363   0.292   0.279   0.288
   0.297   0.297
   0.251   0.263   0.289   0.316   0.357   0.438   0.576   0.777   1.040   1.324
   1.510   1.482   1.252   0.976   0.814   0.781   0.781   0.754   0.734   0.754
   0.781   0.781   0.814   0.976   1.252   1.482   1.510   1.324   1.040   0.777
   0.576   0.438   0.357   0.316   0.289   0.263   0.251   0.263   0.289   0.316
   0.357   0.438   0.576   0.777   1.040   1.324   1.510   1.482   1.252   0.976
   0.814   0.781   0.781   0.754   0.734   0.754   0.781   0.781   0.814   0.976
   1.252   1.482   1.510   1.324   1.040   0.777   0.576   0.438   0.357   0.316
   0.289   0.263
   0.315   0.338   0.390   0.464   0.588   0.782   1.008   1.210   1.382   1.539
   1.626   1.534   1.252   0.938   0.774   0.772   0.802   0.784   0.763   0.784
   0.802   0.772   0.774   0.938   1.252   1.534   1.626   1.539   1.382   1.210
   1.008   0.782   0.588   0.464   0.390   0.338   0.315   0.338   0.390   0.464
   0.588   0.782   1.008   1.210   1.382   1.539   1.626   1.534   1.252   0.938
   0.774   0.772   0.802   0.784   0.763   0.784   0.802   0.772   0.774   0.938
   1.252   1.534   1.626   1.539   1.382   1.210   1.008   0.782   0.588   0.464
   0.390   0.338
   0.861   0.855   0.833   0.831   0.931   1.168   1.435   1.582   1.591   1.567
   1.547   1.433   1.160   0.856   0.713   0.760   0.849   0.872   0.864   0.872
   0.849   0.760   0.713   0.856   1.160   1.433   1.547   1.567   1.591   1.582
   1.435   1.168   0.931   0.831   0.833   0.855   0.861   0.855   0.833   0.831
   0.931   1.168   1.435   1.582   1.591   1.567   1.547   1.433   1.160   0.856
   0.713   0.760   0.849   0.872   0.864   0.872   0.849   0.760   0.713   0.856
   1.160   1.433   1.547   1.567   1.591   1.582   1.435   1.168   0.931   0.831
   0.833   0.855
   1.885   1.803   1.585   1.344   1.262   1.415   1.638   1.689   1.529   1.343
   1.257   1.172   0.958   0.691   0.575   0.666   0.815   0.890   0.901   0.890
   0.815   0.666   0.575   0.691   0.958   1.172   1.257   1.343   1.529   1.689
   1.638   1.415   1.262   1.344   1.585   1.803   1.885   1.803   1.585   1.344
   1.262   1.415   1.638   1.689   1.529   1.343   1.257   1.172   0.958   0.691
   0.575   0.666   0.815   0.890   0.901   0.890   0.815   0.666   0.575   0.691
   0.958   1.172   1.257   1.343   1.529   1.689   1.638   1.415   1.262   1.344
   1.585   1.803
   2.751   2.600   2.201   1.732   1.459   1.498   1.656   1.629   1.363   1.088
   0.980   0.936   0.776   0.541   0.441   0.555   0.742   0.851   0.876   0.851
   0.742   0.555   0.441   0.541   0.776   0.936   0.980   1.088   1.363   1.629
   1.656   1.498   1.459   1.732   2.201   2.600   2.751   2.600   2.201   1.732
   1.459   1.498   1.656   1.629   1.363   1.088   0.980   0.936   0.776   0.541
   0.441   0.555   0.742   0.851   0.876   0.851   0.742   0.555   0.441   0.541
   0.776   0.936   0.980   1.088   1.363   1.629   1.656   1.498   1.459   1.732
   2.201   2.600
 111       5.00   72    0 5.00   18    0
   0.229   0.229   0.231   0.234   0.239   0.244   0.250   0.257   0.265   0.272
   0.280   0.288   0.295   0.301   0.307   0.311   0.315   0.317   0.318   0.317
   0.315   0.311   0.307   0.301   0.295   0.288   0.280   0.272   0.265   0.257
   0.250   0.244   0.239   0.234   0.231   0.229   0.229   0.229   0.231   0.234
   0.239   0.244   0.250   0.257   0.265   0.272   0.280   0.288   0.295   0.301
   0.307   0.311   0.315   0.317   0.318   0.317   0.315   0.311   0.307   0.301
   0.295   0.288   0.280   0.272   0.265   0.257   0.250   0.244   0.239   0.234
   0.231   0.229
  -0.249  -0.247  -0.238  -0.224  -0.203  -0.177  -0.144  -0.106  -0.063  -0.017
   0.032   0.082   0.131   0.177   0.218   0.252   0.277   0.293   0.298   0.293
   0.277   0.252   0.218   0.177   0.131   0.082   0.032  -0.017  -0.063  -0.106
  -0.144  -0.177  -0.203  -0.224  -0.238  -0.247  -0.249  -0.247  -0.238  -0.224
  -0.203  -0.177  -0.144  -0.106  -0.063  -0.017   0.032   0.082   0.131   0.177
   0.218   0.252   0.277   0.293   0.298   0.293   0.277   0.252   0.218   0.177
   0.131   0.082   0.032  -0.017  -0.063  -0.106  -0.144  -0.177  -0.203  -0.224
  -0.238  -0.247
  -0.240  -0.246  -0.261  -0.282  -0.305  -0.324  -0.334  -0.330  -0.309  -0.270
  -0.216  -0.149  -0.074   0.002   0.075   0.138   0.186   0.217   0.228   0.217
   0.186   0.138   0.075   0.002  -0.074  -0.149  -0.216  -0.270  -0.309  -0.330
  -0.334  -0.324  -0.305  -0.282  -0.261  -0.246  -0.240  -0.246  -0.261  -0.282
  -0.305  -0.324  -0.334  -0.330  -0.309  -0.270  -0.216  -0.149  -0.074   0.002
   0.075   0.138   0.186   0.217   0.228   0.217   0.186   0.138   0.075   0.002
  -0.074  -0.149  -0.216  -0.270  -0.309  -0.330  -0.334  -0.324  -0.305  -0.282
  -0.261  -0.246
   1.022   0.989   0.893   0.746   0.566   0.372   0.187   0.027  -0.093  -0.168
  -0.196  -0.185  -0.144  -0.085  -0.019   0.042   0.090   0.122   0.132   0.122
   0.090   0.042  -0.019  -0.085  -0.144  -0.185  -0.196  -0.168  -0.093   0.027
   0.187   0.372   0.566   0.746   0.893   0.989   1.022   0.989   0.893   0.746
   0.566   0.372   0.187   0.027  -0.093  -0.168  -0.196  -0.185  -0.144  -0.085
  -0.019   0.042   0.090   0.122   0.132   0.122   0.090   0.042  -0.019  -0.085
  -0.144  -0.185  -0.196  -0.168  -0.093   0.027   0.187   0.372   0.566   0.746
   0.893   0.989
   3.063   2.995   2.800   2.496   2.116   1.696   1.275   0.889   0.565   0.317
   0.151   0.057   0.020   0.021   0.042   0.067   0.090   0.104   0.109   0.104
   0.090   0.067   0.042   0.021   0.020   0.057   0.151   0.317   0.565   0.889
   1.275   1.696   2.116   2.496   2.800   2.995   3.063   2.995   2.800   2.496
   2.116   1.696   1.275   0.889   0.565   0.317   0.151   0.057   0.020   0.021
   0.042   0.067   0.090   0.104   0.109   0.104   0.090   0.067   0.042   0.021
   0.020   0.057   0.151   0.317   0.565   0.889   1.275   1.696   2.116   2.496
   2.800   2.995
   4.443   4.368   4.148   3.802   3.356   2.847   2.313   1.796   1.333   0.948
   0.658   0.459   0.337   0.271   0.238   0.221   0.209   0.201   0.198   0.201
   0.209   0.221   0.238   0.271   0.337   0.459   0.658   0.948   1.333   1.796
   2.313   2.847   3.356   3.802   4.148   4.368   4.443   4.368   4.148   3.802
   3.356   2.847   2.313   1.796   1.333   0.948   0.658   0.459   0.337   0.271
   0.238   0.221   0.209   0.201   0.198   0.201   0.209   0.221   0.238   0.271
   0.337   0.459   0.658   0.948   1.333   1.796   2.313   2.847   3.356   3.802
   4.148   4.368
   4.110   4.074   3.963   3.777   3.513   3.176   2.776   2.336   1.887   1.467
   1.108   0.830   0.637   0.513   0.437   0.388   0.354   0.332   0.324   0.332
   0.354   0.388   0.437   0.513   0.637   0.830   1.108   1.467   1.887   2.336
   2.776   3.176   3.513   3.777   3.963   4.074   4.110   4.074   3.963   3.777
   3.513   3.176   2.776   2.336   1.887   1.467   1.108   0.830   0.637   0.513
   0.437   0.388   0.354   0.332   0.324   0.332   0.354   0.388   0.437   0.513
   0.637   0.830   1.108   1.467   1.887   2.336   2.776   3.176   3.513   3.777
   3.963   4.074
   2.411   2.433   2.495   2.572   2.634   2.640   2.559   2.372   2.091   1.750
   1.402   1.094   0.856   0.691   0.581   0.505   0.449   0.412   0.399   0.412
   0.449   0.505   0.581   0.691   0.856   1.094   1.402   1.750   2.091   2.372
   2.559   2.640   2.634   2.572   2.495   2.433   2.411   2.433   2.495   2.572
   2.634   2.640   2.559   2.372   2.091   1.750   1.402   1.094   0.856   0.691
   0.581   0.505   0.449   0.412   0.399   0.412   0.449   0.505   0.581   0.691
   0.856   1.094   1.402   1.750   2.091   2.372   2.559   2.640   2.634   2.572
   2.495   2.433
   0.684   0.735   0.885   1.115   1.392   1.667   1.881   1.981   1.944   1.783
   1.549   1.300   1.082   0.911   0.775   0.659   0.559   0.487   0.460   0.487
   0.559   0.659   0.775   0.911   1.082   1.300   1.549   1.783   1.944   1.981
   1.881   1.667   1.392   1.115   0.885   0.735   0.684   0.735   0.885   1.115
   1.392   1.667   1.881   1.981   1.944   1.783   1.549   1.300   1.082   0.911
   0.775   0.659   0.559   0.487   0.460   0.487   0.559   0.659   0.775   0.911
   1.082   1.300   1.549   1.783   1.944   1.981   1.881   1.667   1.392   1.115
   0.885   0.735
  -0.059  -0.030   0.062   0.226   0.466   0.767   1.085   1.358   1.533   1.591
   1.553   1.463   1.357   1.245   1.115   0.958   0.793   0.662   0.612   0.662
   0.793   0.958   1.115   1.245   1.357   1.463   1.553   1.591   1.533   1.358
   1.085   0.767   0.466   0.226   0.062  -0.030  -0.059  -0.030   0.062   0.226
   0.466   0.767   1.085   1.358   1.533   1.591   1.553   1.463   1.357   1.245
   1.115   0.958   0.793   0.662   0.612   0.662   0.793   0.958   1.115   1.245
   1.357   1.463   1.553   1.591   1.533   1.358   1.085   0.767   0.466   0.226
   0.062  -0.030
   0.063   0.053   0.033   0.033   0.093   0.246   0.487   0.771   1.036   1.241
   1.381   1.475   1.534   1.545   1.478   1.323   1.117   0.939   0.868   0.939
   1.117   1.323   1.478   1.545   1.534   1.475   1.381   1.241   1.036   0.771
   0.487   0.246   0.093   0.033   0.033   0.053   0.063   0.053   0.033   0.033
   0.093   0.246   0.487   0.771   1.036   1.241   1.381   1.475   1.534   1.545
   1.478   1.323   1.117   0.939   0.868   0.939   1.117   1.323   1.478   1.545
   1.534   1.475   1.381   1.241   1.036   0.771   0.487   0.246   0.093   0.033
   0.033   0.053
   0.270   0.251   0.196   0.124   0.078   0.108   0.235   0.436   0.660   0.870
   1.061   1.251   1.436   1.580   1.625   1.541   1.362   1.184   1.110   1.184
   1.362   1.541   1.625   1.580   1.436   1.251   1.061   0.870   0.660   0.436
   0.235   0.108   0.078   0.124   0.196   0.251   0.270   0.251   0.196   0.124
   0.078   0.108   0.235   0.436   0.660   0.870   1.061   1.251   1.436   1.580
   1.625   1.541   1.362   1.184   1.110   1.184   1.362   1.541   1.625   1.580
   1.436   1.251   1.061   0.870   0.660   0.436   0.235   0.108   0.078   0.124
   0.196   0.251
   0.147   0.147   0.138   0.117   0.104   0.137   0.233   0.369   0.505   0.624
   0.746   0.905   1.112   1.328   1.479   1.506   1.416   1.291   1.233   1.291
   1.416   1.506   1.479   1.328   1.112   0.905   0.746   0.624   0.505   0.369
   0.233   0.137   0.104   0.117   0.138   0.147   0.147   0.147   0.138   0.117
   0.104   0.137   0.233   0.369   0.505   0.624   0.746   0.905   1.112   1.328
   1.479   1.506   1.416   1.291   1.233   1.291   1.416   1.506   1.479   1.328
   1.112   0.905   0.746   0.624   0.505   0.369   0.233   0.137   0.104   0.117
   0.138   0.147
   0.011   0.015   0.024   0.037   0.075   0.162   0.293   0.425   0.519   0.569
   0.609   0.687   0.830   1.025   1.214   1.327   1.334   1.281   1.250   1.281
   1.334   1.327   1.214   1.025   0.830   0.687   0.609   0.569   0.519   0.425
   0.293   0.162   0.075   0.037   0.024   0.015   0.011   0.015   0.024   0.037
   0.075   0.162   0.293   0.425   0.519   0.569   0.609   0.687   0.830   1.025
   1.214   1.327   1.334   1.281   1.250   1.281   1.334   1.327   1.214   1.025
   0.830   0.687   0.609   0.569   0.519   0.425   0.293   0.162   0.075   0.037
   0.024   0.015
   0.375   0.348   0.281   0.216   0.206   0.277   0.401   0.523   0.607   0.655
   0.686   0.718   0.772   0.873   1.016   1.153   1.228   1.239   1.233   1.239
   1.228   1.153   1.016   0.873   0.772   0.718   0.686   0.655   0.607   0.523
   0.401   0.277   0.206   0.216   0.281   0.348   0.375   0.348   0.281   0.216
   0.206   0.277   0.401   0.523   0.607   0.655   0.686   0.718   0.772   0.873
   1.016   1.153   1.228   1.239   1.233   1.239   1.228   1.153   1.016   0.873
   0.772   0.718   0.686   0.655   0.607   0.523   0.401   0.277   0.206   0.216
   0.281   0.348
   1.301   1.232   1.060   0.872   0.750   0.714   0.721   0.728   0.739   0.784
   0.850   0.882   0.861   0.842   0.894   1.013   1.130   1.196   1.213   1.196
   1.130   1.013   0.894   0.842   0.861   0.882   0.850   0.784   0.739   0.728
   0.721   0.714   0.750   0.872   1.060   1.232   1.301   1.232   1.060   0.872
   0.750   0.714   0.721   0.728   0.739   0.784   0.850   0.882   0.861   0.842
   0.894   1.013   1.130   1.196   1.213   1.196   1.130   1.013   0.894   0.842
   0.861   0.882   0.850   0.784   0.739   0.728   0.721   0.714   0.750   0.872
   1.060   1.232
   2.360   2.272   2.054   1.808   1.610   1.452   1.273   1.065   0.908   0.885
   0.960   0.999   0.923   0.801   0.767   0.866   1.021   1.138   1.177   1.138
   1.021   0.866   0.767   0.801   0.923   0.999   0.960   0.885   0.908   1.065
   1.273   1.452   1.610   1.808   2.054   2.272   2.360   2.272   2.054   1.808
   1.610   1.452   1.273   1.065   0.908   0.885   0.960   0.999   0.923   0.801
   0.767   0.866   1.021   1.138   1.177   1.138   1.021   0.866   0.767   0.801
   0.923   0.999   0.960   0.885   0.908   1.065   1.273   1.452   1.610   1.808
   2.054   2.272
   3.034   2.948   2.738   2.499   2.286   2.056   1.737   1.351   1.040   0.935
   0.991   1.026   0.917   0.738   0.658   0.750   0.934   1.085   1.140   1.085
   0.934   0.750   0.658   0.738   0.917   1.026   0.991   0.935   1.040   1.351
   1.737   2.056   2.286   2.499   2.738   2.948   3.034   2.948   2.738   2.499
   2.286   2.056   1.737   1.351   1.040   0.935   0.991   1.026   0.917   0.738
   0.658   0.750   0.934   1.085   1.140   1.085   0.934   0.750   0.658   0.738
   0.917   1.026   0.991   0.935   1.040   1.351   1.737   2.056   2.286   2.499
   2.738   2.948
TEXTURE_INDEX=   3.0918
ERR_CF 220         1080     490   32.19   23.59
ERR_CF 200         1080     370   26.91   11.01
ERR_CF 111         1080     304   51.35   10.56
