TEXEVAL                                                                         
Analysis started on 19-Nov-20 10:27:04                                          
 LMAX=14LFMAX=03 CUBIC ORTHO   
 220      5.00 5.00
 200      5.00 5.00
 111      5.00 5.00
 220       5.00   72    0 5.00   15    0
   0.492   0.492   0.492   0.492   0.492   0.492   0.492   0.492   0.492   0.492
   0.492   0.492   0.492   0.492   0.492   0.492   0.492   0.492   0.492   0.492
   0.492   0.492   0.492   0.492   0.492   0.492   0.492   0.492   0.492   0.492
   0.492   0.492   0.492   0.492   0.492   0.492   0.492   0.492   0.492   0.492
   0.492   0.492   0.492   0.492   0.492   0.492   0.492   0.492   0.492   0.492
   0.492   0.492   0.492   0.492   0.492   0.492   0.492   0.492   0.492   0.492
   0.492   0.492   0.492   0.492   0.492   0.492   0.492   0.492   0.492   0.492
   0.492   0.492
   1.389   1.285   1.449   1.510   0.551   0.435   0.994   3.732   0.352   0.223
   0.275   0.370   0.352   0.300   0.362   0.150   0.243   0.114   0.489   0.114
   0.243   0.150   0.362   0.300   0.352   0.370   0.275   0.223   0.352   3.732
   0.994   0.435   0.551   1.510   1.449   1.285   1.389   1.285   1.449   1.510
   0.551   0.435   0.994   3.732   0.352   0.223   0.275   0.370   0.352   0.300
   0.362   0.150   0.243   0.114   0.489   0.114   0.243   0.150   0.362   0.300
   0.352   0.370   0.275   0.223   0.352   3.732   0.994   0.435   0.551   1.510
   1.449   1.285
   0.448   0.302   0.443   0.971   0.659   0.426   0.868   3.643   0.400   0.353
   0.364   0.837   0.323   0.805   0.347   0.264   0.637   1.173   2.034   1.173
   0.637   0.264   0.347   0.805   0.323   0.837   0.364   0.353   0.400   3.643
   0.868   0.426   0.659   0.971   0.443   0.302   0.448   0.302   0.443   0.971
   0.659   0.426   0.868   3.643   0.400   0.353   0.364   0.837   0.323   0.805
   0.347   0.264   0.637   1.173   2.034   1.173   0.637   0.264   0.347   0.805
   0.323   0.837   0.364   0.353   0.400   3.643   0.868   0.426   0.659   0.971
   0.443   0.302
   0.642   0.385   0.440   0.390   0.418   0.316   0.300   0.238   0.400   0.311
   0.258   0.612   0.165   0.602   0.096   0.307   0.644   1.224   1.557   1.224
   0.644   0.307   0.096   0.602   0.165   0.612   0.258   0.311   0.400   0.238
   0.300   0.316   0.418   0.390   0.440   0.385   0.642   0.385   0.440   0.390
   0.418   0.316   0.300   0.238   0.400   0.311   0.258   0.612   0.165   0.602
   0.096   0.307   0.644   1.224   1.557   1.224   0.644   0.307   0.096   0.602
   0.165   0.612   0.258   0.311   0.400   0.238   0.300   0.316   0.418   0.390
   0.440   0.385
   0.679   0.828   0.593   0.814   0.457   0.413   0.430   0.520   1.263   0.159
   0.164   0.133   0.149   0.063   0.075   0.206   0.066   0.154   0.080   0.154
   0.066   0.206   0.075   0.063   0.149   0.133   0.164   0.159   1.263   0.520
   0.430   0.413   0.457   0.814   0.593   0.828   0.679   0.828   0.593   0.814
   0.457   0.413   0.430   0.520   1.263   0.159   0.164   0.133   0.149   0.063
   0.075   0.206   0.066   0.154   0.080   0.154   0.066   0.206   0.075   0.063
   0.149   0.133   0.164   0.159   1.263   0.520   0.430   0.413   0.457   0.814
   0.593   0.828
   0.220   0.782   0.458   1.017   0.426   0.678   0.444   0.474   1.933   2.871
   0.249   0.164   0.090   0.086   0.153   0.172   0.072   0.131   0.275   0.131
   0.072   0.172   0.153   0.086   0.090   0.164   0.249   2.871   1.933   0.474
   0.444   0.678   0.426   1.017   0.458   0.782   0.220   0.782   0.458   1.017
   0.426   0.678   0.444   0.474   1.933   2.871   0.249   0.164   0.090   0.086
   0.153   0.172   0.072   0.131   0.275   0.131   0.072   0.172   0.153   0.086
   0.090   0.164   0.249   2.871   1.933   0.474   0.444   0.678   0.426   1.017
   0.458   0.782
   0.121   0.259   0.285   0.823   0.315   0.436   0.476   0.125   2.096   3.008
   0.362   1.281   0.350   0.111   0.306   0.164   0.113   0.129   0.194   0.129
   0.113   0.164   0.306   0.111   0.350   1.281   0.362   3.008   2.096   0.125
   0.476   0.436   0.315   0.823   0.285   0.259   0.121   0.259   0.285   0.823
   0.315   0.436   0.476   0.125   2.096   3.008   0.362   1.281   0.350   0.111
   0.306   0.164   0.113   0.129   0.194   0.129   0.113   0.164   0.306   0.111
   0.350   1.281   0.362   3.008   2.096   0.125   0.476   0.436   0.315   0.823
   0.285   0.259
   0.259   0.298   0.619   1.738   4.680   0.957   0.645   0.114   1.431   0.415
   0.661   1.215   0.685   0.242   0.649   0.374   0.284   0.215   0.112   0.215
   0.284   0.374   0.649   0.242   0.685   1.215   0.661   0.415   1.431   0.114
   0.645   0.957   4.680   1.738   0.619   0.298   0.259   0.298   0.619   1.738
   4.680   0.957   0.645   0.114   1.431   0.415   0.661   1.215   0.685   0.242
   0.649   0.374   0.284   0.215   0.112   0.215   0.284   0.374   0.649   0.242
   0.685   1.215   0.661   0.415   1.431   0.114   0.645   0.957   4.680   1.738
   0.619   0.298
   0.647   0.664   1.410   2.177   4.892   3.862   0.764   0.793   0.314   0.643
   0.592   0.435   0.623   0.293   0.608   0.691   0.942   0.441   0.417   0.441
   0.942   0.691   0.608   0.293   0.623   0.435   0.592   0.643   0.314   0.793
   0.764   3.862   4.892   2.177   1.410   0.664   0.647   0.664   1.410   2.177
   4.892   3.862   0.764   0.793   0.314   0.643   0.592   0.435   0.623   0.293
   0.608   0.691   0.942   0.441   0.417   0.441   0.942   0.691   0.608   0.293
   0.623   0.435   0.592   0.643   0.314   0.793   0.764   3.862   4.892   2.177
   1.410   0.664
   0.861   0.919   1.289   1.106   1.146   4.057   1.091   0.968   0.387   0.544
   0.236   0.472   0.274   0.084   4.228   1.263   1.298   0.568   0.731   0.568
   1.298   1.263   4.228   0.084   0.274   0.472   0.236   0.544   0.387   0.968
   1.091   4.057   1.146   1.106   1.289   0.919   0.861   0.919   1.289   1.106
   1.146   4.057   1.091   0.968   0.387   0.544   0.236   0.472   0.274   0.084
   4.228   1.263   1.298   0.568   0.731   0.568   1.298   1.263   4.228   0.084
   0.274   0.472   0.236   0.544   0.387   0.968   1.091   4.057   1.146   1.106
   1.289   0.919
   0.436   0.644   0.410   0.185   0.865   2.550   0.870   0.529   0.447   0.246
   0.247   0.119   0.346   0.166   6.514   4.852   0.784   1.978   1.070   1.978
   0.784   4.852   6.514   0.166   0.346   0.119   0.247   0.246   0.447   0.529
   0.870   2.550   0.865   0.185   0.410   0.644   0.436   0.644   0.410   0.185
   0.865   2.550   0.870   0.529   0.447   0.246   0.247   0.119   0.346   0.166
   6.514   4.852   0.784   1.978   1.070   1.978   0.784   4.852   6.514   0.166
   0.346   0.119   0.247   0.246   0.447   0.529   0.870   2.550   0.865   0.185
   0.410   0.644
   0.441   0.198   0.324   0.218   0.179   2.187   0.625   0.506   0.418   0.225
   0.354   0.216   0.486   0.391   2.662   4.288   1.001   2.850   0.805   2.850
   1.001   4.288   2.662   0.391   0.486   0.216   0.354   0.225   0.418   0.506
   0.625   2.187   0.179   0.218   0.324   0.198   0.441   0.198   0.324   0.218
   0.179   2.187   0.625   0.506   0.418   0.225   0.354   0.216   0.486   0.391
   2.662   4.288   1.001   2.850   0.805   2.850   1.001   4.288   2.662   0.391
   0.486   0.216   0.354   0.225   0.418   0.506   0.625   2.187   0.179   0.218
   0.324   0.198
   0.687   0.263   0.340   0.908   0.106   1.576   1.074   0.207   0.492   0.491
   0.449   0.613   0.336   0.317   0.450   0.761   1.416   1.258   4.472   1.258
   1.416   0.761   0.450   0.317   0.336   0.613   0.449   0.491   0.492   0.207
   1.074   1.576   0.106   0.908   0.340   0.263   0.687   0.263   0.340   0.908
   0.106   1.576   1.074   0.207   0.492   0.491   0.449   0.613   0.336   0.317
   0.450   0.761   1.416   1.258   4.472   1.258   1.416   0.761   0.450   0.317
   0.336   0.613   0.449   0.491   0.492   0.207   1.074   1.576   0.106   0.908
   0.340   0.263
   0.571   0.551   0.716   0.910   0.254   1.155   1.338   0.297   0.645   0.672
   0.825   0.883   1.276   0.361   0.513   1.170   1.893   0.549   5.171   0.549
   1.893   1.170   0.513   0.361   1.276   0.883   0.825   0.672   0.645   0.297
   1.338   1.155   0.254   0.910   0.716   0.551   0.571   0.551   0.716   0.910
   0.254   1.155   1.338   0.297   0.645   0.672   0.825   0.883   1.276   0.361
   0.513   1.170   1.893   0.549   5.171   0.549   1.893   1.170   0.513   0.361
   1.276   0.883   0.825   0.672   0.645   0.297   1.338   1.155   0.254   0.910
   0.716   0.551
   0.539   1.287   2.067   0.396   0.966   1.193   1.202   0.498   0.880   1.079
   1.435   1.300   1.770   1.073   0.838   1.369   2.492   0.960   2.063   0.960
   2.492   1.369   0.838   1.073   1.770   1.300   1.435   1.079   0.880   0.498
   1.202   1.193   0.966   0.396   2.067   1.287   0.539   1.287   2.067   0.396
   0.966   1.193   1.202   0.498   0.880   1.079   1.435   1.300   1.770   1.073
   0.838   1.369   2.492   0.960   2.063   0.960   2.492   1.369   0.838   1.073
   1.770   1.300   1.435   1.079   0.880   0.498   1.202   1.193   0.966   0.396
   2.067   1.287
 200       5.00   72    0 5.00   15    0
   5.785   5.785   5.785   5.785   5.785   5.785   5.785   5.785   5.785   5.785
   5.785   5.785   5.785   5.785   5.785   5.785   5.785   5.785   5.785   5.785
   5.785   5.785   5.785   5.785   5.785   5.785   5.785   5.785   5.785   5.785
   5.785   5.785   5.785   5.785   5.785   5.785   5.785   5.785   5.785   5.785
   5.785   5.785   5.785   5.785   5.785   5.785   5.785   5.785   5.785   5.785
   5.785   5.785   5.785   5.785   5.785   5.785   5.785   5.785   5.785   5.785
   5.785   5.785   5.785   5.785   5.785   5.785   5.785   5.785   5.785   5.785
   5.785   5.785
   3.027   2.806   1.706   1.406   1.291   1.430   1.807   1.952   2.006   3.947
  22.408  13.372   6.738   4.818   5.157   4.445   3.162   2.655   2.789   2.655
   3.162   4.445   5.157   4.818   6.738  13.372  22.408   3.947   2.006   1.952
   1.807   1.430   1.291   1.406   1.706   2.806   3.027   2.806   1.706   1.406
   1.291   1.430   1.807   1.952   2.006   3.947  22.408  13.372   6.738   4.818
   5.157   4.445   3.162   2.655   2.789   2.655   3.162   4.445   5.157   4.818
   6.738  13.372  22.408   3.947   2.006   1.952   1.807   1.430   1.291   1.406
   1.706   2.806
   1.517   1.342   0.534   1.111   0.696   1.153   2.711   1.367   1.166   2.094
   5.321   3.209   0.965   1.587   3.115   3.093   1.868   1.702   1.820   1.702
   1.868   3.093   3.115   1.587   0.965   3.209   5.321   2.094   1.166   1.367
   2.711   1.153   0.696   1.111   0.534   1.342   1.517   1.342   0.534   1.111
   0.696   1.153   2.711   1.367   1.166   2.094   5.321   3.209   0.965   1.587
   3.115   3.093   1.868   1.702   1.820   1.702   1.868   3.093   3.115   1.587
   0.965   3.209   5.321   2.094   1.166   1.367   2.711   1.153   0.696   1.111
   0.534   1.342
   0.180   0.214   0.339   0.900   0.649   1.039   2.108   0.660   0.471   0.302
   0.972   2.606   0.659   0.672   0.475   0.675   0.471   0.539   0.571   0.539
   0.471   0.675   0.475   0.672   0.659   2.606   0.972   0.302   0.471   0.660
   2.108   1.039   0.649   0.900   0.339   0.214   0.180   0.214   0.339   0.900
   0.649   1.039   2.108   0.660   0.471   0.302   0.972   2.606   0.659   0.672
   0.475   0.675   0.471   0.539   0.571   0.539   0.471   0.675   0.475   0.672
   0.659   2.606   0.972   0.302   0.471   0.660   2.108   1.039   0.649   0.900
   0.339   0.214
   0.060   0.138   0.207   0.127   0.397   0.479   0.467   0.419   0.363   0.172
   0.148   0.169   0.361   0.528   0.205   0.190   1.118   2.306   0.178   2.306
   1.118   0.190   0.205   0.528   0.361   0.169   0.148   0.172   0.363   0.419
   0.467   0.479   0.397   0.127   0.207   0.138   0.060   0.138   0.207   0.127
   0.397   0.479   0.467   0.419   0.363   0.172   0.148   0.169   0.361   0.528
   0.205   0.190   1.118   2.306   0.178   2.306   1.118   0.190   0.205   0.528
   0.361   0.169   0.148   0.172   0.363   0.419   0.467   0.479   0.397   0.127
   0.207   0.138
   0.057   0.074   0.073   0.030   0.227   0.334   0.381   0.298   0.444   0.284
   0.262   0.292   0.192   0.279   0.192   0.349   1.265   2.326   0.261   2.326
   1.265   0.349   0.192   0.279   0.192   0.292   0.262   0.284   0.444   0.298
   0.381   0.334   0.227   0.030   0.073   0.074   0.057   0.074   0.073   0.030
   0.227   0.334   0.381   0.298   0.444   0.284   0.262   0.292   0.192   0.279
   0.192   0.349   1.265   2.326   0.261   2.326   1.265   0.349   0.192   0.279
   0.192   0.292   0.262   0.284   0.444   0.298   0.381   0.334   0.227   0.030
   0.073   0.074
   0.057   0.211   0.118   0.068   0.157   0.441   0.862   1.050   0.427   0.304
   0.570   0.567   0.281   0.299   0.237   0.279   0.232   0.147   0.276   0.147
   0.232   0.279   0.237   0.299   0.281   0.567   0.570   0.304   0.427   1.050
   0.862   0.441   0.157   0.068   0.118   0.211   0.057   0.211   0.118   0.068
   0.157   0.441   0.862   1.050   0.427   0.304   0.570   0.567   0.281   0.299
   0.237   0.279   0.232   0.147   0.276   0.147   0.232   0.279   0.237   0.299
   0.281   0.567   0.570   0.304   0.427   1.050   0.862   0.441   0.157   0.068
   0.118   0.211
   0.018   0.340   0.104   0.203   0.173   0.377   0.789   1.071   0.541   1.115
   0.543   0.654   0.613   0.439   0.354   0.125   0.072   0.423   0.204   0.423
   0.072   0.125   0.354   0.439   0.613   0.654   0.543   1.115   0.541   1.071
   0.789   0.377   0.173   0.203   0.104   0.340   0.018   0.340   0.104   0.203
   0.173   0.377   0.789   1.071   0.541   1.115   0.543   0.654   0.613   0.439
   0.354   0.125   0.072   0.423   0.204   0.423   0.072   0.125   0.354   0.439
   0.613   0.654   0.543   1.115   0.541   1.071   0.789   0.377   0.173   0.203
   0.104   0.340
   0.142   0.211   0.163   0.179   0.205   0.343   0.209   0.393   0.609   1.291
   0.385   0.786   0.872   0.534   0.265   0.168   0.196   0.469   0.154   0.469
   0.196   0.168   0.265   0.534   0.872   0.786   0.385   1.291   0.609   0.393
   0.209   0.343   0.205   0.179   0.163   0.211   0.142   0.211   0.163   0.179
   0.205   0.343   0.209   0.393   0.609   1.291   0.385   0.786   0.872   0.534
   0.265   0.168   0.196   0.469   0.154   0.469   0.196   0.168   0.265   0.534
   0.872   0.786   0.385   1.291   0.609   0.393   0.209   0.343   0.205   0.179
   0.163   0.211
   0.153   0.125   0.366   0.168   0.389   1.487   0.169   0.743   1.109   0.506
   0.597   1.150   0.958   0.331   0.029   0.379   0.354   0.376   0.287   0.376
   0.354   0.379   0.029   0.331   0.958   1.150   0.597   0.506   1.109   0.743
   0.169   1.487   0.389   0.168   0.366   0.125   0.153   0.125   0.366   0.168
   0.389   1.487   0.169   0.743   1.109   0.506   0.597   1.150   0.958   0.331
   0.029   0.379   0.354   0.376   0.287   0.376   0.354   0.379   0.029   0.331
   0.958   1.150   0.597   0.506   1.109   0.743   0.169   1.487   0.389   0.168
   0.366   0.125
   0.029   0.172   0.367   0.524   0.653   1.985   0.485   0.674   1.643   0.598
   0.663   1.160   0.914   0.355   0.203   0.593   0.679   0.508   0.559   0.508
   0.679   0.593   0.203   0.355   0.914   1.160   0.663   0.598   1.643   0.674
   0.485   1.985   0.653   0.524   0.367   0.172   0.029   0.172   0.367   0.524
   0.653   1.985   0.485   0.674   1.643   0.598   0.663   1.160   0.914   0.355
   0.203   0.593   0.679   0.508   0.559   0.508   0.679   0.593   0.203   0.355
   0.914   1.160   0.663   0.598   1.643   0.674   0.485   1.985   0.653   0.524
   0.367   0.172
   0.054   0.208   0.269   2.452   1.626   0.910   0.611   0.757   0.976   0.401
   0.437   1.751   0.741   0.345   0.290   0.301   0.596   0.251   0.300   0.251
   0.596   0.301   0.290   0.345   0.741   1.751   0.437   0.401   0.976   0.757
   0.611   0.910   1.626   2.452   0.269   0.208   0.054   0.208   0.269   2.452
   1.626   0.910   0.611   0.757   0.976   0.401   0.437   1.751   0.741   0.345
   0.290   0.301   0.596   0.251   0.300   0.251   0.596   0.301   0.290   0.345
   0.741   1.751   0.437   0.401   0.976   0.757   0.611   0.910   1.626   2.452
   0.269   0.208
   0.054   0.616   0.373   2.170   1.897   0.590   2.855   0.611   0.441   0.297
   0.182   1.667   0.849   0.352   0.196   0.257   0.227   0.070   0.000   0.070
   0.227   0.257   0.196   0.352   0.849   1.667   0.182   0.297   0.441   0.611
   2.855   0.590   1.897   2.170   0.373   0.616   0.054   0.616   0.373   2.170
   1.897   0.590   2.855   0.611   0.441   0.297   0.182   1.667   0.849   0.352
   0.196   0.257   0.227   0.070   0.000   0.070   0.227   0.257   0.196   0.352
   0.849   1.667   0.182   0.297   0.441   0.611   2.855   0.590   1.897   2.170
   0.373   0.616
   0.000   0.741   0.469   0.118   0.823   1.072   3.054   0.036   0.429   0.560
   0.124   0.497   0.714   0.586   0.081   0.262   0.081   0.124   0.000   0.124
   0.081   0.262   0.081   0.586   0.714   0.497   0.124   0.560   0.429   0.036
   3.054   1.072   0.823   0.118   0.469   0.741   0.000   0.741   0.469   0.118
   0.823   1.072   3.054   0.036   0.429   0.560   0.124   0.497   0.714   0.586
   0.081   0.262   0.081   0.124   0.000   0.124   0.081   0.262   0.081   0.586
   0.714   0.497   0.124   0.560   0.429   0.036   3.054   1.072   0.823   0.118
   0.469   0.741
   0.401   1.237   1.082   1.303   1.542   2.657   2.339   0.747   0.562   1.531
   0.857   0.757   0.746   1.569   0.263   0.333   1.278   0.444   0.902   0.444
   1.278   0.333   0.263   1.569   0.746   0.757   0.857   1.531   0.562   0.747
   2.339   2.657   1.542   1.303   1.082   1.237   0.401   1.237   1.082   1.303
   1.542   2.657   2.339   0.747   0.562   1.531   0.857   0.757   0.746   1.569
   0.263   0.333   1.278   0.444   0.902   0.444   1.278   0.333   0.263   1.569
   0.746   0.757   0.857   1.531   0.562   0.747   2.339   2.657   1.542   1.303
   1.082   1.237
 111       5.00   72    0 5.00   15    0
   0.976   0.976   0.976   0.976   0.976   0.976   0.976   0.976   0.976   0.976
   0.976   0.976   0.976   0.976   0.976   0.976   0.976   0.976   0.976   0.976
   0.976   0.976   0.976   0.976   0.976   0.976   0.976   0.976   0.976   0.976
   0.976   0.976   0.976   0.976   0.976   0.976   0.976   0.976   0.976   0.976
   0.976   0.976   0.976   0.976   0.976   0.976   0.976   0.976   0.976   0.976
   0.976   0.976   0.976   0.976   0.976   0.976   0.976   0.976   0.976   0.976
   0.976   0.976   0.976   0.976   0.976   0.976   0.976   0.976   0.976   0.976
   0.976   0.976
   0.177   0.169   0.176   0.267   0.508   0.363   0.486   1.069   2.502   7.560
  18.359   0.274   0.205   0.218   0.164   0.158   0.151   0.179   0.196   0.179
   0.151   0.158   0.164   0.218   0.205   0.274  18.359   7.560   2.502   1.069
   0.486   0.363   0.508   0.267   0.176   0.169   0.177   0.169   0.176   0.267
   0.508   0.363   0.486   1.069   2.502   7.560  18.359   0.274   0.205   0.218
   0.164   0.158   0.151   0.179   0.196   0.179   0.151   0.158   0.164   0.218
   0.205   0.274  18.359   7.560   2.502   1.069   0.486   0.363   0.508   0.267
   0.176   0.169
   0.407   0.336   0.440   0.467   0.606   0.458   0.546   1.130   2.561   7.567
  18.308   0.120   0.094   0.081   0.149   0.114   0.541   1.802   0.979   1.802
   0.541   0.114   0.149   0.081   0.094   0.120  18.308   7.567   2.561   1.130
   0.546   0.458   0.606   0.467   0.440   0.336   0.407   0.336   0.440   0.467
   0.606   0.458   0.546   1.130   2.561   7.567  18.308   0.120   0.094   0.081
   0.149   0.114   0.541   1.802   0.979   1.802   0.541   0.114   0.149   0.081
   0.094   0.120  18.308   7.567   2.561   1.130   0.546   0.458   0.606   0.467
   0.440   0.336
   0.517   0.375   0.403   0.417   0.223   0.206   0.232   0.220   0.206   0.294
   0.552   1.412   5.839   0.227   1.882   0.322   0.644   1.940   1.027   1.940
   0.644   0.322   1.882   0.227   5.839   1.412   0.552   0.294   0.206   0.220
   0.232   0.206   0.223   0.417   0.403   0.375   0.517   0.375   0.403   0.417
   0.223   0.206   0.232   0.220   0.206   0.294   0.552   1.412   5.839   0.227
   1.882   0.322   0.644   1.940   1.027   1.940   0.644   0.322   1.882   0.227
   5.839   1.412   0.552   0.294   0.206   0.220   0.232   0.206   0.223   0.417
   0.403   0.375
   0.427   0.345   0.333   0.316   0.275   0.359   0.352   0.359   0.231   0.411
   0.704   2.005   5.878   0.359   2.339   1.150   0.769   0.789   0.779   0.789
   0.769   1.150   2.339   0.359   5.878   2.005   0.704   0.411   0.231   0.359
   0.352   0.359   0.275   0.316   0.333   0.345   0.427   0.345   0.333   0.316
   0.275   0.359   0.352   0.359   0.231   0.411   0.704   2.005   5.878   0.359
   2.339   1.150   0.769   0.789   0.779   0.789   0.769   1.150   2.339   0.359
   5.878   2.005   0.704   0.411   0.231   0.359   0.352   0.359   0.275   0.316
   0.333   0.345
   0.762   0.459   0.498   0.493   0.492   0.594   0.442   0.514   0.451   0.473
   0.548   0.913   0.436   0.470   0.874   1.141   0.852   1.086   2.651   1.086
   0.852   1.141   0.874   0.470   0.436   0.913   0.548   0.473   0.451   0.514
   0.442   0.594   0.492   0.493   0.498   0.459   0.762   0.459   0.498   0.493
   0.492   0.594   0.442   0.514   0.451   0.473   0.548   0.913   0.436   0.470
   0.874   1.141   0.852   1.086   2.651   1.086   0.852   1.141   0.874   0.470
   0.436   0.913   0.548   0.473   0.451   0.514   0.442   0.594   0.492   0.493
   0.498   0.459
   0.699   0.354   0.410   0.484   0.592   0.536   0.384   1.040   0.871   0.448
   0.967   0.493   0.563   2.749   2.007   0.582   0.581   1.005   3.286   1.005
   0.581   0.582   2.007   2.749   0.563   0.493   0.967   0.448   0.871   1.040
   0.384   0.536   0.592   0.484   0.410   0.354   0.699   0.354   0.410   0.484
   0.592   0.536   0.384   1.040   0.871   0.448   0.967   0.493   0.563   2.749
   2.007   0.582   0.581   1.005   3.286   1.005   0.581   0.582   2.007   2.749
   0.563   0.493   0.967   0.448   0.871   1.040   0.384   0.536   0.592   0.484
   0.410   0.354
   0.511   0.912   0.685   0.470   1.780   0.739   0.607   1.145   0.722   0.517
   1.033   0.650   0.849   2.738   1.978   1.171   1.035   1.080   1.501   1.080
   1.035   1.171   1.978   2.738   0.849   0.650   1.033   0.517   0.722   1.145
   0.607   0.739   1.780   0.470   0.685   0.912   0.511   0.912   0.685   0.470
   1.780   0.739   0.607   1.145   0.722   0.517   1.033   0.650   0.849   2.738
   1.978   1.171   1.035   1.080   1.501   1.080   1.035   1.171   1.978   2.738
   0.849   0.650   1.033   0.517   0.722   1.145   0.607   0.739   1.780   0.470
   0.685   0.912
   0.624   1.060   1.086   0.775   1.646   2.108   1.513   1.050   0.664   0.582
   0.559   2.650   0.841   0.546   1.238   1.838   2.563   0.940   0.689   0.940
   2.563   1.838   1.238   0.546   0.841   2.650   0.559   0.582   0.664   1.050
   1.513   2.108   1.646   0.775   1.086   1.060   0.624   1.060   1.086   0.775
   1.646   2.108   1.513   1.050   0.664   0.582   0.559   2.650   0.841   0.546
   1.238   1.838   2.563   0.940   0.689   0.940   2.563   1.838   1.238   0.546
   0.841   2.650   0.559   0.582   0.664   1.050   1.513   2.108   1.646   0.775
   1.086   1.060
   0.939   0.623   1.069   0.819   0.643   2.288   1.930   1.139   1.057   1.552
   0.374   2.689   0.587   0.698   1.268   1.571   2.412   0.830   0.810   0.830
   2.412   1.571   1.268   0.698   0.587   2.689   0.374   1.552   1.057   1.139
   1.930   2.288   0.643   0.819   1.069   0.623   0.939   0.623   1.069   0.819
   0.643   2.288   1.930   1.139   1.057   1.552   0.374   2.689   0.587   0.698
   1.268   1.571   2.412   0.830   0.810   0.830   2.412   1.571   1.268   0.698
   0.587   2.689   0.374   1.552   1.057   1.139   1.930   2.288   0.643   0.819
   1.069   0.623
   0.778   1.078   1.327   1.122   1.681   2.038   1.470   1.395   0.878   2.171
   0.528   0.685   0.803   1.191   0.782   1.239   1.980   0.761   0.554   0.761
   1.980   1.239   0.782   1.191   0.803   0.685   0.528   2.171   0.878   1.395
   1.470   2.038   1.681   1.122   1.327   1.078   0.778   1.078   1.327   1.122
   1.681   2.038   1.470   1.395   0.878   2.171   0.528   0.685   0.803   1.191
   0.782   1.239   1.980   0.761   0.554   0.761   1.980   1.239   0.782   1.191
   0.803   0.685   0.528   2.171   0.878   1.395   1.470   2.038   1.681   1.122
   1.327   1.078
   0.253   3.182   1.075   1.740   2.104   7.992   1.398   1.175   0.541   1.317
   0.414   0.366   0.616   0.969   1.293   1.264   1.713   0.380   0.312   0.380
   1.713   1.264   1.293   0.969   0.616   0.366   0.414   1.317   0.541   1.175
   1.398   7.992   2.104   1.740   1.075   3.182   0.253   3.182   1.075   1.740
   2.104   7.992   1.398   1.175   0.541   1.317   0.414   0.366   0.616   0.969
   1.293   1.264   1.713   0.380   0.312   0.380   1.713   1.264   1.293   0.969
   0.616   0.366   0.414   1.317   0.541   1.175   1.398   7.992   2.104   1.740
   1.075   3.182
   0.948   2.745   0.402   2.877   1.148   7.149   0.989   0.324   0.361   0.537
   0.195   0.306   0.312   0.539   1.189   0.975   0.766   0.435   0.611   0.435
   0.766   0.975   1.189   0.539   0.312   0.306   0.195   0.537   0.361   0.324
   0.989   7.149   1.148   2.877   0.402   2.745   0.948   2.745   0.402   2.877
   1.148   7.149   0.989   0.324   0.361   0.537   0.195   0.306   0.312   0.539
   1.189   0.975   0.766   0.435   0.611   0.435   0.766   0.975   1.189   0.539
   0.312   0.306   0.195   0.537   0.361   0.324   0.989   7.149   1.148   2.877
   0.402   2.745
   1.523   0.958   1.193   2.484   0.565   0.610   0.373   0.941   0.302   0.380
   0.212   0.330   0.223   1.285   0.936   0.543   0.750   0.674   0.956   0.674
   0.750   0.543   0.936   1.285   0.223   0.330   0.212   0.380   0.302   0.941
   0.373   0.610   0.565   2.484   1.193   0.958   1.523   0.958   1.193   2.484
   0.565   0.610   0.373   0.941   0.302   0.380   0.212   0.330   0.223   1.285
   0.936   0.543   0.750   0.674   0.956   0.674   0.750   0.543   0.936   1.285
   0.223   0.330   0.212   0.380   0.302   0.941   0.373   0.610   0.565   2.484
   1.193   0.958
   2.102   1.355   1.704   0.985   0.324   0.610   1.175   1.384   0.371   0.360
   0.373   0.567   0.187   1.366   1.029   0.488   0.599   0.585   0.543   0.585
   0.599   0.488   1.029   1.366   0.187   0.567   0.373   0.360   0.371   1.384
   1.175   0.610   0.324   0.985   1.704   1.355   2.102   1.355   1.704   0.985
   0.324   0.610   1.175   1.384   0.371   0.360   0.373   0.567   0.187   1.366
   1.029   0.488   0.599   0.585   0.543   0.585   0.599   0.488   1.029   1.366
   0.187   0.567   0.373   0.360   0.371   1.384   1.175   0.610   0.324   0.985
   1.704   1.355
  4  1      1.6059271E+00
  4  2      6.4303840E-02
  4  3     -1.0445971E+00
  6  1     -7.0607617E-01
  6  2      1.6480454E+00
  6  3      3.0784360E-01
  6  4     -9.5485577E-02
  8  1      2.0738866E+00
  8  2     -1.0165607E-02
  8  3     -6.2928580E-01
  8  4     -1.0365585E+00
  8  5     -2.6284116E+00
 10  1     -3.8626049E-01
 10  2      1.9499334E-01
 10  3     -5.1460737E-02
 10  4     -3.8402145E-01
 10  5     -1.1162852E+00
 10  6      3.9852947E-01
 12  1      1.3708332E+00  4.7380955E-01
 12  2     -3.8057603E-01 -3.4194974E-01
 12  3      1.9039784E-01 -1.1643138E-01
 12  4     -4.5967318E-01  2.6516465E-01
 12  5      3.4225415E-01 -2.1720633E+00
 12  6     -4.8326965E-01 -1.6619526E-01
 12  7      9.2893276E-01  1.0548664E+00
 14  1     -1.6321640E-01
 14  2      3.3791207E-01
 14  3      6.3289173E-01
 14  4     -6.8910342E-02
 14  5     -9.4375984E-01
 14  6      6.9801289E-01
 14  7     -6.7693065E-02
 14  8     -3.6573400E-01
 220       5.00   72    0 5.00   18    0
   0.896   0.895   0.895   0.893   0.892   0.889   0.887   0.884   0.881   0.878
   0.875   0.872   0.870   0.867   0.865   0.864   0.862   0.862   0.861   0.862
   0.862   0.864   0.865   0.867   0.870   0.872   0.875   0.878   0.881   0.884
   0.887   0.889   0.892   0.893   0.895   0.895   0.896   0.895   0.895   0.893
   0.892   0.889   0.887   0.884   0.881   0.878   0.875   0.872   0.870   0.867
   0.865   0.864   0.862   0.862   0.861   0.862   0.862   0.864   0.865   0.867
   0.870   0.872   0.875   0.878   0.881   0.884   0.887   0.889   0.892   0.893
   0.895   0.895
   1.023   1.020   1.013   1.002   0.987   0.968   0.947   0.925   0.901   0.876
   0.853   0.830   0.809   0.791   0.775   0.763   0.753   0.748   0.746   0.748
   0.753   0.763   0.775   0.791   0.809   0.830   0.853   0.876   0.901   0.925
   0.947   0.968   0.987   1.002   1.013   1.020   1.023   1.020   1.013   1.002
   0.987   0.968   0.947   0.925   0.901   0.876   0.853   0.830   0.809   0.791
   0.775   0.763   0.753   0.748   0.746   0.748   0.753   0.763   0.775   0.791
   0.809   0.830   0.853   0.876   0.901   0.925   0.947   0.968   0.987   1.002
   1.013   1.020
   1.171   1.165   1.147   1.119   1.081   1.036   0.984   0.930   0.875   0.820
   0.768   0.720   0.676   0.638   0.606   0.580   0.561   0.550   0.546   0.550
   0.561   0.580   0.606   0.638   0.676   0.720   0.768   0.820   0.875   0.930
   0.984   1.036   1.081   1.119   1.147   1.165   1.171   1.165   1.147   1.119
   1.081   1.036   0.984   0.930   0.875   0.820   0.768   0.720   0.676   0.638
   0.606   0.580   0.561   0.550   0.546   0.550   0.561   0.580   0.606   0.638
   0.676   0.720   0.768   0.820   0.875   0.930   0.984   1.036   1.081   1.119
   1.147   1.165
   1.241   1.232   1.206   1.162   1.104   1.032   0.953   0.869   0.786   0.706
   0.633   0.567   0.507   0.452   0.403   0.360   0.326   0.304   0.297   0.304
   0.326   0.360   0.403   0.452   0.507   0.567   0.633   0.706   0.786   0.869
   0.953   1.032   1.104   1.162   1.206   1.232   1.241   1.232   1.206   1.162
   1.104   1.032   0.953   0.869   0.786   0.706   0.633   0.567   0.507   0.452
   0.403   0.360   0.326   0.304   0.297   0.304   0.326   0.360   0.403   0.452
   0.507   0.567   0.633   0.706   0.786   0.869   0.953   1.032   1.104   1.162
   1.206   1.232
   1.233   1.227   1.207   1.170   1.110   1.029   0.930   0.824   0.720   0.628
   0.549   0.481   0.416   0.345   0.267   0.184   0.109   0.055   0.036   0.055
   0.109   0.184   0.267   0.345   0.416   0.481   0.549   0.628   0.720   0.824
   0.930   1.029   1.110   1.170   1.207   1.227   1.233   1.227   1.207   1.170
   1.110   1.029   0.930   0.824   0.720   0.628   0.549   0.481   0.416   0.345
   0.267   0.184   0.109   0.055   0.036   0.055   0.109   0.184   0.267   0.345
   0.416   0.481   0.549   0.628   0.720   0.824   0.930   1.029   1.110   1.170
   1.207   1.227
   1.219   1.229   1.250   1.261   1.238   1.167   1.052   0.912   0.778   0.675
   0.612   0.574   0.533   0.460   0.339   0.179   0.013  -0.112  -0.158  -0.112
   0.013   0.179   0.339   0.460   0.533   0.574   0.612   0.675   0.778   0.912
   1.052   1.167   1.238   1.261   1.250   1.229   1.219   1.229   1.250   1.261
   1.238   1.167   1.052   0.912   0.778   0.675   0.612   0.574   0.533   0.460
   0.339   0.179   0.013  -0.112  -0.158  -0.112   0.013   0.179   0.339   0.460
   0.533   0.574   0.612   0.675   0.778   0.912   1.052   1.167   1.238   1.261
   1.250   1.229
   1.233   1.276   1.383   1.497   1.553   1.505   1.354   1.142   0.939   0.811
   0.784   0.831   0.883   0.861   0.717   0.462   0.165  -0.074  -0.165  -0.074
   0.165   0.462   0.717   0.861   0.883   0.831   0.784   0.811   0.939   1.142
   1.354   1.505   1.553   1.497   1.383   1.276   1.233   1.276   1.383   1.497
   1.553   1.505   1.354   1.142   0.939   0.811   0.784   0.831   0.883   0.861
   0.717   0.462   0.165  -0.074  -0.165  -0.074   0.165   0.462   0.717   0.861
   0.883   0.831   0.784   0.811   0.939   1.142   1.354   1.505   1.553   1.497
   1.383   1.276
   1.203   1.292   1.519   1.777   1.943   1.926   1.716   1.385   1.064   0.882
   0.903   1.089   1.319   1.439   1.342   1.026   0.602   0.241   0.101   0.241
   0.602   1.026   1.342   1.439   1.319   1.089   0.903   0.882   1.064   1.385
   1.716   1.926   1.943   1.777   1.519   1.292   1.203   1.292   1.519   1.777
   1.943   1.926   1.716   1.385   1.064   0.882   0.903   1.089   1.319   1.439
   1.342   1.026   0.602   0.241   0.101   0.241   0.602   1.026   1.342   1.439
   1.319   1.089   0.903   0.882   1.064   1.385   1.716   1.926   1.943   1.777
   1.519   1.292
   1.023   1.156   1.496   1.897   2.178   2.205   1.946   1.497   1.044   0.785
   0.836   1.166   1.607   1.932   1.964   1.671   1.190   0.754   0.579   0.754
   1.190   1.671   1.964   1.932   1.607   1.166   0.836   0.785   1.044   1.497
   1.946   2.205   2.178   1.897   1.496   1.156   1.023   1.156   1.496   1.897
   2.178   2.205   1.946   1.497   1.044   0.785   0.836   1.166   1.607   1.932
   1.964   1.671   1.190   0.754   0.579   0.754   1.190   1.671   1.964   1.932
   1.607   1.166   0.836   0.785   1.044   1.497   1.946   2.205   2.178   1.897
   1.496   1.156
   0.685   0.837   1.231   1.711   2.078   2.168   1.926   1.440   0.913   0.586
   0.618   1.009   1.585   2.079   2.269   2.089   1.665   1.249   1.078   1.249
   1.665   2.089   2.269   2.079   1.585   1.009   0.618   0.586   0.913   1.440
   1.926   2.168   2.078   1.711   1.231   0.837   0.685   0.837   1.231   1.711
   2.078   2.168   1.926   1.440   0.913   0.586   0.618   1.009   1.585   2.079
   2.269   2.089   1.665   1.249   1.078   1.249   1.665   2.089   2.269   2.079
   1.585   1.009   0.618   0.586   0.913   1.440   1.926   2.168   2.078   1.711
   1.231   0.837
   0.329   0.462   0.816   1.266   1.645   1.802   1.662   1.269   0.790   0.446
   0.416   0.737   1.279   1.805   2.099   2.076   1.821   1.535   1.413   1.535
   1.821   2.076   2.099   1.805   1.279   0.737   0.416   0.446   0.790   1.269
   1.662   1.802   1.645   1.266   0.816   0.462   0.329   0.462   0.816   1.266
   1.645   1.802   1.662   1.269   0.790   0.446   0.416   0.737   1.279   1.805
   2.099   2.076   1.821   1.535   1.413   1.535   1.821   2.076   2.099   1.805
   1.279   0.737   0.416   0.446   0.790   1.269   1.662   1.802   1.645   1.266
   0.816   0.462
   0.147   0.231   0.460   0.771   1.070   1.254   1.246   1.041   0.721   0.443
   0.356   0.525   0.887   1.291   1.585   1.700   1.667   1.583   1.542   1.583
   1.667   1.700   1.585   1.291   0.887   0.525   0.356   0.443   0.721   1.041
   1.246   1.254   1.070   0.771   0.460   0.231   0.147   0.231   0.460   0.771
   1.070   1.254   1.246   1.041   0.721   0.443   0.356   0.525   0.887   1.291
   1.585   1.700   1.667   1.583   1.542   1.583   1.667   1.700   1.585   1.291
   0.887   0.525   0.356   0.443   0.721   1.041   1.246   1.254   1.070   0.771
   0.460   0.231
   0.233   0.261   0.343   0.469   0.618   0.752   0.817   0.776   0.642   0.490
   0.414   0.469   0.637   0.853   1.062   1.242   1.392   1.500   1.540   1.500
   1.392   1.242   1.062   0.853   0.637   0.469   0.414   0.490   0.642   0.776
   0.817   0.752   0.618   0.469   0.343   0.261   0.233   0.261   0.343   0.469
   0.618   0.752   0.817   0.776   0.642   0.490   0.414   0.469   0.637   0.853
   1.062   1.242   1.392   1.500   1.540   1.500   1.392   1.242   1.062   0.853
   0.637   0.469   0.414   0.490   0.642   0.776   0.817   0.752   0.618   0.469
   0.343   0.261
   0.500   0.498   0.491   0.487   0.496   0.522   0.545   0.539   0.497   0.459
   0.473   0.549   0.650   0.737   0.825   0.963   1.168   1.369   1.454   1.369
   1.168   0.963   0.825   0.737   0.650   0.549   0.473   0.459   0.497   0.539
   0.545   0.522   0.496   0.487   0.491   0.498   0.500   0.498   0.491   0.487
   0.496   0.522   0.545   0.539   0.497   0.459   0.473   0.549   0.650   0.737
   0.825   0.963   1.168   1.369   1.454   1.369   1.168   0.963   0.825   0.737
   0.650   0.549   0.473   0.459   0.497   0.539   0.545   0.522   0.496   0.487
   0.491   0.498
   0.758   0.769   0.790   0.793   0.762   0.697   0.596   0.467   0.353   0.334
   0.462   0.691   0.895   0.972   0.941   0.923   1.006   1.146   1.215   1.146
   1.006   0.923   0.941   0.972   0.895   0.691   0.462   0.334   0.353   0.467
   0.596   0.697   0.762   0.793   0.790   0.769   0.758   0.769   0.790   0.793
   0.762   0.697   0.596   0.467   0.353   0.334   0.462   0.691   0.895   0.972
   0.941   0.923   1.006   1.146   1.215   1.146   1.006   0.923   0.941   0.972
   0.895   0.691   0.462   0.334   0.353   0.467   0.596   0.697   0.762   0.793
   0.790   0.769
   0.864   0.928   1.083   1.239   1.311   1.241   1.012   0.667   0.339   0.214
   0.405   0.831   1.241   1.397   1.259   0.998   0.810   0.752   0.751   0.752
   0.810   0.998   1.259   1.397   1.241   0.831   0.405   0.214   0.339   0.667
   1.012   1.241   1.311   1.239   1.083   0.928   0.864   0.928   1.083   1.239
   1.311   1.241   1.012   0.667   0.339   0.214   0.405   0.831   1.241   1.397
   1.259   0.998   0.810   0.752   0.751   0.752   0.810   0.998   1.259   1.397
   1.241   0.831   0.405   0.214   0.339   0.667   1.012   1.241   1.311   1.239
   1.083   0.928
   0.820   0.950   1.277   1.652   1.909   1.916   1.612   1.060   0.478   0.176
   0.360   0.939   1.548   1.799   1.570   1.054   0.556   0.255   0.164   0.255
   0.556   1.054   1.570   1.799   1.548   0.939   0.360   0.176   0.478   1.060
   1.612   1.916   1.909   1.652   1.277   0.950   0.820   0.950   1.277   1.652
   1.909   1.916   1.612   1.060   0.478   0.176   0.360   0.939   1.548   1.799
   1.570   1.054   0.556   0.255   0.164   0.255   0.556   1.054   1.570   1.799
   1.548   0.939   0.360   0.176   0.478   1.060   1.612   1.916   1.909   1.652
   1.277   0.950
   0.743   0.916   1.363   1.895   2.295   2.379   2.053   1.379   0.628   0.194
   0.345   0.998   1.721   2.031   1.745   1.064   0.360  -0.105  -0.259  -0.105
   0.360   1.064   1.745   2.031   1.721   0.998   0.345   0.194   0.628   1.379
   2.053   2.379   2.295   1.895   1.363   0.916   0.743   0.916   1.363   1.895
   2.295   2.379   2.053   1.379   0.628   0.194   0.345   0.998   1.721   2.031
   1.745   1.064   0.360  -0.105  -0.259  -0.105   0.360   1.064   1.745   2.031
   1.721   0.998   0.345   0.194   0.628   1.379   2.053   2.379   2.295   1.895
   1.363   0.916
 200       5.00   72    0 5.00   18    0
   5.011   5.012   5.013   5.016   5.020   5.025   5.030   5.036   5.043   5.049
   5.056   5.062   5.068   5.073   5.078   5.081   5.084   5.086   5.086   5.086
   5.084   5.081   5.078   5.073   5.068   5.062   5.056   5.049   5.043   5.036
   5.030   5.025   5.020   5.016   5.013   5.012   5.011   5.012   5.013   5.016
   5.020   5.025   5.030   5.036   5.043   5.049   5.056   5.062   5.068   5.073
   5.078   5.081   5.084   5.086   5.086   5.086   5.084   5.081   5.078   5.073
   5.068   5.062   5.056   5.049   5.043   5.036   5.030   5.025   5.020   5.016
   5.013   5.012
   3.653   3.658   3.673   3.696   3.728   3.766   3.810   3.857   3.907   3.956
   4.005   4.050   4.092   4.129   4.160   4.184   4.202   4.213   4.217   4.213
   4.202   4.184   4.160   4.129   4.092   4.050   4.005   3.956   3.907   3.857
   3.810   3.766   3.728   3.696   3.673   3.658   3.653   3.658   3.673   3.696
   3.728   3.766   3.810   3.857   3.907   3.956   4.005   4.050   4.092   4.129
   4.160   4.184   4.202   4.213   4.217   4.213   4.202   4.184   4.160   4.129
   4.092   4.050   4.005   3.956   3.907   3.857   3.810   3.766   3.728   3.696
   3.673   3.658
   1.783   1.795   1.830   1.886   1.960   2.048   2.145   2.246   2.346   2.443
   2.531   2.610   2.678   2.735   2.780   2.815   2.839   2.853   2.857   2.853
   2.839   2.815   2.780   2.735   2.678   2.610   2.531   2.443   2.346   2.246
   2.145   2.048   1.960   1.886   1.830   1.795   1.783   1.795   1.830   1.886
   1.960   2.048   2.145   2.246   2.346   2.443   2.531   2.610   2.678   2.735
   2.780   2.815   2.839   2.853   2.857   2.853   2.839   2.815   2.780   2.735
   2.678   2.610   2.531   2.443   2.346   2.246   2.145   2.048   1.960   1.886
   1.830   1.795
   0.414   0.432   0.486   0.571   0.680   0.806   0.939   1.071   1.192   1.298
   1.384   1.450   1.498   1.531   1.553   1.567   1.575   1.580   1.582   1.580
   1.575   1.567   1.553   1.531   1.498   1.450   1.384   1.298   1.192   1.071
   0.939   0.806   0.680   0.571   0.486   0.432   0.414   0.432   0.486   0.571
   0.680   0.806   0.939   1.071   1.192   1.298   1.384   1.450   1.498   1.531
   1.553   1.567   1.575   1.580   1.582   1.580   1.575   1.567   1.553   1.531
   1.498   1.450   1.384   1.298   1.192   1.071   0.939   0.806   0.680   0.571
   0.486   0.432
  -0.017   0.004   0.064   0.158   0.279   0.416   0.555   0.682   0.786   0.859
   0.898   0.908   0.898   0.881   0.864   0.853   0.849   0.849   0.850   0.849
   0.849   0.853   0.864   0.881   0.898   0.908   0.898   0.859   0.786   0.682
   0.555   0.416   0.279   0.158   0.064   0.004  -0.017   0.004   0.064   0.158
   0.279   0.416   0.555   0.682   0.786   0.859   0.898   0.908   0.898   0.881
   0.864   0.853   0.849   0.849   0.850   0.849   0.849   0.853   0.864   0.881
   0.898   0.908   0.898   0.859   0.786   0.682   0.555   0.416   0.279   0.158
   0.064   0.004
   0.165   0.184   0.238   0.326   0.441   0.571   0.702   0.816   0.894   0.924
   0.904   0.848   0.776   0.715   0.683   0.684   0.708   0.735   0.746   0.735
   0.708   0.684   0.683   0.715   0.776   0.848   0.904   0.924   0.894   0.816
   0.702   0.571   0.441   0.326   0.238   0.184   0.165   0.184   0.238   0.326
   0.441   0.571   0.702   0.816   0.894   0.924   0.904   0.848   0.776   0.715
   0.683   0.684   0.708   0.735   0.746   0.735   0.708   0.684   0.683   0.715
   0.776   0.848   0.904   0.924   0.894   0.816   0.702   0.571   0.441   0.326
   0.238   0.184
   0.335   0.354   0.412   0.503   0.621   0.756   0.894   1.015   1.093   1.107
   1.051   0.940   0.814   0.721   0.696   0.746   0.840   0.929   0.965   0.929
   0.840   0.746   0.696   0.721   0.814   0.940   1.051   1.107   1.093   1.015
   0.894   0.756   0.621   0.503   0.412   0.354   0.335   0.354   0.412   0.503
   0.621   0.756   0.894   1.015   1.093   1.107   1.051   0.940   0.814   0.721
   0.696   0.746   0.840   0.929   0.965   0.929   0.840   0.746   0.696   0.721
   0.814   0.940   1.051   1.107   1.093   1.015   0.894   0.756   0.621   0.503
   0.412   0.354
   0.172   0.208   0.306   0.446   0.605   0.767   0.925   1.067   1.169   1.202
   1.140   0.994   0.810   0.665   0.624   0.707   0.870   1.025   1.088   1.025
   0.870   0.707   0.624   0.665   0.810   0.994   1.140   1.202   1.169   1.067
   0.925   0.767   0.605   0.446   0.306   0.208   0.172   0.208   0.306   0.446
   0.605   0.767   0.925   1.067   1.169   1.202   1.140   0.994   0.810   0.665
   0.624   0.707   0.870   1.025   1.088   1.025   0.870   0.707   0.624   0.665
   0.810   0.994   1.140   1.202   1.169   1.067   0.925   0.767   0.605   0.446
   0.306   0.208
  -0.146  -0.072   0.122   0.370   0.604   0.790   0.930   1.048   1.150   1.207
   1.170   1.015   0.778   0.551   0.439   0.494   0.672   0.861   0.941   0.861
   0.672   0.494   0.439   0.551   0.778   1.015   1.170   1.207   1.150   1.048
   0.930   0.790   0.604   0.370   0.122  -0.072  -0.146  -0.072   0.122   0.370
   0.604   0.790   0.930   1.048   1.150   1.207   1.170   1.015   0.778   0.551
   0.439   0.494   0.672   0.861   0.941   0.861   0.672   0.494   0.439   0.551
   0.778   1.015   1.170   1.207   1.150   1.048   0.930   0.790   0.604   0.370
   0.122  -0.072
  -0.263  -0.138   0.184   0.571   0.882   1.045   1.082   1.076   1.099   1.151
   1.160   1.047   0.798   0.502   0.295   0.271   0.412   0.596   0.678   0.596
   0.412   0.271   0.295   0.502   0.798   1.047   1.160   1.151   1.099   1.076
   1.082   1.045   0.882   0.571   0.184  -0.138  -0.263  -0.138   0.184   0.571
   0.882   1.045   1.082   1.076   1.099   1.151   1.160   1.047   0.798   0.502
   0.295   0.271   0.412   0.596   0.678   0.596   0.412   0.271   0.295   0.502
   0.798   1.047   1.160   1.151   1.099   1.076   1.082   1.045   0.882   0.571
   0.184  -0.138
  -0.068   0.098   0.522   1.015   1.372   1.472   1.342   1.130   0.994   0.994
   1.054   1.033   0.847   0.548   0.287   0.201   0.301   0.470   0.550   0.470
   0.301   0.201   0.287   0.548   0.847   1.033   1.054   0.994   0.994   1.130
   1.342   1.472   1.372   1.015   0.522   0.098  -0.068   0.098   0.522   1.015
   1.372   1.472   1.342   1.130   0.994   0.994   1.054   1.033   0.847   0.548
   0.287   0.201   0.301   0.470   0.550   0.470   0.301   0.201   0.287   0.548
   0.847   1.033   1.054   0.994   0.994   1.130   1.342   1.472   1.372   1.015
   0.522   0.098
   0.205   0.373   0.811   1.333   1.709   1.773   1.519   1.119   0.806   0.720
   0.808   0.890   0.814   0.580   0.337   0.246   0.346   0.521   0.605   0.521
   0.346   0.246   0.337   0.580   0.814   0.890   0.808   0.720   0.806   1.119
   1.519   1.773   1.709   1.333   0.811   0.373   0.205   0.373   0.811   1.333
   1.709   1.773   1.519   1.119   0.806   0.720   0.808   0.890   0.814   0.580
   0.337   0.246   0.346   0.521   0.605   0.521   0.346   0.246   0.337   0.580
   0.814   0.890   0.808   0.720   0.806   1.119   1.519   1.773   1.709   1.333
   0.811   0.373
   0.253   0.378   0.730   1.209   1.621   1.754   1.519   1.044   0.606   0.426
   0.511   0.669   0.693   0.536   0.332   0.258   0.371   0.560   0.650   0.560
   0.371   0.258   0.332   0.536   0.693   0.669   0.511   0.426   0.606   1.044
   1.519   1.754   1.621   1.209   0.730   0.378   0.253   0.378   0.730   1.209
   1.621   1.754   1.519   1.044   0.606   0.426   0.511   0.669   0.693   0.536
   0.332   0.258   0.371   0.560   0.650   0.560   0.371   0.258   0.332   0.536
   0.693   0.669   0.511   0.426   0.606   1.044   1.519   1.754   1.621   1.209
   0.730   0.378
   0.036   0.097   0.321   0.745   1.249   1.564   1.470   1.017   0.508   0.262
   0.354   0.589   0.698   0.580   0.354   0.223   0.275   0.422   0.497   0.422
   0.275   0.223   0.354   0.580   0.698   0.589   0.354   0.262   0.508   1.017
   1.470   1.564   1.249   0.745   0.321   0.097   0.036   0.097   0.321   0.745
   1.249   1.564   1.470   1.017   0.508   0.262   0.354   0.589   0.698   0.580
   0.354   0.223   0.275   0.422   0.497   0.422   0.275   0.223   0.354   0.580
   0.698   0.589   0.354   0.262   0.508   1.017   1.470   1.564   1.249   0.745
   0.321   0.097
  -0.188  -0.175  -0.031   0.402   1.053   1.569   1.597   1.130   0.541   0.275
   0.470   0.883   1.134   1.032   0.686   0.348   0.183   0.171   0.189   0.171
   0.183   0.348   0.686   1.032   1.134   0.883   0.470   0.275   0.541   1.130
   1.597   1.569   1.053   0.402  -0.031  -0.175  -0.188  -0.175  -0.031   0.402
   1.053   1.569   1.597   1.130   0.541   0.275   0.470   0.883   1.134   1.032
   0.686   0.348   0.183   0.171   0.189   0.171   0.183   0.348   0.686   1.032
   1.134   0.883   0.470   0.275   0.541   1.130   1.597   1.569   1.053   0.402
  -0.031  -0.175
  -0.148  -0.139   0.028   0.562   1.374   2.000   1.990   1.356   0.618   0.377
   0.815   1.572   2.089   2.040   1.512   0.837   0.306   0.019  -0.064   0.019
   0.306   0.837   1.512   2.040   2.089   1.572   0.815   0.377   0.618   1.356
   1.990   2.000   1.374   0.562   0.028  -0.139  -0.148  -0.139   0.028   0.562
   1.374   2.000   1.990   1.356   0.618   0.377   0.815   1.572   2.089   2.040
   1.512   0.837   0.306   0.019  -0.064   0.019   0.306   0.837   1.512   2.040
   2.089   1.572   0.815   0.377   0.618   1.356   1.990   2.000   1.374   0.562
   0.028  -0.139
   0.158   0.198   0.462   1.147   2.084   2.705   2.508   1.586   0.648   0.457
   1.207   2.398   3.257   3.308   2.611   1.582   0.654   0.064  -0.132   0.064
   0.654   1.582   2.611   3.308   3.257   2.398   1.207   0.457   0.648   1.586
   2.508   2.705   2.084   1.147   0.462   0.198   0.158   0.198   0.462   1.147
   2.084   2.705   2.508   1.586   0.648   0.457   1.207   2.398   3.257   3.308
   2.611   1.582   0.654   0.064  -0.132   0.064   0.654   1.582   2.611   3.308
   3.257   2.398   1.207   0.457   0.648   1.586   2.508   2.705   2.084   1.147
   0.462   0.198
   0.449   0.521   0.873   1.666   2.670   3.245   2.873   1.723   0.637   0.483
   1.458   2.958   4.066   4.203   3.408   2.155   0.967   0.177  -0.094   0.177
   0.967   2.155   3.408   4.203   4.066   2.958   1.458   0.483   0.637   1.723
   2.873   3.245   2.670   1.666   0.873   0.521   0.449   0.521   0.873   1.666
   2.670   3.245   2.873   1.723   0.637   0.483   1.458   2.958   4.066   4.203
   3.408   2.155   0.967   0.177  -0.094   0.177   0.967   2.155   3.408   4.203
   4.066   2.958   1.458   0.483   0.637   1.723   2.873   3.245   2.670   1.666
   0.873   0.521
 111       5.00   72    0 5.00   18    0
   0.924   0.924   0.926   0.928   0.930   0.934   0.937   0.942   0.946   0.950
   0.955   0.959   0.963   0.967   0.970   0.973   0.974   0.976   0.976   0.976
   0.974   0.973   0.970   0.967   0.963   0.959   0.955   0.950   0.946   0.942
   0.937   0.934   0.930   0.928   0.926   0.924   0.924   0.924   0.926   0.928
   0.930   0.934   0.937   0.942   0.946   0.950   0.955   0.959   0.963   0.967
   0.970   0.973   0.974   0.976   0.976   0.976   0.974   0.973   0.970   0.967
   0.963   0.959   0.955   0.950   0.946   0.942   0.937   0.934   0.930   0.928
   0.926   0.924
   0.627   0.631   0.643   0.661   0.685   0.715   0.748   0.783   0.819   0.855
   0.889   0.920   0.948   0.973   0.992   1.008   1.019   1.026   1.028   1.026
   1.019   1.008   0.992   0.973   0.948   0.920   0.889   0.855   0.819   0.783
   0.748   0.715   0.685   0.661   0.643   0.631   0.627   0.631   0.643   0.661
   0.685   0.715   0.748   0.783   0.819   0.855   0.889   0.920   0.948   0.973
   0.992   1.008   1.019   1.026   1.028   1.026   1.019   1.008   0.992   0.973
   0.948   0.920   0.889   0.855   0.819   0.783   0.748   0.715   0.685   0.661
   0.643   0.631
   0.208   0.219   0.251   0.302   0.368   0.446   0.531   0.617   0.701   0.778
   0.846   0.902   0.947   0.981   1.004   1.020   1.029   1.034   1.036   1.034
   1.029   1.020   1.004   0.981   0.947   0.902   0.846   0.778   0.701   0.617
   0.531   0.446   0.368   0.302   0.251   0.219   0.208   0.219   0.251   0.302
   0.368   0.446   0.531   0.617   0.701   0.778   0.846   0.902   0.947   0.981
   1.004   1.020   1.029   1.034   1.036   1.034   1.029   1.020   1.004   0.981
   0.947   0.902   0.846   0.778   0.701   0.617   0.531   0.446   0.368   0.302
   0.251   0.219
  -0.117  -0.098  -0.043   0.044   0.156   0.286   0.425   0.562   0.688   0.797
   0.882   0.943   0.980   0.996   0.996   0.988   0.977   0.968   0.965   0.968
   0.977   0.988   0.996   0.996   0.980   0.943   0.882   0.797   0.688   0.562
   0.425   0.286   0.156   0.044  -0.043  -0.098  -0.117  -0.098  -0.043   0.044
   0.156   0.286   0.425   0.562   0.688   0.797   0.882   0.943   0.980   0.996
   0.996   0.988   0.977   0.968   0.965   0.968   0.977   0.988   0.996   0.996
   0.980   0.943   0.882   0.797   0.688   0.562   0.425   0.286   0.156   0.044
  -0.043  -0.098
  -0.232  -0.210  -0.145  -0.041   0.093   0.249   0.416   0.580   0.730   0.856
   0.950   1.008   1.033   1.032   1.012   0.985   0.959   0.940   0.934   0.940
   0.959   0.985   1.012   1.032   1.033   1.008   0.950   0.856   0.730   0.580
   0.416   0.249   0.093  -0.041  -0.145  -0.210  -0.232  -0.210  -0.145  -0.041
   0.093   0.249   0.416   0.580   0.730   0.856   0.950   1.008   1.033   1.032
   1.012   0.985   0.959   0.940   0.934   0.940   0.959   0.985   1.012   1.032
   1.033   1.008   0.950   0.856   0.730   0.580   0.416   0.249   0.093  -0.041
  -0.145  -0.210
  -0.165  -0.144  -0.083   0.012   0.133   0.273   0.425   0.579   0.728   0.861
   0.968   1.044   1.087   1.105   1.105   1.098   1.090   1.085   1.083   1.085
   1.090   1.098   1.105   1.105   1.087   1.044   0.968   0.861   0.728   0.579
   0.425   0.273   0.133   0.012  -0.083  -0.144  -0.165  -0.144  -0.083   0.012
   0.133   0.273   0.425   0.579   0.728   0.861   0.968   1.044   1.087   1.105
   1.105   1.098   1.090   1.085   1.083   1.085   1.090   1.098   1.105   1.105
   1.087   1.044   0.968   0.861   0.728   0.579   0.425   0.273   0.133   0.012
  -0.083  -0.144
  -0.013   0.014   0.088   0.187   0.293   0.392   0.486   0.585   0.696   0.819
   0.946   1.060   1.153   1.221   1.272   1.311   1.343   1.366   1.374   1.366
   1.343   1.311   1.272   1.221   1.153   1.060   0.946   0.819   0.696   0.585
   0.486   0.392   0.293   0.187   0.088   0.014  -0.013   0.014   0.088   0.187
   0.293   0.392   0.486   0.585   0.696   0.819   0.946   1.060   1.153   1.221
   1.272   1.311   1.343   1.366   1.374   1.366   1.343   1.311   1.272   1.221
   1.153   1.060   0.946   0.819   0.696   0.585   0.486   0.392   0.293   0.187
   0.088   0.014
   0.150   0.210   0.365   0.548   0.692   0.759   0.759   0.739   0.753   0.829
   0.964   1.122   1.268   1.379   1.454   1.503   1.539   1.562   1.571   1.562
   1.539   1.503   1.454   1.379   1.268   1.122   0.964   0.829   0.753   0.739
   0.759   0.759   0.692   0.548   0.365   0.210   0.150   0.210   0.365   0.548
   0.692   0.759   0.759   0.739   0.753   0.829   0.964   1.122   1.268   1.379
   1.454   1.503   1.539   1.562   1.571   1.562   1.539   1.503   1.454   1.379
   1.268   1.122   0.964   0.829   0.753   0.739   0.759   0.759   0.692   0.548
   0.365   0.210
   0.314   0.443   0.769   1.142   1.402   1.455   1.319   1.102   0.939   0.917
   1.042   1.247   1.442   1.564   1.599   1.572   1.522   1.482   1.467   1.482
   1.522   1.572   1.599   1.564   1.442   1.247   1.042   0.917   0.939   1.102
   1.319   1.455   1.402   1.142   0.769   0.443   0.314   0.443   0.769   1.142
   1.402   1.455   1.319   1.102   0.939   0.917   1.042   1.247   1.442   1.564
   1.599   1.572   1.522   1.482   1.467   1.482   1.522   1.572   1.599   1.564
   1.442   1.247   1.042   0.917   0.939   1.102   1.319   1.455   1.402   1.142
   0.769   0.443
   0.517   0.726   1.255   1.855   2.254   2.289   1.979   1.508   1.112   0.960
   1.074   1.344   1.607   1.737   1.696   1.528   1.322   1.161   1.102   1.161
   1.322   1.528   1.696   1.737   1.607   1.344   1.074   0.960   1.112   1.508
   1.979   2.289   2.254   1.855   1.255   0.726   0.517   0.726   1.255   1.855
   2.254   2.289   1.979   1.508   1.112   0.960   1.074   1.344   1.607   1.737
   1.696   1.528   1.322   1.161   1.102   1.161   1.322   1.528   1.696   1.737
   1.607   1.344   1.074   0.960   1.112   1.508   1.979   2.289   2.254   1.855
   1.255   0.726
   0.800   1.050   1.681   2.395   2.855   2.846   2.380   1.689   1.092   0.827
   0.942   1.291   1.646   1.816   1.731   1.450   1.102   0.827   0.724   0.827
   1.102   1.450   1.731   1.816   1.646   1.291   0.942   0.827   1.092   1.689
   2.380   2.846   2.855   2.395   1.681   1.050   0.800   1.050   1.681   2.395
   2.855   2.846   2.380   1.689   1.092   0.827   0.942   1.291   1.646   1.816
   1.731   1.450   1.102   0.827   0.724   0.827   1.102   1.450   1.731   1.816
   1.646   1.291   0.942   0.827   1.092   1.689   2.380   2.846   2.855   2.395
   1.681   1.050
   1.171   1.372   1.885   2.475   2.847   2.788   2.283   1.538   0.878   0.568
   0.679   1.068   1.485   1.712   1.657   1.368   0.985   0.671   0.551   0.671
   0.985   1.368   1.657   1.712   1.485   1.068   0.679   0.568   0.878   1.538
   2.283   2.788   2.847   2.475   1.885   1.372   1.171   1.372   1.885   2.475
   2.847   2.788   2.283   1.538   0.878   0.568   0.679   1.068   1.485   1.712
   1.657   1.368   0.985   0.671   0.551   0.671   0.985   1.368   1.657   1.712
   1.485   1.068   0.679   0.568   0.878   1.538   2.283   2.788   2.847   2.475
   1.885   1.372
   1.562   1.624   1.800   2.036   2.202   2.141   1.776   1.204   0.662   0.386
   0.462   0.792   1.173   1.417   1.433   1.242   0.951   0.698   0.598   0.698
   0.951   1.242   1.433   1.417   1.173   0.792   0.462   0.386   0.662   1.204
   1.776   2.141   2.202   2.036   1.800   1.624   1.562   1.624   1.800   2.036
   2.202   2.141   1.776   1.204   0.662   0.386   0.462   0.792   1.173   1.417
   1.433   1.242   0.951   0.698   0.598   0.698   0.951   1.242   1.433   1.417
   1.173   0.792   0.462   0.386   0.662   1.204   1.776   2.141   2.202   2.036
   1.800   1.624
   1.832   1.724   1.493   1.319   1.281   1.287   1.181   0.911   0.589   0.390
   0.410   0.607   0.861   1.056   1.128   1.072   0.933   0.792   0.733   0.792
   0.933   1.072   1.128   1.056   0.861   0.607   0.410   0.390   0.589   0.911
   1.181   1.287   1.281   1.319   1.493   1.724   1.832   1.724   1.493   1.319
   1.281   1.287   1.181   0.911   0.589   0.390   0.410   0.607   0.861   1.056
   1.128   1.072   0.933   0.792   0.733   0.792   0.933   1.072   1.128   1.056
   0.861   0.607   0.410   0.390   0.589   0.911   1.181   1.287   1.281   1.319
   1.493   1.724
   1.830   1.608   1.113   0.696   0.576   0.685   0.787   0.733   0.567   0.439
   0.440   0.551   0.701   0.836   0.929   0.964   0.937   0.883   0.855   0.883
   0.937   0.964   0.929   0.836   0.701   0.551   0.440   0.439   0.567   0.733
   0.787   0.685   0.576   0.696   1.113   1.608   1.830   1.608   1.113   0.696
   0.576   0.685   0.787   0.733   0.567   0.439   0.440   0.551   0.701   0.836
   0.929   0.964   0.937   0.883   0.855   0.883   0.937   0.964   0.929   0.836
   0.701   0.551   0.440   0.439   0.567   0.733   0.787   0.685   0.576   0.696
   1.113   1.608
   1.519   1.289   0.790   0.412   0.373   0.550   0.666   0.577   0.388   0.290
   0.367   0.552   0.743   0.891   0.993   1.044   1.035   0.991   0.966   0.991
   1.035   1.044   0.993   0.891   0.743   0.552   0.367   0.290   0.388   0.577
   0.666   0.550   0.373   0.412   0.790   1.289   1.519   1.289   0.790   0.412
   0.373   0.550   0.666   0.577   0.388   0.290   0.367   0.552   0.743   0.891
   0.993   1.044   1.035   0.991   0.966   0.991   1.035   1.044   0.993   0.891
   0.743   0.552   0.367   0.290   0.388   0.577   0.666   0.550   0.373   0.412
   0.790   1.289
   1.052   0.893   0.584   0.441   0.571   0.757   0.708   0.378   0.017  -0.086
   0.140   0.537   0.907   1.152   1.275   1.295   1.230   1.134   1.088   1.134
   1.230   1.295   1.275   1.152   0.907   0.537   0.140  -0.086   0.017   0.378
   0.708   0.757   0.571   0.441   0.584   0.893   1.052   0.893   0.584   0.441
   0.571   0.757   0.708   0.378   0.017  -0.086   0.140   0.537   0.907   1.152
   1.275   1.295   1.230   1.134   1.088   1.134   1.230   1.295   1.275   1.152
   0.907   0.537   0.140  -0.086   0.017   0.378   0.708   0.757   0.571   0.441
   0.584   0.893
   0.707   0.619   0.491   0.558   0.820   0.987   0.770   0.217  -0.304  -0.422
  -0.074   0.509   1.044   1.386   1.532   1.519   1.396   1.247   1.181   1.247
   1.396   1.519   1.532   1.386   1.044   0.509  -0.074  -0.422  -0.304   0.217
   0.770   0.987   0.820   0.558   0.491   0.619   0.707   0.619   0.491   0.558
   0.820   0.987   0.770   0.217  -0.304  -0.422  -0.074   0.509   1.044   1.386
   1.532   1.519   1.396   1.247   1.181   1.247   1.396   1.519   1.532   1.386
   1.044   0.509  -0.074  -0.422  -0.304   0.217   0.770   0.987   0.820   0.558
   0.491   0.619
TEXTURE_INDEX=   2.9542
ERR_CF 220         1080     250  135.29   45.09
ERR_CF 200         1074     344  127.25   42.63
ERR_CF 111         1080     360   90.17   40.59
