TEXEVAL                                                                         
Analysis started on 10-Sep-18 10:58:06                                          
 LMAX=16LFMAX=03 CUBIC ORTHO   
 220      5.00 5.00
 200      5.00 5.00
 111      5.00 5.00
 220       5.00   72    0 5.00   15    0
   4.519   4.519   4.519   4.519   4.519   4.519   4.519   4.519   4.519   4.519
   4.519   4.519   4.519   4.519   4.519   4.519   4.519   4.519   4.519   4.519
   4.519   4.519   4.519   4.519   4.519   4.519   4.519   4.519   4.519   4.519
   4.519   4.519   4.519   4.519   4.519   4.519   4.519   4.519   4.519   4.519
   4.519   4.519   4.519   4.519   4.519   4.519   4.519   4.519   4.519   4.519
   4.519   4.519   4.519   4.519   4.519   4.519   4.519   4.519   4.519   4.519
   4.519   4.519   4.519   4.519   4.519   4.519   4.519   4.519   4.519   4.519
   4.519   4.519
   1.918   1.740   1.573   1.779   1.840   1.943   2.136   1.926   2.410   2.649
   2.871   2.844   3.577   3.756   3.827   4.461   4.401   4.522   4.443   4.522
   4.401   4.461   3.827   3.756   3.577   2.844   2.871   2.649   2.410   1.926
   2.136   1.943   1.840   1.779   1.573   1.740   1.918   1.740   1.573   1.779
   1.840   1.943   2.136   1.926   2.410   2.649   2.871   2.844   3.577   3.756
   3.827   4.461   4.401   4.522   4.443   4.522   4.401   4.461   3.827   3.756
   3.577   2.844   2.871   2.649   2.410   1.926   2.136   1.943   1.840   1.779
   1.573   1.740
   0.677   0.528   0.595   0.744   0.650   0.672   0.789   0.803   1.066   1.196
   1.399   1.666   2.236   2.547   2.957   3.554   4.063   4.235   4.365   4.235
   4.063   3.554   2.957   2.547   2.236   1.666   1.399   1.196   1.066   0.803
   0.789   0.672   0.650   0.744   0.595   0.528   0.677   0.528   0.595   0.744
   0.650   0.672   0.789   0.803   1.066   1.196   1.399   1.666   2.236   2.547
   2.957   3.554   4.063   4.235   4.365   4.235   4.063   3.554   2.957   2.547
   2.236   1.666   1.399   1.196   1.066   0.803   0.789   0.672   0.650   0.744
   0.595   0.528
   0.435   0.466   0.450   0.426   0.366   0.452   0.419   0.429   0.549   0.720
   0.814   0.980   1.262   1.700   2.237   2.732   3.306   3.652   3.804   3.652
   3.306   2.732   2.237   1.700   1.262   0.980   0.814   0.720   0.549   0.429
   0.419   0.452   0.366   0.426   0.450   0.466   0.435   0.466   0.450   0.426
   0.366   0.452   0.419   0.429   0.549   0.720   0.814   0.980   1.262   1.700
   2.237   2.732   3.306   3.652   3.804   3.652   3.306   2.732   2.237   1.700
   1.262   0.980   0.814   0.720   0.549   0.429   0.419   0.452   0.366   0.426
   0.450   0.466
   0.367   0.560   0.459   0.474   0.371   0.344   0.378   0.414   0.418   0.523
   0.591   0.702   0.974   1.234   1.668   2.266   2.907   3.178   3.123   3.178
   2.907   2.266   1.668   1.234   0.974   0.702   0.591   0.523   0.418   0.414
   0.378   0.344   0.371   0.474   0.459   0.560   0.367   0.560   0.459   0.474
   0.371   0.344   0.378   0.414   0.418   0.523   0.591   0.702   0.974   1.234
   1.668   2.266   2.907   3.178   3.123   3.178   2.907   2.266   1.668   1.234
   0.974   0.702   0.591   0.523   0.418   0.414   0.378   0.344   0.371   0.474
   0.459   0.560
   0.337   0.452   0.395   0.440   0.353   0.389   0.406   0.450   0.426   0.445
   0.513   0.666   0.826   1.029   1.400   2.073   2.621   2.663   2.801   2.663
   2.621   2.073   1.400   1.029   0.826   0.666   0.513   0.445   0.426   0.450
   0.406   0.389   0.353   0.440   0.395   0.452   0.337   0.452   0.395   0.440
   0.353   0.389   0.406   0.450   0.426   0.445   0.513   0.666   0.826   1.029
   1.400   2.073   2.621   2.663   2.801   2.663   2.621   2.073   1.400   1.029
   0.826   0.666   0.513   0.445   0.426   0.450   0.406   0.389   0.353   0.440
   0.395   0.452
   0.438   0.393   0.372   0.354   0.380   0.361   0.422   0.385   0.535   0.472
   0.495   0.743   0.833   1.044   1.310   1.765   2.064   2.094   2.382   2.094
   2.064   1.765   1.310   1.044   0.833   0.743   0.495   0.472   0.535   0.385
   0.422   0.361   0.380   0.354   0.372   0.393   0.438   0.393   0.372   0.354
   0.380   0.361   0.422   0.385   0.535   0.472   0.495   0.743   0.833   1.044
   1.310   1.765   2.064   2.094   2.382   2.094   2.064   1.765   1.310   1.044
   0.833   0.743   0.495   0.472   0.535   0.385   0.422   0.361   0.380   0.354
   0.372   0.393
   0.460   0.499   0.409   0.404   0.477   0.268   0.436   0.352   0.491   0.463
   0.506   0.689   0.948   1.094   1.373   1.574   1.540   1.682   1.803   1.682
   1.540   1.574   1.373   1.094   0.948   0.689   0.506   0.463   0.491   0.352
   0.436   0.268   0.477   0.404   0.409   0.499   0.460   0.499   0.409   0.404
   0.477   0.268   0.436   0.352   0.491   0.463   0.506   0.689   0.948   1.094
   1.373   1.574   1.540   1.682   1.803   1.682   1.540   1.574   1.373   1.094
   0.948   0.689   0.506   0.463   0.491   0.352   0.436   0.268   0.477   0.404
   0.409   0.499
   0.488   0.614   0.565   0.529   0.621   0.330   0.512   0.433   0.406   0.464
   0.512   0.655   0.885   1.115   1.366   1.389   1.270   1.318   1.103   1.318
   1.270   1.389   1.366   1.115   0.885   0.655   0.512   0.464   0.406   0.433
   0.512   0.330   0.621   0.529   0.565   0.614   0.488   0.614   0.565   0.529
   0.621   0.330   0.512   0.433   0.406   0.464   0.512   0.655   0.885   1.115
   1.366   1.389   1.270   1.318   1.103   1.318   1.270   1.389   1.366   1.115
   0.885   0.655   0.512   0.464   0.406   0.433   0.512   0.330   0.621   0.529
   0.565   0.614
   0.990   0.870   0.777   0.712   0.670   0.561   0.576   0.503   0.554   0.447
   0.545   0.568   0.797   1.130   1.304   1.184   1.011   0.957   0.747   0.957
   1.011   1.184   1.304   1.130   0.797   0.568   0.545   0.447   0.554   0.503
   0.576   0.561   0.670   0.712   0.777   0.870   0.990   0.870   0.777   0.712
   0.670   0.561   0.576   0.503   0.554   0.447   0.545   0.568   0.797   1.130
   1.304   1.184   1.011   0.957   0.747   0.957   1.011   1.184   1.304   1.130
   0.797   0.568   0.545   0.447   0.554   0.503   0.576   0.561   0.670   0.712
   0.777   0.870
   1.898   1.630   1.457   1.060   0.860   0.927   0.677   0.681   0.746   0.478
   0.603   0.529   0.859   1.105   1.221   1.169   1.006   0.635   0.737   0.635
   1.006   1.169   1.221   1.105   0.859   0.529   0.603   0.478   0.746   0.681
   0.677   0.927   0.860   1.060   1.457   1.630   1.898   1.630   1.457   1.060
   0.860   0.927   0.677   0.681   0.746   0.478   0.603   0.529   0.859   1.105
   1.221   1.169   1.006   0.635   0.737   0.635   1.006   1.169   1.221   1.105
   0.859   0.529   0.603   0.478   0.746   0.681   0.677   0.927   0.860   1.060
   1.457   1.630
   4.387   3.563   3.027   2.308   1.674   1.524   0.937   0.935   0.841   0.609
   0.597   0.795   0.831   1.022   1.044   0.959   0.733   0.525   0.832   0.525
   0.733   0.959   1.044   1.022   0.831   0.795   0.597   0.609   0.841   0.935
   0.937   1.524   1.674   2.308   3.027   3.563   4.387   3.563   3.027   2.308
   1.674   1.524   0.937   0.935   0.841   0.609   0.597   0.795   0.831   1.022
   1.044   0.959   0.733   0.525   0.832   0.525   0.733   0.959   1.044   1.022
   0.831   0.795   0.597   0.609   0.841   0.935   0.937   1.524   1.674   2.308
   3.027   3.563
   5.673   4.083   3.433   2.822   2.059   1.976   1.425   1.341   0.880   0.939
   0.777   0.919   0.869   1.056   1.033   0.935   0.683   0.556   0.774   0.556
   0.683   0.935   1.033   1.056   0.869   0.919   0.777   0.939   0.880   1.341
   1.425   1.976   2.059   2.822   3.433   4.083   5.673   4.083   3.433   2.822
   2.059   1.976   1.425   1.341   0.880   0.939   0.777   0.919   0.869   1.056
   1.033   0.935   0.683   0.556   0.774   0.556   0.683   0.935   1.033   1.056
   0.869   0.919   0.777   0.939   0.880   1.341   1.425   1.976   2.059   2.822
   3.433   4.083
   2.968   2.058   1.893   1.730   1.466   1.673   1.404   1.547   1.058   1.136
   1.083   1.007   0.941   1.094   0.772   0.976   0.771   0.542   0.513   0.542
   0.771   0.976   0.772   1.094   0.941   1.007   1.083   1.136   1.058   1.547
   1.404   1.673   1.466   1.730   1.893   2.058   2.968   2.058   1.893   1.730
   1.466   1.673   1.404   1.547   1.058   1.136   1.083   1.007   0.941   1.094
   0.772   0.976   0.771   0.542   0.513   0.542   0.771   0.976   0.772   1.094
   0.941   1.007   1.083   1.136   1.058   1.547   1.404   1.673   1.466   1.730
   1.893   2.058
   0.636   0.548   0.605   0.701   0.738   0.875   0.953   1.102   1.271   1.165
   1.106   1.127   0.933   0.849   0.703   0.749   0.742   0.867   0.356   0.867
   0.742   0.749   0.703   0.849   0.933   1.127   1.106   1.165   1.271   1.102
   0.953   0.875   0.738   0.701   0.605   0.548   0.636   0.548   0.605   0.701
   0.738   0.875   0.953   1.102   1.271   1.165   1.106   1.127   0.933   0.849
   0.703   0.749   0.742   0.867   0.356   0.867   0.742   0.749   0.703   0.849
   0.933   1.127   1.106   1.165   1.271   1.102   0.953   0.875   0.738   0.701
   0.605   0.548
 200       5.00   72    0 5.00   15    0
   1.190   1.190   1.190   1.190   1.190   1.190   1.190   1.190   1.190   1.190
   1.190   1.190   1.190   1.190   1.190   1.190   1.190   1.190   1.190   1.190
   1.190   1.190   1.190   1.190   1.190   1.190   1.190   1.190   1.190   1.190
   1.190   1.190   1.190   1.190   1.190   1.190   1.190   1.190   1.190   1.190
   1.190   1.190   1.190   1.190   1.190   1.190   1.190   1.190   1.190   1.190
   1.190   1.190   1.190   1.190   1.190   1.190   1.190   1.190   1.190   1.190
   1.190   1.190   1.190   1.190   1.190   1.190   1.190   1.190   1.190   1.190
   1.190   1.190
   0.929   1.040   0.898   0.892   0.981   0.992   1.015   0.952   0.945   0.797
   1.071   1.102   0.879   1.015   0.846   1.054   0.855   1.006   0.765   1.006
   0.855   1.054   0.846   1.015   0.879   1.102   1.071   0.797   0.945   0.952
   1.015   0.992   0.981   0.892   0.898   1.040   0.929   1.040   0.898   0.892
   0.981   0.992   1.015   0.952   0.945   0.797   1.071   1.102   0.879   1.015
   0.846   1.054   0.855   1.006   0.765   1.006   0.855   1.054   0.846   1.015
   0.879   1.102   1.071   0.797   0.945   0.952   1.015   0.992   0.981   0.892
   0.898   1.040
   0.861   1.074   0.869   0.935   1.083   0.968   1.027   0.966   0.744   0.694
   0.938   0.909   0.866   0.825   0.807   0.768   0.951   0.815   0.704   0.815
   0.951   0.768   0.807   0.825   0.866   0.909   0.938   0.694   0.744   0.966
   1.027   0.968   1.083   0.935   0.869   1.074   0.861   1.074   0.869   0.935
   1.083   0.968   1.027   0.966   0.744   0.694   0.938   0.909   0.866   0.825
   0.807   0.768   0.951   0.815   0.704   0.815   0.951   0.768   0.807   0.825
   0.866   0.909   0.938   0.694   0.744   0.966   1.027   0.968   1.083   0.935
   0.869   1.074
   1.230   1.413   1.131   1.268   1.397   1.157   1.072   1.200   0.904   0.704
   0.855   0.831   0.819   0.748   0.929   0.673   0.916   0.726   0.705   0.726
   0.916   0.673   0.929   0.748   0.819   0.831   0.855   0.704   0.904   1.200
   1.072   1.157   1.397   1.268   1.131   1.413   1.230   1.413   1.131   1.268
   1.397   1.157   1.072   1.200   0.904   0.704   0.855   0.831   0.819   0.748
   0.929   0.673   0.916   0.726   0.705   0.726   0.916   0.673   0.929   0.748
   0.819   0.831   0.855   0.704   0.904   1.200   1.072   1.157   1.397   1.268
   1.131   1.413
   1.790   1.901   1.636   1.785   1.777   1.420   1.281   1.330   1.144   0.871
   1.003   0.809   0.704   0.757   0.909   0.651   0.746   0.637   0.798   0.637
   0.746   0.651   0.909   0.757   0.704   0.809   1.003   0.871   1.144   1.330
   1.281   1.420   1.777   1.785   1.636   1.901   1.790   1.901   1.636   1.785
   1.777   1.420   1.281   1.330   1.144   0.871   1.003   0.809   0.704   0.757
   0.909   0.651   0.746   0.637   0.798   0.637   0.746   0.651   0.909   0.757
   0.704   0.809   1.003   0.871   1.144   1.330   1.281   1.420   1.777   1.785
   1.636   1.901
   2.112   2.292   2.119   2.306   2.116   1.921   1.836   1.596   1.485   1.304
   1.134   0.882   0.809   0.666   0.597   0.671   0.720   0.602   0.679   0.602
   0.720   0.671   0.597   0.666   0.809   0.882   1.134   1.304   1.485   1.596
   1.836   1.921   2.116   2.306   2.119   2.292   2.112   2.292   2.119   2.306
   2.116   1.921   1.836   1.596   1.485   1.304   1.134   0.882   0.809   0.666
   0.597   0.671   0.720   0.602   0.679   0.602   0.720   0.671   0.597   0.666
   0.809   0.882   1.134   1.304   1.485   1.596   1.836   1.921   2.116   2.306
   2.119   2.292
   1.481   1.744   1.703   1.767   1.761   1.935   2.042   1.848   1.920   1.814
   1.557   1.297   1.082   0.764   0.672   0.722   0.674   0.682   0.592   0.682
   0.674   0.722   0.672   0.764   1.082   1.297   1.557   1.814   1.920   1.848
   2.042   1.935   1.761   1.767   1.703   1.744   1.481   1.744   1.703   1.767
   1.761   1.935   2.042   1.848   1.920   1.814   1.557   1.297   1.082   0.764
   0.672   0.722   0.674   0.682   0.592   0.682   0.674   0.722   0.672   0.764
   1.082   1.297   1.557   1.814   1.920   1.848   2.042   1.935   1.761   1.767
   1.703   1.744
   0.557   0.753   0.720   0.798   0.912   1.102   1.410   1.589   1.953   2.071
   2.143   1.937   1.455   1.062   0.861   0.964   0.746   0.735   0.677   0.735
   0.746   0.964   0.861   1.062   1.455   1.937   2.143   2.071   1.953   1.589
   1.410   1.102   0.912   0.798   0.720   0.753   0.557   0.753   0.720   0.798
   0.912   1.102   1.410   1.589   1.953   2.071   2.143   1.937   1.455   1.062
   0.861   0.964   0.746   0.735   0.677   0.735   0.746   0.964   0.861   1.062
   1.455   1.937   2.143   2.071   1.953   1.589   1.410   1.102   0.912   0.798
   0.720   0.753
   0.269   0.298   0.273   0.380   0.444   0.494   0.711   0.973   1.292   1.744
   2.033   2.111   1.807   1.330   0.970   1.159   0.934   0.706   0.948   0.706
   0.934   1.159   0.970   1.330   1.807   2.111   2.033   1.744   1.292   0.973
   0.711   0.494   0.444   0.380   0.273   0.298   0.269   0.298   0.273   0.380
   0.444   0.494   0.711   0.973   1.292   1.744   2.033   2.111   1.807   1.330
   0.970   1.159   0.934   0.706   0.948   0.706   0.934   1.159   0.970   1.330
   1.807   2.111   2.033   1.744   1.292   0.973   0.711   0.494   0.444   0.380
   0.273   0.298
   0.276   0.233   0.139   0.264   0.242   0.339   0.358   0.488   0.728   1.144
   1.483   1.771   1.985   1.519   1.063   1.220   0.985   0.809   1.167   0.809
   0.985   1.220   1.063   1.519   1.985   1.771   1.483   1.144   0.728   0.488
   0.358   0.339   0.242   0.264   0.139   0.233   0.276   0.233   0.139   0.264
   0.242   0.339   0.358   0.488   0.728   1.144   1.483   1.771   1.985   1.519
   1.063   1.220   0.985   0.809   1.167   0.809   0.985   1.220   1.063   1.519
   1.985   1.771   1.483   1.144   0.728   0.488   0.358   0.339   0.242   0.264
   0.139   0.233
   0.242   0.257   0.242   0.283   0.191   0.290   0.362   0.355   0.580   0.812
   1.350   1.592   1.959   1.663   1.150   1.199   1.032   1.161   1.146   1.161
   1.032   1.199   1.150   1.663   1.959   1.592   1.350   0.812   0.580   0.355
   0.362   0.290   0.191   0.283   0.242   0.257   0.242   0.257   0.242   0.283
   0.191   0.290   0.362   0.355   0.580   0.812   1.350   1.592   1.959   1.663
   1.150   1.199   1.032   1.161   1.146   1.161   1.032   1.199   1.150   1.663
   1.959   1.592   1.350   0.812   0.580   0.355   0.362   0.290   0.191   0.283
   0.242   0.257
   0.148   0.252   0.248   0.228   0.288   0.269   0.331   0.401   0.471   0.772
   1.223   1.638   1.734   1.451   1.144   1.202   1.020   1.149   1.232   1.149
   1.020   1.202   1.144   1.451   1.734   1.638   1.223   0.772   0.471   0.401
   0.331   0.269   0.288   0.228   0.248   0.252   0.148   0.252   0.248   0.228
   0.288   0.269   0.331   0.401   0.471   0.772   1.223   1.638   1.734   1.451
   1.144   1.202   1.020   1.149   1.232   1.149   1.020   1.202   1.144   1.451
   1.734   1.638   1.223   0.772   0.471   0.401   0.331   0.269   0.288   0.228
   0.248   0.252
   0.215   0.295   0.305   0.179   0.243   0.339   0.336   0.473   0.582   0.838
   1.092   1.422   1.498   1.082   1.105   1.041   0.996   0.779   0.944   0.779
   0.996   1.041   1.105   1.082   1.498   1.422   1.092   0.838   0.582   0.473
   0.336   0.339   0.243   0.179   0.305   0.295   0.215   0.295   0.305   0.179
   0.243   0.339   0.336   0.473   0.582   0.838   1.092   1.422   1.498   1.082
   1.105   1.041   0.996   0.779   0.944   0.779   0.996   1.041   1.105   1.082
   1.498   1.422   1.092   0.838   0.582   0.473   0.336   0.339   0.243   0.179
   0.305   0.295
   0.386   0.449   0.488   0.279   0.309   0.442   0.594   0.688   0.913   1.028
   1.235   1.070   1.264   0.962   1.073   0.990   0.811   0.766   0.766   0.766
   0.811   0.990   1.073   0.962   1.264   1.070   1.235   1.028   0.913   0.688
   0.594   0.442   0.309   0.279   0.488   0.449   0.386   0.449   0.488   0.279
   0.309   0.442   0.594   0.688   0.913   1.028   1.235   1.070   1.264   0.962
   1.073   0.990   0.811   0.766   0.766   0.766   0.811   0.990   1.073   0.962
   1.264   1.070   1.235   1.028   0.913   0.688   0.594   0.442   0.309   0.279
   0.488   0.449
   0.442   0.598   0.678   0.514   0.545   0.648   0.948   1.049   1.199   1.256
   1.362   0.962   0.911   0.780   0.819   1.000   0.690   0.836   1.039   0.836
   0.690   1.000   0.819   0.780   0.911   0.962   1.362   1.256   1.199   1.049
   0.948   0.648   0.545   0.514   0.678   0.598   0.442   0.598   0.678   0.514
   0.545   0.648   0.948   1.049   1.199   1.256   1.362   0.962   0.911   0.780
   0.819   1.000   0.690   0.836   1.039   0.836   0.690   1.000   0.819   0.780
   0.911   0.962   1.362   1.256   1.199   1.049   0.948   0.648   0.545   0.514
   0.678   0.598
 111       5.00   72    0 5.00   15    0
   0.095   0.095   0.095   0.095   0.095   0.095   0.095   0.095   0.095   0.095
   0.095   0.095   0.095   0.095   0.095   0.095   0.095   0.095   0.095   0.095
   0.095   0.095   0.095   0.095   0.095   0.095   0.095   0.095   0.095   0.095
   0.095   0.095   0.095   0.095   0.095   0.095   0.095   0.095   0.095   0.095
   0.095   0.095   0.095   0.095   0.095   0.095   0.095   0.095   0.095   0.095
   0.095   0.095   0.095   0.095   0.095   0.095   0.095   0.095   0.095   0.095
   0.095   0.095   0.095   0.095   0.095   0.095   0.095   0.095   0.095   0.095
   0.095   0.095
   0.150   0.120   0.165   0.118   0.119   0.166   0.133   0.118   0.134   0.150
   0.127   0.142   0.098   0.124   0.093   0.087   0.127   0.120   0.099   0.120
   0.127   0.087   0.093   0.124   0.098   0.142   0.127   0.150   0.134   0.118
   0.133   0.166   0.119   0.118   0.165   0.120   0.150   0.120   0.165   0.118
   0.119   0.166   0.133   0.118   0.134   0.150   0.127   0.142   0.098   0.124
   0.093   0.087   0.127   0.120   0.099   0.120   0.127   0.087   0.093   0.124
   0.098   0.142   0.127   0.150   0.134   0.118   0.133   0.166   0.119   0.118
   0.165   0.120
   0.279   0.324   0.240   0.277   0.217   0.303   0.172   0.152   0.176   0.228
   0.173   0.137   0.161   0.142   0.134   0.118   0.131   0.122   0.132   0.122
   0.131   0.118   0.134   0.142   0.161   0.137   0.173   0.228   0.176   0.152
   0.172   0.303   0.217   0.277   0.240   0.324   0.279   0.324   0.240   0.277
   0.217   0.303   0.172   0.152   0.176   0.228   0.173   0.137   0.161   0.142
   0.134   0.118   0.131   0.122   0.132   0.122   0.131   0.118   0.134   0.142
   0.161   0.137   0.173   0.228   0.176   0.152   0.172   0.303   0.217   0.277
   0.240   0.324
   1.001   0.952   0.707   0.694   0.574   0.534   0.386   0.321   0.277   0.322
   0.252   0.181   0.189   0.150   0.213   0.170   0.153   0.128   0.135   0.128
   0.153   0.170   0.213   0.150   0.189   0.181   0.252   0.322   0.277   0.321
   0.386   0.534   0.574   0.694   0.707   0.952   1.001   0.952   0.707   0.694
   0.574   0.534   0.386   0.321   0.277   0.322   0.252   0.181   0.189   0.150
   0.213   0.170   0.153   0.128   0.135   0.128   0.153   0.170   0.213   0.150
   0.189   0.181   0.252   0.322   0.277   0.321   0.386   0.534   0.574   0.694
   0.707   0.952
   2.886   2.759   2.349   2.113   1.708   1.391   1.037   0.715   0.591   0.425
   0.350   0.276   0.177   0.193   0.235   0.166   0.152   0.092   0.074   0.092
   0.152   0.166   0.235   0.193   0.177   0.276   0.350   0.425   0.591   0.715
   1.037   1.391   1.708   2.113   2.349   2.759   2.886   2.759   2.349   2.113
   1.708   1.391   1.037   0.715   0.591   0.425   0.350   0.276   0.177   0.193
   0.235   0.166   0.152   0.092   0.074   0.092   0.152   0.166   0.235   0.193
   0.177   0.276   0.350   0.425   0.591   0.715   1.037   1.391   1.708   2.113
   2.349   2.759
   4.485   4.356   4.037   3.769   3.303   2.800   2.244   1.662   1.126   0.774
   0.535   0.374   0.267   0.263   0.203   0.163   0.132   0.132   0.067   0.132
   0.132   0.163   0.203   0.263   0.267   0.374   0.535   0.774   1.126   1.662
   2.244   2.800   3.303   3.769   4.037   4.356   4.485   4.356   4.037   3.769
   3.303   2.800   2.244   1.662   1.126   0.774   0.535   0.374   0.267   0.263
   0.203   0.163   0.132   0.132   0.067   0.132   0.132   0.163   0.203   0.263
   0.267   0.374   0.535   0.774   1.126   1.662   2.244   2.800   3.303   3.769
   4.037   4.356
   3.703   3.744   3.797   3.689   3.698   3.472   3.063   2.605   1.924   1.344
   0.934   0.583   0.513   0.361   0.251   0.238   0.200   0.159   0.180   0.159
   0.200   0.238   0.251   0.361   0.513   0.583   0.934   1.344   1.924   2.605
   3.063   3.472   3.698   3.689   3.797   3.744   3.703   3.744   3.797   3.689
   3.698   3.472   3.063   2.605   1.924   1.344   0.934   0.583   0.513   0.361
   0.251   0.238   0.200   0.159   0.180   0.159   0.200   0.238   0.251   0.361
   0.513   0.583   0.934   1.344   1.924   2.605   3.063   3.472   3.698   3.689
   3.797   3.744
   1.860   1.968   2.137   2.289   2.768   2.867   2.825   2.612   2.351   1.851
   1.325   1.024   0.791   0.541   0.371   0.340   0.294   0.225   0.266   0.225
   0.294   0.340   0.371   0.541   0.791   1.024   1.325   1.851   2.351   2.612
   2.825   2.867   2.768   2.289   2.137   1.968   1.860   1.968   2.137   2.289
   2.768   2.867   2.825   2.612   2.351   1.851   1.325   1.024   0.791   0.541
   0.371   0.340   0.294   0.225   0.266   0.225   0.294   0.340   0.371   0.541
   0.791   1.024   1.325   1.851   2.351   2.612   2.825   2.867   2.768   2.289
   2.137   1.968
   0.739   0.697   0.797   1.046   1.480   1.822   2.051   2.112   2.128   1.979
   1.689   1.369   1.108   0.705   0.508   0.423   0.379   0.363   0.436   0.363
   0.379   0.423   0.508   0.705   1.108   1.369   1.689   1.979   2.128   2.112
   2.051   1.822   1.480   1.046   0.797   0.697   0.739   0.697   0.797   1.046
   1.480   1.822   2.051   2.112   2.128   1.979   1.689   1.369   1.108   0.705
   0.508   0.423   0.379   0.363   0.436   0.363   0.379   0.423   0.508   0.705
   1.108   1.369   1.689   1.979   2.128   2.112   2.051   1.822   1.480   1.046
   0.797   0.697
   0.324   0.301   0.309   0.455   0.585   0.936   1.206   1.596   1.734   1.744
   1.803   1.534   1.396   0.984   0.673   0.530   0.503   0.503   0.537   0.503
   0.503   0.530   0.673   0.984   1.396   1.534   1.803   1.744   1.734   1.596
   1.206   0.936   0.585   0.455   0.309   0.301   0.324   0.301   0.309   0.455
   0.585   0.936   1.206   1.596   1.734   1.744   1.803   1.534   1.396   0.984
   0.673   0.530   0.503   0.503   0.537   0.503   0.503   0.530   0.673   0.984
   1.396   1.534   1.803   1.744   1.734   1.596   1.206   0.936   0.585   0.455
   0.309   0.301
   0.211   0.209   0.202   0.236   0.330   0.442   0.725   1.084   1.292   1.384
   1.489   1.365   1.429   1.237   0.922   0.754   0.666   0.571   0.551   0.571
   0.666   0.754   0.922   1.237   1.429   1.365   1.489   1.384   1.292   1.084
   0.725   0.442   0.330   0.236   0.202   0.209   0.211   0.209   0.202   0.236
   0.330   0.442   0.725   1.084   1.292   1.384   1.489   1.365   1.429   1.237
   0.922   0.754   0.666   0.571   0.551   0.571   0.666   0.754   0.922   1.237
   1.429   1.365   1.489   1.384   1.292   1.084   0.725   0.442   0.330   0.236
   0.202   0.209
   0.210   0.205   0.176   0.152   0.262   0.303   0.510   0.663   1.054   1.062
   1.163   1.082   1.202   1.228   1.049   0.939   0.888   0.667   0.710   0.667
   0.888   0.939   1.049   1.228   1.202   1.082   1.163   1.062   1.054   0.663
   0.510   0.303   0.262   0.152   0.176   0.205   0.210   0.205   0.176   0.152
   0.262   0.303   0.510   0.663   1.054   1.062   1.163   1.082   1.202   1.228
   1.049   0.939   0.888   0.667   0.710   0.667   0.888   0.939   1.049   1.228
   1.202   1.082   1.163   1.062   1.054   0.663   0.510   0.303   0.262   0.152
   0.176   0.205
   0.192   0.216   0.152   0.168   0.177   0.234   0.443   0.543   1.008   1.055
   0.856   1.012   0.939   1.010   1.072   1.063   1.059   0.874   0.927   0.874
   1.059   1.063   1.072   1.010   0.939   1.012   0.856   1.055   1.008   0.543
   0.443   0.234   0.177   0.168   0.152   0.216   0.192   0.216   0.152   0.168
   0.177   0.234   0.443   0.543   1.008   1.055   0.856   1.012   0.939   1.010
   1.072   1.063   1.059   0.874   0.927   0.874   1.059   1.063   1.072   1.010
   0.939   1.012   0.856   1.055   1.008   0.543   0.443   0.234   0.177   0.168
   0.152   0.216
   0.280   0.208   0.199   0.298   0.237   0.305   0.474   0.653   0.988   1.013
   0.713   0.839   0.783   0.845   0.979   1.145   1.109   1.025   1.074   1.025
   1.109   1.145   0.979   0.845   0.783   0.839   0.713   1.013   0.988   0.653
   0.474   0.305   0.237   0.298   0.199   0.208   0.280   0.208   0.199   0.298
   0.237   0.305   0.474   0.653   0.988   1.013   0.713   0.839   0.783   0.845
   0.979   1.145   1.109   1.025   1.074   1.025   1.109   1.145   0.979   0.845
   0.783   0.839   0.713   1.013   0.988   0.653   0.474   0.305   0.237   0.298
   0.199   0.208
   0.535   0.368   0.435   0.611   0.501   0.476   0.646   0.850   0.963   0.876
   0.711   0.799   0.758   0.861   0.928   1.220   1.192   1.173   1.234   1.173
   1.192   1.220   0.928   0.861   0.758   0.799   0.711   0.876   0.963   0.850
   0.646   0.476   0.501   0.611   0.435   0.368   0.535   0.368   0.435   0.611
   0.501   0.476   0.646   0.850   0.963   0.876   0.711   0.799   0.758   0.861
   0.928   1.220   1.192   1.173   1.234   1.173   1.192   1.220   0.928   0.861
   0.758   0.799   0.711   0.876   0.963   0.850   0.646   0.476   0.501   0.611
   0.435   0.368
  4  1      2.3938626E-01
  4  2     -7.2613939E-01
  4  3     -2.3522790E-01
  6  1      2.0194960E+00
  6  2     -2.9029646E+00
  6  3      1.3759986E+00
  6  4      4.0193611E-01
  8  1      6.4763583E-02
  8  2      2.0526285E-01
  8  3     -8.5024499E-02
  8  4      8.3720922E-01
  8  5      3.9154620E-01
 10  1      6.0051789E-02
 10  2     -2.6224898E-01
 10  3      6.7421277E-01
 10  4     -3.7260580E-01
 10  5      2.5134344E-01
 10  6     -2.7118577E-01
 12  1     -1.4575811E-01  1.5492762E+00
 12  2      8.1172887E-02 -2.0199953E+00
 12  3      5.1408932E-02  1.8011819E+00
 12  4      4.4998357E-02 -8.3296419E-01
 12  5      1.4777666E-01 -6.9652483E-02
 12  6     -4.7749027E-01  4.5348429E-01
 12  7      2.8403786E-01  2.9105490E-01
 14  1     -2.2176980E-01
 14  2      2.7233696E-01
 14  3     -3.2312338E-01
 14  4      1.9708598E-01
 14  5     -2.5765322E-01
 14  6      3.8269390E-01
 14  7      2.8074722E-01
 14  8      2.7661460E-01
 16  1      1.9719291E-01 -5.0221188E-02
 16  2     -2.6443835E-01  7.7241598E-03
 16  3      1.5170404E-01  2.4604227E-01
 16  4     -1.6160313E-01 -4.4632278E-01
 16  5      1.1419801E-01  3.1948213E-01
 16  6     -9.7961484E-02 -7.3818081E-02
 16  7      4.0447201E-01 -1.2413226E-01
 16  8      1.7802935E-01  1.3175456E-02
 16  9     -8.5044218E-02  4.3055350E-02
 220       5.00   72    0 5.00   18    0
   2.806   2.807   2.811   2.816   2.824   2.833   2.843   2.855   2.868   2.881
   2.894   2.907   2.919   2.929   2.939   2.946   2.952   2.955   2.957   2.955
   2.952   2.946   2.939   2.929   2.919   2.907   2.894   2.881   2.868   2.855
   2.843   2.833   2.824   2.816   2.811   2.807   2.806   2.807   2.811   2.816
   2.824   2.833   2.843   2.855   2.868   2.881   2.894   2.907   2.919   2.929
   2.939   2.946   2.952   2.955   2.957   2.955   2.952   2.946   2.939   2.929
   2.919   2.907   2.894   2.881   2.868   2.855   2.843   2.833   2.824   2.816
   2.811   2.807
   1.737   1.745   1.767   1.804   1.855   1.918   1.993   2.078   2.171   2.269
   2.369   2.469   2.565   2.654   2.732   2.796   2.844   2.873   2.883   2.873
   2.844   2.796   2.732   2.654   2.565   2.469   2.369   2.269   2.171   2.078
   1.993   1.918   1.855   1.804   1.767   1.745   1.737   1.745   1.767   1.804
   1.855   1.918   1.993   2.078   2.171   2.269   2.369   2.469   2.565   2.654
   2.732   2.796   2.844   2.873   2.883   2.873   2.844   2.796   2.732   2.654
   2.565   2.469   2.369   2.269   2.171   2.078   1.993   1.918   1.855   1.804
   1.767   1.745
   0.477   0.487   0.519   0.571   0.646   0.744   0.866   1.011   1.178   1.365
   1.566   1.777   1.988   2.191   2.376   2.533   2.652   2.727   2.752   2.727
   2.652   2.533   2.376   2.191   1.988   1.777   1.566   1.365   1.178   1.011
   0.866   0.744   0.646   0.571   0.519   0.487   0.477   0.487   0.519   0.571
   0.646   0.744   0.866   1.011   1.178   1.365   1.566   1.777   1.988   2.191
   2.376   2.533   2.652   2.727   2.752   2.727   2.652   2.533   2.376   2.191
   1.988   1.777   1.566   1.365   1.178   1.011   0.866   0.744   0.646   0.571
   0.519   0.487
  -0.098  -0.094  -0.082  -0.060  -0.022   0.036   0.120   0.237   0.392   0.587
   0.822   1.091   1.382   1.680   1.966   2.218   2.416   2.543   2.586   2.543
   2.416   2.218   1.966   1.680   1.382   1.091   0.822   0.587   0.392   0.237
   0.120   0.036  -0.022  -0.060  -0.082  -0.094  -0.098  -0.094  -0.082  -0.060
  -0.022   0.036   0.120   0.237   0.392   0.587   0.822   1.091   1.382   1.680
   1.966   2.218   2.416   2.543   2.586   2.543   2.416   2.218   1.966   1.680
   1.382   1.091   0.822   0.587   0.392   0.237   0.120   0.036  -0.022  -0.060
  -0.082  -0.094
   0.104   0.098   0.081   0.056   0.028   0.004  -0.005   0.015   0.077   0.194
   0.374   0.619   0.918   1.253   1.596   1.914   2.171   2.339   2.398   2.339
   2.171   1.914   1.596   1.253   0.918   0.619   0.374   0.194   0.077   0.015
  -0.005   0.004   0.028   0.056   0.081   0.098   0.104   0.098   0.081   0.056
   0.028   0.004  -0.005   0.015   0.077   0.194   0.374   0.619   0.918   1.253
   1.596   1.914   2.171   2.339   2.398   2.339   2.171   1.914   1.596   1.253
   0.918   0.619   0.374   0.194   0.077   0.015  -0.005   0.004   0.028   0.056
   0.081   0.098
   0.482   0.475   0.454   0.418   0.368   0.305   0.238   0.180   0.151   0.172
   0.263   0.435   0.684   0.992   1.329   1.654   1.926   2.107   2.170   2.107
   1.926   1.654   1.329   0.992   0.684   0.435   0.263   0.172   0.151   0.180
   0.238   0.305   0.368   0.418   0.454   0.475   0.482   0.475   0.454   0.418
   0.368   0.305   0.238   0.180   0.151   0.172   0.263   0.435   0.684   0.992
   1.329   1.654   1.926   2.107   2.170   2.107   1.926   1.654   1.329   0.992
   0.684   0.435   0.263   0.172   0.151   0.180   0.238   0.305   0.368   0.418
   0.454   0.475
   0.486   0.488   0.495   0.501   0.502   0.486   0.449   0.396   0.346   0.326
   0.364   0.476   0.662   0.906   1.180   1.447   1.672   1.822   1.874   1.822
   1.672   1.447   1.180   0.906   0.662   0.476   0.364   0.326   0.346   0.396
   0.449   0.486   0.502   0.501   0.495   0.488   0.486   0.488   0.495   0.501
   0.502   0.486   0.449   0.396   0.346   0.326   0.364   0.476   0.662   0.906
   1.180   1.447   1.672   1.822   1.874   1.822   1.672   1.447   1.180   0.906
   0.662   0.476   0.364   0.326   0.346   0.396   0.449   0.486   0.502   0.501
   0.495   0.488
   0.184   0.192   0.220   0.273   0.345   0.417   0.461   0.469   0.455   0.454
   0.499   0.605   0.762   0.945   1.127   1.286   1.408   1.486   1.512   1.486
   1.408   1.286   1.127   0.945   0.762   0.605   0.499   0.454   0.455   0.469
   0.461   0.417   0.345   0.273   0.220   0.192   0.184   0.192   0.220   0.273
   0.345   0.417   0.461   0.469   0.455   0.454   0.499   0.605   0.762   0.945
   1.127   1.286   1.408   1.486   1.512   1.486   1.408   1.286   1.127   0.945
   0.762   0.605   0.499   0.454   0.455   0.469   0.461   0.417   0.345   0.273
   0.220   0.192
   0.183   0.169   0.148   0.163   0.233   0.335   0.421   0.458   0.461   0.479
   0.556   0.700   0.874   1.028   1.128   1.168   1.167   1.153   1.145   1.153
   1.167   1.168   1.128   1.028   0.874   0.700   0.556   0.479   0.461   0.458
   0.421   0.335   0.233   0.163   0.148   0.169   0.183   0.169   0.148   0.163
   0.233   0.335   0.421   0.458   0.461   0.479   0.556   0.700   0.874   1.028
   1.128   1.168   1.167   1.153   1.145   1.153   1.167   1.168   1.128   1.028
   0.874   0.700   0.556   0.479   0.461   0.458   0.421   0.335   0.233   0.163
   0.148   0.169
   1.031   0.953   0.772   0.604   0.532   0.545   0.568   0.543   0.482   0.460
   0.539   0.718   0.929   1.088   1.140   1.091   0.988   0.894   0.856   0.894
   0.988   1.091   1.140   1.088   0.929   0.718   0.539   0.460   0.482   0.543
   0.568   0.545   0.532   0.604   0.772   0.953   1.031   0.953   0.772   0.604
   0.532   0.545   0.568   0.543   0.482   0.460   0.539   0.718   0.929   1.088
   1.140   1.091   0.988   0.894   0.856   0.894   0.988   1.091   1.140   1.088
   0.929   0.718   0.539   0.460   0.482   0.543   0.568   0.545   0.532   0.604
   0.772   0.953
   2.615   2.442   2.022   1.569   1.251   1.084   0.968   0.813   0.629   0.510
   0.536   0.706   0.929   1.095   1.133   1.044   0.886   0.743   0.686   0.743
   0.886   1.044   1.133   1.095   0.929   0.706   0.536   0.510   0.629   0.813
   0.968   1.084   1.251   1.569   2.022   2.442   2.615   2.442   2.022   1.569
   1.251   1.084   0.968   0.813   0.629   0.510   0.536   0.706   0.929   1.095
   1.133   1.044   0.886   0.743   0.686   0.743   0.886   1.044   1.133   1.095
   0.929   0.706   0.536   0.510   0.629   0.813   0.968   1.084   1.251   1.569
   2.022   2.442
   4.028   3.780   3.167   2.484   1.968   1.654   1.428   1.175   0.898   0.691
   0.639   0.740   0.914   1.057   1.093   1.006   0.840   0.681   0.615   0.681
   0.840   1.006   1.093   1.057   0.914   0.740   0.639   0.691   0.898   1.175
   1.428   1.654   1.968   2.484   3.167   3.780   4.028   3.780   3.167   2.484
   1.968   1.654   1.428   1.175   0.898   0.691   0.639   0.740   0.914   1.057
   1.093   1.006   0.840   0.681   0.615   0.681   0.840   1.006   1.093   1.057
   0.914   0.740   0.639   0.691   0.898   1.175   1.428   1.654   1.968   2.484
   3.167   3.780
   4.188   3.939   3.327   2.653   2.154   1.864   1.661   1.433   1.174   0.960
   0.854   0.857   0.924   1.000   1.029   0.968   0.826   0.671   0.604   0.671
   0.826   0.968   1.029   1.000   0.924   0.857   0.854   0.960   1.174   1.433
   1.661   1.864   2.154   2.653   3.327   3.939   4.188   3.939   3.327   2.653
   2.154   1.864   1.661   1.433   1.174   0.960   0.854   0.857   0.924   1.000
   1.029   0.968   0.826   0.671   0.604   0.671   0.826   0.968   1.029   1.000
   0.924   0.857   0.854   0.960   1.174   1.433   1.661   1.864   2.154   2.653
   3.327   3.939
   2.824   2.660   2.272   1.880   1.644   1.561   1.523   1.442   1.318   1.196
   1.100   1.024   0.972   0.959   0.968   0.942   0.840   0.708   0.646   0.708
   0.840   0.942   0.968   0.959   0.972   1.024   1.100   1.196   1.318   1.442
   1.523   1.561   1.644   1.880   2.272   2.660   2.824   2.660   2.272   1.880
   1.644   1.561   1.523   1.442   1.318   1.196   1.100   1.024   0.972   0.959
   0.968   0.942   0.840   0.708   0.646   0.708   0.840   0.942   0.968   0.959
   0.972   1.024   1.100   1.196   1.318   1.442   1.523   1.561   1.644   1.880
   2.272   2.660
   0.881   0.834   0.745   0.718   0.809   0.973   1.123   1.215   1.265   1.291
   1.272   1.181   1.051   0.960   0.943   0.945   0.897   0.808   0.762   0.808
   0.897   0.945   0.943   0.960   1.051   1.181   1.272   1.291   1.265   1.215
   1.123   0.973   0.809   0.718   0.745   0.834   0.881   0.834   0.745   0.718
   0.809   0.973   1.123   1.215   1.265   1.291   1.272   1.181   1.051   0.960
   0.943   0.945   0.897   0.808   0.762   0.808   0.897   0.945   0.943   0.960
   1.051   1.181   1.272   1.291   1.265   1.215   1.123   0.973   0.809   0.718
   0.745   0.834
  -0.265  -0.245  -0.167  -0.005   0.232   0.490   0.713   0.893   1.062   1.224
   1.321   1.288   1.150   1.014   0.964   0.984   0.996   0.971   0.951   0.971
   0.996   0.984   0.964   1.014   1.150   1.288   1.321   1.224   1.062   0.893
   0.713   0.490   0.232  -0.005  -0.167  -0.245  -0.265  -0.245  -0.167  -0.005
   0.232   0.490   0.713   0.893   1.062   1.224   1.321   1.288   1.150   1.014
   0.964   0.984   0.996   0.971   0.951   0.971   0.996   0.984   0.964   1.014
   1.150   1.288   1.321   1.224   1.062   0.893   0.713   0.490   0.232  -0.005
  -0.167  -0.245
  -0.133  -0.121  -0.075   0.018   0.157   0.316   0.468   0.624   0.825   1.071
   1.279   1.344   1.247   1.095   1.015   1.039   1.104   1.148   1.160   1.148
   1.104   1.039   1.015   1.095   1.247   1.344   1.279   1.071   0.825   0.624
   0.468   0.316   0.157   0.018  -0.075  -0.121  -0.133  -0.121  -0.075   0.018
   0.157   0.316   0.468   0.624   0.825   1.071   1.279   1.344   1.247   1.095
   1.015   1.039   1.104   1.148   1.160   1.148   1.104   1.039   1.015   1.095
   1.247   1.344   1.279   1.071   0.825   0.624   0.468   0.316   0.157   0.018
  -0.075  -0.121
   0.463   0.440   0.386   0.334   0.314   0.332   0.383   0.483   0.672   0.951
   1.228   1.364   1.309   1.156   1.055   1.077   1.175   1.265   1.298   1.265
   1.175   1.077   1.055   1.156   1.309   1.364   1.228   0.951   0.672   0.483
   0.383   0.332   0.314   0.334   0.386   0.440   0.463   0.440   0.386   0.334
   0.314   0.332   0.383   0.483   0.672   0.951   1.228   1.364   1.309   1.156
   1.055   1.077   1.175   1.265   1.298   1.265   1.175   1.077   1.055   1.156
   1.309   1.364   1.228   0.951   0.672   0.483   0.383   0.332   0.314   0.334
   0.386   0.440
 200       5.00   72    0 5.00   18    0
   0.904   0.904   0.906   0.907   0.910   0.913   0.916   0.920   0.925   0.929
   0.933   0.938   0.942   0.946   0.949   0.951   0.953   0.955   0.955   0.955
   0.953   0.951   0.949   0.946   0.942   0.938   0.933   0.929   0.925   0.920
   0.916   0.913   0.910   0.907   0.906   0.904   0.904   0.904   0.906   0.907
   0.910   0.913   0.916   0.920   0.925   0.929   0.933   0.938   0.942   0.946
   0.949   0.951   0.953   0.955   0.955   0.955   0.953   0.951   0.949   0.946
   0.942   0.938   0.933   0.929   0.925   0.920   0.916   0.913   0.910   0.907
   0.906   0.904
   0.622   0.623   0.627   0.633   0.641   0.652   0.667   0.685   0.706   0.731
   0.758   0.787   0.816   0.845   0.871   0.894   0.911   0.922   0.925   0.922
   0.911   0.894   0.871   0.845   0.816   0.787   0.758   0.731   0.706   0.685
   0.667   0.652   0.641   0.633   0.627   0.623   0.622   0.623   0.627   0.633
   0.641   0.652   0.667   0.685   0.706   0.731   0.758   0.787   0.816   0.845
   0.871   0.894   0.911   0.922   0.925   0.922   0.911   0.894   0.871   0.845
   0.816   0.787   0.758   0.731   0.706   0.685   0.667   0.652   0.641   0.633
   0.627   0.623
   0.631   0.627   0.616   0.599   0.579   0.558   0.539   0.526   0.522   0.530
   0.551   0.586   0.633   0.688   0.745   0.799   0.844   0.873   0.883   0.873
   0.844   0.799   0.745   0.688   0.633   0.586   0.551   0.530   0.522   0.526
   0.539   0.558   0.579   0.599   0.616   0.627   0.631   0.627   0.616   0.599
   0.579   0.558   0.539   0.526   0.522   0.530   0.551   0.586   0.633   0.688
   0.745   0.799   0.844   0.873   0.883   0.873   0.844   0.799   0.745   0.688
   0.633   0.586   0.551   0.530   0.522   0.526   0.539   0.558   0.579   0.599
   0.616   0.627
   1.199   1.187   1.153   1.097   1.022   0.932   0.832   0.730   0.635   0.557
   0.504   0.485   0.501   0.549   0.621   0.703   0.777   0.829   0.848   0.829
   0.777   0.703   0.621   0.549   0.501   0.485   0.504   0.557   0.635   0.730
   0.832   0.932   1.022   1.097   1.153   1.187   1.199   1.187   1.153   1.097
   1.022   0.932   0.832   0.730   0.635   0.557   0.504   0.485   0.501   0.549
   0.621   0.703   0.777   0.829   0.848   0.829   0.777   0.703   0.621   0.549
   0.501   0.485   0.504   0.557   0.635   0.730   0.832   0.932   1.022   1.097
   1.153   1.187
   1.845   1.834   1.800   1.741   1.657   1.546   1.408   1.246   1.069   0.890
   0.728   0.602   0.530   0.518   0.561   0.642   0.732   0.802   0.828   0.802
   0.732   0.642   0.561   0.518   0.530   0.602   0.728   0.890   1.069   1.246
   1.408   1.546   1.657   1.741   1.800   1.834   1.845   1.834   1.800   1.741
   1.657   1.546   1.408   1.246   1.069   0.890   0.728   0.602   0.530   0.518
   0.561   0.642   0.732   0.802   0.828   0.802   0.732   0.642   0.561   0.518
   0.530   0.602   0.728   0.890   1.069   1.246   1.408   1.546   1.657   1.741
   1.800   1.834
   1.944   1.942   1.936   1.925   1.906   1.871   1.811   1.713   1.570   1.383
   1.168   0.952   0.769   0.651   0.612   0.645   0.717   0.785   0.813   0.785
   0.717   0.645   0.612   0.651   0.769   0.952   1.168   1.383   1.570   1.713
   1.811   1.871   1.906   1.925   1.936   1.942   1.944   1.942   1.936   1.925
   1.906   1.871   1.811   1.713   1.570   1.383   1.168   0.952   0.769   0.651
   0.612   0.645   0.717   0.785   0.813   0.785   0.717   0.645   0.612   0.651
   0.769   0.952   1.168   1.383   1.570   1.713   1.811   1.871   1.906   1.925
   1.936   1.942
   1.474   1.477   1.487   1.515   1.566   1.640   1.723   1.792   1.816   1.766
   1.628   1.414   1.165   0.936   0.782   0.722   0.739   0.783   0.805   0.783
   0.739   0.722   0.782   0.936   1.165   1.414   1.628   1.766   1.816   1.792
   1.723   1.640   1.566   1.515   1.487   1.477   1.474   1.477   1.487   1.515
   1.566   1.640   1.723   1.792   1.816   1.766   1.628   1.414   1.165   0.936
   0.782   0.722   0.739   0.783   0.805   0.783   0.739   0.722   0.782   0.936
   1.165   1.414   1.628   1.766   1.816   1.792   1.723   1.640   1.566   1.515
   1.487   1.477
   0.898   0.894   0.888   0.903   0.959   1.072   1.243   1.455   1.671   1.836
   1.890   1.796   1.569   1.279   1.019   0.858   0.807   0.820   0.833   0.820
   0.807   0.858   1.019   1.279   1.569   1.796   1.890   1.836   1.671   1.455
   1.243   1.072   0.959   0.903   0.888   0.894   0.898   0.894   0.888   0.903
   0.959   1.072   1.243   1.455   1.671   1.836   1.890   1.796   1.569   1.279
   1.019   0.858   0.807   0.820   0.833   0.820   0.807   0.858   1.019   1.279
   1.569   1.796   1.890   1.836   1.671   1.455   1.243   1.072   0.959   0.903
   0.888   0.894
   0.525   0.514   0.491   0.480   0.503   0.578   0.720   0.948   1.255   1.591
   1.857   1.949   1.826   1.545   1.233   1.008   0.917   0.914   0.926   0.914
   0.917   1.008   1.233   1.545   1.826   1.949   1.857   1.591   1.255   0.948
   0.720   0.578   0.503   0.480   0.491   0.514   0.525   0.514   0.491   0.480
   0.503   0.578   0.720   0.948   1.255   1.591   1.857   1.949   1.826   1.545
   1.233   1.008   0.917   0.914   0.926   0.914   0.917   1.008   1.233   1.545
   1.826   1.949   1.857   1.591   1.255   0.948   0.720   0.578   0.503   0.480
   0.491   0.514
   0.320   0.311   0.298   0.299   0.317   0.347   0.404   0.540   0.811   1.205
   1.610   1.866   1.869   1.648   1.345   1.115   1.025   1.033   1.050   1.033
   1.025   1.115   1.345   1.648   1.869   1.866   1.610   1.205   0.811   0.540
   0.404   0.347   0.317   0.299   0.298   0.311   0.320   0.311   0.298   0.299
   0.317   0.347   0.404   0.540   0.811   1.205   1.610   1.866   1.869   1.648
   1.345   1.115   1.025   1.033   1.050   1.033   1.025   1.115   1.345   1.648
   1.869   1.866   1.610   1.205   0.811   0.540   0.404   0.347   0.317   0.299
   0.298   0.311
   0.221   0.214   0.210   0.233   0.274   0.295   0.292   0.337   0.530   0.900
   1.341   1.668   1.747   1.589   1.335   1.141   1.073   1.091   1.111   1.091
   1.073   1.141   1.335   1.589   1.747   1.668   1.341   0.900   0.530   0.337
   0.292   0.295   0.274   0.233   0.210   0.214   0.221   0.214   0.210   0.233
   0.274   0.295   0.292   0.337   0.530   0.900   1.341   1.668   1.747   1.589
   1.335   1.141   1.073   1.091   1.111   1.091   1.073   1.141   1.335   1.589
   1.747   1.668   1.341   0.900   0.530   0.337   0.292   0.295   0.274   0.233
   0.210   0.214
   0.268   0.250   0.221   0.225   0.262   0.287   0.285   0.316   0.481   0.810
   1.202   1.486   1.553   1.429   1.238   1.094   1.034   1.029   1.034   1.029
   1.034   1.094   1.238   1.429   1.553   1.486   1.202   0.810   0.481   0.316
   0.285   0.287   0.262   0.225   0.221   0.250   0.268   0.250   0.221   0.225
   0.262   0.287   0.285   0.316   0.481   0.810   1.202   1.486   1.553   1.429
   1.238   1.094   1.034   1.029   1.034   1.029   1.034   1.094   1.238   1.429
   1.553   1.486   1.202   0.810   0.481   0.316   0.285   0.287   0.262   0.225
   0.221   0.250
   0.381   0.356   0.306   0.279   0.292   0.324   0.365   0.454   0.646   0.929
   1.205   1.354   1.340   1.228   1.108   1.018   0.946   0.888   0.863   0.888
   0.946   1.018   1.108   1.228   1.340   1.354   1.205   0.929   0.646   0.454
   0.365   0.324   0.292   0.279   0.306   0.356   0.381   0.356   0.306   0.279
   0.292   0.324   0.365   0.454   0.646   0.929   1.205   1.354   1.340   1.228
   1.108   1.018   0.946   0.888   0.863   0.888   0.946   1.018   1.108   1.228
   1.340   1.354   1.205   0.929   0.646   0.454   0.365   0.324   0.292   0.279
   0.306   0.356
   0.396   0.389   0.379   0.384   0.419   0.490   0.599   0.754   0.948   1.134
   1.239   1.221   1.118   1.017   0.969   0.940   0.876   0.786   0.742   0.786
   0.876   0.940   0.969   1.017   1.118   1.221   1.239   1.134   0.948   0.754
   0.599   0.490   0.419   0.384   0.379   0.389   0.396   0.389   0.379   0.384
   0.419   0.490   0.599   0.754   0.948   1.134   1.239   1.221   1.118   1.017
   0.969   0.940   0.876   0.786   0.742   0.786   0.876   0.940   0.969   1.017
   1.118   1.221   1.239   1.134   0.948   0.754   0.599   0.490   0.419   0.384
   0.379   0.389
   0.429   0.451   0.503   0.571   0.667   0.813   0.997   1.168   1.269   1.274
   1.189   1.047   0.905   0.822   0.816   0.845   0.847   0.816   0.796   0.816
   0.847   0.845   0.816   0.822   0.905   1.047   1.189   1.274   1.269   1.168
   0.997   0.813   0.667   0.571   0.503   0.451   0.429   0.451   0.503   0.571
   0.667   0.813   0.997   1.168   1.269   1.274   1.189   1.047   0.905   0.822
   0.816   0.845   0.847   0.816   0.796   0.816   0.847   0.845   0.816   0.822
   0.905   1.047   1.189   1.274   1.269   1.168   0.997   0.813   0.667   0.571
   0.503   0.451
   0.897   0.904   0.914   0.936   1.022   1.215   1.447   1.571   1.493   1.266
   1.026   0.858   0.750   0.675   0.646   0.701   0.832   0.967   1.025   0.967
   0.832   0.701   0.646   0.675   0.750   0.858   1.026   1.266   1.493   1.571
   1.447   1.215   1.022   0.936   0.914   0.904   0.897   0.904   0.914   0.936
   1.022   1.215   1.447   1.571   1.493   1.266   1.026   0.858   0.750   0.675
   0.646   0.701   0.832   0.967   1.025   0.967   0.832   0.701   0.646   0.675
   0.750   0.858   1.026   1.266   1.493   1.571   1.447   1.215   1.022   0.936
   0.914   0.904
   1.888   1.821   1.645   1.455   1.405   1.568   1.805   1.850   1.577   1.144
   0.822   0.711   0.684   0.595   0.485   0.528   0.800   1.149   1.308   1.149
   0.800   0.528   0.485   0.595   0.684   0.711   0.822   1.144   1.577   1.850
   1.805   1.568   1.405   1.455   1.645   1.821   1.888   1.821   1.645   1.455
   1.405   1.568   1.805   1.850   1.577   1.144   0.822   0.711   0.684   0.595
   0.485   0.528   0.800   1.149   1.308   1.149   0.800   0.528   0.485   0.595
   0.684   0.711   0.822   1.144   1.577   1.850   1.805   1.568   1.405   1.455
   1.645   1.821
   2.769   2.629   2.267   1.864   1.664   1.770   1.990   1.975   1.580   1.030
   0.683   0.638   0.675   0.568   0.383   0.403   0.768   1.264   1.495   1.264
   0.768   0.403   0.383   0.568   0.675   0.638   0.683   1.030   1.580   1.975
   1.990   1.770   1.664   1.864   2.267   2.629   2.769   2.629   2.267   1.864
   1.664   1.770   1.990   1.975   1.580   1.030   0.683   0.638   0.675   0.568
   0.383   0.403   0.768   1.264   1.495   1.264   0.768   0.403   0.383   0.568
   0.675   0.638   0.683   1.030   1.580   1.975   1.990   1.770   1.664   1.864
   2.267   2.629
 111       5.00   72    0 5.00   18    0
   0.377   0.377   0.379   0.381   0.384   0.387   0.391   0.396   0.401   0.406
   0.411   0.416   0.421   0.425   0.429   0.432   0.434   0.436   0.436   0.436
   0.434   0.432   0.429   0.425   0.421   0.416   0.411   0.406   0.401   0.396
   0.391   0.387   0.384   0.381   0.379   0.377   0.377   0.377   0.379   0.381
   0.384   0.387   0.391   0.396   0.401   0.406   0.411   0.416   0.421   0.425
   0.429   0.432   0.434   0.436   0.436   0.436   0.434   0.432   0.429   0.425
   0.421   0.416   0.411   0.406   0.401   0.396   0.391   0.387   0.384   0.381
   0.379   0.377
   0.019   0.020   0.026   0.034   0.047   0.064   0.084   0.109   0.137   0.167
   0.200   0.233   0.266   0.297   0.325   0.348   0.366   0.377   0.381   0.377
   0.366   0.348   0.325   0.297   0.266   0.233   0.200   0.167   0.137   0.109
   0.084   0.064   0.047   0.034   0.026   0.020   0.019   0.020   0.026   0.034
   0.047   0.064   0.084   0.109   0.137   0.167   0.200   0.233   0.266   0.297
   0.325   0.348   0.366   0.377   0.381   0.377   0.366   0.348   0.325   0.297
   0.266   0.233   0.200   0.167   0.137   0.109   0.084   0.064   0.047   0.034
   0.026   0.020
   0.028   0.023   0.009  -0.011  -0.034  -0.055  -0.070  -0.076  -0.069  -0.049
  -0.016   0.028   0.079   0.132   0.184   0.230   0.266   0.289   0.296   0.289
   0.266   0.230   0.184   0.132   0.079   0.028  -0.016  -0.049  -0.069  -0.076
  -0.070  -0.055  -0.034  -0.011   0.009   0.023   0.028   0.023   0.009  -0.011
  -0.034  -0.055  -0.070  -0.076  -0.069  -0.049  -0.016   0.028   0.079   0.132
   0.184   0.230   0.266   0.289   0.296   0.289   0.266   0.230   0.184   0.132
   0.079   0.028  -0.016  -0.049  -0.069  -0.076  -0.070  -0.055  -0.034  -0.011
   0.009   0.023
   1.012   0.986   0.912   0.796   0.651   0.493   0.336   0.196   0.085   0.010
  -0.026  -0.028  -0.002   0.042   0.095   0.146   0.188   0.215   0.225   0.215
   0.188   0.146   0.095   0.042  -0.002  -0.028  -0.026   0.010   0.085   0.196
   0.336   0.493   0.651   0.796   0.912   0.986   1.012   0.986   0.912   0.796
   0.651   0.493   0.336   0.196   0.085   0.010  -0.026  -0.028  -0.002   0.042
   0.095   0.146   0.188   0.215   0.225   0.215   0.188   0.146   0.095   0.042
  -0.002  -0.028  -0.026   0.010   0.085   0.196   0.336   0.493   0.651   0.796
   0.912   0.986
   2.644   2.595   2.451   2.223   1.930   1.594   1.244   0.909   0.615   0.382
   0.217   0.120   0.079   0.080   0.104   0.137   0.168   0.188   0.195   0.188
   0.168   0.137   0.104   0.080   0.079   0.120   0.217   0.382   0.615   0.909
   1.244   1.594   1.930   2.223   2.451   2.595   2.644   2.595   2.451   2.223
   1.930   1.594   1.244   0.909   0.615   0.382   0.217   0.120   0.079   0.080
   0.104   0.137   0.168   0.188   0.195   0.188   0.168   0.137   0.104   0.080
   0.079   0.120   0.217   0.382   0.615   0.909   1.244   1.594   1.930   2.223
   2.451   2.595
   3.784   3.738   3.599   3.367   3.047   2.653   2.208   1.747   1.309   0.927
   0.626   0.414   0.284   0.217   0.194   0.193   0.200   0.207   0.210   0.207
   0.200   0.193   0.194   0.217   0.284   0.414   0.626   0.927   1.309   1.747
   2.208   2.653   3.047   3.367   3.599   3.738   3.784   3.738   3.599   3.367
   3.047   2.653   2.208   1.747   1.309   0.927   0.626   0.414   0.284   0.217
   0.194   0.193   0.200   0.207   0.210   0.207   0.200   0.193   0.194   0.217
   0.284   0.414   0.626   0.927   1.309   1.747   2.208   2.653   3.047   3.367
   3.599   3.738
   3.524   3.521   3.502   3.444   3.315   3.092   2.770   2.369   1.925   1.487
   1.096   0.781   0.551   0.400   0.313   0.270   0.255   0.252   0.252   0.252
   0.255   0.270   0.313   0.400   0.551   0.781   1.096   1.487   1.925   2.369
   2.770   3.092   3.315   3.444   3.502   3.521   3.524   3.521   3.502   3.444
   3.315   3.092   2.770   2.369   1.925   1.487   1.096   0.781   0.551   0.400
   0.313   0.270   0.255   0.252   0.252   0.252   0.255   0.270   0.313   0.400
   0.551   0.781   1.096   1.487   1.925   2.369   2.770   3.092   3.315   3.444
   3.502   3.521
   2.086   2.138   2.279   2.466   2.639   2.736   2.712   2.551   2.272   1.915
   1.531   1.165   0.850   0.607   0.444   0.354   0.319   0.313   0.315   0.313
   0.319   0.354   0.444   0.607   0.850   1.165   1.531   1.915   2.272   2.551
   2.712   2.736   2.639   2.466   2.279   2.138   2.086   2.138   2.279   2.466
   2.639   2.736   2.712   2.551   2.272   1.915   1.531   1.165   0.850   0.607
   0.444   0.354   0.319   0.313   0.315   0.313   0.319   0.354   0.444   0.607
   0.850   1.165   1.531   1.915   2.272   2.551   2.712   2.736   2.639   2.466
   2.279   2.138
   0.596   0.666   0.866   1.167   1.516   1.850   2.105   2.233   2.218   2.070
   1.816   1.497   1.159   0.849   0.612   0.470   0.413   0.406   0.409   0.406
   0.413   0.470   0.612   0.849   1.159   1.497   1.816   2.070   2.218   2.233
   2.105   1.850   1.516   1.167   0.866   0.666   0.596   0.666   0.866   1.167
   1.516   1.850   2.105   2.233   2.218   2.070   1.816   1.497   1.159   0.849
   0.612   0.470   0.413   0.406   0.409   0.406   0.413   0.470   0.612   0.849
   1.159   1.497   1.816   2.070   2.218   2.233   2.105   1.850   1.516   1.167
   0.866   0.666
  -0.046  -0.009   0.105   0.305   0.586   0.924   1.272   1.576   1.790   1.883
   1.841   1.670   1.404   1.101   0.832   0.650   0.566   0.548   0.549   0.548
   0.566   0.650   0.832   1.101   1.404   1.670   1.841   1.883   1.790   1.576
   1.272   0.924   0.586   0.305   0.105  -0.009  -0.046  -0.009   0.105   0.305
   0.586   0.924   1.272   1.576   1.790   1.883   1.841   1.670   1.404   1.101
   0.832   0.650   0.566   0.548   0.549   0.548   0.566   0.650   0.832   1.101
   1.404   1.670   1.841   1.883   1.790   1.576   1.272   0.924   0.586   0.305
   0.105  -0.009
   0.069   0.062   0.055   0.081   0.177   0.364   0.631   0.941   1.239   1.473
   1.603   1.604   1.483   1.277   1.054   0.875   0.770   0.729   0.720   0.729
   0.770   0.875   1.054   1.277   1.483   1.604   1.603   1.473   1.239   0.941
   0.631   0.364   0.177   0.081   0.055   0.062   0.069   0.062   0.055   0.081
   0.177   0.364   0.631   0.941   1.239   1.473   1.603   1.604   1.483   1.277
   1.054   0.875   0.770   0.729   0.720   0.729   0.770   0.875   1.054   1.277
   1.483   1.604   1.603   1.473   1.239   0.941   0.631   0.364   0.177   0.081
   0.055   0.062
   0.245   0.232   0.197   0.160   0.159   0.235   0.402   0.633   0.878   1.091
   1.246   1.332   1.346   1.294   1.195   1.081   0.981   0.916   0.894   0.916
   0.981   1.081   1.195   1.294   1.346   1.332   1.246   1.091   0.878   0.633
   0.402   0.235   0.159   0.160   0.197   0.232   0.245   0.232   0.197   0.160
   0.159   0.235   0.402   0.633   0.878   1.091   1.246   1.332   1.346   1.294
   1.195   1.081   0.981   0.916   0.894   0.916   0.981   1.081   1.195   1.294
   1.346   1.332   1.246   1.091   0.878   0.633   0.402   0.235   0.159   0.160
   0.197   0.232
   0.124   0.135   0.155   0.169   0.195   0.279   0.441   0.640   0.807   0.903
   0.950   0.997   1.072   1.158   1.212   1.207   1.151   1.085   1.057   1.085
   1.151   1.207   1.212   1.158   1.072   0.997   0.950   0.903   0.807   0.640
   0.441   0.279   0.195   0.169   0.155   0.135   0.124   0.135   0.155   0.169
   0.195   0.279   0.441   0.640   0.807   0.903   0.950   0.997   1.072   1.158
   1.212   1.207   1.151   1.085   1.057   1.085   1.151   1.207   1.212   1.158
   1.072   0.997   0.950   0.903   0.807   0.640   0.441   0.279   0.195   0.169
   0.155   0.135
   0.003   0.027   0.073   0.105   0.146   0.261   0.476   0.717   0.865   0.872
   0.798   0.756   0.817   0.965   1.126   1.230   1.255   1.236   1.222   1.236
   1.255   1.230   1.126   0.965   0.817   0.756   0.798   0.872   0.865   0.717
   0.476   0.261   0.146   0.105   0.073   0.027   0.003   0.027   0.073   0.105
   0.146   0.261   0.476   0.717   0.865   0.872   0.798   0.756   0.817   0.965
   1.126   1.230   1.255   1.236   1.222   1.236   1.255   1.230   1.126   0.965
   0.817   0.756   0.798   0.872   0.865   0.717   0.476   0.261   0.146   0.105
   0.073   0.027
   0.296   0.310   0.320   0.284   0.245   0.304   0.501   0.743   0.884   0.862
   0.750   0.671   0.697   0.820   0.989   1.155   1.289   1.375   1.405   1.375
   1.289   1.155   0.989   0.820   0.697   0.671   0.750   0.862   0.884   0.743
   0.501   0.304   0.245   0.284   0.320   0.310   0.296   0.310   0.320   0.284
   0.245   0.304   0.501   0.743   0.884   0.862   0.750   0.671   0.697   0.820
   0.989   1.155   1.289   1.375   1.405   1.375   1.289   1.155   0.989   0.820
   0.697   0.671   0.750   0.862   0.884   0.743   0.501   0.304   0.245   0.284
   0.320   0.310
   0.971   0.990   1.000   0.929   0.806   0.736   0.774   0.854   0.871   0.807
   0.730   0.703   0.720   0.758   0.838   1.007   1.258   1.498   1.598   1.498
   1.258   1.007   0.838   0.758   0.720   0.703   0.730   0.807   0.871   0.854
   0.774   0.736   0.806   0.929   1.000   0.990   0.971   0.990   1.000   0.929
   0.806   0.736   0.774   0.854   0.871   0.807   0.730   0.703   0.720   0.758
   0.838   1.007   1.258   1.498   1.598   1.498   1.258   1.007   0.838   0.758
   0.720   0.703   0.730   0.807   0.871   0.854   0.774   0.736   0.806   0.929
   1.000   0.990
   1.647   1.711   1.825   1.852   1.745   1.564   1.366   1.146   0.911   0.738
   0.703   0.769   0.806   0.749   0.700   0.834   1.189   1.588   1.762   1.588
   1.189   0.834   0.700   0.749   0.806   0.769   0.703   0.738   0.911   1.146
   1.366   1.564   1.745   1.852   1.825   1.711   1.647   1.711   1.825   1.852
   1.745   1.564   1.366   1.146   0.911   0.738   0.703   0.769   0.806   0.749
   0.700   0.834   1.189   1.588   1.762   1.588   1.189   0.834   0.700   0.749
   0.806   0.769   0.703   0.738   0.911   1.146   1.366   1.564   1.745   1.852
   1.825   1.711
   2.025   2.137   2.374   2.534   2.497   2.268   1.898   1.434   0.980   0.698
   0.680   0.813   0.872   0.753   0.614   0.715   1.133   1.633   1.857   1.633
   1.133   0.715   0.614   0.753   0.872   0.813   0.680   0.698   0.980   1.434
   1.898   2.268   2.497   2.534   2.374   2.137   2.025   2.137   2.374   2.534
   2.497   2.268   1.898   1.434   0.980   0.698   0.680   0.813   0.872   0.753
   0.614   0.715   1.133   1.633   1.857   1.633   1.133   0.715   0.614   0.753
   0.872   0.813   0.680   0.698   0.980   1.434   1.898   2.268   2.497   2.534
   2.374   2.137
TEXTURE_INDEX=   2.7711
ERR_CF 220         1080     506   23.84   17.31
ERR_CF 200         1080     500   15.95   12.88
ERR_CF 111         1080     330   53.08    8.57
