TEXEVAL                                                                         
Analysis started on 30-Jul-18 08:58:20                                          
 LMAX=16LFMAX=03 CUBIC ORTHO   
 220      5.00 5.00
 200      5.00 5.00
 111      5.00 5.00
 220       5.00   72    0 5.00   15    0
   3.231   3.231   3.231   3.231   3.231   3.231   3.231   3.231   3.231   3.231
   3.231   3.231   3.231   3.231   3.231   3.231   3.231   3.231   3.231   3.231
   3.231   3.231   3.231   3.231   3.231   3.231   3.231   3.231   3.231   3.231
   3.231   3.231   3.231   3.231   3.231   3.231   3.231   3.231   3.231   3.231
   3.231   3.231   3.231   3.231   3.231   3.231   3.231   3.231   3.231   3.231
   3.231   3.231   3.231   3.231   3.231   3.231   3.231   3.231   3.231   3.231
   3.231   3.231   3.231   3.231   3.231   3.231   3.231   3.231   3.231   3.231
   3.231   3.231
   0.827   1.011   1.076   1.043   0.988   1.085   1.442   1.474   1.508   1.694
   1.944   2.254   2.658   2.985   3.068   3.159   3.285   4.024   3.919   4.024
   3.285   3.159   3.068   2.985   2.658   2.254   1.944   1.694   1.508   1.474
   1.442   1.085   0.988   1.043   1.076   1.011   0.827   1.011   1.076   1.043
   0.988   1.085   1.442   1.474   1.508   1.694   1.944   2.254   2.658   2.985
   3.068   3.159   3.285   4.024   3.919   4.024   3.285   3.159   3.068   2.985
   2.658   2.254   1.944   1.694   1.508   1.474   1.442   1.085   0.988   1.043
   1.076   1.011
   0.295   0.301   0.387   0.346   0.458   0.465   0.497   0.575   0.730   0.828
   1.074   1.031   1.603   2.299   2.536   3.005   3.610   4.386   3.644   4.386
   3.610   3.005   2.536   2.299   1.603   1.031   1.074   0.828   0.730   0.575
   0.497   0.465   0.458   0.346   0.387   0.301   0.295   0.301   0.387   0.346
   0.458   0.465   0.497   0.575   0.730   0.828   1.074   1.031   1.603   2.299
   2.536   3.005   3.610   4.386   3.644   4.386   3.610   3.005   2.536   2.299
   1.603   1.031   1.074   0.828   0.730   0.575   0.497   0.465   0.458   0.346
   0.387   0.301
   0.257   0.272   0.300   0.247   0.336   0.385   0.492   0.429   0.403   0.530
   0.670   0.801   1.138   1.671   1.973   2.642   3.539   3.859   3.526   3.859
   3.539   2.642   1.973   1.671   1.138   0.801   0.670   0.530   0.403   0.429
   0.492   0.385   0.336   0.247   0.300   0.272   0.257   0.272   0.300   0.247
   0.336   0.385   0.492   0.429   0.403   0.530   0.670   0.801   1.138   1.671
   1.973   2.642   3.539   3.859   3.526   3.859   3.539   2.642   1.973   1.671
   1.138   0.801   0.670   0.530   0.403   0.429   0.492   0.385   0.336   0.247
   0.300   0.272
   0.250   0.283   0.311   0.263   0.281   0.352   0.521   0.499   0.573   0.492
   0.579   0.928   0.849   1.292   1.688   2.326   3.164   3.235   3.496   3.235
   3.164   2.326   1.688   1.292   0.849   0.928   0.579   0.492   0.573   0.499
   0.521   0.352   0.281   0.263   0.311   0.283   0.250   0.283   0.311   0.263
   0.281   0.352   0.521   0.499   0.573   0.492   0.579   0.928   0.849   1.292
   1.688   2.326   3.164   3.235   3.496   3.235   3.164   2.326   1.688   1.292
   0.849   0.928   0.579   0.492   0.573   0.499   0.521   0.352   0.281   0.263
   0.311   0.283
   0.297   0.341   0.297   0.327   0.373   0.431   0.582   0.570   0.618   0.576
   0.622   0.859   0.758   1.147   1.630   2.208   2.952   3.083   3.299   3.083
   2.952   2.208   1.630   1.147   0.758   0.859   0.622   0.576   0.618   0.570
   0.582   0.431   0.373   0.327   0.297   0.341   0.297   0.341   0.297   0.327
   0.373   0.431   0.582   0.570   0.618   0.576   0.622   0.859   0.758   1.147
   1.630   2.208   2.952   3.083   3.299   3.083   2.952   2.208   1.630   1.147
   0.758   0.859   0.622   0.576   0.618   0.570   0.582   0.431   0.373   0.327
   0.297   0.341
   0.375   0.409   0.370   0.494   0.447   0.396   0.626   0.622   0.543   0.685
   0.664   0.665   0.817   1.057   1.564   2.192   2.612   2.825   2.943   2.825
   2.612   2.192   1.564   1.057   0.817   0.665   0.664   0.685   0.543   0.622
   0.626   0.396   0.447   0.494   0.370   0.409   0.375   0.409   0.370   0.494
   0.447   0.396   0.626   0.622   0.543   0.685   0.664   0.665   0.817   1.057
   1.564   2.192   2.612   2.825   2.943   2.825   2.612   2.192   1.564   1.057
   0.817   0.665   0.664   0.685   0.543   0.622   0.626   0.396   0.447   0.494
   0.370   0.409
   0.625   0.449   0.675   0.596   0.506   0.400   0.630   0.536   0.588   0.632
   0.638   0.598   0.735   0.943   1.505   1.889   2.370   2.262   2.200   2.262
   2.370   1.889   1.505   0.943   0.735   0.598   0.638   0.632   0.588   0.536
   0.630   0.400   0.506   0.596   0.675   0.449   0.625   0.449   0.675   0.596
   0.506   0.400   0.630   0.536   0.588   0.632   0.638   0.598   0.735   0.943
   1.505   1.889   2.370   2.262   2.200   2.262   2.370   1.889   1.505   0.943
   0.735   0.598   0.638   0.632   0.588   0.536   0.630   0.400   0.506   0.596
   0.675   0.449
   0.781   0.692   0.889   0.737   0.687   0.560   0.651   0.420   0.631   0.630
   0.590   0.574   0.506   0.776   1.071   1.375   1.901   1.861   1.812   1.861
   1.901   1.375   1.071   0.776   0.506   0.574   0.590   0.630   0.631   0.420
   0.651   0.560   0.687   0.737   0.889   0.692   0.781   0.692   0.889   0.737
   0.687   0.560   0.651   0.420   0.631   0.630   0.590   0.574   0.506   0.776
   1.071   1.375   1.901   1.861   1.812   1.861   1.901   1.375   1.071   0.776
   0.506   0.574   0.590   0.630   0.631   0.420   0.651   0.560   0.687   0.737
   0.889   0.692
   0.789   1.121   1.082   0.905   0.947   0.765   0.756   0.437   0.633   0.656
   0.469   0.497   0.482   0.631   0.893   1.091   1.245   1.370   1.459   1.370
   1.245   1.091   0.893   0.631   0.482   0.497   0.469   0.656   0.633   0.437
   0.756   0.765   0.947   0.905   1.082   1.121   0.789   1.121   1.082   0.905
   0.947   0.765   0.756   0.437   0.633   0.656   0.469   0.497   0.482   0.631
   0.893   1.091   1.245   1.370   1.459   1.370   1.245   1.091   0.893   0.631
   0.482   0.497   0.469   0.656   0.633   0.437   0.756   0.765   0.947   0.905
   1.082   1.121
   1.412   1.721   1.474   1.240   1.265   1.215   0.946   0.756   0.705   0.624
   0.494   0.526   0.532   0.688   0.899   0.862   0.838   1.230   0.830   1.230
   0.838   0.862   0.899   0.688   0.532   0.526   0.494   0.624   0.705   0.756
   0.946   1.215   1.265   1.240   1.474   1.721   1.412   1.721   1.474   1.240
   1.265   1.215   0.946   0.756   0.705   0.624   0.494   0.526   0.532   0.688
   0.899   0.862   0.838   1.230   0.830   1.230   0.838   0.862   0.899   0.688
   0.532   0.526   0.494   0.624   0.705   0.756   0.946   1.215   1.265   1.240
   1.474   1.721
   2.609   2.652   2.226   2.207   2.121   1.813   1.597   1.279   0.906   0.663
   0.619   0.725   0.511   0.704   0.780   0.615   0.754   1.018   0.740   1.018
   0.754   0.615   0.780   0.704   0.511   0.725   0.619   0.663   0.906   1.279
   1.597   1.813   2.121   2.207   2.226   2.652   2.609   2.652   2.226   2.207
   2.121   1.813   1.597   1.279   0.906   0.663   0.619   0.725   0.511   0.704
   0.780   0.615   0.754   1.018   0.740   1.018   0.754   0.615   0.780   0.704
   0.511   0.725   0.619   0.663   0.906   1.279   1.597   1.813   2.121   2.207
   2.226   2.652
   2.794   2.844   2.425   2.208   2.160   2.008   2.288   1.963   1.286   1.082
   0.849   0.662   0.710   0.703   0.733   0.619   0.786   0.665   0.796   0.665
   0.786   0.619   0.733   0.703   0.710   0.662   0.849   1.082   1.286   1.963
   2.288   2.008   2.160   2.208   2.425   2.844   2.794   2.844   2.425   2.208
   2.160   2.008   2.288   1.963   1.286   1.082   0.849   0.662   0.710   0.703
   0.733   0.619   0.786   0.665   0.796   0.665   0.786   0.619   0.733   0.703
   0.710   0.662   0.849   1.082   1.286   1.963   2.288   2.008   2.160   2.208
   2.425   2.844
   1.842   1.783   1.650   1.306   1.383   1.488   2.249   2.250   1.872   1.598
   1.213   0.834   0.818   0.763   0.870   0.655   0.882   0.695   0.768   0.695
   0.882   0.655   0.870   0.763   0.818   0.834   1.213   1.598   1.872   2.250
   2.249   1.488   1.383   1.306   1.650   1.783   1.842   1.783   1.650   1.306
   1.383   1.488   2.249   2.250   1.872   1.598   1.213   0.834   0.818   0.763
   0.870   0.655   0.882   0.695   0.768   0.695   0.882   0.655   0.870   0.763
   0.818   0.834   1.213   1.598   1.872   2.250   2.249   1.488   1.383   1.306
   1.650   1.783
   0.839   0.679   0.740   0.757   0.822   0.683   1.164   1.425   2.116   1.916
   1.273   1.038   0.760   0.636   0.805   0.630   0.887   0.738   0.735   0.738
   0.887   0.630   0.805   0.636   0.760   1.038   1.273   1.916   2.116   1.425
   1.164   0.683   0.822   0.757   0.740   0.679   0.839   0.679   0.740   0.757
   0.822   0.683   1.164   1.425   2.116   1.916   1.273   1.038   0.760   0.636
   0.805   0.630   0.887   0.738   0.735   0.738   0.887   0.630   0.805   0.636
   0.760   1.038   1.273   1.916   2.116   1.425   1.164   0.683   0.822   0.757
   0.740   0.679
 200       5.00   72    0 5.00   15    0
   1.976   1.976   1.976   1.976   1.976   1.976   1.976   1.976   1.976   1.976
   1.976   1.976   1.976   1.976   1.976   1.976   1.976   1.976   1.976   1.976
   1.976   1.976   1.976   1.976   1.976   1.976   1.976   1.976   1.976   1.976
   1.976   1.976   1.976   1.976   1.976   1.976   1.976   1.976   1.976   1.976
   1.976   1.976   1.976   1.976   1.976   1.976   1.976   1.976   1.976   1.976
   1.976   1.976   1.976   1.976   1.976   1.976   1.976   1.976   1.976   1.976
   1.976   1.976   1.976   1.976   1.976   1.976   1.976   1.976   1.976   1.976
   1.976   1.976
   2.161   2.048   2.026   1.909   2.218   1.787   1.684   1.600   1.709   1.714
   1.562   1.652   1.643   2.130   2.004   2.354   2.123   2.504   1.972   2.504
   2.123   2.354   2.004   2.130   1.643   1.652   1.562   1.714   1.709   1.600
   1.684   1.787   2.218   1.909   2.026   2.048   2.161   2.048   2.026   1.909
   2.218   1.787   1.684   1.600   1.709   1.714   1.562   1.652   1.643   2.130
   2.004   2.354   2.123   2.504   1.972   2.504   2.123   2.354   2.004   2.130
   1.643   1.652   1.562   1.714   1.709   1.600   1.684   1.787   2.218   1.909
   2.026   2.048
   1.647   1.521   1.442   1.547   1.339   1.349   1.546   1.451   1.468   1.525
   1.070   1.500   1.542   1.721   1.708   1.565   1.571   1.760   1.690   1.760
   1.571   1.565   1.708   1.721   1.542   1.500   1.070   1.525   1.468   1.451
   1.546   1.349   1.339   1.547   1.442   1.521   1.647   1.521   1.442   1.547
   1.339   1.349   1.546   1.451   1.468   1.525   1.070   1.500   1.542   1.721
   1.708   1.565   1.571   1.760   1.690   1.760   1.571   1.565   1.708   1.721
   1.542   1.500   1.070   1.525   1.468   1.451   1.546   1.349   1.339   1.547
   1.442   1.521
   1.564   1.351   1.451   1.467   1.478   1.439   1.433   1.222   0.984   0.979
   0.998   1.255   1.242   1.486   1.088   1.098   1.242   1.118   1.513   1.118
   1.242   1.098   1.088   1.486   1.242   1.255   0.998   0.979   0.984   1.222
   1.433   1.439   1.478   1.467   1.451   1.351   1.564   1.351   1.451   1.467
   1.478   1.439   1.433   1.222   0.984   0.979   0.998   1.255   1.242   1.486
   1.088   1.098   1.242   1.118   1.513   1.118   1.242   1.098   1.088   1.486
   1.242   1.255   0.998   0.979   0.984   1.222   1.433   1.439   1.478   1.467
   1.451   1.351
   1.910   2.021   2.000   2.032   2.005   1.754   1.541   1.284   1.136   1.229
   1.151   1.110   1.258   1.230   1.102   1.235   1.250   1.196   1.335   1.196
   1.250   1.235   1.102   1.230   1.258   1.110   1.151   1.229   1.136   1.284
   1.541   1.754   2.005   2.032   2.000   2.021   1.910   2.021   2.000   2.032
   2.005   1.754   1.541   1.284   1.136   1.229   1.151   1.110   1.258   1.230
   1.102   1.235   1.250   1.196   1.335   1.196   1.250   1.235   1.102   1.230
   1.258   1.110   1.151   1.229   1.136   1.284   1.541   1.754   2.005   2.032
   2.000   2.021
   2.690   3.037   2.912   2.723   2.628   2.168   1.784   1.483   1.439   1.343
   1.116   0.992   1.271   0.997   1.152   1.192   1.405   1.389   1.454   1.389
   1.405   1.192   1.152   0.997   1.271   0.992   1.116   1.343   1.439   1.483
   1.784   2.168   2.628   2.723   2.912   3.037   2.690   3.037   2.912   2.723
   2.628   2.168   1.784   1.483   1.439   1.343   1.116   0.992   1.271   0.997
   1.152   1.192   1.405   1.389   1.454   1.389   1.405   1.192   1.152   0.997
   1.271   0.992   1.116   1.343   1.439   1.483   1.784   2.168   2.628   2.723
   2.912   3.037
   2.536   2.832   2.762   2.434   2.445   2.050   1.646   1.296   1.428   1.163
   0.971   0.920   1.021   1.002   0.998   1.068   1.268   1.348   1.493   1.348
   1.268   1.068   0.998   1.002   1.021   0.920   0.971   1.163   1.428   1.296
   1.646   2.050   2.445   2.434   2.762   2.832   2.536   2.832   2.762   2.434
   2.445   2.050   1.646   1.296   1.428   1.163   0.971   0.920   1.021   1.002
   0.998   1.068   1.268   1.348   1.493   1.348   1.268   1.068   0.998   1.002
   1.021   0.920   0.971   1.163   1.428   1.296   1.646   2.050   2.445   2.434
   2.762   2.832
   1.139   1.518   1.365   1.328   1.274   1.239   1.089   0.851   1.006   0.858
   0.889   0.801   0.723   0.908   0.841   1.064   1.196   1.320   1.454   1.320
   1.196   1.064   0.841   0.908   0.723   0.801   0.889   0.858   1.006   0.851
   1.089   1.239   1.274   1.328   1.365   1.518   1.139   1.518   1.365   1.328
   1.274   1.239   1.089   0.851   1.006   0.858   0.889   0.801   0.723   0.908
   0.841   1.064   1.196   1.320   1.454   1.320   1.196   1.064   0.841   0.908
   0.723   0.801   0.889   0.858   1.006   0.851   1.089   1.239   1.274   1.328
   1.365   1.518
   0.352   0.565   0.421   0.561   0.557   0.513   0.493   0.453   0.468   0.491
   0.600   0.595   0.536   0.602   0.583   0.872   0.981   1.048   1.178   1.048
   0.981   0.872   0.583   0.602   0.536   0.595   0.600   0.491   0.468   0.453
   0.493   0.513   0.557   0.561   0.421   0.565   0.352   0.565   0.421   0.561
   0.557   0.513   0.493   0.453   0.468   0.491   0.600   0.595   0.536   0.602
   0.583   0.872   0.981   1.048   1.178   1.048   0.981   0.872   0.583   0.602
   0.536   0.595   0.600   0.491   0.468   0.453   0.493   0.513   0.557   0.561
   0.421   0.565
   0.135   0.177   0.232   0.293   0.302   0.282   0.271   0.291   0.341   0.364
   0.286   0.400   0.419   0.382   0.397   0.722   0.725   0.749   0.855   0.749
   0.725   0.722   0.397   0.382   0.419   0.400   0.286   0.364   0.341   0.291
   0.271   0.282   0.302   0.293   0.232   0.177   0.135   0.177   0.232   0.293
   0.302   0.282   0.271   0.291   0.341   0.364   0.286   0.400   0.419   0.382
   0.397   0.722   0.725   0.749   0.855   0.749   0.725   0.722   0.397   0.382
   0.419   0.400   0.286   0.364   0.341   0.291   0.271   0.282   0.302   0.293
   0.232   0.177
   0.160   0.174   0.217   0.349   0.145   0.318   0.262   0.255   0.428   0.332
   0.263   0.361   0.381   0.533   0.468   0.757   0.780   0.892   0.853   0.892
   0.780   0.757   0.468   0.533   0.381   0.361   0.263   0.332   0.428   0.255
   0.262   0.318   0.145   0.349   0.217   0.174   0.160   0.174   0.217   0.349
   0.145   0.318   0.262   0.255   0.428   0.332   0.263   0.361   0.381   0.533
   0.468   0.757   0.780   0.892   0.853   0.892   0.780   0.757   0.468   0.533
   0.381   0.361   0.263   0.332   0.428   0.255   0.262   0.318   0.145   0.349
   0.217   0.174
   0.181   0.220   0.280   0.387   0.202   0.419   0.276   0.298   0.470   0.538
   0.484   0.516   0.670   0.618   0.775   0.708   0.844   1.322   1.280   1.322
   0.844   0.708   0.775   0.618   0.670   0.516   0.484   0.538   0.470   0.298
   0.276   0.419   0.202   0.387   0.280   0.220   0.181   0.220   0.280   0.387
   0.202   0.419   0.276   0.298   0.470   0.538   0.484   0.516   0.670   0.618
   0.775   0.708   0.844   1.322   1.280   1.322   0.844   0.708   0.775   0.618
   0.670   0.516   0.484   0.538   0.470   0.298   0.276   0.419   0.202   0.387
   0.280   0.220
   0.179   0.205   0.341   0.578   0.437   0.467   0.364   0.447   0.494   0.812
   0.865   0.653   0.804   0.653   0.835   0.727   1.015   1.239   1.631   1.239
   1.015   0.727   0.835   0.653   0.804   0.653   0.865   0.812   0.494   0.447
   0.364   0.467   0.437   0.578   0.341   0.205   0.179   0.205   0.341   0.578
   0.437   0.467   0.364   0.447   0.494   0.812   0.865   0.653   0.804   0.653
   0.835   0.727   1.015   1.239   1.631   1.239   1.015   0.727   0.835   0.653
   0.804   0.653   0.865   0.812   0.494   0.447   0.364   0.467   0.437   0.578
   0.341   0.205
   0.283   0.369   0.377   0.737   0.544   0.498   0.543   0.543   0.776   0.865
   0.973   0.762   0.722   0.719   0.718   0.890   1.146   1.151   1.559   1.151
   1.146   0.890   0.718   0.719   0.722   0.762   0.973   0.865   0.776   0.543
   0.543   0.498   0.544   0.737   0.377   0.369   0.283   0.369   0.377   0.737
   0.544   0.498   0.543   0.543   0.776   0.865   0.973   0.762   0.722   0.719
   0.718   0.890   1.146   1.151   1.559   1.151   1.146   0.890   0.718   0.719
   0.722   0.762   0.973   0.865   0.776   0.543   0.543   0.498   0.544   0.737
   0.377   0.369
   0.484   0.813   0.525   0.696   0.707   0.485   0.892   0.870   0.999   0.985
   0.790   0.801   0.696   0.909   0.786   1.002   1.235   1.198   1.545   1.198
   1.235   1.002   0.786   0.909   0.696   0.801   0.790   0.985   0.999   0.870
   0.892   0.485   0.707   0.696   0.525   0.813   0.484   0.813   0.525   0.696
   0.707   0.485   0.892   0.870   0.999   0.985   0.790   0.801   0.696   0.909
   0.786   1.002   1.235   1.198   1.545   1.198   1.235   1.002   0.786   0.909
   0.696   0.801   0.790   0.985   0.999   0.870   0.892   0.485   0.707   0.696
   0.525   0.813
 111       5.00   72    0 5.00   15    0
   0.062   0.062   0.062   0.062   0.062   0.062   0.062   0.062   0.062   0.062
   0.062   0.062   0.062   0.062   0.062   0.062   0.062   0.062   0.062   0.062
   0.062   0.062   0.062   0.062   0.062   0.062   0.062   0.062   0.062   0.062
   0.062   0.062   0.062   0.062   0.062   0.062   0.062   0.062   0.062   0.062
   0.062   0.062   0.062   0.062   0.062   0.062   0.062   0.062   0.062   0.062
   0.062   0.062   0.062   0.062   0.062   0.062   0.062   0.062   0.062   0.062
   0.062   0.062   0.062   0.062   0.062   0.062   0.062   0.062   0.062   0.062
   0.062   0.062
   0.092   0.118   0.094   0.071   0.055   0.061   0.047   0.058   0.064   0.052
   0.036   0.077   0.059   0.024   0.033   0.021   0.036   0.036   0.017   0.036
   0.036   0.021   0.033   0.024   0.059   0.077   0.036   0.052   0.064   0.058
   0.047   0.061   0.055   0.071   0.094   0.118   0.092   0.118   0.094   0.071
   0.055   0.061   0.047   0.058   0.064   0.052   0.036   0.077   0.059   0.024
   0.033   0.021   0.036   0.036   0.017   0.036   0.036   0.021   0.033   0.024
   0.059   0.077   0.036   0.052   0.064   0.058   0.047   0.061   0.055   0.071
   0.094   0.118
   0.237   0.250   0.182   0.169   0.115   0.223   0.213   0.092   0.064   0.064
   0.025   0.124   0.065   0.036   0.051   0.033   0.041   0.025   0.015   0.025
   0.041   0.033   0.051   0.036   0.065   0.124   0.025   0.064   0.064   0.092
   0.213   0.223   0.115   0.169   0.182   0.250   0.237   0.250   0.182   0.169
   0.115   0.223   0.213   0.092   0.064   0.064   0.025   0.124   0.065   0.036
   0.051   0.033   0.041   0.025   0.015   0.025   0.041   0.033   0.051   0.036
   0.065   0.124   0.025   0.064   0.064   0.092   0.213   0.223   0.115   0.169
   0.182   0.250
   1.202   1.012   0.890   0.983   0.704   0.838   0.628   0.346   0.214   0.223
   0.137   0.138   0.077   0.055   0.057   0.037   0.083   0.033   0.036   0.033
   0.083   0.037   0.057   0.055   0.077   0.138   0.137   0.223   0.214   0.346
   0.628   0.838   0.704   0.983   0.890   1.012   1.202   1.012   0.890   0.983
   0.704   0.838   0.628   0.346   0.214   0.223   0.137   0.138   0.077   0.055
   0.057   0.037   0.083   0.033   0.036   0.033   0.083   0.037   0.057   0.055
   0.077   0.138   0.137   0.223   0.214   0.346   0.628   0.838   0.704   0.983
   0.890   1.012
   2.822   2.675   2.462   2.347   2.020   1.914   1.359   0.912   0.652   0.662
   0.432   0.215   0.204   0.147   0.099   0.073   0.090   0.106   0.061   0.106
   0.090   0.073   0.099   0.147   0.204   0.215   0.432   0.662   0.652   0.912
   1.359   1.914   2.020   2.347   2.462   2.675   2.822   2.675   2.462   2.347
   2.020   1.914   1.359   0.912   0.652   0.662   0.432   0.215   0.204   0.147
   0.099   0.073   0.090   0.106   0.061   0.106   0.090   0.073   0.099   0.147
   0.204   0.215   0.432   0.662   0.652   0.912   1.359   1.914   2.020   2.347
   2.462   2.675
   3.495   3.906   3.506   3.030   2.764   2.559   1.945   1.597   1.307   1.075
   0.736   0.435   0.424   0.286   0.186   0.124   0.136   0.212   0.215   0.212
   0.136   0.124   0.186   0.286   0.424   0.435   0.736   1.075   1.307   1.597
   1.945   2.559   2.764   3.030   3.506   3.906   3.495   3.906   3.506   3.030
   2.764   2.559   1.945   1.597   1.307   1.075   0.736   0.435   0.424   0.286
   0.186   0.124   0.136   0.212   0.215   0.212   0.136   0.124   0.186   0.286
   0.424   0.435   0.736   1.075   1.307   1.597   1.945   2.559   2.764   3.030
   3.506   3.906
   3.523   3.753   3.535   3.360   3.170   2.565   1.990   1.795   1.532   1.271
   1.004   0.840   0.649   0.473   0.290   0.290   0.321   0.307   0.326   0.307
   0.321   0.290   0.290   0.473   0.649   0.840   1.004   1.271   1.532   1.795
   1.990   2.565   3.170   3.360   3.535   3.753   3.523   3.753   3.535   3.360
   3.170   2.565   1.990   1.795   1.532   1.271   1.004   0.840   0.649   0.473
   0.290   0.290   0.321   0.307   0.326   0.307   0.321   0.290   0.290   0.473
   0.649   0.840   1.004   1.271   1.532   1.795   1.990   2.565   3.170   3.360
   3.535   3.753
   2.263   2.172   2.379   2.903   3.268   2.776   2.466   1.963   1.613   1.352
   1.008   0.999   0.712   0.645   0.436   0.555   0.515   0.483   0.288   0.483
   0.515   0.555   0.436   0.645   0.712   0.999   1.008   1.352   1.613   1.963
   2.466   2.776   3.268   2.903   2.379   2.172   2.263   2.172   2.379   2.903
   3.268   2.776   2.466   1.963   1.613   1.352   1.008   0.999   0.712   0.645
   0.436   0.555   0.515   0.483   0.288   0.483   0.515   0.555   0.436   0.645
   0.712   0.999   1.008   1.352   1.613   1.963   2.466   2.776   3.268   2.903
   2.379   2.172
   0.576   0.565   0.785   1.267   1.810   2.376   2.730   2.379   2.012   1.645
   1.164   1.069   0.813   0.787   0.615   0.695   0.599   0.587   0.431   0.587
   0.599   0.695   0.615   0.787   0.813   1.069   1.164   1.645   2.012   2.379
   2.730   2.376   1.810   1.267   0.785   0.565   0.576   0.565   0.785   1.267
   1.810   2.376   2.730   2.379   2.012   1.645   1.164   1.069   0.813   0.787
   0.615   0.695   0.599   0.587   0.431   0.587   0.599   0.695   0.615   0.787
   0.813   1.069   1.164   1.645   2.012   2.379   2.730   2.376   1.810   1.267
   0.785   0.565
   0.206   0.173   0.212   0.238   0.467   1.026   1.919   2.327   2.262   2.154
   1.674   1.297   1.172   0.974   0.983   0.847   0.744   0.698   0.667   0.698
   0.744   0.847   0.983   0.974   1.172   1.297   1.674   2.154   2.262   2.327
   1.919   1.026   0.467   0.238   0.212   0.173   0.206   0.173   0.212   0.238
   0.467   1.026   1.919   2.327   2.262   2.154   1.674   1.297   1.172   0.974
   0.983   0.847   0.744   0.698   0.667   0.698   0.744   0.847   0.983   0.974
   1.172   1.297   1.674   2.154   2.262   2.327   1.919   1.026   0.467   0.238
   0.212   0.173
   0.069   0.115   0.109   0.071   0.269   0.351   1.062   1.762   2.556   2.440
   2.025   1.602   1.476   1.282   1.238   0.950   1.058   0.868   0.847   0.868
   1.058   0.950   1.238   1.282   1.476   1.602   2.025   2.440   2.556   1.762
   1.062   0.351   0.269   0.071   0.109   0.115   0.069   0.115   0.109   0.071
   0.269   0.351   1.062   1.762   2.556   2.440   2.025   1.602   1.476   1.282
   1.238   0.950   1.058   0.868   0.847   0.868   1.058   0.950   1.238   1.282
   1.476   1.602   2.025   2.440   2.556   1.762   1.062   0.351   0.269   0.071
   0.109   0.115
   0.003   0.156   0.076   0.046   0.202   0.204   0.499   1.273   2.293   2.474
   1.942   1.983   1.605   1.332   1.120   1.027   1.201   0.934   1.203   0.934
   1.201   1.027   1.120   1.332   1.605   1.983   1.942   2.474   2.293   1.273
   0.499   0.204   0.202   0.046   0.076   0.156   0.003   0.156   0.076   0.046
   0.202   0.204   0.499   1.273   2.293   2.474   1.942   1.983   1.605   1.332
   1.120   1.027   1.201   0.934   1.203   0.934   1.201   1.027   1.120   1.332
   1.605   1.983   1.942   2.474   2.293   1.273   0.499   0.204   0.202   0.046
   0.076   0.156
   0.037   0.145   0.076   0.105   0.114   0.058   0.250   1.052   1.835   2.338
   1.760   1.769   1.539   1.277   1.027   1.102   1.183   0.936   1.308   0.936
   1.183   1.102   1.027   1.277   1.539   1.769   1.760   2.338   1.835   1.052
   0.250   0.058   0.114   0.105   0.076   0.145   0.037   0.145   0.076   0.105
   0.114   0.058   0.250   1.052   1.835   2.338   1.760   1.769   1.539   1.277
   1.027   1.102   1.183   0.936   1.308   0.936   1.183   1.102   1.027   1.277
   1.539   1.769   1.760   2.338   1.835   1.052   0.250   0.058   0.114   0.105
   0.076   0.145
   0.133   0.062   0.097   0.128   0.115   0.109   0.445   0.958   1.597   1.870
   1.409   1.223   1.239   1.139   1.060   0.950   1.139   0.958   1.248   0.958
   1.139   0.950   1.060   1.139   1.239   1.223   1.409   1.870   1.597   0.958
   0.445   0.109   0.115   0.128   0.097   0.062   0.133   0.062   0.097   0.128
   0.115   0.109   0.445   0.958   1.597   1.870   1.409   1.223   1.239   1.139
   1.060   0.950   1.139   0.958   1.248   0.958   1.139   0.950   1.060   1.139
   1.239   1.223   1.409   1.870   1.597   0.958   0.445   0.109   0.115   0.128
   0.097   0.062
   0.244   0.137   0.100   0.155   0.231   0.213   0.653   1.032   1.154   1.438
   1.139   0.908   1.084   0.859   0.951   0.889   0.960   0.983   1.212   0.983
   0.960   0.889   0.951   0.859   1.084   0.908   1.139   1.438   1.154   1.032
   0.653   0.213   0.231   0.155   0.100   0.137   0.244   0.137   0.100   0.155
   0.231   0.213   0.653   1.032   1.154   1.438   1.139   0.908   1.084   0.859
   0.951   0.889   0.960   0.983   1.212   0.983   0.960   0.889   0.951   0.859
   1.084   0.908   1.139   1.438   1.154   1.032   0.653   0.213   0.231   0.155
   0.100   0.137
  4  1      1.2469096E+00
  4  2     -3.7190380E-01
  4  3      1.1785515E+00
  6  1      1.4214890E+00
  6  2     -2.9072508E+00
  6  3      1.3108710E+00
  6  4     -1.8837201E-01
  8  1     -3.3023030E-01
  8  2     -2.1880508E-01
  8  3      1.2431848E+00
  8  4     -5.2606052E-01
  8  5      1.0738700E+00
 10  1     -1.4418207E-01
 10  2     -2.7255641E-01
 10  3      8.0595825E-01
 10  4     -4.9465635E-01
 10  5      8.2840219E-01
 10  6     -5.5527175E-02
 12  1      4.3440523E-01  1.4438723E+00
 12  2     -2.3855511E-01 -1.6099429E+00
 12  3      3.7728433E-01  1.3946460E+00
 12  4     -8.8529187E-02 -8.2610626E-01
 12  5      3.7136605E-01  7.7149104E-02
 12  6     -4.6032532E-01  2.8853146E-01
 12  7      4.1906639E-01  1.3041549E-02
 14  1     -3.1978647E-01
 14  2      8.7706052E-02
 14  3      3.4814403E-01
 14  4     -5.6866307E-01
 14  5      5.7261488E-01
 14  6     -2.1368777E-01
 14  7      4.6806824E-01
 14  8     -2.4031097E-02
 16  1      9.7828866E-02 -6.9473235E-02
 16  2     -3.8197283E-01  6.7606771E-02
 16  3      1.5584394E-01  4.7648057E-02
 16  4     -7.3904140E-02 -4.1695308E-01
 16  5      1.1619500E-01  2.7345606E-01
 16  6      6.5813030E-02 -2.3477684E-01
 16  7      8.8255335E-02  1.4079295E-01
 16  8     -3.2051374E-01  3.5286960E-01
 16  9      1.8151557E-01 -1.9695830E-01
 220       5.00   72    0 5.00   18    0
   1.851   1.853   1.856   1.861   1.868   1.876   1.886   1.897   1.909   1.921
   1.934   1.946   1.957   1.967   1.976   1.983   1.988   1.992   1.993   1.992
   1.988   1.983   1.976   1.967   1.957   1.946   1.934   1.921   1.909   1.897
   1.886   1.876   1.868   1.861   1.856   1.853   1.851   1.853   1.856   1.861
   1.868   1.876   1.886   1.897   1.909   1.921   1.934   1.946   1.957   1.967
   1.976   1.983   1.988   1.992   1.993   1.992   1.988   1.983   1.976   1.967
   1.957   1.946   1.934   1.921   1.909   1.897   1.886   1.876   1.868   1.861
   1.856   1.853
   1.082   1.089   1.110   1.143   1.190   1.248   1.317   1.396   1.482   1.574
   1.668   1.763   1.854   1.938   2.013   2.075   2.121   2.149   2.159   2.149
   2.121   2.075   2.013   1.938   1.854   1.763   1.668   1.574   1.482   1.396
   1.317   1.248   1.190   1.143   1.110   1.089   1.082   1.089   1.110   1.143
   1.190   1.248   1.317   1.396   1.482   1.574   1.668   1.763   1.854   1.938
   2.013   2.075   2.121   2.149   2.159   2.149   2.121   2.075   2.013   1.938
   1.854   1.763   1.668   1.574   1.482   1.396   1.317   1.248   1.190   1.143
   1.110   1.089
   0.218   0.227   0.254   0.300   0.365   0.452   0.560   0.691   0.845   1.018
   1.209   1.410   1.615   1.815   1.999   2.156   2.276   2.352   2.378   2.352
   2.276   2.156   1.999   1.815   1.615   1.410   1.209   1.018   0.845   0.691
   0.560   0.452   0.365   0.300   0.254   0.227   0.218   0.227   0.254   0.300
   0.365   0.452   0.560   0.691   0.845   1.018   1.209   1.410   1.615   1.815
   1.999   2.156   2.276   2.352   2.378   2.352   2.276   2.156   1.999   1.815
   1.615   1.410   1.209   1.018   0.845   0.691   0.560   0.452   0.365   0.300
   0.254   0.227
  -0.113  -0.110  -0.100  -0.082  -0.051  -0.002   0.069   0.171   0.309   0.489
   0.711   0.973   1.266   1.574   1.876   2.147   2.363   2.502   2.550   2.502
   2.363   2.147   1.876   1.574   1.266   0.973   0.711   0.489   0.309   0.171
   0.069  -0.002  -0.051  -0.082  -0.100  -0.110  -0.113  -0.110  -0.100  -0.082
  -0.051  -0.002   0.069   0.171   0.309   0.489   0.711   0.973   1.266   1.574
   1.876   2.147   2.363   2.502   2.550   2.502   2.363   2.147   1.876   1.574
   1.266   0.973   0.711   0.489   0.309   0.171   0.069  -0.002  -0.051  -0.082
  -0.100  -0.110
   0.091   0.087   0.078   0.064   0.048   0.034   0.030   0.047   0.099   0.201
   0.369   0.610   0.923   1.291   1.685   2.062   2.376   2.584   2.657   2.584
   2.376   2.062   1.685   1.291   0.923   0.610   0.369   0.201   0.099   0.047
   0.030   0.034   0.048   0.064   0.078   0.087   0.091   0.087   0.078   0.064
   0.048   0.034   0.030   0.047   0.099   0.201   0.369   0.610   0.923   1.291
   1.685   2.062   2.376   2.584   2.657   2.584   2.376   2.062   1.685   1.291
   0.923   0.610   0.369   0.201   0.099   0.047   0.030   0.034   0.048   0.064
   0.078   0.087
   0.383   0.381   0.375   0.363   0.344   0.315   0.277   0.236   0.206   0.212
   0.281   0.441   0.706   1.070   1.501   1.944   2.332   2.597   2.692   2.597
   2.332   1.944   1.501   1.070   0.706   0.441   0.281   0.212   0.206   0.236
   0.277   0.315   0.344   0.363   0.375   0.381   0.383   0.381   0.375   0.363
   0.344   0.315   0.277   0.236   0.206   0.212   0.281   0.441   0.706   1.070
   1.501   1.944   2.332   2.597   2.692   2.597   2.332   1.944   1.501   1.070
   0.706   0.441   0.281   0.212   0.206   0.236   0.277   0.315   0.344   0.363
   0.375   0.381
   0.459   0.461   0.468   0.481   0.497   0.507   0.500   0.471   0.423   0.378
   0.372   0.446   0.631   0.937   1.342   1.788   2.196   2.484   2.588   2.484
   2.196   1.788   1.342   0.937   0.631   0.446   0.372   0.378   0.423   0.471
   0.500   0.507   0.497   0.481   0.468   0.461   0.459   0.461   0.468   0.481
   0.497   0.507   0.500   0.471   0.423   0.378   0.372   0.446   0.631   0.937
   1.342   1.788   2.196   2.484   2.588   2.484   2.196   1.788   1.342   0.937
   0.631   0.446   0.372   0.378   0.423   0.471   0.500   0.507   0.497   0.481
   0.468   0.461
   0.442   0.439   0.437   0.447   0.473   0.512   0.544   0.552   0.529   0.490
   0.466   0.499   0.624   0.856   1.184   1.564   1.925   2.186   2.282   2.186
   1.925   1.564   1.184   0.856   0.624   0.499   0.466   0.490   0.529   0.552
   0.544   0.512   0.473   0.447   0.437   0.439   0.442   0.439   0.437   0.447
   0.473   0.512   0.544   0.552   0.529   0.490   0.466   0.499   0.624   0.856
   1.184   1.564   1.925   2.186   2.282   2.186   1.925   1.564   1.184   0.856
   0.624   0.499   0.466   0.490   0.529   0.552   0.544   0.512   0.473   0.447
   0.437   0.439
   0.667   0.647   0.598   0.549   0.523   0.522   0.529   0.524   0.498   0.469
   0.464   0.510   0.622   0.799   1.034   1.302   1.561   1.752   1.823   1.752
   1.561   1.302   1.034   0.799   0.622   0.510   0.464   0.469   0.498   0.524
   0.529   0.522   0.523   0.549   0.598   0.647   0.667   0.647   0.598   0.549
   0.523   0.522   0.529   0.524   0.498   0.469   0.464   0.510   0.622   0.799
   1.034   1.302   1.561   1.752   1.823   1.752   1.561   1.302   1.034   0.799
   0.622   0.510   0.464   0.469   0.498   0.524   0.529   0.522   0.523   0.549
   0.598   0.647
   1.311   1.266   1.151   1.011   0.890   0.798   0.715   0.620   0.516   0.438
   0.427   0.497   0.625   0.774   0.923   1.070   1.211   1.320   1.363   1.320
   1.211   1.070   0.923   0.774   0.625   0.497   0.427   0.438   0.516   0.620
   0.715   0.798   0.890   1.011   1.151   1.266   1.311   1.266   1.151   1.011
   0.890   0.798   0.715   0.620   0.516   0.438   0.427   0.497   0.625   0.774
   0.923   1.070   1.211   1.320   1.363   1.320   1.211   1.070   0.923   0.774
   0.625   0.497   0.427   0.438   0.516   0.620   0.715   0.798   0.890   1.011
   1.151   1.266
   2.199   2.130   1.954   1.737   1.540   1.377   1.213   1.012   0.781   0.582
   0.493   0.534   0.655   0.777   0.855   0.903   0.951   1.001   1.024   1.001
   0.951   0.903   0.855   0.777   0.655   0.534   0.493   0.582   0.781   1.012
   1.213   1.377   1.540   1.737   1.954   2.130   2.199   2.130   1.954   1.737
   1.540   1.377   1.213   1.012   0.781   0.582   0.493   0.534   0.655   0.777
   0.855   0.903   0.951   1.001   1.024   1.001   0.951   0.903   0.855   0.777
   0.655   0.534   0.493   0.582   0.781   1.012   1.213   1.377   1.540   1.737
   1.954   2.130
   2.857   2.774   2.561   2.311   2.105   1.959   1.816   1.596   1.281   0.949
   0.719   0.654   0.705   0.771   0.789   0.776   0.782   0.814   0.833   0.814
   0.782   0.776   0.789   0.771   0.705   0.654   0.719   0.949   1.281   1.596
   1.816   1.959   2.105   2.311   2.561   2.774   2.857   2.774   2.561   2.311
   2.105   1.959   1.816   1.596   1.281   0.949   0.719   0.654   0.705   0.771
   0.789   0.776   0.782   0.814   0.833   0.814   0.782   0.776   0.789   0.771
   0.705   0.654   0.719   0.949   1.281   1.596   1.816   1.959   2.105   2.311
   2.561   2.774
   2.799   2.714   2.505   2.280   2.144   2.120   2.129   2.037   1.771   1.386
   1.029   0.818   0.753   0.742   0.712   0.679   0.688   0.737   0.766   0.737
   0.688   0.679   0.712   0.742   0.753   0.818   1.029   1.386   1.771   2.037
   2.129   2.120   2.144   2.280   2.505   2.714   2.799   2.714   2.505   2.280
   2.144   2.120   2.129   2.037   1.771   1.386   1.029   0.818   0.753   0.742
   0.712   0.679   0.688   0.737   0.766   0.737   0.688   0.679   0.712   0.742
   0.753   0.818   1.029   1.386   1.771   2.037   2.129   2.120   2.144   2.280
   2.505   2.714
   1.931   1.864   1.705   1.564   1.547   1.690   1.913   2.055   1.979   1.679
   1.289   0.974   0.799   0.719   0.669   0.649   0.688   0.765   0.806   0.765
   0.688   0.649   0.669   0.719   0.799   0.974   1.289   1.679   1.979   2.055
   1.913   1.690   1.547   1.564   1.705   1.864   1.931   1.864   1.705   1.564
   1.547   1.690   1.913   2.055   1.979   1.679   1.289   0.974   0.799   0.719
   0.669   0.649   0.688   0.765   0.806   0.765   0.688   0.649   0.669   0.719
   0.799   0.974   1.289   1.679   1.979   2.055   1.913   1.690   1.547   1.564
   1.705   1.864
   0.752   0.717   0.643   0.608   0.695   0.943   1.308   1.657   1.824   1.725
   1.426   1.094   0.859   0.743   0.703   0.717   0.788   0.883   0.928   0.883
   0.788   0.717   0.703   0.743   0.859   1.094   1.426   1.725   1.824   1.657
   1.308   0.943   0.695   0.608   0.643   0.717   0.752   0.717   0.643   0.608
   0.695   0.943   1.308   1.657   1.824   1.725   1.426   1.094   0.859   0.743
   0.703   0.717   0.788   0.883   0.928   0.883   0.788   0.717   0.703   0.743
   0.859   1.094   1.426   1.725   1.824   1.657   1.308   0.943   0.695   0.608
   0.643   0.717
  -0.008  -0.010  -0.003   0.040   0.149   0.358   0.691   1.104   1.456   1.588
   1.457   1.182   0.936   0.810   0.793   0.845   0.937   1.031   1.072   1.031
   0.937   0.845   0.793   0.810   0.936   1.182   1.457   1.588   1.456   1.104
   0.691   0.358   0.149   0.040  -0.003  -0.010  -0.008  -0.010  -0.003   0.040
   0.149   0.358   0.691   1.104   1.456   1.588   1.457   1.182   0.936   0.810
   0.793   0.845   0.937   1.031   1.072   1.031   0.937   0.845   0.793   0.810
   0.936   1.182   1.457   1.588   1.456   1.104   0.691   0.358   0.149   0.040
  -0.003  -0.010
  -0.063  -0.043   0.012   0.077   0.123   0.176   0.334   0.669   1.098   1.407
   1.440   1.245   1.007   0.878   0.880   0.957   1.055   1.137   1.169   1.137
   1.055   0.957   0.880   0.878   1.007   1.245   1.440   1.407   1.098   0.669
   0.334   0.176   0.123   0.077   0.012  -0.043  -0.063  -0.043   0.012   0.077
   0.123   0.176   0.334   0.669   1.098   1.407   1.440   1.245   1.007   0.878
   0.880   0.957   1.055   1.137   1.169   1.137   1.055   0.957   0.880   0.878
   1.007   1.245   1.440   1.407   1.098   0.669   0.334   0.176   0.123   0.077
   0.012  -0.043
   0.186   0.215   0.286   0.341   0.315   0.226   0.224   0.459   0.895   1.293
   1.423   1.279   1.048   0.915   0.924   1.013   1.111   1.182   1.207   1.182
   1.111   1.013   0.924   0.915   1.048   1.279   1.423   1.293   0.895   0.459
   0.224   0.226   0.315   0.341   0.286   0.215   0.186   0.215   0.286   0.341
   0.315   0.226   0.224   0.459   0.895   1.293   1.423   1.279   1.048   0.915
   0.924   1.013   1.111   1.182   1.207   1.182   1.111   1.013   0.924   0.915
   1.048   1.279   1.423   1.293   0.895   0.459   0.224   0.226   0.315   0.341
   0.286   0.215
 200       5.00   72    0 5.00   18    0
   1.979   1.980   1.981   1.984   1.987   1.992   1.997   2.002   2.008   2.015
   2.021   2.027   2.033   2.038   2.042   2.046   2.048   2.050   2.051   2.050
   2.048   2.046   2.042   2.038   2.033   2.027   2.021   2.015   2.008   2.002
   1.997   1.992   1.987   1.984   1.981   1.980   1.979   1.980   1.981   1.984
   1.987   1.992   1.997   2.002   2.008   2.015   2.021   2.027   2.033   2.038
   2.042   2.046   2.048   2.050   2.051   2.050   2.048   2.046   2.042   2.038
   2.033   2.027   2.021   2.015   2.008   2.002   1.997   1.992   1.987   1.984
   1.981   1.980
   1.422   1.425   1.433   1.446   1.465   1.488   1.516   1.549   1.585   1.623
   1.664   1.704   1.744   1.781   1.813   1.841   1.861   1.874   1.878   1.874
   1.861   1.841   1.813   1.781   1.744   1.704   1.664   1.623   1.585   1.549
   1.516   1.488   1.465   1.446   1.433   1.425   1.422   1.425   1.433   1.446
   1.465   1.488   1.516   1.549   1.585   1.623   1.664   1.704   1.744   1.781
   1.813   1.841   1.861   1.874   1.878   1.874   1.861   1.841   1.813   1.781
   1.744   1.704   1.664   1.623   1.585   1.549   1.516   1.488   1.465   1.446
   1.433   1.425
   1.044   1.044   1.043   1.044   1.046   1.053   1.066   1.086   1.116   1.155
   1.204   1.260   1.322   1.385   1.445   1.499   1.541   1.567   1.577   1.567
   1.541   1.499   1.445   1.385   1.322   1.260   1.204   1.155   1.116   1.086
   1.066   1.053   1.046   1.044   1.043   1.044   1.044   1.044   1.043   1.044
   1.046   1.053   1.066   1.086   1.116   1.155   1.204   1.260   1.322   1.385
   1.445   1.499   1.541   1.567   1.577   1.567   1.541   1.499   1.445   1.385
   1.322   1.260   1.204   1.155   1.116   1.086   1.066   1.053   1.046   1.044
   1.043   1.044
   1.387   1.375   1.342   1.291   1.227   1.156   1.084   1.020   0.970   0.940
   0.932   0.949   0.988   1.045   1.111   1.177   1.234   1.272   1.285   1.272
   1.234   1.177   1.111   1.045   0.988   0.949   0.932   0.940   0.970   1.020
   1.084   1.156   1.227   1.291   1.342   1.375   1.387   1.375   1.342   1.291
   1.227   1.156   1.084   1.020   0.970   0.940   0.932   0.949   0.988   1.045
   1.111   1.177   1.234   1.272   1.285   1.272   1.234   1.177   1.111   1.045
   0.988   0.949   0.932   0.940   0.970   1.020   1.084   1.156   1.227   1.291
   1.342   1.375
   2.151   2.127   2.056   1.944   1.802   1.639   1.468   1.301   1.150   1.025
   0.934   0.884   0.875   0.904   0.960   1.029   1.095   1.142   1.159   1.142
   1.095   1.029   0.960   0.904   0.875   0.884   0.934   1.025   1.150   1.301
   1.468   1.639   1.802   1.944   2.056   2.127   2.151   2.127   2.056   1.944
   1.802   1.639   1.468   1.301   1.150   1.025   0.934   0.884   0.875   0.904
   0.960   1.029   1.095   1.142   1.159   1.142   1.095   1.029   0.960   0.904
   0.875   0.884   0.934   1.025   1.150   1.301   1.468   1.639   1.802   1.944
   2.056   2.127
   2.593   2.561   2.468   2.323   2.141   1.936   1.723   1.516   1.325   1.162
   1.035   0.952   0.916   0.927   0.975   1.045   1.117   1.171   1.191   1.171
   1.117   1.045   0.975   0.927   0.916   0.952   1.035   1.162   1.325   1.516
   1.723   1.936   2.141   2.323   2.468   2.561   2.593   2.561   2.468   2.323
   2.141   1.936   1.723   1.516   1.325   1.162   1.035   0.952   0.916   0.927
   0.975   1.045   1.117   1.171   1.191   1.171   1.117   1.045   0.975   0.927
   0.916   0.952   1.035   1.162   1.325   1.516   1.723   1.936   2.141   2.323
   2.468   2.561
   2.312   2.281   2.192   2.058   1.892   1.710   1.527   1.354   1.202   1.077
   0.985   0.930   0.912   0.932   0.982   1.052   1.125   1.179   1.199   1.179
   1.125   1.052   0.982   0.932   0.912   0.930   0.985   1.077   1.202   1.354
   1.527   1.710   1.892   2.058   2.192   2.281   2.312   2.281   2.192   2.058
   1.892   1.710   1.527   1.354   1.202   1.077   0.985   0.930   0.912   0.932
   0.982   1.052   1.125   1.179   1.199   1.179   1.125   1.052   0.982   0.932
   0.912   0.930   0.985   1.077   1.202   1.354   1.527   1.710   1.892   2.058
   2.192   2.281
   1.499   1.481   1.430   1.350   1.249   1.134   1.015   0.901   0.807   0.743
   0.713   0.716   0.746   0.794   0.857   0.929   0.999   1.052   1.071   1.052
   0.999   0.929   0.857   0.794   0.746   0.716   0.713   0.743   0.807   0.901
   1.015   1.134   1.249   1.350   1.430   1.481   1.499   1.481   1.430   1.350
   1.249   1.134   1.015   0.901   0.807   0.743   0.713   0.716   0.746   0.794
   0.857   0.929   0.999   1.052   1.071   1.052   0.999   0.929   0.857   0.794
   0.746   0.716   0.713   0.743   0.807   0.901   1.015   1.134   1.249   1.350
   1.430   1.481
   0.613   0.618   0.630   0.639   0.633   0.603   0.548   0.478   0.413   0.376
   0.383   0.431   0.505   0.589   0.675   0.762   0.846   0.910   0.935   0.910
   0.846   0.762   0.675   0.589   0.505   0.431   0.383   0.376   0.413   0.478
   0.548   0.603   0.633   0.639   0.630   0.618   0.613   0.618   0.630   0.639
   0.633   0.603   0.548   0.478   0.413   0.376   0.383   0.431   0.505   0.589
   0.675   0.762   0.846   0.910   0.935   0.910   0.846   0.762   0.675   0.589
   0.505   0.431   0.383   0.376   0.413   0.478   0.548   0.603   0.633   0.639
   0.630   0.618
   0.041   0.066   0.133   0.214   0.283   0.320   0.321   0.289   0.245   0.217
   0.230   0.290   0.384   0.491   0.603   0.726   0.853   0.956   0.997   0.956
   0.853   0.726   0.603   0.491   0.384   0.290   0.230   0.217   0.245   0.289
   0.321   0.320   0.283   0.214   0.133   0.066   0.041   0.066   0.133   0.214
   0.283   0.320   0.321   0.289   0.245   0.217   0.230   0.290   0.384   0.491
   0.603   0.726   0.853   0.956   0.997   0.956   0.853   0.726   0.603   0.491
   0.384   0.290   0.230   0.217   0.245   0.289   0.321   0.320   0.283   0.214
   0.133   0.066
  -0.052  -0.021   0.054   0.136   0.197   0.239   0.273   0.300   0.315   0.323
   0.343   0.392   0.470   0.569   0.691   0.847   1.029   1.186   1.249   1.186
   1.029   0.847   0.691   0.569   0.470   0.392   0.343   0.323   0.315   0.300
   0.273   0.239   0.197   0.136   0.054  -0.021  -0.052  -0.021   0.054   0.136
   0.197   0.239   0.273   0.300   0.315   0.323   0.343   0.392   0.470   0.569
   0.691   0.847   1.029   1.186   1.249   1.186   1.029   0.847   0.691   0.569
   0.470   0.392   0.343   0.323   0.315   0.300   0.273   0.239   0.197   0.136
   0.054  -0.021
   0.168   0.201   0.267   0.304   0.293   0.274   0.305   0.397   0.507   0.585
   0.622   0.645   0.678   0.734   0.830   0.988   1.198   1.392   1.472   1.392
   1.198   0.988   0.830   0.734   0.678   0.645   0.622   0.585   0.507   0.397
   0.305   0.274   0.293   0.304   0.267   0.201   0.168   0.201   0.267   0.304
   0.293   0.274   0.305   0.397   0.507   0.585   0.622   0.645   0.678   0.734
   0.830   0.988   1.198   1.392   1.472   1.392   1.198   0.988   0.830   0.734
   0.678   0.645   0.622   0.585   0.507   0.397   0.305   0.274   0.293   0.304
   0.267   0.201
   0.295   0.352   0.465   0.526   0.489   0.421   0.431   0.556   0.730   0.855
   0.895   0.881   0.863   0.868   0.919   1.045   1.244   1.442   1.527   1.442
   1.244   1.045   0.919   0.868   0.863   0.881   0.895   0.855   0.730   0.556
   0.431   0.421   0.489   0.526   0.465   0.352   0.295   0.352   0.465   0.526
   0.489   0.421   0.431   0.556   0.730   0.855   0.895   0.881   0.863   0.868
   0.919   1.045   1.244   1.442   1.527   1.442   1.244   1.045   0.919   0.868
   0.863   0.881   0.895   0.855   0.730   0.556   0.431   0.421   0.489   0.526
   0.465   0.352
   0.187   0.279   0.485   0.656   0.702   0.670   0.676   0.783   0.937   1.038
   1.043   0.993   0.946   0.928   0.955   1.059   1.248   1.448   1.535   1.448
   1.248   1.059   0.955   0.928   0.946   0.993   1.043   1.038   0.937   0.783
   0.676   0.670   0.702   0.656   0.485   0.279   0.187   0.279   0.485   0.656
   0.702   0.670   0.676   0.783   0.937   1.038   1.043   0.993   0.946   0.928
   0.955   1.059   1.248   1.448   1.535   1.448   1.248   1.059   0.955   0.928
   0.946   0.993   1.043   1.038   0.937   0.783   0.676   0.670   0.702   0.656
   0.485   0.279
   0.388   0.453   0.611   0.777   0.876   0.907   0.926   0.982   1.052   1.076
   1.034   0.966   0.920   0.912   0.958   1.097   1.339   1.593   1.703   1.593
   1.339   1.097   0.958   0.912   0.920   0.966   1.034   1.076   1.052   0.982
   0.926   0.907   0.876   0.777   0.611   0.453   0.388   0.453   0.611   0.777
   0.876   0.907   0.926   0.982   1.052   1.076   1.034   0.966   0.920   0.912
   0.958   1.097   1.339   1.593   1.703   1.593   1.339   1.097   0.958   0.912
   0.920   0.966   1.034   1.076   1.052   0.982   0.926   0.907   0.876   0.777
   0.611   0.453
   1.667   1.565   1.334   1.124   1.017   0.992   0.993   0.994   0.984   0.951
   0.895   0.838   0.803   0.808   0.894   1.127   1.509   1.896   2.061   1.896
   1.509   1.127   0.894   0.808   0.803   0.838   0.895   0.951   0.984   0.994
   0.993   0.992   1.017   1.124   1.334   1.565   1.667   1.565   1.334   1.124
   1.017   0.992   0.993   0.994   0.984   0.951   0.895   0.838   0.803   0.808
   0.894   1.127   1.509   1.896   2.061   1.896   1.509   1.127   0.894   0.808
   0.803   0.838   0.895   0.951   0.984   0.994   0.993   0.992   1.017   1.124
   1.334   1.565
   3.898   3.524   2.638   1.730   1.149   0.909   0.838   0.798   0.756   0.723
   0.700   0.674   0.641   0.634   0.747   1.090   1.651   2.208   2.445   2.208
   1.651   1.090   0.747   0.634   0.641   0.674   0.700   0.723   0.756   0.798
   0.838   0.909   1.149   1.730   2.638   3.524   3.898   3.524   2.638   1.730
   1.149   0.909   0.838   0.798   0.756   0.723   0.700   0.674   0.641   0.634
   0.747   1.090   1.651   2.208   2.445   2.208   1.651   1.090   0.747   0.634
   0.641   0.674   0.700   0.723   0.756   0.798   0.838   0.909   1.149   1.730
   2.638   3.524
   5.723   5.135   3.724   2.241   1.243   0.795   0.651   0.589   0.548   0.541
   0.558   0.558   0.518   0.490   0.611   1.026   1.712   2.390   2.677   2.390
   1.712   1.026   0.611   0.490   0.518   0.558   0.558   0.541   0.548   0.589
   0.651   0.795   1.243   2.241   3.724   5.135   5.723   5.135   3.724   2.241
   1.243   0.795   0.651   0.589   0.548   0.541   0.558   0.558   0.518   0.490
   0.611   1.026   1.712   2.390   2.677   2.390   1.712   1.026   0.611   0.490
   0.518   0.558   0.558   0.541   0.548   0.589   0.651   0.795   1.243   2.241
   3.724   5.135
 111       5.00   72    0 5.00   18    0
   0.001   0.001   0.002   0.003   0.005   0.008   0.011   0.014   0.018   0.021
   0.025   0.029   0.032   0.035   0.038   0.040   0.041   0.042   0.043   0.042
   0.041   0.040   0.038   0.035   0.032   0.029   0.025   0.021   0.018   0.014
   0.011   0.008   0.005   0.003   0.002   0.001   0.001   0.001   0.002   0.003
   0.005   0.008   0.011   0.014   0.018   0.021   0.025   0.029   0.032   0.035
   0.038   0.040   0.041   0.042   0.043   0.042   0.041   0.040   0.038   0.035
   0.032   0.029   0.025   0.021   0.018   0.014   0.011   0.008   0.005   0.003
   0.002   0.001
  -0.249  -0.248  -0.244  -0.238  -0.230  -0.219  -0.205  -0.188  -0.169  -0.149
  -0.127  -0.105  -0.083  -0.063  -0.045  -0.030  -0.019  -0.012  -0.010  -0.012
  -0.019  -0.030  -0.045  -0.063  -0.083  -0.105  -0.127  -0.149  -0.169  -0.188
  -0.205  -0.219  -0.230  -0.238  -0.244  -0.248  -0.249  -0.248  -0.244  -0.238
  -0.230  -0.219  -0.205  -0.188  -0.169  -0.149  -0.127  -0.105  -0.083  -0.063
  -0.045  -0.030  -0.019  -0.012  -0.010  -0.012  -0.019  -0.030  -0.045  -0.063
  -0.083  -0.105  -0.127  -0.149  -0.169  -0.188  -0.205  -0.219  -0.230  -0.238
  -0.244  -0.248
  -0.139  -0.143  -0.156  -0.175  -0.197  -0.218  -0.234  -0.243  -0.243  -0.234
  -0.217  -0.193  -0.167  -0.140  -0.115  -0.095  -0.080  -0.071  -0.067  -0.071
  -0.080  -0.095  -0.115  -0.140  -0.167  -0.193  -0.217  -0.234  -0.243  -0.243
  -0.234  -0.218  -0.197  -0.175  -0.156  -0.143  -0.139  -0.143  -0.156  -0.175
  -0.197  -0.218  -0.234  -0.243  -0.243  -0.234  -0.217  -0.193  -0.167  -0.140
  -0.115  -0.095  -0.080  -0.071  -0.067  -0.071  -0.080  -0.095  -0.115  -0.140
  -0.167  -0.193  -0.217  -0.234  -0.243  -0.243  -0.234  -0.218  -0.197  -0.175
  -0.156  -0.143
   0.828   0.805   0.736   0.632   0.503   0.366   0.234   0.119   0.031  -0.029
  -0.061  -0.074  -0.074  -0.070  -0.068  -0.070  -0.074  -0.079  -0.081  -0.079
  -0.074  -0.070  -0.068  -0.070  -0.074  -0.074  -0.061  -0.029   0.031   0.119
   0.234   0.366   0.503   0.632   0.736   0.805   0.828   0.805   0.736   0.632
   0.503   0.366   0.234   0.119   0.031  -0.029  -0.061  -0.074  -0.074  -0.070
  -0.068  -0.070  -0.074  -0.079  -0.081  -0.079  -0.074  -0.070  -0.068  -0.070
  -0.074  -0.074  -0.061  -0.029   0.031   0.119   0.234   0.366   0.503   0.632
   0.736   0.805
   2.357   2.308   2.169   1.951   1.677   1.373   1.069   0.794   0.567   0.399
   0.289   0.225   0.186   0.154   0.116   0.069   0.020  -0.018  -0.032  -0.018
   0.020   0.069   0.116   0.154   0.186   0.225   0.289   0.399   0.567   0.794
   1.069   1.373   1.677   1.951   2.169   2.308   2.357   2.308   2.169   1.951
   1.677   1.373   1.069   0.794   0.567   0.399   0.289   0.225   0.186   0.154
   0.116   0.069   0.020  -0.018  -0.032  -0.018   0.020   0.069   0.116   0.154
   0.186   0.225   0.289   0.399   0.567   0.794   1.069   1.373   1.677   1.951
   2.169   2.308
   3.470   3.419   3.266   3.017   2.687   2.297   1.877   1.468   1.107   0.824
   0.632   0.519   0.459   0.413   0.353   0.270   0.178   0.104   0.076   0.104
   0.178   0.270   0.353   0.413   0.459   0.519   0.632   0.824   1.107   1.468
   1.877   2.297   2.687   3.017   3.266   3.419   3.470   3.419   3.266   3.017
   2.687   2.297   1.877   1.468   1.107   0.824   0.632   0.519   0.459   0.413
   0.353   0.270   0.178   0.104   0.076   0.104   0.178   0.270   0.353   0.413
   0.459   0.519   0.632   0.824   1.107   1.468   1.877   2.297   2.687   3.017
   3.266   3.419
   3.360   3.346   3.295   3.189   3.007   2.734   2.374   1.955   1.526   1.145
   0.861   0.691   0.616   0.586   0.546   0.468   0.362   0.268   0.231   0.268
   0.362   0.468   0.546   0.586   0.616   0.691   0.861   1.145   1.526   1.955
   2.374   2.734   3.007   3.189   3.295   3.346   3.360   3.346   3.295   3.189
   3.007   2.734   2.374   1.955   1.526   1.145   0.861   0.691   0.616   0.586
   0.546   0.468   0.362   0.268   0.231   0.268   0.362   0.468   0.546   0.586
   0.616   0.691   0.861   1.145   1.526   1.955   2.374   2.734   3.007   3.189
   3.295   3.346
   2.134   2.178   2.295   2.443   2.563   2.597   2.497   2.248   1.877   1.456
   1.082   0.827   0.711   0.689   0.685   0.640   0.548   0.454   0.414   0.454
   0.548   0.640   0.685   0.689   0.711   0.827   1.082   1.456   1.877   2.248
   2.497   2.597   2.563   2.443   2.295   2.178   2.134   2.178   2.295   2.443
   2.563   2.597   2.497   2.248   1.877   1.456   1.082   0.827   0.711   0.689
   0.685   0.640   0.548   0.454   0.414   0.454   0.548   0.640   0.685   0.689
   0.711   0.827   1.082   1.456   1.877   2.248   2.497   2.597   2.563   2.443
   2.295   2.178
   0.701   0.778   0.994   1.309   1.672   2.018   2.267   2.339   2.189   1.853
   1.445   1.100   0.904   0.845   0.841   0.812   0.732   0.642   0.602   0.642
   0.732   0.812   0.841   0.845   0.904   1.100   1.445   1.853   2.189   2.339
   2.267   2.018   1.672   1.309   0.994   0.778   0.701   0.778   0.994   1.309
   1.672   2.018   2.267   2.339   2.189   1.853   1.445   1.100   0.904   0.845
   0.841   0.812   0.732   0.642   0.602   0.642   0.732   0.812   0.841   0.845
   0.904   1.100   1.445   1.853   2.189   2.339   2.267   2.018   1.672   1.309
   0.994   0.778
  -0.069  -0.011   0.152   0.409   0.767   1.229   1.741   2.169   2.359   2.244
   1.905   1.520   1.240   1.104   1.051   0.998   0.914   0.827   0.790   0.827
   0.914   0.998   1.051   1.104   1.240   1.520   1.905   2.244   2.359   2.169
   1.741   1.229   0.767   0.409   0.152  -0.011  -0.069  -0.011   0.152   0.409
   0.767   1.229   1.741   2.169   2.359   2.244   1.905   1.520   1.240   1.104
   1.051   0.998   0.914   0.827   0.790   0.827   0.914   0.998   1.051   1.104
   1.240   1.520   1.905   2.244   2.359   2.169   1.741   1.229   0.767   0.409
   0.152  -0.011
  -0.061  -0.045  -0.013   0.034   0.170   0.511   1.093   1.769   2.275   2.421
   2.221   1.866   1.551   1.356   1.246   1.159   1.077   1.014   0.990   1.014
   1.077   1.159   1.246   1.356   1.551   1.866   2.221   2.421   2.275   1.769
   1.093   0.511   0.170   0.034  -0.013  -0.045  -0.061  -0.045  -0.013   0.034
   0.170   0.511   1.093   1.769   2.275   2.421   2.221   1.866   1.551   1.356
   1.246   1.159   1.077   1.014   0.990   1.014   1.077   1.159   1.246   1.356
   1.551   1.866   2.221   2.421   2.275   1.769   1.093   0.511   0.170   0.034
  -0.013  -0.045
   0.180   0.184   0.153   0.046  -0.046   0.090   0.589   1.332   1.992   2.288
   2.195   1.906   1.630   1.443   1.318   1.227   1.179   1.174   1.180   1.174
   1.179   1.227   1.318   1.443   1.630   1.906   2.195   2.288   1.992   1.332
   0.589   0.090  -0.046   0.046   0.153   0.184   0.180   0.184   0.153   0.046
  -0.046   0.090   0.589   1.332   1.992   2.288   2.195   1.906   1.630   1.443
   1.318   1.227   1.179   1.174   1.180   1.174   1.179   1.227   1.318   1.443
   1.630   1.906   2.195   2.288   1.992   1.332   0.589   0.090  -0.046   0.046
   0.153   0.184
   0.159   0.190   0.213   0.120  -0.032  -0.008   0.383   1.056   1.680   1.960
   1.879   1.647   1.457   1.340   1.242   1.166   1.167   1.232   1.272   1.232
   1.167   1.166   1.242   1.340   1.457   1.647   1.879   1.960   1.680   1.056
   0.383  -0.008  -0.032   0.120   0.213   0.190   0.159   0.190   0.213   0.120
  -0.032  -0.008   0.383   1.056   1.680   1.960   1.879   1.647   1.457   1.340
   1.242   1.166   1.167   1.232   1.272   1.232   1.167   1.166   1.242   1.340
   1.457   1.647   1.879   1.960   1.680   1.056   0.383  -0.008  -0.032   0.120
   0.213   0.190
  -0.066  -0.008   0.091   0.107   0.046   0.093   0.422   0.973   1.461   1.634
   1.511   1.314   1.209   1.163   1.087   1.006   1.018   1.119   1.181   1.119
   1.018   1.006   1.087   1.163   1.209   1.314   1.511   1.634   1.461   0.973
   0.422   0.093   0.046   0.107   0.091  -0.008  -0.066  -0.008   0.091   0.107
   0.046   0.093   0.422   0.973   1.461   1.634   1.511   1.314   1.209   1.163
   1.087   1.006   1.018   1.119   1.181   1.119   1.018   1.006   1.087   1.163
   1.209   1.314   1.511   1.634   1.461   0.973   0.422   0.093   0.046   0.107
   0.091  -0.008
  -0.031   0.009   0.096   0.173   0.225   0.330   0.590   0.983   1.318   1.409
   1.273   1.107   1.043   1.020   0.929   0.806   0.778   0.861   0.919   0.861
   0.778   0.806   0.929   1.020   1.043   1.107   1.273   1.409   1.318   0.983
   0.590   0.330   0.225   0.173   0.096   0.009  -0.031   0.009   0.096   0.173
   0.225   0.330   0.590   0.983   1.318   1.409   1.273   1.107   1.043   1.020
   0.929   0.806   0.778   0.861   0.919   0.861   0.778   0.806   0.929   1.020
   1.043   1.107   1.273   1.409   1.318   0.983   0.590   0.330   0.225   0.173
   0.096   0.009
   0.565   0.544   0.527   0.576   0.669   0.754   0.848   1.006   1.184   1.255
   1.170   1.036   0.959   0.905   0.781   0.617   0.539   0.577   0.616   0.577
   0.539   0.617   0.781   0.905   0.959   1.036   1.170   1.255   1.184   1.006
   0.848   0.754   0.669   0.576   0.527   0.544   0.565   0.544   0.527   0.576
   0.669   0.754   0.848   1.006   1.184   1.255   1.170   1.036   0.959   0.905
   0.781   0.617   0.539   0.577   0.616   0.577   0.539   0.617   0.781   0.905
   0.959   1.036   1.170   1.255   1.184   1.006   0.848   0.754   0.669   0.576
   0.527   0.544
   1.504   1.420   1.284   1.272   1.346   1.325   1.165   1.030   1.044   1.124
   1.117   1.009   0.889   0.781   0.637   0.471   0.374   0.378   0.400   0.378
   0.374   0.471   0.637   0.781   0.889   1.009   1.117   1.124   1.044   1.030
   1.165   1.325   1.346   1.272   1.284   1.420   1.504   1.420   1.284   1.272
   1.346   1.325   1.165   1.030   1.044   1.124   1.117   1.009   0.889   0.781
   0.637   0.471   0.374   0.378   0.400   0.378   0.374   0.471   0.637   0.781
   0.889   1.009   1.117   1.124   1.044   1.030   1.165   1.325   1.346   1.272
   1.284   1.420
   2.211   2.090   1.886   1.835   1.883   1.764   1.404   1.051   0.947   1.034
   1.081   0.985   0.827   0.683   0.538   0.390   0.300   0.292   0.306   0.292
   0.300   0.390   0.538   0.683   0.827   0.985   1.081   1.034   0.947   1.051
   1.404   1.764   1.883   1.835   1.886   2.090   2.211   2.090   1.886   1.835
   1.883   1.764   1.404   1.051   0.947   1.034   1.081   0.985   0.827   0.683
   0.538   0.390   0.300   0.292   0.306   0.292   0.300   0.390   0.538   0.683
   0.827   0.985   1.081   1.034   0.947   1.051   1.404   1.764   1.883   1.835
   1.886   2.090
TEXTURE_INDEX=   2.9449
ERR_CF 220         1080     486   23.73   18.82
ERR_CF 200         1080     562   17.66   12.70
ERR_CF 111         1078     402   77.88    9.23
