TEXEVAL                                                                         
Analysis started on 30-Jul-18 09:00:18                                          
 LMAX=16LFMAX=03 CUBIC ORTHO   
 220      5.00 5.00
 200      5.00 5.00
 111      5.00 5.00
 220       5.00   72    0 5.00   15    0
   2.786   2.786   2.786   2.786   2.786   2.786   2.786   2.786   2.786   2.786
   2.786   2.786   2.786   2.786   2.786   2.786   2.786   2.786   2.786   2.786
   2.786   2.786   2.786   2.786   2.786   2.786   2.786   2.786   2.786   2.786
   2.786   2.786   2.786   2.786   2.786   2.786   2.786   2.786   2.786   2.786
   2.786   2.786   2.786   2.786   2.786   2.786   2.786   2.786   2.786   2.786
   2.786   2.786   2.786   2.786   2.786   2.786   2.786   2.786   2.786   2.786
   2.786   2.786   2.786   2.786   2.786   2.786   2.786   2.786   2.786   2.786
   2.786   2.786
   1.269   1.394   1.427   1.453   1.502   2.005   1.708   1.563   1.776   1.770
   1.924   2.322   2.700   2.814   2.789   3.085   2.996   3.003   3.553   3.003
   2.996   3.085   2.789   2.814   2.700   2.322   1.924   1.770   1.776   1.563
   1.708   2.005   1.502   1.453   1.427   1.394   1.269   1.394   1.427   1.453
   1.502   2.005   1.708   1.563   1.776   1.770   1.924   2.322   2.700   2.814
   2.789   3.085   2.996   3.003   3.553   3.003   2.996   3.085   2.789   2.814
   2.700   2.322   1.924   1.770   1.776   1.563   1.708   2.005   1.502   1.453
   1.427   1.394
   0.672   0.657   0.614   0.618   0.713   0.819   0.759   1.096   1.262   1.143
   1.423   1.737   1.928   1.944   2.505   3.148   2.888   3.209   3.661   3.209
   2.888   3.148   2.505   1.944   1.928   1.737   1.423   1.143   1.262   1.096
   0.759   0.819   0.713   0.618   0.614   0.657   0.672   0.657   0.614   0.618
   0.713   0.819   0.759   1.096   1.262   1.143   1.423   1.737   1.928   1.944
   2.505   3.148   2.888   3.209   3.661   3.209   2.888   3.148   2.505   1.944
   1.928   1.737   1.423   1.143   1.262   1.096   0.759   0.819   0.713   0.618
   0.614   0.657
   0.387   0.471   0.450   0.417   0.465   0.439   0.526   0.700   0.787   0.910
   1.220   1.320   1.605   1.927   2.193   2.933   3.106   3.355   3.678   3.355
   3.106   2.933   2.193   1.927   1.605   1.320   1.220   0.910   0.787   0.700
   0.526   0.439   0.465   0.417   0.450   0.471   0.387   0.471   0.450   0.417
   0.465   0.439   0.526   0.700   0.787   0.910   1.220   1.320   1.605   1.927
   2.193   2.933   3.106   3.355   3.678   3.355   3.106   2.933   2.193   1.927
   1.605   1.320   1.220   0.910   0.787   0.700   0.526   0.439   0.465   0.417
   0.450   0.471
   0.329   0.295   0.368   0.405   0.363   0.422   0.409   0.597   0.586   0.665
   0.843   1.099   1.409   1.723   1.967   2.752   3.025   3.454   3.226   3.454
   3.025   2.752   1.967   1.723   1.409   1.099   0.843   0.665   0.586   0.597
   0.409   0.422   0.363   0.405   0.368   0.295   0.329   0.295   0.368   0.405
   0.363   0.422   0.409   0.597   0.586   0.665   0.843   1.099   1.409   1.723
   1.967   2.752   3.025   3.454   3.226   3.454   3.025   2.752   1.967   1.723
   1.409   1.099   0.843   0.665   0.586   0.597   0.409   0.422   0.363   0.405
   0.368   0.295
   0.312   0.305   0.333   0.329   0.350   0.389   0.319   0.641   0.576   0.781
   0.756   0.993   1.026   1.312   1.744   2.390   2.797   3.349   3.268   3.349
   2.797   2.390   1.744   1.312   1.026   0.993   0.756   0.781   0.576   0.641
   0.319   0.389   0.350   0.329   0.333   0.305   0.312   0.305   0.333   0.329
   0.350   0.389   0.319   0.641   0.576   0.781   0.756   0.993   1.026   1.312
   1.744   2.390   2.797   3.349   3.268   3.349   2.797   2.390   1.744   1.312
   1.026   0.993   0.756   0.781   0.576   0.641   0.319   0.389   0.350   0.329
   0.333   0.305
   0.422   0.454   0.358   0.386   0.464   0.476   0.409   0.650   0.483   0.684
   0.690   0.900   0.895   1.211   1.552   1.860   2.452   2.976   3.269   2.976
   2.452   1.860   1.552   1.211   0.895   0.900   0.690   0.684   0.483   0.650
   0.409   0.476   0.464   0.386   0.358   0.454   0.422   0.454   0.358   0.386
   0.464   0.476   0.409   0.650   0.483   0.684   0.690   0.900   0.895   1.211
   1.552   1.860   2.452   2.976   3.269   2.976   2.452   1.860   1.552   1.211
   0.895   0.900   0.690   0.684   0.483   0.650   0.409   0.476   0.464   0.386
   0.358   0.454
   0.830   0.756   0.685   0.676   0.684   0.528   0.669   0.628   0.408   0.500
   0.529   0.773   0.711   1.177   1.478   1.776   1.973   2.362   2.714   2.362
   1.973   1.776   1.478   1.177   0.711   0.773   0.529   0.500   0.408   0.628
   0.669   0.528   0.684   0.676   0.685   0.756   0.830   0.756   0.685   0.676
   0.684   0.528   0.669   0.628   0.408   0.500   0.529   0.773   0.711   1.177
   1.478   1.776   1.973   2.362   2.714   2.362   1.973   1.776   1.478   1.177
   0.711   0.773   0.529   0.500   0.408   0.628   0.669   0.528   0.684   0.676
   0.685   0.756
   1.145   1.106   1.035   1.089   1.059   0.890   0.746   0.639   0.593   0.665
   0.550   0.554   0.755   0.968   1.303   1.545   1.659   1.888   1.864   1.888
   1.659   1.545   1.303   0.968   0.755   0.554   0.550   0.665   0.593   0.639
   0.746   0.890   1.059   1.089   1.035   1.106   1.145   1.106   1.035   1.089
   1.059   0.890   0.746   0.639   0.593   0.665   0.550   0.554   0.755   0.968
   1.303   1.545   1.659   1.888   1.864   1.888   1.659   1.545   1.303   0.968
   0.755   0.554   0.550   0.665   0.593   0.639   0.746   0.890   1.059   1.089
   1.035   1.106
   1.437   1.608   1.240   1.327   1.258   1.246   0.813   0.754   0.853   0.682
   0.439   0.550   0.804   0.913   1.091   1.078   1.138   1.435   1.257   1.435
   1.138   1.078   1.091   0.913   0.804   0.550   0.439   0.682   0.853   0.754
   0.813   1.246   1.258   1.327   1.240   1.608   1.437   1.608   1.240   1.327
   1.258   1.246   0.813   0.754   0.853   0.682   0.439   0.550   0.804   0.913
   1.091   1.078   1.138   1.435   1.257   1.435   1.138   1.078   1.091   0.913
   0.804   0.550   0.439   0.682   0.853   0.754   0.813   1.246   1.258   1.327
   1.240   1.608
   2.123   2.110   1.668   1.466   1.483   1.220   1.204   0.867   0.907   0.594
   0.602   0.609   0.717   0.905   0.886   1.003   0.886   1.036   0.935   1.036
   0.886   1.003   0.886   0.905   0.717   0.609   0.602   0.594   0.907   0.867
   1.204   1.220   1.483   1.466   1.668   2.110   2.123   2.110   1.668   1.466
   1.483   1.220   1.204   0.867   0.907   0.594   0.602   0.609   0.717   0.905
   0.886   1.003   0.886   1.036   0.935   1.036   0.886   1.003   0.886   0.905
   0.717   0.609   0.602   0.594   0.907   0.867   1.204   1.220   1.483   1.466
   1.668   2.110
   2.762   2.628   2.289   1.803   1.952   1.617   1.439   1.436   0.920   0.838
   0.682   0.506   0.713   0.583   0.734   0.828   0.686   0.760   0.694   0.760
   0.686   0.828   0.734   0.583   0.713   0.506   0.682   0.838   0.920   1.436
   1.439   1.617   1.952   1.803   2.289   2.628   2.762   2.628   2.289   1.803
   1.952   1.617   1.439   1.436   0.920   0.838   0.682   0.506   0.713   0.583
   0.734   0.828   0.686   0.760   0.694   0.760   0.686   0.828   0.734   0.583
   0.713   0.506   0.682   0.838   0.920   1.436   1.439   1.617   1.952   1.803
   2.289   2.628
   2.278   2.374   2.304   1.768   1.818   1.746   1.691   1.907   1.211   0.991
   0.683   0.629   0.708   0.472   0.531   0.686   0.435   0.697   0.556   0.697
   0.435   0.686   0.531   0.472   0.708   0.629   0.683   0.991   1.211   1.907
   1.691   1.746   1.818   1.768   2.304   2.374   2.278   2.374   2.304   1.768
   1.818   1.746   1.691   1.907   1.211   0.991   0.683   0.629   0.708   0.472
   0.531   0.686   0.435   0.697   0.556   0.697   0.435   0.686   0.531   0.472
   0.708   0.629   0.683   0.991   1.211   1.907   1.691   1.746   1.818   1.768
   2.304   2.374
   1.150   1.573   1.428   1.277   1.166   1.231   1.463   1.432   1.460   1.097
   0.875   0.753   0.795   0.671   0.452   0.678   0.378   0.632   0.561   0.632
   0.378   0.678   0.452   0.671   0.795   0.753   0.875   1.097   1.460   1.432
   1.463   1.231   1.166   1.277   1.428   1.573   1.150   1.573   1.428   1.277
   1.166   1.231   1.463   1.432   1.460   1.097   0.875   0.753   0.795   0.671
   0.452   0.678   0.378   0.632   0.561   0.632   0.378   0.678   0.452   0.671
   0.795   0.753   0.875   1.097   1.460   1.432   1.463   1.231   1.166   1.277
   1.428   1.573
   0.528   0.820   0.766   0.696   0.734   0.785   0.924   0.903   1.279   1.344
   0.991   0.721   0.768   0.606   0.709   0.668   0.371   0.702   0.637   0.702
   0.371   0.668   0.709   0.606   0.768   0.721   0.991   1.344   1.279   0.903
   0.924   0.785   0.734   0.696   0.766   0.820   0.528   0.820   0.766   0.696
   0.734   0.785   0.924   0.903   1.279   1.344   0.991   0.721   0.768   0.606
   0.709   0.668   0.371   0.702   0.637   0.702   0.371   0.668   0.709   0.606
   0.768   0.721   0.991   1.344   1.279   0.903   0.924   0.785   0.734   0.696
   0.766   0.820
 200       5.00   72    0 5.00   15    0
   1.814   1.814   1.814   1.814   1.814   1.814   1.814   1.814   1.814   1.814
   1.814   1.814   1.814   1.814   1.814   1.814   1.814   1.814   1.814   1.814
   1.814   1.814   1.814   1.814   1.814   1.814   1.814   1.814   1.814   1.814
   1.814   1.814   1.814   1.814   1.814   1.814   1.814   1.814   1.814   1.814
   1.814   1.814   1.814   1.814   1.814   1.814   1.814   1.814   1.814   1.814
   1.814   1.814   1.814   1.814   1.814   1.814   1.814   1.814   1.814   1.814
   1.814   1.814   1.814   1.814   1.814   1.814   1.814   1.814   1.814   1.814
   1.814   1.814
   1.575   1.616   1.738   1.816   1.615   1.614   1.790   2.228   1.441   1.989
   1.811   1.513   2.011   2.321   2.037   2.452   2.382   2.138   2.159   2.138
   2.382   2.452   2.037   2.321   2.011   1.513   1.811   1.989   1.441   2.228
   1.790   1.614   1.615   1.816   1.738   1.616   1.575   1.616   1.738   1.816
   1.615   1.614   1.790   2.228   1.441   1.989   1.811   1.513   2.011   2.321
   2.037   2.452   2.382   2.138   2.159   2.138   2.382   2.452   2.037   2.321
   2.011   1.513   1.811   1.989   1.441   2.228   1.790   1.614   1.615   1.816
   1.738   1.616
   1.585   1.468   1.232   1.521   1.348   1.473   1.468   1.475   1.297   1.528
   1.442   1.251   1.566   1.833   1.483   1.536   1.678   1.851   1.574   1.851
   1.678   1.536   1.483   1.833   1.566   1.251   1.442   1.528   1.297   1.475
   1.468   1.473   1.348   1.521   1.232   1.468   1.585   1.468   1.232   1.521
   1.348   1.473   1.468   1.475   1.297   1.528   1.442   1.251   1.566   1.833
   1.483   1.536   1.678   1.851   1.574   1.851   1.678   1.536   1.483   1.833
   1.566   1.251   1.442   1.528   1.297   1.475   1.468   1.473   1.348   1.521
   1.232   1.468
   1.270   1.498   1.178   1.098   1.215   1.612   1.209   1.119   1.171   1.173
   1.170   1.225   1.210   1.376   1.128   1.151   1.334   1.607   1.192   1.607
   1.334   1.151   1.128   1.376   1.210   1.225   1.170   1.173   1.171   1.119
   1.209   1.612   1.215   1.098   1.178   1.498   1.270   1.498   1.178   1.098
   1.215   1.612   1.209   1.119   1.171   1.173   1.170   1.225   1.210   1.376
   1.128   1.151   1.334   1.607   1.192   1.607   1.334   1.151   1.128   1.376
   1.210   1.225   1.170   1.173   1.171   1.119   1.209   1.612   1.215   1.098
   1.178   1.498
   1.837   1.643   1.488   1.244   1.327   1.658   1.036   1.232   1.103   0.949
   0.961   1.209   1.078   1.445   1.159   1.081   1.202   1.303   1.151   1.303
   1.202   1.081   1.159   1.445   1.078   1.209   0.961   0.949   1.103   1.232
   1.036   1.658   1.327   1.244   1.488   1.643   1.837   1.643   1.488   1.244
   1.327   1.658   1.036   1.232   1.103   0.949   0.961   1.209   1.078   1.445
   1.159   1.081   1.202   1.303   1.151   1.303   1.202   1.081   1.159   1.445
   1.078   1.209   0.961   0.949   1.103   1.232   1.036   1.658   1.327   1.244
   1.488   1.643
   2.349   2.013   1.745   1.855   1.814   1.756   1.600   1.589   1.270   0.901
   1.006   1.230   1.050   1.216   1.103   0.996   0.964   1.203   1.012   1.203
   0.964   0.996   1.103   1.216   1.050   1.230   1.006   0.901   1.270   1.589
   1.600   1.756   1.814   1.855   1.745   2.013   2.349   2.013   1.745   1.855
   1.814   1.756   1.600   1.589   1.270   0.901   1.006   1.230   1.050   1.216
   1.103   0.996   0.964   1.203   1.012   1.203   0.964   0.996   1.103   1.216
   1.050   1.230   1.006   0.901   1.270   1.589   1.600   1.756   1.814   1.855
   1.745   2.013
   1.970   1.606   1.699   1.920   1.860   1.831   2.046   1.725   1.413   0.967
   1.103   1.055   1.072   1.040   1.000   1.061   1.018   0.924   0.688   0.924
   1.018   1.061   1.000   1.040   1.072   1.055   1.103   0.967   1.413   1.725
   2.046   1.831   1.860   1.920   1.699   1.606   1.970   1.606   1.699   1.920
   1.860   1.831   2.046   1.725   1.413   0.967   1.103   1.055   1.072   1.040
   1.000   1.061   1.018   0.924   0.688   0.924   1.018   1.061   1.000   1.040
   1.072   1.055   1.103   0.967   1.413   1.725   2.046   1.831   1.860   1.920
   1.699   1.606
   1.201   0.775   1.014   1.191   1.097   1.303   1.537   1.321   1.211   0.962
   0.910   0.794   0.886   0.951   0.880   1.100   1.101   0.925   0.745   0.925
   1.101   1.100   0.880   0.951   0.886   0.794   0.910   0.962   1.211   1.321
   1.537   1.303   1.097   1.191   1.014   0.775   1.201   0.775   1.014   1.191
   1.097   1.303   1.537   1.321   1.211   0.962   0.910   0.794   0.886   0.951
   0.880   1.100   1.101   0.925   0.745   0.925   1.101   1.100   0.880   0.951
   0.886   0.794   0.910   0.962   1.211   1.321   1.537   1.303   1.097   1.191
   1.014   0.775
   0.466   0.420   0.378   0.455   0.545   0.711   0.866   0.797   0.791   0.752
   0.844   0.740   0.740   1.011   0.741   0.952   0.906   0.987   0.837   0.987
   0.906   0.952   0.741   1.011   0.740   0.740   0.844   0.752   0.791   0.797
   0.866   0.711   0.545   0.455   0.378   0.420   0.466   0.420   0.378   0.455
   0.545   0.711   0.866   0.797   0.791   0.752   0.844   0.740   0.740   1.011
   0.741   0.952   0.906   0.987   0.837   0.987   0.906   0.952   0.741   1.011
   0.740   0.740   0.844   0.752   0.791   0.797   0.866   0.711   0.545   0.455
   0.378   0.420
   0.188   0.230   0.146   0.232   0.308   0.398   0.538   0.417   0.596   0.614
   0.782   0.640   0.899   0.996   0.843   1.244   1.146   1.155   1.370   1.155
   1.146   1.244   0.843   0.996   0.899   0.640   0.782   0.614   0.596   0.417
   0.538   0.398   0.308   0.232   0.146   0.230   0.188   0.230   0.146   0.232
   0.308   0.398   0.538   0.417   0.596   0.614   0.782   0.640   0.899   0.996
   0.843   1.244   1.146   1.155   1.370   1.155   1.146   1.244   0.843   0.996
   0.899   0.640   0.782   0.614   0.596   0.417   0.538   0.398   0.308   0.232
   0.146   0.230
   0.191   0.166   0.136   0.212   0.230   0.261   0.344   0.315   0.352   0.591
   0.613   0.674   0.962   0.904   1.160   1.200   1.336   1.388   1.925   1.388
   1.336   1.200   1.160   0.904   0.962   0.674   0.613   0.591   0.352   0.315
   0.344   0.261   0.230   0.212   0.136   0.166   0.191   0.166   0.136   0.212
   0.230   0.261   0.344   0.315   0.352   0.591   0.613   0.674   0.962   0.904
   1.160   1.200   1.336   1.388   1.925   1.388   1.336   1.200   1.160   0.904
   0.962   0.674   0.613   0.591   0.352   0.315   0.344   0.261   0.230   0.212
   0.136   0.166
   0.141   0.135   0.198   0.228   0.205   0.217   0.280   0.386   0.344   0.524
   0.785   0.815   0.988   0.943   1.368   0.925   1.073   1.323   1.767   1.323
   1.073   0.925   1.368   0.943   0.988   0.815   0.785   0.524   0.344   0.386
   0.280   0.217   0.205   0.228   0.198   0.135   0.141   0.135   0.198   0.228
   0.205   0.217   0.280   0.386   0.344   0.524   0.785   0.815   0.988   0.943
   1.368   0.925   1.073   1.323   1.767   1.323   1.073   0.925   1.368   0.943
   0.988   0.815   0.785   0.524   0.344   0.386   0.280   0.217   0.205   0.228
   0.198   0.135
   0.090   0.161   0.162   0.227   0.236   0.318   0.423   0.445   0.510   0.630
   0.898   0.975   0.933   0.885   1.078   1.010   1.136   1.326   1.488   1.326
   1.136   1.010   1.078   0.885   0.933   0.975   0.898   0.630   0.510   0.445
   0.423   0.318   0.236   0.227   0.162   0.161   0.090   0.161   0.162   0.227
   0.236   0.318   0.423   0.445   0.510   0.630   0.898   0.975   0.933   0.885
   1.078   1.010   1.136   1.326   1.488   1.326   1.136   1.010   1.078   0.885
   0.933   0.975   0.898   0.630   0.510   0.445   0.423   0.318   0.236   0.227
   0.162   0.161
   0.136   0.329   0.157   0.257   0.447   0.650   0.673   0.606   0.712   0.798
   0.790   0.835   0.712   0.646   0.892   0.905   1.073   1.196   1.138   1.196
   1.073   0.905   0.892   0.646   0.712   0.835   0.790   0.798   0.712   0.606
   0.673   0.650   0.447   0.257   0.157   0.329   0.136   0.329   0.157   0.257
   0.447   0.650   0.673   0.606   0.712   0.798   0.790   0.835   0.712   0.646
   0.892   0.905   1.073   1.196   1.138   1.196   1.073   0.905   0.892   0.646
   0.712   0.835   0.790   0.798   0.712   0.606   0.673   0.650   0.447   0.257
   0.157   0.329
   0.171   0.468   0.376   0.443   0.634   0.733   0.766   0.862   0.871   0.858
   0.773   0.533   0.630   0.622   0.799   0.580   0.961   0.904   1.027   0.904
   0.961   0.580   0.799   0.622   0.630   0.533   0.773   0.858   0.871   0.862
   0.766   0.733   0.634   0.443   0.376   0.468   0.171   0.468   0.376   0.443
   0.634   0.733   0.766   0.862   0.871   0.858   0.773   0.533   0.630   0.622
   0.799   0.580   0.961   0.904   1.027   0.904   0.961   0.580   0.799   0.622
   0.630   0.533   0.773   0.858   0.871   0.862   0.766   0.733   0.634   0.443
   0.376   0.468
 111       5.00   72    0 5.00   15    0
   0.066   0.066   0.066   0.066   0.066   0.066   0.066   0.066   0.066   0.066
   0.066   0.066   0.066   0.066   0.066   0.066   0.066   0.066   0.066   0.066
   0.066   0.066   0.066   0.066   0.066   0.066   0.066   0.066   0.066   0.066
   0.066   0.066   0.066   0.066   0.066   0.066   0.066   0.066   0.066   0.066
   0.066   0.066   0.066   0.066   0.066   0.066   0.066   0.066   0.066   0.066
   0.066   0.066   0.066   0.066   0.066   0.066   0.066   0.066   0.066   0.066
   0.066   0.066   0.066   0.066   0.066   0.066   0.066   0.066   0.066   0.066
   0.066   0.066
   0.114   0.151   0.170   0.229   0.156   0.156   0.168   0.081   0.107   0.146
   0.126   0.166   0.156   0.087   0.112   0.136   0.099   0.125   0.122   0.125
   0.099   0.136   0.112   0.087   0.156   0.166   0.126   0.146   0.107   0.081
   0.168   0.156   0.156   0.229   0.170   0.151   0.114   0.151   0.170   0.229
   0.156   0.156   0.168   0.081   0.107   0.146   0.126   0.166   0.156   0.087
   0.112   0.136   0.099   0.125   0.122   0.125   0.099   0.136   0.112   0.087
   0.156   0.166   0.126   0.146   0.107   0.081   0.168   0.156   0.156   0.229
   0.170   0.151
   0.231   0.462   0.399   0.500   0.467   0.327   0.484   0.188   0.225   0.226
   0.261   0.217   0.188   0.162   0.207   0.086   0.051   0.090   0.182   0.090
   0.051   0.086   0.207   0.162   0.188   0.217   0.261   0.226   0.225   0.188
   0.484   0.327   0.467   0.500   0.399   0.462   0.231   0.462   0.399   0.500
   0.467   0.327   0.484   0.188   0.225   0.226   0.261   0.217   0.188   0.162
   0.207   0.086   0.051   0.090   0.182   0.090   0.051   0.086   0.207   0.162
   0.188   0.217   0.261   0.226   0.225   0.188   0.484   0.327   0.467   0.500
   0.399   0.462
   1.220   1.464   1.170   1.261   0.960   0.774   0.881   0.548   0.439   0.352
   0.279   0.241   0.285   0.164   0.271   0.140   0.114   0.069   0.171   0.069
   0.114   0.140   0.271   0.164   0.285   0.241   0.279   0.352   0.439   0.548
   0.881   0.774   0.960   1.261   1.170   1.464   1.220   1.464   1.170   1.261
   0.960   0.774   0.881   0.548   0.439   0.352   0.279   0.241   0.285   0.164
   0.271   0.140   0.114   0.069   0.171   0.069   0.114   0.140   0.271   0.164
   0.285   0.241   0.279   0.352   0.439   0.548   0.881   0.774   0.960   1.261
   1.170   1.464
   3.081   2.819   2.321   2.243   1.803   1.792   1.259   1.119   0.802   0.591
   0.421   0.330   0.316   0.165   0.252   0.219   0.231   0.084   0.122   0.084
   0.231   0.219   0.252   0.165   0.316   0.330   0.421   0.591   0.802   1.119
   1.259   1.792   1.803   2.243   2.321   2.819   3.081   2.819   2.321   2.243
   1.803   1.792   1.259   1.119   0.802   0.591   0.421   0.330   0.316   0.165
   0.252   0.219   0.231   0.084   0.122   0.084   0.231   0.219   0.252   0.165
   0.316   0.330   0.421   0.591   0.802   1.119   1.259   1.792   1.803   2.243
   2.321   2.819
   4.180   3.650   3.290   3.150   2.795   2.406   1.619   1.534   1.183   0.728
   0.888   0.451   0.428   0.325   0.266   0.191   0.321   0.147   0.090   0.147
   0.321   0.191   0.266   0.325   0.428   0.451   0.888   0.728   1.183   1.534
   1.619   2.406   2.795   3.150   3.290   3.650   4.180   3.650   3.290   3.150
   2.795   2.406   1.619   1.534   1.183   0.728   0.888   0.451   0.428   0.325
   0.266   0.191   0.321   0.147   0.090   0.147   0.321   0.191   0.266   0.325
   0.428   0.451   0.888   0.728   1.183   1.534   1.619   2.406   2.795   3.150
   3.290   3.650
   3.911   3.647   3.903   3.668   3.244   2.625   1.990   1.725   1.389   0.858
   1.062   0.669   0.662   0.432   0.293   0.271   0.303   0.270   0.126   0.270
   0.303   0.271   0.293   0.432   0.662   0.669   1.062   0.858   1.389   1.725
   1.990   2.625   3.244   3.668   3.903   3.647   3.911   3.647   3.903   3.668
   3.244   2.625   1.990   1.725   1.389   0.858   1.062   0.669   0.662   0.432
   0.293   0.271   0.303   0.270   0.126   0.270   0.303   0.271   0.293   0.432
   0.662   0.669   1.062   0.858   1.389   1.725   1.990   2.625   3.244   3.668
   3.903   3.647
   2.380   2.477   2.971   2.951   3.138   3.236   2.537   2.088   1.702   1.189
   0.954   0.799   0.717   0.474   0.443   0.345   0.345   0.336   0.389   0.336
   0.345   0.345   0.443   0.474   0.717   0.799   0.954   1.189   1.702   2.088
   2.537   3.236   3.138   2.951   2.971   2.477   2.380   2.477   2.971   2.951
   3.138   3.236   2.537   2.088   1.702   1.189   0.954   0.799   0.717   0.474
   0.443   0.345   0.345   0.336   0.389   0.336   0.345   0.345   0.443   0.474
   0.717   0.799   0.954   1.189   1.702   2.088   2.537   3.236   3.138   2.951
   2.971   2.477
   0.877   1.058   1.221   1.534   2.057   2.478   2.714   2.327   2.116   1.563
   1.112   1.025   0.916   0.677   0.574   0.437   0.478   0.351   0.491   0.351
   0.478   0.437   0.574   0.677   0.916   1.025   1.112   1.563   2.116   2.327
   2.714   2.478   2.057   1.534   1.221   1.058   0.877   1.058   1.221   1.534
   2.057   2.478   2.714   2.327   2.116   1.563   1.112   1.025   0.916   0.677
   0.574   0.437   0.478   0.351   0.491   0.351   0.478   0.437   0.574   0.677
   0.916   1.025   1.112   1.563   2.116   2.327   2.714   2.478   2.057   1.534
   1.221   1.058
   0.395   0.462   0.433   0.656   0.860   1.076   1.962   2.014   2.422   2.111
   1.590   1.416   1.331   0.979   0.654   0.709   0.678   0.678   0.553   0.678
   0.678   0.709   0.654   0.979   1.331   1.416   1.590   2.111   2.422   2.014
   1.962   1.076   0.860   0.656   0.433   0.462   0.395   0.462   0.433   0.656
   0.860   1.076   1.962   2.014   2.422   2.111   1.590   1.416   1.331   0.979
   0.654   0.709   0.678   0.678   0.553   0.678   0.678   0.709   0.654   0.979
   1.331   1.416   1.590   2.111   2.422   2.014   1.962   1.076   0.860   0.656
   0.433   0.462
   0.224   0.227   0.259   0.307   0.525   0.605   1.366   1.429   2.237   2.223
   1.855   1.837   1.726   1.273   1.036   0.949   0.877   0.856   0.816   0.856
   0.877   0.949   1.036   1.273   1.726   1.837   1.855   2.223   2.237   1.429
   1.366   0.605   0.525   0.307   0.259   0.227   0.224   0.227   0.259   0.307
   0.525   0.605   1.366   1.429   2.237   2.223   1.855   1.837   1.726   1.273
   1.036   0.949   0.877   0.856   0.816   0.856   0.877   0.949   1.036   1.273
   1.726   1.837   1.855   2.223   2.237   1.429   1.366   0.605   0.525   0.307
   0.259   0.227
   0.152   0.190   0.230   0.228   0.376   0.462   0.966   1.039   1.578   1.956
   1.647   1.893   1.688   1.315   1.239   1.036   0.882   0.791   0.918   0.791
   0.882   1.036   1.239   1.315   1.688   1.893   1.647   1.956   1.578   1.039
   0.966   0.462   0.376   0.228   0.230   0.190   0.152   0.190   0.230   0.228
   0.376   0.462   0.966   1.039   1.578   1.956   1.647   1.893   1.688   1.315
   1.239   1.036   0.882   0.791   0.918   0.791   0.882   1.036   1.239   1.315
   1.688   1.893   1.647   1.956   1.578   1.039   0.966   0.462   0.376   0.228
   0.230   0.190
   0.202   0.168   0.220   0.188   0.285   0.341   0.581   0.927   1.028   1.704
   1.271   1.398   1.248   1.169   1.112   0.959   0.974   0.886   1.059   0.886
   0.974   0.959   1.112   1.169   1.248   1.398   1.271   1.704   1.028   0.927
   0.581   0.341   0.285   0.188   0.220   0.168   0.202   0.168   0.220   0.188
   0.285   0.341   0.581   0.927   1.028   1.704   1.271   1.398   1.248   1.169
   1.112   0.959   0.974   0.886   1.059   0.886   0.974   0.959   1.112   1.169
   1.248   1.398   1.271   1.704   1.028   0.927   0.581   0.341   0.285   0.188
   0.220   0.168
   0.264   0.217   0.324   0.214   0.243   0.269   0.629   0.781   0.790   1.188
   0.904   0.992   0.954   0.909   0.956   0.840   0.988   0.911   1.071   0.911
   0.988   0.840   0.956   0.909   0.954   0.992   0.904   1.188   0.790   0.781
   0.629   0.269   0.243   0.214   0.324   0.217   0.264   0.217   0.324   0.214
   0.243   0.269   0.629   0.781   0.790   1.188   0.904   0.992   0.954   0.909
   0.956   0.840   0.988   0.911   1.071   0.911   0.988   0.840   0.956   0.909
   0.954   0.992   0.904   1.188   0.790   0.781   0.629   0.269   0.243   0.214
   0.324   0.217
   0.225   0.379   0.422   0.376   0.295   0.447   0.678   0.614   0.775   0.695
   0.719   0.788   0.756   0.583   0.799   0.852   0.762   0.780   0.692   0.780
   0.762   0.852   0.799   0.583   0.756   0.788   0.719   0.695   0.775   0.614
   0.678   0.447   0.295   0.376   0.422   0.379   0.225   0.379   0.422   0.376
   0.295   0.447   0.678   0.614   0.775   0.695   0.719   0.788   0.756   0.583
   0.799   0.852   0.762   0.780   0.692   0.780   0.762   0.852   0.799   0.583
   0.756   0.788   0.719   0.695   0.775   0.614   0.678   0.447   0.295   0.376
   0.422   0.379
  4  1      1.0019399E+00
  4  2     -8.3408718E-01
  4  3      7.2965316E-01
  6  1      1.3017077E+00
  6  2     -2.8383763E+00
  6  3      1.1882727E+00
  6  4     -5.0201828E-02
  8  1      3.3749937E-01
  8  2     -4.2190851E-01
  8  3      8.2999383E-01
  8  4     -3.3384432E-01
  8  5      4.8814829E-01
 10  1     -8.8956678E-02
 10  2     -3.0116621E-01
 10  3      1.1611395E+00
 10  4     -4.1826231E-01
 10  5      3.6163800E-01
 10  6     -1.4889267E-01
 12  1      3.8757749E-01  9.3637280E-01
 12  2     -3.4029278E-01 -1.2290829E+00
 12  3      4.1075763E-01  1.0883985E+00
 12  4     -2.7878547E-01 -7.5662809E-01
 12  5      1.3176968E-01  4.3152325E-03
 12  6     -2.6652116E-01  2.5150934E-01
 12  7      3.3566720E-01  1.9437981E-01
 14  1     -2.0981975E-01
 14  2     -2.1034280E-01
 14  3      2.4016387E-01
 14  4     -4.9192431E-01
 14  5      3.7002633E-01
 14  6      2.4432306E-02
 14  7      1.7955302E-01
 14  8     -3.2882515E-01
 16  1     -1.5592197E-01  1.8085867E-01
 16  2     -3.2069449E-01  9.4233842E-02
 16  3      2.0026301E-01  1.5113585E-01
 16  4      6.7335066E-02 -5.5031947E-01
 16  5     -1.3456035E-01  3.4427443E-01
 16  6      1.3824838E-01 -1.0234148E-01
 16  7      2.6239401E-01 -5.3251757E-02
 16  8     -1.6943822E-01  1.7795103E-01
 16  9      1.4079430E-01  1.9178067E-01
 220       5.00   72    0 5.00   18    0
   1.849   1.850   1.853   1.858   1.864   1.872   1.881   1.891   1.902   1.913
   1.924   1.935   1.945   1.954   1.962   1.969   1.974   1.977   1.978   1.977
   1.974   1.969   1.962   1.954   1.945   1.935   1.924   1.913   1.902   1.891
   1.881   1.872   1.864   1.858   1.853   1.850   1.849   1.850   1.853   1.858
   1.864   1.872   1.881   1.891   1.902   1.913   1.924   1.935   1.945   1.954
   1.962   1.969   1.974   1.977   1.978   1.977   1.974   1.969   1.962   1.954
   1.945   1.935   1.924   1.913   1.902   1.891   1.881   1.872   1.864   1.858
   1.853   1.850
   1.200   1.206   1.225   1.256   1.299   1.353   1.417   1.490   1.569   1.653
   1.739   1.825   1.907   1.983   2.051   2.106   2.147   2.173   2.182   2.173
   2.147   2.106   2.051   1.983   1.907   1.825   1.739   1.653   1.569   1.490
   1.417   1.353   1.299   1.256   1.225   1.206   1.200   1.206   1.225   1.256
   1.299   1.353   1.417   1.490   1.569   1.653   1.739   1.825   1.907   1.983
   2.051   2.106   2.147   2.173   2.182   2.173   2.147   2.106   2.051   1.983
   1.907   1.825   1.739   1.653   1.569   1.490   1.417   1.353   1.299   1.256
   1.225   1.206
   0.414   0.423   0.450   0.496   0.560   0.645   0.749   0.874   1.018   1.179
   1.353   1.536   1.720   1.897   2.059   2.197   2.302   2.368   2.390   2.368
   2.302   2.197   2.059   1.897   1.720   1.536   1.353   1.179   1.018   0.874
   0.749   0.645   0.560   0.496   0.450   0.423   0.414   0.423   0.450   0.496
   0.560   0.645   0.749   0.874   1.018   1.179   1.353   1.536   1.720   1.897
   2.059   2.197   2.302   2.368   2.390   2.368   2.302   2.197   2.059   1.897
   1.720   1.536   1.353   1.179   1.018   0.874   0.749   0.645   0.560   0.496
   0.450   0.423
  -0.009  -0.004   0.012   0.040   0.083   0.143   0.225   0.335   0.475   0.650
   0.859   1.097   1.357   1.625   1.883   2.112   2.292   2.407   2.447   2.407
   2.292   2.112   1.883   1.625   1.357   1.097   0.859   0.650   0.475   0.335
   0.225   0.143   0.083   0.040   0.012  -0.004  -0.009  -0.004   0.012   0.040
   0.083   0.143   0.225   0.335   0.475   0.650   0.859   1.097   1.357   1.625
   1.883   2.112   2.292   2.407   2.447   2.407   2.292   2.112   1.883   1.625
   1.357   1.097   0.859   0.650   0.475   0.335   0.225   0.143   0.083   0.040
   0.012  -0.004
  -0.016  -0.014  -0.009  -0.001   0.011   0.028   0.056   0.102   0.178   0.297
   0.468   0.695   0.974   1.289   1.615   1.919   2.167   2.330   2.387   2.330
   2.167   1.919   1.615   1.289   0.974   0.695   0.468   0.297   0.178   0.102
   0.056   0.028   0.011  -0.001  -0.009  -0.014  -0.016  -0.014  -0.009  -0.001
   0.011   0.028   0.056   0.102   0.178   0.297   0.468   0.695   0.974   1.289
   1.615   1.919   2.167   2.330   2.387   2.330   2.167   1.919   1.615   1.289
   0.974   0.695   0.468   0.297   0.178   0.102   0.056   0.028   0.011  -0.001
  -0.009  -0.014
   0.124   0.129   0.143   0.162   0.179   0.189   0.191   0.189   0.197   0.238
   0.334   0.504   0.751   1.065   1.416   1.761   2.054   2.249   2.318   2.249
   2.054   1.761   1.416   1.065   0.751   0.504   0.334   0.238   0.197   0.189
   0.191   0.189   0.179   0.162   0.143   0.129   0.124   0.129   0.143   0.162
   0.179   0.189   0.191   0.189   0.197   0.238   0.334   0.504   0.751   1.065
   1.416   1.761   2.054   2.249   2.318   2.249   2.054   1.761   1.416   1.065
   0.751   0.504   0.334   0.238   0.197   0.189   0.191   0.189   0.179   0.162
   0.143   0.129
   0.238   0.247   0.272   0.312   0.357   0.396   0.415   0.409   0.386   0.374
   0.405   0.510   0.705   0.984   1.317   1.659   1.957   2.160   2.232   2.160
   1.957   1.659   1.317   0.984   0.705   0.510   0.405   0.374   0.386   0.409
   0.415   0.396   0.357   0.312   0.272   0.247   0.238   0.247   0.272   0.312
   0.357   0.396   0.415   0.409   0.386   0.374   0.405   0.510   0.705   0.984
   1.317   1.659   1.957   2.160   2.232   2.160   1.957   1.659   1.317   0.984
   0.705   0.510   0.405   0.374   0.386   0.409   0.415   0.396   0.357   0.312
   0.272   0.247
   0.437   0.434   0.435   0.451   0.488   0.535   0.569   0.571   0.542   0.506
   0.504   0.568   0.718   0.946   1.226   1.518   1.776   1.953   2.016   1.953
   1.776   1.518   1.226   0.946   0.718   0.568   0.504   0.506   0.542   0.571
   0.569   0.535   0.488   0.451   0.435   0.434   0.437   0.434   0.435   0.451
   0.488   0.535   0.569   0.571   0.542   0.506   0.504   0.568   0.718   0.946
   1.226   1.518   1.776   1.953   2.016   1.953   1.776   1.518   1.226   0.946
   0.718   0.568   0.504   0.506   0.542   0.571   0.569   0.535   0.488   0.451
   0.435   0.434
   0.909   0.878   0.804   0.731   0.693   0.689   0.691   0.667   0.612   0.554
   0.535   0.585   0.707   0.883   1.085   1.289   1.469   1.594   1.640   1.594
   1.469   1.289   1.085   0.883   0.707   0.585   0.535   0.554   0.612   0.667
   0.691   0.689   0.693   0.731   0.804   0.878   0.909   0.878   0.804   0.731
   0.693   0.689   0.691   0.667   0.612   0.554   0.535   0.585   0.707   0.883
   1.085   1.289   1.469   1.594   1.640   1.594   1.469   1.289   1.085   0.883
   0.707   0.585   0.535   0.554   0.612   0.667   0.691   0.689   0.693   0.731
   0.804   0.878
   1.648   1.584   1.423   1.238   1.094   1.002   0.928   0.830   0.705   0.593
   0.546   0.587   0.692   0.819   0.936   1.038   1.127   1.194   1.219   1.194
   1.127   1.038   0.936   0.819   0.692   0.587   0.546   0.593   0.705   0.830
   0.928   1.002   1.094   1.238   1.423   1.584   1.648   1.584   1.423   1.238
   1.094   1.002   0.928   0.830   0.705   0.593   0.546   0.587   0.692   0.819
   0.936   1.038   1.127   1.194   1.219   1.194   1.127   1.038   0.936   0.819
   0.692   0.587   0.546   0.593   0.705   0.830   0.928   1.002   1.094   1.238
   1.423   1.584
   2.389   2.305   2.093   1.843   1.631   1.474   1.327   1.142   0.919   0.717
   0.610   0.621   0.704   0.788   0.831   0.847   0.865   0.891   0.904   0.891
   0.865   0.847   0.831   0.788   0.704   0.621   0.610   0.717   0.919   1.142
   1.327   1.474   1.631   1.843   2.093   2.305   2.389   2.305   2.093   1.843
   1.631   1.474   1.327   1.142   0.919   0.717   0.610   0.621   0.704   0.788
   0.831   0.847   0.865   0.891   0.904   0.891   0.865   0.847   0.831   0.788
   0.704   0.621   0.610   0.717   0.919   1.142   1.327   1.474   1.631   1.843
   2.093   2.305
   2.758   2.678   2.477   2.237   2.033   1.877   1.720   1.502   1.215   0.928
   0.735   0.683   0.724   0.770   0.766   0.733   0.717   0.730   0.741   0.730
   0.717   0.733   0.766   0.770   0.724   0.683   0.735   0.928   1.215   1.502
   1.720   1.877   2.033   2.237   2.477   2.678   2.758   2.678   2.477   2.237
   2.033   1.877   1.720   1.502   1.215   0.928   0.735   0.683   0.724   0.770
   0.766   0.733   0.717   0.730   0.741   0.730   0.717   0.733   0.766   0.770
   0.724   0.683   0.735   0.928   1.215   1.502   1.720   1.877   2.033   2.237
   2.477   2.678
   2.510   2.453   2.310   2.141   2.008   1.927   1.854   1.714   1.467   1.157
   0.892   0.757   0.738   0.747   0.721   0.674   0.658   0.680   0.698   0.680
   0.658   0.674   0.721   0.747   0.738   0.757   0.892   1.157   1.467   1.714
   1.854   1.927   2.008   2.141   2.310   2.453   2.510   2.453   2.310   2.141
   2.008   1.927   1.854   1.714   1.467   1.157   0.892   0.757   0.738   0.747
   0.721   0.674   0.658   0.680   0.698   0.680   0.658   0.674   0.721   0.747
   0.738   0.757   0.892   1.157   1.467   1.714   1.854   1.927   2.008   2.141
   2.310   2.453
   1.719   1.691   1.622   1.547   1.512   1.545   1.623   1.663   1.573   1.341
   1.063   0.865   0.786   0.763   0.725   0.679   0.677   0.719   0.745   0.719
   0.677   0.679   0.725   0.763   0.786   0.865   1.063   1.341   1.573   1.663
   1.623   1.545   1.512   1.547   1.622   1.691   1.719   1.691   1.622   1.547
   1.512   1.545   1.623   1.663   1.573   1.341   1.063   0.865   0.786   0.763
   0.725   0.679   0.677   0.719   0.745   0.719   0.677   0.679   0.725   0.763
   0.786   0.865   1.063   1.341   1.573   1.663   1.623   1.545   1.512   1.547
   1.622   1.691
   0.782   0.781   0.778   0.784   0.830   0.955   1.167   1.394   1.507   1.429
   1.219   1.019   0.913   0.865   0.812   0.764   0.775   0.841   0.879   0.841
   0.775   0.764   0.812   0.865   0.913   1.019   1.219   1.429   1.507   1.394
   1.167   0.955   0.830   0.784   0.778   0.781   0.782   0.781   0.778   0.784
   0.830   0.955   1.167   1.394   1.507   1.429   1.219   1.019   0.913   0.865
   0.812   0.764   0.775   0.841   0.879   0.841   0.775   0.764   0.812   0.865
   0.913   1.019   1.219   1.429   1.507   1.394   1.167   0.955   0.830   0.784
   0.778   0.781
   0.161   0.176   0.217   0.275   0.355   0.496   0.737   1.048   1.304   1.386
   1.301   1.171   1.088   1.033   0.958   0.896   0.920   1.015   1.070   1.015
   0.920   0.896   0.958   1.033   1.088   1.171   1.301   1.386   1.304   1.048
   0.737   0.496   0.355   0.275   0.217   0.176   0.161   0.176   0.217   0.275
   0.355   0.496   0.737   1.048   1.304   1.386   1.301   1.171   1.088   1.033
   0.958   0.896   0.920   1.015   1.070   1.015   0.920   0.896   0.958   1.033
   1.088   1.171   1.301   1.386   1.304   1.048   0.737   0.496   0.355   0.275
   0.217   0.176
   0.011   0.035   0.099   0.176   0.245   0.326   0.488   0.757   1.050   1.239
   1.285   1.262   1.236   1.187   1.089   1.011   1.049   1.177   1.249   1.177
   1.049   1.011   1.089   1.187   1.236   1.262   1.285   1.239   1.050   0.757
   0.488   0.326   0.245   0.176   0.099   0.035   0.011   0.035   0.099   0.176
   0.245   0.326   0.488   0.757   1.050   1.239   1.285   1.262   1.236   1.187
   1.089   1.011   1.049   1.177   1.249   1.177   1.049   1.011   1.089   1.187
   1.236   1.262   1.285   1.239   1.050   0.757   0.488   0.326   0.245   0.176
   0.099   0.035
   0.095   0.121   0.192   0.272   0.316   0.332   0.402   0.597   0.872   1.106
   1.233   1.289   1.310   1.271   1.159   1.070   1.118   1.270   1.354   1.270
   1.118   1.070   1.159   1.271   1.310   1.289   1.233   1.106   0.872   0.597
   0.402   0.332   0.316   0.272   0.192   0.121   0.095   0.121   0.192   0.272
   0.316   0.332   0.402   0.597   0.872   1.106   1.233   1.289   1.310   1.271
   1.159   1.070   1.118   1.270   1.354   1.270   1.118   1.070   1.159   1.271
   1.310   1.289   1.233   1.106   0.872   0.597   0.402   0.332   0.316   0.272
   0.192   0.121
 200       5.00   72    0 5.00   18    0
   2.034   2.035   2.036   2.038   2.040   2.044   2.048   2.052   2.056   2.061
   2.066   2.070   2.075   2.079   2.082   2.085   2.087   2.088   2.089   2.088
   2.087   2.085   2.082   2.079   2.075   2.070   2.066   2.061   2.056   2.052
   2.048   2.044   2.040   2.038   2.036   2.035   2.034   2.035   2.036   2.038
   2.040   2.044   2.048   2.052   2.056   2.061   2.066   2.070   2.075   2.079
   2.082   2.085   2.087   2.088   2.089   2.088   2.087   2.085   2.082   2.079
   2.075   2.070   2.066   2.061   2.056   2.052   2.048   2.044   2.040   2.038
   2.036   2.035
   1.574   1.576   1.581   1.591   1.604   1.622   1.643   1.668   1.695   1.726
   1.758   1.791   1.824   1.854   1.882   1.905   1.922   1.933   1.937   1.933
   1.922   1.905   1.882   1.854   1.824   1.791   1.758   1.726   1.695   1.668
   1.643   1.622   1.604   1.591   1.581   1.576   1.574   1.576   1.581   1.591
   1.604   1.622   1.643   1.668   1.695   1.726   1.758   1.791   1.824   1.854
   1.882   1.905   1.922   1.933   1.937   1.933   1.922   1.905   1.882   1.854
   1.824   1.791   1.758   1.726   1.695   1.668   1.643   1.622   1.604   1.591
   1.581   1.576
   1.156   1.156   1.154   1.153   1.154   1.158   1.168   1.185   1.212   1.248
   1.294   1.348   1.408   1.470   1.529   1.581   1.621   1.647   1.656   1.647
   1.621   1.581   1.529   1.470   1.408   1.348   1.294   1.248   1.212   1.185
   1.168   1.158   1.154   1.153   1.154   1.156   1.156   1.156   1.154   1.153
   1.154   1.158   1.168   1.185   1.212   1.248   1.294   1.348   1.408   1.470
   1.529   1.581   1.621   1.647   1.656   1.647   1.621   1.581   1.529   1.470
   1.408   1.348   1.294   1.248   1.212   1.185   1.168   1.158   1.154   1.153
   1.154   1.156
   1.178   1.171   1.150   1.117   1.075   1.028   0.983   0.945   0.921   0.914
   0.928   0.965   1.020   1.088   1.163   1.233   1.291   1.330   1.343   1.330
   1.291   1.233   1.163   1.088   1.020   0.965   0.928   0.914   0.921   0.945
   0.983   1.028   1.075   1.117   1.150   1.171   1.178   1.171   1.150   1.117
   1.075   1.028   0.983   0.945   0.921   0.914   0.928   0.965   1.020   1.088
   1.163   1.233   1.291   1.330   1.343   1.330   1.291   1.233   1.163   1.088
   1.020   0.965   0.928   0.914   0.921   0.945   0.983   1.028   1.075   1.117
   1.150   1.171
   1.502   1.491   1.460   1.409   1.339   1.253   1.156   1.057   0.966   0.893
   0.848   0.835   0.853   0.896   0.955   1.018   1.073   1.111   1.124   1.111
   1.073   1.018   0.955   0.896   0.853   0.835   0.848   0.893   0.966   1.057
   1.156   1.253   1.339   1.409   1.460   1.491   1.502   1.491   1.460   1.409
   1.339   1.253   1.156   1.057   0.966   0.893   0.848   0.835   0.853   0.896
   0.955   1.018   1.073   1.111   1.124   1.111   1.073   1.018   0.955   0.896
   0.853   0.835   0.848   0.893   0.966   1.057   1.156   1.253   1.339   1.409
   1.460   1.491
   1.690   1.685   1.670   1.640   1.591   1.517   1.419   1.304   1.184   1.073
   0.987   0.934   0.914   0.923   0.949   0.982   1.012   1.033   1.040   1.033
   1.012   0.982   0.949   0.923   0.914   0.934   0.987   1.073   1.184   1.304
   1.419   1.517   1.591   1.640   1.670   1.685   1.690   1.685   1.670   1.640
   1.591   1.517   1.419   1.304   1.184   1.073   0.987   0.934   0.914   0.923
   0.949   0.982   1.012   1.033   1.040   1.033   1.012   0.982   0.949   0.923
   0.914   0.934   0.987   1.073   1.184   1.304   1.419   1.517   1.591   1.640
   1.670   1.685
   1.492   1.498   1.512   1.528   1.532   1.511   1.456   1.368   1.261   1.158
   1.077   1.029   1.010   1.009   1.016   1.021   1.024   1.025   1.025   1.025
   1.024   1.021   1.016   1.009   1.010   1.029   1.077   1.158   1.261   1.368
   1.456   1.511   1.532   1.528   1.512   1.498   1.492   1.498   1.512   1.528
   1.532   1.511   1.456   1.368   1.261   1.158   1.077   1.029   1.010   1.009
   1.016   1.021   1.024   1.025   1.025   1.025   1.024   1.021   1.016   1.009
   1.010   1.029   1.077   1.158   1.261   1.368   1.456   1.511   1.532   1.528
   1.512   1.498
   1.001   1.013   1.049   1.103   1.160   1.196   1.189   1.136   1.057   0.983
   0.943   0.944   0.971   1.003   1.025   1.034   1.036   1.036   1.036   1.036
   1.036   1.034   1.025   1.003   0.971   0.944   0.943   0.983   1.057   1.136
   1.189   1.196   1.160   1.103   1.049   1.013   1.001   1.013   1.049   1.103
   1.160   1.196   1.189   1.136   1.057   0.983   0.943   0.944   0.971   1.003
   1.025   1.034   1.036   1.036   1.036   1.036   1.036   1.034   1.025   1.003
   0.971   0.944   0.943   0.983   1.057   1.136   1.189   1.196   1.160   1.103
   1.049   1.013
   0.470   0.482   0.521   0.593   0.686   0.766   0.799   0.776   0.721   0.683
   0.697   0.763   0.852   0.932   0.992   1.037   1.079   1.115   1.129   1.115
   1.079   1.037   0.992   0.932   0.852   0.763   0.697   0.683   0.721   0.776
   0.799   0.766   0.686   0.593   0.521   0.482   0.470   0.482   0.521   0.593
   0.686   0.766   0.799   0.776   0.721   0.683   0.697   0.763   0.852   0.932
   0.992   1.037   1.079   1.115   1.129   1.115   1.079   1.037   0.992   0.932
   0.852   0.763   0.697   0.683   0.721   0.776   0.799   0.766   0.686   0.593
   0.521   0.482
   0.137   0.140   0.163   0.225   0.327   0.432   0.496   0.505   0.488   0.499
   0.572   0.696   0.826   0.927   1.005   1.091   1.198   1.297   1.339   1.297
   1.198   1.091   1.005   0.927   0.826   0.696   0.572   0.499   0.488   0.505
   0.496   0.432   0.327   0.225   0.163   0.140   0.137   0.140   0.163   0.225
   0.327   0.432   0.496   0.505   0.488   0.499   0.572   0.696   0.826   0.927
   1.005   1.091   1.198   1.297   1.339   1.297   1.198   1.091   1.005   0.927
   0.826   0.696   0.572   0.499   0.488   0.505   0.496   0.432   0.327   0.225
   0.163   0.140
   0.109   0.099   0.089   0.113   0.183   0.273   0.344   0.386   0.426   0.506
   0.641   0.800   0.930   1.006   1.061   1.158   1.316   1.476   1.545   1.476
   1.316   1.158   1.061   1.006   0.930   0.800   0.641   0.506   0.426   0.386
   0.344   0.273   0.183   0.113   0.089   0.099   0.109   0.099   0.089   0.113
   0.183   0.273   0.344   0.386   0.426   0.506   0.641   0.800   0.930   1.006
   1.061   1.158   1.316   1.476   1.545   1.476   1.316   1.158   1.061   1.006
   0.930   0.800   0.641   0.506   0.426   0.386   0.344   0.273   0.183   0.113
   0.089   0.099
   0.251   0.235   0.205   0.196   0.221   0.266   0.316   0.378   0.472   0.611
   0.777   0.930   1.024   1.053   1.067   1.143   1.307   1.489   1.569   1.489
   1.307   1.143   1.067   1.053   1.024   0.930   0.777   0.611   0.472   0.378
   0.316   0.266   0.221   0.196   0.205   0.235   0.251   0.235   0.205   0.196
   0.221   0.266   0.316   0.378   0.472   0.611   0.777   0.930   1.024   1.053
   1.067   1.143   1.307   1.489   1.569   1.489   1.307   1.143   1.067   1.053
   1.024   0.930   0.777   0.611   0.472   0.378   0.316   0.266   0.221   0.196
   0.205   0.235
   0.259   0.256   0.262   0.294   0.342   0.383   0.422   0.492   0.608   0.748
   0.871   0.955   0.995   0.997   0.997   1.050   1.183   1.338   1.409   1.338
   1.183   1.050   0.997   0.997   0.995   0.955   0.871   0.748   0.608   0.492
   0.422   0.383   0.342   0.294   0.262   0.256   0.259   0.256   0.262   0.294
   0.342   0.383   0.422   0.492   0.608   0.748   0.871   0.955   0.995   0.997
   0.997   1.050   1.183   1.338   1.409   1.338   1.183   1.050   0.997   0.997
   0.995   0.955   0.871   0.748   0.608   0.492   0.422   0.383   0.342   0.294
   0.262   0.256
   0.086   0.103   0.173   0.316   0.487   0.615   0.689   0.760   0.854   0.928
   0.938   0.907   0.888   0.902   0.935   0.993   1.095   1.212   1.266   1.212
   1.095   0.993   0.935   0.902   0.888   0.907   0.938   0.928   0.854   0.760
   0.689   0.615   0.487   0.316   0.173   0.103   0.086   0.103   0.173   0.316
   0.487   0.615   0.689   0.760   0.854   0.928   0.938   0.907   0.888   0.902
   0.935   0.993   1.095   1.212   1.266   1.212   1.095   0.993   0.935   0.902
   0.888   0.907   0.938   0.928   0.854   0.760   0.689   0.615   0.487   0.316
   0.173   0.103
   0.263   0.249   0.279   0.447   0.712   0.930   1.030   1.069   1.100   1.088
   0.991   0.864   0.808   0.849   0.933   1.024   1.136   1.254   1.309   1.254
   1.136   1.024   0.933   0.849   0.808   0.864   0.991   1.088   1.100   1.069
   1.030   0.930   0.712   0.447   0.279   0.249   0.263   0.249   0.279   0.447
   0.712   0.930   1.030   1.069   1.100   1.088   0.991   0.864   0.808   0.849
   0.933   1.024   1.136   1.254   1.309   1.254   1.136   1.024   0.933   0.849
   0.808   0.864   0.991   1.088   1.100   1.069   1.030   0.930   0.712   0.447
   0.279   0.249
   1.440   1.301   1.051   0.973   1.108   1.255   1.261   1.180   1.119   1.064
   0.953   0.820   0.766   0.818   0.921   1.048   1.221   1.409   1.495   1.409
   1.221   1.048   0.921   0.818   0.766   0.820   0.953   1.064   1.119   1.180
   1.261   1.255   1.108   0.973   1.051   1.301   1.440   1.301   1.051   0.973
   1.108   1.255   1.261   1.180   1.119   1.064   0.953   0.820   0.766   0.818
   0.921   1.048   1.221   1.409   1.495   1.409   1.221   1.048   0.921   0.818
   0.766   0.820   0.953   1.064   1.119   1.180   1.261   1.255   1.108   0.973
   1.051   1.301
   3.454   3.121   2.412   1.849   1.623   1.509   1.286   1.011   0.848   0.808
   0.783   0.734   0.715   0.753   0.829   0.972   1.230   1.529   1.667   1.529
   1.230   0.972   0.829   0.753   0.715   0.734   0.783   0.808   0.848   1.011
   1.286   1.509   1.623   1.849   2.412   3.121   3.454   3.121   2.412   1.849
   1.623   1.509   1.286   1.011   0.848   0.808   0.783   0.734   0.715   0.753
   0.829   0.972   1.230   1.529   1.667   1.529   1.230   0.972   0.829   0.753
   0.715   0.734   0.783   0.808   0.848   1.011   1.286   1.509   1.623   1.849
   2.412   3.121
   5.082   4.599   3.526   2.560   2.005   1.643   1.215   0.782   0.549   0.541
   0.609   0.646   0.663   0.681   0.722   0.866   1.185   1.567   1.744   1.567
   1.185   0.866   0.722   0.681   0.663   0.646   0.609   0.541   0.549   0.782
   1.215   1.643   2.005   2.560   3.526   4.599   5.082   4.599   3.526   2.560
   2.005   1.643   1.215   0.782   0.549   0.541   0.609   0.646   0.663   0.681
   0.722   0.866   1.185   1.567   1.744   1.567   1.185   0.866   0.722   0.681
   0.663   0.646   0.609   0.541   0.549   0.782   1.215   1.643   2.005   2.560
   3.526   4.599
 111       5.00   72    0 5.00   18    0
   0.011   0.011   0.011   0.011   0.012   0.013   0.013   0.014   0.015   0.016
   0.017   0.018   0.019   0.019   0.020   0.021   0.021   0.021   0.021   0.021
   0.021   0.021   0.020   0.019   0.019   0.018   0.017   0.016   0.015   0.014
   0.013   0.013   0.012   0.011   0.011   0.011   0.011   0.011   0.011   0.011
   0.012   0.013   0.013   0.014   0.015   0.016   0.017   0.018   0.019   0.019
   0.020   0.021   0.021   0.021   0.021   0.021   0.021   0.021   0.020   0.019
   0.019   0.018   0.017   0.016   0.015   0.014   0.013   0.013   0.012   0.011
   0.011   0.011
   0.036   0.036   0.035   0.033   0.031   0.029   0.028   0.027   0.028   0.029
   0.031   0.034   0.037   0.041   0.044   0.047   0.049   0.050   0.050   0.050
   0.049   0.047   0.044   0.041   0.037   0.034   0.031   0.029   0.028   0.027
   0.028   0.029   0.031   0.033   0.035   0.036   0.036   0.036   0.035   0.033
   0.031   0.029   0.028   0.027   0.028   0.029   0.031   0.034   0.037   0.041
   0.044   0.047   0.049   0.050   0.050   0.050   0.049   0.047   0.044   0.041
   0.037   0.034   0.031   0.029   0.028   0.027   0.028   0.029   0.031   0.033
   0.035   0.036
   0.338   0.330   0.310   0.278   0.239   0.197   0.157   0.121   0.092   0.071
   0.057   0.048   0.043   0.039   0.036   0.033   0.030   0.028   0.027   0.028
   0.030   0.033   0.036   0.039   0.043   0.048   0.057   0.071   0.092   0.121
   0.157   0.197   0.239   0.278   0.310   0.330   0.338   0.330   0.310   0.278
   0.239   0.197   0.157   0.121   0.092   0.071   0.057   0.048   0.043   0.039
   0.036   0.033   0.030   0.028   0.027   0.028   0.030   0.033   0.036   0.039
   0.043   0.048   0.057   0.071   0.092   0.121   0.157   0.197   0.239   0.278
   0.310   0.330
   1.168   1.141   1.063   0.943   0.797   0.639   0.487   0.354   0.249   0.172
   0.121   0.088   0.065   0.043   0.018  -0.009  -0.035  -0.053  -0.060  -0.053
  -0.035  -0.009   0.018   0.043   0.065   0.088   0.121   0.172   0.249   0.354
   0.487   0.639   0.797   0.943   1.063   1.141   1.168   1.141   1.063   0.943
   0.797   0.639   0.487   0.354   0.249   0.172   0.121   0.088   0.065   0.043
   0.018  -0.009  -0.035  -0.053  -0.060  -0.053  -0.035  -0.009   0.018   0.043
   0.065   0.088   0.121   0.172   0.249   0.354   0.487   0.639   0.797   0.943
   1.063   1.141
   2.400   2.347   2.192   1.953   1.654   1.328   1.009   0.728   0.506   0.351
   0.258   0.207   0.175   0.141   0.093   0.030  -0.034  -0.083  -0.101  -0.083
  -0.034   0.030   0.093   0.141   0.175   0.207   0.258   0.351   0.506   0.728
   1.009   1.328   1.654   1.953   2.192   2.347   2.400   2.347   2.192   1.953
   1.654   1.328   1.009   0.728   0.506   0.351   0.258   0.207   0.175   0.141
   0.093   0.030  -0.034  -0.083  -0.101  -0.083  -0.034   0.030   0.093   0.141
   0.175   0.207   0.258   0.351   0.506   0.728   1.009   1.328   1.654   1.953
   2.192   2.347
   3.389   3.330   3.156   2.875   2.506   2.076   1.627   1.206   0.856   0.604
   0.454   0.383   0.355   0.328   0.274   0.190   0.094   0.018  -0.011   0.018
   0.094   0.190   0.274   0.328   0.355   0.383   0.454   0.604   0.856   1.206
   1.627   2.076   2.506   2.875   3.156   3.330   3.389   3.330   3.156   2.875
   2.506   2.076   1.627   1.206   0.856   0.604   0.454   0.383   0.355   0.328
   0.274   0.190   0.094   0.018  -0.011   0.018   0.094   0.190   0.274   0.328
   0.355   0.383   0.454   0.604   0.856   1.206   1.627   2.076   2.506   2.875
   3.156   3.330
   3.406   3.386   3.317   3.177   2.944   2.608   2.187   1.726   1.284   0.923
   0.678   0.548   0.498   0.476   0.437   0.363   0.268   0.188   0.156   0.188
   0.268   0.363   0.437   0.476   0.498   0.548   0.678   0.923   1.284   1.726
   2.187   2.608   2.944   3.177   3.317   3.386   3.406   3.386   3.317   3.177
   2.944   2.608   2.187   1.726   1.284   0.923   0.678   0.548   0.498   0.476
   0.437   0.363   0.268   0.188   0.156   0.188   0.268   0.363   0.437   0.476
   0.498   0.548   0.678   0.923   1.284   1.726   2.187   2.608   2.944   3.177
   3.317   3.386
   2.364   2.408   2.521   2.650   2.725   2.682   2.488   2.154   1.735   1.314
   0.965   0.731   0.606   0.548   0.507   0.454   0.387   0.328   0.305   0.328
   0.387   0.454   0.507   0.548   0.606   0.731   0.965   1.314   1.735   2.154
   2.488   2.682   2.725   2.650   2.521   2.408   2.364   2.408   2.521   2.650
   2.725   2.682   2.488   2.154   1.735   1.314   0.965   0.731   0.606   0.548
   0.507   0.454   0.387   0.328   0.305   0.328   0.387   0.454   0.507   0.548
   0.606   0.731   0.965   1.314   1.735   2.154   2.488   2.682   2.725   2.650
   2.521   2.408
   0.991   1.072   1.296   1.615   1.955   2.230   2.365   2.315   2.089   1.749
   1.384   1.069   0.842   0.695   0.602   0.536   0.485   0.450   0.438   0.450
   0.485   0.536   0.602   0.695   0.842   1.069   1.384   1.749   2.089   2.315
   2.365   2.230   1.955   1.615   1.296   1.072   0.991   1.072   1.296   1.615
   1.955   2.230   2.365   2.315   2.089   1.749   1.384   1.069   0.842   0.695
   0.602   0.536   0.485   0.450   0.438   0.450   0.485   0.536   0.602   0.695
   0.842   1.069   1.384   1.749   2.089   2.315   2.365   2.230   1.955   1.615
   1.296   1.072
   0.147   0.205   0.379   0.662   1.038   1.460   1.852   2.121   2.204   2.097
   1.858   1.564   1.280   1.040   0.856   0.732   0.663   0.634   0.627   0.634
   0.663   0.732   0.856   1.040   1.280   1.564   1.858   2.097   2.204   2.121
   1.852   1.460   1.038   0.662   0.379   0.205   0.147   0.205   0.379   0.662
   1.038   1.460   1.852   2.121   2.204   2.097   1.858   1.564   1.280   1.040
   0.856   0.732   0.663   0.634   0.627   0.634   0.663   0.732   0.856   1.040
   1.280   1.564   1.858   2.097   2.204   2.121   1.852   1.460   1.038   0.662
   0.379   0.205
   0.023   0.033   0.072   0.174   0.390   0.750   1.217   1.683   2.023   2.166
   2.120   1.941   1.693   1.425   1.184   1.006   0.908   0.872   0.865   0.872
   0.908   1.006   1.184   1.425   1.693   1.941   2.120   2.166   2.023   1.683
   1.217   0.750   0.390   0.174   0.072   0.033   0.023   0.033   0.072   0.174
   0.390   0.750   1.217   1.683   2.023   2.166   2.120   1.941   1.693   1.425
   1.184   1.006   0.908   0.872   0.865   0.872   0.908   1.006   1.184   1.425
   1.693   1.941   2.120   2.166   2.023   1.683   1.217   0.750   0.390   0.174
   0.072   0.033
   0.150   0.142   0.115   0.092   0.148   0.366   0.760   1.234   1.642   1.888
   1.961   1.901   1.753   1.554   1.349   1.187   1.095   1.062   1.057   1.062
   1.095   1.187   1.349   1.554   1.753   1.901   1.961   1.888   1.642   1.234
   0.760   0.366   0.148   0.092   0.115   0.142   0.150   0.142   0.115   0.092
   0.148   0.366   0.760   1.234   1.642   1.888   1.961   1.901   1.753   1.554
   1.349   1.187   1.095   1.062   1.057   1.062   1.095   1.187   1.349   1.554
   1.753   1.901   1.961   1.888   1.642   1.234   0.760   0.366   0.148   0.092
   0.115   0.142
   0.107   0.123   0.142   0.136   0.149   0.280   0.569   0.937   1.251   1.435
   1.501   1.494   1.442   1.362   1.273   1.201   1.160   1.144   1.141   1.144
   1.160   1.201   1.273   1.362   1.442   1.494   1.501   1.435   1.251   0.937
   0.569   0.280   0.149   0.136   0.142   0.123   0.107   0.123   0.142   0.136
   0.149   0.280   0.569   0.937   1.251   1.435   1.501   1.494   1.442   1.362
   1.273   1.201   1.160   1.144   1.141   1.144   1.160   1.201   1.273   1.362
   1.442   1.494   1.501   1.435   1.251   0.937   0.569   0.280   0.149   0.136
   0.142   0.123
   0.000   0.041   0.119   0.167   0.203   0.318   0.544   0.806   0.999   1.086
   1.104   1.096   1.085   1.084   1.107   1.142   1.160   1.153   1.145   1.153
   1.160   1.142   1.107   1.084   1.085   1.096   1.104   1.086   0.999   0.806
   0.544   0.318   0.203   0.167   0.119   0.041   0.000   0.041   0.119   0.167
   0.203   0.318   0.544   0.806   0.999   1.086   1.104   1.096   1.085   1.084
   1.107   1.142   1.160   1.153   1.145   1.153   1.160   1.142   1.107   1.084
   1.085   1.096   1.104   1.086   0.999   0.806   0.544   0.318   0.203   0.167
   0.119   0.041
   0.187   0.218   0.274   0.305   0.338   0.442   0.621   0.797   0.909   0.967
   0.996   0.990   0.950   0.931   0.988   1.085   1.133   1.111   1.088   1.111
   1.133   1.085   0.988   0.931   0.950   0.990   0.996   0.967   0.909   0.797
   0.621   0.442   0.338   0.305   0.274   0.218   0.187   0.218   0.274   0.305
   0.338   0.442   0.621   0.797   0.909   0.967   0.996   0.990   0.950   0.931
   0.988   1.085   1.133   1.111   1.088   1.111   1.133   1.085   0.988   0.931
   0.950   0.990   0.996   0.967   0.909   0.797   0.621   0.442   0.338   0.305
   0.274   0.218
   0.753   0.751   0.734   0.703   0.706   0.771   0.852   0.888   0.906   0.976
   1.078   1.094   0.978   0.852   0.859   0.965   1.018   0.966   0.921   0.966
   1.018   0.965   0.859   0.852   0.978   1.094   1.078   0.976   0.906   0.888
   0.852   0.771   0.706   0.703   0.734   0.751   0.753   0.751   0.734   0.703
   0.706   0.771   0.852   0.888   0.906   0.976   1.078   1.094   0.978   0.852
   0.859   0.965   1.018   0.966   0.921   0.966   1.018   0.965   0.859   0.852
   0.978   1.094   1.078   0.976   0.906   0.888   0.852   0.771   0.706   0.703
   0.734   0.751
   1.415   1.390   1.330   1.279   1.279   1.297   1.229   1.053   0.913   0.965
   1.135   1.175   0.971   0.712   0.638   0.733   0.785   0.711   0.650   0.711
   0.785   0.733   0.638   0.712   0.971   1.175   1.135   0.965   0.913   1.053
   1.229   1.297   1.279   1.279   1.330   1.390   1.415   1.390   1.330   1.279
   1.279   1.297   1.229   1.053   0.913   0.965   1.135   1.175   0.971   0.712
   0.638   0.733   0.785   0.711   0.650   0.711   0.785   0.733   0.638   0.712
   0.971   1.175   1.135   0.965   0.913   1.053   1.229   1.297   1.279   1.279
   1.330   1.390
   1.834   1.804   1.743   1.712   1.736   1.726   1.540   1.190   0.911   0.922
   1.122   1.172   0.910   0.562   0.433   0.520   0.577   0.494   0.426   0.494
   0.577   0.520   0.433   0.562   0.910   1.172   1.122   0.922   0.911   1.190
   1.540   1.726   1.736   1.712   1.743   1.804   1.834   1.804   1.743   1.712
   1.736   1.726   1.540   1.190   0.911   0.922   1.122   1.172   0.910   0.562
   0.433   0.520   0.577   0.494   0.426   0.494   0.577   0.520   0.433   0.562
   0.910   1.172   1.122   0.922   0.911   1.190   1.540   1.726   1.736   1.712
   1.743   1.804
TEXTURE_INDEX=   2.5181
ERR_CF 220         1080     544   25.80   19.63
ERR_CF 200         1080     592   16.02   12.33
ERR_CF 111         1080     338   34.16   11.31
