TEXEVAL                                                                         
Analysis started on 08-Aug-19 08:24:59                                          
 LMAX=14LFMAX=03 CUBIC ORTHO   
 220      5.00 5.00
 200      5.00 5.00
 111      5.00 5.00
 220       5.00   72    0 5.00   15    0
   2.225   2.225   2.225   2.225   2.225   2.225   2.225   2.225   2.225   2.225
   2.225   2.225   2.225   2.225   2.225   2.225   2.225   2.225   2.225   2.225
   2.225   2.225   2.225   2.225   2.225   2.225   2.225   2.225   2.225   2.225
   2.225   2.225   2.225   2.225   2.225   2.225   2.225   2.225   2.225   2.225
   2.225   2.225   2.225   2.225   2.225   2.225   2.225   2.225   2.225   2.225
   2.225   2.225   2.225   2.225   2.225   2.225   2.225   2.225   2.225   2.225
   2.225   2.225   2.225   2.225   2.225   2.225   2.225   2.225   2.225   2.225
   2.225   2.225
   1.089   1.017   1.007   1.065   1.057   1.063   1.162   1.126   1.283   1.345
   1.266   1.626   1.793   2.028   2.132   2.195   2.623   2.574   2.871   2.574
   2.623   2.195   2.132   2.028   1.793   1.626   1.266   1.345   1.283   1.126
   1.162   1.063   1.057   1.065   1.007   1.017   1.089   1.017   1.007   1.065
   1.057   1.063   1.162   1.126   1.283   1.345   1.266   1.626   1.793   2.028
   2.132   2.195   2.623   2.574   2.871   2.574   2.623   2.195   2.132   2.028
   1.793   1.626   1.266   1.345   1.283   1.126   1.162   1.063   1.057   1.065
   1.007   1.017
   0.977   0.958   0.693   0.726   0.735   0.790   0.853   1.162   0.969   0.963
   1.124   1.074   1.207   1.420   1.720   1.965   2.313   2.841   2.643   2.841
   2.313   1.965   1.720   1.420   1.207   1.074   1.124   0.963   0.969   1.162
   0.853   0.790   0.735   0.726   0.693   0.958   0.977   0.958   0.693   0.726
   0.735   0.790   0.853   1.162   0.969   0.963   1.124   1.074   1.207   1.420
   1.720   1.965   2.313   2.841   2.643   2.841   2.313   1.965   1.720   1.420
   1.207   1.074   1.124   0.963   0.969   1.162   0.853   0.790   0.735   0.726
   0.693   0.958
   0.910   0.913   0.806   0.675   0.627   0.844   0.688   1.152   0.889   0.785
   1.221   0.820   0.845   1.038   1.245   1.597   2.047   2.593   2.212   2.593
   2.047   1.597   1.245   1.038   0.845   0.820   1.221   0.785   0.889   1.152
   0.688   0.844   0.627   0.675   0.806   0.913   0.910   0.913   0.806   0.675
   0.627   0.844   0.688   1.152   0.889   0.785   1.221   0.820   0.845   1.038
   1.245   1.597   2.047   2.593   2.212   2.593   2.047   1.597   1.245   1.038
   0.845   0.820   1.221   0.785   0.889   1.152   0.688   0.844   0.627   0.675
   0.806   0.913
   0.617   0.519   0.710   0.778   0.678   0.974   0.671   0.672   0.517   0.678
   0.808   0.737   0.701   0.997   1.512   1.441   1.632   1.740   1.623   1.740
   1.632   1.441   1.512   0.997   0.701   0.737   0.808   0.678   0.517   0.672
   0.671   0.974   0.678   0.778   0.710   0.519   0.617   0.519   0.710   0.778
   0.678   0.974   0.671   0.672   0.517   0.678   0.808   0.737   0.701   0.997
   1.512   1.441   1.632   1.740   1.623   1.740   1.632   1.441   1.512   0.997
   0.701   0.737   0.808   0.678   0.517   0.672   0.671   0.974   0.678   0.778
   0.710   0.519
   0.495   0.311   0.803   1.050   0.795   0.983   0.857   0.571   0.550   0.735
   0.588   0.959   1.212   1.250   1.586   1.532   1.619   1.611   1.349   1.611
   1.619   1.532   1.586   1.250   1.212   0.959   0.588   0.735   0.550   0.571
   0.857   0.983   0.795   1.050   0.803   0.311   0.495   0.311   0.803   1.050
   0.795   0.983   0.857   0.571   0.550   0.735   0.588   0.959   1.212   1.250
   1.586   1.532   1.619   1.611   1.349   1.611   1.619   1.532   1.586   1.250
   1.212   0.959   0.588   0.735   0.550   0.571   0.857   0.983   0.795   1.050
   0.803   0.311
   0.493   0.248   1.001   0.890   0.682   0.802   0.690   0.442   0.603   0.708
   0.630   1.184   1.098   0.812   1.065   1.121   1.378   1.308   0.923   1.308
   1.378   1.121   1.065   0.812   1.098   1.184   0.630   0.708   0.603   0.442
   0.690   0.802   0.682   0.890   1.001   0.248   0.493   0.248   1.001   0.890
   0.682   0.802   0.690   0.442   0.603   0.708   0.630   1.184   1.098   0.812
   1.065   1.121   1.378   1.308   0.923   1.308   1.378   1.121   1.065   0.812
   1.098   1.184   0.630   0.708   0.603   0.442   0.690   0.802   0.682   0.890
   1.001   0.248
   0.730   0.581   1.085   0.563   0.325   0.486   0.475   0.295   0.436   0.717
   0.437   0.680   0.730   0.537   0.971   0.667   0.632   0.798   0.622   0.798
   0.632   0.667   0.971   0.537   0.730   0.680   0.437   0.717   0.436   0.295
   0.475   0.486   0.325   0.563   1.085   0.581   0.730   0.581   1.085   0.563
   0.325   0.486   0.475   0.295   0.436   0.717   0.437   0.680   0.730   0.537
   0.971   0.667   0.632   0.798   0.622   0.798   0.632   0.667   0.971   0.537
   0.730   0.680   0.437   0.717   0.436   0.295   0.475   0.486   0.325   0.563
   1.085   0.581
   1.024   0.964   0.760   1.117   0.446   0.267   0.350   0.440   0.514   0.607
   0.549   0.416   0.785   1.068   0.745   0.733   1.077   0.691   1.433   0.691
   1.077   0.733   0.745   1.068   0.785   0.416   0.549   0.607   0.514   0.440
   0.350   0.267   0.446   1.117   0.760   0.964   1.024   0.964   0.760   1.117
   0.446   0.267   0.350   0.440   0.514   0.607   0.549   0.416   0.785   1.068
   0.745   0.733   1.077   0.691   1.433   0.691   1.077   0.733   0.745   1.068
   0.785   0.416   0.549   0.607   0.514   0.440   0.350   0.267   0.446   1.117
   0.760   0.964
   1.267   0.843   1.231   1.850   0.718   1.054   0.442   0.476   0.659   0.560
   1.038   0.810   0.724   0.903   1.108   0.966   1.088   0.802   1.350   0.802
   1.088   0.966   1.108   0.903   0.724   0.810   1.038   0.560   0.659   0.476
   0.442   1.054   0.718   1.850   1.231   0.843   1.267   0.843   1.231   1.850
   0.718   1.054   0.442   0.476   0.659   0.560   1.038   0.810   0.724   0.903
   1.108   0.966   1.088   0.802   1.350   0.802   1.088   0.966   1.108   0.903
   0.724   0.810   1.038   0.560   0.659   0.476   0.442   1.054   0.718   1.850
   1.231   0.843
   1.622   1.312   1.811   1.615   1.580   1.801   0.785   0.918   0.716   0.634
   1.435   1.029   0.842   1.328   1.663   1.337   1.044   1.487   0.728   1.487
   1.044   1.337   1.663   1.328   0.842   1.029   1.435   0.634   0.716   0.918
   0.785   1.801   1.580   1.615   1.811   1.312   1.622   1.312   1.811   1.615
   1.580   1.801   0.785   0.918   0.716   0.634   1.435   1.029   0.842   1.328
   1.663   1.337   1.044   1.487   0.728   1.487   1.044   1.337   1.663   1.328
   0.842   1.029   1.435   0.634   0.716   0.918   0.785   1.801   1.580   1.615
   1.811   1.312
   2.424   2.754   1.609   1.265   1.864   1.371   0.791   1.519   0.459   0.378
   1.529   0.997   1.077   1.941   1.054   0.877   1.104   1.039   0.353   1.039
   1.104   0.877   1.054   1.941   1.077   0.997   1.529   0.378   0.459   1.519
   0.791   1.371   1.864   1.265   1.609   2.754   2.424   2.754   1.609   1.265
   1.864   1.371   0.791   1.519   0.459   0.378   1.529   0.997   1.077   1.941
   1.054   0.877   1.104   1.039   0.353   1.039   1.104   0.877   1.054   1.941
   1.077   0.997   1.529   0.378   0.459   1.519   0.791   1.371   1.864   1.265
   1.609   2.754
   1.541   2.881   1.519   0.994   1.063   0.743   0.430   1.159   0.317   0.180
   0.740   0.703   1.142   1.519   0.732   0.078   0.452   0.417   0.404   0.417
   0.452   0.078   0.732   1.519   1.142   0.703   0.740   0.180   0.317   1.159
   0.430   0.743   1.063   0.994   1.519   2.881   1.541   2.881   1.519   0.994
   1.063   0.743   0.430   1.159   0.317   0.180   0.740   0.703   1.142   1.519
   0.732   0.078   0.452   0.417   0.404   0.417   0.452   0.078   0.732   1.519
   1.142   0.703   0.740   0.180   0.317   1.159   0.430   0.743   1.063   0.994
   1.519   2.881
   0.909   1.674   1.260   1.224   0.758   0.225   1.087   0.372   1.233   1.517
   1.126   1.242   0.887   1.859   1.417   1.689   0.760   0.694   0.949   0.694
   0.760   1.689   1.417   1.859   0.887   1.242   1.126   1.517   1.233   0.372
   1.087   0.225   0.758   1.224   1.260   1.674   0.909   1.674   1.260   1.224
   0.758   0.225   1.087   0.372   1.233   1.517   1.126   1.242   0.887   1.859
   1.417   1.689   0.760   0.694   0.949   0.694   0.760   1.689   1.417   1.859
   0.887   1.242   1.126   1.517   1.233   0.372   1.087   0.225   0.758   1.224
   1.260   1.674
   0.983   1.119   1.330   1.402   0.872   0.273   0.940   1.557   1.595   1.702
   1.284   1.021   1.278   1.615   1.254   1.689   1.131   0.724   1.063   0.724
   1.131   1.689   1.254   1.615   1.278   1.021   1.284   1.702   1.595   1.557
   0.940   0.273   0.872   1.402   1.330   1.119   0.983   1.119   1.330   1.402
   0.872   0.273   0.940   1.557   1.595   1.702   1.284   1.021   1.278   1.615
   1.254   1.689   1.131   0.724   1.063   0.724   1.131   1.689   1.254   1.615
   1.278   1.021   1.284   1.702   1.595   1.557   0.940   0.273   0.872   1.402
   1.330   1.119
 200       5.00   72    0 5.00   15    0
   0.887   0.887   0.887   0.887   0.887   0.887   0.887   0.887   0.887   0.887
   0.887   0.887   0.887   0.887   0.887   0.887   0.887   0.887   0.887   0.887
   0.887   0.887   0.887   0.887   0.887   0.887   0.887   0.887   0.887   0.887
   0.887   0.887   0.887   0.887   0.887   0.887   0.887   0.887   0.887   0.887
   0.887   0.887   0.887   0.887   0.887   0.887   0.887   0.887   0.887   0.887
   0.887   0.887   0.887   0.887   0.887   0.887   0.887   0.887   0.887   0.887
   0.887   0.887   0.887   0.887   0.887   0.887   0.887   0.887   0.887   0.887
   0.887   0.887
   1.130   0.929   0.948   1.138   1.119   1.038   1.094   1.050   1.016   1.325
   1.192   1.076   1.056   1.105   1.037   1.073   0.973   0.843   0.741   0.843
   0.973   1.073   1.037   1.105   1.056   1.076   1.192   1.325   1.016   1.050
   1.094   1.038   1.119   1.138   0.948   0.929   1.130   0.929   0.948   1.138
   1.119   1.038   1.094   1.050   1.016   1.325   1.192   1.076   1.056   1.105
   1.037   1.073   0.973   0.843   0.741   0.843   0.973   1.073   1.037   1.105
   1.056   1.076   1.192   1.325   1.016   1.050   1.094   1.038   1.119   1.138
   0.948   0.929
   1.230   1.058   1.113   1.414   1.332   1.206   1.192   1.110   0.974   1.481
   1.484   1.265   1.206   1.297   1.314   1.184   1.078   1.086   0.854   1.086
   1.078   1.184   1.314   1.297   1.206   1.265   1.484   1.481   0.974   1.110
   1.192   1.206   1.332   1.414   1.113   1.058   1.230   1.058   1.113   1.414
   1.332   1.206   1.192   1.110   0.974   1.481   1.484   1.265   1.206   1.297
   1.314   1.184   1.078   1.086   0.854   1.086   1.078   1.184   1.314   1.297
   1.206   1.265   1.484   1.481   0.974   1.110   1.192   1.206   1.332   1.414
   1.113   1.058
   1.202   1.538   1.681   1.539   1.286   0.995   0.991   0.782   1.061   1.457
   1.528   1.534   1.272   1.309   1.398   1.231   1.088   1.053   1.120   1.053
   1.088   1.231   1.398   1.309   1.272   1.534   1.528   1.457   1.061   0.782
   0.991   0.995   1.286   1.539   1.681   1.538   1.202   1.538   1.681   1.539
   1.286   0.995   0.991   0.782   1.061   1.457   1.528   1.534   1.272   1.309
   1.398   1.231   1.088   1.053   1.120   1.053   1.088   1.231   1.398   1.309
   1.272   1.534   1.528   1.457   1.061   0.782   0.991   0.995   1.286   1.539
   1.681   1.538
   1.558   1.465   1.503   1.206   0.896   0.892   0.800   0.811   1.052   1.093
   1.192   1.262   1.169   1.461   1.451   1.085   0.859   1.012   0.990   1.012
   0.859   1.085   1.451   1.461   1.169   1.262   1.192   1.093   1.052   0.811
   0.800   0.892   0.896   1.206   1.503   1.465   1.558   1.465   1.503   1.206
   0.896   0.892   0.800   0.811   1.052   1.093   1.192   1.262   1.169   1.461
   1.451   1.085   0.859   1.012   0.990   1.012   0.859   1.085   1.451   1.461
   1.169   1.262   1.192   1.093   1.052   0.811   0.800   0.892   0.896   1.206
   1.503   1.465
   2.199   1.320   1.315   0.943   0.975   1.092   1.129   1.192   1.075   0.913
   1.058   1.005   1.189   1.321   1.154   1.023   0.853   1.172   1.190   1.172
   0.853   1.023   1.154   1.321   1.189   1.005   1.058   0.913   1.075   1.192
   1.129   1.092   0.975   0.943   1.315   1.320   2.199   1.320   1.315   0.943
   0.975   1.092   1.129   1.192   1.075   0.913   1.058   1.005   1.189   1.321
   1.154   1.023   0.853   1.172   1.190   1.172   0.853   1.023   1.154   1.321
   1.189   1.005   1.058   0.913   1.075   1.192   1.129   1.092   0.975   0.943
   1.315   1.320
   1.571   0.936   1.119   0.830   0.955   1.002   1.337   1.074   1.417   1.309
   1.209   1.182   0.866   1.170   0.915   0.952   0.827   0.861   0.977   0.861
   0.827   0.952   0.915   1.170   0.866   1.182   1.209   1.309   1.417   1.074
   1.337   1.002   0.955   0.830   1.119   0.936   1.571   0.936   1.119   0.830
   0.955   1.002   1.337   1.074   1.417   1.309   1.209   1.182   0.866   1.170
   0.915   0.952   0.827   0.861   0.977   0.861   0.827   0.952   0.915   1.170
   0.866   1.182   1.209   1.309   1.417   1.074   1.337   1.002   0.955   0.830
   1.119   0.936
   0.797   0.265   0.524   0.534   0.565   0.657   0.815   0.578   1.766   1.468
   1.524   1.531   0.983   1.176   1.266   0.923   0.550   0.617   0.341   0.617
   0.550   0.923   1.266   1.176   0.983   1.531   1.524   1.468   1.766   0.578
   0.815   0.657   0.565   0.534   0.524   0.265   0.797   0.265   0.524   0.534
   0.565   0.657   0.815   0.578   1.766   1.468   1.524   1.531   0.983   1.176
   1.266   0.923   0.550   0.617   0.341   0.617   0.550   0.923   1.266   1.176
   0.983   1.531   1.524   1.468   1.766   0.578   0.815   0.657   0.565   0.534
   0.524   0.265
   0.762   0.294   0.572   0.325   0.634   0.717   0.833   0.557   1.472   1.480
   1.398   1.919   1.569   1.124   1.238   1.159   0.580   0.717   0.678   0.717
   0.580   1.159   1.238   1.124   1.569   1.919   1.398   1.480   1.472   0.557
   0.833   0.717   0.634   0.325   0.572   0.294   0.762   0.294   0.572   0.325
   0.634   0.717   0.833   0.557   1.472   1.480   1.398   1.919   1.569   1.124
   1.238   1.159   0.580   0.717   0.678   0.717   0.580   1.159   1.238   1.124
   1.569   1.919   1.398   1.480   1.472   0.557   0.833   0.717   0.634   0.325
   0.572   0.294
   0.433   0.353   0.387   0.667   0.730   0.892   1.050   0.885   0.682   1.146
   1.070   1.655   1.340   1.065   0.847   1.075   0.536   0.578   0.764   0.578
   0.536   1.075   0.847   1.065   1.340   1.655   1.070   1.146   0.682   0.885
   1.050   0.892   0.730   0.667   0.387   0.353   0.433   0.353   0.387   0.667
   0.730   0.892   1.050   0.885   0.682   1.146   1.070   1.655   1.340   1.065
   0.847   1.075   0.536   0.578   0.764   0.578   0.536   1.075   0.847   1.065
   1.340   1.655   1.070   1.146   0.682   0.885   1.050   0.892   0.730   0.667
   0.387   0.353
   0.209   0.415   0.284   0.844   0.455   0.806   0.787   0.760   0.893   1.182
   1.124   1.009   1.900   1.177   0.819   1.361   0.799   0.561   0.733   0.561
   0.799   1.361   0.819   1.177   1.900   1.009   1.124   1.182   0.893   0.760
   0.787   0.806   0.455   0.844   0.284   0.415   0.209   0.415   0.284   0.844
   0.455   0.806   0.787   0.760   0.893   1.182   1.124   1.009   1.900   1.177
   0.819   1.361   0.799   0.561   0.733   0.561   0.799   1.361   0.819   1.177
   1.900   1.009   1.124   1.182   0.893   0.760   0.787   0.806   0.455   0.844
   0.284   0.415
   0.391   0.453   0.506   0.440   0.329   0.441   0.757   0.754   1.142   0.889
   1.257   1.397   2.245   1.339   0.783   1.751   1.214   0.657   0.488   0.657
   1.214   1.751   0.783   1.339   2.245   1.397   1.257   0.889   1.142   0.754
   0.757   0.441   0.329   0.440   0.506   0.453   0.391   0.453   0.506   0.440
   0.329   0.441   0.757   0.754   1.142   0.889   1.257   1.397   2.245   1.339
   0.783   1.751   1.214   0.657   0.488   0.657   1.214   1.751   0.783   1.339
   2.245   1.397   1.257   0.889   1.142   0.754   0.757   0.441   0.329   0.440
   0.506   0.453
   0.275   0.615   0.448   0.446   0.217   0.234   0.882   1.120   0.749   0.376
   1.286   1.934   1.111   0.889   0.667   0.891   1.030   0.544   0.404   0.544
   1.030   0.891   0.667   0.889   1.111   1.934   1.286   0.376   0.749   1.120
   0.882   0.234   0.217   0.446   0.448   0.615   0.275   0.615   0.448   0.446
   0.217   0.234   0.882   1.120   0.749   0.376   1.286   1.934   1.111   0.889
   0.667   0.891   1.030   0.544   0.404   0.544   1.030   0.891   0.667   0.889
   1.111   1.934   1.286   0.376   0.749   1.120   0.882   0.234   0.217   0.446
   0.448   0.615
   0.062   0.714   0.582   0.401   0.855   0.184   0.758   1.528   0.876   1.121
   1.254   1.061   0.830   0.935   0.590   0.260   1.138   0.677   0.465   0.677
   1.138   0.260   0.590   0.935   0.830   1.061   1.254   1.121   0.876   1.528
   0.758   0.184   0.855   0.401   0.582   0.714   0.062   0.714   0.582   0.401
   0.855   0.184   0.758   1.528   0.876   1.121   1.254   1.061   0.830   0.935
   0.590   0.260   1.138   0.677   0.465   0.677   1.138   0.260   0.590   0.935
   0.830   1.061   1.254   1.121   0.876   1.528   0.758   0.184   0.855   0.401
   0.582   0.714
   1.236   0.545   0.697   0.520   1.308   0.850   1.163   1.798   0.789   1.492
   1.529   0.826   1.144   1.609   0.735   0.979   1.272   0.667   0.441   0.667
   1.272   0.979   0.735   1.609   1.144   0.826   1.529   1.492   0.789   1.798
   1.163   0.850   1.308   0.520   0.697   0.545   1.236   0.545   0.697   0.520
   1.308   0.850   1.163   1.798   0.789   1.492   1.529   0.826   1.144   1.609
   0.735   0.979   1.272   0.667   0.441   0.667   1.272   0.979   0.735   1.609
   1.144   0.826   1.529   1.492   0.789   1.798   1.163   0.850   1.308   0.520
   0.697   0.545
 111       5.00   72    0 5.00   15    0
   0.781   0.781   0.781   0.781   0.781   0.781   0.781   0.781   0.781   0.781
   0.781   0.781   0.781   0.781   0.781   0.781   0.781   0.781   0.781   0.781
   0.781   0.781   0.781   0.781   0.781   0.781   0.781   0.781   0.781   0.781
   0.781   0.781   0.781   0.781   0.781   0.781   0.781   0.781   0.781   0.781
   0.781   0.781   0.781   0.781   0.781   0.781   0.781   0.781   0.781   0.781
   0.781   0.781   0.781   0.781   0.781   0.781   0.781   0.781   0.781   0.781
   0.781   0.781   0.781   0.781   0.781   0.781   0.781   0.781   0.781   0.781
   0.781   0.781
   1.273   1.049   0.972   0.799   0.753   0.816   0.881   0.752   0.717   0.680
   0.689   0.740   0.791   0.726   0.635   0.687   0.546   0.641   0.707   0.641
   0.546   0.687   0.635   0.726   0.791   0.740   0.689   0.680   0.717   0.752
   0.881   0.816   0.753   0.799   0.972   1.049   1.273   1.049   0.972   0.799
   0.753   0.816   0.881   0.752   0.717   0.680   0.689   0.740   0.791   0.726
   0.635   0.687   0.546   0.641   0.707   0.641   0.546   0.687   0.635   0.726
   0.791   0.740   0.689   0.680   0.717   0.752   0.881   0.816   0.753   0.799
   0.972   1.049
   1.131   1.007   0.812   0.701   0.755   0.887   0.730   0.710   0.737   0.729
   0.745   0.665   0.930   0.627   0.579   0.656   0.593   0.616   0.648   0.616
   0.593   0.656   0.579   0.627   0.930   0.665   0.745   0.729   0.737   0.710
   0.730   0.887   0.755   0.701   0.812   1.007   1.131   1.007   0.812   0.701
   0.755   0.887   0.730   0.710   0.737   0.729   0.745   0.665   0.930   0.627
   0.579   0.656   0.593   0.616   0.648   0.616   0.593   0.656   0.579   0.627
   0.930   0.665   0.745   0.729   0.737   0.710   0.730   0.887   0.755   0.701
   0.812   1.007
   1.070   1.127   0.907   0.771   0.807   0.785   0.640   0.607   0.718   0.669
   0.754   0.654   0.816   0.571   0.744   0.594   0.574   0.600   0.451   0.600
   0.574   0.594   0.744   0.571   0.816   0.654   0.754   0.669   0.718   0.607
   0.640   0.785   0.807   0.771   0.907   1.127   1.070   1.127   0.907   0.771
   0.807   0.785   0.640   0.607   0.718   0.669   0.754   0.654   0.816   0.571
   0.744   0.594   0.574   0.600   0.451   0.600   0.574   0.594   0.744   0.571
   0.816   0.654   0.754   0.669   0.718   0.607   0.640   0.785   0.807   0.771
   0.907   1.127
   1.731   1.518   1.685   1.125   1.150   1.024   0.969   0.651   0.773   0.720
   0.717   0.617   0.717   0.455   0.694   0.445   0.468   0.531   0.413   0.531
   0.468   0.445   0.694   0.455   0.717   0.617   0.717   0.720   0.773   0.651
   0.969   1.024   1.150   1.125   1.685   1.518   1.731   1.518   1.685   1.125
   1.150   1.024   0.969   0.651   0.773   0.720   0.717   0.617   0.717   0.455
   0.694   0.445   0.468   0.531   0.413   0.531   0.468   0.445   0.694   0.455
   0.717   0.617   0.717   0.720   0.773   0.651   0.969   1.024   1.150   1.125
   1.685   1.518
   2.264   2.539   2.698   1.994   2.049   1.946   1.667   1.419   1.078   0.901
   0.793   0.731   0.686   0.348   0.392   0.437   0.661   0.648   0.807   0.648
   0.661   0.437   0.392   0.348   0.686   0.731   0.793   0.901   1.078   1.419
   1.667   1.946   2.049   1.994   2.698   2.539   2.264   2.539   2.698   1.994
   2.049   1.946   1.667   1.419   1.078   0.901   0.793   0.731   0.686   0.348
   0.392   0.437   0.661   0.648   0.807   0.648   0.661   0.437   0.392   0.348
   0.686   0.731   0.793   0.901   1.078   1.419   1.667   1.946   2.049   1.994
   2.698   2.539
   2.418   2.534   2.312   2.214   2.350   2.363   2.084   1.876   1.583   0.956
   1.028   0.919   0.767   0.454   0.470   0.611   0.767   0.805   0.953   0.805
   0.767   0.611   0.470   0.454   0.767   0.919   1.028   0.956   1.583   1.876
   2.084   2.363   2.350   2.214   2.312   2.534   2.418   2.534   2.312   2.214
   2.350   2.363   2.084   1.876   1.583   0.956   1.028   0.919   0.767   0.454
   0.470   0.611   0.767   0.805   0.953   0.805   0.767   0.611   0.470   0.454
   0.767   0.919   1.028   0.956   1.583   1.876   2.084   2.363   2.350   2.214
   2.312   2.534
   2.194   1.587   1.455   1.602   1.754   2.115   1.906   1.802   1.723   1.344
   1.338   1.110   1.018   0.661   0.653   0.924   0.961   0.684   0.821   0.684
   0.961   0.924   0.653   0.661   1.018   1.110   1.338   1.344   1.723   1.802
   1.906   2.115   1.754   1.602   1.455   1.587   2.194   1.587   1.455   1.602
   1.754   2.115   1.906   1.802   1.723   1.344   1.338   1.110   1.018   0.661
   0.653   0.924   0.961   0.684   0.821   0.684   0.961   0.924   0.653   0.661
   1.018   1.110   1.338   1.344   1.723   1.802   1.906   2.115   1.754   1.602
   1.455   1.587
   1.490   1.216   1.170   1.069   1.086   1.667   1.586   1.854   1.708   1.535
   1.398   1.290   0.869   0.721   0.745   0.849   1.060   0.613   0.892   0.613
   1.060   0.849   0.745   0.721   0.869   1.290   1.398   1.535   1.708   1.854
   1.586   1.667   1.086   1.069   1.170   1.216   1.490   1.216   1.170   1.069
   1.086   1.667   1.586   1.854   1.708   1.535   1.398   1.290   0.869   0.721
   0.745   0.849   1.060   0.613   0.892   0.613   1.060   0.849   0.745   0.721
   0.869   1.290   1.398   1.535   1.708   1.854   1.586   1.667   1.086   1.069
   1.170   1.216
   1.065   0.767   1.178   1.124   0.784   1.233   1.346   1.648   1.540   1.462
   1.154   1.146   1.106   1.314   0.966   0.748   1.097   0.549   0.705   0.549
   1.097   0.748   0.966   1.314   1.106   1.146   1.154   1.462   1.540   1.648
   1.346   1.233   0.784   1.124   1.178   0.767   1.065   0.767   1.178   1.124
   0.784   1.233   1.346   1.648   1.540   1.462   1.154   1.146   1.106   1.314
   0.966   0.748   1.097   0.549   0.705   0.549   1.097   0.748   0.966   1.314
   1.106   1.146   1.154   1.462   1.540   1.648   1.346   1.233   0.784   1.124
   1.178   0.767
   0.946   0.460   0.941   1.152   0.930   0.909   0.788   1.042   0.988   1.110
   1.006   0.802   1.130   1.459   1.373   1.006   1.369   0.556   1.173   0.556
   1.369   1.006   1.373   1.459   1.130   0.802   1.006   1.110   0.988   1.042
   0.788   0.909   0.930   1.152   0.941   0.460   0.946   0.460   0.941   1.152
   0.930   0.909   0.788   1.042   0.988   1.110   1.006   0.802   1.130   1.459
   1.373   1.006   1.369   0.556   1.173   0.556   1.369   1.006   1.373   1.459
   1.130   0.802   1.006   1.110   0.988   1.042   0.788   0.909   0.930   1.152
   0.941   0.460
   0.797   0.373   0.616   0.877   0.790   0.445   0.514   0.629   0.674   0.675
   0.882   0.941   0.834   0.913   1.263   0.809   1.337   0.686   1.166   0.686
   1.337   0.809   1.263   0.913   0.834   0.941   0.882   0.675   0.674   0.629
   0.514   0.445   0.790   0.877   0.616   0.373   0.797   0.373   0.616   0.877
   0.790   0.445   0.514   0.629   0.674   0.675   0.882   0.941   0.834   0.913
   1.263   0.809   1.337   0.686   1.166   0.686   1.337   0.809   1.263   0.913
   0.834   0.941   0.882   0.675   0.674   0.629   0.514   0.445   0.790   0.877
   0.616   0.373
   0.697   0.505   0.667   0.747   0.383   0.214   0.876   0.736   0.504   0.611
   0.730   0.884   1.036   0.803   0.783   0.891   0.875   0.877   0.731   0.877
   0.875   0.891   0.783   0.803   1.036   0.884   0.730   0.611   0.504   0.736
   0.876   0.214   0.383   0.747   0.667   0.505   0.697   0.505   0.667   0.747
   0.383   0.214   0.876   0.736   0.504   0.611   0.730   0.884   1.036   0.803
   0.783   0.891   0.875   0.877   0.731   0.877   0.875   0.891   0.783   0.803
   1.036   0.884   0.730   0.611   0.504   0.736   0.876   0.214   0.383   0.747
   0.667   0.505
   0.556   1.523   0.912   0.785   0.623   0.442   1.282   0.449   0.555   0.850
   0.733   0.913   0.911   0.806   0.722   0.808   0.482   1.621   1.549   1.621
   0.482   0.808   0.722   0.806   0.911   0.913   0.733   0.850   0.555   0.449
   1.282   0.442   0.623   0.785   0.912   1.523   0.556   1.523   0.912   0.785
   0.623   0.442   1.282   0.449   0.555   0.850   0.733   0.913   0.911   0.806
   0.722   0.808   0.482   1.621   1.549   1.621   0.482   0.808   0.722   0.806
   0.911   0.913   0.733   0.850   0.555   0.449   1.282   0.442   0.623   0.785
   0.912   1.523
   0.296   2.182   0.976   0.952   0.910   0.614   1.062   0.322   0.852   1.064
   1.090   1.098   0.380   0.681   0.583   0.647   0.676   1.638   1.651   1.638
   0.676   0.647   0.583   0.681   0.380   1.098   1.090   1.064   0.852   0.322
   1.062   0.614   0.910   0.952   0.976   2.182   0.296   2.182   0.976   0.952
   0.910   0.614   1.062   0.322   0.852   1.064   1.090   1.098   0.380   0.681
   0.583   0.647   0.676   1.638   1.651   1.638   0.676   0.647   0.583   0.681
   0.380   1.098   1.090   1.064   0.852   0.322   1.062   0.614   0.910   0.952
   0.976   2.182
  4  1      3.4742490E-01
  4  2     -5.7276976E-01
  4  3     -6.7906501E-01
  6  1      9.3358516E-01
  6  2     -1.1216210E+00
  6  3      6.5707269E-01
  6  4      5.7642246E-01
  8  1      1.1152365E-01
  8  2     -1.2383490E-01
  8  3     -8.3456170E-02
  8  4      7.3106692E-01
  8  5      8.9064705E-02
 10  1      3.9135682E-01
 10  2     -3.1378224E-01
 10  3      2.1034460E-01
 10  4     -3.5083704E-01
 10  5      1.4761206E-01
 10  6     -7.3488179E-01
 12  1     -9.3461238E-02  2.2362988E-03
 12  2      1.3811556E-01 -6.1986152E-01
 12  3      1.3186758E-01  7.2633036E-01
 12  4      1.4714110E-01 -1.4567842E-01
 12  5     -4.7617090E-02 -4.2688824E-01
 12  6     -3.2538949E-01  2.3074672E-01
 12  7      1.3617451E-01 -1.8796673E-01
 14  1      1.2300189E-01
 14  2      6.4890726E-03
 14  3     -7.7412950E-02
 14  4      5.1763213E-02
 14  5     -2.8333149E-01
 14  6     -2.5410819E-01
 14  7     -1.7571028E-01
 14  8     -4.0673816E-01
 220       5.00   72    0 5.00   18    0
   1.543   1.544   1.545   1.547   1.550   1.553   1.557   1.561   1.566   1.571
   1.576   1.580   1.585   1.589   1.592   1.595   1.597   1.598   1.599   1.598
   1.597   1.595   1.592   1.589   1.585   1.580   1.576   1.571   1.566   1.561
   1.557   1.553   1.550   1.547   1.545   1.544   1.543   1.544   1.545   1.547
   1.550   1.553   1.557   1.561   1.566   1.571   1.576   1.580   1.585   1.589
   1.592   1.595   1.597   1.598   1.599   1.598   1.597   1.595   1.592   1.589
   1.585   1.580   1.576   1.571   1.566   1.561   1.557   1.553   1.550   1.547
   1.545   1.544
   1.235   1.238   1.246   1.260   1.280   1.304   1.332   1.364   1.399   1.436
   1.473   1.511   1.546   1.579   1.607   1.631   1.649   1.659   1.663   1.659
   1.649   1.631   1.607   1.579   1.546   1.511   1.473   1.436   1.399   1.364
   1.332   1.304   1.280   1.260   1.246   1.238   1.235   1.238   1.246   1.260
   1.280   1.304   1.332   1.364   1.399   1.436   1.473   1.511   1.546   1.579
   1.607   1.631   1.649   1.659   1.663   1.659   1.649   1.631   1.607   1.579
   1.546   1.511   1.473   1.436   1.399   1.364   1.332   1.304   1.280   1.260
   1.246   1.238
   0.850   0.854   0.867   0.889   0.919   0.958   1.007   1.065   1.131   1.204
   1.282   1.363   1.443   1.519   1.587   1.645   1.688   1.715   1.724   1.715
   1.688   1.645   1.587   1.519   1.443   1.363   1.282   1.204   1.131   1.065
   1.007   0.958   0.919   0.889   0.867   0.854   0.850   0.854   0.867   0.889
   0.919   0.958   1.007   1.065   1.131   1.204   1.282   1.363   1.443   1.519
   1.587   1.645   1.688   1.715   1.724   1.715   1.688   1.645   1.587   1.519
   1.443   1.363   1.282   1.204   1.131   1.065   1.007   0.958   0.919   0.889
   0.867   0.854
   0.636   0.638   0.644   0.654   0.672   0.698   0.737   0.789   0.856   0.940
   1.037   1.146   1.261   1.374   1.480   1.571   1.641   1.685   1.700   1.685
   1.641   1.571   1.480   1.374   1.261   1.146   1.037   0.940   0.856   0.789
   0.737   0.698   0.672   0.654   0.644   0.638   0.636   0.638   0.644   0.654
   0.672   0.698   0.737   0.789   0.856   0.940   1.037   1.146   1.261   1.374
   1.480   1.571   1.641   1.685   1.700   1.685   1.641   1.571   1.480   1.374
   1.261   1.146   1.037   0.940   0.856   0.789   0.737   0.698   0.672   0.654
   0.644   0.638
   0.643   0.641   0.634   0.624   0.612   0.603   0.602   0.616   0.651   0.712
   0.799   0.910   1.036   1.167   1.293   1.402   1.487   1.540   1.558   1.540
   1.487   1.402   1.293   1.167   1.036   0.910   0.799   0.712   0.651   0.616
   0.602   0.603   0.612   0.624   0.634   0.641   0.643   0.641   0.634   0.624
   0.612   0.603   0.602   0.616   0.651   0.712   0.799   0.910   1.036   1.167
   1.293   1.402   1.487   1.540   1.558   1.540   1.487   1.402   1.293   1.167
   1.036   0.910   0.799   0.712   0.651   0.616   0.602   0.603   0.612   0.624
   0.634   0.641
   0.718   0.716   0.709   0.693   0.666   0.629   0.589   0.559   0.551   0.577
   0.640   0.737   0.857   0.984   1.104   1.206   1.281   1.326   1.342   1.326
   1.281   1.206   1.104   0.984   0.857   0.737   0.640   0.577   0.551   0.559
   0.589   0.629   0.666   0.693   0.709   0.716   0.718   0.716   0.709   0.693
   0.666   0.629   0.589   0.559   0.551   0.577   0.640   0.737   0.857   0.984
   1.104   1.206   1.281   1.326   1.342   1.326   1.281   1.206   1.104   0.984
   0.857   0.737   0.640   0.577   0.551   0.559   0.589   0.629   0.666   0.693
   0.709   0.716
   0.709   0.715   0.730   0.739   0.729   0.694   0.640   0.585   0.550   0.555
   0.607   0.697   0.808   0.919   1.011   1.074   1.110   1.126   1.130   1.126
   1.110   1.074   1.011   0.919   0.808   0.697   0.607   0.555   0.550   0.585
   0.640   0.694   0.729   0.739   0.730   0.715   0.709   0.715   0.730   0.739
   0.729   0.694   0.640   0.585   0.550   0.555   0.607   0.697   0.808   0.919
   1.011   1.074   1.110   1.126   1.130   1.126   1.110   1.074   1.011   0.919
   0.808   0.697   0.607   0.555   0.550   0.585   0.640   0.694   0.729   0.739
   0.730   0.715
   0.658   0.676   0.719   0.764   0.783   0.762   0.709   0.648   0.610   0.620
   0.683   0.786   0.901   0.995   1.047   1.053   1.027   0.996   0.982   0.996
   1.027   1.053   1.047   0.995   0.901   0.786   0.683   0.620   0.610   0.648
   0.709   0.762   0.783   0.764   0.719   0.676   0.658   0.676   0.719   0.764
   0.783   0.762   0.709   0.648   0.610   0.620   0.683   0.786   0.901   0.995
   1.047   1.053   1.027   0.996   0.982   0.996   1.027   1.053   1.047   0.995
   0.901   0.786   0.683   0.620   0.610   0.648   0.709   0.762   0.783   0.764
   0.719   0.676
   0.774   0.794   0.839   0.880   0.888   0.851   0.783   0.714   0.680   0.706
   0.794   0.921   1.048   1.134   1.151   1.101   1.013   0.932   0.899   0.932
   1.013   1.101   1.151   1.134   1.048   0.921   0.794   0.706   0.680   0.714
   0.783   0.851   0.888   0.880   0.839   0.794   0.774   0.794   0.839   0.880
   0.888   0.851   0.783   0.714   0.680   0.706   0.794   0.921   1.048   1.134
   1.151   1.101   1.013   0.932   0.899   0.932   1.013   1.101   1.151   1.134
   1.048   0.921   0.794   0.706   0.680   0.714   0.783   0.851   0.888   0.880
   0.839   0.794
   1.205   1.206   1.197   1.160   1.082   0.971   0.853   0.763   0.728   0.763
   0.861   0.999   1.134   1.220   1.222   1.138   1.007   0.890   0.843   0.890
   1.007   1.138   1.222   1.220   1.134   0.999   0.861   0.763   0.728   0.763
   0.853   0.971   1.082   1.160   1.197   1.206   1.205   1.206   1.197   1.160
   1.082   0.971   0.853   0.763   0.728   0.763   0.861   0.999   1.134   1.220
   1.222   1.138   1.007   0.890   0.843   0.890   1.007   1.138   1.222   1.220
   1.134   0.999   0.861   0.763   0.728   0.763   0.853   0.971   1.082   1.160
   1.197   1.206
   1.832   1.796   1.687   1.513   1.296   1.080   0.907   0.802   0.765   0.789
   0.864   0.979   1.105   1.196   1.205   1.120   0.974   0.839   0.784   0.839
   0.974   1.120   1.205   1.196   1.105   0.979   0.864   0.789   0.765   0.802
   0.907   1.080   1.296   1.513   1.687   1.796   1.832   1.796   1.687   1.513
   1.296   1.080   0.907   0.802   0.765   0.789   0.864   0.979   1.105   1.196
   1.205   1.120   0.974   0.839   0.784   0.839   0.974   1.120   1.205   1.196
   1.105   0.979   0.864   0.789   0.765   0.802   0.907   1.080   1.296   1.513
   1.687   1.796
   2.308   2.237   2.033   1.731   1.399   1.116   0.934   0.854   0.834   0.837
   0.860   0.919   1.017   1.112   1.144   1.076   0.934   0.792   0.734   0.792
   0.934   1.076   1.144   1.112   1.017   0.919   0.860   0.837   0.834   0.854
   0.934   1.116   1.399   1.731   2.033   2.237   2.308   2.237   2.033   1.731
   1.399   1.116   0.934   0.854   0.834   0.837   0.860   0.919   1.017   1.112
   1.144   1.076   0.934   0.792   0.734   0.792   0.934   1.076   1.144   1.112
   1.017   0.919   0.860   0.837   0.834   0.854   0.934   1.116   1.399   1.731
   2.033   2.237
   2.326   2.243   2.007   1.664   1.308   1.044   0.930   0.932   0.961   0.952
   0.914   0.909   0.972   1.069   1.120   1.068   0.930   0.787   0.726   0.787
   0.930   1.068   1.120   1.069   0.972   0.909   0.914   0.952   0.961   0.932
   0.930   1.044   1.308   1.664   2.007   2.243   2.326   2.243   2.007   1.664
   1.308   1.044   0.930   0.932   0.961   0.952   0.914   0.909   0.972   1.069
   1.120   1.068   0.930   0.787   0.726   0.787   0.930   1.068   1.120   1.069
   0.972   0.909   0.914   0.952   0.961   0.932   0.930   1.044   1.308   1.664
   2.007   2.243
   1.868   1.808   1.627   1.352   1.070   0.896   0.892   1.003   1.101   1.102
   1.031   0.984   1.022   1.112   1.162   1.111   0.976   0.836   0.778   0.836
   0.976   1.111   1.162   1.112   1.022   0.984   1.031   1.102   1.101   1.003
   0.892   0.896   1.070   1.352   1.627   1.808   1.868   1.808   1.627   1.352
   1.070   0.896   0.892   1.003   1.101   1.102   1.031   0.984   1.022   1.112
   1.162   1.111   0.976   0.836   0.778   0.836   0.976   1.111   1.162   1.112
   1.022   0.984   1.031   1.102   1.101   1.003   0.892   0.896   1.070   1.352
   1.627   1.808
   1.218   1.206   1.143   1.000   0.825   0.736   0.811   0.998   1.157   1.192
   1.133   1.087   1.117   1.188   1.214   1.151   1.027   0.913   0.868   0.913
   1.027   1.151   1.214   1.188   1.117   1.087   1.133   1.192   1.157   0.998
   0.811   0.736   0.825   1.000   1.143   1.206   1.218   1.206   1.143   1.000
   0.825   0.736   0.811   0.998   1.157   1.192   1.133   1.087   1.117   1.188
   1.214   1.151   1.027   0.913   0.868   0.913   1.027   1.151   1.214   1.188
   1.117   1.087   1.133   1.192   1.157   0.998   0.811   0.736   0.825   1.000
   1.143   1.206
   0.715   0.757   0.821   0.802   0.696   0.618   0.684   0.876   1.065   1.148
   1.141   1.134   1.172   1.213   1.197   1.120   1.030   0.971   0.953   0.971
   1.030   1.120   1.197   1.213   1.172   1.134   1.141   1.148   1.065   0.876
   0.684   0.618   0.696   0.802   0.821   0.757   0.715   0.757   0.821   0.802
   0.696   0.618   0.684   0.876   1.065   1.148   1.141   1.134   1.172   1.213
   1.197   1.120   1.030   0.971   0.953   0.971   1.030   1.120   1.197   1.213
   1.172   1.134   1.141   1.148   1.065   0.876   0.684   0.618   0.696   0.802
   0.821   0.757
   0.498   0.582   0.739   0.795   0.693   0.555   0.541   0.682   0.869   0.996
   1.056   1.103   1.153   1.162   1.103   1.019   0.978   0.989   1.003   0.989
   0.978   1.019   1.103   1.162   1.153   1.103   1.056   0.996   0.869   0.682
   0.541   0.555   0.693   0.795   0.739   0.582   0.498   0.582   0.739   0.795
   0.693   0.555   0.541   0.682   0.869   0.996   1.056   1.103   1.153   1.162
   1.103   1.019   0.978   0.989   1.003   0.989   0.978   1.019   1.103   1.162
   1.153   1.103   1.056   0.996   0.869   0.682   0.541   0.555   0.693   0.795
   0.739   0.582
   0.465   0.571   0.774   0.856   0.733   0.532   0.445   0.533   0.710   0.863
   0.968   1.053   1.111   1.099   1.014   0.929   0.924   0.984   1.021   0.984
   0.924   0.929   1.014   1.099   1.111   1.053   0.968   0.863   0.710   0.533
   0.445   0.532   0.733   0.856   0.774   0.571   0.465   0.571   0.774   0.856
   0.733   0.532   0.445   0.533   0.710   0.863   0.968   1.053   1.111   1.099
   1.014   0.929   0.924   0.984   1.021   0.984   0.924   0.929   1.014   1.099
   1.111   1.053   0.968   0.863   0.710   0.533   0.445   0.532   0.733   0.856
   0.774   0.571
 200       5.00   72    0 5.00   18    0
   0.761   0.761   0.761   0.761   0.761   0.760   0.760   0.760   0.759   0.759
   0.758   0.758   0.758   0.757   0.757   0.757   0.757   0.757   0.757   0.757
   0.757   0.757   0.757   0.757   0.758   0.758   0.758   0.759   0.759   0.760
   0.760   0.760   0.761   0.761   0.761   0.761   0.761   0.761   0.761   0.761
   0.761   0.760   0.760   0.760   0.759   0.759   0.758   0.758   0.758   0.757
   0.757   0.757   0.757   0.757   0.757   0.757   0.757   0.757   0.757   0.757
   0.758   0.758   0.758   0.759   0.759   0.760   0.760   0.760   0.761   0.761
   0.761   0.761
   0.916   0.916   0.914   0.911   0.908   0.903   0.899   0.894   0.890   0.887
   0.883   0.881   0.879   0.878   0.878   0.877   0.877   0.877   0.877   0.877
   0.877   0.877   0.878   0.878   0.879   0.881   0.883   0.887   0.890   0.894
   0.899   0.903   0.908   0.911   0.914   0.916   0.916   0.916   0.914   0.911
   0.908   0.903   0.899   0.894   0.890   0.887   0.883   0.881   0.879   0.878
   0.878   0.877   0.877   0.877   0.877   0.877   0.877   0.877   0.878   0.878
   0.879   0.881   0.883   0.887   0.890   0.894   0.899   0.903   0.908   0.911
   0.914   0.916
   1.142   1.139   1.131   1.120   1.105   1.088   1.071   1.056   1.043   1.033
   1.027   1.024   1.024   1.027   1.031   1.035   1.039   1.042   1.043   1.042
   1.039   1.035   1.031   1.027   1.024   1.024   1.027   1.033   1.043   1.056
   1.071   1.088   1.105   1.120   1.131   1.139   1.142   1.139   1.131   1.120
   1.105   1.088   1.071   1.056   1.043   1.033   1.027   1.024   1.024   1.027
   1.031   1.035   1.039   1.042   1.043   1.042   1.039   1.035   1.031   1.027
   1.024   1.024   1.027   1.033   1.043   1.056   1.071   1.088   1.105   1.120
   1.131   1.139
   1.314   1.308   1.290   1.263   1.231   1.196   1.163   1.134   1.112   1.098
   1.091   1.092   1.099   1.110   1.123   1.135   1.146   1.153   1.156   1.153
   1.146   1.135   1.123   1.110   1.099   1.092   1.091   1.098   1.112   1.134
   1.163   1.196   1.231   1.263   1.290   1.308   1.314   1.308   1.290   1.263
   1.231   1.196   1.163   1.134   1.112   1.098   1.091   1.092   1.099   1.110
   1.123   1.135   1.146   1.153   1.156   1.153   1.146   1.135   1.123   1.110
   1.099   1.092   1.091   1.098   1.112   1.134   1.163   1.196   1.231   1.263
   1.290   1.308
   1.341   1.332   1.305   1.266   1.221   1.177   1.139   1.112   1.095   1.088
   1.090   1.097   1.107   1.119   1.131   1.141   1.149   1.154   1.156   1.154
   1.149   1.141   1.131   1.119   1.107   1.097   1.090   1.088   1.095   1.112
   1.139   1.177   1.221   1.266   1.305   1.332   1.341   1.332   1.305   1.266
   1.221   1.177   1.139   1.112   1.095   1.088   1.090   1.097   1.107   1.119
   1.131   1.141   1.149   1.154   1.156   1.154   1.149   1.141   1.131   1.119
   1.107   1.097   1.090   1.088   1.095   1.112   1.139   1.177   1.221   1.266
   1.305   1.332
   1.213   1.201   1.171   1.130   1.090   1.062   1.051   1.057   1.075   1.098
   1.118   1.131   1.133   1.125   1.108   1.087   1.068   1.054   1.049   1.054
   1.068   1.087   1.108   1.125   1.133   1.131   1.118   1.098   1.075   1.057
   1.051   1.062   1.090   1.130   1.171   1.201   1.213   1.201   1.171   1.130
   1.090   1.062   1.051   1.057   1.075   1.098   1.118   1.131   1.133   1.125
   1.108   1.087   1.068   1.054   1.049   1.054   1.068   1.087   1.108   1.125
   1.133   1.131   1.118   1.098   1.075   1.057   1.051   1.062   1.090   1.130
   1.171   1.201
   0.998   0.985   0.954   0.920   0.901   0.913   0.958   1.029   1.110   1.185
   1.238   1.258   1.241   1.191   1.118   1.035   0.960   0.907   0.888   0.907
   0.960   1.035   1.118   1.191   1.241   1.258   1.238   1.185   1.110   1.029
   0.958   0.913   0.901   0.920   0.954   0.985   0.998   0.985   0.954   0.920
   0.901   0.913   0.958   1.029   1.110   1.185   1.238   1.258   1.241   1.191
   1.118   1.035   0.960   0.907   0.888   0.907   0.960   1.035   1.118   1.191
   1.241   1.258   1.238   1.185   1.110   1.029   0.958   0.913   0.901   0.920
   0.954   0.985
   0.796   0.781   0.747   0.718   0.722   0.775   0.879   1.016   1.164   1.296
   1.390   1.428   1.402   1.315   1.180   1.022   0.875   0.770   0.732   0.770
   0.875   1.022   1.180   1.315   1.402   1.428   1.390   1.296   1.164   1.016
   0.879   0.775   0.722   0.718   0.747   0.781   0.796   0.781   0.747   0.718
   0.722   0.775   0.879   1.016   1.164   1.296   1.390   1.428   1.402   1.315
   1.180   1.022   0.875   0.770   0.732   0.770   0.875   1.022   1.180   1.315
   1.402   1.428   1.390   1.296   1.164   1.016   0.879   0.775   0.722   0.718
   0.747   0.781
   0.671   0.653   0.614   0.584   0.597   0.669   0.798   0.964   1.145   1.316
   1.452   1.529   1.525   1.432   1.262   1.046   0.834   0.680   0.623   0.680
   0.834   1.046   1.262   1.432   1.525   1.529   1.452   1.316   1.145   0.964
   0.798   0.669   0.597   0.584   0.614   0.653   0.671   0.653   0.614   0.584
   0.597   0.669   0.798   0.964   1.145   1.316   1.452   1.529   1.525   1.432
   1.262   1.046   0.834   0.680   0.623   0.680   0.834   1.046   1.262   1.432
   1.525   1.529   1.452   1.316   1.145   0.964   0.798   0.669   0.597   0.584
   0.614   0.653
   0.616   0.598   0.556   0.526   0.539   0.605   0.714   0.855   1.019   1.196
   1.367   1.497   1.545   1.484   1.316   1.078   0.832   0.649   0.581   0.649
   0.832   1.078   1.316   1.484   1.545   1.497   1.367   1.196   1.019   0.855
   0.714   0.605   0.539   0.526   0.556   0.598   0.616   0.598   0.556   0.526
   0.539   0.605   0.714   0.855   1.019   1.196   1.367   1.497   1.545   1.484
   1.316   1.078   0.832   0.649   0.581   0.649   0.832   1.078   1.316   1.484
   1.545   1.497   1.367   1.196   1.019   0.855   0.714   0.605   0.539   0.526
   0.556   0.598
   0.576   0.560   0.526   0.510   0.531   0.585   0.656   0.740   0.856   1.016
   1.207   1.381   1.476   1.452   1.307   1.083   0.846   0.668   0.602   0.668
   0.846   1.083   1.307   1.452   1.476   1.381   1.207   1.016   0.856   0.740
   0.656   0.585   0.531   0.510   0.526   0.560   0.576   0.560   0.526   0.510
   0.531   0.585   0.656   0.740   0.856   1.016   1.207   1.381   1.476   1.452
   1.307   1.083   0.846   0.668   0.602   0.668   0.846   1.083   1.307   1.452
   1.476   1.381   1.207   1.016   0.856   0.740   0.656   0.585   0.531   0.510
   0.526   0.560
   0.507   0.494   0.474   0.484   0.536   0.603   0.656   0.701   0.779   0.921
   1.111   1.287   1.378   1.351   1.220   1.032   0.846   0.711   0.661   0.711
   0.846   1.032   1.220   1.351   1.378   1.287   1.111   0.921   0.779   0.701
   0.656   0.603   0.536   0.484   0.474   0.494   0.507   0.494   0.474   0.484
   0.536   0.603   0.656   0.701   0.779   0.921   1.111   1.287   1.378   1.351
   1.220   1.032   0.846   0.711   0.661   0.711   0.846   1.032   1.220   1.351
   1.378   1.287   1.111   0.921   0.779   0.701   0.656   0.603   0.536   0.484
   0.474   0.494
   0.433   0.417   0.400   0.436   0.536   0.653   0.736   0.789   0.862   0.994
   1.155   1.271   1.287   1.203   1.066   0.927   0.816   0.745   0.721   0.745
   0.816   0.927   1.066   1.203   1.287   1.271   1.155   0.994   0.862   0.789
   0.736   0.653   0.536   0.436   0.400   0.417   0.433   0.417   0.400   0.436
   0.536   0.653   0.736   0.789   0.862   0.994   1.155   1.271   1.287   1.203
   1.066   0.927   0.816   0.745   0.721   0.745   0.816   0.927   1.066   1.203
   1.287   1.271   1.155   0.994   0.862   0.789   0.736   0.653   0.536   0.436
   0.400   0.417
   0.439   0.410   0.372   0.416   0.568   0.760   0.909   1.000   1.083   1.191
   1.283   1.289   1.188   1.031   0.894   0.811   0.771   0.750   0.742   0.750
   0.771   0.811   0.894   1.031   1.188   1.289   1.283   1.191   1.083   1.000
   0.909   0.760   0.568   0.416   0.372   0.410   0.439   0.410   0.372   0.416
   0.568   0.760   0.909   1.000   1.083   1.191   1.283   1.289   1.188   1.031
   0.894   0.811   0.771   0.750   0.742   0.750   0.771   0.811   0.894   1.031
   1.188   1.289   1.283   1.191   1.083   1.000   0.909   0.760   0.568   0.416
   0.372   0.410
   0.607   0.555   0.475   0.508   0.705   0.972   1.183   1.295   1.352   1.387
   1.366   1.245   1.048   0.869   0.778   0.758   0.749   0.725   0.710   0.725
   0.749   0.758   0.778   0.869   1.048   1.245   1.366   1.387   1.352   1.295
   1.183   0.972   0.705   0.508   0.475   0.555   0.607   0.555   0.475   0.508
   0.705   0.972   1.183   1.295   1.352   1.387   1.366   1.245   1.048   0.869
   0.778   0.758   0.749   0.725   0.710   0.725   0.749   0.758   0.778   0.869
   1.048   1.245   1.366   1.387   1.352   1.295   1.183   0.972   0.705   0.508
   0.475   0.555
   0.936   0.859   0.731   0.747   0.977   1.302   1.541   1.620   1.583   1.484
   1.320   1.090   0.867   0.753   0.767   0.811   0.782   0.688   0.636   0.688
   0.782   0.811   0.767   0.753   0.867   1.090   1.320   1.484   1.583   1.620
   1.541   1.302   0.977   0.747   0.731   0.859   0.936   0.859   0.731   0.747
   0.977   1.302   1.541   1.620   1.583   1.484   1.320   1.090   0.867   0.753
   0.767   0.811   0.782   0.688   0.636   0.688   0.782   0.811   0.767   0.753
   0.867   1.090   1.320   1.484   1.583   1.620   1.541   1.302   0.977   0.747
   0.731   0.859
   1.313   1.216   1.052   1.054   1.310   1.668   1.901   1.906   1.735   1.477
   1.175   0.877   0.688   0.694   0.841   0.940   0.855   0.658   0.554   0.658
   0.855   0.940   0.841   0.694   0.688   0.877   1.175   1.477   1.735   1.906
   1.901   1.668   1.310   1.054   1.052   1.216   1.313   1.216   1.052   1.054
   1.310   1.668   1.901   1.906   1.735   1.477   1.175   0.877   0.688   0.694
   0.841   0.940   0.855   0.658   0.554   0.658   0.855   0.940   0.841   0.694
   0.688   0.877   1.175   1.477   1.735   1.906   1.901   1.668   1.310   1.054
   1.052   1.216
   1.565   1.458   1.275   1.273   1.543   1.915   2.132   2.075   1.807   1.440
   1.052   0.724   0.576   0.677   0.916   1.047   0.917   0.642   0.502   0.642
   0.917   1.047   0.916   0.677   0.576   0.724   1.052   1.440   1.807   2.075
   2.132   1.915   1.543   1.273   1.275   1.458   1.565   1.458   1.275   1.273
   1.543   1.915   2.132   2.075   1.807   1.440   1.052   0.724   0.576   0.677
   0.916   1.047   0.917   0.642   0.502   0.642   0.917   1.047   0.916   0.677
   0.576   0.724   1.052   1.440   1.807   2.075   2.132   1.915   1.543   1.273
   1.275   1.458
 111       5.00   72    0 5.00   18    0
   0.461   0.461   0.461   0.462   0.463   0.464   0.466   0.467   0.469   0.471
   0.472   0.474   0.476   0.477   0.478   0.480   0.480   0.481   0.481   0.481
   0.480   0.480   0.478   0.477   0.476   0.474   0.472   0.471   0.469   0.467
   0.466   0.464   0.463   0.462   0.461   0.461   0.461   0.461   0.461   0.462
   0.463   0.464   0.466   0.467   0.469   0.471   0.472   0.474   0.476   0.477
   0.478   0.480   0.480   0.481   0.481   0.481   0.480   0.480   0.478   0.477
   0.476   0.474   0.472   0.471   0.469   0.467   0.466   0.464   0.463   0.462
   0.461   0.461
   0.449   0.450   0.451   0.454   0.457   0.462   0.469   0.477   0.486   0.496
   0.508   0.520   0.532   0.544   0.555   0.564   0.571   0.576   0.577   0.576
   0.571   0.564   0.555   0.544   0.532   0.520   0.508   0.496   0.486   0.477
   0.469   0.462   0.457   0.454   0.451   0.450   0.449   0.450   0.451   0.454
   0.457   0.462   0.469   0.477   0.486   0.496   0.508   0.520   0.532   0.544
   0.555   0.564   0.571   0.576   0.577   0.576   0.571   0.564   0.555   0.544
   0.532   0.520   0.508   0.496   0.486   0.477   0.469   0.462   0.457   0.454
   0.451   0.450
   0.564   0.562   0.557   0.548   0.539   0.529   0.521   0.517   0.517   0.524
   0.536   0.554   0.577   0.602   0.627   0.650   0.669   0.681   0.685   0.681
   0.669   0.650   0.627   0.602   0.577   0.554   0.536   0.524   0.517   0.517
   0.521   0.529   0.539   0.548   0.557   0.562   0.564   0.562   0.557   0.548
   0.539   0.529   0.521   0.517   0.517   0.524   0.536   0.554   0.577   0.602
   0.627   0.650   0.669   0.681   0.685   0.681   0.669   0.650   0.627   0.602
   0.577   0.554   0.536   0.524   0.517   0.517   0.521   0.529   0.539   0.548
   0.557   0.562
   0.923   0.915   0.890   0.851   0.802   0.747   0.690   0.637   0.593   0.562
   0.546   0.546   0.561   0.589   0.623   0.659   0.690   0.712   0.719   0.712
   0.690   0.659   0.623   0.589   0.561   0.546   0.546   0.562   0.593   0.637
   0.690   0.747   0.802   0.851   0.890   0.915   0.923   0.915   0.890   0.851
   0.802   0.747   0.690   0.637   0.593   0.562   0.546   0.546   0.561   0.589
   0.623   0.659   0.690   0.712   0.719   0.712   0.690   0.659   0.623   0.589
   0.561   0.546   0.546   0.562   0.593   0.637   0.690   0.747   0.802   0.851
   0.890   0.915
   1.460   1.445   1.400   1.329   1.236   1.127   1.009   0.889   0.776   0.676
   0.599   0.549   0.528   0.534   0.560   0.597   0.635   0.662   0.672   0.662
   0.635   0.597   0.560   0.534   0.528   0.549   0.599   0.676   0.776   0.889
   1.009   1.127   1.236   1.329   1.400   1.445   1.460   1.445   1.400   1.329
   1.236   1.127   1.009   0.889   0.776   0.676   0.599   0.549   0.528   0.534
   0.560   0.597   0.635   0.662   0.672   0.662   0.635   0.597   0.560   0.534
   0.528   0.549   0.599   0.676   0.776   0.889   1.009   1.127   1.236   1.329
   1.400   1.445
   1.924   1.908   1.862   1.787   1.686   1.563   1.420   1.260   1.092   0.927
   0.777   0.656   0.574   0.533   0.528   0.548   0.578   0.603   0.613   0.603
   0.578   0.548   0.528   0.533   0.574   0.656   0.777   0.927   1.092   1.260
   1.420   1.563   1.686   1.787   1.862   1.908   1.924   1.908   1.862   1.787
   1.686   1.563   1.420   1.260   1.092   0.927   0.777   0.656   0.574   0.533
   0.528   0.548   0.578   0.603   0.613   0.603   0.578   0.548   0.528   0.533
   0.574   0.656   0.777   0.927   1.092   1.260   1.420   1.563   1.686   1.787
   1.862   1.908
   2.054   2.046   2.022   1.986   1.935   1.866   1.767   1.633   1.463   1.268
   1.068   0.886   0.743   0.649   0.601   0.588   0.596   0.607   0.612   0.607
   0.596   0.588   0.601   0.649   0.743   0.886   1.068   1.268   1.463   1.633
   1.767   1.866   1.935   1.986   2.022   2.046   2.054   2.046   2.022   1.986
   1.935   1.866   1.767   1.633   1.463   1.268   1.068   0.886   0.743   0.649
   0.601   0.588   0.596   0.607   0.612   0.607   0.596   0.588   0.601   0.649
   0.743   0.886   1.068   1.268   1.463   1.633   1.767   1.866   1.935   1.986
   2.022   2.046
   1.778   1.781   1.794   1.819   1.856   1.888   1.889   1.835   1.715   1.539
   1.334   1.135   0.967   0.845   0.765   0.718   0.692   0.678   0.674   0.678
   0.692   0.718   0.765   0.845   0.967   1.135   1.334   1.539   1.715   1.835
   1.889   1.888   1.856   1.819   1.794   1.781   1.778   1.781   1.794   1.819
   1.856   1.888   1.889   1.835   1.715   1.539   1.334   1.135   0.967   0.845
   0.765   0.718   0.692   0.678   0.674   0.678   0.692   0.718   0.765   0.845
   0.967   1.135   1.334   1.539   1.715   1.835   1.889   1.888   1.856   1.819
   1.794   1.781
   1.272   1.281   1.317   1.391   1.504   1.631   1.729   1.760   1.704   1.577
   1.414   1.254   1.123   1.022   0.942   0.871   0.808   0.761   0.744   0.761
   0.808   0.871   0.942   1.022   1.123   1.254   1.414   1.577   1.704   1.760
   1.729   1.631   1.504   1.391   1.317   1.281   1.272   1.281   1.317   1.391
   1.504   1.631   1.729   1.760   1.704   1.577   1.414   1.254   1.123   1.022
   0.942   0.871   0.808   0.761   0.744   0.761   0.808   0.871   0.942   1.022
   1.123   1.254   1.414   1.577   1.704   1.760   1.729   1.631   1.504   1.391
   1.317   1.281
   0.818   0.824   0.855   0.936   1.074   1.241   1.383   1.454   1.438   1.360
   1.266   1.189   1.141   1.105   1.056   0.980   0.889   0.812   0.782   0.812
   0.889   0.980   1.056   1.105   1.141   1.189   1.266   1.360   1.438   1.454
   1.383   1.241   1.074   0.936   0.855   0.824   0.818   0.824   0.855   0.936
   1.074   1.241   1.383   1.454   1.438   1.360   1.266   1.189   1.141   1.105
   1.056   0.980   0.889   0.812   0.782   0.812   0.889   0.980   1.056   1.105
   1.141   1.189   1.266   1.360   1.438   1.454   1.383   1.241   1.074   0.936
   0.855   0.824
   0.608   0.601   0.602   0.649   0.759   0.903   1.025   1.082   1.074   1.037
   1.014   1.026   1.062   1.091   1.083   1.024   0.934   0.851   0.818   0.851
   0.934   1.024   1.083   1.091   1.062   1.026   1.014   1.037   1.074   1.082
   1.025   0.903   0.759   0.649   0.602   0.601   0.608   0.601   0.602   0.649
   0.759   0.903   1.025   1.082   1.074   1.037   1.014   1.026   1.062   1.091
   1.083   1.024   0.934   0.851   0.818   0.851   0.934   1.024   1.083   1.091
   1.062   1.026   1.014   1.037   1.074   1.082   1.025   0.903   0.759   0.649
   0.602   0.601
   0.635   0.614   0.577   0.575   0.631   0.716   0.781   0.803   0.799   0.807
   0.846   0.910   0.976   1.023   1.041   1.025   0.986   0.944   0.927   0.944
   0.986   1.025   1.041   1.023   0.976   0.910   0.846   0.807   0.799   0.803
   0.781   0.716   0.631   0.575   0.577   0.614   0.635   0.614   0.577   0.575
   0.631   0.716   0.781   0.803   0.799   0.807   0.846   0.910   0.976   1.023
   1.041   1.025   0.986   0.944   0.927   0.944   0.986   1.025   1.041   1.023
   0.976   0.910   0.846   0.807   0.799   0.803   0.781   0.716   0.631   0.575
   0.577   0.614
   0.759   0.731   0.674   0.642   0.652   0.675   0.679   0.673   0.696   0.767
   0.857   0.918   0.934   0.934   0.957   1.013   1.080   1.131   1.149   1.131
   1.080   1.013   0.957   0.934   0.934   0.918   0.857   0.767   0.696   0.673
   0.679   0.675   0.652   0.642   0.674   0.731   0.759   0.731   0.674   0.642
   0.652   0.675   0.679   0.673   0.696   0.767   0.857   0.918   0.934   0.934
   0.957   1.013   1.080   1.131   1.149   1.131   1.080   1.013   0.957   0.934
   0.934   0.918   0.857   0.767   0.696   0.673   0.679   0.675   0.652   0.642
   0.674   0.731
   0.849   0.829   0.793   0.775   0.771   0.743   0.683   0.649   0.708   0.850
   0.978   0.996   0.911   0.829   0.856   1.008   1.213   1.376   1.436   1.376
   1.213   1.008   0.856   0.829   0.911   0.996   0.978   0.850   0.708   0.649
   0.683   0.743   0.771   0.775   0.793   0.829   0.849   0.829   0.793   0.775
   0.771   0.743   0.683   0.649   0.708   0.850   0.978   0.996   0.911   0.829
   0.856   1.008   1.213   1.376   1.436   1.376   1.213   1.008   0.856   0.829
   0.911   0.996   0.978   0.850   0.708   0.649   0.683   0.743   0.771   0.775
   0.793   0.829
   0.877   0.884   0.916   0.969   0.988   0.911   0.761   0.660   0.720   0.908
   1.056   1.024   0.847   0.707   0.765   1.022   1.346   1.591   1.679   1.591
   1.346   1.022   0.765   0.707   0.847   1.024   1.056   0.908   0.720   0.660
   0.761   0.911   0.988   0.969   0.916   0.884   0.877   0.884   0.916   0.969
   0.988   0.911   0.761   0.660   0.720   0.908   1.056   1.024   0.847   0.707
   0.765   1.022   1.346   1.591   1.679   1.591   1.346   1.022   0.765   0.707
   0.847   1.024   1.056   0.908   0.720   0.660   0.761   0.911   0.988   0.969
   0.916   0.884
   0.886   0.937   1.076   1.242   1.310   1.180   0.900   0.670   0.662   0.843
   0.991   0.929   0.716   0.584   0.710   1.059   1.444   1.707   1.795   1.707
   1.444   1.059   0.710   0.584   0.716   0.929   0.991   0.843   0.662   0.670
   0.900   1.180   1.310   1.242   1.076   0.937   0.886   0.937   1.076   1.242
   1.310   1.180   0.900   0.670   0.662   0.843   0.991   0.929   0.716   0.584
   0.710   1.059   1.444   1.707   1.795   1.707   1.444   1.059   0.710   0.584
   0.716   0.929   0.991   0.843   0.662   0.670   0.900   1.180   1.310   1.242
   1.076   0.937
   0.914   1.009   1.261   1.547   1.669   1.485   1.064   0.675   0.555   0.686
   0.819   0.755   0.559   0.485   0.697   1.107   1.496   1.724   1.790   1.724
   1.496   1.107   0.697   0.485   0.559   0.755   0.819   0.686   0.555   0.675
   1.064   1.485   1.669   1.547   1.261   1.009   0.914   1.009   1.261   1.547
   1.669   1.485   1.064   0.675   0.555   0.686   0.819   0.755   0.559   0.485
   0.697   1.107   1.496   1.724   1.790   1.724   1.496   1.107   0.697   0.485
   0.559   0.755   0.819   0.686   0.555   0.675   1.064   1.485   1.669   1.547
   1.261   1.009
   0.944   1.069   1.393   1.756   1.914   1.695   1.180   0.678   0.472   0.557
   0.676   0.618   0.452   0.432   0.702   1.143   1.516   1.703   1.749   1.703
   1.516   1.143   0.702   0.432   0.452   0.618   0.676   0.557   0.472   0.678
   1.180   1.695   1.914   1.756   1.393   1.069   0.944   1.069   1.393   1.756
   1.914   1.695   1.180   0.678   0.472   0.557   0.676   0.618   0.452   0.432
   0.702   1.143   1.516   1.703   1.749   1.703   1.516   1.143   0.702   0.432
   0.452   0.618   0.676   0.557   0.472   0.678   1.180   1.695   1.914   1.756
   1.393   1.069
TEXTURE_INDEX=   1.4728
ERR_CF 220         1080     560   37.86   21.59
ERR_CF 200         1080     534   26.06   15.75
ERR_CF 111         1080     354   23.77   15.15
