TEXEVAL                                                                         
Analysis started on 08-Jul-19 10:47:33                                          
 LMAX=14LFMAX=03 CUBIC ORTHO   
 220      5.00 5.00
 200      5.00 5.00
 111      5.00 5.00
 220       5.00   72    0 5.00   15    0
   1.881   1.881   1.881   1.881   1.881   1.881   1.881   1.881   1.881   1.881
   1.881   1.881   1.881   1.881   1.881   1.881   1.881   1.881   1.881   1.881
   1.881   1.881   1.881   1.881   1.881   1.881   1.881   1.881   1.881   1.881
   1.881   1.881   1.881   1.881   1.881   1.881   1.881   1.881   1.881   1.881
   1.881   1.881   1.881   1.881   1.881   1.881   1.881   1.881   1.881   1.881
   1.881   1.881   1.881   1.881   1.881   1.881   1.881   1.881   1.881   1.881
   1.881   1.881   1.881   1.881   1.881   1.881   1.881   1.881   1.881   1.881
   1.881   1.881
   1.497   1.761   1.748   1.541   1.527   1.356   1.282   1.753   1.393   1.636
   1.670   1.862   1.895   2.075   2.104   2.255   2.668   2.466   2.198   2.466
   2.668   2.255   2.104   2.075   1.895   1.862   1.670   1.636   1.393   1.753
   1.282   1.356   1.527   1.541   1.748   1.761   1.497   1.761   1.748   1.541
   1.527   1.356   1.282   1.753   1.393   1.636   1.670   1.862   1.895   2.075
   2.104   2.255   2.668   2.466   2.198   2.466   2.668   2.255   2.104   2.075
   1.895   1.862   1.670   1.636   1.393   1.753   1.282   1.356   1.527   1.541
   1.748   1.761
   1.381   1.741   1.252   1.076   1.138   1.146   1.351   1.552   1.119   1.418
   1.420   1.842   1.827   2.200   2.173   2.206   2.216   2.014   1.917   2.014
   2.216   2.206   2.173   2.200   1.827   1.842   1.420   1.418   1.119   1.552
   1.351   1.146   1.138   1.076   1.252   1.741   1.381   1.741   1.252   1.076
   1.138   1.146   1.351   1.552   1.119   1.418   1.420   1.842   1.827   2.200
   2.173   2.206   2.216   2.014   1.917   2.014   2.216   2.206   2.173   2.200
   1.827   1.842   1.420   1.418   1.119   1.552   1.351   1.146   1.138   1.076
   1.252   1.741
   1.353   1.446   0.861   1.005   1.098   1.238   1.290   1.201   1.128   1.043
   1.252   1.495   1.244   1.509   1.543   1.553   1.510   1.667   1.919   1.667
   1.510   1.553   1.543   1.509   1.244   1.495   1.252   1.043   1.128   1.201
   1.290   1.238   1.098   1.005   0.861   1.446   1.353   1.446   0.861   1.005
   1.098   1.238   1.290   1.201   1.128   1.043   1.252   1.495   1.244   1.509
   1.543   1.553   1.510   1.667   1.919   1.667   1.510   1.553   1.543   1.509
   1.244   1.495   1.252   1.043   1.128   1.201   1.290   1.238   1.098   1.005
   0.861   1.446
   1.290   1.073   0.829   1.189   1.313   1.201   1.112   1.028   0.936   0.795
   1.082   1.070   0.981   0.881   0.974   0.906   1.419   2.275   2.240   2.275
   1.419   0.906   0.974   0.881   0.981   1.070   1.082   0.795   0.936   1.028
   1.112   1.201   1.313   1.189   0.829   1.073   1.290   1.073   0.829   1.189
   1.313   1.201   1.112   1.028   0.936   0.795   1.082   1.070   0.981   0.881
   0.974   0.906   1.419   2.275   2.240   2.275   1.419   0.906   0.974   0.881
   0.981   1.070   1.082   0.795   0.936   1.028   1.112   1.201   1.313   1.189
   0.829   1.073
   0.972   1.123   1.229   1.761   1.135   0.799   1.153   0.919   0.801   0.823
   1.088   0.812   1.020   0.783   0.775   1.107   1.415   2.444   2.040   2.444
   1.415   1.107   0.775   0.783   1.020   0.812   1.088   0.823   0.801   0.919
   1.153   0.799   1.135   1.761   1.229   1.123   0.972   1.123   1.229   1.761
   1.135   0.799   1.153   0.919   0.801   0.823   1.088   0.812   1.020   0.783
   0.775   1.107   1.415   2.444   2.040   2.444   1.415   1.107   0.775   0.783
   1.020   0.812   1.088   0.823   0.801   0.919   1.153   0.799   1.135   1.761
   1.229   1.123
   0.593   0.995   1.021   1.466   0.855   0.579   0.943   1.078   0.877   1.125
   1.009   0.810   1.058   1.024   0.972   1.114   1.437   2.406   3.210   2.406
   1.437   1.114   0.972   1.024   1.058   0.810   1.009   1.125   0.877   1.078
   0.943   0.579   0.855   1.466   1.021   0.995   0.593   0.995   1.021   1.466
   0.855   0.579   0.943   1.078   0.877   1.125   1.009   0.810   1.058   1.024
   0.972   1.114   1.437   2.406   3.210   2.406   1.437   1.114   0.972   1.024
   1.058   0.810   1.009   1.125   0.877   1.078   0.943   0.579   0.855   1.466
   1.021   0.995
   0.514   0.595   0.754   1.107   0.754   0.554   1.358   1.300   1.074   1.058
   0.821   0.818   1.179   1.041   0.853   0.770   1.336   1.910   3.167   1.910
   1.336   0.770   0.853   1.041   1.179   0.818   0.821   1.058   1.074   1.300
   1.358   0.554   0.754   1.107   0.754   0.595   0.514   0.595   0.754   1.107
   0.754   0.554   1.358   1.300   1.074   1.058   0.821   0.818   1.179   1.041
   0.853   0.770   1.336   1.910   3.167   1.910   1.336   0.770   0.853   1.041
   1.179   0.818   0.821   1.058   1.074   1.300   1.358   0.554   0.754   1.107
   0.754   0.595
   0.491   0.364   1.181   1.348   0.393   0.778   1.325   1.433   1.054   0.765
   0.847   0.568   0.903   0.986   0.723   0.745   1.129   1.018   1.167   1.018
   1.129   0.745   0.723   0.986   0.903   0.568   0.847   0.765   1.054   1.433
   1.325   0.778   0.393   1.348   1.181   0.364   0.491   0.364   1.181   1.348
   0.393   0.778   1.325   1.433   1.054   0.765   0.847   0.568   0.903   0.986
   0.723   0.745   1.129   1.018   1.167   1.018   1.129   0.745   0.723   0.986
   0.903   0.568   0.847   0.765   1.054   1.433   1.325   0.778   0.393   1.348
   1.181   0.364
   0.620   0.736   1.117   0.919   0.710   0.996   0.960   1.121   0.931   0.841
   0.675   0.468   1.525   1.163   0.887   0.522   0.737   1.022   0.578   1.022
   0.737   0.522   0.887   1.163   1.525   0.468   0.675   0.841   0.931   1.121
   0.960   0.996   0.710   0.919   1.117   0.736   0.620   0.736   1.117   0.919
   0.710   0.996   0.960   1.121   0.931   0.841   0.675   0.468   1.525   1.163
   0.887   0.522   0.737   1.022   0.578   1.022   0.737   0.522   0.887   1.163
   1.525   0.468   0.675   0.841   0.931   1.121   0.960   0.996   0.710   0.919
   1.117   0.736
   0.699   1.392   0.921   1.034   0.878   0.916   0.558   0.348   0.829   0.863
   0.683   0.862   1.836   1.087   0.831   0.711   1.033   0.819   0.861   0.819
   1.033   0.711   0.831   1.087   1.836   0.862   0.683   0.863   0.829   0.348
   0.558   0.916   0.878   1.034   0.921   1.392   0.699   1.392   0.921   1.034
   0.878   0.916   0.558   0.348   0.829   0.863   0.683   0.862   1.836   1.087
   0.831   0.711   1.033   0.819   0.861   0.819   1.033   0.711   0.831   1.087
   1.836   0.862   0.683   0.863   0.829   0.348   0.558   0.916   0.878   1.034
   0.921   1.392
   1.151   1.843   1.103   1.560   0.710   0.675   0.423   0.556   1.334   0.569
   0.734   0.581   1.151   1.282   0.948   1.236   1.870   1.557   0.784   1.557
   1.870   1.236   0.948   1.282   1.151   0.581   0.734   0.569   1.334   0.556
   0.423   0.675   0.710   1.560   1.103   1.843   1.151   1.843   1.103   1.560
   0.710   0.675   0.423   0.556   1.334   0.569   0.734   0.581   1.151   1.282
   0.948   1.236   1.870   1.557   0.784   1.557   1.870   1.236   0.948   1.282
   1.151   0.581   0.734   0.569   1.334   0.556   0.423   0.675   0.710   1.560
   1.103   1.843
   1.306   2.413   1.040   2.255   1.147   0.294   0.725   0.707   1.084   0.400
   0.656   0.231   0.964   1.229   1.027   1.150   1.679   1.422   0.081   1.422
   1.679   1.150   1.027   1.229   0.964   0.231   0.656   0.400   1.084   0.707
   0.725   0.294   1.147   2.255   1.040   2.413   1.306   2.413   1.040   2.255
   1.147   0.294   0.725   0.707   1.084   0.400   0.656   0.231   0.964   1.229
   1.027   1.150   1.679   1.422   0.081   1.422   1.679   1.150   1.027   1.229
   0.964   0.231   0.656   0.400   1.084   0.707   0.725   0.294   1.147   2.255
   1.040   2.413
   1.252   1.665   1.048   2.422   1.907   0.677   0.526   0.460   0.340   1.314
   0.650   0.689   1.474   1.538   0.775   0.817   1.340   0.568   0.608   0.568
   1.340   0.817   0.775   1.538   1.474   0.689   0.650   1.314   0.340   0.460
   0.526   0.677   1.907   2.422   1.048   1.665   1.252   1.665   1.048   2.422
   1.907   0.677   0.526   0.460   0.340   1.314   0.650   0.689   1.474   1.538
   0.775   0.817   1.340   0.568   0.608   0.568   1.340   0.817   0.775   1.538
   1.474   0.689   0.650   1.314   0.340   0.460   0.526   0.677   1.907   2.422
   1.048   1.665
   1.116   0.554   0.805   1.267   1.930   1.495   0.495   0.781   0.797   1.279
   0.824   0.539   1.787   1.478   0.514   0.872   1.543   0.503   1.423   0.503
   1.543   0.872   0.514   1.478   1.787   0.539   0.824   1.279   0.797   0.781
   0.495   1.495   1.930   1.267   0.805   0.554   1.116   0.554   0.805   1.267
   1.930   1.495   0.495   0.781   0.797   1.279   0.824   0.539   1.787   1.478
   0.514   0.872   1.543   0.503   1.423   0.503   1.543   0.872   0.514   1.478
   1.787   0.539   0.824   1.279   0.797   0.781   0.495   1.495   1.930   1.267
   0.805   0.554
 200       5.00   72    0 5.00   15    0
   0.994   0.994   0.994   0.994   0.994   0.994   0.994   0.994   0.994   0.994
   0.994   0.994   0.994   0.994   0.994   0.994   0.994   0.994   0.994   0.994
   0.994   0.994   0.994   0.994   0.994   0.994   0.994   0.994   0.994   0.994
   0.994   0.994   0.994   0.994   0.994   0.994   0.994   0.994   0.994   0.994
   0.994   0.994   0.994   0.994   0.994   0.994   0.994   0.994   0.994   0.994
   0.994   0.994   0.994   0.994   0.994   0.994   0.994   0.994   0.994   0.994
   0.994   0.994   0.994   0.994   0.994   0.994   0.994   0.994   0.994   0.994
   0.994   0.994
   1.627   1.614   1.675   1.642   2.018   1.901   1.646   1.353   1.446   1.300
   1.124   1.117   1.118   1.128   1.164   1.241   1.362   1.174   1.441   1.174
   1.362   1.241   1.164   1.128   1.118   1.117   1.124   1.300   1.446   1.353
   1.646   1.901   2.018   1.642   1.675   1.614   1.627   1.614   1.675   1.642
   2.018   1.901   1.646   1.353   1.446   1.300   1.124   1.117   1.118   1.128
   1.164   1.241   1.362   1.174   1.441   1.174   1.362   1.241   1.164   1.128
   1.118   1.117   1.124   1.300   1.446   1.353   1.646   1.901   2.018   1.642
   1.675   1.614
   1.950   1.988   1.809   1.443   1.907   2.020   2.695   1.968   1.271   1.217
   1.290   1.238   1.300   1.266   1.083   1.162   1.309   1.053   1.196   1.053
   1.309   1.162   1.083   1.266   1.300   1.238   1.290   1.217   1.271   1.968
   2.695   2.020   1.907   1.443   1.809   1.988   1.950   1.988   1.809   1.443
   1.907   2.020   2.695   1.968   1.271   1.217   1.290   1.238   1.300   1.266
   1.083   1.162   1.309   1.053   1.196   1.053   1.309   1.162   1.083   1.266
   1.300   1.238   1.290   1.217   1.271   1.968   2.695   2.020   1.907   1.443
   1.809   1.988
   1.819   2.570   1.685   1.278   1.368   1.382   2.507   2.039   1.536   1.258
   1.270   1.469   1.289   1.091   1.144   1.416   1.281   0.901   1.101   0.901
   1.281   1.416   1.144   1.091   1.289   1.469   1.270   1.258   1.536   2.039
   2.507   1.382   1.368   1.278   1.685   2.570   1.819   2.570   1.685   1.278
   1.368   1.382   2.507   2.039   1.536   1.258   1.270   1.469   1.289   1.091
   1.144   1.416   1.281   0.901   1.101   0.901   1.281   1.416   1.144   1.091
   1.289   1.469   1.270   1.258   1.536   2.039   2.507   1.382   1.368   1.278
   1.685   2.570
   1.959   3.289   1.599   1.514   1.012   1.029   0.926   1.064   1.389   1.216
   1.218   1.701   1.340   0.955   1.110   1.392   1.081   0.727   0.872   0.727
   1.081   1.392   1.110   0.955   1.340   1.701   1.218   1.216   1.389   1.064
   0.926   1.029   1.012   1.514   1.599   3.289   1.959   3.289   1.599   1.514
   1.012   1.029   0.926   1.064   1.389   1.216   1.218   1.701   1.340   0.955
   1.110   1.392   1.081   0.727   0.872   0.727   1.081   1.392   1.110   0.955
   1.340   1.701   1.218   1.216   1.389   1.064   0.926   1.029   1.012   1.514
   1.599   3.289
   4.218   2.625   1.411   1.524   0.995   1.042   0.979   0.994   0.998   1.089
   1.210   1.875   1.880   1.097   1.046   0.832   0.923   0.854   1.386   0.854
   0.923   0.832   1.046   1.097   1.880   1.875   1.210   1.089   0.998   0.994
   0.979   1.042   0.995   1.524   1.411   2.625   4.218   2.625   1.411   1.524
   0.995   1.042   0.979   0.994   0.998   1.089   1.210   1.875   1.880   1.097
   1.046   0.832   0.923   0.854   1.386   0.854   0.923   0.832   1.046   1.097
   1.880   1.875   1.210   1.089   0.998   0.994   0.979   1.042   0.995   1.524
   1.411   2.625
   3.030   1.116   0.761   0.649   0.431   0.378   0.604   0.619   0.529   0.566
   0.529   1.568   2.081   0.822   0.589   0.879   0.842   0.649   1.092   0.649
   0.842   0.879   0.589   0.822   2.081   1.568   0.529   0.566   0.529   0.619
   0.604   0.378   0.431   0.649   0.761   1.116   3.030   1.116   0.761   0.649
   0.431   0.378   0.604   0.619   0.529   0.566   0.529   1.568   2.081   0.822
   0.589   0.879   0.842   0.649   1.092   0.649   0.842   0.879   0.589   0.822
   2.081   1.568   0.529   0.566   0.529   0.619   0.604   0.378   0.431   0.649
   0.761   1.116
   0.769   0.585   0.594   1.207   0.513   0.155   0.167   0.284   1.057   0.561
   0.549   1.222   1.474   0.703   0.813   0.789   0.342   0.236   0.238   0.236
   0.342   0.789   0.813   0.703   1.474   1.222   0.549   0.561   1.057   0.284
   0.167   0.155   0.513   1.207   0.594   0.585   0.769   0.585   0.594   1.207
   0.513   0.155   0.167   0.284   1.057   0.561   0.549   1.222   1.474   0.703
   0.813   0.789   0.342   0.236   0.238   0.236   0.342   0.789   0.813   0.703
   1.474   1.222   0.549   0.561   1.057   0.284   0.167   0.155   0.513   1.207
   0.594   0.585
   1.088   0.457   1.033   1.856   0.983   0.305   0.399   0.864   2.104   0.893
   0.841   1.075   1.246   0.974   1.077   0.728   0.365   0.733   0.831   0.733
   0.365   0.728   1.077   0.974   1.246   1.075   0.841   0.893   2.104   0.864
   0.399   0.305   0.983   1.856   1.033   0.457   1.088   0.457   1.033   1.856
   0.983   0.305   0.399   0.864   2.104   0.893   0.841   1.075   1.246   0.974
   1.077   0.728   0.365   0.733   0.831   0.733   0.365   0.728   1.077   0.974
   1.246   1.075   0.841   0.893   2.104   0.864   0.399   0.305   0.983   1.856
   1.033   0.457
   0.491   0.310   0.670   0.967   0.823   0.727   0.921   1.321   1.391   0.642
   1.049   1.490   1.274   1.213   1.263   1.099   0.774   0.850   1.248   0.850
   0.774   1.099   1.263   1.213   1.274   1.490   1.049   0.642   1.391   1.321
   0.921   0.727   0.823   0.967   0.670   0.310   0.491   0.310   0.670   0.967
   0.823   0.727   0.921   1.321   1.391   0.642   1.049   1.490   1.274   1.213
   1.263   1.099   0.774   0.850   1.248   0.850   0.774   1.099   1.263   1.213
   1.274   1.490   1.049   0.642   1.391   1.321   0.921   0.727   0.823   0.967
   0.670   0.310
   0.484   0.324   0.540   0.566   0.492   1.201   1.789   1.317   0.968   0.562
   0.837   1.810   1.491   1.395   1.900   0.880   0.716   0.557   0.889   0.557
   0.716   0.880   1.900   1.395   1.491   1.810   0.837   0.562   0.968   1.317
   1.789   1.201   0.492   0.566   0.540   0.324   0.484   0.324   0.540   0.566
   0.492   1.201   1.789   1.317   0.968   0.562   0.837   1.810   1.491   1.395
   1.900   0.880   0.716   0.557   0.889   0.557   0.716   0.880   1.900   1.395
   1.491   1.810   0.837   0.562   0.968   1.317   1.789   1.201   0.492   0.566
   0.540   0.324
   0.763   0.347   0.724   0.474   0.194   1.579   1.341   0.923   1.208   0.782
   0.822   1.241   0.991   0.689   0.982   0.436   0.484   0.868   0.926   0.868
   0.484   0.436   0.982   0.689   0.991   1.241   0.822   0.782   1.208   0.923
   1.341   1.579   0.194   0.474   0.724   0.347   0.763   0.347   0.724   0.474
   0.194   1.579   1.341   0.923   1.208   0.782   0.822   1.241   0.991   0.689
   0.982   0.436   0.484   0.868   0.926   0.868   0.484   0.436   0.982   0.689
   0.991   1.241   0.822   0.782   1.208   0.923   1.341   1.579   0.194   0.474
   0.724   0.347
   0.479   0.234   0.599   0.319   0.321   1.574   0.924   0.788   1.377   1.452
   1.330   0.892   0.148   0.317   0.237   0.744   0.475   1.141   0.911   1.141
   0.475   0.744   0.237   0.317   0.148   0.892   1.330   1.452   1.377   0.788
   0.924   1.574   0.321   0.319   0.599   0.234   0.479   0.234   0.599   0.319
   0.321   1.574   0.924   0.788   1.377   1.452   1.330   0.892   0.148   0.317
   0.237   0.744   0.475   1.141   0.911   1.141   0.475   0.744   0.237   0.317
   0.148   0.892   1.330   1.452   1.377   0.788   0.924   1.574   0.321   0.319
   0.599   0.234
   0.423   0.180   0.367   0.511   0.859   0.849   1.317   1.166   1.964   1.193
   1.262   1.134   0.543   0.712   0.575   1.051   0.156   0.509   0.220   0.509
   0.156   1.051   0.575   0.712   0.543   1.134   1.262   1.193   1.964   1.166
   1.317   0.849   0.859   0.511   0.367   0.180   0.423   0.180   0.367   0.511
   0.859   0.849   1.317   1.166   1.964   1.193   1.262   1.134   0.543   0.712
   0.575   1.051   0.156   0.509   0.220   0.509   0.156   1.051   0.575   0.712
   0.543   1.134   1.262   1.193   1.964   1.166   1.317   0.849   0.859   0.511
   0.367   0.180
   0.395   0.367   0.322   0.464   0.891   0.429   0.733   1.193   1.423   0.524
   1.727   0.914   0.581   0.602   0.418   0.767   0.629   0.492   1.151   0.492
   0.629   0.767   0.418   0.602   0.581   0.914   1.727   0.524   1.423   1.193
   0.733   0.429   0.891   0.464   0.322   0.367   0.395   0.367   0.322   0.464
   0.891   0.429   0.733   1.193   1.423   0.524   1.727   0.914   0.581   0.602
   0.418   0.767   0.629   0.492   1.151   0.492   0.629   0.767   0.418   0.602
   0.581   0.914   1.727   0.524   1.423   1.193   0.733   0.429   0.891   0.464
   0.322   0.367
 111       5.00   72    0 5.00   15    0
   0.809   0.809   0.809   0.809   0.809   0.809   0.809   0.809   0.809   0.809
   0.809   0.809   0.809   0.809   0.809   0.809   0.809   0.809   0.809   0.809
   0.809   0.809   0.809   0.809   0.809   0.809   0.809   0.809   0.809   0.809
   0.809   0.809   0.809   0.809   0.809   0.809   0.809   0.809   0.809   0.809
   0.809   0.809   0.809   0.809   0.809   0.809   0.809   0.809   0.809   0.809
   0.809   0.809   0.809   0.809   0.809   0.809   0.809   0.809   0.809   0.809
   0.809   0.809   0.809   0.809   0.809   0.809   0.809   0.809   0.809   0.809
   0.809   0.809
   0.939   1.139   1.176   1.007   0.966   0.834   0.987   0.962   1.036   0.987
   0.892   0.938   0.962   0.974   1.070   1.027   1.062   0.977   0.890   0.977
   1.062   1.027   1.070   0.974   0.962   0.938   0.892   0.987   1.036   0.962
   0.987   0.834   0.966   1.007   1.176   1.139   0.939   1.139   1.176   1.007
   0.966   0.834   0.987   0.962   1.036   0.987   0.892   0.938   0.962   0.974
   1.070   1.027   1.062   0.977   0.890   0.977   1.062   1.027   1.070   0.974
   0.962   0.938   0.892   0.987   1.036   0.962   0.987   0.834   0.966   1.007
   1.176   1.139
   0.920   0.865   0.949   1.172   0.887   0.905   0.899   0.867   0.946   0.877
   0.983   0.962   0.921   0.902   0.951   0.982   1.177   1.062   1.153   1.062
   1.177   0.982   0.951   0.902   0.921   0.962   0.983   0.877   0.946   0.867
   0.899   0.905   0.887   1.172   0.949   0.865   0.920   0.865   0.949   1.172
   0.887   0.905   0.899   0.867   0.946   0.877   0.983   0.962   0.921   0.902
   0.951   0.982   1.177   1.062   1.153   1.062   1.177   0.982   0.951   0.902
   0.921   0.962   0.983   0.877   0.946   0.867   0.899   0.905   0.887   1.172
   0.949   0.865
   0.695   0.720   1.058   1.318   1.168   0.852   0.711   0.648   0.768   0.590
   0.796   0.788   0.720   0.703   0.881   0.976   1.043   1.151   1.315   1.151
   1.043   0.976   0.881   0.703   0.720   0.788   0.796   0.590   0.768   0.648
   0.711   0.852   1.168   1.318   1.058   0.720   0.695   0.720   1.058   1.318
   1.168   0.852   0.711   0.648   0.768   0.590   0.796   0.788   0.720   0.703
   0.881   0.976   1.043   1.151   1.315   1.151   1.043   0.976   0.881   0.703
   0.720   0.788   0.796   0.590   0.768   0.648   0.711   0.852   1.168   1.318
   1.058   0.720
   0.837   0.980   0.984   1.238   1.471   0.943   0.736   0.713   0.789   0.528
   0.766   0.590   0.473   0.557   0.786   0.765   0.886   1.350   1.134   1.350
   0.886   0.765   0.786   0.557   0.473   0.590   0.766   0.528   0.789   0.713
   0.736   0.943   1.471   1.238   0.984   0.980   0.837   0.980   0.984   1.238
   1.471   0.943   0.736   0.713   0.789   0.528   0.766   0.590   0.473   0.557
   0.786   0.765   0.886   1.350   1.134   1.350   0.886   0.765   0.786   0.557
   0.473   0.590   0.766   0.528   0.789   0.713   0.736   0.943   1.471   1.238
   0.984   0.980
   2.007   1.223   1.138   1.519   1.799   2.318   1.791   1.005   0.906   0.587
   1.025   0.677   0.804   0.672   0.756   0.922   1.251   1.415   1.031   1.415
   1.251   0.922   0.756   0.672   0.804   0.677   1.025   0.587   0.906   1.005
   1.791   2.318   1.799   1.519   1.138   1.223   2.007   1.223   1.138   1.519
   1.799   2.318   1.791   1.005   0.906   0.587   1.025   0.677   0.804   0.672
   0.756   0.922   1.251   1.415   1.031   1.415   1.251   0.922   0.756   0.672
   0.804   0.677   1.025   0.587   0.906   1.005   1.791   2.318   1.799   1.519
   1.138   1.223
   3.134   1.205   1.215   1.398   1.795   2.703   2.964   1.887   1.492   1.001
   1.292   0.816   1.023   0.804   1.062   1.344   1.571   1.137   0.895   1.137
   1.571   1.344   1.062   0.804   1.023   0.816   1.292   1.001   1.492   1.887
   2.964   2.703   1.795   1.398   1.215   1.205   3.134   1.205   1.215   1.398
   1.795   2.703   2.964   1.887   1.492   1.001   1.292   0.816   1.023   0.804
   1.062   1.344   1.571   1.137   0.895   1.137   1.571   1.344   1.062   0.804
   1.023   0.816   1.292   1.001   1.492   1.887   2.964   2.703   1.795   1.398
   1.215   1.205
   2.008   0.882   0.904   1.130   1.420   1.381   2.351   2.156   2.758   1.985
   1.743   1.588   0.897   0.680   1.217   1.542   1.511   1.003   0.949   1.003
   1.511   1.542   1.217   0.680   0.897   1.588   1.743   1.985   2.758   2.156
   2.351   1.381   1.420   1.130   0.904   0.882   2.008   0.882   0.904   1.130
   1.420   1.381   2.351   2.156   2.758   1.985   1.743   1.588   0.897   0.680
   1.217   1.542   1.511   1.003   0.949   1.003   1.511   1.542   1.217   0.680
   0.897   1.588   1.743   1.985   2.758   2.156   2.351   1.381   1.420   1.130
   0.904   0.882
   0.605   0.895   0.688   1.175   1.420   0.800   1.418   1.969   3.470   1.768
   1.588   1.858   1.064   0.749   0.944   1.193   0.997   1.103   1.360   1.103
   0.997   1.193   0.944   0.749   1.064   1.858   1.588   1.768   3.470   1.969
   1.418   0.800   1.420   1.175   0.688   0.895   0.605   0.895   0.688   1.175
   1.420   0.800   1.418   1.969   3.470   1.768   1.588   1.858   1.064   0.749
   0.944   1.193   0.997   1.103   1.360   1.103   0.997   1.193   0.944   0.749
   1.064   1.858   1.588   1.768   3.470   1.969   1.418   0.800   1.420   1.175
   0.688   0.895
   0.657   0.923   0.719   1.041   1.383   1.129   1.059   1.564   2.119   1.301
   1.264   1.288   1.260   1.138   0.959   1.243   0.709   1.147   1.302   1.147
   0.709   1.243   0.959   1.138   1.260   1.288   1.264   1.301   2.119   1.564
   1.059   1.129   1.383   1.041   0.719   0.923   0.657   0.923   0.719   1.041
   1.383   1.129   1.059   1.564   2.119   1.301   1.264   1.288   1.260   1.138
   0.959   1.243   0.709   1.147   1.302   1.147   0.709   1.243   0.959   1.138
   1.260   1.288   1.264   1.301   2.119   1.564   1.059   1.129   1.383   1.041
   0.719   0.923
   0.724   0.696   0.829   0.770   0.920   1.051   0.655   0.748   0.814   1.920
   1.234   1.269   1.161   1.144   1.240   1.589   1.157   0.769   0.618   0.769
   1.157   1.589   1.240   1.144   1.161   1.269   1.234   1.920   0.814   0.748
   0.655   1.051   0.920   0.770   0.829   0.696   0.724   0.696   0.829   0.770
   0.920   1.051   0.655   0.748   0.814   1.920   1.234   1.269   1.161   1.144
   1.240   1.589   1.157   0.769   0.618   0.769   1.157   1.589   1.240   1.144
   1.161   1.269   1.234   1.920   0.814   0.748   0.655   1.051   0.920   0.770
   0.829   0.696
   0.706   0.593   0.730   0.442   0.700   0.431   0.623   0.647   1.002   1.319
   1.053   0.973   0.833   0.727   1.122   1.348   1.193   0.826   0.866   0.826
   1.193   1.348   1.122   0.727   0.833   0.973   1.053   1.319   1.002   0.647
   0.623   0.431   0.700   0.442   0.730   0.593   0.706   0.593   0.730   0.442
   0.700   0.431   0.623   0.647   1.002   1.319   1.053   0.973   0.833   0.727
   1.122   1.348   1.193   0.826   0.866   0.826   1.193   1.348   1.122   0.727
   0.833   0.973   1.053   1.319   1.002   0.647   0.623   0.431   0.700   0.442
   0.730   0.593
   0.350   0.658   0.517   0.538   0.495   0.307   0.489   0.788   1.113   0.885
   0.625   0.692   0.518   0.628   0.600   1.042   0.674   1.006   1.220   1.006
   0.674   1.042   0.600   0.628   0.518   0.692   0.625   0.885   1.113   0.788
   0.489   0.307   0.495   0.538   0.517   0.658   0.350   0.658   0.517   0.538
   0.495   0.307   0.489   0.788   1.113   0.885   0.625   0.692   0.518   0.628
   0.600   1.042   0.674   1.006   1.220   1.006   0.674   1.042   0.600   0.628
   0.518   0.692   0.625   0.885   1.113   0.788   0.489   0.307   0.495   0.538
   0.517   0.658
   0.105   0.692   0.497   1.176   0.506   0.543   0.360   0.812   0.938   0.946
   0.264   0.998   0.661   0.723   0.422   0.981   0.542   1.172   0.804   1.172
   0.542   0.981   0.422   0.723   0.661   0.998   0.264   0.946   0.938   0.812
   0.360   0.543   0.506   1.176   0.497   0.692   0.105   0.692   0.497   1.176
   0.506   0.543   0.360   0.812   0.938   0.946   0.264   0.998   0.661   0.723
   0.422   0.981   0.542   1.172   0.804   1.172   0.542   0.981   0.422   0.723
   0.661   0.998   0.264   0.946   0.938   0.812   0.360   0.543   0.506   1.176
   0.497   0.692
   0.486   0.255   0.634   1.242   1.283   0.515   0.589   1.205   0.677   0.595
   0.580   0.815   0.541   0.581   0.607   1.470   0.672   1.119   0.704   1.119
   0.672   1.470   0.607   0.581   0.541   0.815   0.580   0.595   0.677   1.205
   0.589   0.515   1.283   1.242   0.634   0.255   0.486   0.255   0.634   1.242
   1.283   0.515   0.589   1.205   0.677   0.595   0.580   0.815   0.541   0.581
   0.607   1.470   0.672   1.119   0.704   1.119   0.672   1.470   0.607   0.581
   0.541   0.815   0.580   0.595   0.677   1.205   0.589   0.515   1.283   1.242
   0.634   0.255
  4  1      4.8357509E-01
  4  2      9.0126700E-03
  4  3     -6.0688275E-01
  6  1      7.3263276E-01
  6  2     -6.0121765E-01
  6  3      7.3994968E-01
  6  4      6.2481059E-01
  8  1      2.5151854E-01
  8  2      2.9474437E-01
  8  3      1.2787956E-01
  8  4      3.0549994E-02
  8  5      6.4243843E-02
 10  1      6.2030521E-01
 10  2     -2.8276078E-01
 10  3     -7.7896000E-02
 10  4     -5.3533704E-01
 10  5      1.4494090E-01
 10  6     -2.5899335E-02
 12  1     -4.0931438E-01  9.4882835E-02
 12  2      7.2898399E-02 -1.0138343E-01
 12  3     -9.8776910E-02  1.0708635E+00
 12  4      8.7024417E-01 -5.6294479E-01
 12  5     -4.6421036E-01  1.8666201E-01
 12  6      9.0138130E-02 -7.5759226E-02
 12  7      1.5188909E-01 -8.1979477E-01
 14  1     -2.9711442E-01
 14  2     -1.1421983E-01
 14  3     -3.8046651E-01
 14  4     -6.1000342E-03
 14  5     -1.4285066E-01
 14  6     -7.3192097E-02
 14  7      3.2132005E-02
 14  8     -8.3367284E-02
 220       5.00   72    0 5.00   18    0
   1.502   1.502   1.502   1.503   1.504   1.505   1.506   1.507   1.508   1.510
   1.511   1.513   1.514   1.515   1.516   1.517   1.518   1.518   1.518   1.518
   1.518   1.517   1.516   1.515   1.514   1.513   1.511   1.510   1.508   1.507
   1.506   1.505   1.504   1.503   1.502   1.502   1.502   1.502   1.502   1.503
   1.504   1.505   1.506   1.507   1.508   1.510   1.511   1.513   1.514   1.515
   1.516   1.517   1.518   1.518   1.518   1.518   1.518   1.517   1.516   1.515
   1.514   1.513   1.511   1.510   1.508   1.507   1.506   1.505   1.504   1.503
   1.502   1.502
   1.339   1.339   1.341   1.343   1.347   1.351   1.357   1.365   1.374   1.384
   1.395   1.407   1.420   1.431   1.442   1.452   1.459   1.463   1.465   1.463
   1.459   1.452   1.442   1.431   1.420   1.407   1.395   1.384   1.374   1.365
   1.357   1.351   1.347   1.343   1.341   1.339   1.339   1.339   1.341   1.343
   1.347   1.351   1.357   1.365   1.374   1.384   1.395   1.407   1.420   1.431
   1.442   1.452   1.459   1.463   1.465   1.463   1.459   1.452   1.442   1.431
   1.420   1.407   1.395   1.384   1.374   1.365   1.357   1.351   1.347   1.343
   1.341   1.339
   1.125   1.124   1.121   1.117   1.113   1.110   1.109   1.113   1.123   1.139
   1.161   1.191   1.225   1.262   1.299   1.333   1.359   1.376   1.382   1.376
   1.359   1.333   1.299   1.262   1.225   1.191   1.161   1.139   1.123   1.113
   1.109   1.110   1.113   1.117   1.121   1.124   1.125   1.124   1.121   1.117
   1.113   1.110   1.109   1.113   1.123   1.139   1.161   1.191   1.225   1.262
   1.299   1.333   1.359   1.376   1.382   1.376   1.359   1.333   1.299   1.262
   1.225   1.191   1.161   1.139   1.123   1.113   1.109   1.110   1.113   1.117
   1.121   1.124
   0.981   0.976   0.964   0.943   0.917   0.887   0.858   0.834   0.821   0.824
   0.847   0.892   0.956   1.035   1.121   1.203   1.272   1.317   1.333   1.317
   1.272   1.203   1.121   1.035   0.956   0.892   0.847   0.824   0.821   0.834
   0.858   0.887   0.917   0.943   0.964   0.976   0.981   0.976   0.964   0.943
   0.917   0.887   0.858   0.834   0.821   0.824   0.847   0.892   0.956   1.035
   1.121   1.203   1.272   1.317   1.333   1.317   1.272   1.203   1.121   1.035
   0.956   0.892   0.847   0.824   0.821   0.834   0.858   0.887   0.917   0.943
   0.964   0.976
   0.927   0.922   0.906   0.877   0.835   0.778   0.713   0.645   0.588   0.554
   0.555   0.601   0.691   0.819   0.971   1.126   1.258   1.348   1.380   1.348
   1.258   1.126   0.971   0.819   0.691   0.601   0.555   0.554   0.588   0.645
   0.713   0.778   0.835   0.877   0.906   0.922   0.927   0.922   0.906   0.877
   0.835   0.778   0.713   0.645   0.588   0.554   0.555   0.601   0.691   0.819
   0.971   1.126   1.258   1.348   1.380   1.348   1.258   1.126   0.971   0.819
   0.691   0.601   0.555   0.554   0.588   0.645   0.713   0.778   0.835   0.877
   0.906   0.922
   0.879   0.880   0.883   0.878   0.855   0.807   0.732   0.636   0.535   0.452
   0.410   0.431   0.524   0.686   0.896   1.123   1.324   1.464   1.514   1.464
   1.324   1.123   0.896   0.686   0.524   0.431   0.410   0.452   0.535   0.636
   0.732   0.807   0.855   0.878   0.883   0.880   0.879   0.880   0.883   0.878
   0.855   0.807   0.732   0.636   0.535   0.452   0.410   0.431   0.524   0.686
   0.896   1.123   1.324   1.464   1.514   1.464   1.324   1.123   0.896   0.686
   0.524   0.431   0.410   0.452   0.535   0.636   0.732   0.807   0.855   0.878
   0.883   0.880
   0.762   0.777   0.816   0.863   0.900   0.905   0.867   0.786   0.675   0.560
   0.473   0.448   0.508   0.660   0.885   1.144   1.386   1.558   1.620   1.558
   1.386   1.144   0.885   0.660   0.508   0.448   0.473   0.560   0.675   0.786
   0.867   0.905   0.900   0.863   0.816   0.777   0.762   0.777   0.816   0.863
   0.900   0.905   0.867   0.786   0.675   0.560   0.473   0.448   0.508   0.660
   0.885   1.144   1.386   1.558   1.620   1.558   1.386   1.144   0.885   0.660
   0.508   0.448   0.473   0.560   0.675   0.786   0.867   0.905   0.900   0.863
   0.816   0.777
   0.652   0.674   0.733   0.815   0.898   0.960   0.984   0.961   0.891   0.790
   0.688   0.621   0.623   0.715   0.892   1.122   1.350   1.518   1.580   1.518
   1.350   1.122   0.892   0.715   0.623   0.621   0.688   0.790   0.891   0.961
   0.984   0.960   0.898   0.815   0.733   0.674   0.652   0.674   0.733   0.815
   0.898   0.960   0.984   0.961   0.891   0.790   0.688   0.621   0.623   0.715
   0.892   1.122   1.350   1.518   1.580   1.518   1.350   1.122   0.892   0.715
   0.623   0.621   0.688   0.790   0.891   0.961   0.984   0.960   0.898   0.815
   0.733   0.674
   0.748   0.756   0.780   0.817   0.863   0.916   0.966   1.003   1.011   0.980
   0.917   0.844   0.799   0.814   0.905   1.055   1.223   1.354   1.404   1.354
   1.223   1.055   0.905   0.814   0.799   0.844   0.917   0.980   1.011   1.003
   0.966   0.916   0.863   0.817   0.780   0.756   0.748   0.756   0.780   0.817
   0.863   0.916   0.966   1.003   1.011   0.980   0.917   0.844   0.799   0.814
   0.905   1.055   1.223   1.354   1.404   1.354   1.223   1.055   0.905   0.814
   0.799   0.844   0.917   0.980   1.011   1.003   0.966   0.916   0.863   0.817
   0.780   0.756
   1.171   1.146   1.076   0.978   0.881   0.820   0.816   0.869   0.949   1.016
   1.039   1.013   0.966   0.937   0.955   1.025   1.121   1.203   1.235   1.203
   1.121   1.025   0.955   0.937   0.966   1.013   1.039   1.016   0.949   0.869
   0.816   0.820   0.881   0.978   1.076   1.146   1.171   1.146   1.076   0.978
   0.881   0.820   0.816   0.869   0.949   1.016   1.039   1.013   0.966   0.937
   0.955   1.025   1.121   1.203   1.235   1.203   1.121   1.025   0.955   0.937
   0.966   1.013   1.039   1.016   0.949   0.869   0.816   0.820   0.881   0.978
   1.076   1.146
   1.762   1.704   1.538   1.291   1.016   0.785   0.663   0.671   0.779   0.920
   1.030   1.079   1.079   1.064   1.065   1.093   1.138   1.177   1.192   1.177
   1.138   1.093   1.065   1.064   1.079   1.079   1.030   0.920   0.779   0.671
   0.663   0.785   1.016   1.291   1.538   1.704   1.762   1.704   1.538   1.291
   1.016   0.785   0.663   0.671   0.779   0.920   1.030   1.079   1.079   1.064
   1.065   1.093   1.138   1.177   1.192   1.177   1.138   1.093   1.065   1.064
   1.079   1.079   1.030   0.920   0.779   0.671   0.663   0.785   1.016   1.291
   1.538   1.704
   2.125   2.066   1.886   1.591   1.226   0.880   0.651   0.589   0.672   0.824
   0.967   1.061   1.115   1.151   1.183   1.209   1.221   1.223   1.221   1.223
   1.221   1.209   1.183   1.151   1.115   1.061   0.967   0.824   0.672   0.589
   0.651   0.880   1.226   1.591   1.886   2.066   2.125   2.066   1.886   1.591
   1.226   0.880   0.651   0.589   0.672   0.824   0.967   1.061   1.115   1.151
   1.183   1.209   1.221   1.223   1.221   1.223   1.221   1.209   1.183   1.151
   1.115   1.061   0.967   0.824   0.672   0.589   0.651   0.880   1.226   1.591
   1.886   2.066
   1.946   1.932   1.859   1.677   1.383   1.053   0.803   0.706   0.747   0.849
   0.943   1.010   1.073   1.148   1.218   1.246   1.221   1.172   1.147   1.172
   1.221   1.246   1.218   1.148   1.073   1.010   0.943   0.849   0.747   0.706
   0.803   1.053   1.383   1.677   1.859   1.932   1.946   1.932   1.859   1.677
   1.383   1.053   0.803   0.706   0.747   0.849   0.943   1.010   1.073   1.148
   1.218   1.246   1.221   1.172   1.147   1.172   1.221   1.246   1.218   1.148
   1.073   1.010   0.943   0.849   0.747   0.706   0.803   1.053   1.383   1.677
   1.859   1.932
   1.307   1.363   1.469   1.495   1.374   1.161   0.982   0.921   0.957   1.002
   0.999   0.973   0.986   1.062   1.145   1.155   1.066   0.943   0.886   0.943
   1.066   1.155   1.145   1.062   0.986   0.973   0.999   1.002   0.957   0.921
   0.982   1.161   1.374   1.495   1.469   1.363   1.307   1.363   1.469   1.495
   1.374   1.161   0.982   0.921   0.957   1.002   0.999   0.973   0.986   1.062
   1.145   1.155   1.066   0.943   0.886   0.943   1.066   1.155   1.145   1.062
   0.986   0.973   0.999   1.002   0.957   0.921   0.982   1.161   1.374   1.495
   1.469   1.363
   0.667   0.778   1.018   1.194   1.194   1.075   0.991   1.029   1.134   1.178
   1.102   0.975   0.917   0.972   1.053   1.033   0.870   0.663   0.569   0.663
   0.870   1.033   1.053   0.972   0.917   0.975   1.102   1.178   1.134   1.029
   0.991   1.075   1.194   1.194   1.018   0.778   0.667   0.778   1.018   1.194
   1.194   1.075   0.991   1.029   1.134   1.178   1.102   0.975   0.917   0.972
   1.053   1.033   0.870   0.663   0.569   0.663   0.870   1.033   1.053   0.972
   0.917   0.975   1.102   1.178   1.134   1.029   0.991   1.075   1.194   1.194
   1.018   0.778
   0.468   0.587   0.834   0.987   0.937   0.788   0.743   0.897   1.138   1.266
   1.192   1.015   0.916   0.967   1.064   1.033   0.815   0.540   0.415   0.540
   0.815   1.033   1.064   0.967   0.916   1.015   1.192   1.266   1.138   0.897
   0.743   0.788   0.937   0.987   0.834   0.587   0.468   0.587   0.834   0.987
   0.937   0.788   0.743   0.897   1.138   1.266   1.192   1.015   0.916   0.967
   1.064   1.033   0.815   0.540   0.415   0.540   0.815   1.033   1.064   0.967
   0.916   1.015   1.192   1.266   1.138   0.897   0.743   0.788   0.937   0.987
   0.834   0.587
   0.736   0.823   0.969   0.957   0.718   0.426   0.351   0.594   0.986   1.246
   1.236   1.071   0.977   1.056   1.193   1.180   0.944   0.632   0.489   0.632
   0.944   1.180   1.193   1.056   0.977   1.071   1.236   1.246   0.986   0.594
   0.351   0.426   0.718   0.957   0.969   0.823   0.736   0.823   0.969   0.957
   0.718   0.426   0.351   0.594   0.986   1.246   1.236   1.071   0.977   1.056
   1.193   1.180   0.944   0.632   0.489   0.632   0.944   1.180   1.193   1.056
   0.977   1.071   1.236   1.246   0.986   0.594   0.351   0.426   0.718   0.957
   0.969   0.823
   1.074   1.127   1.173   1.009   0.600   0.178   0.058   0.346   0.836   1.193
   1.246   1.111   1.038   1.148   1.321   1.334   1.100   0.776   0.626   0.776
   1.100   1.334   1.321   1.148   1.038   1.111   1.246   1.193   0.836   0.346
   0.058   0.178   0.600   1.009   1.173   1.127   1.074   1.127   1.173   1.009
   0.600   0.178   0.058   0.346   0.836   1.193   1.246   1.111   1.038   1.148
   1.321   1.334   1.100   0.776   0.626   0.776   1.100   1.334   1.321   1.148
   1.038   1.111   1.246   1.193   0.836   0.346   0.058   0.178   0.600   1.009
   1.173   1.127
 200       5.00   72    0 5.00   18    0
   0.951   0.951   0.950   0.949   0.947   0.945   0.943   0.940   0.937   0.934
   0.931   0.928   0.926   0.923   0.921   0.920   0.919   0.918   0.918   0.918
   0.919   0.920   0.921   0.923   0.926   0.928   0.931   0.934   0.937   0.940
   0.943   0.945   0.947   0.949   0.950   0.951   0.951   0.951   0.950   0.949
   0.947   0.945   0.943   0.940   0.937   0.934   0.931   0.928   0.926   0.923
   0.921   0.920   0.919   0.918   0.918   0.918   0.919   0.920   0.921   0.923
   0.926   0.928   0.931   0.934   0.937   0.940   0.943   0.945   0.947   0.949
   0.950   0.951
   1.177   1.174   1.167   1.154   1.137   1.117   1.095   1.071   1.047   1.024
   1.002   0.982   0.964   0.948   0.936   0.926   0.919   0.915   0.913   0.915
   0.919   0.926   0.936   0.948   0.964   0.982   1.002   1.024   1.047   1.071
   1.095   1.117   1.137   1.154   1.167   1.174   1.177   1.174   1.167   1.154
   1.137   1.117   1.095   1.071   1.047   1.024   1.002   0.982   0.964   0.948
   0.936   0.926   0.919   0.915   0.913   0.915   0.919   0.926   0.936   0.948
   0.964   0.982   1.002   1.024   1.047   1.071   1.095   1.117   1.137   1.154
   1.167   1.174
   1.522   1.513   1.489   1.450   1.400   1.343   1.283   1.224   1.168   1.118
   1.076   1.041   1.015   0.995   0.980   0.971   0.965   0.961   0.960   0.961
   0.965   0.971   0.980   0.995   1.015   1.041   1.076   1.118   1.168   1.224
   1.283   1.343   1.400   1.450   1.489   1.513   1.522   1.513   1.489   1.450
   1.400   1.343   1.283   1.224   1.168   1.118   1.076   1.041   1.015   0.995
   0.980   0.971   0.965   0.961   0.960   0.961   0.965   0.971   0.980   0.995
   1.015   1.041   1.076   1.118   1.168   1.224   1.283   1.343   1.400   1.450
   1.489   1.513
   1.803   1.785   1.735   1.658   1.562   1.458   1.356   1.264   1.187   1.128
   1.088   1.062   1.049   1.043   1.042   1.043   1.044   1.045   1.045   1.045
   1.044   1.043   1.042   1.043   1.049   1.062   1.088   1.128   1.187   1.264
   1.356   1.458   1.562   1.658   1.735   1.785   1.803   1.785   1.735   1.658
   1.562   1.458   1.356   1.264   1.187   1.128   1.088   1.062   1.049   1.043
   1.042   1.043   1.044   1.045   1.045   1.045   1.044   1.043   1.042   1.043
   1.049   1.062   1.088   1.128   1.187   1.264   1.356   1.458   1.562   1.658
   1.735   1.785
   1.855   1.827   1.750   1.634   1.498   1.359   1.236   1.141   1.079   1.049
   1.042   1.050   1.062   1.070   1.069   1.061   1.049   1.039   1.035   1.039
   1.049   1.061   1.069   1.070   1.062   1.050   1.042   1.049   1.079   1.141
   1.236   1.359   1.498   1.634   1.750   1.827   1.855   1.827   1.750   1.634
   1.498   1.359   1.236   1.141   1.079   1.049   1.042   1.050   1.062   1.070
   1.069   1.061   1.049   1.039   1.035   1.039   1.049   1.061   1.069   1.070
   1.062   1.050   1.042   1.049   1.079   1.141   1.236   1.359   1.498   1.634
   1.750   1.827
   1.642   1.609   1.514   1.377   1.225   1.086   0.982   0.928   0.923   0.958
   1.012   1.062   1.088   1.078   1.034   0.967   0.896   0.843   0.823   0.843
   0.896   0.967   1.034   1.078   1.088   1.062   1.012   0.958   0.923   0.928
   0.982   1.086   1.225   1.377   1.514   1.609   1.642   1.609   1.514   1.377
   1.225   1.086   0.982   0.928   0.923   0.958   1.012   1.062   1.088   1.078
   1.034   0.967   0.896   0.843   0.823   0.843   0.896   0.967   1.034   1.078
   1.088   1.062   1.012   0.958   0.923   0.928   0.982   1.086   1.225   1.377
   1.514   1.609
   1.294   1.261   1.169   1.041   0.908   0.803   0.750   0.762   0.833   0.943
   1.058   1.142   1.166   1.114   0.992   0.828   0.662   0.540   0.495   0.540
   0.662   0.828   0.992   1.114   1.166   1.142   1.058   0.943   0.833   0.762
   0.750   0.803   0.908   1.041   1.169   1.261   1.294   1.261   1.169   1.041
   0.908   0.803   0.750   0.762   0.833   0.943   1.058   1.142   1.166   1.114
   0.992   0.828   0.662   0.540   0.495   0.540   0.662   0.828   0.992   1.114
   1.166   1.142   1.058   0.943   0.833   0.762   0.750   0.803   0.908   1.041
   1.169   1.261
   0.988   0.965   0.903   0.819   0.738   0.687   0.686   0.747   0.863   1.013
   1.161   1.265   1.287   1.206   1.026   0.785   0.540   0.358   0.291   0.358
   0.540   0.785   1.026   1.206   1.287   1.265   1.161   1.013   0.863   0.747
   0.686   0.687   0.738   0.819   0.903   0.965   0.988   0.965   0.903   0.819
   0.738   0.687   0.686   0.747   0.863   1.013   1.161   1.265   1.287   1.206
   1.026   0.785   0.540   0.358   0.291   0.358   0.540   0.785   1.026   1.206
   1.287   1.265   1.161   1.013   0.863   0.747   0.686   0.687   0.738   0.819
   0.903   0.965
   0.793   0.791   0.786   0.781   0.779   0.789   0.819   0.879   0.973   1.095
   1.225   1.329   1.366   1.304   1.137   0.892   0.632   0.434   0.360   0.434
   0.632   0.892   1.137   1.304   1.366   1.329   1.225   1.095   0.973   0.879
   0.819   0.789   0.779   0.781   0.786   0.791   0.793   0.791   0.786   0.781
   0.779   0.789   0.819   0.879   0.973   1.095   1.225   1.329   1.366   1.304
   1.137   0.892   0.632   0.434   0.360   0.434   0.632   0.892   1.137   1.304
   1.366   1.329   1.225   1.095   0.973   0.879   0.819   0.789   0.779   0.781
   0.786   0.791
   0.630   0.657   0.730   0.828   0.924   0.997   1.040   1.061   1.078   1.113
   1.173   1.247   1.302   1.297   1.204   1.031   0.825   0.657   0.592   0.657
   0.825   1.031   1.204   1.297   1.302   1.247   1.173   1.113   1.078   1.061
   1.040   0.997   0.924   0.828   0.730   0.657   0.630   0.657   0.730   0.828
   0.924   0.997   1.040   1.061   1.078   1.113   1.173   1.247   1.302   1.297
   1.204   1.031   0.825   0.657   0.592   0.657   0.825   1.031   1.204   1.297
   1.302   1.247   1.173   1.113   1.078   1.061   1.040   0.997   0.924   0.828
   0.730   0.657
   0.419   0.471   0.614   0.806   0.995   1.134   1.197   1.187   1.130   1.066
   1.031   1.042   1.084   1.120   1.107   1.026   0.900   0.784   0.738   0.784
   0.900   1.026   1.107   1.120   1.084   1.042   1.031   1.066   1.130   1.187
   1.197   1.134   0.995   0.806   0.614   0.471   0.419   0.471   0.614   0.806
   0.995   1.134   1.197   1.187   1.130   1.066   1.031   1.042   1.084   1.120
   1.107   1.026   0.900   0.784   0.738   0.784   0.900   1.026   1.107   1.120
   1.084   1.042   1.031   1.066   1.130   1.187   1.197   1.134   0.995   0.806
   0.614   0.471
   0.211   0.273   0.443   0.676   0.914   1.101   1.204   1.214   1.146   1.035
   0.925   0.853   0.833   0.850   0.865   0.841   0.778   0.710   0.680   0.710
   0.778   0.841   0.865   0.850   0.833   0.853   0.925   1.035   1.146   1.214
   1.204   1.101   0.914   0.676   0.443   0.273   0.211   0.273   0.443   0.676
   0.914   1.101   1.204   1.214   1.146   1.035   0.925   0.853   0.833   0.850
   0.865   0.841   0.778   0.710   0.680   0.710   0.778   0.841   0.865   0.850
   0.833   0.853   0.925   1.035   1.146   1.214   1.204   1.101   0.914   0.676
   0.443   0.273
   0.166   0.215   0.352   0.547   0.761   0.956   1.103   1.182   1.180   1.100
   0.966   0.822   0.713   0.661   0.648   0.637   0.605   0.564   0.546   0.564
   0.605   0.637   0.648   0.661   0.713   0.822   0.966   1.100   1.180   1.182
   1.103   0.956   0.761   0.547   0.352   0.215   0.166   0.215   0.352   0.547
   0.761   0.956   1.103   1.182   1.180   1.100   0.966   0.822   0.713   0.661
   0.648   0.637   0.605   0.564   0.546   0.564   0.605   0.637   0.648   0.661
   0.713   0.822   0.966   1.100   1.180   1.182   1.103   0.956   0.761   0.547
   0.352   0.215
   0.360   0.383   0.451   0.556   0.692   0.849   1.016   1.167   1.261   1.259
   1.149   0.968   0.789   0.668   0.616   0.599   0.581   0.555   0.542   0.555
   0.581   0.599   0.616   0.668   0.789   0.968   1.149   1.259   1.261   1.167
   1.016   0.849   0.692   0.556   0.451   0.383   0.360   0.383   0.451   0.556
   0.692   0.849   1.016   1.167   1.261   1.259   1.149   0.968   0.789   0.668
   0.616   0.599   0.581   0.555   0.542   0.555   0.581   0.599   0.616   0.668
   0.789   0.968   1.149   1.259   1.261   1.167   1.016   0.849   0.692   0.556
   0.451   0.383
   0.671   0.676   0.694   0.731   0.796   0.900   1.047   1.219   1.366   1.422
   1.347   1.168   0.968   0.827   0.770   0.761   0.752   0.731   0.719   0.731
   0.752   0.761   0.770   0.827   0.968   1.168   1.347   1.422   1.366   1.219
   1.047   0.900   0.796   0.731   0.694   0.676   0.671   0.676   0.694   0.731
   0.796   0.900   1.047   1.219   1.366   1.422   1.347   1.168   0.968   0.827
   0.770   0.761   0.752   0.731   0.719   0.731   0.752   0.761   0.770   0.827
   0.968   1.168   1.347   1.422   1.366   1.219   1.047   0.900   0.796   0.731
   0.694   0.676
   0.883   0.894   0.925   0.973   1.032   1.107   1.207   1.333   1.449   1.497
   1.430   1.270   1.097   0.991   0.971   0.988   0.986   0.959   0.943   0.959
   0.986   0.988   0.971   0.991   1.097   1.270   1.430   1.497   1.449   1.333
   1.207   1.107   1.032   0.973   0.925   0.894   0.883   0.894   0.925   0.973
   1.032   1.107   1.207   1.333   1.449   1.497   1.430   1.270   1.097   0.991
   0.971   0.988   0.986   0.959   0.943   0.959   0.986   0.988   0.971   0.991
   1.097   1.270   1.430   1.497   1.449   1.333   1.207   1.107   1.032   0.973
   0.925   0.894
   0.901   0.938   1.036   1.165   1.282   1.365   1.418   1.459   1.487   1.472
   1.381   1.236   1.109   1.064   1.097   1.143   1.141   1.099   1.075   1.099
   1.141   1.143   1.097   1.064   1.109   1.236   1.381   1.472   1.487   1.459
   1.418   1.365   1.282   1.165   1.036   0.938   0.901   0.938   1.036   1.165
   1.282   1.365   1.418   1.459   1.487   1.472   1.381   1.236   1.109   1.064
   1.097   1.143   1.141   1.099   1.075   1.099   1.141   1.143   1.097   1.064
   1.109   1.236   1.381   1.472   1.487   1.459   1.418   1.365   1.282   1.165
   1.036   0.938
   0.834   0.894   1.054   1.258   1.436   1.538   1.562   1.539   1.494   1.420
   1.302   1.163   1.068   1.066   1.137   1.200   1.194   1.139   1.108   1.139
   1.194   1.200   1.137   1.066   1.068   1.163   1.302   1.420   1.494   1.539
   1.562   1.538   1.436   1.258   1.054   0.894   0.834   0.894   1.054   1.258
   1.436   1.538   1.562   1.539   1.494   1.420   1.302   1.163   1.068   1.066
   1.137   1.200   1.194   1.139   1.108   1.139   1.194   1.200   1.137   1.066
   1.068   1.163   1.302   1.420   1.494   1.539   1.562   1.538   1.436   1.258
   1.054   0.894
 111       5.00   72    0 5.00   18    0
   0.933   0.933   0.933   0.933   0.933   0.932   0.932   0.932   0.932   0.932
   0.931   0.931   0.931   0.931   0.931   0.931   0.931   0.931   0.931   0.931
   0.931   0.931   0.931   0.931   0.931   0.931   0.931   0.932   0.932   0.932
   0.932   0.932   0.933   0.933   0.933   0.933   0.933   0.933   0.933   0.933
   0.933   0.932   0.932   0.932   0.932   0.932   0.931   0.931   0.931   0.931
   0.931   0.931   0.931   0.931   0.931   0.931   0.931   0.931   0.931   0.931
   0.931   0.931   0.931   0.932   0.932   0.932   0.932   0.932   0.933   0.933
   0.933   0.933
   0.763   0.762   0.759   0.754   0.748   0.742   0.735   0.729   0.725   0.722
   0.721   0.721   0.724   0.727   0.731   0.735   0.738   0.740   0.741   0.740
   0.738   0.735   0.731   0.727   0.724   0.721   0.721   0.722   0.725   0.729
   0.735   0.742   0.748   0.754   0.759   0.762   0.763   0.762   0.759   0.754
   0.748   0.742   0.735   0.729   0.725   0.722   0.721   0.721   0.724   0.727
   0.731   0.735   0.738   0.740   0.741   0.740   0.738   0.735   0.731   0.727
   0.724   0.721   0.721   0.722   0.725   0.729   0.735   0.742   0.748   0.754
   0.759   0.762
   0.660   0.654   0.638   0.614   0.583   0.549   0.515   0.486   0.463   0.450
   0.447   0.455   0.473   0.497   0.525   0.552   0.574   0.589   0.594   0.589
   0.574   0.552   0.525   0.497   0.473   0.455   0.447   0.450   0.463   0.486
   0.515   0.549   0.583   0.614   0.638   0.654   0.660   0.654   0.638   0.614
   0.583   0.549   0.515   0.486   0.463   0.450   0.447   0.455   0.473   0.497
   0.525   0.552   0.574   0.589   0.594   0.589   0.574   0.552   0.525   0.497
   0.473   0.455   0.447   0.450   0.463   0.486   0.515   0.549   0.583   0.614
   0.638   0.654
   0.820   0.808   0.774   0.719   0.650   0.572   0.492   0.419   0.360   0.322
   0.310   0.325   0.365   0.425   0.495   0.567   0.628   0.669   0.683   0.669
   0.628   0.567   0.495   0.425   0.365   0.325   0.310   0.322   0.360   0.419
   0.492   0.572   0.650   0.719   0.774   0.808   0.820   0.808   0.774   0.719
   0.650   0.572   0.492   0.419   0.360   0.322   0.310   0.325   0.365   0.425
   0.495   0.567   0.628   0.669   0.683   0.669   0.628   0.567   0.495   0.425
   0.365   0.325   0.310   0.322   0.360   0.419   0.492   0.572   0.650   0.719
   0.774   0.808
   1.166   1.154   1.117   1.057   0.975   0.877   0.769   0.658   0.557   0.477
   0.430   0.424   0.461   0.537   0.640   0.752   0.852   0.921   0.946   0.921
   0.852   0.752   0.640   0.537   0.461   0.424   0.430   0.477   0.557   0.658
   0.769   0.877   0.975   1.057   1.117   1.154   1.166   1.154   1.117   1.057
   0.975   0.877   0.769   0.658   0.557   0.477   0.430   0.424   0.461   0.537
   0.640   0.752   0.852   0.921   0.946   0.921   0.852   0.752   0.640   0.537
   0.461   0.424   0.430   0.477   0.557   0.658   0.769   0.877   0.975   1.057
   1.117   1.154
   1.413   1.413   1.411   1.402   1.377   1.329   1.253   1.148   1.022   0.891
   0.776   0.700   0.678   0.717   0.806   0.924   1.042   1.127   1.158   1.127
   1.042   0.924   0.806   0.717   0.678   0.700   0.776   0.891   1.022   1.148
   1.253   1.329   1.377   1.402   1.411   1.413   1.413   1.413   1.411   1.402
   1.377   1.329   1.253   1.148   1.022   0.891   0.776   0.700   0.678   0.717
   0.806   0.924   1.042   1.127   1.158   1.127   1.042   0.924   0.806   0.717
   0.678   0.700   0.776   0.891   1.022   1.148   1.253   1.329   1.377   1.402
   1.411   1.413
   1.357   1.379   1.441   1.528   1.620   1.690   1.711   1.667   1.553   1.383
   1.188   1.010   0.886   0.840   0.874   0.965   1.076   1.165   1.199   1.165
   1.076   0.965   0.874   0.840   0.886   1.010   1.188   1.383   1.553   1.667
   1.711   1.690   1.620   1.528   1.441   1.379   1.357   1.379   1.441   1.528
   1.620   1.690   1.711   1.667   1.553   1.383   1.188   1.010   0.886   0.840
   0.874   0.965   1.076   1.165   1.199   1.165   1.076   0.965   0.874   0.840
   0.886   1.010   1.188   1.383   1.553   1.667   1.711   1.690   1.620   1.528
   1.441   1.379
   1.062   1.102   1.216   1.388   1.588   1.778   1.913   1.957   1.889   1.717
   1.475   1.219   1.009   0.888   0.869   0.933   1.035   1.123   1.158   1.123
   1.035   0.933   0.869   0.888   1.009   1.219   1.475   1.717   1.889   1.957
   1.913   1.778   1.588   1.388   1.216   1.102   1.062   1.102   1.216   1.388
   1.588   1.778   1.913   1.957   1.889   1.717   1.475   1.219   1.009   0.888
   0.869   0.933   1.035   1.123   1.158   1.123   1.035   0.933   0.869   0.888
   1.009   1.219   1.475   1.717   1.889   1.957   1.913   1.778   1.588   1.388
   1.216   1.102
   0.769   0.809   0.926   1.108   1.334   1.568   1.766   1.879   1.874   1.746
   1.525   1.270   1.049   0.916   0.890   0.952   1.055   1.145   1.181   1.145
   1.055   0.952   0.890   0.916   1.049   1.270   1.525   1.746   1.874   1.879
   1.766   1.568   1.334   1.108   0.926   0.809   0.769   0.809   0.926   1.108
   1.334   1.568   1.766   1.879   1.874   1.746   1.525   1.270   1.049   0.916
   0.890   0.952   1.055   1.145   1.181   1.145   1.055   0.952   0.890   0.916
   1.049   1.270   1.525   1.746   1.874   1.879   1.766   1.568   1.334   1.108
   0.926   0.809
   0.644   0.667   0.737   0.852   1.007   1.187   1.364   1.497   1.549   1.500
   1.364   1.190   1.038   0.958   0.967   1.044   1.147   1.230   1.262   1.230
   1.147   1.044   0.967   0.958   1.038   1.190   1.364   1.500   1.549   1.497
   1.364   1.187   1.007   0.852   0.737   0.667   0.644   0.667   0.737   0.852
   1.007   1.187   1.364   1.497   1.549   1.500   1.364   1.190   1.038   0.958
   0.967   1.044   1.147   1.230   1.262   1.230   1.147   1.044   0.967   0.958
   1.038   1.190   1.364   1.500   1.549   1.497   1.364   1.187   1.007   0.852
   0.737   0.667
   0.660   0.666   0.681   0.709   0.754   0.827   0.929   1.041   1.130   1.162
   1.129   1.059   0.999   0.987   1.033   1.113   1.193   1.249   1.268   1.249
   1.193   1.113   1.033   0.987   0.999   1.059   1.129   1.162   1.130   1.041
   0.929   0.827   0.754   0.709   0.681   0.666   0.660   0.666   0.681   0.709
   0.754   0.827   0.929   1.041   1.130   1.162   1.129   1.059   0.999   0.987
   1.033   1.113   1.193   1.249   1.268   1.249   1.193   1.113   1.033   0.987
   0.999   1.059   1.129   1.162   1.130   1.041   0.929   0.827   0.754   0.709
   0.681   0.666
   0.692   0.696   0.702   0.691   0.665   0.649   0.675   0.753   0.857   0.938
   0.968   0.956   0.945   0.968   1.025   1.087   1.124   1.135   1.135   1.135
   1.124   1.087   1.025   0.968   0.945   0.956   0.968   0.938   0.857   0.753
   0.675   0.649   0.665   0.691   0.702   0.696   0.692   0.696   0.702   0.691
   0.665   0.649   0.675   0.753   0.857   0.938   0.968   0.956   0.945   0.968
   1.025   1.087   1.124   1.135   1.135   1.135   1.124   1.087   1.025   0.968
   0.945   0.956   0.968   0.938   0.857   0.753   0.675   0.649   0.665   0.691
   0.702   0.696
   0.682   0.707   0.759   0.784   0.757   0.704   0.684   0.733   0.832   0.916
   0.938   0.909   0.883   0.905   0.966   1.017   1.023   0.996   0.980   0.996
   1.023   1.017   0.966   0.905   0.883   0.909   0.938   0.916   0.832   0.733
   0.684   0.704   0.757   0.784   0.759   0.707   0.682   0.707   0.759   0.784
   0.757   0.704   0.684   0.733   0.832   0.916   0.938   0.909   0.883   0.905
   0.966   1.017   1.023   0.996   0.980   0.996   1.023   1.017   0.966   0.905
   0.883   0.909   0.938   0.916   0.832   0.733   0.684   0.704   0.757   0.784
   0.759   0.707
   0.682   0.738   0.864   0.963   0.972   0.913   0.866   0.891   0.967   1.015
   0.976   0.876   0.805   0.829   0.927   1.016   1.033   0.995   0.970   0.995
   1.033   1.016   0.927   0.829   0.805   0.876   0.976   1.015   0.967   0.891
   0.866   0.913   0.972   0.963   0.864   0.738   0.682   0.738   0.864   0.963
   0.972   0.913   0.866   0.891   0.967   1.015   0.976   0.876   0.805   0.829
   0.927   1.016   1.033   0.995   0.970   0.995   1.033   1.016   0.927   0.829
   0.805   0.876   0.976   1.015   0.967   0.891   0.866   0.913   0.972   0.963
   0.864   0.738
   0.760   0.842   1.025   1.176   1.203   1.124   1.042   1.033   1.075   1.069
   0.952   0.778   0.680   0.748   0.940   1.120   1.188   1.161   1.134   1.161
   1.188   1.120   0.940   0.748   0.680   0.778   0.952   1.069   1.075   1.033
   1.042   1.124   1.203   1.176   1.025   0.842   0.760   0.842   1.025   1.176
   1.203   1.124   1.042   1.033   1.075   1.069   0.952   0.778   0.680   0.748
   0.940   1.120   1.188   1.161   1.134   1.161   1.188   1.120   0.940   0.748
   0.680   0.778   0.952   1.069   1.075   1.033   1.042   1.124   1.203   1.176
   1.025   0.842
   0.915   1.006   1.206   1.358   1.353   1.218   1.076   1.021   1.023   0.968
   0.792   0.575   0.490   0.645   0.965   1.258   1.384   1.367   1.337   1.367
   1.384   1.258   0.965   0.645   0.490   0.575   0.792   0.968   1.023   1.021
   1.076   1.218   1.353   1.358   1.206   1.006   0.915   1.006   1.206   1.358
   1.353   1.218   1.076   1.021   1.023   0.968   0.792   0.575   0.490   0.645
   0.965   1.258   1.384   1.367   1.337   1.367   1.384   1.258   0.965   0.645
   0.490   0.575   0.792   0.968   1.023   1.021   1.076   1.218   1.353   1.358
   1.206   1.006
   1.078   1.166   1.350   1.464   1.397   1.187   0.977   0.873   0.841   0.754
   0.546   0.319   0.275   0.524   0.962   1.346   1.508   1.488   1.451   1.488
   1.508   1.346   0.962   0.524   0.275   0.319   0.546   0.754   0.841   0.873
   0.977   1.187   1.397   1.464   1.350   1.166   1.078   1.166   1.350   1.464
   1.397   1.187   0.977   0.873   0.841   0.754   0.546   0.319   0.275   0.524
   0.962   1.346   1.508   1.488   1.451   1.488   1.508   1.346   0.962   0.524
   0.275   0.319   0.546   0.754   0.841   0.873   0.977   1.187   1.397   1.464
   1.350   1.166
   1.178   1.260   1.425   1.504   1.388   1.125   0.869   0.733   0.681   0.579
   0.361   0.138   0.127   0.436   0.942   1.373   1.549   1.519   1.475   1.519
   1.549   1.373   0.942   0.436   0.127   0.138   0.361   0.579   0.681   0.733
   0.869   1.125   1.388   1.504   1.425   1.260   1.178   1.260   1.425   1.504
   1.388   1.125   0.869   0.733   0.681   0.579   0.361   0.138   0.127   0.436
   0.942   1.373   1.549   1.519   1.475   1.519   1.549   1.373   0.942   0.436
   0.127   0.138   0.361   0.579   0.681   0.733   0.869   1.125   1.388   1.504
   1.425   1.260
TEXTURE_INDEX=   1.4003
ERR_CF 220         1080     666   35.56   25.83
ERR_CF 200         1080     512   37.01   21.63
ERR_CF 111         1080     440   29.93   20.79
