TEXEVAL                                                                         
Analysis started on 08-Aug-19 08:38:09                                          
 LMAX=14LFMAX=03 CUBIC ORTHO   
 220      5.00 5.00
 200      5.00 5.00
 111      5.00 5.00
 220       5.00   72    0 5.00   15    0
   0.432   0.432   0.432   0.432   0.432   0.432   0.432   0.432   0.432   0.432
   0.432   0.432   0.432   0.432   0.432   0.432   0.432   0.432   0.432   0.432
   0.432   0.432   0.432   0.432   0.432   0.432   0.432   0.432   0.432   0.432
   0.432   0.432   0.432   0.432   0.432   0.432   0.432   0.432   0.432   0.432
   0.432   0.432   0.432   0.432   0.432   0.432   0.432   0.432   0.432   0.432
   0.432   0.432   0.432   0.432   0.432   0.432   0.432   0.432   0.432   0.432
   0.432   0.432   0.432   0.432   0.432   0.432   0.432   0.432   0.432   0.432
   0.432   0.432
   0.686   0.801   0.772   0.484   0.541   0.975   0.904   0.702   0.547   0.821
   0.835   0.713   0.788   0.560   0.666   0.584   0.867   0.597   0.707   0.597
   0.867   0.584   0.666   0.560   0.788   0.713   0.835   0.821   0.547   0.702
   0.904   0.975   0.541   0.484   0.772   0.801   0.686   0.801   0.772   0.484
   0.541   0.975   0.904   0.702   0.547   0.821   0.835   0.713   0.788   0.560
   0.666   0.584   0.867   0.597   0.707   0.597   0.867   0.584   0.666   0.560
   0.788   0.713   0.835   0.821   0.547   0.702   0.904   0.975   0.541   0.484
   0.772   0.801
   0.801   1.236   0.881   0.971   0.781   1.199   0.916   0.940   0.855   1.074
   1.218   0.817   1.125   1.270   0.830   0.879   1.276   0.707   1.308   0.707
   1.276   0.879   0.830   1.270   1.125   0.817   1.218   1.074   0.855   0.940
   0.916   1.199   0.781   0.971   0.881   1.236   0.801   1.236   0.881   0.971
   0.781   1.199   0.916   0.940   0.855   1.074   1.218   0.817   1.125   1.270
   0.830   0.879   1.276   0.707   1.308   0.707   1.276   0.879   0.830   1.270
   1.125   0.817   1.218   1.074   0.855   0.940   0.916   1.199   0.781   0.971
   0.881   1.236
   1.020   1.478   1.409   1.235   0.728   0.942   0.893   0.944   0.878   1.032
   1.260   0.889   1.355   1.208   0.716   1.105   1.078   0.955   1.341   0.955
   1.078   1.105   0.716   1.208   1.355   0.889   1.260   1.032   0.878   0.944
   0.893   0.942   0.728   1.235   1.409   1.478   1.020   1.478   1.409   1.235
   0.728   0.942   0.893   0.944   0.878   1.032   1.260   0.889   1.355   1.208
   0.716   1.105   1.078   0.955   1.341   0.955   1.078   1.105   0.716   1.208
   1.355   0.889   1.260   1.032   0.878   0.944   0.893   0.942   0.728   1.235
   1.409   1.478
   1.508   1.816   1.543   1.305   1.399   1.102   1.004   0.854   0.848   1.014
   1.114   1.207   1.300   0.778   0.631   0.868   1.004   1.091   0.770   1.091
   1.004   0.868   0.631   0.778   1.300   1.207   1.114   1.014   0.848   0.854
   1.004   1.102   1.399   1.305   1.543   1.816   1.508   1.816   1.543   1.305
   1.399   1.102   1.004   0.854   0.848   1.014   1.114   1.207   1.300   0.778
   0.631   0.868   1.004   1.091   0.770   1.091   1.004   0.868   0.631   0.778
   1.300   1.207   1.114   1.014   0.848   0.854   1.004   1.102   1.399   1.305
   1.543   1.816
   1.679   2.241   1.185   1.244   1.828   1.154   1.201   0.958   1.159   0.971
   0.972   1.593   0.884   1.030   0.683   0.847   0.735   0.698   0.821   0.698
   0.735   0.847   0.683   1.030   0.884   1.593   0.972   0.971   1.159   0.958
   1.201   1.154   1.828   1.244   1.185   2.241   1.679   2.241   1.185   1.244
   1.828   1.154   1.201   0.958   1.159   0.971   0.972   1.593   0.884   1.030
   0.683   0.847   0.735   0.698   0.821   0.698   0.735   0.847   0.683   1.030
   0.884   1.593   0.972   0.971   1.159   0.958   1.201   1.154   1.828   1.244
   1.185   2.241
   1.808   2.030   1.324   1.281   1.156   1.364   1.498   1.209   1.324   1.260
   1.003   1.535   0.822   1.022   1.092   1.213   0.703   0.391   0.499   0.391
   0.703   1.213   1.092   1.022   0.822   1.535   1.003   1.260   1.324   1.209
   1.498   1.364   1.156   1.281   1.324   2.030   1.808   2.030   1.324   1.281
   1.156   1.364   1.498   1.209   1.324   1.260   1.003   1.535   0.822   1.022
   1.092   1.213   0.703   0.391   0.499   0.391   0.703   1.213   1.092   1.022
   0.822   1.535   1.003   1.260   1.324   1.209   1.498   1.364   1.156   1.281
   1.324   2.030
   1.675   1.297   1.042   1.190   0.823   1.444   1.506   1.406   0.988   1.028
   1.287   1.360   1.021   1.147   1.298   1.000   1.314   1.108   0.546   1.108
   1.314   1.000   1.298   1.147   1.021   1.360   1.287   1.028   0.988   1.406
   1.506   1.444   0.823   1.190   1.042   1.297   1.675   1.297   1.042   1.190
   0.823   1.444   1.506   1.406   0.988   1.028   1.287   1.360   1.021   1.147
   1.298   1.000   1.314   1.108   0.546   1.108   1.314   1.000   1.298   1.147
   1.021   1.360   1.287   1.028   0.988   1.406   1.506   1.444   0.823   1.190
   1.042   1.297
   0.884   0.964   0.458   1.526   0.936   0.997   0.980   1.685   0.717   1.030
   1.427   1.216   1.432   1.096   1.450   0.696   1.288   1.476   1.057   1.476
   1.288   0.696   1.450   1.096   1.432   1.216   1.427   1.030   0.717   1.685
   0.980   0.997   0.936   1.526   0.458   0.964   0.884   0.964   0.458   1.526
   0.936   0.997   0.980   1.685   0.717   1.030   1.427   1.216   1.432   1.096
   1.450   0.696   1.288   1.476   1.057   1.476   1.288   0.696   1.450   1.096
   1.432   1.216   1.427   1.030   0.717   1.685   0.980   0.997   0.936   1.526
   0.458   0.964
   0.557   0.610   0.837   1.607   1.284   0.892   0.637   1.051   1.106   1.040
   1.230   0.872   1.304   0.441   1.403   0.671   1.033   1.124   0.706   1.124
   1.033   0.671   1.403   0.441   1.304   0.872   1.230   1.040   1.106   1.051
   0.637   0.892   1.284   1.607   0.837   0.610   0.557   0.610   0.837   1.607
   1.284   0.892   0.637   1.051   1.106   1.040   1.230   0.872   1.304   0.441
   1.403   0.671   1.033   1.124   0.706   1.124   1.033   0.671   1.403   0.441
   1.304   0.872   1.230   1.040   1.106   1.051   0.637   0.892   1.284   1.607
   0.837   0.610
   0.931   1.125   1.451   0.900   1.241   0.745   0.540   0.672   1.229   0.543
   1.641   0.933   1.092   0.926   1.122   1.022   1.165   0.753   1.159   0.753
   1.165   1.022   1.122   0.926   1.092   0.933   1.641   0.543   1.229   0.672
   0.540   0.745   1.241   0.900   1.451   1.125   0.931   1.125   1.451   0.900
   1.241   0.745   0.540   0.672   1.229   0.543   1.641   0.933   1.092   0.926
   1.122   1.022   1.165   0.753   1.159   0.753   1.165   1.022   1.122   0.926
   1.092   0.933   1.641   0.543   1.229   0.672   0.540   0.745   1.241   0.900
   1.451   1.125
   0.885   2.404   1.981   1.105   0.898   0.485   0.711   0.903   1.256   1.162
   1.200   1.221   1.133   1.697   1.822   1.905   1.650   1.293   1.437   1.293
   1.650   1.905   1.822   1.697   1.133   1.221   1.200   1.162   1.256   0.903
   0.711   0.485   0.898   1.105   1.981   2.404   0.885   2.404   1.981   1.105
   0.898   0.485   0.711   0.903   1.256   1.162   1.200   1.221   1.133   1.697
   1.822   1.905   1.650   1.293   1.437   1.293   1.650   1.905   1.822   1.697
   1.133   1.221   1.200   1.162   1.256   0.903   0.711   0.485   0.898   1.105
   1.981   2.404
   0.687   1.673   1.465   1.184   0.567   0.218   0.669   0.433   1.202   1.601
   0.623   0.844   0.859   1.271   1.381   1.632   1.042   1.512   0.658   1.512
   1.042   1.632   1.381   1.271   0.859   0.844   0.623   1.601   1.202   0.433
   0.669   0.218   0.567   1.184   1.465   1.673   0.687   1.673   1.465   1.184
   0.567   0.218   0.669   0.433   1.202   1.601   0.623   0.844   0.859   1.271
   1.381   1.632   1.042   1.512   0.658   1.512   1.042   1.632   1.381   1.271
   0.859   0.844   0.623   1.601   1.202   0.433   0.669   0.218   0.567   1.184
   1.465   1.673
   1.062   0.505   0.260   1.236   0.666   0.576   0.196   0.429   0.767   0.908
   1.127   0.982   0.916   0.791   1.320   0.806   0.029   0.602   0.225   0.602
   0.029   0.806   1.320   0.791   0.916   0.982   1.127   0.908   0.767   0.429
   0.196   0.576   0.666   1.236   0.260   0.505   1.062   0.505   0.260   1.236
   0.666   0.576   0.196   0.429   0.767   0.908   1.127   0.982   0.916   0.791
   1.320   0.806   0.029   0.602   0.225   0.602   0.029   0.806   1.320   0.791
   0.916   0.982   1.127   0.908   0.767   0.429   0.196   0.576   0.666   1.236
   0.260   0.505
   0.718   0.184   0.000   0.804   0.503   1.552   0.020   0.535   0.622   0.164
   0.612   0.736   1.269   0.377   1.144   0.944   0.453   0.166   0.340   0.166
   0.453   0.944   1.144   0.377   1.269   0.736   0.612   0.164   0.622   0.535
   0.020   1.552   0.503   0.804   0.000   0.184   0.718   0.184   0.000   0.804
   0.503   1.552   0.020   0.535   0.622   0.164   0.612   0.736   1.269   0.377
   1.144   0.944   0.453   0.166   0.340   0.166   0.453   0.944   1.144   0.377
   1.269   0.736   0.612   0.164   0.622   0.535   0.020   1.552   0.503   0.804
   0.000   0.184
 200       5.00   72    0 5.00   15    0
   1.612   1.612   1.612   1.612   1.612   1.612   1.612   1.612   1.612   1.612
   1.612   1.612   1.612   1.612   1.612   1.612   1.612   1.612   1.612   1.612
   1.612   1.612   1.612   1.612   1.612   1.612   1.612   1.612   1.612   1.612
   1.612   1.612   1.612   1.612   1.612   1.612   1.612   1.612   1.612   1.612
   1.612   1.612   1.612   1.612   1.612   1.612   1.612   1.612   1.612   1.612
   1.612   1.612   1.612   1.612   1.612   1.612   1.612   1.612   1.612   1.612
   1.612   1.612   1.612   1.612   1.612   1.612   1.612   1.612   1.612   1.612
   1.612   1.612
   1.500   1.247   1.251   1.368   1.339   1.413   1.409   1.447   1.246   1.340
   1.253   1.479   1.356   1.415   1.789   1.385   1.326   1.513   1.253   1.513
   1.326   1.385   1.789   1.415   1.356   1.479   1.253   1.340   1.246   1.447
   1.409   1.413   1.339   1.368   1.251   1.247   1.500   1.247   1.251   1.368
   1.339   1.413   1.409   1.447   1.246   1.340   1.253   1.479   1.356   1.415
   1.789   1.385   1.326   1.513   1.253   1.513   1.326   1.385   1.789   1.415
   1.356   1.479   1.253   1.340   1.246   1.447   1.409   1.413   1.339   1.368
   1.251   1.247
   1.377   1.373   1.404   1.225   1.284   1.152   1.654   1.544   1.257   1.252
   1.079   1.632   1.690   1.962   1.797   1.397   1.332   1.590   1.554   1.590
   1.332   1.397   1.797   1.962   1.690   1.632   1.079   1.252   1.257   1.544
   1.654   1.152   1.284   1.225   1.404   1.373   1.377   1.373   1.404   1.225
   1.284   1.152   1.654   1.544   1.257   1.252   1.079   1.632   1.690   1.962
   1.797   1.397   1.332   1.590   1.554   1.590   1.332   1.397   1.797   1.962
   1.690   1.632   1.079   1.252   1.257   1.544   1.654   1.152   1.284   1.225
   1.404   1.373
   1.561   1.341   1.572   1.266   1.206   1.217   1.548   1.198   1.438   1.411
   1.404   1.947   1.641   1.885   1.542   1.452   1.208   1.464   1.157   1.464
   1.208   1.452   1.542   1.885   1.641   1.947   1.404   1.411   1.438   1.198
   1.548   1.217   1.206   1.266   1.572   1.341   1.561   1.341   1.572   1.266
   1.206   1.217   1.548   1.198   1.438   1.411   1.404   1.947   1.641   1.885
   1.542   1.452   1.208   1.464   1.157   1.464   1.208   1.452   1.542   1.885
   1.641   1.947   1.404   1.411   1.438   1.198   1.548   1.217   1.206   1.266
   1.572   1.341
   1.106   1.002   1.708   1.307   1.075   1.092   0.750   0.836   1.298   1.304
   1.849   1.759   1.317   1.420   1.545   1.371   1.422   1.402   1.065   1.402
   1.422   1.371   1.545   1.420   1.317   1.759   1.849   1.304   1.298   0.836
   0.750   1.092   1.075   1.307   1.708   1.002   1.106   1.002   1.708   1.307
   1.075   1.092   0.750   0.836   1.298   1.304   1.849   1.759   1.317   1.420
   1.545   1.371   1.422   1.402   1.065   1.402   1.422   1.371   1.545   1.420
   1.317   1.759   1.849   1.304   1.298   0.836   0.750   1.092   1.075   1.307
   1.708   1.002
   1.092   1.081   1.002   1.009   1.037   0.980   0.575   0.797   0.851   0.973
   1.124   1.031   1.067   1.322   1.368   0.964   1.580   1.258   0.862   1.258
   1.580   0.964   1.368   1.322   1.067   1.031   1.124   0.973   0.851   0.797
   0.575   0.980   1.037   1.009   1.002   1.081   1.092   1.081   1.002   1.009
   1.037   0.980   0.575   0.797   0.851   0.973   1.124   1.031   1.067   1.322
   1.368   0.964   1.580   1.258   0.862   1.258   1.580   0.964   1.368   1.322
   1.067   1.031   1.124   0.973   0.851   0.797   0.575   0.980   1.037   1.009
   1.002   1.081
   1.104   1.154   0.583   0.769   0.904   0.807   0.627   1.024   0.845   1.130
   0.639   0.751   0.683   1.216   0.939   0.695   1.196   1.001   0.933   1.001
   1.196   0.695   0.939   1.216   0.683   0.751   0.639   1.130   0.845   1.024
   0.627   0.807   0.904   0.769   0.583   1.154   1.104   1.154   0.583   0.769
   0.904   0.807   0.627   1.024   0.845   1.130   0.639   0.751   0.683   1.216
   0.939   0.695   1.196   1.001   0.933   1.001   1.196   0.695   0.939   1.216
   0.683   0.751   0.639   1.130   0.845   1.024   0.627   0.807   0.904   0.769
   0.583   1.154
   1.222   1.183   0.633   0.629   0.433   0.556   0.446   0.880   0.868   0.901
   0.546   0.665   0.435   0.998   0.996   0.572   0.782   0.788   0.756   0.788
   0.782   0.572   0.996   0.998   0.435   0.665   0.546   0.901   0.868   0.880
   0.446   0.556   0.433   0.629   0.633   1.183   1.222   1.183   0.633   0.629
   0.433   0.556   0.446   0.880   0.868   0.901   0.546   0.665   0.435   0.998
   0.996   0.572   0.782   0.788   0.756   0.788   0.782   0.572   0.996   0.998
   0.435   0.665   0.546   0.901   0.868   0.880   0.446   0.556   0.433   0.629
   0.633   1.183
   1.130   0.904   0.309   0.236   0.236   0.420   0.532   0.202   0.625   0.374
   0.262   0.367   0.535   0.633   0.914   0.212   0.720   0.771   0.372   0.771
   0.720   0.212   0.914   0.633   0.535   0.367   0.262   0.374   0.625   0.202
   0.532   0.420   0.236   0.236   0.309   0.904   1.130   0.904   0.309   0.236
   0.236   0.420   0.532   0.202   0.625   0.374   0.262   0.367   0.535   0.633
   0.914   0.212   0.720   0.771   0.372   0.771   0.720   0.212   0.914   0.633
   0.535   0.367   0.262   0.374   0.625   0.202   0.532   0.420   0.236   0.236
   0.309   0.904
   0.555   0.296   0.673   0.354   0.728   0.478   0.556   0.235   0.837   0.382
   0.561   0.265   0.868   0.598   0.545   0.320   0.864   0.879   0.393   0.879
   0.864   0.320   0.545   0.598   0.868   0.265   0.561   0.382   0.837   0.235
   0.556   0.478   0.728   0.354   0.673   0.296   0.555   0.296   0.673   0.354
   0.728   0.478   0.556   0.235   0.837   0.382   0.561   0.265   0.868   0.598
   0.545   0.320   0.864   0.879   0.393   0.879   0.864   0.320   0.545   0.598
   0.868   0.265   0.561   0.382   0.837   0.235   0.556   0.478   0.728   0.354
   0.673   0.296
   0.543   0.626   0.752   0.799   0.553   0.563   0.596   0.406   0.949   0.289
   0.659   0.549   0.688   0.702   0.573   0.874   1.031   0.800   0.332   0.800
   1.031   0.874   0.573   0.702   0.688   0.549   0.659   0.289   0.949   0.406
   0.596   0.563   0.553   0.799   0.752   0.626   0.543   0.626   0.752   0.799
   0.553   0.563   0.596   0.406   0.949   0.289   0.659   0.549   0.688   0.702
   0.573   0.874   1.031   0.800   0.332   0.800   1.031   0.874   0.573   0.702
   0.688   0.549   0.659   0.289   0.949   0.406   0.596   0.563   0.553   0.799
   0.752   0.626
   1.049   1.094   0.230   1.218   0.248   0.667   0.871   0.780   0.867   0.818
   0.448   0.566   0.625   0.599   0.660   0.874   0.874   1.090   0.415   1.090
   0.874   0.874   0.660   0.599   0.625   0.566   0.448   0.818   0.867   0.780
   0.871   0.667   0.248   1.218   0.230   1.094   1.049   1.094   0.230   1.218
   0.248   0.667   0.871   0.780   0.867   0.818   0.448   0.566   0.625   0.599
   0.660   0.874   0.874   1.090   0.415   1.090   0.874   0.874   0.660   0.599
   0.625   0.566   0.448   0.818   0.867   0.780   0.871   0.667   0.248   1.218
   0.230   1.094
   0.790   0.895   0.253   1.127   1.029   0.906   0.703   0.552   1.116   0.963
   0.531   0.714   0.491   0.727   0.950   0.487   0.386   1.133   0.148   1.133
   0.386   0.487   0.950   0.727   0.491   0.714   0.531   0.963   1.116   0.552
   0.703   0.906   1.029   1.127   0.253   0.895   0.790   0.895   0.253   1.127
   1.029   0.906   0.703   0.552   1.116   0.963   0.531   0.714   0.491   0.727
   0.950   0.487   0.386   1.133   0.148   1.133   0.386   0.487   0.950   0.727
   0.491   0.714   0.531   0.963   1.116   0.552   0.703   0.906   1.029   1.127
   0.253   0.895
   0.364   0.528   1.049   1.324   1.258   1.142   0.662   0.522   0.974   1.178
   0.897   1.156   0.268   1.034   0.974   1.106   0.876   0.419   0.525   0.419
   0.876   1.106   0.974   1.034   0.268   1.156   0.897   1.178   0.974   0.522
   0.662   1.142   1.258   1.324   1.049   0.528   0.364   0.528   1.049   1.324
   1.258   1.142   0.662   0.522   0.974   1.178   0.897   1.156   0.268   1.034
   0.974   1.106   0.876   0.419   0.525   0.419   0.876   1.106   0.974   1.034
   0.268   1.156   0.897   1.178   0.974   0.522   0.662   1.142   1.258   1.324
   1.049   0.528
   0.982   0.833   1.071   2.079   0.989   1.712   0.576   0.819   1.037   1.897
   1.846   0.588   1.222   1.648   0.699   2.234   1.692   0.839   0.969   0.839
   1.692   2.234   0.699   1.648   1.222   0.588   1.846   1.897   1.037   0.819
   0.576   1.712   0.989   2.079   1.071   0.833   0.982   0.833   1.071   2.079
   0.989   1.712   0.576   0.819   1.037   1.897   1.846   0.588   1.222   1.648
   0.699   2.234   1.692   0.839   0.969   0.839   1.692   2.234   0.699   1.648
   1.222   0.588   1.846   1.897   1.037   0.819   0.576   1.712   0.989   2.079
   1.071   0.833
 111       5.00   72    0 5.00   15    0
   1.319   1.319   1.319   1.319   1.319   1.319   1.319   1.319   1.319   1.319
   1.319   1.319   1.319   1.319   1.319   1.319   1.319   1.319   1.319   1.319
   1.319   1.319   1.319   1.319   1.319   1.319   1.319   1.319   1.319   1.319
   1.319   1.319   1.319   1.319   1.319   1.319   1.319   1.319   1.319   1.319
   1.319   1.319   1.319   1.319   1.319   1.319   1.319   1.319   1.319   1.319
   1.319   1.319   1.319   1.319   1.319   1.319   1.319   1.319   1.319   1.319
   1.319   1.319   1.319   1.319   1.319   1.319   1.319   1.319   1.319   1.319
   1.319   1.319
   1.204   1.339   1.122   1.186   1.145   0.997   1.410   1.406   1.325   1.540
   2.399   1.888   1.358   1.276   1.886   1.527   1.526   1.478   0.923   1.478
   1.526   1.527   1.886   1.276   1.358   1.888   2.399   1.540   1.325   1.406
   1.410   0.997   1.145   1.186   1.122   1.339   1.204   1.339   1.122   1.186
   1.145   0.997   1.410   1.406   1.325   1.540   2.399   1.888   1.358   1.276
   1.886   1.527   1.526   1.478   0.923   1.478   1.526   1.527   1.886   1.276
   1.358   1.888   2.399   1.540   1.325   1.406   1.410   0.997   1.145   1.186
   1.122   1.339
   1.344   1.285   0.888   1.052   1.018   1.249   1.123   1.306   1.488   1.196
   1.419   1.131   1.226   1.421   1.568   1.531   1.389   1.222   1.001   1.222
   1.389   1.531   1.568   1.421   1.226   1.131   1.419   1.196   1.488   1.306
   1.123   1.249   1.018   1.052   0.888   1.285   1.344   1.285   0.888   1.052
   1.018   1.249   1.123   1.306   1.488   1.196   1.419   1.131   1.226   1.421
   1.568   1.531   1.389   1.222   1.001   1.222   1.389   1.531   1.568   1.421
   1.226   1.131   1.419   1.196   1.488   1.306   1.123   1.249   1.018   1.052
   0.888   1.285
   1.206   1.261   0.866   0.996   0.649   1.297   1.073   1.462   1.259   0.939
   1.465   1.365   1.162   1.416   1.323   1.812   1.359   1.413   1.169   1.413
   1.359   1.812   1.323   1.416   1.162   1.365   1.465   0.939   1.259   1.462
   1.073   1.297   0.649   0.996   0.866   1.261   1.206   1.261   0.866   0.996
   0.649   1.297   1.073   1.462   1.259   0.939   1.465   1.365   1.162   1.416
   1.323   1.812   1.359   1.413   1.169   1.413   1.359   1.812   1.323   1.416
   1.162   1.365   1.465   0.939   1.259   1.462   1.073   1.297   0.649   0.996
   0.866   1.261
   0.952   1.215   0.854   0.876   0.561   0.758   1.028   1.172   1.077   0.829
   1.344   1.445   1.040   1.369   1.115   1.765   1.688   1.416   1.150   1.416
   1.688   1.765   1.115   1.369   1.040   1.445   1.344   0.829   1.077   1.172
   1.028   0.758   0.561   0.876   0.854   1.215   0.952   1.215   0.854   0.876
   0.561   0.758   1.028   1.172   1.077   0.829   1.344   1.445   1.040   1.369
   1.115   1.765   1.688   1.416   1.150   1.416   1.688   1.765   1.115   1.369
   1.040   1.445   1.344   0.829   1.077   1.172   1.028   0.758   0.561   0.876
   0.854   1.215
   0.839   1.135   0.859   1.028   0.905   0.571   1.187   0.787   1.079   0.787
   1.124   1.063   1.019   1.165   0.879   1.318   1.551   1.154   0.966   1.154
   1.551   1.318   0.879   1.165   1.019   1.063   1.124   0.787   1.079   0.787
   1.187   0.571   0.905   1.028   0.859   1.135   0.839   1.135   0.859   1.028
   0.905   0.571   1.187   0.787   1.079   0.787   1.124   1.063   1.019   1.165
   0.879   1.318   1.551   1.154   0.966   1.154   1.551   1.318   0.879   1.165
   1.019   1.063   1.124   0.787   1.079   0.787   1.187   0.571   0.905   1.028
   0.859   1.135
   0.698   0.945   1.021   1.106   0.931   0.893   1.183   0.906   0.838   0.976
   1.047   0.794   1.016   1.110   0.918   1.322   1.141   1.340   1.138   1.340
   1.141   1.322   0.918   1.110   1.016   0.794   1.047   0.976   0.838   0.906
   1.183   0.893   0.931   1.106   1.021   0.945   0.698   0.945   1.021   1.106
   0.931   0.893   1.183   0.906   0.838   0.976   1.047   0.794   1.016   1.110
   0.918   1.322   1.141   1.340   1.138   1.340   1.141   1.322   0.918   1.110
   1.016   0.794   1.047   0.976   0.838   0.906   1.183   0.893   0.931   1.106
   1.021   0.945
   1.123   1.093   1.030   1.192   0.864   1.183   0.884   1.137   0.666   0.961
   1.225   0.948   1.022   1.020   1.237   1.258   1.498   1.558   1.724   1.558
   1.498   1.258   1.237   1.020   1.022   0.948   1.225   0.961   0.666   1.137
   0.884   1.183   0.864   1.192   1.030   1.093   1.123   1.093   1.030   1.192
   0.864   1.183   0.884   1.137   0.666   0.961   1.225   0.948   1.022   1.020
   1.237   1.258   1.498   1.558   1.724   1.558   1.498   1.258   1.237   1.020
   1.022   0.948   1.225   0.961   0.666   1.137   0.884   1.183   0.864   1.192
   1.030   1.093
   1.662   1.243   1.023   1.151   0.842   1.298   0.664   1.014   0.898   0.822
   1.184   0.976   0.889   0.814   1.026   1.256   1.584   1.638   1.562   1.638
   1.584   1.256   1.026   0.814   0.889   0.976   1.184   0.822   0.898   1.014
   0.664   1.298   0.842   1.151   1.023   1.243   1.662   1.243   1.023   1.151
   0.842   1.298   0.664   1.014   0.898   0.822   1.184   0.976   0.889   0.814
   1.026   1.256   1.584   1.638   1.562   1.638   1.584   1.256   1.026   0.814
   0.889   0.976   1.184   0.822   0.898   1.014   0.664   1.298   0.842   1.151
   1.023   1.243
   1.230   1.529   1.262   1.162   0.728   1.106   0.860   1.325   1.472   1.690
   1.260   0.879   0.954   1.231   1.271   1.458   1.164   1.374   1.190   1.374
   1.164   1.458   1.271   1.231   0.954   0.879   1.260   1.690   1.472   1.325
   0.860   1.106   0.728   1.162   1.262   1.529   1.230   1.529   1.262   1.162
   0.728   1.106   0.860   1.325   1.472   1.690   1.260   0.879   0.954   1.231
   1.271   1.458   1.164   1.374   1.190   1.374   1.164   1.458   1.271   1.231
   0.954   0.879   1.260   1.690   1.472   1.325   0.860   1.106   0.728   1.162
   1.262   1.529
   1.045   1.773   1.324   1.333   1.150   1.059   1.283   1.751   1.713   1.621
   1.584   0.904   1.072   1.575   1.607   1.584   1.216   1.324   1.096   1.324
   1.216   1.584   1.607   1.575   1.072   0.904   1.584   1.621   1.713   1.751
   1.283   1.059   1.150   1.333   1.324   1.773   1.045   1.773   1.324   1.333
   1.150   1.059   1.283   1.751   1.713   1.621   1.584   0.904   1.072   1.575
   1.607   1.584   1.216   1.324   1.096   1.324   1.216   1.584   1.607   1.575
   1.072   0.904   1.584   1.621   1.713   1.751   1.283   1.059   1.150   1.333
   1.324   1.773
   1.835   1.611   1.314   1.079   1.381   1.112   1.043   1.197   1.335   0.745
   1.424   0.782   0.888   1.185   1.555   1.314   1.578   1.325   0.849   1.325
   1.578   1.314   1.555   1.185   0.888   0.782   1.424   0.745   1.335   1.197
   1.043   1.112   1.381   1.079   1.314   1.611   1.835   1.611   1.314   1.079
   1.381   1.112   1.043   1.197   1.335   0.745   1.424   0.782   0.888   1.185
   1.555   1.314   1.578   1.325   0.849   1.325   1.578   1.314   1.555   1.185
   0.888   0.782   1.424   0.745   1.335   1.197   1.043   1.112   1.381   1.079
   1.314   1.611
   1.808   1.395   1.509   0.654   1.247   1.603   0.922   0.605   0.930   0.882
   0.836   1.074   0.704   0.980   1.231   1.037   1.195   1.084   0.724   1.084
   1.195   1.037   1.231   0.980   0.704   1.074   0.836   0.882   0.930   0.605
   0.922   1.603   1.247   0.654   1.509   1.395   1.808   1.395   1.509   0.654
   1.247   1.603   0.922   0.605   0.930   0.882   0.836   1.074   0.704   0.980
   1.231   1.037   1.195   1.084   0.724   1.084   1.195   1.037   1.231   0.980
   0.704   1.074   0.836   0.882   0.930   0.605   0.922   1.603   1.247   0.654
   1.509   1.395
   1.010   0.780   0.922   0.774   0.844   1.932   0.618   0.737   0.515   0.566
   0.953   1.012   0.409   1.039   0.926   1.173   0.774   0.521   0.356   0.521
   0.774   1.173   0.926   1.039   0.409   1.012   0.953   0.566   0.515   0.737
   0.618   1.932   0.844   0.774   0.922   0.780   1.010   0.780   0.922   0.774
   0.844   1.932   0.618   0.737   0.515   0.566   0.953   1.012   0.409   1.039
   0.926   1.173   0.774   0.521   0.356   0.521   0.774   1.173   0.926   1.039
   0.409   1.012   0.953   0.566   0.515   0.737   0.618   1.932   0.844   0.774
   0.922   0.780
   1.642   0.861   0.285   1.247   0.536   0.977   0.756   1.055   0.713   0.610
   0.844   0.862   0.519   1.139   1.624   1.300   1.448   0.556   0.694   0.556
   1.448   1.300   1.624   1.139   0.519   0.862   0.844   0.610   0.713   1.055
   0.756   0.977   0.536   1.247   0.285   0.861   1.642   0.861   0.285   1.247
   0.536   0.977   0.756   1.055   0.713   0.610   0.844   0.862   0.519   1.139
   1.624   1.300   1.448   0.556   0.694   0.556   1.448   1.300   1.624   1.139
   0.519   0.862   0.844   0.610   0.713   1.055   0.756   0.977   0.536   1.247
   0.285   0.861
  4  1      1.0001621E+00
  4  2     -8.5202161E-03
  4  3     -1.2163376E-01
  6  1     -4.0086185E-01
  6  2      4.2950270E-01
  6  3     -1.4048955E-01
  6  4      3.1603152E-01
  8  1     -6.2041338E-02
  8  2     -3.9608201E-03
  8  3      9.0926524E-02
  8  4      2.6108467E-01
  8  5     -3.2507995E-01
 10  1     -1.5273573E-01
 10  2      1.5822423E-02
 10  3      9.7939542E-02
 10  4     -1.1999149E-01
 10  5     -5.6845340E-02
 10  6      5.6918088E-01
 12  1     -3.9124566E-01  8.4477765E-02
 12  2     -7.1869901E-02 -3.7662662E-01
 12  3     -1.4257717E-01  3.9032335E-01
 12  4      2.8712347E-01  5.0879007E-02
 12  5      4.0866910E-03  4.4591213E-01
 12  6      4.7048171E-02  2.6957465E-01
 12  7     -2.0060909E+00 -1.5691712E+00
 14  1     -4.1130080E-01
 14  2     -2.5224283E-01
 14  3      1.8241014E-01
 14  4      1.9964417E-01
 14  5     -2.3399511E-01
 14  6     -2.7235053E-01
 14  7     -4.6749966E-01
 14  8     -8.0367995E-01
 220       5.00   72    0 5.00   18    0
   0.590   0.590   0.591   0.591   0.592   0.594   0.595   0.597   0.599   0.600
   0.602   0.604   0.606   0.607   0.609   0.610   0.610   0.611   0.611   0.611
   0.610   0.610   0.609   0.607   0.606   0.604   0.602   0.600   0.599   0.597
   0.595   0.594   0.592   0.591   0.591   0.590   0.590   0.590   0.591   0.591
   0.592   0.594   0.595   0.597   0.599   0.600   0.602   0.604   0.606   0.607
   0.609   0.610   0.610   0.611   0.611   0.611   0.610   0.610   0.609   0.607
   0.606   0.604   0.602   0.600   0.599   0.597   0.595   0.594   0.592   0.591
   0.591   0.590
   0.590   0.590   0.592   0.595   0.600   0.606   0.613   0.623   0.633   0.645
   0.658   0.671   0.684   0.696   0.708   0.717   0.724   0.729   0.730   0.729
   0.724   0.717   0.708   0.696   0.684   0.671   0.658   0.645   0.633   0.623
   0.613   0.606   0.600   0.595   0.592   0.590   0.590   0.590   0.592   0.595
   0.600   0.606   0.613   0.623   0.633   0.645   0.658   0.671   0.684   0.696
   0.708   0.717   0.724   0.729   0.730   0.729   0.724   0.717   0.708   0.696
   0.684   0.671   0.658   0.645   0.633   0.623   0.613   0.606   0.600   0.595
   0.592   0.590
   0.680   0.678   0.675   0.669   0.664   0.660   0.659   0.662   0.670   0.684
   0.704   0.728   0.754   0.782   0.809   0.832   0.851   0.863   0.867   0.863
   0.851   0.832   0.809   0.782   0.754   0.728   0.704   0.684   0.670   0.662
   0.659   0.660   0.664   0.669   0.675   0.678   0.680   0.678   0.675   0.669
   0.664   0.660   0.659   0.662   0.670   0.684   0.704   0.728   0.754   0.782
   0.809   0.832   0.851   0.863   0.867   0.863   0.851   0.832   0.809   0.782
   0.754   0.728   0.704   0.684   0.670   0.662   0.659   0.660   0.664   0.669
   0.675   0.678
   0.923   0.916   0.896   0.864   0.826   0.787   0.750   0.722   0.704   0.700
   0.710   0.731   0.763   0.800   0.838   0.874   0.902   0.921   0.927   0.921
   0.902   0.874   0.838   0.800   0.763   0.731   0.710   0.700   0.704   0.722
   0.750   0.787   0.826   0.864   0.896   0.916   0.923   0.916   0.896   0.864
   0.826   0.787   0.750   0.722   0.704   0.700   0.710   0.731   0.763   0.800
   0.838   0.874   0.902   0.921   0.927   0.921   0.902   0.874   0.838   0.800
   0.763   0.731   0.710   0.700   0.704   0.722   0.750   0.787   0.826   0.864
   0.896   0.916
   1.247   1.233   1.194   1.134   1.060   0.979   0.901   0.834   0.782   0.750
   0.737   0.743   0.764   0.794   0.830   0.864   0.892   0.911   0.917   0.911
   0.892   0.864   0.830   0.794   0.764   0.743   0.737   0.750   0.782   0.834
   0.901   0.979   1.060   1.134   1.194   1.233   1.247   1.233   1.194   1.134
   1.060   0.979   0.901   0.834   0.782   0.750   0.737   0.743   0.764   0.794
   0.830   0.864   0.892   0.911   0.917   0.911   0.892   0.864   0.830   0.794
   0.764   0.743   0.737   0.750   0.782   0.834   0.901   0.979   1.060   1.134
   1.194   1.233
   1.469   1.455   1.412   1.346   1.264   1.174   1.086   1.008   0.944   0.897
   0.867   0.852   0.850   0.857   0.869   0.885   0.899   0.909   0.913   0.909
   0.899   0.885   0.869   0.857   0.850   0.852   0.867   0.897   0.944   1.008
   1.086   1.174   1.264   1.346   1.412   1.455   1.469   1.455   1.412   1.346
   1.264   1.174   1.086   1.008   0.944   0.897   0.867   0.852   0.850   0.857
   0.869   0.885   0.899   0.909   0.913   0.909   0.899   0.885   0.869   0.857
   0.850   0.852   0.867   0.897   0.944   1.008   1.086   1.174   1.264   1.346
   1.412   1.455
   1.454   1.445   1.420   1.380   1.331   1.278   1.228   1.184   1.147   1.114
   1.082   1.050   1.019   0.992   0.974   0.963   0.959   0.958   0.959   0.958
   0.959   0.963   0.974   0.992   1.019   1.050   1.082   1.114   1.147   1.184
   1.228   1.278   1.331   1.380   1.420   1.445   1.454   1.445   1.420   1.380
   1.331   1.278   1.228   1.184   1.147   1.114   1.082   1.050   1.019   0.992
   0.974   0.963   0.959   0.958   0.959   0.958   0.959   0.963   0.974   0.992
   1.019   1.050   1.082   1.114   1.147   1.184   1.228   1.278   1.331   1.380
   1.420   1.445
   1.242   1.242   1.240   1.236   1.232   1.234   1.245   1.263   1.280   1.282
   1.261   1.217   1.160   1.104   1.061   1.036   1.026   1.025   1.025   1.025
   1.026   1.036   1.061   1.104   1.160   1.217   1.261   1.282   1.280   1.263
   1.245   1.234   1.232   1.236   1.240   1.242   1.242   1.242   1.240   1.236
   1.232   1.234   1.245   1.263   1.280   1.282   1.261   1.217   1.160   1.104
   1.061   1.036   1.026   1.025   1.025   1.025   1.026   1.036   1.061   1.104
   1.160   1.217   1.261   1.282   1.280   1.263   1.245   1.234   1.232   1.236
   1.240   1.242
   1.025   1.027   1.030   1.034   1.043   1.069   1.122   1.195   1.268   1.310
   1.303   1.251   1.176   1.106   1.061   1.044   1.047   1.057   1.061   1.057
   1.047   1.044   1.061   1.106   1.176   1.251   1.303   1.310   1.268   1.195
   1.122   1.069   1.043   1.034   1.030   1.027   1.025   1.027   1.030   1.034
   1.043   1.069   1.122   1.195   1.268   1.310   1.303   1.251   1.176   1.106
   1.061   1.044   1.047   1.057   1.061   1.057   1.047   1.044   1.061   1.106
   1.176   1.251   1.303   1.310   1.268   1.195   1.122   1.069   1.043   1.034
   1.030   1.027
   0.968   0.964   0.948   0.917   0.885   0.881   0.933   1.036   1.150   1.224
   1.229   1.175   1.099   1.038   1.012   1.015   1.032   1.048   1.054   1.048
   1.032   1.015   1.012   1.038   1.099   1.175   1.229   1.224   1.150   1.036
   0.933   0.881   0.885   0.917   0.948   0.964   0.968   0.964   0.948   0.917
   0.885   0.881   0.933   1.036   1.150   1.224   1.229   1.175   1.099   1.038
   1.012   1.015   1.032   1.048   1.054   1.048   1.032   1.015   1.012   1.038
   1.099   1.175   1.229   1.224   1.150   1.036   0.933   0.881   0.885   0.917
   0.948   0.964
   1.061   1.051   1.012   0.932   0.832   0.767   0.790   0.900   1.038   1.131
   1.143   1.097   1.044   1.020   1.024   1.036   1.036   1.027   1.021   1.027
   1.036   1.036   1.024   1.020   1.044   1.097   1.143   1.131   1.038   0.900
   0.790   0.767   0.832   0.932   1.012   1.051   1.061   1.051   1.012   0.932
   0.832   0.767   0.790   0.900   1.038   1.131   1.143   1.097   1.044   1.020
   1.024   1.036   1.036   1.027   1.021   1.027   1.036   1.036   1.024   1.020
   1.044   1.097   1.143   1.131   1.038   0.900   0.790   0.767   0.832   0.932
   1.012   1.051
   1.129   1.127   1.099   1.007   0.865   0.753   0.750   0.859   1.003   1.091
   1.099   1.072   1.071   1.109   1.146   1.135   1.070   0.993   0.958   0.993
   1.070   1.135   1.146   1.109   1.071   1.072   1.099   1.091   1.003   0.859
   0.750   0.753   0.865   1.007   1.099   1.127   1.129   1.127   1.099   1.007
   0.865   0.753   0.750   0.859   1.003   1.091   1.099   1.072   1.071   1.109
   1.146   1.135   1.070   0.993   0.958   0.993   1.070   1.135   1.146   1.109
   1.071   1.072   1.099   1.091   1.003   0.859   0.750   0.753   0.865   1.007
   1.099   1.127
   1.021   1.048   1.083   1.041   0.913   0.793   0.784   0.889   1.016   1.071
   1.056   1.054   1.124   1.236   1.298   1.239   1.078   0.911   0.841   0.911
   1.078   1.239   1.298   1.236   1.124   1.054   1.056   1.071   1.016   0.889
   0.784   0.793   0.913   1.041   1.083   1.048   1.021   1.048   1.083   1.041
   0.913   0.793   0.784   0.889   1.016   1.071   1.056   1.054   1.124   1.236
   1.298   1.239   1.078   0.911   0.841   0.911   1.078   1.239   1.298   1.236
   1.124   1.054   1.056   1.071   1.016   0.889   0.784   0.793   0.913   1.041
   1.083   1.048
   0.775   0.844   0.972   1.016   0.933   0.827   0.822   0.921   1.012   1.010
   0.959   0.977   1.115   1.289   1.356   1.244   1.008   0.783   0.692   0.783
   1.008   1.244   1.356   1.289   1.115   0.977   0.959   1.010   1.012   0.921
   0.822   0.827   0.933   1.016   0.972   0.844   0.775   0.844   0.972   1.016
   0.933   0.827   0.822   0.921   1.012   1.010   0.959   0.977   1.115   1.289
   1.356   1.244   1.008   0.783   0.692   0.783   1.008   1.244   1.356   1.289
   1.115   0.977   0.959   1.010   1.012   0.921   0.822   0.827   0.933   1.016
   0.972   0.844
   0.598   0.702   0.905   1.010   0.946   0.836   0.828   0.918   0.976   0.923
   0.840   0.870   1.046   1.236   1.281   1.135   0.892   0.688   0.612   0.688
   0.892   1.135   1.281   1.236   1.046   0.870   0.840   0.923   0.976   0.918
   0.828   0.836   0.946   1.010   0.905   0.702   0.598   0.702   0.905   1.010
   0.946   0.836   0.828   0.918   0.976   0.923   0.840   0.870   1.046   1.236
   1.281   1.135   0.892   0.688   0.612   0.688   0.892   1.135   1.281   1.236
   1.046   0.870   0.840   0.923   0.976   0.918   0.828   0.836   0.946   1.010
   0.905   0.702
   0.666   0.784   1.009   1.105   0.998   0.841   0.811   0.899   0.950   0.880
   0.789   0.827   1.000   1.152   1.142   0.988   0.818   0.721   0.696   0.721
   0.818   0.988   1.142   1.152   1.000   0.827   0.789   0.880   0.950   0.899
   0.811   0.841   0.998   1.105   1.009   0.784   0.666   0.784   1.009   1.105
   0.998   0.841   0.811   0.899   0.950   0.880   0.789   0.827   1.000   1.152
   1.142   0.988   0.818   0.721   0.696   0.721   0.818   0.988   1.142   1.152
   1.000   0.827   0.789   0.880   0.950   0.899   0.811   0.841   0.998   1.105
   1.009   0.784
   0.943   1.056   1.254   1.286   1.090   0.858   0.798   0.894   0.967   0.916
   0.841   0.885   1.028   1.109   1.032   0.887   0.827   0.874   0.915   0.874
   0.827   0.887   1.032   1.109   1.028   0.885   0.841   0.916   0.967   0.894
   0.798   0.858   1.090   1.286   1.254   1.056   0.943   1.056   1.254   1.286
   1.090   0.858   0.798   0.894   0.967   0.916   0.841   0.885   1.028   1.109
   1.032   0.887   0.827   0.874   0.915   0.874   0.827   0.887   1.032   1.109
   1.028   0.885   0.841   0.916   0.967   0.894   0.798   0.858   1.090   1.286
   1.254   1.056
   1.191   1.294   1.460   1.433   1.165   0.878   0.795   0.902   0.998   0.973
   0.918   0.965   1.081   1.107   0.984   0.849   0.868   1.017   1.104   1.017
   0.868   0.849   0.984   1.107   1.081   0.965   0.918   0.973   0.998   0.902
   0.795   0.878   1.165   1.433   1.460   1.294   1.191   1.294   1.460   1.433
   1.165   0.878   0.795   0.902   0.998   0.973   0.918   0.965   1.081   1.107
   0.984   0.849   0.868   1.017   1.104   1.017   0.868   0.849   0.984   1.107
   1.081   0.965   0.918   0.973   0.998   0.902   0.795   0.878   1.165   1.433
   1.460   1.294
 200       5.00   72    0 5.00   18    0
   1.854   1.854   1.854   1.854   1.855   1.855   1.855   1.855   1.856   1.856
   1.856   1.857   1.857   1.857   1.857   1.858   1.858   1.858   1.858   1.858
   1.858   1.858   1.857   1.857   1.857   1.857   1.856   1.856   1.856   1.855
   1.855   1.855   1.855   1.854   1.854   1.854   1.854   1.854   1.854   1.854
   1.855   1.855   1.855   1.855   1.856   1.856   1.856   1.857   1.857   1.857
   1.857   1.858   1.858   1.858   1.858   1.858   1.858   1.858   1.857   1.857
   1.857   1.857   1.856   1.856   1.856   1.855   1.855   1.855   1.855   1.854
   1.854   1.854
   1.747   1.748   1.749   1.752   1.755   1.758   1.762   1.766   1.770   1.773
   1.776   1.779   1.781   1.783   1.784   1.785   1.786   1.786   1.786   1.786
   1.786   1.785   1.784   1.783   1.781   1.779   1.776   1.773   1.770   1.766
   1.762   1.758   1.755   1.752   1.749   1.748   1.747   1.748   1.749   1.752
   1.755   1.758   1.762   1.766   1.770   1.773   1.776   1.779   1.781   1.783
   1.784   1.785   1.786   1.786   1.786   1.786   1.786   1.785   1.784   1.783
   1.781   1.779   1.776   1.773   1.770   1.766   1.762   1.758   1.755   1.752
   1.749   1.748
   1.560   1.562   1.568   1.577   1.589   1.603   1.618   1.633   1.647   1.660
   1.670   1.678   1.683   1.686   1.688   1.689   1.689   1.688   1.688   1.688
   1.689   1.689   1.688   1.686   1.683   1.678   1.670   1.660   1.647   1.633
   1.618   1.603   1.589   1.577   1.568   1.562   1.560   1.562   1.568   1.577
   1.589   1.603   1.618   1.633   1.647   1.660   1.670   1.678   1.683   1.686
   1.688   1.689   1.689   1.688   1.688   1.688   1.689   1.689   1.688   1.686
   1.683   1.678   1.670   1.660   1.647   1.633   1.618   1.603   1.589   1.577
   1.568   1.562
   1.339   1.343   1.354   1.371   1.395   1.423   1.454   1.484   1.513   1.538
   1.558   1.571   1.580   1.584   1.584   1.583   1.581   1.580   1.579   1.580
   1.581   1.583   1.584   1.584   1.580   1.571   1.558   1.538   1.513   1.484
   1.454   1.423   1.395   1.371   1.354   1.343   1.339   1.343   1.354   1.371
   1.395   1.423   1.454   1.484   1.513   1.538   1.558   1.571   1.580   1.584
   1.584   1.583   1.581   1.580   1.579   1.580   1.581   1.583   1.584   1.584
   1.580   1.571   1.558   1.538   1.513   1.484   1.454   1.423   1.395   1.371
   1.354   1.343
   1.142   1.143   1.150   1.163   1.184   1.214   1.251   1.292   1.332   1.368
   1.395   1.413   1.422   1.425   1.423   1.420   1.417   1.415   1.415   1.415
   1.417   1.420   1.423   1.425   1.422   1.413   1.395   1.368   1.332   1.292
   1.251   1.214   1.184   1.163   1.150   1.143   1.142   1.143   1.150   1.163
   1.184   1.214   1.251   1.292   1.332   1.368   1.395   1.413   1.422   1.425
   1.423   1.420   1.417   1.415   1.415   1.415   1.417   1.420   1.423   1.425
   1.422   1.413   1.395   1.368   1.332   1.292   1.251   1.214   1.184   1.163
   1.150   1.143
   1.014   1.006   0.987   0.966   0.955   0.962   0.989   1.030   1.076   1.119
   1.150   1.169   1.176   1.176   1.172   1.168   1.165   1.164   1.164   1.164
   1.165   1.168   1.172   1.176   1.176   1.169   1.150   1.119   1.076   1.030
   0.989   0.962   0.955   0.966   0.987   1.006   1.014   1.006   0.987   0.966
   0.955   0.962   0.989   1.030   1.076   1.119   1.150   1.169   1.176   1.176
   1.172   1.168   1.165   1.164   1.164   1.164   1.165   1.168   1.172   1.176
   1.176   1.169   1.150   1.119   1.076   1.030   0.989   0.962   0.955   0.966
   0.987   1.006
   0.970   0.944   0.877   0.795   0.726   0.694   0.705   0.748   0.805   0.858
   0.895   0.913   0.916   0.911   0.903   0.896   0.892   0.890   0.890   0.890
   0.892   0.896   0.903   0.911   0.916   0.913   0.895   0.858   0.805   0.748
   0.705   0.694   0.726   0.795   0.877   0.944   0.970   0.944   0.877   0.795
   0.726   0.694   0.705   0.748   0.805   0.858   0.895   0.913   0.916   0.911
   0.903   0.896   0.892   0.890   0.890   0.890   0.892   0.896   0.903   0.911
   0.916   0.913   0.895   0.858   0.805   0.748   0.705   0.694   0.726   0.795
   0.877   0.944
   0.982   0.935   0.814   0.667   0.546   0.488   0.500   0.561   0.641   0.709
   0.753   0.771   0.770   0.761   0.749   0.736   0.724   0.715   0.712   0.715
   0.724   0.736   0.749   0.761   0.770   0.771   0.753   0.709   0.641   0.561
   0.500   0.488   0.546   0.667   0.814   0.935   0.982   0.935   0.814   0.667
   0.546   0.488   0.500   0.561   0.641   0.709   0.753   0.771   0.770   0.761
   0.749   0.736   0.724   0.715   0.712   0.715   0.724   0.736   0.749   0.761
   0.770   0.771   0.753   0.709   0.641   0.561   0.500   0.488   0.546   0.667
   0.814   0.935
   0.992   0.932   0.779   0.600   0.465   0.417   0.455   0.544   0.640   0.713
   0.753   0.767   0.769   0.766   0.756   0.736   0.709   0.684   0.674   0.684
   0.709   0.736   0.756   0.766   0.769   0.767   0.753   0.713   0.640   0.544
   0.455   0.417   0.465   0.600   0.779   0.932   0.992   0.932   0.779   0.600
   0.465   0.417   0.455   0.544   0.640   0.713   0.753   0.767   0.769   0.766
   0.756   0.736   0.709   0.684   0.674   0.684   0.709   0.736   0.756   0.766
   0.769   0.767   0.753   0.713   0.640   0.544   0.455   0.417   0.465   0.600
   0.779   0.932
   0.957   0.899   0.757   0.601   0.502   0.491   0.555   0.649   0.730   0.775
   0.788   0.789   0.797   0.814   0.822   0.802   0.756   0.706   0.684   0.706
   0.756   0.802   0.822   0.814   0.797   0.789   0.788   0.775   0.730   0.649
   0.555   0.491   0.502   0.601   0.757   0.899   0.957   0.899   0.757   0.601
   0.502   0.491   0.555   0.649   0.730   0.775   0.788   0.789   0.797   0.814
   0.822   0.802   0.756   0.706   0.684   0.706   0.756   0.802   0.822   0.814
   0.797   0.789   0.788   0.775   0.730   0.649   0.555   0.491   0.502   0.601
   0.757   0.899
   0.876   0.840   0.756   0.673   0.634   0.650   0.703   0.759   0.790   0.783
   0.751   0.725   0.734   0.778   0.820   0.813   0.746   0.661   0.622   0.661
   0.746   0.813   0.820   0.778   0.734   0.725   0.751   0.783   0.790   0.759
   0.703   0.650   0.634   0.673   0.756   0.840   0.876   0.840   0.756   0.673
   0.634   0.650   0.703   0.759   0.790   0.783   0.751   0.725   0.734   0.778
   0.820   0.813   0.746   0.661   0.622   0.661   0.746   0.813   0.820   0.778
   0.734   0.725   0.751   0.783   0.790   0.759   0.703   0.650   0.634   0.673
   0.756   0.840
   0.785   0.790   0.803   0.818   0.824   0.816   0.803   0.797   0.792   0.763
   0.699   0.630   0.616   0.681   0.769   0.785   0.690   0.548   0.482   0.548
   0.690   0.785   0.769   0.681   0.616   0.630   0.699   0.763   0.792   0.797
   0.803   0.816   0.824   0.818   0.803   0.790   0.785   0.790   0.803   0.818
   0.824   0.816   0.803   0.797   0.792   0.763   0.699   0.630   0.616   0.681
   0.769   0.785   0.690   0.548   0.482   0.548   0.690   0.785   0.769   0.681
   0.616   0.630   0.699   0.763   0.792   0.797   0.803   0.816   0.824   0.818
   0.803   0.790
   0.712   0.774   0.916   1.037   1.049   0.949   0.827   0.783   0.828   0.868
   0.809   0.675   0.596   0.666   0.818   0.873   0.731   0.494   0.379   0.494
   0.731   0.873   0.818   0.666   0.596   0.675   0.809   0.868   0.828   0.783
   0.827   0.949   1.049   1.037   0.916   0.774   0.712   0.774   0.916   1.037
   1.049   0.949   0.827   0.783   0.828   0.868   0.809   0.675   0.596   0.666
   0.818   0.873   0.731   0.494   0.379   0.494   0.731   0.873   0.818   0.666
   0.596   0.675   0.809   0.868   0.828   0.783   0.827   0.949   1.049   1.037
   0.916   0.774
   0.631   0.770   1.078   1.316   1.297   1.047   0.796   0.772   0.981   1.190
   1.162   0.919   0.724   0.800   1.060   1.187   0.977   0.590   0.397   0.590
   0.977   1.187   1.060   0.800   0.724   0.919   1.162   1.190   0.981   0.772
   0.796   1.047   1.297   1.316   1.078   0.770   0.631   0.770   1.078   1.316
   1.297   1.047   0.796   0.772   0.981   1.190   1.162   0.919   0.724   0.800
   1.060   1.187   0.977   0.590   0.397   0.590   0.977   1.187   1.060   0.800
   0.724   0.919   1.162   1.190   0.981   0.772   0.796   1.047   1.297   1.316
   1.078   0.770
   0.484   0.719   1.235   1.615   1.552   1.120   0.732   0.769   1.209   1.623
   1.599   1.180   0.831   0.943   1.390   1.644   1.356   0.765   0.464   0.765
   1.356   1.644   1.390   0.943   0.831   1.180   1.599   1.623   1.209   0.769
   0.732   1.120   1.552   1.615   1.235   0.719   0.484   0.719   1.235   1.615
   1.552   1.120   0.732   0.769   1.209   1.623   1.599   1.180   0.831   0.943
   1.390   1.644   1.356   0.765   0.464   0.765   1.356   1.644   1.390   0.943
   0.831   1.180   1.599   1.623   1.209   0.769   0.732   1.120   1.552   1.615
   1.235   0.719
   0.240   0.583   1.334   1.880   1.785   1.170   0.640   0.730   1.379   1.949
   1.859   1.204   0.689   0.887   1.597   2.033   1.673   0.856   0.434   0.856
   1.673   2.033   1.597   0.887   0.689   1.204   1.859   1.949   1.379   0.730
   0.640   1.170   1.785   1.880   1.334   0.583   0.240   0.583   1.334   1.880
   1.785   1.170   0.640   0.730   1.379   1.949   1.859   1.204   0.689   0.887
   1.597   2.033   1.673   0.856   0.434   0.856   1.673   2.033   1.597   0.887
   0.689   1.204   1.859   1.949   1.379   0.730   0.640   1.170   1.785   1.880
   1.334   0.583
  -0.041   0.400   1.364   2.070   1.960   1.194   0.534   0.643   1.421   2.059
   1.850   0.957   0.303   0.610   1.594   2.221   1.813   0.798   0.268   0.798
   1.813   2.221   1.594   0.610   0.303   0.957   1.850   2.059   1.421   0.643
   0.534   1.194   1.960   2.070   1.364   0.400  -0.041   0.400   1.364   2.070
   1.960   1.194   0.534   0.643   1.421   2.059   1.850   0.957   0.303   0.610
   1.594   2.221   1.813   0.798   0.268   0.798   1.813   2.221   1.594   0.610
   0.303   0.957   1.850   2.059   1.421   0.643   0.534   1.194   1.960   2.070
   1.364   0.400
  -0.234   0.266   1.361   2.166   2.053   1.201   0.460   0.564   1.393   2.042
   1.738   0.692  -0.041   0.345   1.507   2.260   1.828   0.697   0.104   0.697
   1.828   2.260   1.507   0.345  -0.041   0.692   1.738   2.042   1.393   0.564
   0.460   1.201   2.053   2.166   1.361   0.266  -0.234   0.266   1.361   2.166
   2.053   1.201   0.460   0.564   1.393   2.042   1.738   0.692  -0.041   0.345
   1.507   2.260   1.828   0.697   0.104   0.697   1.828   2.260   1.507   0.345
  -0.041   0.692   1.738   2.042   1.393   0.564   0.460   1.201   2.053   2.166
   1.361   0.266
 111       5.00   72    0 5.00   18    0
   0.868   0.868   0.868   0.868   0.869   0.869   0.869   0.870   0.870   0.871
   0.871   0.872   0.872   0.873   0.873   0.873   0.874   0.874   0.874   0.874
   0.874   0.873   0.873   0.873   0.872   0.872   0.871   0.871   0.870   0.870
   0.869   0.869   0.869   0.868   0.868   0.868   0.868   0.868   0.868   0.868
   0.869   0.869   0.869   0.870   0.870   0.871   0.871   0.872   0.872   0.873
   0.873   0.873   0.874   0.874   0.874   0.874   0.874   0.873   0.873   0.873
   0.872   0.872   0.871   0.871   0.870   0.870   0.869   0.869   0.869   0.868
   0.868   0.868
   0.731   0.731   0.732   0.734   0.736   0.740   0.743   0.748   0.752   0.757
   0.762   0.767   0.772   0.777   0.781   0.785   0.787   0.789   0.789   0.789
   0.787   0.785   0.781   0.777   0.772   0.767   0.762   0.757   0.752   0.748
   0.743   0.740   0.736   0.734   0.732   0.731   0.731   0.731   0.732   0.734
   0.736   0.740   0.743   0.748   0.752   0.757   0.762   0.767   0.772   0.777
   0.781   0.785   0.787   0.789   0.789   0.789   0.787   0.785   0.781   0.777
   0.772   0.767   0.762   0.757   0.752   0.748   0.743   0.740   0.736   0.734
   0.732   0.731
   0.584   0.585   0.588   0.593   0.599   0.607   0.617   0.628   0.641   0.655
   0.670   0.687   0.704   0.720   0.736   0.750   0.760   0.767   0.769   0.767
   0.760   0.750   0.736   0.720   0.704   0.687   0.670   0.655   0.641   0.628
   0.617   0.607   0.599   0.593   0.588   0.585   0.584   0.585   0.588   0.593
   0.599   0.607   0.617   0.628   0.641   0.655   0.670   0.687   0.704   0.720
   0.736   0.750   0.760   0.767   0.769   0.767   0.760   0.750   0.736   0.720
   0.704   0.687   0.670   0.655   0.641   0.628   0.617   0.607   0.599   0.593
   0.588   0.585
   0.563   0.565   0.569   0.575   0.584   0.595   0.609   0.625   0.644   0.666
   0.692   0.722   0.757   0.794   0.832   0.868   0.896   0.915   0.922   0.915
   0.896   0.868   0.832   0.794   0.757   0.722   0.692   0.666   0.644   0.625
   0.609   0.595   0.584   0.575   0.569   0.565   0.563   0.565   0.569   0.575
   0.584   0.595   0.609   0.625   0.644   0.666   0.692   0.722   0.757   0.794
   0.832   0.868   0.896   0.915   0.922   0.915   0.896   0.868   0.832   0.794
   0.757   0.722   0.692   0.666   0.644   0.625   0.609   0.595   0.584   0.575
   0.569   0.565
   0.686   0.687   0.688   0.691   0.697   0.705   0.715   0.727   0.741   0.759
   0.784   0.820   0.868   0.927   0.994   1.061   1.119   1.158   1.172   1.158
   1.119   1.061   0.994   0.927   0.868   0.820   0.784   0.759   0.741   0.727
   0.715   0.705   0.697   0.691   0.688   0.687   0.686   0.687   0.688   0.691
   0.697   0.705   0.715   0.727   0.741   0.759   0.784   0.820   0.868   0.927
   0.994   1.061   1.119   1.158   1.172   1.158   1.119   1.061   0.994   0.927
   0.868   0.820   0.784   0.759   0.741   0.727   0.715   0.705   0.697   0.691
   0.688   0.687
   0.857   0.853   0.844   0.834   0.828   0.828   0.833   0.838   0.840   0.841
   0.847   0.867   0.909   0.976   1.065   1.163   1.253   1.316   1.338   1.316
   1.253   1.163   1.065   0.976   0.909   0.867   0.847   0.841   0.840   0.838
   0.833   0.828   0.828   0.834   0.844   0.853   0.857   0.853   0.844   0.834
   0.828   0.828   0.833   0.838   0.840   0.841   0.847   0.867   0.909   0.976
   1.065   1.163   1.253   1.316   1.338   1.316   1.253   1.163   1.065   0.976
   0.909   0.867   0.847   0.841   0.840   0.838   0.833   0.828   0.828   0.834
   0.844   0.853
   0.977   0.964   0.931   0.896   0.874   0.874   0.889   0.904   0.906   0.891
   0.867   0.853   0.866   0.918   1.008   1.119   1.228   1.306   1.335   1.306
   1.228   1.119   1.008   0.918   0.866   0.853   0.867   0.891   0.906   0.904
   0.889   0.874   0.874   0.896   0.931   0.964   0.977   0.964   0.931   0.896
   0.874   0.874   0.889   0.904   0.906   0.891   0.867   0.853   0.866   0.918
   1.008   1.119   1.228   1.306   1.335   1.306   1.228   1.119   1.008   0.918
   0.866   0.853   0.867   0.891   0.906   0.904   0.889   0.874   0.874   0.896
   0.931   0.964
   1.045   1.017   0.950   0.881   0.849   0.867   0.919   0.974   0.998   0.981
   0.933   0.883   0.859   0.881   0.949   1.046   1.147   1.222   1.249   1.222
   1.147   1.046   0.949   0.881   0.859   0.883   0.933   0.981   0.998   0.974
   0.919   0.867   0.849   0.881   0.950   1.017   1.045   1.017   0.950   0.881
   0.849   0.867   0.919   0.974   0.998   0.981   0.933   0.883   0.859   0.881
   0.949   1.046   1.147   1.222   1.249   1.222   1.147   1.046   0.949   0.881
   0.859   0.883   0.933   0.981   0.998   0.974   0.919   0.867   0.849   0.881
   0.950   1.017
   1.147   1.102   0.994   0.891   0.857   0.908   1.012   1.113   1.162   1.147
   1.087   1.019   0.978   0.979   1.020   1.085   1.151   1.199   1.216   1.199
   1.151   1.085   1.020   0.979   0.978   1.019   1.087   1.147   1.162   1.113
   1.012   0.908   0.857   0.891   0.994   1.102   1.147   1.102   0.994   0.891
   0.857   0.908   1.012   1.113   1.162   1.147   1.087   1.019   0.978   0.979
   1.020   1.085   1.151   1.199   1.216   1.199   1.151   1.085   1.020   0.979
   0.978   1.019   1.087   1.147   1.162   1.113   1.012   0.908   0.857   0.891
   0.994   1.102
   1.342   1.279   1.136   1.009   0.981   1.061   1.195   1.301   1.334   1.296
   1.227   1.169   1.148   1.162   1.195   1.226   1.245   1.253   1.254   1.253
   1.245   1.226   1.195   1.162   1.148   1.169   1.227   1.296   1.334   1.301
   1.195   1.061   0.981   1.009   1.136   1.279   1.342   1.279   1.136   1.009
   0.981   1.061   1.195   1.301   1.334   1.296   1.227   1.169   1.148   1.162
   1.195   1.226   1.245   1.253   1.254   1.253   1.245   1.226   1.195   1.162
   1.148   1.169   1.227   1.296   1.334   1.301   1.195   1.061   0.981   1.009
   1.136   1.279
   1.571   1.498   1.334   1.201   1.186   1.278   1.389   1.434   1.389   1.293
   1.210   1.183   1.212   1.271   1.320   1.333   1.310   1.275   1.258   1.275
   1.310   1.333   1.320   1.271   1.212   1.183   1.210   1.293   1.389   1.434
   1.389   1.278   1.186   1.201   1.334   1.498   1.571   1.498   1.334   1.201
   1.186   1.278   1.389   1.434   1.389   1.293   1.210   1.183   1.212   1.271
   1.320   1.333   1.310   1.275   1.258   1.275   1.310   1.333   1.320   1.271
   1.212   1.183   1.210   1.293   1.389   1.434   1.389   1.278   1.186   1.201
   1.334   1.498
   1.692   1.616   1.453   1.337   1.345   1.433   1.486   1.429   1.281   1.125
   1.035   1.039   1.117   1.223   1.302   1.314   1.258   1.181   1.146   1.181
   1.258   1.314   1.302   1.223   1.117   1.039   1.035   1.125   1.281   1.429
   1.486   1.433   1.345   1.337   1.453   1.616   1.692   1.616   1.453   1.337
   1.345   1.433   1.486   1.429   1.281   1.125   1.035   1.039   1.117   1.223
   1.302   1.314   1.258   1.181   1.146   1.181   1.258   1.314   1.302   1.223
   1.117   1.039   1.035   1.125   1.281   1.429   1.486   1.433   1.345   1.337
   1.453   1.616
   1.597   1.525   1.382   1.305   1.349   1.434   1.434   1.304   1.106   0.942
   0.866   0.881   0.968   1.094   1.204   1.228   1.142   1.014   0.953   1.014
   1.142   1.228   1.204   1.094   0.968   0.881   0.866   0.942   1.106   1.304
   1.434   1.434   1.349   1.305   1.382   1.525   1.597   1.525   1.382   1.305
   1.349   1.434   1.434   1.304   1.106   0.942   0.866   0.881   0.968   1.094
   1.204   1.228   1.142   1.014   0.953   1.014   1.142   1.228   1.204   1.094
   0.968   0.881   0.866   0.942   1.106   1.304   1.434   1.434   1.349   1.305
   1.382   1.525
   1.311   1.249   1.140   1.113   1.200   1.293   1.276   1.145   0.994   0.897
   0.851   0.833   0.869   0.992   1.149   1.206   1.086   0.879   0.777   0.879
   1.086   1.206   1.149   0.992   0.869   0.833   0.851   0.897   0.994   1.145
   1.276   1.293   1.200   1.113   1.140   1.249   1.311   1.249   1.140   1.113
   1.200   1.293   1.276   1.145   0.994   0.897   0.851   0.833   0.869   0.992
   1.149   1.206   1.086   0.879   0.777   0.879   1.086   1.206   1.149   0.992
   0.869   0.833   0.851   0.897   0.994   1.145   1.276   1.293   1.200   1.113
   1.140   1.249
   0.974   0.926   0.855   0.878   0.999   1.099   1.088   1.015   0.980   0.988
   0.949   0.839   0.780   0.908   1.162   1.294   1.136   0.816   0.654   0.816
   1.136   1.294   1.162   0.908   0.780   0.839   0.949   0.988   0.980   1.015
   1.088   1.099   0.999   0.878   0.855   0.926   0.974   0.926   0.855   0.878
   0.999   1.099   1.088   1.015   0.980   0.988   0.949   0.839   0.780   0.908
   1.162   1.294   1.136   0.816   0.654   0.816   1.136   1.294   1.162   0.908
   0.780   0.839   0.949   0.988   0.980   1.015   1.088   1.099   0.999   0.878
   0.855   0.926
   0.733   0.699   0.664   0.725   0.858   0.941   0.927   0.914   0.992   1.077
   0.994   0.739   0.573   0.746   1.163   1.419   1.228   0.775   0.538   0.775
   1.228   1.419   1.163   0.746   0.573   0.739   0.994   1.077   0.992   0.914
   0.927   0.941   0.858   0.725   0.664   0.699   0.733   0.699   0.664   0.725
   0.858   0.941   0.927   0.914   0.992   1.077   0.994   0.739   0.573   0.746
   1.163   1.419   1.228   0.775   0.538   0.775   1.228   1.419   1.163   0.746
   0.573   0.739   0.994   1.077   0.992   0.914   0.927   0.941   0.858   0.725
   0.664   0.699
   0.632   0.611   0.604   0.686   0.811   0.856   0.815   0.827   0.966   1.072
   0.902   0.495   0.241   0.490   1.096   1.492   1.283   0.707   0.402   0.707
   1.283   1.492   1.096   0.490   0.241   0.495   0.902   1.072   0.966   0.827
   0.815   0.856   0.811   0.686   0.604   0.611   0.632   0.611   0.604   0.686
   0.811   0.856   0.815   0.827   0.966   1.072   0.902   0.495   0.241   0.490
   1.096   1.492   1.283   0.707   0.402   0.707   1.283   1.492   1.096   0.490
   0.241   0.495   0.902   1.072   0.966   0.827   0.815   0.856   0.811   0.686
   0.604   0.611
   0.618   0.603   0.612   0.703   0.815   0.827   0.758   0.768   0.925   1.020
   0.781   0.274  -0.027   0.281   1.016   1.509   1.293   0.643   0.296   0.643
   1.293   1.509   1.016   0.281  -0.027   0.274   0.781   1.020   0.925   0.768
   0.758   0.827   0.815   0.703   0.612   0.603   0.618   0.603   0.612   0.703
   0.815   0.827   0.758   0.768   0.925   1.020   0.781   0.274  -0.027   0.281
   1.016   1.509   1.293   0.643   0.296   0.643   1.293   1.509   1.016   0.281
  -0.027   0.274   0.781   1.020   0.925   0.768   0.758   0.827   0.815   0.703
   0.612   0.603
TEXTURE_INDEX=   1.5152
ERR_CF 220         1076     514   61.71   20.43
ERR_CF 200         1080     538   31.78   17.43
ERR_CF 111         1080     754   27.90   25.71
