TEXEVAL                                                                         
Analysis started on 28-Sep-20 15:39:57                                          
 LMAX=18LFMAX=03 CUBIC ORTHO   
 110      5.00 5.00
 200      5.00 5.00
 211      5.00 5.00
 110       5.00   72    0 5.00   15    0
   0.858   0.858   0.858   0.858   0.858   0.858   0.858   0.858   0.858   0.858
   0.858   0.858   0.858   0.858   0.858   0.858   0.858   0.858   0.858   0.858
   0.858   0.858   0.858   0.858   0.858   0.858   0.858   0.858   0.858   0.858
   0.858   0.858   0.858   0.858   0.858   0.858   0.858   0.858   0.858   0.858
   0.858   0.858   0.858   0.858   0.858   0.858   0.858   0.858   0.858   0.858
   0.858   0.858   0.858   0.858   0.858   0.858   0.858   0.858   0.858   0.858
   0.858   0.858   0.858   0.858   0.858   0.858   0.858   0.858   0.858   0.858
   0.858   0.858
   0.872   0.811   0.699   0.780   0.726   0.760   0.789   0.722   0.745   0.811
   0.753   0.780   0.831   0.830   0.876   0.879   0.874   0.847   0.802   0.847
   0.874   0.879   0.876   0.830   0.831   0.780   0.753   0.811   0.745   0.722
   0.789   0.760   0.726   0.780   0.699   0.811   0.872   0.811   0.699   0.780
   0.726   0.760   0.789   0.722   0.745   0.811   0.753   0.780   0.831   0.830
   0.876   0.879   0.874   0.847   0.802   0.847   0.874   0.879   0.876   0.830
   0.831   0.780   0.753   0.811   0.745   0.722   0.789   0.760   0.726   0.780
   0.699   0.811
   0.651   0.582   0.583   0.532   0.540   0.595   0.721   0.677   0.681   0.754
   0.749   0.760   0.811   0.824   0.791   0.921   0.817   0.895   0.810   0.895
   0.817   0.921   0.791   0.824   0.811   0.760   0.749   0.754   0.681   0.677
   0.721   0.595   0.540   0.532   0.583   0.582   0.651   0.582   0.583   0.532
   0.540   0.595   0.721   0.677   0.681   0.754   0.749   0.760   0.811   0.824
   0.791   0.921   0.817   0.895   0.810   0.895   0.817   0.921   0.791   0.824
   0.811   0.760   0.749   0.754   0.681   0.677   0.721   0.595   0.540   0.532
   0.583   0.582
   0.598   0.549   0.584   0.565   0.574   0.587   0.611   0.661   0.678   0.678
   0.666   0.741   0.740   0.760   0.778   0.845   0.848   0.893   0.824   0.893
   0.848   0.845   0.778   0.760   0.740   0.741   0.666   0.678   0.678   0.661
   0.611   0.587   0.574   0.565   0.584   0.549   0.598   0.549   0.584   0.565
   0.574   0.587   0.611   0.661   0.678   0.678   0.666   0.741   0.740   0.760
   0.778   0.845   0.848   0.893   0.824   0.893   0.848   0.845   0.778   0.760
   0.740   0.741   0.666   0.678   0.678   0.661   0.611   0.587   0.574   0.565
   0.584   0.549
   1.076   1.051   0.965   1.000   1.013   0.840   0.724   0.806   0.721   0.684
   0.739   0.751   0.747   0.712   0.771   0.765   0.887   0.822   0.893   0.822
   0.887   0.765   0.771   0.712   0.747   0.751   0.739   0.684   0.721   0.806
   0.724   0.840   1.013   1.000   0.965   1.051   1.076   1.051   0.965   1.000
   1.013   0.840   0.724   0.806   0.721   0.684   0.739   0.751   0.747   0.712
   0.771   0.765   0.887   0.822   0.893   0.822   0.887   0.765   0.771   0.712
   0.747   0.751   0.739   0.684   0.721   0.806   0.724   0.840   1.013   1.000
   0.965   1.051
   2.053   2.067   2.004   1.867   1.871   1.616   1.322   1.262   1.132   1.040
   0.939   0.893   0.759   0.845   0.739   0.738   0.933   0.874   0.896   0.874
   0.933   0.738   0.739   0.845   0.759   0.893   0.939   1.040   1.132   1.262
   1.322   1.616   1.871   1.867   2.004   2.067   2.053   2.067   2.004   1.867
   1.871   1.616   1.322   1.262   1.132   1.040   0.939   0.893   0.759   0.845
   0.739   0.738   0.933   0.874   0.896   0.874   0.933   0.738   0.739   0.845
   0.759   0.893   0.939   1.040   1.132   1.262   1.322   1.616   1.871   1.867
   2.004   2.067
   2.292   2.292   2.523   2.329   2.330   2.327   2.048   1.809   1.629   1.417
   1.205   1.042   0.920   0.958   0.791   0.859   0.905   0.875   0.884   0.875
   0.905   0.859   0.791   0.958   0.920   1.042   1.205   1.417   1.629   1.809
   2.048   2.327   2.330   2.329   2.523   2.292   2.292   2.292   2.523   2.329
   2.330   2.327   2.048   1.809   1.629   1.417   1.205   1.042   0.920   0.958
   0.791   0.859   0.905   0.875   0.884   0.875   0.905   0.859   0.791   0.958
   0.920   1.042   1.205   1.417   1.629   1.809   2.048   2.327   2.330   2.329
   2.523   2.292
   1.395   1.336   1.587   1.667   1.779   1.969   1.990   1.938   1.793   1.513
   1.350   1.110   1.016   0.972   0.869   0.875   0.810   0.807   0.918   0.807
   0.810   0.875   0.869   0.972   1.016   1.110   1.350   1.513   1.793   1.938
   1.990   1.969   1.779   1.667   1.587   1.336   1.395   1.336   1.587   1.667
   1.779   1.969   1.990   1.938   1.793   1.513   1.350   1.110   1.016   0.972
   0.869   0.875   0.810   0.807   0.918   0.807   0.810   0.875   0.869   0.972
   1.016   1.110   1.350   1.513   1.793   1.938   1.990   1.969   1.779   1.667
   1.587   1.336
   0.659   0.693   0.721   0.904   1.058   1.173   1.268   1.474   1.686   1.469
   1.305   1.170   0.990   0.962   0.843   0.814   0.798   0.747   0.873   0.747
   0.798   0.814   0.843   0.962   0.990   1.170   1.305   1.469   1.686   1.474
   1.268   1.173   1.058   0.904   0.721   0.693   0.659   0.693   0.721   0.904
   1.058   1.173   1.268   1.474   1.686   1.469   1.305   1.170   0.990   0.962
   0.843   0.814   0.798   0.747   0.873   0.747   0.798   0.814   0.843   0.962
   0.990   1.170   1.305   1.469   1.686   1.474   1.268   1.173   1.058   0.904
   0.721   0.693
   0.474   0.544   0.548   0.640   0.694   0.782   0.908   1.004   1.255   1.284
   1.302   1.182   0.986   0.834   0.783   0.741   0.724   0.630   0.715   0.630
   0.724   0.741   0.783   0.834   0.986   1.182   1.302   1.284   1.255   1.004
   0.908   0.782   0.694   0.640   0.548   0.544   0.474   0.544   0.548   0.640
   0.694   0.782   0.908   1.004   1.255   1.284   1.302   1.182   0.986   0.834
   0.783   0.741   0.724   0.630   0.715   0.630   0.724   0.741   0.783   0.834
   0.986   1.182   1.302   1.284   1.255   1.004   0.908   0.782   0.694   0.640
   0.548   0.544
   0.511   0.550   0.603   0.684   0.695   0.734   0.895   0.873   0.861   1.106
   1.280   1.210   1.018   0.850   0.862   0.652   0.684   0.603   0.711   0.603
   0.684   0.652   0.862   0.850   1.018   1.210   1.280   1.106   0.861   0.873
   0.895   0.734   0.695   0.684   0.603   0.550   0.511   0.550   0.603   0.684
   0.695   0.734   0.895   0.873   0.861   1.106   1.280   1.210   1.018   0.850
   0.862   0.652   0.684   0.603   0.711   0.603   0.684   0.652   0.862   0.850
   1.018   1.210   1.280   1.106   0.861   0.873   0.895   0.734   0.695   0.684
   0.603   0.550
   0.689   0.574   0.758   0.936   0.921   0.942   0.989   0.929   0.946   1.018
   1.221   1.266   1.053   1.061   0.955   0.735   0.805   0.734   1.006   0.734
   0.805   0.735   0.955   1.061   1.053   1.266   1.221   1.018   0.946   0.929
   0.989   0.942   0.921   0.936   0.758   0.574   0.689   0.574   0.758   0.936
   0.921   0.942   0.989   0.929   0.946   1.018   1.221   1.266   1.053   1.061
   0.955   0.735   0.805   0.734   1.006   0.734   0.805   0.735   0.955   1.061
   1.053   1.266   1.221   1.018   0.946   0.929   0.989   0.942   0.921   0.936
   0.758   0.574
   0.653   0.558   0.657   0.894   0.882   1.064   0.917   0.949   1.042   1.069
   1.131   1.235   1.070   1.069   1.047   0.828   0.674   0.808   0.991   0.808
   0.674   0.828   1.047   1.069   1.070   1.235   1.131   1.069   1.042   0.949
   0.917   1.064   0.882   0.894   0.657   0.558   0.653   0.558   0.657   0.894
   0.882   1.064   0.917   0.949   1.042   1.069   1.131   1.235   1.070   1.069
   1.047   0.828   0.674   0.808   0.991   0.808   0.674   0.828   1.047   1.069
   1.070   1.235   1.131   1.069   1.042   0.949   0.917   1.064   0.882   0.894
   0.657   0.558
   0.552   0.433   0.496   0.604   0.697   0.938   0.832   0.904   1.050   1.094
   0.948   0.989   1.144   1.117   1.105   1.025   0.769   0.904   0.740   0.904
   0.769   1.025   1.105   1.117   1.144   0.989   0.948   1.094   1.050   0.904
   0.832   0.938   0.697   0.604   0.496   0.433   0.552   0.433   0.496   0.604
   0.697   0.938   0.832   0.904   1.050   1.094   0.948   0.989   1.144   1.117
   1.105   1.025   0.769   0.904   0.740   0.904   0.769   1.025   1.105   1.117
   1.144   0.989   0.948   1.094   1.050   0.904   0.832   0.938   0.697   0.604
   0.496   0.433
   0.337   0.179   0.304   0.393   0.528   0.682   0.809   0.929   0.983   0.919
   0.879   0.567   0.797   1.227   0.674   1.049   1.090   1.043   1.023   1.043
   1.090   1.049   0.674   1.227   0.797   0.567   0.879   0.919   0.983   0.929
   0.809   0.682   0.528   0.393   0.304   0.179   0.337   0.179   0.304   0.393
   0.528   0.682   0.809   0.929   0.983   0.919   0.879   0.567   0.797   1.227
   0.674   1.049   1.090   1.043   1.023   1.043   1.090   1.049   0.674   1.227
   0.797   0.567   0.879   0.919   0.983   0.929   0.809   0.682   0.528   0.393
   0.304   0.179
 200       5.00   72    0 5.00   15    0
   2.082   2.082   2.082   2.082   2.082   2.082   2.082   2.082   2.082   2.082
   2.082   2.082   2.082   2.082   2.082   2.082   2.082   2.082   2.082   2.082
   2.082   2.082   2.082   2.082   2.082   2.082   2.082   2.082   2.082   2.082
   2.082   2.082   2.082   2.082   2.082   2.082   2.082   2.082   2.082   2.082
   2.082   2.082   2.082   2.082   2.082   2.082   2.082   2.082   2.082   2.082
   2.082   2.082   2.082   2.082   2.082   2.082   2.082   2.082   2.082   2.082
   2.082   2.082   2.082   2.082   2.082   2.082   2.082   2.082   2.082   2.082
   2.082   2.082
   1.346   1.299   1.444   1.324   1.524   1.281   1.399   1.493   1.586   1.985
   1.807   2.119   2.152   2.063   2.260   2.541   2.472   2.674   2.656   2.674
   2.472   2.541   2.260   2.063   2.152   2.119   1.807   1.985   1.586   1.493
   1.399   1.281   1.524   1.324   1.444   1.299   1.346   1.299   1.444   1.324
   1.524   1.281   1.399   1.493   1.586   1.985   1.807   2.119   2.152   2.063
   2.260   2.541   2.472   2.674   2.656   2.674   2.472   2.541   2.260   2.063
   2.152   2.119   1.807   1.985   1.586   1.493   1.399   1.281   1.524   1.324
   1.444   1.299
   0.819   0.998   1.011   0.928   0.960   1.119   1.056   0.936   1.061   1.144
   1.291   1.728   1.699   1.939   2.106   2.399   2.714   2.894   2.893   2.894
   2.714   2.399   2.106   1.939   1.699   1.728   1.291   1.144   1.061   0.936
   1.056   1.119   0.960   0.928   1.011   0.998   0.819   0.998   1.011   0.928
   0.960   1.119   1.056   0.936   1.061   1.144   1.291   1.728   1.699   1.939
   2.106   2.399   2.714   2.894   2.893   2.894   2.714   2.399   2.106   1.939
   1.699   1.728   1.291   1.144   1.061   0.936   1.056   1.119   0.960   0.928
   1.011   0.998
   0.660   0.814   0.777   0.795   0.765   0.938   0.947   0.874   0.958   0.761
   1.046   1.324   1.321   1.676   1.885   2.132   2.656   2.619   2.830   2.619
   2.656   2.132   1.885   1.676   1.321   1.324   1.046   0.761   0.958   0.874
   0.947   0.938   0.765   0.795   0.777   0.814   0.660   0.814   0.777   0.795
   0.765   0.938   0.947   0.874   0.958   0.761   1.046   1.324   1.321   1.676
   1.885   2.132   2.656   2.619   2.830   2.619   2.656   2.132   1.885   1.676
   1.321   1.324   1.046   0.761   0.958   0.874   0.947   0.938   0.765   0.795
   0.777   0.814
   0.605   0.537   0.493   0.528   0.649   0.446   0.629   0.709   0.686   0.495
   0.803   0.916   0.982   1.247   1.497   1.662   2.079   1.923   2.442   1.923
   2.079   1.662   1.497   1.247   0.982   0.916   0.803   0.495   0.686   0.709
   0.629   0.446   0.649   0.528   0.493   0.537   0.605   0.537   0.493   0.528
   0.649   0.446   0.629   0.709   0.686   0.495   0.803   0.916   0.982   1.247
   1.497   1.662   2.079   1.923   2.442   1.923   2.079   1.662   1.497   1.247
   0.982   0.916   0.803   0.495   0.686   0.709   0.629   0.446   0.649   0.528
   0.493   0.537
   0.241   0.403   0.274   0.360   0.406   0.445   0.460   0.519   0.422   0.419
   0.650   0.745   0.638   0.897   1.042   1.374   1.515   1.512   1.807   1.512
   1.515   1.374   1.042   0.897   0.638   0.745   0.650   0.419   0.422   0.519
   0.460   0.445   0.406   0.360   0.274   0.403   0.241   0.403   0.274   0.360
   0.406   0.445   0.460   0.519   0.422   0.419   0.650   0.745   0.638   0.897
   1.042   1.374   1.515   1.512   1.807   1.512   1.515   1.374   1.042   0.897
   0.638   0.745   0.650   0.419   0.422   0.519   0.460   0.445   0.406   0.360
   0.274   0.403
   0.223   0.336   0.297   0.478   0.283   0.534   0.425   0.445   0.482   0.497
   0.532   0.708   0.554   0.970   0.829   1.436   1.398   1.290   1.340   1.290
   1.398   1.436   0.829   0.970   0.554   0.708   0.532   0.497   0.482   0.445
   0.425   0.534   0.283   0.478   0.297   0.336   0.223   0.336   0.297   0.478
   0.283   0.534   0.425   0.445   0.482   0.497   0.532   0.708   0.554   0.970
   0.829   1.436   1.398   1.290   1.340   1.290   1.398   1.436   0.829   0.970
   0.554   0.708   0.532   0.497   0.482   0.445   0.425   0.534   0.283   0.478
   0.297   0.336
   0.431   0.526   0.563   0.654   0.403   0.443   0.480   0.648   0.813   0.598
   0.553   0.740   0.855   1.213   1.133   1.528   1.566   1.729   1.426   1.729
   1.566   1.528   1.133   1.213   0.855   0.740   0.553   0.598   0.813   0.648
   0.480   0.443   0.403   0.654   0.563   0.526   0.431   0.526   0.563   0.654
   0.403   0.443   0.480   0.648   0.813   0.598   0.553   0.740   0.855   1.213
   1.133   1.528   1.566   1.729   1.426   1.729   1.566   1.528   1.133   1.213
   0.855   0.740   0.553   0.598   0.813   0.648   0.480   0.443   0.403   0.654
   0.563   0.526
   0.674   0.785   0.722   0.839   0.804   0.482   0.587   0.838   0.944   0.812
   0.646   0.802   1.093   1.578   1.588   1.628   1.468   1.932   1.703   1.932
   1.468   1.628   1.588   1.578   1.093   0.802   0.646   0.812   0.944   0.838
   0.587   0.482   0.804   0.839   0.722   0.785   0.674   0.785   0.722   0.839
   0.804   0.482   0.587   0.838   0.944   0.812   0.646   0.802   1.093   1.578
   1.588   1.628   1.468   1.932   1.703   1.932   1.468   1.628   1.588   1.578
   1.093   0.802   0.646   0.812   0.944   0.838   0.587   0.482   0.804   0.839
   0.722   0.785
   1.048   0.718   0.632   1.136   0.905   0.581   0.514   0.861   0.799   0.802
   0.810   0.961   1.144   1.591   1.593   1.506   1.291   1.491   1.586   1.491
   1.291   1.506   1.593   1.591   1.144   0.961   0.810   0.802   0.799   0.861
   0.514   0.581   0.905   1.136   0.632   0.718   1.048   0.718   0.632   1.136
   0.905   0.581   0.514   0.861   0.799   0.802   0.810   0.961   1.144   1.591
   1.593   1.506   1.291   1.491   1.586   1.491   1.291   1.506   1.593   1.591
   1.144   0.961   0.810   0.802   0.799   0.861   0.514   0.581   0.905   1.136
   0.632   0.718
   1.202   0.655   0.915   1.196   0.691   0.631   0.570   0.809   0.599   0.498
   0.811   0.637   0.730   0.774   1.167   1.007   0.963   1.182   1.106   1.182
   0.963   1.007   1.167   0.774   0.730   0.637   0.811   0.498   0.599   0.809
   0.570   0.631   0.691   1.196   0.915   0.655   1.202   0.655   0.915   1.196
   0.691   0.631   0.570   0.809   0.599   0.498   0.811   0.637   0.730   0.774
   1.167   1.007   0.963   1.182   1.106   1.182   0.963   1.007   1.167   0.774
   0.730   0.637   0.811   0.498   0.599   0.809   0.570   0.631   0.691   1.196
   0.915   0.655
   1.209   1.596   1.711   1.398   1.304   0.848   0.811   0.532   0.556   0.700
   1.101   0.236   0.348   0.797   0.809   0.860   0.970   1.131   0.838   1.131
   0.970   0.860   0.809   0.797   0.348   0.236   1.101   0.700   0.556   0.532
   0.811   0.848   1.304   1.398   1.711   1.596   1.209   1.596   1.711   1.398
   1.304   0.848   0.811   0.532   0.556   0.700   1.101   0.236   0.348   0.797
   0.809   0.860   0.970   1.131   0.838   1.131   0.970   0.860   0.809   0.797
   0.348   0.236   1.101   0.700   0.556   0.532   0.811   0.848   1.304   1.398
   1.711   1.596
   1.413   1.782   1.787   1.698   1.693   1.197   0.970   0.969   1.189   1.228
   1.092   0.850   0.599   1.444   1.125   0.881   1.358   1.570   1.898   1.570
   1.358   0.881   1.125   1.444   0.599   0.850   1.092   1.228   1.189   0.969
   0.970   1.197   1.693   1.698   1.787   1.782   1.413   1.782   1.787   1.698
   1.693   1.197   0.970   0.969   1.189   1.228   1.092   0.850   0.599   1.444
   1.125   0.881   1.358   1.570   1.898   1.570   1.358   0.881   1.125   1.444
   0.599   0.850   1.092   1.228   1.189   0.969   0.970   1.197   1.693   1.698
   1.787   1.782
   1.157   0.865   1.176   1.094   0.953   0.807   0.676   1.159   1.387   0.998
   0.558   0.905   0.539   0.991   0.936   0.682   1.466   1.939   2.105   1.939
   1.466   0.682   0.936   0.991   0.539   0.905   0.558   0.998   1.387   1.159
   0.676   0.807   0.953   1.094   1.176   0.865   1.157   0.865   1.176   1.094
   0.953   0.807   0.676   1.159   1.387   0.998   0.558   0.905   0.539   0.991
   0.936   0.682   1.466   1.939   2.105   1.939   1.466   0.682   0.936   0.991
   0.539   0.905   0.558   0.998   1.387   1.159   0.676   0.807   0.953   1.094
   1.176   0.865
   0.333   1.094   1.190   0.588   1.016   1.060   0.436   0.579   0.756   1.411
   0.474   0.525   0.379   0.892   0.519   0.936   1.041   1.496   1.405   1.496
   1.041   0.936   0.519   0.892   0.379   0.525   0.474   1.411   0.756   0.579
   0.436   1.060   1.016   0.588   1.190   1.094   0.333   1.094   1.190   0.588
   1.016   1.060   0.436   0.579   0.756   1.411   0.474   0.525   0.379   0.892
   0.519   0.936   1.041   1.496   1.405   1.496   1.041   0.936   0.519   0.892
   0.379   0.525   0.474   1.411   0.756   0.579   0.436   1.060   1.016   0.588
   1.190   1.094
 211       5.00   72    0 5.00   15    0
   2.151   2.151   2.151   2.151   2.151   2.151   2.151   2.151   2.151   2.151
   2.151   2.151   2.151   2.151   2.151   2.151   2.151   2.151   2.151   2.151
   2.151   2.151   2.151   2.151   2.151   2.151   2.151   2.151   2.151   2.151
   2.151   2.151   2.151   2.151   2.151   2.151   2.151   2.151   2.151   2.151
   2.151   2.151   2.151   2.151   2.151   2.151   2.151   2.151   2.151   2.151
   2.151   2.151   2.151   2.151   2.151   2.151   2.151   2.151   2.151   2.151
   2.151   2.151   2.151   2.151   2.151   2.151   2.151   2.151   2.151   2.151
   2.151   2.151
   1.762   1.339   1.325   1.406   1.308   1.405   1.393   1.518   1.464   1.537
   1.633   1.743   1.561   1.724   1.888   2.009   1.923   1.918   1.629   1.918
   1.923   2.009   1.888   1.724   1.561   1.743   1.633   1.537   1.464   1.518
   1.393   1.405   1.308   1.406   1.325   1.339   1.762   1.339   1.325   1.406
   1.308   1.405   1.393   1.518   1.464   1.537   1.633   1.743   1.561   1.724
   1.888   2.009   1.923   1.918   1.629   1.918   1.923   2.009   1.888   1.724
   1.561   1.743   1.633   1.537   1.464   1.518   1.393   1.405   1.308   1.406
   1.325   1.339
   1.148   1.028   1.076   1.030   0.994   1.082   1.088   1.115   1.166   1.159
   1.322   1.509   1.300   1.486   1.587   1.764   1.795   1.802   1.658   1.802
   1.795   1.764   1.587   1.486   1.300   1.509   1.322   1.159   1.166   1.115
   1.088   1.082   0.994   1.030   1.076   1.028   1.148   1.028   1.076   1.030
   0.994   1.082   1.088   1.115   1.166   1.159   1.322   1.509   1.300   1.486
   1.587   1.764   1.795   1.802   1.658   1.802   1.795   1.764   1.587   1.486
   1.300   1.509   1.322   1.159   1.166   1.115   1.088   1.082   0.994   1.030
   1.076   1.028
   1.121   1.181   1.205   1.181   1.079   1.172   1.184   1.104   1.138   1.090
   1.121   1.334   1.180   1.257   1.469   1.573   1.718   1.760   1.660   1.760
   1.718   1.573   1.469   1.257   1.180   1.334   1.121   1.090   1.138   1.104
   1.184   1.172   1.079   1.181   1.205   1.181   1.121   1.181   1.205   1.181
   1.079   1.172   1.184   1.104   1.138   1.090   1.121   1.334   1.180   1.257
   1.469   1.573   1.718   1.760   1.660   1.760   1.718   1.573   1.469   1.257
   1.180   1.334   1.121   1.090   1.138   1.104   1.184   1.172   1.079   1.181
   1.205   1.181
   1.221   1.243   1.219   1.213   1.026   1.230   1.184   1.087   1.079   0.984
   1.019   1.085   0.981   1.030   1.129   1.252   1.463   1.506   1.522   1.506
   1.463   1.252   1.129   1.030   0.981   1.085   1.019   0.984   1.079   1.087
   1.184   1.230   1.026   1.213   1.219   1.243   1.221   1.243   1.219   1.213
   1.026   1.230   1.184   1.087   1.079   0.984   1.019   1.085   0.981   1.030
   1.129   1.252   1.463   1.506   1.522   1.506   1.463   1.252   1.129   1.030
   0.981   1.085   1.019   0.984   1.079   1.087   1.184   1.230   1.026   1.213
   1.219   1.243
   1.092   1.120   1.091   1.148   1.010   1.142   1.008   1.038   1.016   0.958
   0.974   0.904   0.857   0.944   0.902   1.092   1.149   1.275   1.270   1.275
   1.149   1.092   0.902   0.944   0.857   0.904   0.974   0.958   1.016   1.038
   1.008   1.142   1.010   1.148   1.091   1.120   1.092   1.120   1.091   1.148
   1.010   1.142   1.008   1.038   1.016   0.958   0.974   0.904   0.857   0.944
   0.902   1.092   1.149   1.275   1.270   1.275   1.149   1.092   0.902   0.944
   0.857   0.904   0.974   0.958   1.016   1.038   1.008   1.142   1.010   1.148
   1.091   1.120
   0.993   1.068   1.053   1.172   1.158   1.024   0.871   0.941   0.894   0.800
   0.864   0.779   0.881   0.835   0.816   0.945   0.906   1.066   1.103   1.066
   0.906   0.945   0.816   0.835   0.881   0.779   0.864   0.800   0.894   0.941
   0.871   1.024   1.158   1.172   1.053   1.068   0.993   1.068   1.053   1.172
   1.158   1.024   0.871   0.941   0.894   0.800   0.864   0.779   0.881   0.835
   0.816   0.945   0.906   1.066   1.103   1.066   0.906   0.945   0.816   0.835
   0.881   0.779   0.864   0.800   0.894   0.941   0.871   1.024   1.158   1.172
   1.053   1.068
   1.075   0.964   0.944   1.064   1.195   1.001   0.975   0.910   0.795   0.791
   0.837   0.847   0.919   0.853   0.887   0.875   0.851   0.928   0.966   0.928
   0.851   0.875   0.887   0.853   0.919   0.847   0.837   0.791   0.795   0.910
   0.975   1.001   1.195   1.064   0.944   0.964   1.075   0.964   0.944   1.064
   1.195   1.001   0.975   0.910   0.795   0.791   0.837   0.847   0.919   0.853
   0.887   0.875   0.851   0.928   0.966   0.928   0.851   0.875   0.887   0.853
   0.919   0.847   0.837   0.791   0.795   0.910   0.975   1.001   1.195   1.064
   0.944   0.964
   1.037   0.806   0.850   1.047   1.047   0.986   1.001   0.897   0.796   0.952
   0.909   0.973   1.108   1.151   1.185   1.035   0.883   0.898   0.973   0.898
   0.883   1.035   1.185   1.151   1.108   0.973   0.909   0.952   0.796   0.897
   1.001   0.986   1.047   1.047   0.850   0.806   1.037   0.806   0.850   1.047
   1.047   0.986   1.001   0.897   0.796   0.952   0.909   0.973   1.108   1.151
   1.185   1.035   0.883   0.898   0.973   0.898   0.883   1.035   1.185   1.151
   1.108   0.973   0.909   0.952   0.796   0.897   1.001   0.986   1.047   1.047
   0.850   0.806
   0.834   0.670   0.860   0.862   0.882   0.890   0.930   0.890   0.740   0.905
   0.854   0.852   1.118   1.240   1.153   1.040   1.005   1.017   1.088   1.017
   1.005   1.040   1.153   1.240   1.118   0.852   0.854   0.905   0.740   0.890
   0.930   0.890   0.882   0.862   0.860   0.670   0.834   0.670   0.860   0.862
   0.882   0.890   0.930   0.890   0.740   0.905   0.854   0.852   1.118   1.240
   1.153   1.040   1.005   1.017   1.088   1.017   1.005   1.040   1.153   1.240
   1.118   0.852   0.854   0.905   0.740   0.890   0.930   0.890   0.882   0.862
   0.860   0.670
   1.036   0.778   0.863   0.798   0.861   0.833   0.733   0.834   0.774   0.778
   0.724   0.770   0.933   1.000   0.955   1.034   0.896   0.871   0.956   0.871
   0.896   1.034   0.955   1.000   0.933   0.770   0.724   0.778   0.774   0.834
   0.733   0.833   0.861   0.798   0.863   0.778   1.036   0.778   0.863   0.798
   0.861   0.833   0.733   0.834   0.774   0.778   0.724   0.770   0.933   1.000
   0.955   1.034   0.896   0.871   0.956   0.871   0.896   1.034   0.955   1.000
   0.933   0.770   0.724   0.778   0.774   0.834   0.733   0.833   0.861   0.798
   0.863   0.778
   1.865   1.562   1.358   1.196   1.114   1.017   0.774   0.762   0.954   0.783
   0.870   0.994   0.868   0.983   1.187   1.136   0.687   0.933   0.719   0.933
   0.687   1.136   1.187   0.983   0.868   0.994   0.870   0.783   0.954   0.762
   0.774   1.017   1.114   1.196   1.358   1.562   1.865   1.562   1.358   1.196
   1.114   1.017   0.774   0.762   0.954   0.783   0.870   0.994   0.868   0.983
   1.187   1.136   0.687   0.933   0.719   0.933   0.687   1.136   1.187   0.983
   0.868   0.994   0.870   0.783   0.954   0.762   0.774   1.017   1.114   1.196
   1.358   1.562
   2.143   2.082   1.812   1.399   1.445   1.297   1.157   0.920   0.904   1.073
   1.109   1.148   1.263   1.155   1.395   1.105   0.806   1.201   0.655   1.201
   0.806   1.105   1.395   1.155   1.263   1.148   1.109   1.073   0.904   0.920
   1.157   1.297   1.445   1.399   1.812   2.082   2.143   2.082   1.812   1.399
   1.445   1.297   1.157   0.920   0.904   1.073   1.109   1.148   1.263   1.155
   1.395   1.105   0.806   1.201   0.655   1.201   0.806   1.105   1.395   1.155
   1.263   1.148   1.109   1.073   0.904   0.920   1.157   1.297   1.445   1.399
   1.812   2.082
   1.032   1.286   1.295   1.064   1.191   1.287   1.381   1.079   0.946   0.973
   0.865   0.905   1.346   1.191   1.067   0.800   1.040   1.321   0.932   1.321
   1.040   0.800   1.067   1.191   1.346   0.905   0.865   0.973   0.946   1.079
   1.381   1.287   1.191   1.064   1.295   1.286   1.032   1.286   1.295   1.064
   1.191   1.287   1.381   1.079   0.946   0.973   0.865   0.905   1.346   1.191
   1.067   0.800   1.040   1.321   0.932   1.321   1.040   0.800   1.067   1.191
   1.346   0.905   0.865   0.973   0.946   1.079   1.381   1.287   1.191   1.064
   1.295   1.286
   0.098   0.555   0.425   0.580   1.080   1.185   1.128   0.944   0.738   0.469
   0.622   0.855   0.760   1.192   0.926   0.719   0.952   1.240   0.821   1.240
   0.952   0.719   0.926   1.192   0.760   0.855   0.622   0.469   0.738   0.944
   1.128   1.185   1.080   0.580   0.425   0.555   0.098   0.555   0.425   0.580
   1.080   1.185   1.128   0.944   0.738   0.469   0.622   0.855   0.760   1.192
   0.926   0.719   0.952   1.240   0.821   1.240   0.952   0.719   0.926   1.192
   0.760   0.855   0.622   0.469   0.738   0.944   1.128   1.185   1.080   0.580
   0.425   0.555
  4  1      2.3146286E-01
  4  2     -7.0057075E-01
  4  3      5.0806886E-01
  6  1     -1.1913920E+00
  6  2      1.0605683E+00
  6  3     -8.2666466E-01
  6  4      4.2510325E-02
  8  1      3.1251121E-01
  8  2     -4.3344919E-01
  8  3      2.0081934E-01
  8  4     -2.2761703E-01
  8  5      4.4602108E-01
 10  1     -1.3800803E-01
 10  2     -7.1654771E-02
 10  3     -2.6789080E-01
 10  4     -3.4001402E-01
 10  5      2.0730994E-02
 10  6      2.2824106E-01
 12  1     -2.9887617E-01  1.1129486E+00
 12  2     -3.4467216E-01 -1.4856997E+00
 12  3      1.2167106E-01  7.6060134E-01
 12  4     -1.6384610E-01 -7.4077709E-01
 12  5     -2.5277680E-01  9.9473614E-02
 12  6     -4.0076977E-02 -1.0123208E-01
 12  7      1.9392661E-01 -1.7466807E-01
 14  1      1.2621346E-01
 14  2      2.9196190E-01
 14  3     -9.8388854E-02
 14  4      2.3346188E-01
 14  5     -1.1605313E-01
 14  6     -9.3732049E-02
 14  7      4.3525827E-01
 14  8      4.1913601E-01
 16  1      1.8209971E-02  1.2953972E-01
 16  2      8.4856762E-02 -7.8699068E-03
 16  3     -1.0175323E-01  6.3172872E-01
 16  4     -3.3464057E-01  6.1053368E-01
 16  5     -1.3775954E-01  3.7896092E-01
 16  6      1.4643880E-02  2.9542412E-01
 16  7     -4.1146356E-01  7.0273050E-01
 16  8     -3.1105861E-01  5.7771462E-02
 16  9      1.1477056E-01 -1.7093159E-02
 18  1     -4.0710697E-01 -6.3976566E-01
 18  2      1.3573960E-01  4.8389978E-01
 18  3     -2.9122302E-01 -4.2675323E-01
 18  4      7.3796975E-02  3.6036287E-01
 18  5      2.2679904E-02 -1.6591824E-01
 18  6     -1.5767891E-01  8.3739105E-02
 18  7      1.2510672E-01  9.7188514E-03
 18  8      1.9528659E-01  1.1873513E-01
 18  9     -3.2890381E-01 -1.0925653E-01
 18 10     -1.1765770E-02  1.5317563E-02
 110       5.00   72    0 5.00   18    0
   0.874   0.874   0.874   0.874   0.873   0.873   0.873   0.872   0.872   0.871
   0.871   0.870   0.870   0.869   0.869   0.869   0.868   0.868   0.868   0.868
   0.868   0.869   0.869   0.869   0.870   0.870   0.871   0.871   0.872   0.872
   0.873   0.873   0.873   0.874   0.874   0.874   0.874   0.874   0.874   0.874
   0.873   0.873   0.873   0.872   0.872   0.871   0.871   0.870   0.870   0.869
   0.869   0.869   0.868   0.868   0.868   0.868   0.868   0.869   0.869   0.869
   0.870   0.870   0.871   0.871   0.872   0.872   0.873   0.873   0.873   0.874
   0.874   0.874
   0.763   0.764   0.765   0.768   0.772   0.776   0.780   0.785   0.788   0.792
   0.794   0.796   0.796   0.796   0.795   0.794   0.793   0.793   0.792   0.793
   0.793   0.794   0.795   0.796   0.796   0.796   0.794   0.792   0.788   0.785
   0.780   0.776   0.772   0.768   0.765   0.764   0.763   0.764   0.765   0.768
   0.772   0.776   0.780   0.785   0.788   0.792   0.794   0.796   0.796   0.796
   0.795   0.794   0.793   0.793   0.792   0.793   0.793   0.794   0.795   0.796
   0.796   0.796   0.794   0.792   0.788   0.785   0.780   0.776   0.772   0.768
   0.765   0.764
   0.450   0.452   0.459   0.471   0.487   0.507   0.531   0.558   0.586   0.613
   0.638   0.660   0.676   0.688   0.694   0.697   0.698   0.697   0.697   0.697
   0.698   0.697   0.694   0.688   0.676   0.660   0.638   0.613   0.586   0.558
   0.531   0.507   0.487   0.471   0.459   0.452   0.450   0.452   0.459   0.471
   0.487   0.507   0.531   0.558   0.586   0.613   0.638   0.660   0.676   0.688
   0.694   0.697   0.698   0.697   0.697   0.697   0.698   0.697   0.694   0.688
   0.676   0.660   0.638   0.613   0.586   0.558   0.531   0.507   0.487   0.471
   0.459   0.452
   0.377   0.376   0.374   0.372   0.372   0.378   0.391   0.414   0.446   0.486
   0.530   0.573   0.612   0.641   0.660   0.669   0.671   0.671   0.670   0.671
   0.671   0.669   0.660   0.641   0.612   0.573   0.530   0.486   0.446   0.414
   0.391   0.378   0.372   0.372   0.374   0.376   0.377   0.376   0.374   0.372
   0.372   0.378   0.391   0.414   0.446   0.486   0.530   0.573   0.612   0.641
   0.660   0.669   0.671   0.671   0.670   0.671   0.671   0.669   0.660   0.641
   0.612   0.573   0.530   0.486   0.446   0.414   0.391   0.378   0.372   0.372
   0.374   0.376
   1.063   1.053   1.024   0.977   0.917   0.849   0.779   0.716   0.670   0.645
   0.644   0.663   0.692   0.721   0.742   0.751   0.751   0.747   0.744   0.747
   0.751   0.751   0.742   0.721   0.692   0.663   0.644   0.645   0.670   0.716
   0.779   0.849   0.917   0.977   1.024   1.053   1.063   1.053   1.024   0.977
   0.917   0.849   0.779   0.716   0.670   0.645   0.644   0.663   0.692   0.721
   0.742   0.751   0.751   0.747   0.744   0.747   0.751   0.751   0.742   0.721
   0.692   0.663   0.644   0.645   0.670   0.716   0.779   0.849   0.917   0.977
   1.024   1.053
   2.007   1.999   1.971   1.920   1.838   1.723   1.574   1.404   1.230   1.073
   0.954   0.881   0.852   0.850   0.857   0.859   0.852   0.842   0.838   0.842
   0.852   0.859   0.857   0.850   0.852   0.881   0.954   1.073   1.230   1.404
   1.574   1.723   1.838   1.920   1.971   1.999   2.007   1.999   1.971   1.920
   1.838   1.723   1.574   1.404   1.230   1.073   0.954   0.881   0.852   0.850
   0.857   0.859   0.852   0.842   0.838   0.842   0.852   0.859   0.857   0.850
   0.852   0.881   0.954   1.073   1.230   1.404   1.574   1.723   1.838   1.920
   1.971   1.999
   2.143   2.154   2.181   2.211   2.221   2.188   2.092   1.927   1.707   1.462
   1.235   1.059   0.952   0.903   0.888   0.880   0.867   0.852   0.845   0.852
   0.867   0.880   0.888   0.903   0.952   1.059   1.235   1.462   1.707   1.927
   2.092   2.188   2.221   2.211   2.181   2.154   2.143   2.154   2.181   2.211
   2.221   2.188   2.092   1.927   1.707   1.462   1.235   1.059   0.952   0.903
   0.888   0.880   0.867   0.852   0.845   0.852   0.867   0.880   0.888   0.903
   0.952   1.059   1.235   1.462   1.707   1.927   2.092   2.188   2.221   2.211
   2.181   2.154
   1.383   1.411   1.489   1.606   1.738   1.854   1.917   1.897   1.781   1.584
   1.350   1.134   0.976   0.887   0.848   0.829   0.810   0.791   0.782   0.791
   0.810   0.829   0.848   0.887   0.976   1.134   1.350   1.584   1.781   1.897
   1.917   1.854   1.738   1.606   1.489   1.411   1.383   1.411   1.489   1.606
   1.738   1.854   1.917   1.897   1.781   1.584   1.350   1.134   0.976   0.887
   0.848   0.829   0.810   0.791   0.782   0.791   0.810   0.829   0.848   0.887
   0.976   1.134   1.350   1.584   1.781   1.897   1.917   1.854   1.738   1.606
   1.489   1.411
   0.677   0.701   0.772   0.884   1.033   1.205   1.377   1.510   1.561   1.509
   1.367   1.184   1.016   0.900   0.836   0.803   0.781   0.762   0.755   0.762
   0.781   0.803   0.836   0.900   1.016   1.184   1.367   1.509   1.561   1.510
   1.377   1.205   1.033   0.884   0.772   0.701   0.677   0.701   0.772   0.884
   1.033   1.205   1.377   1.510   1.561   1.509   1.367   1.184   1.016   0.900
   0.836   0.803   0.781   0.762   0.755   0.762   0.781   0.803   0.836   0.900
   1.016   1.184   1.367   1.509   1.561   1.510   1.377   1.205   1.033   0.884
   0.772   0.701
   0.547   0.562   0.604   0.664   0.743   0.854   1.005   1.180   1.330   1.401
   1.366   1.246   1.093   0.959   0.870   0.825   0.807   0.801   0.799   0.801
   0.807   0.825   0.870   0.959   1.093   1.246   1.366   1.401   1.330   1.180
   1.005   0.854   0.743   0.664   0.604   0.562   0.547   0.562   0.604   0.664
   0.743   0.854   1.005   1.180   1.330   1.401   1.366   1.246   1.093   0.959
   0.870   0.825   0.807   0.801   0.799   0.801   0.807   0.825   0.870   0.959
   1.093   1.246   1.366   1.401   1.330   1.180   1.005   0.854   0.743   0.664
   0.604   0.562
   0.626   0.645   0.692   0.740   0.780   0.828   0.914   1.046   1.194   1.301
   1.324   1.258   1.132   0.995   0.886   0.828   0.819   0.835   0.845   0.835
   0.819   0.828   0.886   0.995   1.132   1.258   1.324   1.301   1.194   1.046
   0.914   0.828   0.780   0.740   0.692   0.645   0.626   0.645   0.692   0.740
   0.780   0.828   0.914   1.046   1.194   1.301   1.324   1.258   1.132   0.995
   0.886   0.828   0.819   0.835   0.845   0.835   0.819   0.828   0.886   0.995
   1.132   1.258   1.324   1.301   1.194   1.046   0.914   0.828   0.780   0.740
   0.692   0.645
   0.616   0.635   0.682   0.736   0.785   0.834   0.902   0.998   1.103   1.185
   1.219   1.196   1.116   0.997   0.875   0.798   0.792   0.829   0.851   0.829
   0.792   0.798   0.875   0.997   1.116   1.196   1.219   1.185   1.103   0.998
   0.902   0.834   0.785   0.736   0.682   0.635   0.616   0.635   0.682   0.736
   0.785   0.834   0.902   0.998   1.103   1.185   1.219   1.196   1.116   0.997
   0.875   0.798   0.792   0.829   0.851   0.829   0.792   0.798   0.875   0.997
   1.116   1.196   1.219   1.185   1.103   0.998   0.902   0.834   0.785   0.736
   0.682   0.635
   0.613   0.612   0.615   0.638   0.689   0.766   0.861   0.956   1.030   1.074
   1.099   1.112   1.090   1.010   0.890   0.800   0.794   0.846   0.878   0.846
   0.794   0.800   0.890   1.010   1.090   1.112   1.099   1.074   1.030   0.956
   0.861   0.766   0.689   0.638   0.615   0.612   0.613   0.612   0.615   0.638
   0.689   0.766   0.861   0.956   1.030   1.074   1.099   1.112   1.090   1.010
   0.890   0.800   0.794   0.846   0.878   0.846   0.794   0.800   0.890   1.010
   1.090   1.112   1.099   1.074   1.030   0.956   0.861   0.766   0.689   0.638
   0.615   0.612
   0.536   0.521   0.499   0.515   0.587   0.701   0.825   0.927   0.984   0.999
   1.005   1.027   1.043   1.009   0.927   0.862   0.875   0.943   0.982   0.943
   0.875   0.862   0.927   1.009   1.043   1.027   1.005   0.999   0.984   0.927
   0.825   0.701   0.587   0.515   0.499   0.521   0.536   0.521   0.499   0.515
   0.587   0.701   0.825   0.927   0.984   0.999   1.005   1.027   1.043   1.009
   0.927   0.862   0.875   0.943   0.982   0.943   0.875   0.862   0.927   1.009
   1.043   1.027   1.005   0.999   0.984   0.927   0.825   0.701   0.587   0.515
   0.499   0.521
   0.291   0.291   0.316   0.405   0.548   0.696   0.818   0.910   0.967   0.979
   0.958   0.936   0.932   0.935   0.934   0.950   1.001   1.067   1.099   1.067
   1.001   0.950   0.934   0.935   0.932   0.936   0.958   0.979   0.967   0.910
   0.818   0.696   0.548   0.405   0.316   0.291   0.291   0.291   0.316   0.405
   0.548   0.696   0.818   0.910   0.967   0.979   0.958   0.936   0.932   0.935
   0.934   0.950   1.001   1.067   1.099   1.067   1.001   0.950   0.934   0.935
   0.932   0.936   0.958   0.979   0.967   0.910   0.818   0.696   0.548   0.405
   0.316   0.291
   0.420   0.422   0.461   0.571   0.712   0.808   0.854   0.909   0.995   1.051
   1.014   0.906   0.821   0.835   0.936   1.051   1.114   1.121   1.115   1.121
   1.114   1.051   0.936   0.835   0.821   0.906   1.014   1.051   0.995   0.909
   0.854   0.808   0.712   0.571   0.461   0.422   0.420   0.422   0.461   0.571
   0.712   0.808   0.854   0.909   0.995   1.051   1.014   0.906   0.821   0.835
   0.936   1.051   1.114   1.121   1.115   1.121   1.114   1.051   0.936   0.835
   0.821   0.906   1.014   1.051   0.995   0.909   0.854   0.808   0.712   0.571
   0.461   0.422
   1.427   1.377   1.284   1.221   1.169   1.064   0.948   0.943   1.083   1.226
   1.201   1.004   0.815   0.815   0.996   1.176   1.195   1.085   1.016   1.085
   1.195   1.176   0.996   0.815   0.815   1.004   1.201   1.226   1.083   0.943
   0.948   1.064   1.169   1.221   1.284   1.377   1.427   1.377   1.284   1.221
   1.169   1.064   0.948   0.943   1.083   1.226   1.201   1.004   0.815   0.815
   0.996   1.176   1.195   1.085   1.016   1.085   1.195   1.176   0.996   0.815
   0.815   1.004   1.201   1.226   1.083   0.943   0.948   1.064   1.169   1.221
   1.284   1.377
   2.580   2.464   2.197   1.910   1.625   1.311   1.046   0.990   1.174   1.392
   1.388   1.137   0.877   0.859   1.078   1.279   1.242   1.030   0.910   1.030
   1.242   1.279   1.078   0.859   0.877   1.137   1.388   1.392   1.174   0.990
   1.046   1.311   1.625   1.910   2.197   2.464   2.580   2.464   2.197   1.910
   1.625   1.311   1.046   0.990   1.174   1.392   1.388   1.137   0.877   0.859
   1.078   1.279   1.242   1.030   0.910   1.030   1.242   1.279   1.078   0.859
   0.877   1.137   1.388   1.392   1.174   0.990   1.046   1.311   1.625   1.910
   2.197   2.464
 200       5.00   72    0 5.00   18    0
   2.087   2.088   2.091   2.095   2.102   2.109   2.118   2.128   2.139   2.150
   2.161   2.172   2.182   2.191   2.199   2.206   2.211   2.214   2.215   2.214
   2.211   2.206   2.199   2.191   2.182   2.172   2.161   2.150   2.139   2.128
   2.118   2.109   2.102   2.095   2.091   2.088   2.087   2.088   2.091   2.095
   2.102   2.109   2.118   2.128   2.139   2.150   2.161   2.172   2.182   2.191
   2.199   2.206   2.211   2.214   2.215   2.214   2.211   2.206   2.199   2.191
   2.182   2.172   2.161   2.150   2.139   2.128   2.118   2.109   2.102   2.095
   2.091   2.088
   1.295   1.300   1.315   1.340   1.374   1.419   1.473   1.536   1.607   1.685
   1.766   1.850   1.932   2.009   2.078   2.136   2.180   2.207   2.216   2.207
   2.180   2.136   2.078   2.009   1.932   1.850   1.766   1.685   1.607   1.536
   1.473   1.419   1.374   1.340   1.315   1.300   1.295   1.300   1.315   1.340
   1.374   1.419   1.473   1.536   1.607   1.685   1.766   1.850   1.932   2.009
   2.078   2.136   2.180   2.207   2.216   2.207   2.180   2.136   2.078   2.009
   1.932   1.850   1.766   1.685   1.607   1.536   1.473   1.419   1.374   1.340
   1.315   1.300
   0.664   0.667   0.677   0.696   0.726   0.770   0.831   0.913   1.017   1.144
   1.292   1.457   1.633   1.809   1.976   2.122   2.235   2.307   2.332   2.307
   2.235   2.122   1.976   1.809   1.633   1.457   1.292   1.144   1.017   0.913
   0.831   0.770   0.726   0.696   0.677   0.667   0.664   0.667   0.677   0.696
   0.726   0.770   0.831   0.913   1.017   1.144   1.292   1.457   1.633   1.809
   1.976   2.122   2.235   2.307   2.332   2.307   2.235   2.122   1.976   1.809
   1.633   1.457   1.292   1.144   1.017   0.913   0.831   0.770   0.726   0.696
   0.677   0.667
   0.599   0.598   0.594   0.589   0.587   0.592   0.610   0.648   0.714   0.817
   0.960   1.144   1.363   1.603   1.846   2.069   2.250   2.367   2.407   2.367
   2.250   2.069   1.846   1.603   1.363   1.144   0.960   0.817   0.714   0.648
   0.610   0.592   0.587   0.589   0.594   0.598   0.599   0.598   0.594   0.589
   0.587   0.592   0.610   0.648   0.714   0.817   0.960   1.144   1.363   1.603
   1.846   2.069   2.250   2.367   2.407   2.367   2.250   2.069   1.846   1.603
   1.363   1.144   0.960   0.817   0.714   0.648   0.610   0.592   0.587   0.589
   0.594   0.598
   0.595   0.597   0.602   0.609   0.614   0.616   0.615   0.615   0.625   0.659
   0.733   0.858   1.039   1.265   1.516   1.761   1.966   2.103   2.151   2.103
   1.966   1.761   1.516   1.265   1.039   0.858   0.733   0.659   0.625   0.615
   0.615   0.616   0.614   0.609   0.602   0.597   0.595   0.597   0.602   0.609
   0.614   0.616   0.615   0.615   0.625   0.659   0.733   0.858   1.039   1.265
   1.516   1.761   1.966   2.103   2.151   2.103   1.966   1.761   1.516   1.265
   1.039   0.858   0.733   0.659   0.625   0.615   0.615   0.616   0.614   0.609
   0.602   0.597
   0.400   0.408   0.431   0.466   0.509   0.550   0.578   0.584   0.570   0.552
   0.555   0.605   0.721   0.897   1.111   1.330   1.517   1.641   1.685   1.641
   1.517   1.330   1.111   0.897   0.721   0.605   0.555   0.552   0.570   0.584
   0.578   0.550   0.509   0.466   0.431   0.408   0.400   0.408   0.431   0.466
   0.509   0.550   0.578   0.584   0.570   0.552   0.555   0.605   0.721   0.897
   1.111   1.330   1.517   1.641   1.685   1.641   1.517   1.330   1.111   0.897
   0.721   0.605   0.555   0.552   0.570   0.584   0.578   0.550   0.509   0.466
   0.431   0.408
   0.373   0.375   0.385   0.408   0.446   0.497   0.545   0.569   0.558   0.524
   0.500   0.526   0.628   0.797   1.000   1.194   1.345   1.437   1.468   1.437
   1.345   1.194   1.000   0.797   0.628   0.526   0.500   0.524   0.558   0.569
   0.545   0.497   0.446   0.408   0.385   0.375   0.373   0.375   0.385   0.408
   0.446   0.497   0.545   0.569   0.558   0.524   0.500   0.526   0.628   0.797
   1.000   1.194   1.345   1.437   1.468   1.437   1.345   1.194   1.000   0.797
   0.628   0.526   0.500   0.524   0.558   0.569   0.545   0.497   0.446   0.408
   0.385   0.375
   0.587   0.582   0.567   0.549   0.543   0.561   0.599   0.633   0.637   0.611
   0.597   0.650   0.799   1.018   1.247   1.426   1.534   1.582   1.594   1.582
   1.534   1.426   1.247   1.018   0.799   0.650   0.597   0.611   0.637   0.633
   0.599   0.561   0.543   0.549   0.567   0.582   0.587   0.582   0.567   0.549
   0.543   0.561   0.599   0.633   0.637   0.611   0.597   0.650   0.799   1.018
   1.247   1.426   1.534   1.582   1.594   1.582   1.534   1.426   1.247   1.018
   0.799   0.650   0.597   0.611   0.637   0.633   0.599   0.561   0.543   0.549
   0.567   0.582
   0.665   0.672   0.678   0.662   0.627   0.609   0.635   0.689   0.723   0.719
   0.719   0.800   0.993   1.251   1.481   1.619   1.665   1.662   1.655   1.662
   1.665   1.619   1.481   1.251   0.993   0.800   0.719   0.719   0.723   0.689
   0.635   0.609   0.627   0.662   0.678   0.672   0.665   0.672   0.678   0.662
   0.627   0.609   0.635   0.689   0.723   0.719   0.719   0.800   0.993   1.251
   1.481   1.619   1.665   1.662   1.655   1.662   1.665   1.619   1.481   1.251
   0.993   0.800   0.719   0.719   0.723   0.689   0.635   0.609   0.627   0.662
   0.678   0.672
   0.637   0.675   0.745   0.762   0.698   0.618   0.607   0.674   0.745   0.760
   0.755   0.829   1.020   1.256   1.423   1.478   1.462   1.436   1.427   1.436
   1.462   1.478   1.423   1.256   1.020   0.829   0.755   0.760   0.745   0.674
   0.607   0.618   0.698   0.762   0.745   0.675   0.637   0.675   0.745   0.762
   0.698   0.618   0.607   0.674   0.745   0.760   0.755   0.829   1.020   1.256
   1.423   1.478   1.462   1.436   1.427   1.436   1.462   1.478   1.423   1.256
   1.020   0.829   0.755   0.760   0.745   0.674   0.607   0.618   0.698   0.762
   0.745   0.675
   0.931   0.993   1.104   1.118   0.972   0.762   0.650   0.689   0.772   0.781
   0.737   0.769   0.931   1.119   1.202   1.182   1.162   1.193   1.218   1.193
   1.162   1.182   1.202   1.119   0.931   0.769   0.737   0.781   0.772   0.689
   0.650   0.762   0.972   1.118   1.104   0.993   0.931   0.993   1.104   1.118
   0.972   0.762   0.650   0.689   0.772   0.781   0.737   0.769   0.931   1.119
   1.202   1.182   1.162   1.193   1.218   1.193   1.162   1.182   1.202   1.119
   0.931   0.769   0.737   0.781   0.772   0.689   0.650   0.762   0.972   1.118
   1.104   0.993
   1.410   1.473   1.582   1.567   1.341   1.015   0.805   0.806   0.885   0.858
   0.737   0.701   0.834   1.003   1.050   1.021   1.082   1.249   1.344   1.249
   1.082   1.021   1.050   1.003   0.834   0.701   0.737   0.858   0.885   0.806
   0.805   1.015   1.341   1.567   1.582   1.473   1.410   1.473   1.582   1.567
   1.341   1.015   0.805   0.806   0.885   0.858   0.737   0.701   0.834   1.003
   1.050   1.021   1.082   1.249   1.344   1.249   1.082   1.021   1.050   1.003
   0.834   0.701   0.737   0.858   0.885   0.806   0.805   1.015   1.341   1.567
   1.582   1.473
   1.446   1.496   1.589   1.590   1.400   1.096   0.900   0.928   1.032   0.979
   0.769   0.642   0.741   0.920   0.986   1.004   1.181   1.499   1.665   1.499
   1.181   1.004   0.986   0.920   0.741   0.642   0.769   0.979   1.032   0.928
   0.900   1.096   1.400   1.590   1.589   1.496   1.446   1.496   1.589   1.590
   1.400   1.096   0.900   0.928   1.032   0.979   0.769   0.642   0.741   0.920
   0.986   1.004   1.181   1.499   1.665   1.499   1.181   1.004   0.986   0.920
   0.741   0.642   0.769   0.979   1.032   0.928   0.900   1.096   1.400   1.590
   1.589   1.496
   1.050   1.076   1.142   1.184   1.110   0.939   0.846   0.955   1.123   1.088
   0.832   0.627   0.672   0.842   0.930   0.993   1.244   1.643   1.845   1.643
   1.244   0.993   0.930   0.842   0.672   0.627   0.832   1.088   1.123   0.955
   0.846   0.939   1.110   1.184   1.142   1.076   1.050   1.076   1.142   1.184
   1.110   0.939   0.846   0.955   1.123   1.088   0.832   0.627   0.672   0.842
   0.930   0.993   1.244   1.643   1.845   1.643   1.244   0.993   0.930   0.842
   0.672   0.627   0.832   1.088   1.123   0.955   0.846   0.939   1.110   1.184
   1.142   1.076
   0.931   0.921   0.916   0.924   0.891   0.802   0.781   0.931   1.132   1.141
   0.921   0.710   0.703   0.814   0.874   0.938   1.191   1.578   1.773   1.578
   1.191   0.938   0.874   0.814   0.703   0.710   0.921   1.141   1.132   0.931
   0.781   0.802   0.891   0.924   0.916   0.921   0.931   0.921   0.916   0.924
   0.891   0.802   0.781   0.931   1.132   1.141   0.921   0.710   0.703   0.814
   0.874   0.938   1.191   1.578   1.773   1.578   1.191   0.938   0.874   0.814
   0.703   0.710   0.921   1.141   1.132   0.931   0.781   0.802   0.891   0.924
   0.916   0.921
   1.326   1.280   1.175   1.058   0.938   0.831   0.812   0.923   1.067   1.087
   0.966   0.847   0.827   0.840   0.811   0.833   1.046   1.375   1.539   1.375
   1.046   0.833   0.811   0.840   0.827   0.847   0.966   1.087   1.067   0.923
   0.812   0.831   0.938   1.058   1.175   1.280   1.326   1.280   1.175   1.058
   0.938   0.831   0.812   0.923   1.067   1.087   0.966   0.847   0.827   0.840
   0.811   0.833   1.046   1.375   1.539   1.375   1.046   0.833   0.811   0.840
   0.827   0.847   0.966   1.087   1.067   0.923   0.812   0.831   0.938   1.058
   1.175   1.280
   1.729   1.666   1.494   1.255   1.026   0.889   0.871   0.919   0.945   0.922
   0.902   0.923   0.931   0.846   0.703   0.664   0.838   1.116   1.251   1.116
   0.838   0.664   0.703   0.846   0.931   0.923   0.902   0.922   0.945   0.919
   0.871   0.889   1.026   1.255   1.494   1.666   1.729   1.666   1.494   1.255
   1.026   0.889   0.871   0.919   0.945   0.922   0.902   0.923   0.931   0.846
   0.703   0.664   0.838   1.116   1.251   1.116   0.838   0.664   0.703   0.846
   0.931   0.923   0.902   0.922   0.945   0.919   0.871   0.889   1.026   1.255
   1.494   1.666
   1.837   1.776   1.585   1.291   1.013   0.880   0.889   0.903   0.836   0.762
   0.800   0.924   0.963   0.815   0.592   0.512   0.667   0.920   1.041   0.920
   0.667   0.512   0.592   0.815   0.963   0.924   0.800   0.762   0.836   0.903
   0.889   0.880   1.013   1.291   1.585   1.776   1.837   1.776   1.585   1.291
   1.013   0.880   0.889   0.903   0.836   0.762   0.800   0.924   0.963   0.815
   0.592   0.512   0.667   0.920   1.041   0.920   0.667   0.512   0.592   0.815
   0.963   0.924   0.800   0.762   0.836   0.903   0.889   0.880   1.013   1.291
   1.585   1.776
 211       5.00   72    0 5.00   18    0
   1.411   1.412   1.413   1.414   1.416   1.419   1.422   1.425   1.429   1.432
   1.436   1.440   1.443   1.446   1.449   1.451   1.452   1.453   1.454   1.453
   1.452   1.451   1.449   1.446   1.443   1.440   1.436   1.432   1.429   1.425
   1.422   1.419   1.416   1.414   1.413   1.412   1.411   1.412   1.413   1.414
   1.416   1.419   1.422   1.425   1.429   1.432   1.436   1.440   1.443   1.446
   1.449   1.451   1.452   1.453   1.454   1.453   1.452   1.451   1.449   1.446
   1.443   1.440   1.436   1.432   1.429   1.425   1.422   1.419   1.416   1.414
   1.413   1.412
   1.071   1.073   1.078   1.087   1.100   1.115   1.133   1.154   1.177   1.201
   1.225   1.250   1.274   1.296   1.316   1.333   1.345   1.353   1.355   1.353
   1.345   1.333   1.316   1.296   1.274   1.250   1.225   1.201   1.177   1.154
   1.133   1.115   1.100   1.087   1.078   1.073   1.071   1.073   1.078   1.087
   1.100   1.115   1.133   1.154   1.177   1.201   1.225   1.250   1.274   1.296
   1.316   1.333   1.345   1.353   1.355   1.353   1.345   1.333   1.316   1.296
   1.274   1.250   1.225   1.201   1.177   1.154   1.133   1.115   1.100   1.087
   1.078   1.073
   0.801   0.803   0.809   0.819   0.832   0.848   0.868   0.891   0.918   0.949
   0.984   1.023   1.064   1.105   1.145   1.180   1.208   1.226   1.232   1.226
   1.208   1.180   1.145   1.105   1.064   1.023   0.984   0.949   0.918   0.891
   0.868   0.848   0.832   0.819   0.809   0.803   0.801   0.803   0.809   0.819
   0.832   0.848   0.868   0.891   0.918   0.949   0.984   1.023   1.064   1.105
   1.145   1.180   1.208   1.226   1.232   1.226   1.208   1.180   1.145   1.105
   1.064   1.023   0.984   0.949   0.918   0.891   0.868   0.848   0.832   0.819
   0.809   0.803
   0.833   0.833   0.836   0.839   0.841   0.841   0.839   0.837   0.837   0.843
   0.857   0.883   0.921   0.969   1.023   1.077   1.123   1.153   1.164   1.153
   1.123   1.077   1.023   0.969   0.921   0.883   0.857   0.843   0.837   0.837
   0.839   0.841   0.841   0.839   0.836   0.833   0.833   0.833   0.836   0.839
   0.841   0.841   0.839   0.837   0.837   0.843   0.857   0.883   0.921   0.969
   1.023   1.077   1.123   1.153   1.164   1.153   1.123   1.077   1.023   0.969
   0.921   0.883   0.857   0.843   0.837   0.837   0.839   0.841   0.841   0.839
   0.836   0.833
   1.010   1.011   1.011   1.008   0.998   0.979   0.951   0.917   0.881   0.851
   0.833   0.833   0.855   0.899   0.959   1.028   1.092   1.137   1.153   1.137
   1.092   1.028   0.959   0.899   0.855   0.833   0.833   0.851   0.881   0.917
   0.951   0.979   0.998   1.008   1.011   1.011   1.010   1.011   1.011   1.008
   0.998   0.979   0.951   0.917   0.881   0.851   0.833   0.833   0.855   0.899
   0.959   1.028   1.092   1.137   1.153   1.137   1.092   1.028   0.959   0.899
   0.855   0.833   0.833   0.851   0.881   0.917   0.951   0.979   0.998   1.008
   1.011   1.011
   1.148   1.147   1.144   1.133   1.109   1.069   1.019   0.964   0.913   0.871
   0.844   0.833   0.842   0.872   0.924   0.989   1.054   1.103   1.121   1.103
   1.054   0.989   0.924   0.872   0.842   0.833   0.844   0.871   0.913   0.964
   1.019   1.069   1.109   1.133   1.144   1.147   1.148   1.147   1.144   1.133
   1.109   1.069   1.019   0.964   0.913   0.871   0.844   0.833   0.842   0.872
   0.924   0.989   1.054   1.103   1.121   1.103   1.054   0.989   0.924   0.872
   0.842   0.833   0.844   0.871   0.913   0.964   1.019   1.069   1.109   1.133
   1.144   1.147
   1.182   1.183   1.183   1.170   1.134   1.076   1.005   0.940   0.895   0.874
   0.871   0.875   0.880   0.889   0.907   0.939   0.979   1.013   1.027   1.013
   0.979   0.939   0.907   0.889   0.880   0.875   0.871   0.874   0.895   0.940
   1.005   1.076   1.134   1.170   1.183   1.183   1.182   1.183   1.183   1.170
   1.134   1.076   1.005   0.940   0.895   0.874   0.871   0.875   0.880   0.889
   0.907   0.939   0.979   1.013   1.027   1.013   0.979   0.939   0.907   0.889
   0.880   0.875   0.871   0.874   0.895   0.940   1.005   1.076   1.134   1.170
   1.183   1.183
   1.039   1.051   1.076   1.092   1.079   1.030   0.962   0.902   0.874   0.886
   0.921   0.952   0.962   0.948   0.926   0.914   0.916   0.927   0.933   0.927
   0.916   0.914   0.926   0.948   0.962   0.952   0.921   0.886   0.874   0.902
   0.962   1.030   1.079   1.092   1.076   1.051   1.039   1.051   1.076   1.092
   1.079   1.030   0.962   0.902   0.874   0.886   0.921   0.952   0.962   0.948
   0.926   0.914   0.916   0.927   0.933   0.927   0.916   0.914   0.926   0.948
   0.962   0.952   0.921   0.886   0.874   0.902   0.962   1.030   1.079   1.092
   1.076   1.051
   0.762   0.785   0.842   0.904   0.942   0.941   0.911   0.878   0.874   0.911
   0.973   1.025   1.042   1.020   0.978   0.941   0.922   0.917   0.917   0.917
   0.922   0.941   0.978   1.020   1.042   1.025   0.973   0.911   0.874   0.878
   0.911   0.941   0.942   0.904   0.842   0.785   0.762   0.785   0.842   0.904
   0.942   0.941   0.911   0.878   0.874   0.911   0.973   1.025   1.042   1.020
   0.978   0.941   0.922   0.917   0.917   0.917   0.922   0.941   0.978   1.020
   1.042   1.025   0.973   0.911   0.874   0.878   0.911   0.941   0.942   0.904
   0.842   0.785
   0.700   0.716   0.757   0.808   0.851   0.875   0.878   0.874   0.888   0.935
   1.005   1.064   1.084   1.062   1.020   0.981   0.959   0.951   0.949   0.951
   0.959   0.981   1.020   1.062   1.084   1.064   1.005   0.935   0.888   0.874
   0.878   0.875   0.851   0.808   0.757   0.716   0.700   0.716   0.757   0.808
   0.851   0.875   0.878   0.874   0.888   0.935   1.005   1.064   1.084   1.062
   1.020   0.981   0.959   0.951   0.949   0.951   0.959   0.981   1.020   1.062
   1.084   1.064   1.005   0.935   0.888   0.874   0.878   0.875   0.851   0.808
   0.757   0.716
   1.117   1.103   1.067   1.020   0.980   0.952   0.928   0.910   0.911   0.952
   1.021   1.081   1.094   1.061   1.009   0.968   0.945   0.934   0.930   0.934
   0.945   0.968   1.009   1.061   1.094   1.081   1.021   0.952   0.911   0.910
   0.928   0.952   0.980   1.020   1.067   1.103   1.117   1.103   1.067   1.020
   0.980   0.952   0.928   0.910   0.911   0.952   1.021   1.081   1.094   1.061
   1.009   0.968   0.945   0.934   0.930   0.934   0.945   0.968   1.009   1.061
   1.094   1.081   1.021   0.952   0.911   0.910   0.928   0.952   0.980   1.020
   1.067   1.103
   1.653   1.616   1.517   1.387   1.264   1.164   1.078   0.995   0.942   0.953
   1.024   1.091   1.094   1.031   0.952   0.900   0.878   0.871   0.869   0.871
   0.878   0.900   0.952   1.031   1.094   1.091   1.024   0.953   0.942   0.995
   1.078   1.164   1.264   1.387   1.517   1.616   1.653   1.616   1.517   1.387
   1.264   1.164   1.078   0.995   0.942   0.953   1.024   1.091   1.094   1.031
   0.952   0.900   0.878   0.871   0.869   0.871   0.878   0.900   0.952   1.031
   1.094   1.091   1.024   0.953   0.942   0.995   1.078   1.164   1.264   1.387
   1.517   1.616
   1.686   1.657   1.581   1.488   1.407   1.336   1.236   1.094   0.966   0.934
   1.005   1.088   1.088   1.002   0.904   0.857   0.860   0.877   0.885   0.877
   0.860   0.857   0.904   1.002   1.088   1.088   1.005   0.934   0.966   1.094
   1.236   1.336   1.407   1.488   1.581   1.657   1.686   1.657   1.581   1.488
   1.407   1.336   1.236   1.094   0.966   0.934   1.005   1.088   1.088   1.002
   0.904   0.857   0.860   0.877   0.885   0.877   0.860   0.857   0.904   1.002
   1.088   1.088   1.005   0.934   0.966   1.094   1.236   1.336   1.407   1.488
   1.581   1.657
   1.177   1.171   1.168   1.197   1.269   1.332   1.302   1.156   0.985   0.919
   0.985   1.076   1.080   0.998   0.919   0.911   0.958   1.007   1.026   1.007
   0.958   0.911   0.919   0.998   1.080   1.076   0.985   0.919   0.985   1.156
   1.302   1.332   1.269   1.197   1.168   1.171   1.177   1.171   1.168   1.197
   1.269   1.332   1.302   1.156   0.985   0.919   0.985   1.076   1.080   0.998
   0.919   0.911   0.958   1.007   1.026   1.007   0.958   0.911   0.919   0.998
   1.080   1.076   0.985   0.919   0.985   1.156   1.302   1.332   1.269   1.197
   1.168   1.171
   0.684   0.686   0.719   0.833   1.026   1.207   1.255   1.147   0.999   0.947
   1.008   1.081   1.077   1.019   0.992   1.029   1.093   1.138   1.151   1.138
   1.093   1.029   0.992   1.019   1.077   1.081   1.008   0.947   0.999   1.147
   1.255   1.207   1.026   0.833   0.719   0.686   0.684   0.686   0.719   0.833
   1.026   1.207   1.255   1.147   0.999   0.947   1.008   1.081   1.077   1.019
   0.992   1.029   1.093   1.138   1.151   1.138   1.093   1.029   0.992   1.019
   1.077   1.081   1.008   0.947   0.999   1.147   1.255   1.207   1.026   0.833
   0.719   0.686
   0.556   0.551   0.577   0.700   0.907   1.083   1.122   1.045   0.980   1.008
   1.085   1.111   1.071   1.035   1.059   1.111   1.125   1.095   1.074   1.095
   1.125   1.111   1.059   1.035   1.071   1.111   1.085   1.008   0.980   1.045
   1.122   1.083   0.907   0.700   0.577   0.551   0.556   0.551   0.577   0.700
   0.907   1.083   1.122   1.045   0.980   1.008   1.085   1.111   1.071   1.035
   1.059   1.111   1.125   1.095   1.074   1.095   1.125   1.111   1.059   1.035
   1.071   1.111   1.085   1.008   0.980   1.045   1.122   1.083   0.907   0.700
   0.577   0.551
   0.620   0.617   0.649   0.770   0.931   1.008   0.953   0.873   0.910   1.058
   1.169   1.144   1.049   1.020   1.075   1.104   1.020   0.872   0.799   0.872
   1.020   1.104   1.075   1.020   1.049   1.144   1.169   1.058   0.910   0.873
   0.953   1.008   0.931   0.770   0.649   0.617   0.620   0.617   0.649   0.770
   0.931   1.008   0.953   0.873   0.910   1.058   1.169   1.144   1.049   1.020
   1.075   1.104   1.020   0.872   0.799   0.872   1.020   1.104   1.075   1.020
   1.049   1.144   1.169   1.058   0.910   0.873   0.953   1.008   0.931   0.770
   0.649   0.617
   0.654   0.662   0.720   0.855   0.983   0.972   0.827   0.730   0.837   1.075
   1.218   1.159   1.025   0.993   1.059   1.062   0.898   0.661   0.549   0.661
   0.898   1.062   1.059   0.993   1.025   1.159   1.218   1.075   0.837   0.730
   0.827   0.972   0.983   0.855   0.720   0.662   0.654   0.662   0.720   0.855
   0.983   0.972   0.827   0.730   0.837   1.075   1.218   1.159   1.025   0.993
   1.059   1.062   0.898   0.661   0.549   0.661   0.898   1.062   1.059   0.993
   1.025   1.159   1.218   1.075   0.837   0.730   0.827   0.972   0.983   0.855
   0.720   0.662
TEXTURE_INDEX=   1.7011
ERR_CF 110         1080     308    9.98    6.51
ERR_CF 200         1080     522   18.01   10.07
ERR_CF 211         1080     656   18.09   18.45
