TEXEVAL                                                                         
Analysis started on 21-May-19 13:31:38                                          
 LMAX=16LFMAX=03 CUBIC ORTHO   
 220      5.00 5.00
 200      5.00 5.00
 111      5.00 5.00
 220       5.00   72    0 5.00   15    0
   3.725   3.725   3.725   3.725   3.725   3.725   3.725   3.725   3.725   3.725
   3.725   3.725   3.725   3.725   3.725   3.725   3.725   3.725   3.725   3.725
   3.725   3.725   3.725   3.725   3.725   3.725   3.725   3.725   3.725   3.725
   3.725   3.725   3.725   3.725   3.725   3.725   3.725   3.725   3.725   3.725
   3.725   3.725   3.725   3.725   3.725   3.725   3.725   3.725   3.725   3.725
   3.725   3.725   3.725   3.725   3.725   3.725   3.725   3.725   3.725   3.725
   3.725   3.725   3.725   3.725   3.725   3.725   3.725   3.725   3.725   3.725
   3.725   3.725
   1.044   1.088   1.138   1.156   1.206   1.305   1.426   1.552   1.721   1.941
   2.205   2.582   2.973   3.383   3.779   4.176   4.529   4.769   4.831   4.769
   4.529   4.176   3.779   3.383   2.973   2.582   2.205   1.941   1.721   1.552
   1.426   1.305   1.206   1.156   1.138   1.088   1.044   1.088   1.138   1.156
   1.206   1.305   1.426   1.552   1.721   1.941   2.205   2.582   2.973   3.383
   3.779   4.176   4.529   4.769   4.831   4.769   4.529   4.176   3.779   3.383
   2.973   2.582   2.205   1.941   1.721   1.552   1.426   1.305   1.206   1.156
   1.138   1.088
   0.117   0.131   0.122   0.126   0.184   0.286   0.339   0.375   0.477   0.654
   0.895   1.275   1.788   2.357   3.103   4.007   4.760   5.197   5.347   5.197
   4.760   4.007   3.103   2.357   1.788   1.275   0.895   0.654   0.477   0.375
   0.339   0.286   0.184   0.126   0.122   0.131   0.117   0.131   0.122   0.126
   0.184   0.286   0.339   0.375   0.477   0.654   0.895   1.275   1.788   2.357
   3.103   4.007   4.760   5.197   5.347   5.197   4.760   4.007   3.103   2.357
   1.788   1.275   0.895   0.654   0.477   0.375   0.339   0.286   0.184   0.126
   0.122   0.131
   0.038   0.056   0.055   0.019   0.033   0.077   0.101   0.150   0.138   0.183
   0.365   0.580   0.924   1.490   2.433   3.657   4.957   5.973   6.371   5.973
   4.957   3.657   2.433   1.490   0.924   0.580   0.365   0.183   0.138   0.150
   0.101   0.077   0.033   0.019   0.055   0.056   0.038   0.056   0.055   0.019
   0.033   0.077   0.101   0.150   0.138   0.183   0.365   0.580   0.924   1.490
   2.433   3.657   4.957   5.973   6.371   5.973   4.957   3.657   2.433   1.490
   0.924   0.580   0.365   0.183   0.138   0.150   0.101   0.077   0.033   0.019
   0.055   0.056
   0.057   0.052   0.051   0.033   0.020   0.024   0.066   0.118   0.089   0.089
   0.192   0.309   0.485   0.907   1.704   3.027   4.756   6.266   6.856   6.266
   4.756   3.027   1.704   0.907   0.485   0.309   0.192   0.089   0.089   0.118
   0.066   0.024   0.020   0.033   0.051   0.052   0.057   0.052   0.051   0.033
   0.020   0.024   0.066   0.118   0.089   0.089   0.192   0.309   0.485   0.907
   1.704   3.027   4.756   6.266   6.856   6.266   4.756   3.027   1.704   0.907
   0.485   0.309   0.192   0.089   0.089   0.118   0.066   0.024   0.020   0.033
   0.051   0.052
   0.087   0.071   0.048   0.077   0.090   0.112   0.094   0.104   0.114   0.093
   0.172   0.265   0.370   0.729   1.464   2.730   4.205   5.195   5.578   5.195
   4.205   2.730   1.464   0.729   0.370   0.265   0.172   0.093   0.114   0.104
   0.094   0.112   0.090   0.077   0.048   0.071   0.087   0.071   0.048   0.077
   0.090   0.112   0.094   0.104   0.114   0.093   0.172   0.265   0.370   0.729
   1.464   2.730   4.205   5.195   5.578   5.195   4.205   2.730   1.464   0.729
   0.370   0.265   0.172   0.093   0.114   0.104   0.094   0.112   0.090   0.077
   0.048   0.071
   0.077   0.110   0.089   0.094   0.139   0.204   0.131   0.097   0.118   0.107
   0.188   0.288   0.414   0.933   1.951   2.999   3.369   3.212   3.173   3.212
   3.369   2.999   1.951   0.933   0.414   0.288   0.188   0.107   0.118   0.097
   0.131   0.204   0.139   0.094   0.089   0.110   0.077   0.110   0.089   0.094
   0.139   0.204   0.131   0.097   0.118   0.107   0.188   0.288   0.414   0.933
   1.951   2.999   3.369   3.212   3.173   3.212   3.369   2.999   1.951   0.933
   0.414   0.288   0.188   0.107   0.118   0.097   0.131   0.204   0.139   0.094
   0.089   0.110
   0.044   0.076   0.063   0.051   0.082   0.113   0.102   0.072   0.076   0.103
   0.154   0.265   0.548   1.282   2.537   3.045   2.240   1.446   1.253   1.446
   2.240   3.045   2.537   1.282   0.548   0.265   0.154   0.103   0.076   0.072
   0.102   0.113   0.082   0.051   0.063   0.076   0.044   0.076   0.063   0.051
   0.082   0.113   0.102   0.072   0.076   0.103   0.154   0.265   0.548   1.282
   2.537   3.045   2.240   1.446   1.253   1.446   2.240   3.045   2.537   1.282
   0.548   0.265   0.154   0.103   0.076   0.072   0.102   0.113   0.082   0.051
   0.063   0.076
   0.067   0.056   0.120   0.135   0.073   0.030   0.025   0.037   0.034   0.048
   0.128   0.217   0.576   1.504   2.592   2.472   1.389   0.634   0.456   0.634
   1.389   2.472   2.592   1.504   0.576   0.217   0.128   0.048   0.034   0.037
   0.025   0.030   0.073   0.135   0.120   0.056   0.067   0.056   0.120   0.135
   0.073   0.030   0.025   0.037   0.034   0.048   0.128   0.217   0.576   1.504
   2.592   2.472   1.389   0.634   0.456   0.634   1.389   2.472   2.592   1.504
   0.576   0.217   0.128   0.048   0.034   0.037   0.025   0.030   0.073   0.135
   0.120   0.056
   0.259   0.220   0.226   0.183   0.095   0.105   0.030   0.022   0.079   0.088
   0.097   0.153   0.534   1.345   2.231   1.755   0.852   0.497   0.352   0.497
   0.852   1.755   2.231   1.345   0.534   0.153   0.097   0.088   0.079   0.022
   0.030   0.105   0.095   0.183   0.226   0.220   0.259   0.220   0.226   0.183
   0.095   0.105   0.030   0.022   0.079   0.088   0.097   0.153   0.534   1.345
   2.231   1.755   0.852   0.497   0.352   0.497   0.852   1.755   2.231   1.345
   0.534   0.153   0.097   0.088   0.079   0.022   0.030   0.105   0.095   0.183
   0.226   0.220
   2.475   2.041   1.105   0.391   0.135   0.081   0.043   0.022   0.076   0.122
   0.077   0.091   0.395   1.080   1.863   1.271   0.386   0.265   0.257   0.265
   0.386   1.271   1.863   1.080   0.395   0.091   0.077   0.122   0.076   0.022
   0.043   0.081   0.135   0.391   1.105   2.041   2.475   2.041   1.105   0.391
   0.135   0.081   0.043   0.022   0.076   0.122   0.077   0.091   0.395   1.080
   1.863   1.271   0.386   0.265   0.257   0.265   0.386   1.271   1.863   1.080
   0.395   0.091   0.077   0.122   0.076   0.022   0.043   0.081   0.135   0.391
   1.105   2.041
   9.578   7.733   4.394   1.862   0.907   0.403   0.173   0.059   0.055   0.104
   0.142   0.090   0.287   1.073   1.510   0.877   0.112   0.021   0.088   0.021
   0.112   0.877   1.510   1.073   0.287   0.090   0.142   0.104   0.055   0.059
   0.173   0.403   0.907   1.862   4.394   7.733   9.578   7.733   4.394   1.862
   0.907   0.403   0.173   0.059   0.055   0.104   0.142   0.090   0.287   1.073
   1.510   0.877   0.112   0.021   0.088   0.021   0.112   0.877   1.510   1.073
   0.287   0.090   0.142   0.104   0.055   0.059   0.173   0.403   0.907   1.862
   4.394   7.733
  10.241   8.590   5.502   3.428   2.434   1.379   0.830   0.442   0.216   0.193
   0.176   0.216   0.324   0.950   1.332   0.967   0.396   0.051   0.046   0.051
   0.396   0.967   1.332   0.950   0.324   0.216   0.176   0.193   0.216   0.442
   0.830   1.379   2.434   3.428   5.502   8.590  10.241   8.590   5.502   3.428
   2.434   1.379   0.830   0.442   0.216   0.193   0.176   0.216   0.324   0.950
   1.332   0.967   0.396   0.051   0.046   0.051   0.396   0.967   1.332   0.950
   0.324   0.216   0.176   0.193   0.216   0.442   0.830   1.379   2.434   3.428
   5.502   8.590
   3.156   3.031   2.435   2.330   2.196   1.662   1.383   1.176   0.877   0.617
   0.265   0.303   0.452   0.691   1.477   1.458   0.611   0.075   0.043   0.075
   0.611   1.458   1.477   0.691   0.452   0.303   0.265   0.617   0.877   1.176
   1.383   1.662   2.196   2.330   2.435   3.031   3.156   3.031   2.435   2.330
   2.196   1.662   1.383   1.176   0.877   0.617   0.265   0.303   0.452   0.691
   1.477   1.458   0.611   0.075   0.043   0.075   0.611   1.458   1.477   0.691
   0.452   0.303   0.265   0.617   0.877   1.176   1.383   1.662   2.196   2.330
   2.435   3.031
   0.321   0.523   0.656   0.644   0.757   0.987   1.266   1.520   1.553   1.582
   0.873   0.375   0.360   0.494   1.593   2.037   1.131   0.328   0.256   0.328
   1.131   2.037   1.593   0.494   0.360   0.375   0.873   1.582   1.553   1.520
   1.266   0.987   0.757   0.644   0.656   0.523   0.321   0.523   0.656   0.644
   0.757   0.987   1.266   1.520   1.553   1.582   0.873   0.375   0.360   0.494
   1.593   2.037   1.131   0.328   0.256   0.328   1.131   2.037   1.593   0.494
   0.360   0.375   0.873   1.582   1.553   1.520   1.266   0.987   0.757   0.644
   0.656   0.523
 200       5.00   72    0 5.00   15    0
   0.299   0.299   0.299   0.299   0.299   0.299   0.299   0.299   0.299   0.299
   0.299   0.299   0.299   0.299   0.299   0.299   0.299   0.299   0.299   0.299
   0.299   0.299   0.299   0.299   0.299   0.299   0.299   0.299   0.299   0.299
   0.299   0.299   0.299   0.299   0.299   0.299   0.299   0.299   0.299   0.299
   0.299   0.299   0.299   0.299   0.299   0.299   0.299   0.299   0.299   0.299
   0.299   0.299   0.299   0.299   0.299   0.299   0.299   0.299   0.299   0.299
   0.299   0.299   0.299   0.299   0.299   0.299   0.299   0.299   0.299   0.299
   0.299   0.299
   0.252   0.261   0.233   0.188   0.213   0.224   0.219   0.198   0.196   0.212
   0.219   0.259   0.267   0.239   0.296   0.296   0.272   0.263   0.271   0.263
   0.272   0.296   0.296   0.239   0.267   0.259   0.219   0.212   0.196   0.198
   0.219   0.224   0.213   0.188   0.233   0.261   0.252   0.261   0.233   0.188
   0.213   0.224   0.219   0.198   0.196   0.212   0.219   0.259   0.267   0.239
   0.296   0.296   0.272   0.263   0.271   0.263   0.272   0.296   0.296   0.239
   0.267   0.259   0.219   0.212   0.196   0.198   0.219   0.224   0.213   0.188
   0.233   0.261
   0.241   0.214   0.181   0.192   0.205   0.200   0.199   0.190   0.191   0.185
   0.213   0.223   0.154   0.161   0.245   0.255   0.251   0.230   0.220   0.230
   0.251   0.255   0.245   0.161   0.154   0.223   0.213   0.185   0.191   0.190
   0.199   0.200   0.205   0.192   0.181   0.214   0.241   0.214   0.181   0.192
   0.205   0.200   0.199   0.190   0.191   0.185   0.213   0.223   0.154   0.161
   0.245   0.255   0.251   0.230   0.220   0.230   0.251   0.255   0.245   0.161
   0.154   0.223   0.213   0.185   0.191   0.190   0.199   0.200   0.205   0.192
   0.181   0.214
   0.296   0.262   0.228   0.255   0.276   0.241   0.212   0.184   0.165   0.147
   0.176   0.188   0.164   0.159   0.190   0.213   0.187   0.232   0.277   0.232
   0.187   0.213   0.190   0.159   0.164   0.188   0.176   0.147   0.165   0.184
   0.212   0.241   0.276   0.255   0.228   0.262   0.296   0.262   0.228   0.255
   0.276   0.241   0.212   0.184   0.165   0.147   0.176   0.188   0.164   0.159
   0.190   0.213   0.187   0.232   0.277   0.232   0.187   0.213   0.190   0.159
   0.164   0.188   0.176   0.147   0.165   0.184   0.212   0.241   0.276   0.255
   0.228   0.262
   0.982   0.926   0.816   0.763   0.712   0.569   0.454   0.329   0.235   0.181
   0.146   0.121   0.122   0.117   0.102   0.133   0.137   0.187   0.274   0.187
   0.137   0.133   0.102   0.117   0.122   0.121   0.146   0.181   0.235   0.329
   0.454   0.569   0.712   0.763   0.816   0.926   0.982   0.926   0.816   0.763
   0.712   0.569   0.454   0.329   0.235   0.181   0.146   0.121   0.122   0.117
   0.102   0.133   0.137   0.187   0.274   0.187   0.137   0.133   0.102   0.117
   0.122   0.121   0.146   0.181   0.235   0.329   0.454   0.569   0.712   0.763
   0.816   0.926
   2.821   2.766   2.642   2.485   2.457   2.263   1.895   1.475   0.984   0.575
   0.269   0.139   0.110   0.082   0.064   0.084   0.106   0.134   0.205   0.134
   0.106   0.084   0.064   0.082   0.110   0.139   0.269   0.575   0.984   1.475
   1.895   2.263   2.457   2.485   2.642   2.766   2.821   2.766   2.642   2.485
   2.457   2.263   1.895   1.475   0.984   0.575   0.269   0.139   0.110   0.082
   0.064   0.084   0.106   0.134   0.205   0.134   0.106   0.084   0.064   0.082
   0.110   0.139   0.269   0.575   0.984   1.475   1.895   2.263   2.457   2.485
   2.642   2.766
   3.076   3.109   3.195   3.224   3.455   3.808   3.919   3.659   2.939   2.066
   1.131   0.541   0.329   0.200   0.150   0.171   0.148   0.198   0.238   0.198
   0.148   0.171   0.150   0.200   0.329   0.541   1.131   2.066   2.939   3.659
   3.919   3.808   3.455   3.224   3.195   3.109   3.076   3.109   3.195   3.224
   3.455   3.808   3.919   3.659   2.939   2.066   1.131   0.541   0.329   0.200
   0.150   0.171   0.148   0.198   0.238   0.198   0.148   0.171   0.150   0.200
   0.329   0.541   1.131   2.066   2.939   3.659   3.919   3.808   3.455   3.224
   3.195   3.109
   1.186   1.240   1.356   1.538   1.843   2.498   3.146   3.592   3.787   3.664
   2.923   1.770   0.938   0.523   0.349   0.368   0.313   0.300   0.300   0.300
   0.313   0.368   0.349   0.523   0.938   1.770   2.923   3.664   3.787   3.592
   3.146   2.498   1.843   1.538   1.356   1.240   1.186   1.240   1.356   1.538
   1.843   2.498   3.146   3.592   3.787   3.664   2.923   1.770   0.938   0.523
   0.349   0.368   0.313   0.300   0.300   0.300   0.313   0.368   0.349   0.523
   0.938   1.770   2.923   3.664   3.787   3.592   3.146   2.498   1.843   1.538
   1.356   1.240
   0.137   0.144   0.139   0.207   0.332   0.573   0.915   1.415   2.137   3.060
   3.751   3.161   1.898   0.968   0.555   0.488   0.419   0.399   0.404   0.399
   0.419   0.488   0.555   0.968   1.898   3.161   3.751   3.060   2.137   1.415
   0.915   0.573   0.332   0.207   0.139   0.144   0.137   0.144   0.139   0.207
   0.332   0.573   0.915   1.415   2.137   3.060   3.751   3.161   1.898   0.968
   0.555   0.488   0.419   0.399   0.404   0.399   0.419   0.488   0.555   0.968
   1.898   3.161   3.751   3.060   2.137   1.415   0.915   0.573   0.332   0.207
   0.139   0.144
   0.016   0.019   0.055   0.054   0.076   0.123   0.238   0.376   0.601   1.381
   2.974   3.799   2.936   1.496   0.755   0.523   0.430   0.439   0.420   0.439
   0.430   0.523   0.755   1.496   2.936   3.799   2.974   1.381   0.601   0.376
   0.238   0.123   0.076   0.054   0.055   0.019   0.016   0.019   0.055   0.054
   0.076   0.123   0.238   0.376   0.601   1.381   2.974   3.799   2.936   1.496
   0.755   0.523   0.430   0.439   0.420   0.439   0.430   0.523   0.755   1.496
   2.936   3.799   2.974   1.381   0.601   0.376   0.238   0.123   0.076   0.054
   0.055   0.019
   0.119   0.059   0.138   0.167   0.205   0.206   0.146   0.164   0.214   0.634
   2.165   4.202   4.230   2.280   0.869   0.496   0.373   0.367   0.344   0.367
   0.373   0.496   0.869   2.280   4.230   4.202   2.165   0.634   0.214   0.164
   0.146   0.206   0.205   0.167   0.138   0.059   0.119   0.059   0.138   0.167
   0.205   0.206   0.146   0.164   0.214   0.634   2.165   4.202   4.230   2.280
   0.869   0.496   0.373   0.367   0.344   0.367   0.373   0.496   0.869   2.280
   4.230   4.202   2.165   0.634   0.214   0.164   0.146   0.206   0.205   0.167
   0.138   0.059
   0.208   0.178   0.226   0.180   0.203   0.189   0.114   0.146   0.237   0.538
   2.089   4.711   4.797   2.474   0.776   0.339   0.249   0.252   0.264   0.252
   0.249   0.339   0.776   2.474   4.797   4.711   2.089   0.538   0.237   0.146
   0.114   0.189   0.203   0.180   0.226   0.178   0.208   0.178   0.226   0.180
   0.203   0.189   0.114   0.146   0.237   0.538   2.089   4.711   4.797   2.474
   0.776   0.339   0.249   0.252   0.264   0.252   0.249   0.339   0.776   2.474
   4.797   4.711   2.089   0.538   0.237   0.146   0.114   0.189   0.203   0.180
   0.226   0.178
   0.244   0.266   0.231   0.144   0.117   0.140   0.172   0.345   0.482   0.958
   2.783   4.643   3.716   1.718   0.582   0.321   0.271   0.103   0.102   0.103
   0.271   0.321   0.582   1.718   3.716   4.643   2.783   0.958   0.482   0.345
   0.172   0.140   0.117   0.144   0.231   0.266   0.244   0.266   0.231   0.144
   0.117   0.140   0.172   0.345   0.482   0.958   2.783   4.643   3.716   1.718
   0.582   0.321   0.271   0.103   0.102   0.103   0.271   0.321   0.582   1.718
   3.716   4.643   2.783   0.958   0.482   0.345   0.172   0.140   0.117   0.144
   0.231   0.266
   0.170   0.248   0.274   0.266   0.239   0.262   0.409   0.802   1.359   2.422
   3.679   3.463   1.968   0.912   0.415   0.285   0.327   0.164   0.185   0.164
   0.327   0.285   0.415   0.912   1.968   3.463   3.679   2.422   1.359   0.802
   0.409   0.262   0.239   0.266   0.274   0.248   0.170   0.248   0.274   0.266
   0.239   0.262   0.409   0.802   1.359   2.422   3.679   3.463   1.968   0.912
   0.415   0.285   0.327   0.164   0.185   0.164   0.327   0.285   0.415   0.912
   1.968   3.463   3.679   2.422   1.359   0.802   0.409   0.262   0.239   0.266
   0.274   0.248
   0.015   0.161   0.316   0.327   0.391   0.604   0.835   1.689   3.109   3.960
   3.370   1.723   0.790   0.528   0.400   0.394   0.376   0.360   0.388   0.360
   0.376   0.394   0.400   0.528   0.790   1.723   3.370   3.960   3.109   1.689
   0.835   0.604   0.391   0.327   0.316   0.161   0.015   0.161   0.316   0.327
   0.391   0.604   0.835   1.689   3.109   3.960   3.370   1.723   0.790   0.528
   0.400   0.394   0.376   0.360   0.388   0.360   0.376   0.394   0.400   0.528
   0.790   1.723   3.370   3.960   3.109   1.689   0.835   0.604   0.391   0.327
   0.316   0.161
 111       5.00   72    0 5.00   15    0
   0.034   0.034   0.034   0.034   0.034   0.034   0.034   0.034   0.034   0.034
   0.034   0.034   0.034   0.034   0.034   0.034   0.034   0.034   0.034   0.034
   0.034   0.034   0.034   0.034   0.034   0.034   0.034   0.034   0.034   0.034
   0.034   0.034   0.034   0.034   0.034   0.034   0.034   0.034   0.034   0.034
   0.034   0.034   0.034   0.034   0.034   0.034   0.034   0.034   0.034   0.034
   0.034   0.034   0.034   0.034   0.034   0.034   0.034   0.034   0.034   0.034
   0.034   0.034   0.034   0.034   0.034   0.034   0.034   0.034   0.034   0.034
   0.034   0.034
   0.064   0.062   0.056   0.046   0.041   0.043   0.047   0.032   0.031   0.059
   0.067   0.046   0.036   0.030   0.033   0.048   0.042   0.031   0.031   0.031
   0.042   0.048   0.033   0.030   0.036   0.046   0.067   0.059   0.031   0.032
   0.047   0.043   0.041   0.046   0.056   0.062   0.064   0.062   0.056   0.046
   0.041   0.043   0.047   0.032   0.031   0.059   0.067   0.046   0.036   0.030
   0.033   0.048   0.042   0.031   0.031   0.031   0.042   0.048   0.033   0.030
   0.036   0.046   0.067   0.059   0.031   0.032   0.047   0.043   0.041   0.046
   0.056   0.062
   0.212   0.200   0.183   0.156   0.116   0.096   0.085   0.052   0.040   0.055
   0.079   0.057   0.036   0.028   0.026   0.041   0.043   0.034   0.029   0.034
   0.043   0.041   0.026   0.028   0.036   0.057   0.079   0.055   0.040   0.052
   0.085   0.096   0.116   0.156   0.183   0.200   0.212   0.200   0.183   0.156
   0.116   0.096   0.085   0.052   0.040   0.055   0.079   0.057   0.036   0.028
   0.026   0.041   0.043   0.034   0.029   0.034   0.043   0.041   0.026   0.028
   0.036   0.057   0.079   0.055   0.040   0.052   0.085   0.096   0.116   0.156
   0.183   0.200
   1.774   1.679   1.395   0.983   0.643   0.379   0.208   0.105   0.065   0.047
   0.043   0.032   0.027   0.018   0.015   0.010   0.027   0.035   0.044   0.035
   0.027   0.010   0.015   0.018   0.027   0.032   0.043   0.047   0.065   0.105
   0.208   0.379   0.643   0.983   1.395   1.679   1.774   1.679   1.395   0.983
   0.643   0.379   0.208   0.105   0.065   0.047   0.043   0.032   0.027   0.018
   0.015   0.010   0.027   0.035   0.044   0.035   0.027   0.010   0.015   0.018
   0.027   0.032   0.043   0.047   0.065   0.105   0.208   0.379   0.643   0.983
   1.395   1.679
   6.631   6.355   5.347   3.943   2.693   1.629   0.872   0.405   0.168   0.063
   0.018   0.001   0.005   0.001   0.002   0.000   0.012   0.016   0.025   0.016
   0.012   0.000   0.002   0.001   0.005   0.001   0.018   0.063   0.168   0.405
   0.872   1.629   2.693   3.943   5.347   6.355   6.631   6.355   5.347   3.943
   2.693   1.629   0.872   0.405   0.168   0.063   0.018   0.001   0.005   0.001
   0.002   0.000   0.012   0.016   0.025   0.016   0.012   0.000   0.002   0.001
   0.005   0.001   0.018   0.063   0.168   0.405   0.872   1.629   2.693   3.943
   5.347   6.355
   7.573   7.323   6.510   5.518   4.462   3.382   2.379   1.373   0.659   0.294
   0.118   0.075   0.055   0.038   0.013   0.004   0.019   0.022   0.039   0.022
   0.019   0.004   0.013   0.038   0.055   0.075   0.118   0.294   0.659   1.373
   2.379   3.382   4.462   5.518   6.510   7.323   7.573   7.323   6.510   5.518
   4.462   3.382   2.379   1.373   0.659   0.294   0.118   0.075   0.055   0.038
   0.013   0.004   0.019   0.022   0.039   0.022   0.019   0.004   0.013   0.038
   0.055   0.075   0.118   0.294   0.659   1.373   2.379   3.382   4.462   5.518
   6.510   7.323
   3.072   3.032   3.011   3.175   3.268   3.316   3.228   2.546   1.633   0.939
   0.412   0.229   0.139   0.075   0.040   0.049   0.049   0.036   0.052   0.036
   0.049   0.049   0.040   0.075   0.139   0.229   0.412   0.939   1.633   2.546
   3.228   3.316   3.268   3.175   3.011   3.032   3.072   3.032   3.011   3.175
   3.268   3.316   3.228   2.546   1.633   0.939   0.412   0.229   0.139   0.075
   0.040   0.049   0.049   0.036   0.052   0.036   0.049   0.049   0.040   0.075
   0.139   0.229   0.412   0.939   1.633   2.546   3.228   3.316   3.268   3.175
   3.011   3.032
   0.735   0.739   0.824   1.008   1.288   1.756   2.361   2.654   2.395   1.755
   1.008   0.532   0.251   0.133   0.095   0.099   0.083   0.066   0.047   0.066
   0.083   0.099   0.095   0.133   0.251   0.532   1.008   1.755   2.395   2.654
   2.361   1.756   1.288   1.008   0.824   0.739   0.735   0.739   0.824   1.008
   1.288   1.756   2.361   2.654   2.395   1.755   1.008   0.532   0.251   0.133
   0.095   0.099   0.083   0.066   0.047   0.066   0.083   0.099   0.095   0.133
   0.251   0.532   1.008   1.755   2.395   2.654   2.361   1.756   1.288   1.008
   0.824   0.739
   0.260   0.266   0.305   0.373   0.458   0.627   1.040   1.657   2.265   2.422
   2.046   1.273   0.559   0.247   0.184   0.163   0.115   0.094   0.067   0.094
   0.115   0.163   0.184   0.247   0.559   1.273   2.046   2.422   2.265   1.657
   1.040   0.627   0.458   0.373   0.305   0.266   0.260   0.266   0.305   0.373
   0.458   0.627   1.040   1.657   2.265   2.422   2.046   1.273   0.559   0.247
   0.184   0.163   0.115   0.094   0.067   0.094   0.115   0.163   0.184   0.247
   0.559   1.273   2.046   2.422   2.265   1.657   1.040   0.627   0.458   0.373
   0.305   0.266
   0.143   0.160   0.170   0.217   0.220   0.243   0.421   0.760   1.429   2.253
   2.717   2.399   1.540   0.752   0.431   0.292   0.174   0.147   0.137   0.147
   0.174   0.292   0.431   0.752   1.540   2.399   2.717   2.253   1.429   0.760
   0.421   0.243   0.220   0.217   0.170   0.160   0.143   0.160   0.170   0.217
   0.220   0.243   0.421   0.760   1.429   2.253   2.717   2.399   1.540   0.752
   0.431   0.292   0.174   0.147   0.137   0.147   0.174   0.292   0.431   0.752
   1.540   2.399   2.717   2.253   1.429   0.760   0.421   0.243   0.220   0.217
   0.170   0.160
   0.093   0.143   0.154   0.179   0.137   0.146   0.260   0.390   0.670   1.229
   1.965   2.548   2.500   1.710   0.973   0.519   0.313   0.248   0.290   0.248
   0.313   0.519   0.973   1.710   2.500   2.548   1.965   1.229   0.670   0.390
   0.260   0.146   0.137   0.179   0.154   0.143   0.093   0.143   0.154   0.179
   0.137   0.146   0.260   0.390   0.670   1.229   1.965   2.548   2.500   1.710
   0.973   0.519   0.313   0.248   0.290   0.248   0.313   0.519   0.973   1.710
   2.500   2.548   1.965   1.229   0.670   0.390   0.260   0.146   0.137   0.179
   0.154   0.143
   0.143   0.149   0.137   0.129   0.081   0.075   0.169   0.196   0.348   0.502
   0.818   1.389   2.031   2.141   1.795   1.291   0.768   0.444   0.378   0.444
   0.768   1.291   1.795   2.141   2.031   1.389   0.818   0.502   0.348   0.196
   0.169   0.075   0.081   0.129   0.137   0.149   0.143   0.149   0.137   0.129
   0.081   0.075   0.169   0.196   0.348   0.502   0.818   1.389   2.031   2.141
   1.795   1.291   0.768   0.444   0.378   0.444   0.768   1.291   1.795   2.141
   2.031   1.389   0.818   0.502   0.348   0.196   0.169   0.075   0.081   0.129
   0.137   0.149
   0.273   0.241   0.194   0.096   0.102   0.129   0.133   0.102   0.203   0.312
   0.334   0.431   0.760   1.360   2.043   2.343   1.852   0.981   0.569   0.981
   1.852   2.343   2.043   1.360   0.760   0.431   0.334   0.312   0.203   0.102
   0.133   0.129   0.102   0.096   0.194   0.241   0.273   0.241   0.194   0.096
   0.102   0.129   0.133   0.102   0.203   0.312   0.334   0.431   0.760   1.360
   2.043   2.343   1.852   0.981   0.569   0.981   1.852   2.343   2.043   1.360
   0.760   0.431   0.334   0.312   0.203   0.102   0.133   0.129   0.102   0.096
   0.194   0.241
   0.386   0.291   0.217   0.254   0.240   0.184   0.077   0.113   0.156   0.178
   0.285   0.317   0.251   0.540   1.343   2.235   2.653   2.114   1.601   2.114
   2.653   2.235   1.343   0.540   0.251   0.317   0.285   0.178   0.156   0.113
   0.077   0.184   0.240   0.254   0.217   0.291   0.386   0.291   0.217   0.254
   0.240   0.184   0.077   0.113   0.156   0.178   0.285   0.317   0.251   0.540
   1.343   2.235   2.653   2.114   1.601   2.114   2.653   2.235   1.343   0.540
   0.251   0.317   0.285   0.178   0.156   0.113   0.077   0.184   0.240   0.254
   0.217   0.291
   0.466   0.356   0.328   0.463   0.424   0.237   0.245   0.388   0.347   0.248
   0.347   0.429   0.403   0.469   0.710   1.465   2.688   3.398   3.470   3.398
   2.688   1.465   0.710   0.469   0.403   0.429   0.347   0.248   0.347   0.388
   0.245   0.237   0.424   0.463   0.328   0.356   0.466   0.356   0.328   0.463
   0.424   0.237   0.245   0.388   0.347   0.248   0.347   0.429   0.403   0.469
   0.710   1.465   2.688   3.398   3.470   3.398   2.688   1.465   0.710   0.469
   0.403   0.429   0.347   0.248   0.347   0.388   0.245   0.237   0.424   0.463
   0.328   0.356
  4  1     -7.4197655E-01
  4  2     -1.3257537E-01
  4  3     -2.5922106E+00
  6  1      1.9789619E+00
  6  2     -4.5520516E+00
  6  3      2.4344921E+00
  6  4      7.1747839E-01
  8  1     -6.0191489E-01
  8  2      3.3936712E-01
  8  3     -2.4762443E-01
  8  4      2.7795867E+00
  8  5      1.1978913E+00
 10  1     -1.2634729E+00
 10  2      1.3907820E+00
 10  3      1.0767611E+00
 10  4      4.1953867E-01
 10  5     -8.2029399E-02
 10  6     -1.6118121E+00
 12  1      6.4097349E-02  1.8976665E+00
 12  2      6.9909318E-02 -3.4044091E+00
 12  3     -1.2673594E-01  3.9947121E+00
 12  4     -5.8070150E-01 -2.6430414E+00
 12  5     -3.8452231E-01 -2.1227363E-01
 12  6     -2.8293925E+00  1.0501328E+00
 12  7      1.4007235E-01 -2.6903682E-01
 14  1     -5.4133896E-01
 14  2      7.4793394E-01
 14  3     -7.1330435E-01
 14  4      2.2190079E-01
 14  5     -2.1272276E+00
 14  6      1.0871638E+00
 14  7     -1.5530672E-01
 14  8      7.0459587E-01
 16  1     -1.6683639E-01 -1.0460732E+00
 16  2     -4.1163442E-03  1.2508239E+00
 16  3      5.3296908E-01 -6.0772815E-01
 16  4     -1.8190437E-01 -1.0042708E+00
 16  5     -1.3388137E-01  6.8898717E-01
 16  6      1.3444767E-01  2.0867464E-01
 16  7      1.6488934E+00  2.3019072E-01
 16  8      1.0701512E+00 -5.2149038E-01
 16  9     -2.0100974E-01  8.6994392E-02
 220       5.00   72    0 5.00   18    0
   2.527   2.528   2.532   2.539   2.549   2.561   2.575   2.590   2.606   2.624
   2.641   2.657   2.673   2.687   2.699   2.710   2.717   2.721   2.723   2.721
   2.717   2.710   2.699   2.687   2.673   2.657   2.641   2.624   2.606   2.590
   2.575   2.561   2.549   2.539   2.532   2.528   2.527   2.528   2.532   2.539
   2.549   2.561   2.575   2.590   2.606   2.624   2.641   2.657   2.673   2.687
   2.699   2.710   2.717   2.721   2.723   2.721   2.717   2.710   2.699   2.687
   2.673   2.657   2.641   2.624   2.606   2.590   2.575   2.561   2.549   2.539
   2.532   2.528
   1.503   1.512   1.540   1.585   1.649   1.729   1.825   1.936   2.058   2.190
   2.328   2.467   2.602   2.728   2.840   2.933   3.003   3.046   3.061   3.046
   3.003   2.933   2.840   2.728   2.602   2.467   2.328   2.190   2.058   1.936
   1.825   1.729   1.649   1.585   1.540   1.512   1.503   1.512   1.540   1.585
   1.649   1.729   1.825   1.936   2.058   2.190   2.328   2.467   2.602   2.728
   2.840   2.933   3.003   3.046   3.061   3.046   3.003   2.933   2.840   2.728
   2.602   2.467   2.328   2.190   2.058   1.936   1.825   1.729   1.649   1.585
   1.540   1.512
   0.233   0.243   0.274   0.328   0.409   0.521   0.668   0.854   1.080   1.344
   1.643   1.965   2.299   2.628   2.932   3.194   3.395   3.522   3.565   3.522
   3.395   3.194   2.932   2.628   2.299   1.965   1.643   1.344   1.080   0.854
   0.668   0.521   0.409   0.328   0.274   0.243   0.233   0.243   0.274   0.328
   0.409   0.521   0.668   0.854   1.080   1.344   1.643   1.965   2.299   2.628
   2.932   3.194   3.395   3.522   3.565   3.522   3.395   3.194   2.932   2.628
   2.299   1.965   1.643   1.344   1.080   0.854   0.668   0.521   0.409   0.328
   0.274   0.243
  -0.376  -0.379  -0.385  -0.389  -0.383  -0.354  -0.285  -0.158   0.044   0.333
   0.713   1.174   1.697   2.247   2.784   3.262   3.640   3.882   3.966   3.882
   3.640   3.262   2.784   2.247   1.697   1.174   0.713   0.333   0.044  -0.158
  -0.285  -0.354  -0.383  -0.389  -0.385  -0.379  -0.376  -0.379  -0.385  -0.389
  -0.383  -0.354  -0.285  -0.158   0.044   0.333   0.713   1.174   1.697   2.247
   2.784   3.262   3.640   3.882   3.966   3.882   3.640   3.262   2.784   2.247
   1.697   1.174   0.713   0.333   0.044  -0.158  -0.285  -0.354  -0.383  -0.389
  -0.385  -0.379
  -0.088  -0.101  -0.140  -0.206  -0.299  -0.407  -0.507  -0.565  -0.537  -0.382
  -0.073   0.395   0.997   1.685   2.391   3.041   3.563   3.900   4.017   3.900
   3.563   3.041   2.391   1.685   0.997   0.395  -0.073  -0.382  -0.537  -0.565
  -0.507  -0.407  -0.299  -0.206  -0.140  -0.101  -0.088  -0.101  -0.140  -0.206
  -0.299  -0.407  -0.507  -0.565  -0.537  -0.382  -0.073   0.395   0.997   1.685
   2.391   3.041   3.563   3.900   4.017   3.900   3.563   3.041   2.391   1.685
   0.997   0.395  -0.073  -0.382  -0.537  -0.565  -0.507  -0.407  -0.299  -0.206
  -0.140  -0.101
   0.430   0.433   0.433   0.407   0.328   0.180  -0.032  -0.265  -0.450  -0.505
  -0.367  -0.009   0.546   1.230   1.953   2.621   3.154   3.496   3.613   3.496
   3.154   2.621   1.953   1.230   0.546  -0.009  -0.367  -0.505  -0.450  -0.265
  -0.032   0.180   0.328   0.407   0.433   0.433   0.430   0.433   0.433   0.407
   0.328   0.180  -0.032  -0.265  -0.450  -0.505  -0.367  -0.009   0.546   1.230
   1.953   2.621   3.154   3.496   3.613   3.496   3.154   2.621   1.953   1.230
   0.546  -0.009  -0.367  -0.505  -0.450  -0.265  -0.032   0.180   0.328   0.407
   0.433   0.433
   0.322   0.360   0.462   0.591   0.687   0.684   0.542   0.283  -0.005  -0.198
  -0.189   0.066   0.531   1.111   1.694   2.189   2.548   2.759   2.828   2.759
   2.548   2.189   1.694   1.111   0.531   0.066  -0.189  -0.198  -0.005   0.283
   0.542   0.684   0.687   0.591   0.462   0.360   0.322   0.360   0.462   0.591
   0.687   0.684   0.542   0.283  -0.005  -0.198  -0.189   0.066   0.531   1.111
   1.694   2.189   2.548   2.759   2.828   2.759   2.548   2.189   1.694   1.111
   0.531   0.066  -0.189  -0.198  -0.005   0.283   0.542   0.684   0.687   0.591
   0.462   0.360
  -0.374  -0.332  -0.198   0.037   0.327   0.568   0.646   0.526   0.290   0.105
   0.120   0.386   0.828   1.301   1.666   1.863   1.912   1.891   1.873   1.891
   1.912   1.863   1.666   1.301   0.828   0.386   0.120   0.105   0.290   0.526
   0.646   0.568   0.327   0.037  -0.198  -0.332  -0.374  -0.332  -0.198   0.037
   0.327   0.568   0.646   0.526   0.290   0.105   0.120   0.386   0.828   1.301
   1.666   1.863   1.912   1.891   1.873   1.891   1.912   1.863   1.666   1.301
   0.828   0.386   0.120   0.105   0.290   0.526   0.646   0.568   0.327   0.037
  -0.198  -0.332
  -0.461  -0.521  -0.615  -0.577  -0.323   0.044   0.320   0.367   0.238   0.132
   0.244   0.618   1.122   1.543   1.719   1.624   1.361   1.103   0.998   1.103
   1.361   1.624   1.719   1.543   1.122   0.618   0.244   0.132   0.238   0.367
   0.320   0.044  -0.323  -0.577  -0.615  -0.521  -0.461  -0.521  -0.615  -0.577
  -0.323   0.044   0.320   0.367   0.238   0.132   0.244   0.618   1.122   1.543
   1.719   1.624   1.361   1.103   0.998   1.103   1.361   1.624   1.719   1.543
   1.122   0.618   0.244   0.132   0.238   0.367   0.320   0.044  -0.323  -0.577
  -0.615  -0.521
   1.272   0.982   0.322  -0.252  -0.414  -0.203   0.077   0.161   0.046  -0.043
   0.124   0.585   1.159   1.580   1.664   1.404   0.952   0.544   0.381   0.544
   0.952   1.404   1.664   1.580   1.159   0.585   0.124  -0.043   0.046   0.161
   0.077  -0.203  -0.414  -0.252   0.322   0.982   1.272   0.982   0.322  -0.252
  -0.414  -0.203   0.077   0.161   0.046  -0.043   0.124   0.585   1.159   1.580
   1.664   1.404   0.952   0.544   0.381   0.544   0.952   1.404   1.664   1.580
   1.159   0.585   0.124  -0.043   0.046   0.161   0.077  -0.203  -0.414  -0.252
   0.322   0.982
   4.508   3.935   2.568   1.180   0.372   0.197   0.276   0.233   0.009  -0.173
  -0.073   0.347   0.908   1.347   1.463   1.210   0.718   0.248   0.056   0.248
   0.718   1.210   1.463   1.347   0.908   0.347  -0.073  -0.173   0.009   0.233
   0.276   0.197   0.372   1.180   2.568   3.935   4.508   3.935   2.568   1.180
   0.372   0.197   0.276   0.233   0.009  -0.173  -0.073   0.347   0.908   1.347
   1.463   1.210   0.718   0.248   0.056   0.248   0.718   1.210   1.463   1.347
   0.908   0.347  -0.073  -0.173   0.009   0.233   0.276   0.197   0.372   1.180
   2.568   3.935
   7.185   6.439   4.634   2.720   1.452   0.936   0.781   0.579   0.242  -0.056
  -0.115   0.118   0.552   1.006   1.257   1.138   0.675   0.145  -0.088   0.145
   0.675   1.138   1.257   1.006   0.552   0.118  -0.115  -0.056   0.242   0.579
   0.781   0.936   1.452   2.720   4.634   6.439   7.185   6.439   4.634   2.720
   1.452   0.936   0.781   0.579   0.242  -0.056  -0.115   0.118   0.552   1.006
   1.257   1.138   0.675   0.145  -0.088   0.145   0.675   1.138   1.257   1.006
   0.552   0.118  -0.115  -0.056   0.242   0.579   0.781   0.936   1.452   2.720
   4.634   6.439
   7.168   6.493   4.862   3.130   1.957   1.430   1.218   1.001   0.695   0.384
   0.165   0.123   0.335   0.777   1.202   1.250   0.790   0.137  -0.170   0.137
   0.790   1.250   1.202   0.777   0.335   0.123   0.165   0.384   0.695   1.001
   1.218   1.430   1.957   3.130   4.862   6.493   7.168   6.493   4.862   3.130
   1.957   1.430   1.218   1.001   0.695   0.384   0.165   0.123   0.335   0.777
   1.202   1.250   0.790   0.137  -0.170   0.137   0.790   1.250   1.202   0.777
   0.335   0.123   0.165   0.384   0.695   1.001   1.218   1.430   1.957   3.130
   4.862   6.493
   4.314   3.934   3.039   2.140   1.595   1.404   1.360   1.312   1.215   1.038
   0.747   0.446   0.396   0.757   1.287   1.460   0.992   0.222  -0.153   0.222
   0.992   1.460   1.287   0.757   0.396   0.446   0.747   1.038   1.215   1.312
   1.360   1.404   1.595   2.140   3.039   3.934   4.314   3.934   3.039   2.140
   1.595   1.404   1.360   1.312   1.215   1.038   0.747   0.446   0.396   0.757
   1.287   1.460   0.992   0.222  -0.153   0.222   0.992   1.460   1.287   0.757
   0.396   0.446   0.747   1.038   1.215   1.312   1.360   1.404   1.595   2.140
   3.039   3.934
   0.755   0.712   0.645   0.671   0.817   1.008   1.183   1.357   1.533   1.589
   1.372   0.951   0.677   0.852   1.330   1.571   1.209   0.515   0.165   0.515
   1.209   1.571   1.330   0.852   0.677   0.951   1.372   1.589   1.533   1.357
   1.183   1.008   0.817   0.671   0.645   0.712   0.755   0.712   0.645   0.671
   0.817   1.008   1.183   1.357   1.533   1.589   1.372   0.951   0.677   0.852
   1.330   1.571   1.209   0.515   0.165   0.515   1.209   1.571   1.330   0.852
   0.677   0.951   1.372   1.589   1.533   1.357   1.183   1.008   0.817   0.671
   0.645   0.712
  -1.030  -0.899  -0.557  -0.128   0.254   0.528   0.744   1.019   1.385   1.692
   1.705   1.381   0.992   0.901   1.163   1.443   1.401   1.100   0.926   1.100
   1.401   1.443   1.163   0.901   0.992   1.381   1.705   1.692   1.385   1.019
   0.744   0.528   0.254  -0.128  -0.557  -0.899  -1.030  -0.899  -0.557  -0.128
   0.254   0.528   0.744   1.019   1.385   1.692   1.705   1.381   0.992   0.901
   1.163   1.443   1.401   1.100   0.926   1.100   1.401   1.443   1.163   0.901
   0.992   1.381   1.705   1.692   1.385   1.019   0.744   0.528   0.254  -0.128
  -0.557  -0.899
  -0.489  -0.389  -0.162   0.044   0.135   0.141   0.184   0.395   0.820   1.329
   1.653   1.583   1.198   0.842   0.821   1.139   1.552   1.837   1.930   1.837
   1.552   1.139   0.821   0.842   1.198   1.583   1.653   1.329   0.820   0.395
   0.184   0.141   0.135   0.044  -0.162  -0.389  -0.489  -0.389  -0.162   0.044
   0.135   0.141   0.184   0.395   0.820   1.329   1.653   1.583   1.198   0.842
   0.821   1.139   1.552   1.837   1.930   1.837   1.552   1.139   0.821   0.842
   1.198   1.583   1.653   1.329   0.820   0.395   0.184   0.141   0.135   0.044
  -0.162  -0.389
   0.724   0.729   0.689   0.519   0.226  -0.072  -0.224  -0.117   0.297   0.919
   1.469   1.617   1.277   0.756   0.538   0.886   1.640   2.365   2.659   2.365
   1.640   0.886   0.538   0.756   1.277   1.617   1.469   0.919   0.297  -0.117
  -0.224  -0.072   0.226   0.519   0.689   0.729   0.724   0.729   0.689   0.519
   0.226  -0.072  -0.224  -0.117   0.297   0.919   1.469   1.617   1.277   0.756
   0.538   0.886   1.640   2.365   2.659   2.365   1.640   0.886   0.538   0.756
   1.277   1.617   1.469   0.919   0.297  -0.117  -0.224  -0.072   0.226   0.519
   0.689   0.729
 200       5.00   72    0 5.00   18    0
   0.106   0.107   0.108   0.109   0.111   0.113   0.116   0.120   0.123   0.127
   0.130   0.134   0.137   0.141   0.143   0.146   0.147   0.148   0.149   0.148
   0.147   0.146   0.143   0.141   0.137   0.134   0.130   0.127   0.123   0.120
   0.116   0.113   0.111   0.109   0.108   0.107   0.106   0.107   0.108   0.109
   0.111   0.113   0.116   0.120   0.123   0.127   0.130   0.134   0.137   0.141
   0.143   0.146   0.147   0.148   0.149   0.148   0.147   0.146   0.143   0.141
   0.137   0.134   0.130   0.127   0.123   0.120   0.116   0.113   0.111   0.109
   0.108   0.107
  -0.011  -0.010  -0.008  -0.004   0.002   0.011   0.024   0.040   0.061   0.086
   0.115   0.147   0.180   0.213   0.244   0.271   0.292   0.305   0.310   0.305
   0.292   0.271   0.244   0.213   0.180   0.147   0.115   0.086   0.061   0.040
   0.024   0.011   0.002  -0.004  -0.008  -0.010  -0.011  -0.010  -0.008  -0.004
   0.002   0.011   0.024   0.040   0.061   0.086   0.115   0.147   0.180   0.213
   0.244   0.271   0.292   0.305   0.310   0.305   0.292   0.271   0.244   0.213
   0.180   0.147   0.115   0.086   0.061   0.040   0.024   0.011   0.002  -0.004
  -0.008  -0.010
  -0.025  -0.029  -0.038  -0.054  -0.073  -0.092  -0.108  -0.116  -0.111  -0.089
  -0.046   0.018   0.100   0.196   0.296   0.390   0.467   0.518   0.536   0.518
   0.467   0.390   0.296   0.196   0.100   0.018  -0.046  -0.089  -0.111  -0.116
  -0.108  -0.092  -0.073  -0.054  -0.038  -0.029  -0.025  -0.029  -0.038  -0.054
  -0.073  -0.092  -0.108  -0.116  -0.111  -0.089  -0.046   0.018   0.100   0.196
   0.296   0.390   0.467   0.518   0.536   0.518   0.467   0.390   0.296   0.196
   0.100   0.018  -0.046  -0.089  -0.111  -0.116  -0.108  -0.092  -0.073  -0.054
  -0.038  -0.029
   0.415   0.407   0.383   0.342   0.280   0.199   0.101  -0.005  -0.106  -0.186
  -0.225  -0.211  -0.135  -0.002   0.171   0.357   0.522   0.636   0.677   0.636
   0.522   0.357   0.171  -0.002  -0.135  -0.211  -0.225  -0.186  -0.106  -0.005
   0.101   0.199   0.280   0.342   0.383   0.407   0.415   0.407   0.383   0.342
   0.280   0.199   0.101  -0.005  -0.106  -0.186  -0.225  -0.211  -0.135  -0.002
   0.171   0.357   0.522   0.636   0.677   0.636   0.522   0.357   0.171  -0.002
  -0.135  -0.211  -0.225  -0.186  -0.106  -0.005   0.101   0.199   0.280   0.342
   0.383   0.407
   1.406   1.404   1.397   1.374   1.322   1.224   1.067   0.847   0.576   0.284
   0.014  -0.185  -0.274  -0.234  -0.078   0.152   0.390   0.568   0.633   0.568
   0.390   0.152  -0.078  -0.234  -0.274  -0.185   0.014   0.284   0.576   0.847
   1.067   1.224   1.322   1.374   1.397   1.404   1.406   1.404   1.397   1.374
   1.322   1.224   1.067   0.847   0.576   0.284   0.014  -0.185  -0.274  -0.234
  -0.078   0.152   0.390   0.568   0.633   0.568   0.390   0.152  -0.078  -0.234
  -0.274  -0.185   0.014   0.284   0.576   0.847   1.067   1.224   1.322   1.374
   1.397   1.404
   2.421   2.430   2.459   2.503   2.545   2.548   2.466   2.259   1.909   1.437
   0.900   0.385  -0.017  -0.236  -0.246  -0.086   0.156   0.366   0.448   0.366
   0.156  -0.086  -0.246  -0.236  -0.017   0.385   0.900   1.437   1.909   2.259
   2.466   2.548   2.545   2.503   2.459   2.430   2.421   2.430   2.459   2.503
   2.545   2.548   2.466   2.259   1.909   1.437   0.900   0.385  -0.017  -0.236
  -0.246  -0.086   0.156   0.366   0.448   0.366   0.156  -0.086  -0.246  -0.236
  -0.017   0.385   0.900   1.437   1.909   2.259   2.466   2.548   2.545   2.503
   2.459   2.430
   2.630   2.632   2.657   2.738   2.892   3.082   3.228   3.241   3.053   2.644
   2.046   1.344   0.657   0.121  -0.163  -0.176  -0.001   0.205   0.294   0.205
  -0.001  -0.176  -0.163   0.121   0.657   1.344   2.046   2.644   3.053   3.241
   3.228   3.082   2.892   2.738   2.657   2.632   2.630   2.632   2.657   2.738
   2.892   3.082   3.228   3.241   3.053   2.644   2.046   1.344   0.657   0.121
  -0.163  -0.176  -0.001   0.205   0.294   0.205  -0.001  -0.176  -0.163   0.121
   0.657   1.344   2.046   2.644   3.053   3.241   3.228   3.082   2.892   2.738
   2.657   2.632
   1.800   1.763   1.706   1.741   1.942   2.287   2.671   2.980   3.134   3.083
   2.789   2.242   1.504   0.742   0.172  -0.060   0.021   0.223   0.324   0.223
   0.021  -0.060   0.172   0.742   1.504   2.242   2.789   3.083   3.134   2.980
   2.671   2.287   1.942   1.741   1.706   1.763   1.800   1.763   1.706   1.741
   1.942   2.287   2.671   2.980   3.134   3.083   2.789   2.242   1.504   0.742
   0.172  -0.060   0.021   0.223   0.324   0.223   0.021  -0.060   0.172   0.742
   1.504   2.242   2.789   3.083   3.134   2.980   2.671   2.287   1.942   1.741
   1.706   1.763
   0.658   0.572   0.410   0.365   0.553   0.923   1.346   1.750   2.158   2.577
   2.878   2.834   2.316   1.455   0.615   0.151   0.150   0.384   0.515   0.384
   0.150   0.151   0.615   1.455   2.316   2.834   2.878   2.577   2.158   1.750
   1.346   0.923   0.553   0.365   0.410   0.572   0.658   0.572   0.410   0.365
   0.553   0.923   1.346   1.750   2.158   2.577   2.878   2.834   2.316   1.455
   0.615   0.151   0.150   0.384   0.515   0.384   0.150   0.151   0.615   1.455
   2.316   2.834   2.878   2.577   2.158   1.750   1.346   0.923   0.553   0.365
   0.410   0.572
   0.118   0.005  -0.204  -0.263  -0.086   0.178   0.357   0.508   0.898   1.689
   2.656   3.260   3.069   2.138   1.007   0.291   0.219   0.513   0.688   0.513
   0.219   0.291   1.007   2.138   3.069   3.260   2.656   1.689   0.898   0.508
   0.357   0.178  -0.086  -0.263  -0.204   0.005   0.118   0.005  -0.204  -0.263
  -0.086   0.178   0.357   0.508   0.898   1.689   2.656   3.260   3.069   2.138
   1.007   0.291   0.219   0.513   0.688   0.513   0.219   0.291   1.007   2.138
   3.069   3.260   2.656   1.689   0.898   0.508   0.357   0.178  -0.086  -0.263
  -0.204   0.005
   0.265   0.157  -0.019  -0.012   0.180   0.278   0.080  -0.177   0.058   1.101
   2.603   3.707   3.716   2.656   1.242   0.303   0.156   0.475   0.674   0.475
   0.156   0.303   1.242   2.656   3.716   3.707   2.603   1.101   0.058  -0.177
   0.080   0.278   0.180  -0.012  -0.019   0.157   0.265   0.157  -0.019  -0.012
   0.180   0.278   0.080  -0.177   0.058   1.101   2.603   3.707   3.716   2.656
   1.242   0.303   0.156   0.475   0.674   0.475   0.156   0.303   1.242   2.656
   3.716   3.707   2.603   1.101   0.058  -0.177   0.080   0.278   0.180  -0.012
  -0.019   0.157
   0.423   0.342   0.240   0.324   0.517   0.480   0.057  -0.366  -0.105   1.146
   2.872   4.054   3.973   2.767   1.256   0.267   0.064   0.308   0.471   0.308
   0.064   0.267   1.256   2.767   3.973   4.054   2.872   1.146  -0.105  -0.366
   0.057   0.480   0.517   0.324   0.240   0.342   0.423   0.342   0.240   0.324
   0.517   0.480   0.057  -0.366  -0.105   1.146   2.872   4.054   3.973   2.767
   1.256   0.267   0.064   0.308   0.471   0.308   0.064   0.267   1.256   2.767
   3.973   4.054   2.872   1.146  -0.105  -0.366   0.057   0.480   0.517   0.324
   0.240   0.342
   0.138   0.103   0.088   0.212   0.372   0.314   0.016  -0.108   0.476   1.819
   3.273   3.958   3.489   2.256   1.017   0.290   0.099   0.166   0.222   0.166
   0.099   0.290   1.017   2.256   3.489   3.958   3.273   1.819   0.476  -0.108
   0.016   0.314   0.372   0.212   0.088   0.103   0.138   0.103   0.088   0.212
   0.372   0.314   0.016  -0.108   0.476   1.819   3.273   3.958   3.489   2.256
   1.017   0.290   0.099   0.166   0.222   0.166   0.099   0.290   1.017   2.256
   3.489   3.958   3.273   1.819   0.476  -0.108   0.016   0.314   0.372   0.212
   0.088   0.103
  -0.285  -0.262  -0.180  -0.038   0.095   0.173   0.317   0.795   1.734   2.836
   3.484   3.246   2.291   1.241   0.597   0.372   0.274   0.143   0.070   0.143
   0.274   0.372   0.597   1.241   2.291   3.246   3.484   2.836   1.734   0.795
   0.317   0.173   0.095  -0.038  -0.180  -0.262  -0.285  -0.262  -0.180  -0.038
   0.095   0.173   0.317   0.795   1.734   2.836   3.484   3.246   2.291   1.241
   0.597   0.372   0.274   0.143   0.070   0.143   0.274   0.372   0.597   1.241
   2.291   3.246   3.484   2.836   1.734   0.795   0.317   0.173   0.095  -0.038
  -0.180  -0.262
  -0.322  -0.255  -0.113   0.019   0.170   0.511   1.202   2.192   3.146   3.585
   3.195   2.120   0.937   0.250   0.202   0.408   0.419   0.192   0.049   0.192
   0.419   0.408   0.202   0.250   0.937   2.120   3.195   3.585   3.146   2.192
   1.202   0.511   0.170   0.019  -0.113  -0.255  -0.322  -0.255  -0.113   0.019
   0.170   0.511   1.202   2.192   3.146   3.585   3.195   2.120   0.937   0.250
   0.202   0.408   0.419   0.192   0.049   0.192   0.419   0.408   0.202   0.250
   0.937   2.120   3.195   3.585   3.146   2.192   1.202   0.511   0.170   0.019
  -0.113  -0.255
   0.065   0.119   0.200   0.240   0.423   1.064   2.188   3.333   3.853   3.426
   2.275   0.982   0.096  -0.158   0.046   0.313   0.353   0.197   0.098   0.197
   0.353   0.313   0.046  -0.158   0.096   0.982   2.275   3.426   3.853   3.333
   2.188   1.064   0.423   0.240   0.200   0.119   0.065   0.119   0.200   0.240
   0.423   1.064   2.188   3.333   3.853   3.426   2.275   0.982   0.096  -0.158
   0.046   0.313   0.353   0.197   0.098   0.197   0.353   0.313   0.046  -0.158
   0.096   0.982   2.275   3.426   3.853   3.333   2.188   1.064   0.423   0.240
   0.200   0.119
   0.500   0.482   0.376   0.232   0.415   1.293   2.651   3.647   3.533   2.382
   0.999   0.147  -0.037   0.082   0.153   0.119   0.092   0.121   0.146   0.121
   0.092   0.119   0.153   0.082  -0.037   0.147   0.999   2.382   3.533   3.647
   2.651   1.293   0.415   0.232   0.376   0.482   0.500   0.482   0.376   0.232
   0.415   1.293   2.651   3.647   3.533   2.382   0.999   0.147  -0.037   0.082
   0.153   0.119   0.092   0.121   0.146   0.121   0.092   0.119   0.153   0.082
  -0.037   0.147   0.999   2.382   3.533   3.647   2.651   1.293   0.415   0.232
   0.376   0.482
   0.721   0.632   0.353   0.048   0.209   1.209   2.647   3.456   2.895   1.369
   0.053  -0.270   0.138   0.472   0.319  -0.039  -0.146   0.036   0.168   0.036
  -0.146  -0.039   0.319   0.472   0.138  -0.270   0.053   1.369   2.895   3.456
   2.647   1.209   0.209   0.048   0.353   0.632   0.721   0.632   0.353   0.048
   0.209   1.209   2.647   3.456   2.895   1.369   0.053  -0.270   0.138   0.472
   0.319  -0.039  -0.146   0.036   0.168   0.036  -0.146  -0.039   0.319   0.472
   0.138  -0.270   0.053   1.369   2.895   3.456   2.647   1.209   0.209   0.048
   0.353   0.632
 111       5.00   72    0 5.00   18    0
   0.652   0.654   0.657   0.663   0.672   0.682   0.694   0.707   0.722   0.737
   0.752   0.767   0.781   0.793   0.804   0.813   0.820   0.824   0.826   0.824
   0.820   0.813   0.804   0.793   0.781   0.767   0.752   0.737   0.722   0.707
   0.694   0.682   0.672   0.663   0.657   0.654   0.652   0.654   0.657   0.663
   0.672   0.682   0.694   0.707   0.722   0.737   0.752   0.767   0.781   0.793
   0.804   0.813   0.820   0.824   0.826   0.824   0.820   0.813   0.804   0.793
   0.781   0.767   0.752   0.737   0.722   0.707   0.694   0.682   0.672   0.663
   0.657   0.654
  -0.175  -0.172  -0.164  -0.149  -0.126  -0.093  -0.048   0.008   0.077   0.158
   0.248   0.343   0.441   0.536   0.622   0.696   0.752   0.787   0.799   0.787
   0.752   0.696   0.622   0.536   0.441   0.343   0.248   0.158   0.077   0.008
  -0.048  -0.093  -0.126  -0.149  -0.164  -0.172  -0.175  -0.172  -0.164  -0.149
  -0.126  -0.093  -0.048   0.008   0.077   0.158   0.248   0.343   0.441   0.536
   0.622   0.696   0.752   0.787   0.799   0.787   0.752   0.696   0.622   0.536
   0.441   0.343   0.248   0.158   0.077   0.008  -0.048  -0.093  -0.126  -0.149
  -0.164  -0.172
   0.275   0.251   0.181   0.076  -0.050  -0.177  -0.288  -0.364  -0.395  -0.373
  -0.298  -0.176  -0.020   0.156   0.332   0.492   0.620   0.701   0.729   0.701
   0.620   0.492   0.332   0.156  -0.020  -0.176  -0.298  -0.373  -0.395  -0.364
  -0.288  -0.177  -0.050   0.076   0.181   0.251   0.275   0.251   0.181   0.076
  -0.050  -0.177  -0.288  -0.364  -0.395  -0.373  -0.298  -0.176  -0.020   0.156
   0.332   0.492   0.620   0.701   0.729   0.701   0.620   0.492   0.332   0.156
  -0.020  -0.176  -0.298  -0.373  -0.395  -0.364  -0.288  -0.177  -0.050   0.076
   0.181   0.251
   2.916   2.830   2.580   2.195   1.718   1.201   0.695   0.250  -0.098  -0.326
  -0.429  -0.416  -0.309  -0.137   0.064   0.261   0.426   0.534   0.572   0.534
   0.426   0.261   0.064  -0.137  -0.309  -0.416  -0.429  -0.326  -0.098   0.250
   0.695   1.201   1.718   2.195   2.580   2.830   2.916   2.830   2.580   2.195
   1.718   1.201   0.695   0.250  -0.098  -0.326  -0.429  -0.416  -0.309  -0.137
   0.064   0.261   0.426   0.534   0.572   0.534   0.426   0.261   0.064  -0.137
  -0.309  -0.416  -0.429  -0.326  -0.098   0.250   0.695   1.201   1.718   2.195
   2.580   2.830
   5.696   5.561   5.171   4.565   3.806   2.966   2.126   1.356   0.710   0.222
  -0.097  -0.258  -0.286  -0.216  -0.086   0.063   0.198   0.291   0.324   0.291
   0.198   0.063  -0.086  -0.216  -0.286  -0.258  -0.097   0.222   0.710   1.356
   2.126   2.966   3.806   4.565   5.171   5.561   5.696   5.561   5.171   4.565
   3.806   2.966   2.126   1.356   0.710   0.222  -0.097  -0.258  -0.286  -0.216
  -0.086   0.063   0.198   0.291   0.324   0.291   0.198   0.063  -0.086  -0.216
  -0.286  -0.258  -0.097   0.222   0.710   1.356   2.126   2.966   3.806   4.565
   5.171   5.561
   5.935   5.826   5.505   4.999   4.347   3.606   2.836   2.096   1.434   0.878
   0.442   0.130  -0.063  -0.148  -0.142  -0.075   0.015   0.089   0.118   0.089
   0.015  -0.075  -0.142  -0.148  -0.063   0.130   0.442   0.878   1.434   2.096
   2.836   3.606   4.347   4.999   5.505   5.826   5.935   5.826   5.505   4.999
   4.347   3.606   2.836   2.096   1.434   0.878   0.442   0.130  -0.063  -0.148
  -0.142  -0.075   0.015   0.089   0.118   0.089   0.015  -0.075  -0.142  -0.148
  -0.063   0.130   0.442   0.878   1.434   2.096   2.836   3.606   4.347   4.999
   5.505   5.826
   3.528   3.512   3.458   3.351   3.177   2.934   2.631   2.279   1.887   1.460
   1.010   0.568   0.186  -0.078  -0.190  -0.160  -0.044   0.074   0.123   0.074
  -0.044  -0.160  -0.190  -0.078   0.186   0.568   1.010   1.460   1.887   2.279
   2.631   2.934   3.177   3.351   3.458   3.512   3.528   3.512   3.458   3.351
   3.177   2.934   2.631   2.279   1.887   1.460   1.010   0.568   0.186  -0.078
  -0.190  -0.160  -0.044   0.074   0.123   0.074  -0.044  -0.160  -0.190  -0.078
   0.186   0.568   1.010   1.460   1.887   2.279   2.631   2.934   3.177   3.351
   3.458   3.512
   0.791   0.859   1.046   1.307   1.591   1.855   2.069   2.199   2.199   2.016
   1.629   1.083   0.500   0.032  -0.203  -0.183   0.005   0.209   0.296   0.209
   0.005  -0.183  -0.203   0.032   0.500   1.083   1.629   2.016   2.199   2.199
   2.069   1.855   1.591   1.307   1.046   0.859   0.791   0.859   1.046   1.307
   1.591   1.855   2.069   2.199   2.199   2.016   1.629   1.083   0.500   0.032
  -0.203  -0.183   0.005   0.209   0.296   0.209   0.005  -0.183  -0.203   0.032
   0.500   1.083   1.629   2.016   2.199   2.199   2.069   1.855   1.591   1.307
   1.046   0.859
  -0.394  -0.323  -0.121   0.179   0.548   0.967   1.425   1.887   2.263   2.419
   2.247   1.745   1.058   0.416   0.020  -0.063   0.080   0.276   0.363   0.276
   0.080  -0.063   0.020   0.416   1.058   1.745   2.247   2.419   2.263   1.887
   1.425   0.967   0.548   0.179  -0.121  -0.323  -0.394  -0.323  -0.121   0.179
   0.548   0.967   1.425   1.887   2.263   2.419   2.247   1.745   1.058   0.416
   0.020  -0.063   0.080   0.276   0.363   0.276   0.080  -0.063   0.020   0.416
   1.058   1.745   2.247   2.419   2.263   1.887   1.425   0.967   0.548   0.179
  -0.121  -0.323
  -0.203  -0.196  -0.167  -0.100   0.028   0.252   0.621   1.153   1.776   2.306
   2.527   2.330   1.797   1.153   0.623   0.311   0.190   0.168   0.170   0.168
   0.190   0.311   0.623   1.153   1.797   2.330   2.527   2.306   1.776   1.153
   0.621   0.252   0.028  -0.100  -0.167  -0.196  -0.203  -0.196  -0.167  -0.100
   0.028   0.252   0.621   1.153   1.776   2.306   2.527   2.330   1.797   1.153
   0.623   0.311   0.190   0.168   0.170   0.168   0.190   0.311   0.623   1.153
   1.797   2.330   2.527   2.306   1.776   1.153   0.621   0.252   0.028  -0.100
  -0.167  -0.196
   0.227   0.177   0.058  -0.069  -0.160  -0.185  -0.081   0.246   0.827   1.534
   2.118   2.369   2.254   1.895   1.436   0.953   0.489   0.128  -0.012   0.128
   0.489   0.953   1.436   1.895   2.254   2.369   2.118   1.534   0.827   0.246
  -0.081  -0.185  -0.160  -0.069   0.058   0.177   0.227   0.177   0.058  -0.069
  -0.160  -0.185  -0.081   0.246   0.827   1.534   2.118   2.369   2.254   1.895
   1.436   0.953   0.489   0.128  -0.012   0.128   0.489   0.953   1.436   1.895
   2.254   2.369   2.118   1.534   0.827   0.246  -0.081  -0.185  -0.160  -0.069
   0.058   0.177
   0.340   0.278   0.151   0.057   0.010  -0.059  -0.170  -0.198   0.023   0.526
   1.149   1.675   1.996   2.110   2.013   1.662   1.095   0.538   0.302   0.538
   1.095   1.662   2.013   2.110   1.996   1.675   1.149   0.526   0.023  -0.198
  -0.170  -0.059   0.010   0.057   0.151   0.278   0.340   0.278   0.151   0.057
   0.010  -0.059  -0.170  -0.198   0.023   0.526   1.149   1.675   1.996   2.110
   2.013   1.662   1.095   0.538   0.302   0.538   1.095   1.662   2.013   2.110
   1.996   1.675   1.149   0.526   0.023  -0.198  -0.170  -0.059   0.010   0.057
   0.151   0.278
   0.232   0.170   0.078   0.107   0.260   0.362   0.258   0.010  -0.153  -0.061
   0.261   0.689   1.152   1.623   2.002   2.105   1.856   1.457   1.265   1.457
   1.856   2.105   2.002   1.623   1.152   0.689   0.261  -0.061  -0.153   0.010
   0.258   0.362   0.260   0.107   0.078   0.170   0.232   0.170   0.078   0.107
   0.260   0.362   0.258   0.010  -0.153  -0.061   0.261   0.689   1.152   1.623
   2.002   2.105   1.856   1.457   1.265   1.457   1.856   2.105   2.002   1.623
   1.152   0.689   0.261  -0.061  -0.153   0.010   0.258   0.362   0.260   0.107
   0.078   0.170
   0.063  -0.014  -0.137  -0.115   0.104   0.363   0.453   0.332   0.135   0.013
   0.006   0.097   0.336   0.802   1.449   2.053   2.396   2.474   2.464   2.474
   2.396   2.053   1.449   0.802   0.336   0.097   0.006   0.013   0.135   0.332
   0.453   0.363   0.104  -0.115  -0.137  -0.014   0.063  -0.014  -0.137  -0.115
   0.104   0.363   0.453   0.332   0.135   0.013   0.006   0.097   0.336   0.802
   1.449   2.053   2.396   2.474   2.464   2.474   2.396   2.053   1.449   0.802
   0.336   0.097   0.006   0.013   0.135   0.332   0.453   0.363   0.104  -0.115
  -0.137  -0.014
   0.106   0.056  -0.059  -0.154  -0.150  -0.031   0.141   0.288   0.368   0.367
   0.274   0.112   0.010   0.172   0.724   1.574   2.450   3.079   3.303   3.079
   2.450   1.574   0.724   0.172   0.010   0.112   0.274   0.367   0.368   0.288
   0.141  -0.031  -0.150  -0.154  -0.059   0.056   0.106   0.056  -0.059  -0.154
  -0.150  -0.031   0.141   0.288   0.368   0.367   0.274   0.112   0.010   0.172
   0.724   1.574   2.450   3.079   3.303   3.079   2.450   1.574   0.724   0.172
   0.010   0.112   0.274   0.367   0.368   0.288   0.141  -0.031  -0.150  -0.154
  -0.059   0.056
   0.865   0.969   1.121   1.035   0.654   0.224   0.020   0.097   0.301   0.459
   0.475   0.331   0.090  -0.049   0.190   0.960   2.091   3.113   3.525   3.113
   2.091   0.960   0.190  -0.049   0.090   0.331   0.475   0.459   0.301   0.097
   0.020   0.224   0.654   1.035   1.121   0.969   0.865   0.969   1.121   1.035
   0.654   0.224   0.020   0.097   0.301   0.459   0.475   0.331   0.090  -0.049
   0.190   0.960   2.091   3.113   3.525   3.113   2.091   0.960   0.190  -0.049
   0.090   0.331   0.475   0.459   0.301   0.097   0.020   0.224   0.654   1.035
   1.121   0.969
   2.391   2.763   3.442   3.596   2.872   1.677   0.679   0.190   0.089   0.154
   0.265   0.329   0.228  -0.003  -0.046   0.490   1.624   2.820   3.335   2.820
   1.624   0.490  -0.046  -0.003   0.228   0.329   0.265   0.154   0.089   0.190
   0.679   1.677   2.872   3.596   3.442   2.763   2.391   2.763   3.442   3.596
   2.872   1.677   0.679   0.190   0.089   0.154   0.265   0.329   0.228  -0.003
  -0.046   0.490   1.624   2.820   3.335   2.820   1.624   0.490  -0.046  -0.003
   0.228   0.329   0.265   0.154   0.089   0.190   0.679   1.677   2.872   3.596
   3.442   2.763
   3.732   4.320   5.447   5.865   4.958   3.205   1.531   0.457  -0.054  -0.197
  -0.074   0.172   0.267   0.080  -0.096   0.264   1.328   2.564   3.114   2.564
   1.328   0.264  -0.096   0.080   0.267   0.172  -0.074  -0.197  -0.054   0.457
   1.531   3.205   4.958   5.865   5.447   4.320   3.732   4.320   5.447   5.865
   4.958   3.205   1.531   0.457  -0.054  -0.197  -0.074   0.172   0.267   0.080
  -0.096   0.264   1.328   2.564   3.114   2.564   1.328   0.264  -0.096   0.080
   0.267   0.172  -0.074  -0.197  -0.054   0.457   1.531   3.205   4.958   5.865
   5.447   4.320
TEXTURE_INDEX=   7.5837
ERR_CF 220         1080     436  180.50   24.67
ERR_CF 200         1080     250   83.89   17.90
ERR_CF 111         1056     260  372.37   17.94
