TEXEVAL                                                                         
Analysis started on 21-May-19 13:31:01                                          
 LMAX=16LFMAX=03 CUBIC ORTHO   
 220      5.00 5.00
 200      5.00 5.00
 111      5.00 5.00
 220       5.00   72    0 5.00   15    0
   2.586   2.586   2.586   2.586   2.586   2.586   2.586   2.586   2.586   2.586
   2.586   2.586   2.586   2.586   2.586   2.586   2.586   2.586   2.586   2.586
   2.586   2.586   2.586   2.586   2.586   2.586   2.586   2.586   2.586   2.586
   2.586   2.586   2.586   2.586   2.586   2.586   2.586   2.586   2.586   2.586
   2.586   2.586   2.586   2.586   2.586   2.586   2.586   2.586   2.586   2.586
   2.586   2.586   2.586   2.586   2.586   2.586   2.586   2.586   2.586   2.586
   2.586   2.586   2.586   2.586   2.586   2.586   2.586   2.586   2.586   2.586
   2.586   2.586
   0.858   0.782   0.766   0.916   0.821   0.873   1.197   1.251   1.154   1.436
   1.799   1.956   2.212   2.445   2.594   2.647   2.736   2.948   3.049   2.948
   2.736   2.647   2.594   2.445   2.212   1.956   1.799   1.436   1.154   1.251
   1.197   0.873   0.821   0.916   0.766   0.782   0.858   0.782   0.766   0.916
   0.821   0.873   1.197   1.251   1.154   1.436   1.799   1.956   2.212   2.445
   2.594   2.647   2.736   2.948   3.049   2.948   2.736   2.647   2.594   2.445
   2.212   1.956   1.799   1.436   1.154   1.251   1.197   0.873   0.821   0.916
   0.766   0.782
   0.266   0.290   0.255   0.257   0.274   0.379   0.474   0.549   0.593   0.794
   0.931   1.350   1.743   2.196   2.536   2.862   3.311   3.695   3.815   3.695
   3.311   2.862   2.536   2.196   1.743   1.350   0.931   0.794   0.593   0.549
   0.474   0.379   0.274   0.257   0.255   0.290   0.266   0.290   0.255   0.257
   0.274   0.379   0.474   0.549   0.593   0.794   0.931   1.350   1.743   2.196
   2.536   2.862   3.311   3.695   3.815   3.695   3.311   2.862   2.536   2.196
   1.743   1.350   0.931   0.794   0.593   0.549   0.474   0.379   0.274   0.257
   0.255   0.290
   0.165   0.193   0.171   0.149   0.186   0.236   0.306   0.437   0.464   0.642
   0.717   1.073   1.561   2.280   2.934   3.838   4.720   5.306   5.579   5.306
   4.720   3.838   2.934   2.280   1.561   1.073   0.717   0.642   0.464   0.437
   0.306   0.236   0.186   0.149   0.171   0.193   0.165   0.193   0.171   0.149
   0.186   0.236   0.306   0.437   0.464   0.642   0.717   1.073   1.561   2.280
   2.934   3.838   4.720   5.306   5.579   5.306   4.720   3.838   2.934   2.280
   1.561   1.073   0.717   0.642   0.464   0.437   0.306   0.236   0.186   0.149
   0.171   0.193
   0.102   0.101   0.083   0.106   0.113   0.143   0.231   0.288   0.372   0.490
   0.524   0.804   1.197   1.862   2.818   4.329   5.813   6.729   7.046   6.729
   5.813   4.329   2.818   1.862   1.197   0.804   0.524   0.490   0.372   0.288
   0.231   0.143   0.113   0.106   0.083   0.101   0.102   0.101   0.083   0.106
   0.113   0.143   0.231   0.288   0.372   0.490   0.524   0.804   1.197   1.862
   2.818   4.329   5.813   6.729   7.046   6.729   5.813   4.329   2.818   1.862
   1.197   0.804   0.524   0.490   0.372   0.288   0.231   0.143   0.113   0.106
   0.083   0.101
   0.119   0.055   0.044   0.104   0.097   0.115   0.138   0.174   0.221   0.332
   0.494   0.792   0.931   1.271   2.080   3.419   5.171   6.309   6.561   6.309
   5.171   3.419   2.080   1.271   0.931   0.792   0.494   0.332   0.221   0.174
   0.138   0.115   0.097   0.104   0.044   0.055   0.119   0.055   0.044   0.104
   0.097   0.115   0.138   0.174   0.221   0.332   0.494   0.792   0.931   1.271
   2.080   3.419   5.171   6.309   6.561   6.309   5.171   3.419   2.080   1.271
   0.931   0.792   0.494   0.332   0.221   0.174   0.138   0.115   0.097   0.104
   0.044   0.055
   0.188   0.085   0.102   0.128   0.127   0.155   0.165   0.215   0.237   0.303
   0.480   0.773   0.994   1.385   2.162   3.308   4.248   4.418   4.395   4.418
   4.248   3.308   2.162   1.385   0.994   0.773   0.480   0.303   0.237   0.215
   0.165   0.155   0.127   0.128   0.102   0.085   0.188   0.085   0.102   0.128
   0.127   0.155   0.165   0.215   0.237   0.303   0.480   0.773   0.994   1.385
   2.162   3.308   4.248   4.418   4.395   4.418   4.248   3.308   2.162   1.385
   0.994   0.773   0.480   0.303   0.237   0.215   0.165   0.155   0.127   0.128
   0.102   0.085
   0.508   0.403   0.331   0.236   0.219   0.249   0.228   0.233   0.306   0.350
   0.398   0.582   0.955   1.548   2.516   3.562   3.862   3.038   2.508   3.038
   3.862   3.562   2.516   1.548   0.955   0.582   0.398   0.350   0.306   0.233
   0.228   0.249   0.219   0.236   0.331   0.403   0.508   0.403   0.331   0.236
   0.219   0.249   0.228   0.233   0.306   0.350   0.398   0.582   0.955   1.548
   2.516   3.562   3.862   3.038   2.508   3.038   3.862   3.562   2.516   1.548
   0.955   0.582   0.398   0.350   0.306   0.233   0.228   0.249   0.219   0.236
   0.331   0.403
   0.983   0.808   0.529   0.419   0.376   0.337   0.288   0.170   0.235   0.369
   0.405   0.461   0.726   1.226   1.991   2.523   2.590   2.038   1.632   2.038
   2.590   2.523   1.991   1.226   0.726   0.461   0.405   0.369   0.235   0.170
   0.288   0.337   0.376   0.419   0.529   0.808   0.983   0.808   0.529   0.419
   0.376   0.337   0.288   0.170   0.235   0.369   0.405   0.461   0.726   1.226
   1.991   2.523   2.590   2.038   1.632   2.038   2.590   2.523   1.991   1.226
   0.726   0.461   0.405   0.369   0.235   0.170   0.288   0.337   0.376   0.419
   0.529   0.808
   1.079   1.043   0.749   0.528   0.481   0.497   0.422   0.299   0.302   0.322
   0.371   0.351   0.461   0.821   1.267   1.443   1.257   1.163   1.198   1.163
   1.257   1.443   1.267   0.821   0.461   0.351   0.371   0.322   0.302   0.299
   0.422   0.497   0.481   0.528   0.749   1.043   1.079   1.043   0.749   0.528
   0.481   0.497   0.422   0.299   0.302   0.322   0.371   0.351   0.461   0.821
   1.267   1.443   1.257   1.163   1.198   1.163   1.257   1.443   1.267   0.821
   0.461   0.351   0.371   0.322   0.302   0.299   0.422   0.497   0.481   0.528
   0.749   1.043
   2.237   2.382   1.774   1.079   0.851   0.713   0.581   0.500   0.489   0.400
   0.305   0.284   0.336   0.561   0.874   0.792   0.656   0.749   0.856   0.749
   0.656   0.792   0.874   0.561   0.336   0.284   0.305   0.400   0.489   0.500
   0.581   0.713   0.851   1.079   1.774   2.382   2.237   2.382   1.774   1.079
   0.851   0.713   0.581   0.500   0.489   0.400   0.305   0.284   0.336   0.561
   0.874   0.792   0.656   0.749   0.856   0.749   0.656   0.792   0.874   0.561
   0.336   0.284   0.305   0.400   0.489   0.500   0.581   0.713   0.851   1.079
   1.774   2.382
   4.732   4.649   3.249   2.005   1.353   1.143   1.124   0.749   0.519   0.394
   0.235   0.336   0.321   0.346   0.485   0.479   0.393   0.420   0.520   0.420
   0.393   0.479   0.485   0.346   0.321   0.336   0.235   0.394   0.519   0.749
   1.124   1.143   1.353   2.005   3.249   4.649   4.732   4.649   3.249   2.005
   1.353   1.143   1.124   0.749   0.519   0.394   0.235   0.336   0.321   0.346
   0.485   0.479   0.393   0.420   0.520   0.420   0.393   0.479   0.485   0.346
   0.321   0.336   0.235   0.394   0.519   0.749   1.124   1.143   1.353   2.005
   3.249   4.649
   3.639   3.738   3.022   2.149   1.874   1.686   1.307   0.893   0.645   0.329
   0.201   0.520   0.431   0.138   0.170   0.304   0.312   0.301   0.440   0.301
   0.312   0.304   0.170   0.138   0.431   0.520   0.201   0.329   0.645   0.893
   1.307   1.686   1.874   2.149   3.022   3.738   3.639   3.738   3.022   2.149
   1.874   1.686   1.307   0.893   0.645   0.329   0.201   0.520   0.431   0.138
   0.170   0.304   0.312   0.301   0.440   0.301   0.312   0.304   0.170   0.138
   0.431   0.520   0.201   0.329   0.645   0.893   1.307   1.686   1.874   2.149
   3.022   3.738
   0.832   1.569   1.976   1.809   2.031   1.923   1.491   1.032   1.085   0.842
   0.642   0.741   0.434   0.143   0.285   0.344   0.250   0.294   0.573   0.294
   0.250   0.344   0.285   0.143   0.434   0.741   0.642   0.842   1.085   1.032
   1.491   1.923   2.031   1.809   1.976   1.569   0.832   1.569   1.976   1.809
   2.031   1.923   1.491   1.032   1.085   0.842   0.642   0.741   0.434   0.143
   0.285   0.344   0.250   0.294   0.573   0.294   0.250   0.344   0.285   0.143
   0.434   0.741   0.642   0.842   1.085   1.032   1.491   1.923   2.031   1.809
   1.976   1.569
   0.305   0.904   1.105   1.068   1.150   1.177   1.287   0.989   1.743   1.673
   0.944   0.658   0.501   0.291   0.350   0.681   0.473   0.303   0.466   0.303
   0.473   0.681   0.350   0.291   0.501   0.658   0.944   1.673   1.743   0.989
   1.287   1.177   1.150   1.068   1.105   0.904   0.305   0.904   1.105   1.068
   1.150   1.177   1.287   0.989   1.743   1.673   0.944   0.658   0.501   0.291
   0.350   0.681   0.473   0.303   0.466   0.303   0.473   0.681   0.350   0.291
   0.501   0.658   0.944   1.673   1.743   0.989   1.287   1.177   1.150   1.068
   1.105   0.904
 200       5.00   72    0 5.00   15    0
   1.566   1.566   1.566   1.566   1.566   1.566   1.566   1.566   1.566   1.566
   1.566   1.566   1.566   1.566   1.566   1.566   1.566   1.566   1.566   1.566
   1.566   1.566   1.566   1.566   1.566   1.566   1.566   1.566   1.566   1.566
   1.566   1.566   1.566   1.566   1.566   1.566   1.566   1.566   1.566   1.566
   1.566   1.566   1.566   1.566   1.566   1.566   1.566   1.566   1.566   1.566
   1.566   1.566   1.566   1.566   1.566   1.566   1.566   1.566   1.566   1.566
   1.566   1.566   1.566   1.566   1.566   1.566   1.566   1.566   1.566   1.566
   1.566   1.566
   1.816   1.419   1.160   0.987   1.156   1.337   1.163   1.223   1.387   1.403
   1.456   1.368   1.801   1.931   1.795   1.564   1.620   1.768   1.832   1.768
   1.620   1.564   1.795   1.931   1.801   1.368   1.456   1.403   1.387   1.223
   1.163   1.337   1.156   0.987   1.160   1.419   1.816   1.419   1.160   0.987
   1.156   1.337   1.163   1.223   1.387   1.403   1.456   1.368   1.801   1.931
   1.795   1.564   1.620   1.768   1.832   1.768   1.620   1.564   1.795   1.931
   1.801   1.368   1.456   1.403   1.387   1.223   1.163   1.337   1.156   0.987
   1.160   1.419
   0.696   0.625   0.556   0.535   0.656   0.678   0.517   0.611   0.801   0.855
   0.804   0.716   1.003   1.007   0.966   0.853   0.930   1.036   1.060   1.036
   0.930   0.853   0.966   1.007   1.003   0.716   0.804   0.855   0.801   0.611
   0.517   0.678   0.656   0.535   0.556   0.625   0.696   0.625   0.556   0.535
   0.656   0.678   0.517   0.611   0.801   0.855   0.804   0.716   1.003   1.007
   0.966   0.853   0.930   1.036   1.060   1.036   0.930   0.853   0.966   1.007
   1.003   0.716   0.804   0.855   0.801   0.611   0.517   0.678   0.656   0.535
   0.556   0.625
   0.417   0.443   0.384   0.342   0.447   0.493   0.465   0.442   0.491   0.517
   0.424   0.444   0.612   0.592   0.583   0.559   0.628   0.557   0.441   0.557
   0.628   0.559   0.583   0.592   0.612   0.444   0.424   0.517   0.491   0.442
   0.465   0.493   0.447   0.342   0.384   0.443   0.417   0.443   0.384   0.342
   0.447   0.493   0.465   0.442   0.491   0.517   0.424   0.444   0.612   0.592
   0.583   0.559   0.628   0.557   0.441   0.557   0.628   0.559   0.583   0.592
   0.612   0.444   0.424   0.517   0.491   0.442   0.465   0.493   0.447   0.342
   0.384   0.443
   0.798   0.715   0.775   0.854   0.760   0.751   0.732   0.618   0.524   0.452
   0.365   0.413   0.488   0.440   0.357   0.320   0.535   0.587   0.468   0.587
   0.535   0.320   0.357   0.440   0.488   0.413   0.365   0.452   0.524   0.618
   0.732   0.751   0.760   0.854   0.775   0.715   0.798   0.715   0.775   0.854
   0.760   0.751   0.732   0.618   0.524   0.452   0.365   0.413   0.488   0.440
   0.357   0.320   0.535   0.587   0.468   0.587   0.535   0.320   0.357   0.440
   0.488   0.413   0.365   0.452   0.524   0.618   0.732   0.751   0.760   0.854
   0.775   0.715
   2.655   2.677   3.031   3.231   2.949   2.488   1.890   1.351   0.973   0.769
   0.484   0.376   0.363   0.294   0.255   0.288   0.454   0.533   0.408   0.533
   0.454   0.288   0.255   0.294   0.363   0.376   0.484   0.769   0.973   1.351
   1.890   2.488   2.949   3.231   3.031   2.677   2.655   2.677   3.031   3.231
   2.949   2.488   1.890   1.351   0.973   0.769   0.484   0.376   0.363   0.294
   0.255   0.288   0.454   0.533   0.408   0.533   0.454   0.288   0.255   0.294
   0.363   0.376   0.484   0.769   0.973   1.351   1.890   2.488   2.949   3.231
   3.031   2.677
   3.890   4.040   4.456   5.110   5.516   5.430   4.369   3.200   2.092   1.370
   0.777   0.427   0.404   0.305   0.252   0.386   0.494   0.571   0.478   0.571
   0.494   0.386   0.252   0.305   0.404   0.427   0.777   1.370   2.092   3.200
   4.369   5.430   5.516   5.110   4.456   4.040   3.890   4.040   4.456   5.110
   5.516   5.430   4.369   3.200   2.092   1.370   0.777   0.427   0.404   0.305
   0.252   0.386   0.494   0.571   0.478   0.571   0.494   0.386   0.252   0.305
   0.404   0.427   0.777   1.370   2.092   3.200   4.369   5.430   5.516   5.110
   4.456   4.040
   2.068   2.150   2.376   3.065   3.822   4.316   3.998   3.422   2.594   1.787
   1.080   0.629   0.572   0.416   0.299   0.420   0.562   0.564   0.382   0.564
   0.562   0.420   0.299   0.416   0.572   0.629   1.080   1.787   2.594   3.422
   3.998   4.316   3.822   3.065   2.376   2.150   2.068   2.150   2.376   3.065
   3.822   4.316   3.998   3.422   2.594   1.787   1.080   0.629   0.572   0.416
   0.299   0.420   0.562   0.564   0.382   0.564   0.562   0.420   0.299   0.416
   0.572   0.629   1.080   1.787   2.594   3.422   3.998   4.316   3.822   3.065
   2.376   2.150
   0.331   0.321   0.406   0.656   1.006   1.243   1.512   1.651   1.509   1.351
   1.146   0.855   0.683   0.609   0.507   0.533   0.645   0.548   0.396   0.548
   0.645   0.533   0.507   0.609   0.683   0.855   1.146   1.351   1.509   1.651
   1.512   1.243   1.006   0.656   0.406   0.321   0.331   0.321   0.406   0.656
   1.006   1.243   1.512   1.651   1.509   1.351   1.146   0.855   0.683   0.609
   0.507   0.533   0.645   0.548   0.396   0.548   0.645   0.533   0.507   0.609
   0.683   0.855   1.146   1.351   1.509   1.651   1.512   1.243   1.006   0.656
   0.406   0.321
   0.178   0.139   0.125   0.275   0.360   0.434   0.569   0.550   0.480   0.544
   0.800   1.013   0.978   0.816   0.557   0.442   0.655   0.810   0.895   0.810
   0.655   0.442   0.557   0.816   0.978   1.013   0.800   0.544   0.480   0.550
   0.569   0.434   0.360   0.275   0.125   0.139   0.178   0.139   0.125   0.275
   0.360   0.434   0.569   0.550   0.480   0.544   0.800   1.013   0.978   0.816
   0.557   0.442   0.655   0.810   0.895   0.810   0.655   0.442   0.557   0.816
   0.978   1.013   0.800   0.544   0.480   0.550   0.569   0.434   0.360   0.275
   0.125   0.139
   0.144   0.080   0.102   0.199   0.288   0.213   0.175   0.135   0.205   0.303
   0.620   1.316   1.695   1.301   0.629   0.365   0.529   0.794   0.980   0.794
   0.529   0.365   0.629   1.301   1.695   1.316   0.620   0.303   0.205   0.135
   0.175   0.213   0.288   0.199   0.102   0.080   0.144   0.080   0.102   0.199
   0.288   0.213   0.175   0.135   0.205   0.303   0.620   1.316   1.695   1.301
   0.629   0.365   0.529   0.794   0.980   0.794   0.529   0.365   0.629   1.301
   1.695   1.316   0.620   0.303   0.205   0.135   0.175   0.213   0.288   0.199
   0.102   0.080
   0.229   0.168   0.103   0.206   0.355   0.227   0.140   0.132   0.093   0.427
   1.347   2.436   2.998   2.222   1.018   0.502   0.502   0.525   0.577   0.525
   0.502   0.502   1.018   2.222   2.998   2.436   1.347   0.427   0.093   0.132
   0.140   0.227   0.355   0.206   0.103   0.168   0.229   0.168   0.103   0.206
   0.355   0.227   0.140   0.132   0.093   0.427   1.347   2.436   2.998   2.222
   1.018   0.502   0.502   0.525   0.577   0.525   0.502   0.502   1.018   2.222
   2.998   2.436   1.347   0.427   0.093   0.132   0.140   0.227   0.355   0.206
   0.103   0.168
   0.160   0.162   0.175   0.180   0.230   0.263   0.268   0.338   0.408   1.131
   2.434   3.528   3.328   2.100   1.090   0.745   0.506   0.318   0.335   0.318
   0.506   0.745   1.090   2.100   3.328   3.528   2.434   1.131   0.408   0.338
   0.268   0.263   0.230   0.180   0.175   0.162   0.160   0.162   0.175   0.180
   0.230   0.263   0.268   0.338   0.408   1.131   2.434   3.528   3.328   2.100
   1.090   0.745   0.506   0.318   0.335   0.318   0.506   0.745   1.090   2.100
   3.328   3.528   2.434   1.131   0.408   0.338   0.268   0.263   0.230   0.180
   0.175   0.162
   0.004   0.043   0.224   0.091   0.177   0.532   0.583   0.980   1.579   2.624
   3.216   3.123   1.935   1.022   0.765   0.673   0.433   0.331   0.507   0.331
   0.433   0.673   0.765   1.022   1.935   3.123   3.216   2.624   1.579   0.980
   0.583   0.532   0.177   0.091   0.224   0.043   0.004   0.043   0.224   0.091
   0.177   0.532   0.583   0.980   1.579   2.624   3.216   3.123   1.935   1.022
   0.765   0.673   0.433   0.331   0.507   0.331   0.433   0.673   0.765   1.022
   1.935   3.123   3.216   2.624   1.579   0.980   0.583   0.532   0.177   0.091
   0.224   0.043
   0.080   0.113   0.173   0.056   0.244   0.910   0.878   1.786   3.085   3.553
   2.559   1.450   0.676   0.423   0.408   0.499   0.201   0.380   0.806   0.380
   0.201   0.499   0.408   0.423   0.676   1.450   2.559   3.553   3.085   1.786
   0.878   0.910   0.244   0.056   0.173   0.113   0.080   0.113   0.173   0.056
   0.244   0.910   0.878   1.786   3.085   3.553   2.559   1.450   0.676   0.423
   0.408   0.499   0.201   0.380   0.806   0.380   0.201   0.499   0.408   0.423
   0.676   1.450   2.559   3.553   3.085   1.786   0.878   0.910   0.244   0.056
   0.173   0.113
 111       5.00   72    0 5.00   15    0
   0.076   0.076   0.076   0.076   0.076   0.076   0.076   0.076   0.076   0.076
   0.076   0.076   0.076   0.076   0.076   0.076   0.076   0.076   0.076   0.076
   0.076   0.076   0.076   0.076   0.076   0.076   0.076   0.076   0.076   0.076
   0.076   0.076   0.076   0.076   0.076   0.076   0.076   0.076   0.076   0.076
   0.076   0.076   0.076   0.076   0.076   0.076   0.076   0.076   0.076   0.076
   0.076   0.076   0.076   0.076   0.076   0.076   0.076   0.076   0.076   0.076
   0.076   0.076   0.076   0.076   0.076   0.076   0.076   0.076   0.076   0.076
   0.076   0.076
   0.119   0.137   0.146   0.133   0.107   0.086   0.171   0.149   0.077   0.089
   0.094   0.140   0.121   0.136   0.138   0.084   0.072   0.059   0.051   0.059
   0.072   0.084   0.138   0.136   0.121   0.140   0.094   0.089   0.077   0.149
   0.171   0.086   0.107   0.133   0.146   0.137   0.119   0.137   0.146   0.133
   0.107   0.086   0.171   0.149   0.077   0.089   0.094   0.140   0.121   0.136
   0.138   0.084   0.072   0.059   0.051   0.059   0.072   0.084   0.138   0.136
   0.121   0.140   0.094   0.089   0.077   0.149   0.171   0.086   0.107   0.133
   0.146   0.137
   0.490   0.495   0.477   0.479   0.417   0.277   0.288   0.252   0.101   0.092
   0.098   0.076   0.090   0.074   0.075   0.077   0.074   0.069   0.071   0.069
   0.074   0.077   0.075   0.074   0.090   0.076   0.098   0.092   0.101   0.252
   0.288   0.277   0.417   0.479   0.477   0.495   0.490   0.495   0.477   0.479
   0.417   0.277   0.288   0.252   0.101   0.092   0.098   0.076   0.090   0.074
   0.075   0.077   0.074   0.069   0.071   0.069   0.074   0.077   0.075   0.074
   0.090   0.076   0.098   0.092   0.101   0.252   0.288   0.277   0.417   0.479
   0.477   0.495
   3.899   3.622   3.267   2.739   1.910   1.156   0.671   0.402   0.225   0.137
   0.072   0.059   0.053   0.042   0.039   0.038   0.030   0.041   0.042   0.041
   0.030   0.038   0.039   0.042   0.053   0.059   0.072   0.137   0.225   0.402
   0.671   1.156   1.910   2.739   3.267   3.622   3.899   3.622   3.267   2.739
   1.910   1.156   0.671   0.402   0.225   0.137   0.072   0.059   0.053   0.042
   0.039   0.038   0.030   0.041   0.042   0.041   0.030   0.038   0.039   0.042
   0.053   0.059   0.072   0.137   0.225   0.402   0.671   1.156   1.910   2.739
   3.267   3.622
   9.926   9.369   8.234   6.372   4.263   2.756   1.701   0.901   0.536   0.275
   0.090   0.094   0.075   0.009   0.012   0.003   0.000   0.000   0.000   0.000
   0.000   0.003   0.012   0.009   0.075   0.094   0.090   0.275   0.536   0.901
   1.701   2.756   4.263   6.372   8.234   9.369   9.926   9.369   8.234   6.372
   4.263   2.756   1.701   0.901   0.536   0.275   0.090   0.094   0.075   0.009
   0.012   0.003   0.000   0.000   0.000   0.000   0.000   0.003   0.012   0.009
   0.075   0.094   0.090   0.275   0.536   0.901   1.701   2.756   4.263   6.372
   8.234   9.369
   8.414   8.015   7.073   5.668   4.098   3.098   2.314   1.346   0.787   0.512
   0.298   0.244   0.175   0.032   0.015   0.010   0.001   0.017   0.015   0.017
   0.001   0.010   0.015   0.032   0.175   0.244   0.298   0.512   0.787   1.346
   2.314   3.098   4.098   5.668   7.073   8.015   8.414   8.015   7.073   5.668
   4.098   3.098   2.314   1.346   0.787   0.512   0.298   0.244   0.175   0.032
   0.015   0.010   0.001   0.017   0.015   0.017   0.001   0.010   0.015   0.032
   0.175   0.244   0.298   0.512   0.787   1.346   2.314   3.098   4.098   5.668
   7.073   8.015
   3.148   2.946   2.672   2.474   2.159   2.028   1.856   1.372   0.871   0.637
   0.527   0.389   0.225   0.107   0.082   0.059   0.052   0.078   0.086   0.078
   0.052   0.059   0.082   0.107   0.225   0.389   0.527   0.637   0.871   1.372
   1.856   2.028   2.159   2.474   2.672   2.946   3.148   2.946   2.672   2.474
   2.159   2.028   1.856   1.372   0.871   0.637   0.527   0.389   0.225   0.107
   0.082   0.059   0.052   0.078   0.086   0.078   0.052   0.059   0.082   0.107
   0.225   0.389   0.527   0.637   0.871   1.372   1.856   2.028   2.159   2.474
   2.672   2.946
   1.532   1.452   1.332   1.371   1.324   1.282   1.283   1.229   0.951   0.756
   0.629   0.466   0.294   0.235   0.226   0.165   0.138   0.139   0.107   0.139
   0.138   0.165   0.226   0.235   0.294   0.466   0.629   0.756   0.951   1.229
   1.283   1.282   1.324   1.371   1.332   1.452   1.532   1.452   1.332   1.371
   1.324   1.282   1.283   1.229   0.951   0.756   0.629   0.466   0.294   0.235
   0.226   0.165   0.138   0.139   0.107   0.139   0.138   0.165   0.226   0.235
   0.294   0.466   0.629   0.756   0.951   1.229   1.283   1.282   1.324   1.371
   1.332   1.452
   0.477   0.495   0.489   0.670   0.752   0.826   1.061   1.165   1.202   1.251
   1.063   0.674   0.499   0.377   0.286   0.194   0.209   0.251   0.186   0.251
   0.209   0.194   0.286   0.377   0.499   0.674   1.063   1.251   1.202   1.165
   1.061   0.826   0.752   0.670   0.489   0.495   0.477   0.495   0.489   0.670
   0.752   0.826   1.061   1.165   1.202   1.251   1.063   0.674   0.499   0.377
   0.286   0.194   0.209   0.251   0.186   0.251   0.209   0.194   0.286   0.377
   0.499   0.674   1.063   1.251   1.202   1.165   1.061   0.826   0.752   0.670
   0.489   0.495
   0.201   0.185   0.187   0.244   0.353   0.433   0.749   1.166   1.663   1.976
   2.018   1.705   1.271   0.771   0.424   0.277   0.291   0.346   0.308   0.346
   0.291   0.277   0.424   0.771   1.271   1.705   2.018   1.976   1.663   1.166
   0.749   0.433   0.353   0.244   0.187   0.185   0.201   0.185   0.187   0.244
   0.353   0.433   0.749   1.166   1.663   1.976   2.018   1.705   1.271   0.771
   0.424   0.277   0.291   0.346   0.308   0.346   0.291   0.277   0.424   0.771
   1.271   1.705   2.018   1.976   1.663   1.166   0.749   0.433   0.353   0.244
   0.187   0.185
   0.093   0.138   0.153   0.115   0.173   0.184   0.357   0.920   1.815   2.408
   2.783   2.919   2.389   1.556   0.731   0.403   0.372   0.449   0.427   0.449
   0.372   0.403   0.731   1.556   2.389   2.919   2.783   2.408   1.815   0.920
   0.357   0.184   0.173   0.115   0.153   0.138   0.093   0.138   0.153   0.115
   0.173   0.184   0.357   0.920   1.815   2.408   2.783   2.919   2.389   1.556
   0.731   0.403   0.372   0.449   0.427   0.449   0.372   0.403   0.731   1.556
   2.389   2.919   2.783   2.408   1.815   0.920   0.357   0.184   0.173   0.115
   0.153   0.138
   0.126   0.189   0.144   0.049   0.097   0.181   0.205   0.575   1.451   2.267
   2.506   2.539   2.444   2.220   1.534   0.894   0.759   0.805   0.814   0.805
   0.759   0.894   1.534   2.220   2.444   2.539   2.506   2.267   1.451   0.575
   0.205   0.181   0.097   0.049   0.144   0.189   0.126   0.189   0.144   0.049
   0.097   0.181   0.205   0.575   1.451   2.267   2.506   2.539   2.444   2.220
   1.534   0.894   0.759   0.805   0.814   0.805   0.759   0.894   1.534   2.220
   2.444   2.539   2.506   2.267   1.451   0.575   0.205   0.181   0.097   0.049
   0.144   0.189
   0.116   0.143   0.113   0.106   0.126   0.217   0.218   0.285   0.745   1.348
   1.322   1.084   1.210   1.607   1.872   1.852   1.638   1.172   0.986   1.172
   1.638   1.852   1.872   1.607   1.210   1.084   1.322   1.348   0.745   0.285
   0.218   0.217   0.126   0.106   0.113   0.143   0.116   0.143   0.113   0.106
   0.126   0.217   0.218   0.285   0.745   1.348   1.322   1.084   1.210   1.607
   1.872   1.852   1.638   1.172   0.986   1.172   1.638   1.852   1.872   1.607
   1.210   1.084   1.322   1.348   0.745   0.285   0.218   0.217   0.126   0.106
   0.113   0.143
   0.031   0.037   0.044   0.099   0.099   0.102   0.176   0.191   0.291   0.516
   0.619   0.454   0.402   0.622   1.188   2.240   2.539   1.977   1.779   1.977
   2.539   2.240   1.188   0.622   0.402   0.454   0.619   0.516   0.291   0.191
   0.176   0.102   0.099   0.099   0.044   0.037   0.031   0.037   0.044   0.099
   0.099   0.102   0.176   0.191   0.291   0.516   0.619   0.454   0.402   0.622
   1.188   2.240   2.539   1.977   1.779   1.977   2.539   2.240   1.188   0.622
   0.402   0.454   0.619   0.516   0.291   0.191   0.176   0.102   0.099   0.099
   0.044   0.037
   0.246   0.109   0.068   0.130   0.164   0.280   0.267   0.226   0.282   0.412
   0.425   0.395   0.403   0.557   0.618   1.418   2.206   2.386   2.238   2.386
   2.206   1.418   0.618   0.557   0.403   0.395   0.425   0.412   0.282   0.226
   0.267   0.280   0.164   0.130   0.068   0.109   0.246   0.109   0.068   0.130
   0.164   0.280   0.267   0.226   0.282   0.412   0.425   0.395   0.403   0.557
   0.618   1.418   2.206   2.386   2.238   2.386   2.206   1.418   0.618   0.557
   0.403   0.395   0.425   0.412   0.282   0.226   0.267   0.280   0.164   0.130
   0.068   0.109
  4  1     -1.5651007E-01
  4  2      3.1608941E-01
  4  3     -8.9731982E-01
  6  1      1.0390973E+00
  6  2     -4.8767894E+00
  6  3      1.8277141E+00
  6  4     -4.1245744E-01
  8  1     -8.2792779E-01
  8  2     -1.1883535E-01
  8  3      1.6105818E+00
  8  4      7.3945694E-01
  8  5      1.1707456E+00
 10  1     -2.3118000E+00
 10  2      2.2040809E+00
 10  3      2.0684824E+00
 10  4      9.6045651E-01
 10  5      4.6938133E-01
 10  6     -3.7010705E-01
 12  1      1.0467093E+00  1.4165146E+00
 12  2     -5.9520664E-01 -2.0615793E+00
 12  3      3.0680045E-01  3.0872715E+00
 12  4     -1.2981731E+00 -2.1346190E+00
 12  5     -8.3038182E-01 -1.5931506E-02
 12  6     -9.9301505E-01 -1.7416270E-01
 12  7      2.5674902E-01 -1.7562172E-01
 14  1     -3.9661746E-01
 14  2      5.1550900E-01
 14  3     -2.0726494E-01
 14  4     -1.1093224E+00
 14  5     -5.8694265E-01
 14  6      6.9137870E-01
 14  7      1.9821165E-01
 14  8     -1.4038504E-01
 16  1     -2.8591972E-01 -1.2403971E+00
 16  2     -3.2855744E-02  2.0118034E+00
 16  3      7.1528114E-01 -1.6601171E+00
 16  4     -1.8115605E-01 -1.2916640E+00
 16  5     -8.9515103E-01  3.3782299E-01
 16  6      5.4082224E-01  8.6293212E-02
 16  7      1.0583753E+00  1.3025550E-01
 16  8      3.7484345E-01 -3.1403525E-01
 16  9      2.8286720E-01  2.5967465E-01
 220       5.00   72    0 5.00   18    0
   1.303   1.304   1.306   1.311   1.317   1.324   1.332   1.342   1.352   1.363
   1.373   1.383   1.393   1.402   1.410   1.416   1.421   1.423   1.424   1.423
   1.421   1.416   1.410   1.402   1.393   1.383   1.373   1.363   1.352   1.342
   1.332   1.324   1.317   1.311   1.306   1.304   1.303   1.304   1.306   1.311
   1.317   1.324   1.332   1.342   1.352   1.363   1.373   1.383   1.393   1.402
   1.410   1.416   1.421   1.423   1.424   1.423   1.421   1.416   1.410   1.402
   1.393   1.383   1.373   1.363   1.352   1.342   1.332   1.324   1.317   1.311
   1.306   1.304
   0.905   0.911   0.927   0.954   0.993   1.042   1.102   1.172   1.251   1.337
   1.427   1.520   1.612   1.699   1.776   1.841   1.890   1.921   1.931   1.921
   1.890   1.841   1.776   1.699   1.612   1.520   1.427   1.337   1.251   1.172
   1.102   1.042   0.993   0.954   0.927   0.911   0.905   0.911   0.927   0.954
   0.993   1.042   1.102   1.172   1.251   1.337   1.427   1.520   1.612   1.699
   1.776   1.841   1.890   1.921   1.931   1.921   1.890   1.841   1.776   1.699
   1.612   1.520   1.427   1.337   1.251   1.172   1.102   1.042   0.993   0.954
   0.927   0.911
   0.305   0.311   0.330   0.363   0.413   0.484   0.580   0.705   0.861   1.050
   1.269   1.511   1.768   2.026   2.268   2.479   2.642   2.746   2.781   2.746
   2.642   2.479   2.268   2.026   1.768   1.511   1.269   1.050   0.861   0.705
   0.580   0.484   0.413   0.363   0.330   0.311   0.305   0.311   0.330   0.363
   0.413   0.484   0.580   0.705   0.861   1.050   1.269   1.511   1.768   2.026
   2.268   2.479   2.642   2.746   2.781   2.746   2.642   2.479   2.268   2.026
   1.768   1.511   1.269   1.050   0.861   0.705   0.580   0.484   0.413   0.363
   0.330   0.311
  -0.166  -0.165  -0.160  -0.151  -0.134  -0.102  -0.043   0.057   0.217   0.451
   0.766   1.160   1.617   2.107   2.593   3.031   3.380   3.605   3.682   3.605
   3.380   3.031   2.593   2.107   1.617   1.160   0.766   0.451   0.217   0.057
  -0.043  -0.102  -0.134  -0.151  -0.160  -0.165  -0.166  -0.165  -0.160  -0.151
  -0.134  -0.102  -0.043   0.057   0.217   0.451   0.766   1.160   1.617   2.107
   2.593   3.031   3.380   3.605   3.682   3.605   3.380   3.031   2.593   2.107
   1.617   1.160   0.766   0.451   0.217   0.057  -0.043  -0.102  -0.134  -0.151
  -0.160  -0.165
  -0.281  -0.275  -0.265  -0.259  -0.268  -0.297  -0.332  -0.345  -0.294  -0.135
   0.166   0.623   1.217   1.905   2.619   3.281   3.817   4.165   4.286   4.165
   3.817   3.281   2.619   1.905   1.217   0.623   0.166  -0.135  -0.294  -0.345
  -0.332  -0.297  -0.268  -0.259  -0.265  -0.275  -0.281  -0.275  -0.265  -0.259
  -0.268  -0.297  -0.332  -0.345  -0.294  -0.135   0.166   0.623   1.217   1.905
   2.619   3.281   3.817   4.165   4.286   4.165   3.817   3.281   2.619   1.905
   1.217   0.623   0.166  -0.135  -0.294  -0.345  -0.332  -0.297  -0.268  -0.259
  -0.265  -0.275
  -0.148  -0.124  -0.062   0.006   0.039   0.008  -0.094  -0.233  -0.343  -0.343
  -0.158   0.247   0.859   1.616   2.425   3.181   3.792   4.186   4.323   4.186
   3.792   3.181   2.425   1.616   0.859   0.247  -0.158  -0.343  -0.343  -0.233
  -0.094   0.008   0.039   0.006  -0.062  -0.124  -0.148  -0.124  -0.062   0.006
   0.039   0.008  -0.094  -0.233  -0.343  -0.343  -0.158   0.247   0.859   1.616
   2.425   3.181   3.792   4.186   4.323   4.186   3.792   3.181   2.425   1.616
   0.859   0.247  -0.158  -0.343  -0.343  -0.233  -0.094   0.008   0.039   0.006
  -0.062  -0.124
  -0.070  -0.030   0.079   0.222   0.347   0.394   0.326   0.156  -0.044  -0.162
  -0.094   0.217   0.753   1.437   2.158   2.811   3.318   3.635   3.742   3.635
   3.318   2.811   2.158   1.437   0.753   0.217  -0.094  -0.162  -0.044   0.156
   0.326   0.394   0.347   0.222   0.079  -0.030  -0.070  -0.030   0.079   0.222
   0.347   0.394   0.326   0.156  -0.044  -0.162  -0.094   0.217   0.753   1.437
   2.158   2.811   3.318   3.635   3.742   3.635   3.318   2.811   2.158   1.437
   0.753   0.217  -0.094  -0.162  -0.044   0.156   0.326   0.394   0.347   0.222
   0.079  -0.030
  -0.040  -0.031   0.011   0.110   0.260   0.401   0.456   0.387   0.239   0.123
   0.158   0.406   0.838   1.361   1.867   2.278   2.563   2.723   2.774   2.723
   2.563   2.278   1.867   1.361   0.838   0.406   0.158   0.123   0.239   0.387
   0.456   0.401   0.260   0.110   0.011  -0.031  -0.040  -0.031   0.011   0.110
   0.260   0.401   0.456   0.387   0.239   0.123   0.158   0.406   0.838   1.361
   1.867   2.278   2.563   2.723   2.774   2.723   2.563   2.278   1.867   1.361
   0.838   0.406   0.158   0.123   0.239   0.387   0.456   0.401   0.260   0.110
   0.011  -0.031
   0.425   0.334   0.134  -0.019  -0.012   0.134   0.299   0.369   0.333   0.287
   0.345   0.558   0.881   1.218   1.488   1.662   1.753   1.794   1.805   1.794
   1.753   1.662   1.488   1.218   0.881   0.558   0.345   0.287   0.333   0.369
   0.299   0.134  -0.012  -0.019   0.134   0.334   0.425   0.334   0.134  -0.019
  -0.012   0.134   0.299   0.369   0.333   0.287   0.345   0.558   0.881   1.218
   1.488   1.662   1.753   1.794   1.805   1.794   1.753   1.662   1.488   1.218
   0.881   0.558   0.345   0.287   0.333   0.369   0.299   0.134  -0.012  -0.019
   0.134   0.334
   1.730   1.504   0.966   0.433   0.157   0.165   0.298   0.379   0.357   0.316
   0.362   0.522   0.731   0.900   0.996   1.042   1.078   1.114   1.131   1.114
   1.078   1.042   0.996   0.900   0.731   0.522   0.362   0.316   0.357   0.379
   0.298   0.165   0.157   0.433   0.966   1.504   1.730   1.504   0.966   0.433
   0.157   0.165   0.298   0.379   0.357   0.316   0.362   0.522   0.731   0.900
   0.996   1.042   1.078   1.114   1.131   1.114   1.078   1.042   0.996   0.900
   0.731   0.522   0.362   0.316   0.357   0.379   0.298   0.165   0.157   0.433
   0.966   1.504
   3.470   3.152   2.380   1.562   1.022   0.805   0.736   0.630   0.455   0.305
   0.273   0.352   0.451   0.500   0.508   0.537   0.625   0.731   0.780   0.731
   0.625   0.537   0.508   0.500   0.451   0.352   0.273   0.305   0.455   0.630
   0.736   0.805   1.022   1.562   2.380   3.152   3.470   3.152   2.380   1.562
   1.022   0.805   0.736   0.630   0.455   0.305   0.273   0.352   0.451   0.500
   0.508   0.537   0.625   0.731   0.780   0.731   0.625   0.537   0.508   0.500
   0.451   0.352   0.273   0.305   0.455   0.630   0.736   0.805   1.022   1.562
   2.380   3.152
   4.521   4.219   3.482   2.677   2.075   1.694   1.384   1.030   0.659   0.378
   0.250   0.235   0.245   0.232   0.221   0.268   0.387   0.520   0.578   0.520
   0.387   0.268   0.221   0.232   0.245   0.235   0.250   0.378   0.659   1.030
   1.384   1.694   2.075   2.677   3.482   4.219   4.521   4.219   3.482   2.677
   2.075   1.694   1.384   1.030   0.659   0.378   0.250   0.235   0.245   0.232
   0.221   0.268   0.387   0.520   0.578   0.520   0.387   0.268   0.221   0.232
   0.245   0.235   0.250   0.378   0.659   1.030   1.384   1.694   2.075   2.677
   3.482   4.219
   4.025   3.845   3.410   2.931   2.533   2.184   1.805   1.385   0.993   0.691
   0.487   0.352   0.268   0.230   0.237   0.277   0.331   0.377   0.395   0.377
   0.331   0.277   0.237   0.230   0.268   0.352   0.487   0.691   0.993   1.385
   1.805   2.184   2.533   2.931   3.410   3.845   4.025   3.845   3.410   2.931
   2.533   2.184   1.805   1.385   0.993   0.691   0.487   0.352   0.268   0.230
   0.237   0.277   0.331   0.377   0.395   0.377   0.331   0.277   0.237   0.230
   0.268   0.352   0.487   0.691   0.993   1.385   1.805   2.184   2.533   2.931
   3.410   3.845
   2.263   2.239   2.193   2.159   2.109   1.989   1.801   1.613   1.455   1.274
   1.012   0.714   0.500   0.440   0.478   0.500   0.448   0.362   0.320   0.362
   0.448   0.500   0.478   0.440   0.500   0.714   1.012   1.274   1.455   1.613
   1.801   1.989   2.109   2.159   2.193   2.239   2.263   2.239   2.193   2.159
   2.109   1.989   1.801   1.613   1.455   1.274   1.012   0.714   0.500   0.440
   0.478   0.500   0.448   0.362   0.320   0.362   0.448   0.500   0.478   0.440
   0.500   0.714   1.012   1.274   1.455   1.613   1.801   1.989   2.109   2.159
   2.193   2.239
   0.443   0.518   0.724   0.990   1.212   1.345   1.463   1.648   1.837   1.837
   1.543   1.099   0.773   0.698   0.773   0.815   0.746   0.631   0.576   0.631
   0.746   0.815   0.773   0.698   0.773   1.099   1.543   1.837   1.837   1.648
   1.463   1.345   1.212   0.990   0.724   0.518   0.443   0.518   0.724   0.990
   1.212   1.345   1.463   1.648   1.837   1.837   1.543   1.099   0.773   0.698
   0.773   0.815   0.746   0.631   0.576   0.631   0.746   0.815   0.773   0.698
   0.773   1.099   1.543   1.837   1.837   1.648   1.463   1.345   1.212   0.990
   0.724   0.518
  -0.380  -0.302  -0.088   0.192   0.446   0.663   0.949   1.373   1.793   1.931
   1.674   1.227   0.915   0.873   0.994   1.118   1.192   1.234   1.250   1.234
   1.192   1.118   0.994   0.873   0.915   1.227   1.674   1.931   1.793   1.373
   0.949   0.663   0.446   0.192  -0.088  -0.302  -0.380  -0.302  -0.088   0.192
   0.446   0.663   0.949   1.373   1.793   1.931   1.674   1.227   0.915   0.873
   0.994   1.118   1.192   1.234   1.250   1.234   1.192   1.118   0.994   0.873
   0.915   1.227   1.674   1.931   1.793   1.373   0.949   0.663   0.446   0.192
  -0.088  -0.302
  -0.141  -0.127  -0.076   0.006   0.086   0.184   0.411   0.824   1.268   1.467
   1.327   1.045   0.891   0.943   1.115   1.350   1.660   1.975   2.115   1.975
   1.660   1.350   1.115   0.943   0.891   1.045   1.327   1.467   1.268   0.824
   0.411   0.184   0.086   0.006  -0.076  -0.127  -0.141  -0.127  -0.076   0.006
   0.086   0.184   0.411   0.824   1.268   1.467   1.327   1.045   0.891   0.943
   1.115   1.350   1.660   1.975   2.115   1.975   1.660   1.350   1.115   0.943
   0.891   1.045   1.327   1.467   1.268   0.824   0.411   0.184   0.086   0.006
  -0.076  -0.127
   0.367   0.321   0.218   0.110   0.010  -0.045   0.049   0.353   0.730   0.942
   0.911   0.805   0.815   0.956   1.163   1.476   1.965   2.490   2.725   2.490
   1.965   1.476   1.163   0.956   0.815   0.805   0.911   0.942   0.730   0.353
   0.049  -0.045   0.010   0.110   0.218   0.321   0.367   0.321   0.218   0.110
   0.010  -0.045   0.049   0.353   0.730   0.942   0.911   0.805   0.815   0.956
   1.163   1.476   1.965   2.490   2.725   2.490   1.965   1.476   1.163   0.956
   0.815   0.805   0.911   0.942   0.730   0.353   0.049  -0.045   0.010   0.110
   0.218   0.321
 200       5.00   72    0 5.00   18    0
   1.451   1.451   1.452   1.453   1.455   1.457   1.459   1.462   1.465   1.468
   1.471   1.475   1.477   1.480   1.482   1.484   1.486   1.486   1.487   1.486
   1.486   1.484   1.482   1.480   1.477   1.475   1.471   1.468   1.465   1.462
   1.459   1.457   1.455   1.453   1.452   1.451   1.451   1.451   1.452   1.453
   1.455   1.457   1.459   1.462   1.465   1.468   1.471   1.475   1.477   1.480
   1.482   1.484   1.486   1.486   1.487   1.486   1.486   1.484   1.482   1.480
   1.477   1.475   1.471   1.468   1.465   1.462   1.459   1.457   1.455   1.453
   1.452   1.451
   0.979   0.981   0.986   0.995   1.008   1.024   1.043   1.066   1.091   1.119
   1.148   1.178   1.208   1.237   1.263   1.285   1.302   1.312   1.316   1.312
   1.302   1.285   1.263   1.237   1.208   1.178   1.148   1.119   1.091   1.066
   1.043   1.024   1.008   0.995   0.986   0.981   0.979   0.981   0.986   0.995
   1.008   1.024   1.043   1.066   1.091   1.119   1.148   1.178   1.208   1.237
   1.263   1.285   1.302   1.312   1.316   1.312   1.302   1.285   1.263   1.237
   1.208   1.178   1.148   1.119   1.091   1.066   1.043   1.024   1.008   0.995
   0.986   0.981
   0.256   0.260   0.270   0.286   0.307   0.332   0.361   0.395   0.438   0.490
   0.553   0.627   0.710   0.798   0.885   0.963   1.026   1.066   1.080   1.066
   1.026   0.963   0.885   0.798   0.710   0.627   0.553   0.490   0.438   0.395
   0.361   0.332   0.307   0.286   0.270   0.260   0.256   0.260   0.270   0.286
   0.307   0.332   0.361   0.395   0.438   0.490   0.553   0.627   0.710   0.798
   0.885   0.963   1.026   1.066   1.080   1.066   1.026   0.963   0.885   0.798
   0.710   0.627   0.553   0.490   0.438   0.395   0.361   0.332   0.307   0.286
   0.270   0.260
   0.008   0.015   0.032   0.051   0.063   0.059   0.039   0.008  -0.023  -0.035
  -0.015   0.048   0.155   0.299   0.461   0.621   0.756   0.846   0.877   0.846
   0.756   0.621   0.461   0.299   0.155   0.048  -0.015  -0.035  -0.023   0.008
   0.039   0.059   0.063   0.051   0.032   0.015   0.008   0.015   0.032   0.051
   0.063   0.059   0.039   0.008  -0.023  -0.035  -0.015   0.048   0.155   0.299
   0.461   0.621   0.756   0.846   0.877   0.846   0.756   0.621   0.461   0.299
   0.155   0.048  -0.015  -0.035  -0.023   0.008   0.039   0.059   0.063   0.051
   0.032   0.015
   0.935   0.953   0.994   1.032   1.028   0.954   0.796   0.568   0.307   0.062
  -0.118  -0.200  -0.171  -0.047   0.139   0.346   0.529   0.654   0.699   0.654
   0.529   0.346   0.139  -0.047  -0.171  -0.200  -0.118   0.062   0.307   0.568
   0.796   0.954   1.028   1.032   0.994   0.953   0.935   0.953   0.994   1.032
   1.028   0.954   0.796   0.568   0.307   0.062  -0.118  -0.200  -0.171  -0.047
   0.139   0.346   0.529   0.654   0.699   0.654   0.529   0.346   0.139  -0.047
  -0.171  -0.200  -0.118   0.062   0.307   0.568   0.796   0.954   1.028   1.032
   0.994   0.953
   2.582   2.622   2.721   2.819   2.839   2.712   2.403   1.930   1.363   0.800
   0.336   0.033  -0.093  -0.070   0.048   0.204   0.348   0.446   0.481   0.446
   0.348   0.204   0.048  -0.070  -0.093   0.033   0.336   0.800   1.363   1.930
   2.403   2.712   2.839   2.819   2.721   2.622   2.582   2.622   2.721   2.819
   2.839   2.712   2.403   1.930   1.363   0.800   0.336   0.033  -0.093  -0.070
   0.048   0.204   0.348   0.446   0.481   0.446   0.348   0.204   0.048  -0.070
  -0.093   0.033   0.336   0.800   1.363   1.930   2.403   2.712   2.839   2.819
   2.721   2.622
   3.392   3.457   3.627   3.829   3.952   3.885   3.557   2.980   2.248   1.507
   0.890   0.472   0.254   0.182   0.189   0.221   0.251   0.268   0.274   0.268
   0.251   0.221   0.189   0.182   0.254   0.472   0.890   1.507   2.248   2.980
   3.557   3.885   3.952   3.829   3.627   3.457   3.392   3.457   3.627   3.829
   3.952   3.885   3.557   2.980   2.248   1.507   0.890   0.472   0.254   0.182
   0.189   0.221   0.251   0.268   0.274   0.268   0.251   0.221   0.189   0.182
   0.254   0.472   0.890   1.507   2.248   2.980   3.557   3.885   3.952   3.829
   3.627   3.457
   2.437   2.507   2.707   2.995   3.271   3.390   3.235   2.787   2.154   1.512
   1.011   0.705   0.552   0.471   0.408   0.351   0.310   0.290   0.285   0.290
   0.310   0.351   0.408   0.471   0.552   0.705   1.011   1.512   2.154   2.787
   3.235   3.390   3.271   2.995   2.707   2.507   2.437   2.507   2.707   2.995
   3.271   3.390   3.235   2.787   2.154   1.512   1.011   0.705   0.552   0.471
   0.408   0.351   0.310   0.290   0.285   0.290   0.310   0.351   0.408   0.471
   0.552   0.705   1.011   1.512   2.154   2.787   3.235   3.390   3.271   2.995
   2.707   2.507
   0.658   0.695   0.836   1.118   1.488   1.789   1.850   1.624   1.237   0.893
   0.721   0.699   0.707   0.655   0.556   0.495   0.522   0.600   0.641   0.600
   0.522   0.495   0.556   0.655   0.707   0.699   0.721   0.893   1.237   1.624
   1.850   1.789   1.488   1.118   0.836   0.695   0.658   0.695   0.836   1.118
   1.488   1.789   1.850   1.624   1.237   0.893   0.721   0.699   0.707   0.655
   0.556   0.495   0.522   0.600   0.641   0.600   0.522   0.495   0.556   0.655
   0.707   0.699   0.721   0.893   1.237   1.624   1.850   1.789   1.488   1.118
   0.836   0.695
  -0.245  -0.264  -0.249  -0.081   0.239   0.543   0.636   0.498   0.318   0.324
   0.572   0.885   1.023   0.904   0.681   0.595   0.748   1.007   1.132   1.007
   0.748   0.595   0.681   0.904   1.023   0.885   0.572   0.324   0.318   0.498
   0.636   0.543   0.239  -0.081  -0.249  -0.264  -0.245  -0.264  -0.249  -0.081
   0.239   0.543   0.636   0.498   0.318   0.324   0.572   0.885   1.023   0.904
   0.681   0.595   0.748   1.007   1.132   1.007   0.748   0.595   0.681   0.904
   1.023   0.885   0.572   0.324   0.318   0.498   0.636   0.543   0.239  -0.081
  -0.249  -0.264
   0.111   0.054  -0.027   0.012   0.172   0.280   0.185  -0.025  -0.054   0.322
   1.012   1.628   1.795   1.464   0.952   0.679   0.812   1.148   1.319   1.148
   0.812   0.679   0.952   1.464   1.795   1.628   1.012   0.322  -0.054  -0.025
   0.185   0.280   0.172   0.012  -0.027   0.054   0.111   0.054  -0.027   0.012
   0.172   0.280   0.185  -0.025  -0.054   0.322   1.012   1.628   1.795   1.464
   0.952   0.679   0.812   1.148   1.319   1.148   0.812   0.679   0.952   1.464
   1.795   1.628   1.012   0.322  -0.054  -0.025   0.185   0.280   0.172   0.012
  -0.027   0.054
   0.565   0.522   0.461   0.477   0.519   0.427   0.159  -0.050   0.155   0.906
   1.923   2.670   2.742   2.159   1.342   0.782   0.691   0.885   1.007   0.885
   0.691   0.782   1.342   2.159   2.742   2.670   1.923   0.906   0.155  -0.050
   0.159   0.427   0.519   0.477   0.461   0.522   0.565   0.522   0.461   0.477
   0.519   0.427   0.159  -0.050   0.155   0.906   1.923   2.670   2.742   2.159
   1.342   0.782   0.691   0.885   1.007   0.885   0.691   0.782   1.342   2.159
   2.742   2.670   1.923   0.906   0.155  -0.050   0.159   0.427   0.519   0.477
   0.461   0.522
   0.215   0.222   0.276   0.397   0.485   0.418   0.269   0.340   0.893   1.852
   2.799   3.272   3.075   2.364   1.509   0.857   0.554   0.508   0.525   0.508
   0.554   0.857   1.509   2.364   3.075   3.272   2.799   1.852   0.893   0.340
   0.269   0.418   0.485   0.397   0.276   0.222   0.215   0.222   0.276   0.397
   0.485   0.418   0.269   0.340   0.893   1.852   2.799   3.272   3.075   2.364
   1.509   0.857   0.554   0.508   0.525   0.508   0.554   0.857   1.509   2.364
   3.075   3.272   2.799   1.852   0.893   0.340   0.269   0.418   0.485   0.397
   0.276   0.222
  -0.384  -0.354  -0.231   0.003   0.257   0.453   0.706   1.236   2.060   2.848
   3.182   2.931   2.322   1.677   1.171   0.814   0.574   0.432   0.386   0.432
   0.574   0.814   1.171   1.677   2.322   2.931   3.182   2.848   2.060   1.236
   0.706   0.453   0.257   0.003  -0.231  -0.354  -0.384  -0.354  -0.231   0.003
   0.257   0.453   0.706   1.236   2.060   2.848   3.182   2.931   2.322   1.677
   1.171   0.814   0.574   0.432   0.386   0.432   0.574   0.814   1.171   1.677
   2.322   2.931   3.182   2.848   2.060   1.236   0.706   0.453   0.257   0.003
  -0.231  -0.354
  -0.152  -0.182  -0.178   0.001   0.354   0.815   1.427   2.246   3.049   3.358
   2.886   1.894   0.983   0.550   0.536   0.654   0.718   0.720   0.712   0.720
   0.718   0.654   0.536   0.550   0.983   1.894   2.886   3.358   3.049   2.246
   1.427   0.815   0.354   0.001  -0.178  -0.182  -0.152  -0.182  -0.178   0.001
   0.354   0.815   1.427   2.246   3.049   3.358   2.886   1.894   0.983   0.550
   0.536   0.654   0.718   0.720   0.712   0.720   0.718   0.654   0.536   0.550
   0.983   1.894   2.886   3.358   3.049   2.246   1.427   0.815   0.354   0.001
  -0.178  -0.182
   1.049   0.872   0.547   0.440   0.677   1.143   1.747   2.428   2.926   2.824
   1.998   0.880   0.105  -0.065   0.166   0.494   0.797   1.042   1.143   1.042
   0.797   0.494   0.166  -0.065   0.105   0.880   1.998   2.824   2.926   2.428
   1.747   1.143   0.677   0.440   0.547   0.872   1.049   0.872   0.547   0.440
   0.677   1.143   1.747   2.428   2.926   2.824   1.998   0.880   0.105  -0.065
   0.166   0.494   0.797   1.042   1.143   1.042   0.797   0.494   0.166  -0.065
   0.105   0.880   1.998   2.824   2.926   2.428   1.747   1.143   0.677   0.440
   0.547   0.872
   2.404   2.051   1.322   0.815   0.765   0.972   1.213   1.437   1.556   1.377
   0.880   0.372   0.166   0.227   0.326   0.434   0.710   1.114   1.318   1.114
   0.710   0.434   0.326   0.227   0.166   0.372   0.880   1.377   1.556   1.437
   1.213   0.972   0.765   0.815   1.322   2.051   2.404   2.051   1.322   0.815
   0.765   0.972   1.213   1.437   1.556   1.377   0.880   0.372   0.166   0.227
   0.326   0.434   0.710   1.114   1.318   1.114   0.710   0.434   0.326   0.227
   0.166   0.372   0.880   1.377   1.556   1.437   1.213   0.972   0.765   0.815
   1.322   2.051
   3.184   2.713   1.708   0.915   0.623   0.566   0.449   0.278   0.159   0.091
   0.093   0.274   0.606   0.802   0.664   0.447   0.576   1.026   1.282   1.026
   0.576   0.447   0.664   0.802   0.606   0.274   0.093   0.091   0.159   0.278
   0.449   0.566   0.623   0.915   1.708   2.713   3.184   2.713   1.708   0.915
   0.623   0.566   0.449   0.278   0.159   0.091   0.093   0.274   0.606   0.802
   0.664   0.447   0.576   1.026   1.282   1.026   0.576   0.447   0.664   0.802
   0.606   0.274   0.093   0.091   0.159   0.278   0.449   0.566   0.623   0.915
   1.708   2.713
 111       5.00   72    0 5.00   18    0
   0.038   0.039   0.042   0.047   0.054   0.062   0.071   0.082   0.094   0.106
   0.118   0.131   0.142   0.153   0.162   0.170   0.175   0.179   0.180   0.179
   0.175   0.170   0.162   0.153   0.142   0.131   0.118   0.106   0.094   0.082
   0.071   0.062   0.054   0.047   0.042   0.039   0.038   0.039   0.042   0.047
   0.054   0.062   0.071   0.082   0.094   0.106   0.118   0.131   0.142   0.153
   0.162   0.170   0.175   0.179   0.180   0.179   0.175   0.170   0.162   0.153
   0.142   0.131   0.118   0.106   0.094   0.082   0.071   0.062   0.054   0.047
   0.042   0.039
  -0.318  -0.320  -0.325  -0.331  -0.335  -0.334  -0.323  -0.300  -0.264  -0.213
  -0.150  -0.076   0.004   0.085   0.162   0.228   0.280   0.312   0.323   0.312
   0.280   0.228   0.162   0.085   0.004  -0.076  -0.150  -0.213  -0.264  -0.300
  -0.323  -0.334  -0.335  -0.331  -0.325  -0.320  -0.318  -0.320  -0.325  -0.331
  -0.335  -0.334  -0.323  -0.300  -0.264  -0.213  -0.150  -0.076   0.004   0.085
   0.162   0.228   0.280   0.312   0.323   0.312   0.280   0.228   0.162   0.085
   0.004  -0.076  -0.150  -0.213  -0.264  -0.300  -0.323  -0.334  -0.335  -0.331
  -0.325  -0.320
   0.987   0.944   0.818   0.626   0.393   0.146  -0.085  -0.275  -0.405  -0.464
  -0.452  -0.376  -0.251  -0.096   0.068   0.221   0.344   0.423   0.451   0.423
   0.344   0.221   0.068  -0.096  -0.251  -0.376  -0.452  -0.464  -0.405  -0.275
  -0.085   0.146   0.393   0.626   0.818   0.944   0.987   0.944   0.818   0.626
   0.393   0.146  -0.085  -0.275  -0.405  -0.464  -0.452  -0.376  -0.251  -0.096
   0.068   0.221   0.344   0.423   0.451   0.423   0.344   0.221   0.068  -0.096
  -0.251  -0.376  -0.452  -0.464  -0.405  -0.275  -0.085   0.146   0.393   0.626
   0.818   0.944
   4.328   4.199   3.828   3.260   2.563   1.817   1.100   0.479   0.001  -0.314
  -0.468  -0.482  -0.392  -0.239  -0.062   0.107   0.243   0.331   0.361   0.331
   0.243   0.107  -0.062  -0.239  -0.392  -0.482  -0.468  -0.314   0.001   0.479
   1.100   1.817   2.563   3.260   3.828   4.199   4.328   4.199   3.828   3.260
   2.563   1.817   1.100   0.479   0.001  -0.314  -0.468  -0.482  -0.392  -0.239
  -0.062   0.107   0.243   0.331   0.361   0.331   0.243   0.107  -0.062  -0.239
  -0.392  -0.482  -0.468  -0.314   0.001   0.479   1.100   1.817   2.563   3.260
   3.828   4.199
   6.964   6.767   6.202   5.343   4.298   3.192   2.146   1.257   0.582   0.137
  -0.099  -0.178  -0.157  -0.095  -0.030   0.016   0.039   0.047   0.049   0.047
   0.039   0.016  -0.030  -0.095  -0.157  -0.178  -0.099   0.137   0.582   1.257
   2.146   3.192   4.298   5.343   6.202   6.767   6.964   6.767   6.202   5.343
   4.298   3.192   2.146   1.257   0.582   0.137  -0.099  -0.178  -0.157  -0.095
  -0.030   0.016   0.039   0.047   0.049   0.047   0.039   0.016  -0.030  -0.095
  -0.157  -0.178  -0.099   0.137   0.582   1.257   2.146   3.192   4.298   5.343
   6.202   6.767
   6.320   6.141   5.628   4.851   3.915   2.943   2.050   1.324   0.811   0.505
   0.362   0.315   0.296   0.256   0.175   0.061  -0.059  -0.150  -0.183  -0.150
  -0.059   0.061   0.175   0.256   0.296   0.315   0.362   0.505   0.811   1.324
   2.050   2.943   3.915   4.851   5.628   6.141   6.320   6.141   5.628   4.851
   3.915   2.943   2.050   1.324   0.811   0.505   0.362   0.315   0.296   0.256
   0.175   0.061  -0.059  -0.150  -0.183  -0.150  -0.059   0.061   0.175   0.256
   0.296   0.315   0.362   0.505   0.811   1.324   2.050   2.943   3.915   4.851
   5.628   6.141
   3.264   3.183   2.950   2.589   2.146   1.683   1.265   0.944   0.739   0.637
   0.594   0.562   0.506   0.413   0.295   0.171   0.065  -0.005  -0.029  -0.005
   0.065   0.171   0.295   0.413   0.506   0.562   0.594   0.637   0.739   0.944
   1.265   1.683   2.146   2.589   2.950   3.183   3.264   3.183   2.950   2.589
   2.146   1.683   1.265   0.944   0.739   0.637   0.594   0.562   0.506   0.413
   0.295   0.171   0.065  -0.005  -0.029  -0.005   0.065   0.171   0.295   0.413
   0.506   0.562   0.594   0.637   0.739   0.944   1.265   1.683   2.146   2.589
   2.950   3.183
   0.738   0.761   0.815   0.873   0.907   0.911   0.898   0.885   0.872   0.837
   0.750   0.605   0.430   0.277   0.198   0.206   0.274   0.350   0.382   0.350
   0.274   0.206   0.198   0.277   0.430   0.605   0.750   0.837   0.872   0.885
   0.898   0.911   0.907   0.873   0.815   0.761   0.738   0.761   0.815   0.873
   0.907   0.911   0.898   0.885   0.872   0.837   0.750   0.605   0.430   0.277
   0.198   0.206   0.274   0.350   0.382   0.350   0.274   0.206   0.198   0.277
   0.430   0.605   0.750   0.837   0.872   0.885   0.898   0.911   0.907   0.873
   0.815   0.761
   0.065   0.126   0.289   0.502   0.716   0.910   1.090   1.264   1.403   1.444
   1.324   1.039   0.670   0.348   0.184   0.207   0.353   0.508   0.573   0.508
   0.353   0.207   0.184   0.348   0.670   1.039   1.324   1.444   1.403   1.264
   1.090   0.910   0.716   0.502   0.289   0.126   0.065   0.126   0.289   0.502
   0.716   0.910   1.090   1.264   1.403   1.444   1.324   1.039   0.670   0.348
   0.184   0.207   0.353   0.508   0.573   0.508   0.353   0.207   0.184   0.348
   0.670   1.039   1.324   1.444   1.403   1.264   1.090   0.910   0.716   0.502
   0.289   0.126
   0.182   0.218   0.314   0.444   0.594   0.785   1.064   1.455   1.901   2.253
   2.345   2.102   1.607   1.055   0.628   0.404   0.346   0.363   0.378   0.363
   0.346   0.404   0.628   1.055   1.607   2.102   2.345   2.253   1.901   1.455
   1.064   0.785   0.594   0.444   0.314   0.218   0.182   0.218   0.314   0.444
   0.594   0.785   1.064   1.455   1.901   2.253   2.345   2.102   1.607   1.055
   0.628   0.404   0.346   0.363   0.378   0.363   0.346   0.404   0.628   1.055
   1.607   2.102   2.345   2.253   1.901   1.455   1.064   0.785   0.594   0.444
   0.314   0.218
   0.034   0.030   0.022   0.025   0.066   0.204   0.526   1.093   1.850   2.590
   3.041   3.034   2.618   2.005   1.410   0.937   0.591   0.366   0.286   0.366
   0.591   0.937   1.410   2.005   2.618   3.034   3.041   2.590   1.850   1.093
   0.526   0.204   0.066   0.025   0.022   0.030   0.034   0.030   0.022   0.025
   0.066   0.204   0.526   1.093   1.850   2.590   3.041   3.034   2.618   2.005
   1.410   0.937   0.591   0.366   0.286   0.366   0.591   0.937   1.410   2.005
   2.618   3.034   3.041   2.590   1.850   1.093   0.526   0.204   0.066   0.025
   0.022   0.030
  -0.115  -0.138  -0.189  -0.229  -0.228  -0.149   0.080   0.551   1.268   2.064
   2.659   2.853   2.674   2.320   1.962   1.629   1.289   0.993   0.870   0.993
   1.289   1.629   1.962   2.320   2.674   2.853   2.659   2.064   1.268   0.551
   0.080  -0.149  -0.228  -0.229  -0.189  -0.138  -0.115  -0.138  -0.189  -0.229
  -0.228  -0.149   0.080   0.551   1.268   2.064   2.659   2.853   2.674   2.320
   1.962   1.629   1.289   0.993   0.870   0.993   1.289   1.629   1.962   2.320
   2.674   2.853   2.659   2.064   1.268   0.551   0.080  -0.149  -0.228  -0.229
  -0.189  -0.138
   0.039   0.014  -0.028  -0.034   0.008   0.064   0.136   0.302   0.637   1.089
   1.472   1.643   1.662   1.721   1.910   2.107   2.142   2.031   1.957   2.031
   2.142   2.107   1.910   1.721   1.662   1.643   1.472   1.089   0.637   0.302
   0.136   0.064   0.008  -0.034  -0.028   0.014   0.039   0.014  -0.028  -0.034
   0.008   0.064   0.136   0.302   0.637   1.089   1.472   1.643   1.662   1.721
   1.910   2.107   2.142   2.031   1.957   2.031   2.142   2.107   1.910   1.721
   1.662   1.643   1.472   1.089   0.637   0.302   0.136   0.064   0.008  -0.034
  -0.028   0.014
   0.005  -0.020  -0.054  -0.022   0.094   0.225   0.291   0.303   0.345   0.450
   0.536   0.538   0.569   0.851   1.444   2.113   2.548   2.680   2.683   2.680
   2.548   2.113   1.444   0.851   0.569   0.538   0.536   0.450   0.345   0.303
   0.291   0.225   0.094  -0.022  -0.054  -0.020   0.005  -0.020  -0.054  -0.022
   0.094   0.225   0.291   0.303   0.345   0.450   0.536   0.538   0.569   0.851
   1.444   2.113   2.548   2.680   2.683   2.680   2.548   2.113   1.444   0.851
   0.569   0.538   0.536   0.450   0.345   0.303   0.291   0.225   0.094  -0.022
  -0.054  -0.020
  -0.241  -0.264  -0.309  -0.309  -0.203  -0.009   0.182   0.304   0.378   0.439
   0.444   0.343   0.252   0.423   0.969   1.677   2.200   2.408   2.440   2.408
   2.200   1.677   0.969   0.423   0.252   0.343   0.444   0.439   0.378   0.304
   0.182  -0.009  -0.203  -0.309  -0.309  -0.264  -0.241  -0.264  -0.309  -0.309
  -0.203  -0.009   0.182   0.304   0.378   0.439   0.444   0.343   0.252   0.423
   0.969   1.677   2.200   2.408   2.440   2.408   2.200   1.677   0.969   0.423
   0.252   0.343   0.444   0.439   0.378   0.304   0.182  -0.009  -0.203  -0.309
  -0.309  -0.264
   0.499   0.488   0.422   0.283   0.149   0.130   0.228   0.364   0.498   0.645
   0.749   0.701   0.523   0.438   0.638   1.037   1.364   1.484   1.494   1.484
   1.364   1.037   0.638   0.438   0.523   0.701   0.749   0.645   0.498   0.364
   0.228   0.130   0.149   0.283   0.422   0.488   0.499   0.488   0.422   0.283
   0.149   0.130   0.228   0.364   0.498   0.645   0.749   0.701   0.523   0.438
   0.638   1.037   1.364   1.484   1.494   1.484   1.364   1.037   0.638   0.438
   0.523   0.701   0.749   0.645   0.498   0.364   0.228   0.130   0.149   0.283
   0.422   0.488
   2.846   2.860   2.779   2.425   1.845   1.280   0.888   0.656   0.555   0.614
   0.779   0.856   0.715   0.477   0.375   0.458   0.565   0.581   0.565   0.581
   0.565   0.458   0.375   0.477   0.715   0.856   0.779   0.614   0.555   0.656
   0.888   1.280   1.845   2.425   2.779   2.860   2.846   2.860   2.779   2.425
   1.845   1.280   0.888   0.656   0.555   0.614   0.779   0.856   0.715   0.477
   0.375   0.458   0.565   0.581   0.565   0.581   0.565   0.458   0.375   0.477
   0.715   0.856   0.779   0.614   0.555   0.656   0.888   1.280   1.845   2.425
   2.779   2.860
   5.170   5.205   5.117   4.595   3.642   2.573   1.669   0.992   0.556   0.425
   0.565   0.728   0.666   0.408   0.187   0.125   0.131   0.106   0.082   0.106
   0.131   0.125   0.187   0.408   0.666   0.728   0.565   0.425   0.556   0.992
   1.669   2.573   3.642   4.595   5.117   5.205   5.170   5.205   5.117   4.595
   3.642   2.573   1.669   0.992   0.556   0.425   0.565   0.728   0.666   0.408
   0.187   0.125   0.131   0.106   0.082   0.106   0.131   0.125   0.187   0.408
   0.666   0.728   0.565   0.425   0.556   0.992   1.669   2.573   3.642   4.595
   5.117   5.205
TEXTURE_INDEX=   5.8522
ERR_CF 220         1080     446   55.43   25.27
ERR_CF 200         1078     396   47.88   16.96
ERR_CF 111         1054     302  122.27   18.94
